<?xml version="1.0" encoding="utf-8"  standalone="no"?>
<!DOCTYPE svg PUBLIC "-//W3C//DTD SVG 1.1//EN"
 "http://www.w3.org/Graphics/SVG/1.1/DTD/svg11.dtd">
<svg 
 viewBox="0 0 1280 720"
 xmlns="http://www.w3.org/2000/svg"
 xmlns:xlink="http://www.w3.org/1999/xlink"
>

<title>Gnuplot</title>
<desc>Produced by GNUPLOT 5.0 patchlevel 5 </desc>

<g id="gnuplot_canvas">

<rect x="0" y="0" width="1280" height="720" fill="none"/>
<defs>

	<circle id='gpDot' r='0.5' stroke-width='0.5'/>
	<path id='gpPt0' stroke-width='0.222' stroke='currentColor' d='M-1,0 h2 M0,-1 v2'/>
	<path id='gpPt1' stroke-width='0.222' stroke='currentColor' d='M-1,-1 L1,1 M1,-1 L-1,1'/>
	<path id='gpPt2' stroke-width='0.222' stroke='currentColor' d='M-1,0 L1,0 M0,-1 L0,1 M-1,-1 L1,1 M-1,1 L1,-1'/>
	<rect id='gpPt3' stroke-width='0.222' stroke='currentColor' x='-1' y='-1' width='2' height='2'/>
	<rect id='gpPt4' stroke-width='0.222' stroke='currentColor' fill='currentColor' x='-1' y='-1' width='2' height='2'/>
	<circle id='gpPt5' stroke-width='0.222' stroke='currentColor' cx='0' cy='0' r='1'/>
	<use xlink:href='#gpPt5' id='gpPt6' fill='currentColor' stroke='none'/>
	<path id='gpPt7' stroke-width='0.222' stroke='currentColor' d='M0,-1.33 L-1.33,0.67 L1.33,0.67 z'/>
	<use xlink:href='#gpPt7' id='gpPt8' fill='currentColor' stroke='none'/>
	<use xlink:href='#gpPt7' id='gpPt9' stroke='currentColor' transform='rotate(180)'/>
	<use xlink:href='#gpPt9' id='gpPt10' fill='currentColor' stroke='none'/>
	<use xlink:href='#gpPt3' id='gpPt11' stroke='currentColor' transform='rotate(45)'/>
	<use xlink:href='#gpPt11' id='gpPt12' fill='currentColor' stroke='none'/>
	<path id='gpPt13' stroke-width='0.222' stroke='currentColor' d='M0,1.330 L1.265,0.411 L0.782,-1.067 L-0.782,-1.076 L-1.265,0.411 z'/>
	<use xlink:href='#gpPt13' id='gpPt14' fill='currentColor' stroke='none'/>
	<filter id='textbox' filterUnits='objectBoundingBox' x='0' y='0' height='1' width='1'>
	  <feFlood flood-color='white' flood-opacity='1' result='bgnd'/>
	  <feComposite in='SourceGraphic' in2='bgnd' operator='atop'/>
	</filter>
	<filter id='greybox' filterUnits='objectBoundingBox' x='0' y='0' height='1' width='1'>
	  <feFlood flood-color='lightgrey' flood-opacity='1' result='grey'/>
	  <feComposite in='SourceGraphic' in2='grey' operator='atop'/>
	</filter>
</defs>
<g fill="none" color="white" stroke="currentColor" stroke-width="1.00" stroke-linecap="butt" stroke-linejoin="miter">
</g>
<g fill="none" color="black" stroke="currentColor" stroke-width="1.00" stroke-linecap="butt" stroke-linejoin="miter">
	<path stroke='black'  d='M80.2,662.4 L89.2,662.4  '/>	<g transform="translate(71.9,666.3)" stroke="none" fill="black" font-family="Helvetica" font-size="12.00"  text-anchor="end">
		<text><tspan font-family="Helvetica" > 0</tspan></text>
	</g>
</g>
<g fill="none" color="black" stroke="currentColor" stroke-width="1.00" stroke-linecap="butt" stroke-linejoin="miter">
	<path stroke='black'  d='M80.2,540.7 L89.2,540.7  '/>	<g transform="translate(71.9,544.6)" stroke="none" fill="black" font-family="Helvetica" font-size="12.00"  text-anchor="end">
		<text><tspan font-family="Helvetica" > 0.05</tspan></text>
	</g>
</g>
<g fill="none" color="black" stroke="currentColor" stroke-width="1.00" stroke-linecap="butt" stroke-linejoin="miter">
	<path stroke='black'  d='M80.2,419.1 L89.2,419.1  '/>	<g transform="translate(71.9,423.0)" stroke="none" fill="black" font-family="Helvetica" font-size="12.00"  text-anchor="end">
		<text><tspan font-family="Helvetica" > 0.1</tspan></text>
	</g>
</g>
<g fill="none" color="black" stroke="currentColor" stroke-width="1.00" stroke-linecap="butt" stroke-linejoin="miter">
	<path stroke='black'  d='M80.2,297.4 L89.2,297.4  '/>	<g transform="translate(71.9,301.3)" stroke="none" fill="black" font-family="Helvetica" font-size="12.00"  text-anchor="end">
		<text><tspan font-family="Helvetica" > 0.15</tspan></text>
	</g>
</g>
<g fill="none" color="black" stroke="currentColor" stroke-width="1.00" stroke-linecap="butt" stroke-linejoin="miter">
	<path stroke='black'  d='M80.2,175.8 L89.2,175.8  '/>	<g transform="translate(71.9,179.7)" stroke="none" fill="black" font-family="Helvetica" font-size="12.00"  text-anchor="end">
		<text><tspan font-family="Helvetica" > 0.2</tspan></text>
	</g>
</g>
<g fill="none" color="black" stroke="currentColor" stroke-width="1.00" stroke-linecap="butt" stroke-linejoin="miter">
	<path stroke='black'  d='M80.2,54.1 L89.2,54.1  '/>	<g transform="translate(71.9,58.0)" stroke="none" fill="black" font-family="Helvetica" font-size="12.00"  text-anchor="end">
		<text><tspan font-family="Helvetica" > 0.25</tspan></text>
	</g>
</g>
<g fill="none" color="black" stroke="currentColor" stroke-width="1.00" stroke-linecap="butt" stroke-linejoin="miter">
	<path stroke='black'  d='M155.6,662.4 L155.6,653.4  '/>	<g transform="translate(155.6,684.3)" stroke="none" fill="black" font-family="Helvetica" font-size="12.00"  text-anchor="middle">
		<text><tspan font-family="Helvetica" > 5</tspan></text>
	</g>
</g>
<g fill="none" color="black" stroke="currentColor" stroke-width="1.00" stroke-linecap="butt" stroke-linejoin="miter">
	<path stroke='black'  d='M270.7,662.4 L270.7,653.4  '/>	<g transform="translate(270.7,684.3)" stroke="none" fill="black" font-family="Helvetica" font-size="12.00"  text-anchor="middle">
		<text><tspan font-family="Helvetica" > 6</tspan></text>
	</g>
</g>
<g fill="none" color="black" stroke="currentColor" stroke-width="1.00" stroke-linecap="butt" stroke-linejoin="miter">
	<path stroke='black'  d='M385.8,662.4 L385.8,653.4  '/>	<g transform="translate(385.8,684.3)" stroke="none" fill="black" font-family="Helvetica" font-size="12.00"  text-anchor="middle">
		<text><tspan font-family="Helvetica" > 7</tspan></text>
	</g>
</g>
<g fill="none" color="black" stroke="currentColor" stroke-width="1.00" stroke-linecap="butt" stroke-linejoin="miter">
	<path stroke='black'  d='M500.8,662.4 L500.8,653.4  '/>	<g transform="translate(500.8,684.3)" stroke="none" fill="black" font-family="Helvetica" font-size="12.00"  text-anchor="middle">
		<text><tspan font-family="Helvetica" > 8</tspan></text>
	</g>
</g>
<g fill="none" color="black" stroke="currentColor" stroke-width="1.00" stroke-linecap="butt" stroke-linejoin="miter">
	<path stroke='black'  d='M615.9,662.4 L615.9,653.4  '/>	<g transform="translate(615.9,684.3)" stroke="none" fill="black" font-family="Helvetica" font-size="12.00"  text-anchor="middle">
		<text><tspan font-family="Helvetica" > 9</tspan></text>
	</g>
</g>
<g fill="none" color="black" stroke="currentColor" stroke-width="1.00" stroke-linecap="butt" stroke-linejoin="miter">
	<path stroke='black'  d='M731.0,662.4 L731.0,653.4  '/>	<g transform="translate(731.0,684.3)" stroke="none" fill="black" font-family="Helvetica" font-size="12.00"  text-anchor="middle">
		<text><tspan font-family="Helvetica" > 10</tspan></text>
	</g>
</g>
<g fill="none" color="black" stroke="currentColor" stroke-width="1.00" stroke-linecap="butt" stroke-linejoin="miter">
	<path stroke='black'  d='M846.1,662.4 L846.1,653.4  '/>	<g transform="translate(846.1,684.3)" stroke="none" fill="black" font-family="Helvetica" font-size="12.00"  text-anchor="middle">
		<text><tspan font-family="Helvetica" > 11</tspan></text>
	</g>
</g>
<g fill="none" color="black" stroke="currentColor" stroke-width="1.00" stroke-linecap="butt" stroke-linejoin="miter">
	<path stroke='black'  d='M961.1,662.4 L961.1,653.4  '/>	<g transform="translate(961.1,684.3)" stroke="none" fill="black" font-family="Helvetica" font-size="12.00"  text-anchor="middle">
		<text><tspan font-family="Helvetica" > 12</tspan></text>
	</g>
</g>
<g fill="none" color="black" stroke="currentColor" stroke-width="1.00" stroke-linecap="butt" stroke-linejoin="miter">
</g>
<g fill="none" color="black" stroke="currentColor" stroke-width="1.00" stroke-linecap="butt" stroke-linejoin="miter">
	<path stroke='black'  d='M80.2,54.1 L80.2,662.4 L1013.6,662.4 L1013.6,54.1 L80.2,54.1 Z  '/></g>
<g fill="none" color="black" stroke="currentColor" stroke-width="1.00" stroke-linecap="butt" stroke-linejoin="miter">
	<g transform="translate(17.0,358.3) rotate(270)" stroke="none" fill="black" font-family="Helvetica" font-size="12.00"  text-anchor="middle">
		<text><tspan font-family="Helvetica" >Density (a.u.)</tspan></text>
	</g>
</g>
<g fill="none" color="black" stroke="currentColor" stroke-width="1.00" stroke-linecap="butt" stroke-linejoin="miter">
	<g transform="translate(546.9,711.3)" stroke="none" fill="black" font-family="Helvetica" font-size="12.00"  text-anchor="middle">
		<text><tspan font-family="Helvetica" >Average time (us)</tspan></text>
	</g>
</g>
<g fill="none" color="black" stroke="currentColor" stroke-width="1.00" stroke-linecap="butt" stroke-linejoin="miter">
	<g transform="translate(546.9,31.0)" stroke="none" fill="black" font-family="Helvetica" font-size="12.00"  text-anchor="middle">
		<text><tspan font-family="Helvetica" >dlist arena mutex init no_drop: MAD</tspan></text>
	</g>
</g>
	<g id="gnuplot_plot_1" ><title>Bootstrap distribution</title>
<g fill="none" color="white" stroke="black" stroke-width="2.00" stroke-linecap="butt" stroke-linejoin="miter">
</g>
<g fill="none" color="black" stroke="currentColor" stroke-width="2.00" stroke-linecap="butt" stroke-linejoin="miter">
	<g transform="translate(1089.0,67.0)" stroke="none" fill="black" font-family="Helvetica" font-size="12.00"  text-anchor="start">
		<text><tspan font-family="Helvetica" >Bootstrap distribution</tspan></text>
	</g>
</g>
<g fill="none" color="black" stroke="currentColor" stroke-width="2.00" stroke-linecap="butt" stroke-linejoin="miter">
	<path stroke='rgb( 31, 120, 180)'  d='M1038.5,63.1 L1080.7,63.1 M80.2,640.5 L82.1,639.5 L83.9,638.5 L85.8,637.4 L87.7,636.3 L89.6,635.1
		L91.4,633.7 L93.3,632.3 L95.2,630.8 L97.0,629.1 L98.9,627.4 L100.8,625.5 L102.6,623.5 L104.5,621.3
		L106.4,619.0 L108.3,616.5 L110.1,613.8 L112.0,610.9 L113.9,607.8 L115.7,604.5 L117.6,601.0 L119.5,597.3
		L121.4,593.3 L123.2,589.0 L125.1,584.5 L127.0,579.8 L128.8,574.8 L130.7,569.5 L132.6,564.0 L134.4,558.2
		L136.3,552.2 L138.2,545.9 L140.1,539.4 L141.9,532.8 L143.8,525.9 L145.7,518.9 L147.5,511.8 L149.4,504.6
		L151.3,497.3 L153.2,489.9 L155.0,482.6 L156.9,475.3 L158.8,468.1 L160.6,461.0 L162.5,454.0 L164.4,447.2
		L166.2,440.5 L168.1,434.1 L170.0,427.9 L171.9,421.9 L173.7,416.2 L175.6,410.7 L177.5,405.4 L179.3,400.4
		L181.2,395.7 L183.1,391.1 L185.0,386.8 L186.8,382.6 L188.7,378.6 L190.6,374.8 L192.4,371.1 L194.3,367.4
		L196.2,363.8 L198.0,360.3 L199.9,356.8 L201.8,353.3 L203.7,349.7 L205.5,346.1 L207.4,342.5 L209.3,338.8
		L211.1,335.1 L213.0,331.3 L214.9,327.4 L216.7,323.5 L218.6,319.6 L220.5,315.6 L222.4,311.7 L224.2,307.8
		L226.1,303.9 L228.0,300.1 L229.8,296.3 L231.7,292.7 L233.6,289.1 L235.5,285.7 L237.3,282.4 L239.2,279.3
		L241.1,276.3 L242.9,273.4 L244.8,270.7 L246.7,268.1 L248.5,265.6 L250.4,263.2 L252.3,260.9 L254.2,258.7
		L256.0,256.5 L257.9,254.3 L259.8,252.1 L261.6,249.9 L263.5,247.7 L265.4,245.4 L267.3,243.0 L269.1,240.4
		L271.0,237.8 L272.9,235.1 L274.7,232.2 L276.6,229.3 L278.5,226.2 L280.3,223.1 L282.2,219.9 L284.1,216.6
		L286.0,213.4 L287.8,210.2 L289.7,207.2 L291.6,204.3 L293.4,201.6 L295.3,199.2 L297.2,197.2 L299.1,195.6
		L300.9,194.6 L302.8,194.1 L304.7,194.2 L306.5,195.0 L308.4,196.6 L310.3,198.9 L312.1,202.1 L314.0,206.0
		L315.9,210.7 L317.8,216.3 L319.6,222.6 L321.5,229.6 L323.4,237.3 L325.2,245.5 L327.1,254.3 L329.0,263.4
		L330.9,272.8 L332.7,282.4 L334.6,292.1 L336.5,301.7 L338.3,311.1 L340.2,320.2 L342.1,328.9 L343.9,337.1
		L345.8,344.7 L347.7,351.6 L349.6,357.7 L351.4,362.9 L353.3,367.3 L355.2,370.8 L357.0,373.4 L358.9,375.1
		L360.8,375.9 L362.7,375.9 L364.5,375.1 L366.4,373.6 L368.3,371.4 L370.1,368.6 L372.0,365.3 L373.9,361.7
		L375.7,357.8 L377.6,353.7 L379.5,349.5 L381.4,345.3 L383.2,341.1 L385.1,337.1 L387.0,333.4 L388.8,329.8
		L390.7,326.6 L392.6,323.8 L394.5,321.2 L396.3,319.1 L398.2,317.3 L400.1,315.8 L401.9,314.7 L403.8,313.8
		L405.7,313.3 L407.5,312.9 L409.4,312.8 L411.3,312.8 L413.2,313.0 L415.0,313.3 L416.9,313.7 L418.8,314.1
		L420.6,314.6 L422.5,315.1 L424.4,315.6 L426.3,316.1 L428.1,316.6 L430.0,317.1 L431.9,317.6 L433.7,318.1
		L435.6,318.6 L437.5,319.0 L439.3,319.4 L441.2,319.7 L443.1,319.9 L445.0,320.0 L446.8,320.0 L448.7,319.9
		L450.6,319.7 L452.4,319.2 L454.3,318.6 L456.2,317.7 L458.0,316.7 L459.9,315.4 L461.8,313.9 L463.7,312.1
		L465.5,310.1 L467.4,307.9 L469.3,305.5 L471.1,302.9 L473.0,300.2 L474.9,297.4 L476.8,294.5 L478.6,291.5
		L480.5,288.6 L482.4,285.7 L484.2,282.8 L486.1,280.0 L488.0,277.3 L489.8,274.8 L491.7,272.4 L493.6,270.1
		L495.5,267.9 L497.3,265.8 L499.2,263.8 L501.1,261.9 L502.9,260.0 L504.8,258.0 L506.7,256.0 L508.6,253.9
		L510.4,251.7 L512.3,249.3 L514.2,246.6 L516.0,243.8 L517.9,240.7 L519.8,237.3 L521.6,233.7 L523.5,229.9
		L525.4,225.9 L527.3,221.7 L529.1,217.4 L531.0,212.9 L532.9,208.4 L534.7,203.9 L536.6,199.4 L538.5,195.0
		L540.4,190.6 L542.2,186.4 L544.1,182.3 L546.0,178.4 L547.8,174.6 L549.7,171.1 L551.6,167.7 L553.4,164.5
		L555.3,161.5 L557.2,158.6 L559.1,155.9 L560.9,153.3 L562.8,150.9 L564.7,148.6 L566.5,146.4 L568.4,144.4
		L570.3,142.4 L572.2,140.5 L574.0,138.8 L575.9,137.1 L577.8,135.6 L579.6,134.1 L581.5,132.7 L583.4,131.4
		L585.2,130.1 L587.1,128.9 L589.0,127.7 L590.9,126.5 L592.7,125.2 L594.6,123.9 L596.5,122.6 L598.3,121.2
		L600.2,119.7 L602.1,118.2 L604.0,116.6 L605.8,115.0 L607.7,113.4 L609.6,111.8 L611.4,110.3 L613.3,109.0
		L615.2,107.8 L617.0,106.9 L618.9,106.4 L620.8,106.3 L622.7,106.7 L624.5,107.7 L626.4,109.2 L628.3,111.4
		L630.1,114.3 L632.0,117.9 L633.9,122.2 L635.8,127.2 L637.6,132.9 L639.5,139.2 L641.4,146.0 L643.2,153.4
		L645.1,161.1 L647.0,169.1 L648.8,177.4 L650.7,185.7 L652.6,194.0 L654.5,202.1 L656.3,210.1 L658.2,217.7
		L660.1,224.9 L661.9,231.5 L663.8,237.7 L665.7,243.2 L667.5,248.1 L669.4,252.3 L671.3,256.0 L673.2,259.0
		L675.0,261.4 L676.9,263.3 L678.8,264.7 L680.6,265.8 L682.5,266.5 L684.4,267.0 L686.3,267.4 L688.1,267.8
		L690.0,268.3 L691.9,268.8 L693.7,269.6 L695.6,270.7 L697.5,272.1 L699.3,273.8 L701.2,276.0 L703.1,278.5
		L705.0,281.4 L706.8,284.7 L708.7,288.4 L710.6,292.4 L712.4,296.5 L714.3,300.9 L716.2,305.4 L718.1,310.0
		L719.9,314.5 L721.8,318.9 L723.7,323.2 L725.5,327.3 L727.4,331.1 L729.3,334.6 L731.1,337.9 L733.0,340.8
		L734.9,343.4 L736.8,345.7 L738.6,347.7 L740.5,349.5 L742.4,351.1 L744.2,352.6 L746.1,354.0 L748.0,355.3
		L749.9,356.7 L751.7,358.2 L753.6,359.8 L755.5,361.7 L757.3,363.7 L759.2,366.0 L761.1,368.6 L762.9,371.4
		L764.8,374.5 L766.7,377.9 L768.6,381.4 L770.4,385.2 L772.3,389.1 L774.2,393.1 L776.0,397.2 L777.9,401.3
		L779.8,405.3 L781.7,409.3 L783.5,413.2 L785.4,416.9 L787.3,420.5 L789.1,423.9 L791.0,427.1 L792.9,430.1
		L794.7,432.9 L796.6,435.6 L798.5,438.1 L800.4,440.5 L802.2,442.7 L804.1,444.9 L806.0,447.0 L807.8,449.1
		L809.7,451.1 L811.6,453.1 L813.5,455.1 L815.3,457.1 L817.2,459.2 L819.1,461.3 L820.9,463.4 L822.8,465.5
		L824.7,467.6 L826.5,469.8 L828.4,472.0 L830.3,474.2 L832.2,476.4 L834.0,478.6 L835.9,480.8 L837.8,483.0
		L839.6,485.3 L841.5,487.5 L843.4,489.8 L845.3,492.1 L847.1,494.4 L849.0,496.8 L850.9,499.2 L852.7,501.7
		L854.6,504.3 L856.5,506.9 L858.3,509.6 L860.2,512.5 L862.1,515.3 L864.0,518.3 L865.8,521.3 L867.7,524.4
		L869.6,527.6 L871.4,530.8 L873.3,534.0 L875.2,537.2 L877.1,540.5 L878.9,543.7 L880.8,546.9 L882.7,550.1
		L884.5,553.2 L886.4,556.3 L888.3,559.3 L890.1,562.2 L892.0,565.1 L893.9,567.9 L895.8,570.5 L897.6,573.1
		L899.5,575.6 L901.4,578.1 L903.2,580.4 L905.1,582.7 L907.0,584.9 L908.8,587.0 L910.7,589.0 L912.6,591.0
		L914.5,593.0 L916.3,594.9 L918.2,596.7 L920.1,598.5 L921.9,600.2 L923.8,601.9 L925.7,603.6 L927.6,605.1
		L929.4,606.7 L931.3,608.2 L933.2,609.6 L935.0,611.0 L936.9,612.3 L938.8,613.5 L940.6,614.7 L942.5,615.8
		L944.4,616.9 L946.3,617.9 L948.1,618.8 L950.0,619.7 L951.9,620.5 L953.7,621.3 L955.6,622.0 L957.5,622.7
		L959.4,623.3 L961.2,623.9 L963.1,624.5 L965.0,625.0 L966.8,625.6 L968.7,626.1 L970.6,626.7 L972.4,627.2
		L974.3,627.8 L976.2,628.3 L978.1,628.9 L979.9,629.5 L981.8,630.2 L983.7,630.8 L985.5,631.5 L987.4,632.1
		L989.3,632.8 L991.2,633.5 L993.0,634.2 L994.9,635.0 L996.8,635.7 L998.6,636.4 L1000.5,637.1 L1002.4,637.8
		L1004.2,638.4 L1006.1,639.1 L1008.0,639.7 L1009.9,640.3 L1011.7,640.8 L1013.6,641.3  '/></g>
	</g>
	<g id="gnuplot_plot_2" ><title>Confidence interval</title>
<g fill="none" color="white" stroke="rgb( 31, 120, 180)" stroke-width="1.00" stroke-linecap="butt" stroke-linejoin="miter">
</g>
<g fill="none" color="black" stroke="currentColor" stroke-width="1.00" stroke-linecap="butt" stroke-linejoin="miter">
	<g transform="translate(1089.0,85.0)" stroke="none" fill="black" font-family="Helvetica" font-size="12.00"  text-anchor="start">
		<text><tspan font-family="Helvetica" >Confidence interval</tspan></text>
	</g>
</g>
<g fill="none" color="black" stroke="currentColor" stroke-width="1.00" stroke-linecap="butt" stroke-linejoin="miter">
	<g stroke='none' shape-rendering='crispEdges'>
		<polygon fill = 'rgb( 31, 120, 180)' fill-opacity = '0.250000' points = '1038.5,85.6 1080.7,85.6 1080.7,76.6 1038.5,76.6 '/>
		<polygon fill = 'rgb( 31, 120, 180)' fill-opacity = '0.250000' points = '166.2,440.5 166.2,662.4 168.1,662.4 168.1,434.1 '/>
		<polygon fill = 'rgb( 31, 120, 180)' fill-opacity = '0.250000' points = '168.1,434.1 168.1,662.4 170.0,662.4 170.0,427.9 '/>
		<polygon fill = 'rgb( 31, 120, 180)' fill-opacity = '0.250000' points = '170.0,427.9 170.0,662.4 171.9,662.4 171.9,421.9 '/>
		<polygon fill = 'rgb( 31, 120, 180)' fill-opacity = '0.250000' points = '171.9,421.9 171.9,662.4 173.7,662.4 173.7,416.2 '/>
		<polygon fill = 'rgb( 31, 120, 180)' fill-opacity = '0.250000' points = '173.7,416.2 173.7,662.4 175.6,662.4 175.6,410.7 '/>
		<polygon fill = 'rgb( 31, 120, 180)' fill-opacity = '0.250000' points = '175.6,410.7 175.6,662.4 177.5,662.4 177.5,405.4 '/>
		<polygon fill = 'rgb( 31, 120, 180)' fill-opacity = '0.250000' points = '177.5,405.4 177.5,662.4 179.3,662.4 179.3,400.4 '/>
		<polygon fill = 'rgb( 31, 120, 180)' fill-opacity = '0.250000' points = '179.3,400.4 179.3,662.4 181.2,662.4 181.2,395.7 '/>
		<polygon fill = 'rgb( 31, 120, 180)' fill-opacity = '0.250000' points = '181.2,395.7 181.2,662.4 183.1,662.4 183.1,391.1 '/>
		<polygon fill = 'rgb( 31, 120, 180)' fill-opacity = '0.250000' points = '183.1,391.1 183.1,662.4 185.0,662.4 185.0,386.8 '/>
		<polygon fill = 'rgb( 31, 120, 180)' fill-opacity = '0.250000' points = '185.0,386.8 185.0,662.4 186.8,662.4 186.8,382.6 '/>
		<polygon fill = 'rgb( 31, 120, 180)' fill-opacity = '0.250000' points = '186.8,382.6 186.8,662.4 188.7,662.4 188.7,378.6 '/>
		<polygon fill = 'rgb( 31, 120, 180)' fill-opacity = '0.250000' points = '188.7,378.6 188.7,662.4 190.6,662.4 190.6,374.8 '/>
		<polygon fill = 'rgb( 31, 120, 180)' fill-opacity = '0.250000' points = '190.6,374.8 190.6,662.4 192.4,662.4 192.4,371.1 '/>
		<polygon fill = 'rgb( 31, 120, 180)' fill-opacity = '0.250000' points = '192.4,371.1 192.4,662.4 194.3,662.4 194.3,367.4 '/>
		<polygon fill = 'rgb( 31, 120, 180)' fill-opacity = '0.250000' points = '194.3,367.4 194.3,662.4 196.2,662.4 196.2,363.8 '/>
		<polygon fill = 'rgb( 31, 120, 180)' fill-opacity = '0.250000' points = '196.2,363.8 196.2,662.4 198.0,662.4 198.0,360.3 '/>
		<polygon fill = 'rgb( 31, 120, 180)' fill-opacity = '0.250000' points = '198.0,360.3 198.0,662.4 199.9,662.4 199.9,356.8 '/>
		<polygon fill = 'rgb( 31, 120, 180)' fill-opacity = '0.250000' points = '199.9,356.8 199.9,662.4 201.8,662.4 201.8,353.3 '/>
		<polygon fill = 'rgb( 31, 120, 180)' fill-opacity = '0.250000' points = '201.8,353.3 201.8,662.4 203.7,662.4 203.7,349.7 '/>
		<polygon fill = 'rgb( 31, 120, 180)' fill-opacity = '0.250000' points = '203.7,349.7 203.7,662.4 205.5,662.4 205.5,346.1 '/>
		<polygon fill = 'rgb( 31, 120, 180)' fill-opacity = '0.250000' points = '205.5,346.1 205.5,662.4 207.4,662.4 207.4,342.5 '/>
		<polygon fill = 'rgb( 31, 120, 180)' fill-opacity = '0.250000' points = '207.4,342.5 207.4,662.4 209.3,662.4 209.3,338.8 '/>
		<polygon fill = 'rgb( 31, 120, 180)' fill-opacity = '0.250000' points = '209.3,338.8 209.3,662.4 211.1,662.4 211.1,335.1 '/>
		<polygon fill = 'rgb( 31, 120, 180)' fill-opacity = '0.250000' points = '211.1,335.1 211.1,662.4 213.0,662.4 213.0,331.3 '/>
		<polygon fill = 'rgb( 31, 120, 180)' fill-opacity = '0.250000' points = '213.0,331.3 213.0,662.4 214.9,662.4 214.9,327.4 '/>
		<polygon fill = 'rgb( 31, 120, 180)' fill-opacity = '0.250000' points = '214.9,327.4 214.9,662.4 216.7,662.4 216.7,323.5 '/>
		<polygon fill = 'rgb( 31, 120, 180)' fill-opacity = '0.250000' points = '216.7,323.5 216.7,662.4 218.6,662.4 218.6,319.6 '/>
		<polygon fill = 'rgb( 31, 120, 180)' fill-opacity = '0.250000' points = '218.6,319.6 218.6,662.4 220.5,662.4 220.5,315.6 '/>
		<polygon fill = 'rgb( 31, 120, 180)' fill-opacity = '0.250000' points = '220.5,315.6 220.5,662.4 222.4,662.4 222.4,311.7 '/>
		<polygon fill = 'rgb( 31, 120, 180)' fill-opacity = '0.250000' points = '222.4,311.7 222.4,662.4 224.2,662.4 224.2,307.8 '/>
		<polygon fill = 'rgb( 31, 120, 180)' fill-opacity = '0.250000' points = '224.2,307.8 224.2,662.4 226.1,662.4 226.1,303.9 '/>
		<polygon fill = 'rgb( 31, 120, 180)' fill-opacity = '0.250000' points = '226.1,303.9 226.1,662.4 228.0,662.4 228.0,300.1 '/>
		<polygon fill = 'rgb( 31, 120, 180)' fill-opacity = '0.250000' points = '228.0,300.1 228.0,662.4 229.8,662.4 229.8,296.3 '/>
		<polygon fill = 'rgb( 31, 120, 180)' fill-opacity = '0.250000' points = '229.8,296.3 229.8,662.4 231.7,662.4 231.7,292.7 '/>
		<polygon fill = 'rgb( 31, 120, 180)' fill-opacity = '0.250000' points = '231.7,292.7 231.7,662.4 233.6,662.4 233.6,289.1 '/>
		<polygon fill = 'rgb( 31, 120, 180)' fill-opacity = '0.250000' points = '233.6,289.1 233.6,662.4 235.5,662.4 235.5,285.7 '/>
		<polygon fill = 'rgb( 31, 120, 180)' fill-opacity = '0.250000' points = '235.5,285.7 235.5,662.4 237.3,662.4 237.3,282.4 '/>
		<polygon fill = 'rgb( 31, 120, 180)' fill-opacity = '0.250000' points = '237.3,282.4 237.3,662.4 239.2,662.4 239.2,279.3 '/>
		<polygon fill = 'rgb( 31, 120, 180)' fill-opacity = '0.250000' points = '239.2,279.3 239.2,662.4 241.1,662.4 241.1,276.3 '/>
		<polygon fill = 'rgb( 31, 120, 180)' fill-opacity = '0.250000' points = '241.1,276.3 241.1,662.4 242.9,662.4 242.9,273.4 '/>
		<polygon fill = 'rgb( 31, 120, 180)' fill-opacity = '0.250000' points = '242.9,273.4 242.9,662.4 244.8,662.4 244.8,270.7 '/>
		<polygon fill = 'rgb( 31, 120, 180)' fill-opacity = '0.250000' points = '244.8,270.7 244.8,662.4 246.7,662.4 246.7,268.1 '/>
		<polygon fill = 'rgb( 31, 120, 180)' fill-opacity = '0.250000' points = '246.7,268.1 246.7,662.4 248.5,662.4 248.5,265.6 '/>
		<polygon fill = 'rgb( 31, 120, 180)' fill-opacity = '0.250000' points = '248.5,265.6 248.5,662.4 250.4,662.4 250.4,263.2 '/>
		<polygon fill = 'rgb( 31, 120, 180)' fill-opacity = '0.250000' points = '250.4,263.2 250.4,662.4 252.3,662.4 252.3,260.9 '/>
		<polygon fill = 'rgb( 31, 120, 180)' fill-opacity = '0.250000' points = '252.3,260.9 252.3,662.4 254.2,662.4 254.2,258.7 '/>
		<polygon fill = 'rgb( 31, 120, 180)' fill-opacity = '0.250000' points = '254.2,258.7 254.2,662.4 256.0,662.4 256.0,256.5 '/>
		<polygon fill = 'rgb( 31, 120, 180)' fill-opacity = '0.250000' points = '256.0,256.5 256.0,662.4 257.9,662.4 257.9,254.3 '/>
		<polygon fill = 'rgb( 31, 120, 180)' fill-opacity = '0.250000' points = '257.9,254.3 257.9,662.4 259.8,662.4 259.8,252.1 '/>
		<polygon fill = 'rgb( 31, 120, 180)' fill-opacity = '0.250000' points = '259.8,252.1 259.8,662.4 261.6,662.4 261.6,249.9 '/>
		<polygon fill = 'rgb( 31, 120, 180)' fill-opacity = '0.250000' points = '261.6,249.9 261.6,662.4 263.5,662.4 263.5,247.7 '/>
		<polygon fill = 'rgb( 31, 120, 180)' fill-opacity = '0.250000' points = '263.5,247.7 263.5,662.4 265.4,662.4 265.4,245.4 '/>
		<polygon fill = 'rgb( 31, 120, 180)' fill-opacity = '0.250000' points = '265.4,245.4 265.4,662.4 267.3,662.4 267.3,243.0 '/>
		<polygon fill = 'rgb( 31, 120, 180)' fill-opacity = '0.250000' points = '267.3,243.0 267.3,662.4 269.1,662.4 269.1,240.4 '/>
		<polygon fill = 'rgb( 31, 120, 180)' fill-opacity = '0.250000' points = '269.1,240.4 269.1,662.4 271.0,662.4 271.0,237.8 '/>
		<polygon fill = 'rgb( 31, 120, 180)' fill-opacity = '0.250000' points = '271.0,237.8 271.0,662.4 272.9,662.4 272.9,235.1 '/>
		<polygon fill = 'rgb( 31, 120, 180)' fill-opacity = '0.250000' points = '272.9,235.1 272.9,662.4 274.7,662.4 274.7,232.2 '/>
		<polygon fill = 'rgb( 31, 120, 180)' fill-opacity = '0.250000' points = '274.7,232.2 274.7,662.4 276.6,662.4 276.6,229.3 '/>
		<polygon fill = 'rgb( 31, 120, 180)' fill-opacity = '0.250000' points = '276.6,229.3 276.6,662.4 278.5,662.4 278.5,226.2 '/>
		<polygon fill = 'rgb( 31, 120, 180)' fill-opacity = '0.250000' points = '278.5,226.2 278.5,662.4 280.3,662.4 280.3,223.1 '/>
		<polygon fill = 'rgb( 31, 120, 180)' fill-opacity = '0.250000' points = '280.3,223.1 280.3,662.4 282.2,662.4 282.2,219.9 '/>
		<polygon fill = 'rgb( 31, 120, 180)' fill-opacity = '0.250000' points = '282.2,219.9 282.2,662.4 284.1,662.4 284.1,216.6 '/>
		<polygon fill = 'rgb( 31, 120, 180)' fill-opacity = '0.250000' points = '284.1,216.6 284.1,662.4 286.0,662.4 286.0,213.4 '/>
		<polygon fill = 'rgb( 31, 120, 180)' fill-opacity = '0.250000' points = '286.0,213.4 286.0,662.4 287.8,662.4 287.8,210.2 '/>
		<polygon fill = 'rgb( 31, 120, 180)' fill-opacity = '0.250000' points = '287.8,210.2 287.8,662.4 289.7,662.4 289.7,207.2 '/>
		<polygon fill = 'rgb( 31, 120, 180)' fill-opacity = '0.250000' points = '289.7,207.2 289.7,662.4 291.6,662.4 291.6,204.3 '/>
		<polygon fill = 'rgb( 31, 120, 180)' fill-opacity = '0.250000' points = '291.6,204.3 291.6,662.4 293.4,662.4 293.4,201.6 '/>
		<polygon fill = 'rgb( 31, 120, 180)' fill-opacity = '0.250000' points = '293.4,201.6 293.4,662.4 295.3,662.4 295.3,199.2 '/>
		<polygon fill = 'rgb( 31, 120, 180)' fill-opacity = '0.250000' points = '295.3,199.2 295.3,662.4 297.2,662.4 297.2,197.2 '/>
		<polygon fill = 'rgb( 31, 120, 180)' fill-opacity = '0.250000' points = '297.2,197.2 297.2,662.4 299.1,662.4 299.1,195.6 '/>
		<polygon fill = 'rgb( 31, 120, 180)' fill-opacity = '0.250000' points = '299.1,195.6 299.1,662.4 300.9,662.4 300.9,194.6 '/>
		<polygon fill = 'rgb( 31, 120, 180)' fill-opacity = '0.250000' points = '300.9,194.6 300.9,662.4 302.8,662.4 302.8,194.1 '/>
		<polygon fill = 'rgb( 31, 120, 180)' fill-opacity = '0.250000' points = '302.8,194.1 302.8,662.4 304.7,662.4 304.7,194.2 '/>
		<polygon fill = 'rgb( 31, 120, 180)' fill-opacity = '0.250000' points = '304.7,194.2 304.7,662.4 306.5,662.4 306.5,195.0 '/>
		<polygon fill = 'rgb( 31, 120, 180)' fill-opacity = '0.250000' points = '306.5,195.0 306.5,662.4 308.4,662.4 308.4,196.6 '/>
		<polygon fill = 'rgb( 31, 120, 180)' fill-opacity = '0.250000' points = '308.4,196.6 308.4,662.4 310.3,662.4 310.3,198.9 '/>
		<polygon fill = 'rgb( 31, 120, 180)' fill-opacity = '0.250000' points = '310.3,198.9 310.3,662.4 312.1,662.4 312.1,202.1 '/>
		<polygon fill = 'rgb( 31, 120, 180)' fill-opacity = '0.250000' points = '312.1,202.1 312.1,662.4 314.0,662.4 314.0,206.0 '/>
		<polygon fill = 'rgb( 31, 120, 180)' fill-opacity = '0.250000' points = '314.0,206.0 314.0,662.4 315.9,662.4 315.9,210.7 '/>
		<polygon fill = 'rgb( 31, 120, 180)' fill-opacity = '0.250000' points = '315.9,210.7 315.9,662.4 317.8,662.4 317.8,216.3 '/>
		<polygon fill = 'rgb( 31, 120, 180)' fill-opacity = '0.250000' points = '317.8,216.3 317.8,662.4 319.6,662.4 319.6,222.6 '/>
		<polygon fill = 'rgb( 31, 120, 180)' fill-opacity = '0.250000' points = '319.6,222.6 319.6,662.4 321.5,662.4 321.5,229.6 '/>
		<polygon fill = 'rgb( 31, 120, 180)' fill-opacity = '0.250000' points = '321.5,229.6 321.5,662.4 323.4,662.4 323.4,237.3 '/>
		<polygon fill = 'rgb( 31, 120, 180)' fill-opacity = '0.250000' points = '323.4,237.3 323.4,662.4 325.2,662.4 325.2,245.5 '/>
		<polygon fill = 'rgb( 31, 120, 180)' fill-opacity = '0.250000' points = '325.2,245.5 325.2,662.4 327.1,662.4 327.1,254.3 '/>
		<polygon fill = 'rgb( 31, 120, 180)' fill-opacity = '0.250000' points = '327.1,254.3 327.1,662.4 329.0,662.4 329.0,263.4 '/>
		<polygon fill = 'rgb( 31, 120, 180)' fill-opacity = '0.250000' points = '329.0,263.4 329.0,662.4 330.9,662.4 330.9,272.8 '/>
		<polygon fill = 'rgb( 31, 120, 180)' fill-opacity = '0.250000' points = '330.9,272.8 330.9,662.4 332.7,662.4 332.7,282.4 '/>
		<polygon fill = 'rgb( 31, 120, 180)' fill-opacity = '0.250000' points = '332.7,282.4 332.7,662.4 334.6,662.4 334.6,292.1 '/>
		<polygon fill = 'rgb( 31, 120, 180)' fill-opacity = '0.250000' points = '334.6,292.1 334.6,662.4 336.5,662.4 336.5,301.7 '/>
		<polygon fill = 'rgb( 31, 120, 180)' fill-opacity = '0.250000' points = '336.5,301.7 336.5,662.4 338.3,662.4 338.3,311.1 '/>
		<polygon fill = 'rgb( 31, 120, 180)' fill-opacity = '0.250000' points = '338.3,311.1 338.3,662.4 340.2,662.4 340.2,320.2 '/>
		<polygon fill = 'rgb( 31, 120, 180)' fill-opacity = '0.250000' points = '340.2,320.2 340.2,662.4 342.1,662.4 342.1,328.9 '/>
		<polygon fill = 'rgb( 31, 120, 180)' fill-opacity = '0.250000' points = '342.1,328.9 342.1,662.4 343.9,662.4 343.9,337.1 '/>
		<polygon fill = 'rgb( 31, 120, 180)' fill-opacity = '0.250000' points = '343.9,337.1 343.9,662.4 345.8,662.4 345.8,344.7 '/>
		<polygon fill = 'rgb( 31, 120, 180)' fill-opacity = '0.250000' points = '345.8,344.7 345.8,662.4 347.7,662.4 347.7,351.6 '/>
		<polygon fill = 'rgb( 31, 120, 180)' fill-opacity = '0.250000' points = '347.7,351.6 347.7,662.4 349.6,662.4 349.6,357.7 '/>
		<polygon fill = 'rgb( 31, 120, 180)' fill-opacity = '0.250000' points = '349.6,357.7 349.6,662.4 351.4,662.4 351.4,362.9 '/>
		<polygon fill = 'rgb( 31, 120, 180)' fill-opacity = '0.250000' points = '351.4,362.9 351.4,662.4 353.3,662.4 353.3,367.3 '/>
		<polygon fill = 'rgb( 31, 120, 180)' fill-opacity = '0.250000' points = '353.3,367.3 353.3,662.4 355.2,662.4 355.2,370.8 '/>
		<polygon fill = 'rgb( 31, 120, 180)' fill-opacity = '0.250000' points = '355.2,370.8 355.2,662.4 357.0,662.4 357.0,373.4 '/>
		<polygon fill = 'rgb( 31, 120, 180)' fill-opacity = '0.250000' points = '357.0,373.4 357.0,662.4 358.9,662.4 358.9,375.1 '/>
		<polygon fill = 'rgb( 31, 120, 180)' fill-opacity = '0.250000' points = '358.9,375.1 358.9,662.4 360.8,662.4 360.8,375.9 '/>
		<polygon fill = 'rgb( 31, 120, 180)' fill-opacity = '0.250000' points = '360.8,375.9 360.8,662.4 362.7,662.4 362.7,375.9 '/>
		<polygon fill = 'rgb( 31, 120, 180)' fill-opacity = '0.250000' points = '362.7,375.9 362.7,662.4 364.5,662.4 364.5,375.1 '/>
		<polygon fill = 'rgb( 31, 120, 180)' fill-opacity = '0.250000' points = '364.5,375.1 364.5,662.4 366.4,662.4 366.4,373.6 '/>
		<polygon fill = 'rgb( 31, 120, 180)' fill-opacity = '0.250000' points = '366.4,373.6 366.4,662.4 368.3,662.4 368.3,371.4 '/>
		<polygon fill = 'rgb( 31, 120, 180)' fill-opacity = '0.250000' points = '368.3,371.4 368.3,662.4 370.1,662.4 370.1,368.6 '/>
		<polygon fill = 'rgb( 31, 120, 180)' fill-opacity = '0.250000' points = '370.1,368.6 370.1,662.4 372.0,662.4 372.0,365.3 '/>
		<polygon fill = 'rgb( 31, 120, 180)' fill-opacity = '0.250000' points = '372.0,365.3 372.0,662.4 373.9,662.4 373.9,361.7 '/>
		<polygon fill = 'rgb( 31, 120, 180)' fill-opacity = '0.250000' points = '373.9,361.7 373.9,662.4 375.7,662.4 375.7,357.8 '/>
		<polygon fill = 'rgb( 31, 120, 180)' fill-opacity = '0.250000' points = '375.7,357.8 375.7,662.4 377.6,662.4 377.6,353.7 '/>
		<polygon fill = 'rgb( 31, 120, 180)' fill-opacity = '0.250000' points = '377.6,353.7 377.6,662.4 379.5,662.4 379.5,349.5 '/>
		<polygon fill = 'rgb( 31, 120, 180)' fill-opacity = '0.250000' points = '379.5,349.5 379.5,662.4 381.4,662.4 381.4,345.3 '/>
		<polygon fill = 'rgb( 31, 120, 180)' fill-opacity = '0.250000' points = '381.4,345.3 381.4,662.4 383.2,662.4 383.2,341.1 '/>
		<polygon fill = 'rgb( 31, 120, 180)' fill-opacity = '0.250000' points = '383.2,341.1 383.2,662.4 385.1,662.4 385.1,337.1 '/>
		<polygon fill = 'rgb( 31, 120, 180)' fill-opacity = '0.250000' points = '385.1,337.1 385.1,662.4 387.0,662.4 387.0,333.4 '/>
		<polygon fill = 'rgb( 31, 120, 180)' fill-opacity = '0.250000' points = '387.0,333.4 387.0,662.4 388.8,662.4 388.8,329.8 '/>
		<polygon fill = 'rgb( 31, 120, 180)' fill-opacity = '0.250000' points = '388.8,329.8 388.8,662.4 390.7,662.4 390.7,326.6 '/>
		<polygon fill = 'rgb( 31, 120, 180)' fill-opacity = '0.250000' points = '390.7,326.6 390.7,662.4 392.6,662.4 392.6,323.8 '/>
		<polygon fill = 'rgb( 31, 120, 180)' fill-opacity = '0.250000' points = '392.6,323.8 392.6,662.4 394.5,662.4 394.5,321.2 '/>
		<polygon fill = 'rgb( 31, 120, 180)' fill-opacity = '0.250000' points = '394.5,321.2 394.5,662.4 396.3,662.4 396.3,319.1 '/>
		<polygon fill = 'rgb( 31, 120, 180)' fill-opacity = '0.250000' points = '396.3,319.1 396.3,662.4 398.2,662.4 398.2,317.3 '/>
		<polygon fill = 'rgb( 31, 120, 180)' fill-opacity = '0.250000' points = '398.2,317.3 398.2,662.4 400.1,662.4 400.1,315.8 '/>
		<polygon fill = 'rgb( 31, 120, 180)' fill-opacity = '0.250000' points = '400.1,315.8 400.1,662.4 401.9,662.4 401.9,314.7 '/>
		<polygon fill = 'rgb( 31, 120, 180)' fill-opacity = '0.250000' points = '401.9,314.7 401.9,662.4 403.8,662.4 403.8,313.8 '/>
		<polygon fill = 'rgb( 31, 120, 180)' fill-opacity = '0.250000' points = '403.8,313.8 403.8,662.4 405.7,662.4 405.7,313.3 '/>
		<polygon fill = 'rgb( 31, 120, 180)' fill-opacity = '0.250000' points = '405.7,313.3 405.7,662.4 407.5,662.4 407.5,312.9 '/>
		<polygon fill = 'rgb( 31, 120, 180)' fill-opacity = '0.250000' points = '407.5,312.9 407.5,662.4 409.4,662.4 409.4,312.8 '/>
		<polygon fill = 'rgb( 31, 120, 180)' fill-opacity = '0.250000' points = '409.4,312.8 409.4,662.4 411.3,662.4 411.3,312.8 '/>
		<polygon fill = 'rgb( 31, 120, 180)' fill-opacity = '0.250000' points = '411.3,312.8 411.3,662.4 413.2,662.4 413.2,313.0 '/>
		<polygon fill = 'rgb( 31, 120, 180)' fill-opacity = '0.250000' points = '413.2,313.0 413.2,662.4 415.0,662.4 415.0,313.3 '/>
		<polygon fill = 'rgb( 31, 120, 180)' fill-opacity = '0.250000' points = '415.0,313.3 415.0,662.4 416.9,662.4 416.9,313.7 '/>
		<polygon fill = 'rgb( 31, 120, 180)' fill-opacity = '0.250000' points = '416.9,313.7 416.9,662.4 418.8,662.4 418.8,314.1 '/>
		<polygon fill = 'rgb( 31, 120, 180)' fill-opacity = '0.250000' points = '418.8,314.1 418.8,662.4 420.6,662.4 420.6,314.6 '/>
		<polygon fill = 'rgb( 31, 120, 180)' fill-opacity = '0.250000' points = '420.6,314.6 420.6,662.4 422.5,662.4 422.5,315.1 '/>
		<polygon fill = 'rgb( 31, 120, 180)' fill-opacity = '0.250000' points = '422.5,315.1 422.5,662.4 424.4,662.4 424.4,315.6 '/>
		<polygon fill = 'rgb( 31, 120, 180)' fill-opacity = '0.250000' points = '424.4,315.6 424.4,662.4 426.3,662.4 426.3,316.1 '/>
		<polygon fill = 'rgb( 31, 120, 180)' fill-opacity = '0.250000' points = '426.3,316.1 426.3,662.4 428.1,662.4 428.1,316.6 '/>
		<polygon fill = 'rgb( 31, 120, 180)' fill-opacity = '0.250000' points = '428.1,316.6 428.1,662.4 430.0,662.4 430.0,317.1 '/>
		<polygon fill = 'rgb( 31, 120, 180)' fill-opacity = '0.250000' points = '430.0,317.1 430.0,662.4 431.9,662.4 431.9,317.6 '/>
		<polygon fill = 'rgb( 31, 120, 180)' fill-opacity = '0.250000' points = '431.9,317.6 431.9,662.4 433.7,662.4 433.7,318.1 '/>
		<polygon fill = 'rgb( 31, 120, 180)' fill-opacity = '0.250000' points = '433.7,318.1 433.7,662.4 435.6,662.4 435.6,318.6 '/>
		<polygon fill = 'rgb( 31, 120, 180)' fill-opacity = '0.250000' points = '435.6,318.6 435.6,662.4 437.5,662.4 437.5,319.0 '/>
		<polygon fill = 'rgb( 31, 120, 180)' fill-opacity = '0.250000' points = '437.5,319.0 437.5,662.4 439.3,662.4 439.3,319.4 '/>
		<polygon fill = 'rgb( 31, 120, 180)' fill-opacity = '0.250000' points = '439.3,319.4 439.3,662.4 441.2,662.4 441.2,319.7 '/>
		<polygon fill = 'rgb( 31, 120, 180)' fill-opacity = '0.250000' points = '441.2,319.7 441.2,662.4 443.1,662.4 443.1,319.9 '/>
		<polygon fill = 'rgb( 31, 120, 180)' fill-opacity = '0.250000' points = '443.1,319.9 443.1,662.4 445.0,662.4 445.0,320.0 '/>
		<polygon fill = 'rgb( 31, 120, 180)' fill-opacity = '0.250000' points = '445.0,320.0 445.0,662.4 446.8,662.4 446.8,320.0 '/>
		<polygon fill = 'rgb( 31, 120, 180)' fill-opacity = '0.250000' points = '446.8,320.0 446.8,662.4 448.7,662.4 448.7,319.9 '/>
		<polygon fill = 'rgb( 31, 120, 180)' fill-opacity = '0.250000' points = '448.7,319.9 448.7,662.4 450.6,662.4 450.6,319.7 '/>
		<polygon fill = 'rgb( 31, 120, 180)' fill-opacity = '0.250000' points = '450.6,319.7 450.6,662.4 452.4,662.4 452.4,319.2 '/>
		<polygon fill = 'rgb( 31, 120, 180)' fill-opacity = '0.250000' points = '452.4,319.2 452.4,662.4 454.3,662.4 454.3,318.6 '/>
		<polygon fill = 'rgb( 31, 120, 180)' fill-opacity = '0.250000' points = '454.3,318.6 454.3,662.4 456.2,662.4 456.2,317.7 '/>
		<polygon fill = 'rgb( 31, 120, 180)' fill-opacity = '0.250000' points = '456.2,317.7 456.2,662.4 458.0,662.4 458.0,316.7 '/>
		<polygon fill = 'rgb( 31, 120, 180)' fill-opacity = '0.250000' points = '458.0,316.7 458.0,662.4 459.9,662.4 459.9,315.4 '/>
		<polygon fill = 'rgb( 31, 120, 180)' fill-opacity = '0.250000' points = '459.9,315.4 459.9,662.4 461.8,662.4 461.8,313.9 '/>
		<polygon fill = 'rgb( 31, 120, 180)' fill-opacity = '0.250000' points = '461.8,313.9 461.8,662.4 463.7,662.4 463.7,312.1 '/>
		<polygon fill = 'rgb( 31, 120, 180)' fill-opacity = '0.250000' points = '463.7,312.1 463.7,662.4 465.5,662.4 465.5,310.1 '/>
		<polygon fill = 'rgb( 31, 120, 180)' fill-opacity = '0.250000' points = '465.5,310.1 465.5,662.4 467.4,662.4 467.4,307.9 '/>
		<polygon fill = 'rgb( 31, 120, 180)' fill-opacity = '0.250000' points = '467.4,307.9 467.4,662.4 469.3,662.4 469.3,305.5 '/>
		<polygon fill = 'rgb( 31, 120, 180)' fill-opacity = '0.250000' points = '469.3,305.5 469.3,662.4 471.1,662.4 471.1,302.9 '/>
		<polygon fill = 'rgb( 31, 120, 180)' fill-opacity = '0.250000' points = '471.1,302.9 471.1,662.4 473.0,662.4 473.0,300.2 '/>
		<polygon fill = 'rgb( 31, 120, 180)' fill-opacity = '0.250000' points = '473.0,300.2 473.0,662.4 474.9,662.4 474.9,297.4 '/>
		<polygon fill = 'rgb( 31, 120, 180)' fill-opacity = '0.250000' points = '474.9,297.4 474.9,662.4 476.8,662.4 476.8,294.5 '/>
		<polygon fill = 'rgb( 31, 120, 180)' fill-opacity = '0.250000' points = '476.8,294.5 476.8,662.4 478.6,662.4 478.6,291.5 '/>
		<polygon fill = 'rgb( 31, 120, 180)' fill-opacity = '0.250000' points = '478.6,291.5 478.6,662.4 480.5,662.4 480.5,288.6 '/>
		<polygon fill = 'rgb( 31, 120, 180)' fill-opacity = '0.250000' points = '480.5,288.6 480.5,662.4 482.4,662.4 482.4,285.7 '/>
		<polygon fill = 'rgb( 31, 120, 180)' fill-opacity = '0.250000' points = '482.4,285.7 482.4,662.4 484.2,662.4 484.2,282.8 '/>
		<polygon fill = 'rgb( 31, 120, 180)' fill-opacity = '0.250000' points = '484.2,282.8 484.2,662.4 486.1,662.4 486.1,280.0 '/>
		<polygon fill = 'rgb( 31, 120, 180)' fill-opacity = '0.250000' points = '486.1,280.0 486.1,662.4 488.0,662.4 488.0,277.3 '/>
		<polygon fill = 'rgb( 31, 120, 180)' fill-opacity = '0.250000' points = '488.0,277.3 488.0,662.4 489.8,662.4 489.8,274.8 '/>
		<polygon fill = 'rgb( 31, 120, 180)' fill-opacity = '0.250000' points = '489.8,274.8 489.8,662.4 491.7,662.4 491.7,272.4 '/>
		<polygon fill = 'rgb( 31, 120, 180)' fill-opacity = '0.250000' points = '491.7,272.4 491.7,662.4 493.6,662.4 493.6,270.1 '/>
		<polygon fill = 'rgb( 31, 120, 180)' fill-opacity = '0.250000' points = '493.6,270.1 493.6,662.4 495.5,662.4 495.5,267.9 '/>
		<polygon fill = 'rgb( 31, 120, 180)' fill-opacity = '0.250000' points = '495.5,267.9 495.5,662.4 497.3,662.4 497.3,265.8 '/>
		<polygon fill = 'rgb( 31, 120, 180)' fill-opacity = '0.250000' points = '497.3,265.8 497.3,662.4 499.2,662.4 499.2,263.8 '/>
		<polygon fill = 'rgb( 31, 120, 180)' fill-opacity = '0.250000' points = '499.2,263.8 499.2,662.4 501.1,662.4 501.1,261.9 '/>
		<polygon fill = 'rgb( 31, 120, 180)' fill-opacity = '0.250000' points = '501.1,261.9 501.1,662.4 502.9,662.4 502.9,260.0 '/>
		<polygon fill = 'rgb( 31, 120, 180)' fill-opacity = '0.250000' points = '502.9,260.0 502.9,662.4 504.8,662.4 504.8,258.0 '/>
		<polygon fill = 'rgb( 31, 120, 180)' fill-opacity = '0.250000' points = '504.8,258.0 504.8,662.4 506.7,662.4 506.7,256.0 '/>
		<polygon fill = 'rgb( 31, 120, 180)' fill-opacity = '0.250000' points = '506.7,256.0 506.7,662.4 508.6,662.4 508.6,253.9 '/>
		<polygon fill = 'rgb( 31, 120, 180)' fill-opacity = '0.250000' points = '508.6,253.9 508.6,662.4 510.4,662.4 510.4,251.7 '/>
		<polygon fill = 'rgb( 31, 120, 180)' fill-opacity = '0.250000' points = '510.4,251.7 510.4,662.4 512.3,662.4 512.3,249.3 '/>
		<polygon fill = 'rgb( 31, 120, 180)' fill-opacity = '0.250000' points = '512.3,249.3 512.3,662.4 514.2,662.4 514.2,246.6 '/>
		<polygon fill = 'rgb( 31, 120, 180)' fill-opacity = '0.250000' points = '514.2,246.6 514.2,662.4 516.0,662.4 516.0,243.8 '/>
		<polygon fill = 'rgb( 31, 120, 180)' fill-opacity = '0.250000' points = '516.0,243.8 516.0,662.4 517.9,662.4 517.9,240.7 '/>
		<polygon fill = 'rgb( 31, 120, 180)' fill-opacity = '0.250000' points = '517.9,240.7 517.9,662.4 519.8,662.4 519.8,237.3 '/>
		<polygon fill = 'rgb( 31, 120, 180)' fill-opacity = '0.250000' points = '519.8,237.3 519.8,662.4 521.6,662.4 521.6,233.7 '/>
		<polygon fill = 'rgb( 31, 120, 180)' fill-opacity = '0.250000' points = '521.6,233.7 521.6,662.4 523.5,662.4 523.5,229.9 '/>
		<polygon fill = 'rgb( 31, 120, 180)' fill-opacity = '0.250000' points = '523.5,229.9 523.5,662.4 525.4,662.4 525.4,225.9 '/>
		<polygon fill = 'rgb( 31, 120, 180)' fill-opacity = '0.250000' points = '525.4,225.9 525.4,662.4 527.3,662.4 527.3,221.7 '/>
		<polygon fill = 'rgb( 31, 120, 180)' fill-opacity = '0.250000' points = '527.3,221.7 527.3,662.4 529.1,662.4 529.1,217.4 '/>
		<polygon fill = 'rgb( 31, 120, 180)' fill-opacity = '0.250000' points = '529.1,217.4 529.1,662.4 531.0,662.4 531.0,212.9 '/>
		<polygon fill = 'rgb( 31, 120, 180)' fill-opacity = '0.250000' points = '531.0,212.9 531.0,662.4 532.9,662.4 532.9,208.4 '/>
		<polygon fill = 'rgb( 31, 120, 180)' fill-opacity = '0.250000' points = '532.9,208.4 532.9,662.4 534.7,662.4 534.7,203.9 '/>
		<polygon fill = 'rgb( 31, 120, 180)' fill-opacity = '0.250000' points = '534.7,203.9 534.7,662.4 536.6,662.4 536.6,199.4 '/>
		<polygon fill = 'rgb( 31, 120, 180)' fill-opacity = '0.250000' points = '536.6,199.4 536.6,662.4 538.5,662.4 538.5,195.0 '/>
		<polygon fill = 'rgb( 31, 120, 180)' fill-opacity = '0.250000' points = '538.5,195.0 538.5,662.4 540.4,662.4 540.4,190.6 '/>
		<polygon fill = 'rgb( 31, 120, 180)' fill-opacity = '0.250000' points = '540.4,190.6 540.4,662.4 542.2,662.4 542.2,186.4 '/>
		<polygon fill = 'rgb( 31, 120, 180)' fill-opacity = '0.250000' points = '542.2,186.4 542.2,662.4 544.1,662.4 544.1,182.3 '/>
		<polygon fill = 'rgb( 31, 120, 180)' fill-opacity = '0.250000' points = '544.1,182.3 544.1,662.4 546.0,662.4 546.0,178.4 '/>
		<polygon fill = 'rgb( 31, 120, 180)' fill-opacity = '0.250000' points = '546.0,178.4 546.0,662.4 547.8,662.4 547.8,174.6 '/>
		<polygon fill = 'rgb( 31, 120, 180)' fill-opacity = '0.250000' points = '547.8,174.6 547.8,662.4 549.7,662.4 549.7,171.1 '/>
		<polygon fill = 'rgb( 31, 120, 180)' fill-opacity = '0.250000' points = '549.7,171.1 549.7,662.4 551.6,662.4 551.6,167.7 '/>
		<polygon fill = 'rgb( 31, 120, 180)' fill-opacity = '0.250000' points = '551.6,167.7 551.6,662.4 553.4,662.4 553.4,164.5 '/>
		<polygon fill = 'rgb( 31, 120, 180)' fill-opacity = '0.250000' points = '553.4,164.5 553.4,662.4 555.3,662.4 555.3,161.5 '/>
		<polygon fill = 'rgb( 31, 120, 180)' fill-opacity = '0.250000' points = '555.3,161.5 555.3,662.4 557.2,662.4 557.2,158.6 '/>
		<polygon fill = 'rgb( 31, 120, 180)' fill-opacity = '0.250000' points = '557.2,158.6 557.2,662.4 559.1,662.4 559.1,155.9 '/>
		<polygon fill = 'rgb( 31, 120, 180)' fill-opacity = '0.250000' points = '559.1,155.9 559.1,662.4 560.9,662.4 560.9,153.3 '/>
		<polygon fill = 'rgb( 31, 120, 180)' fill-opacity = '0.250000' points = '560.9,153.3 560.9,662.4 562.8,662.4 562.8,150.9 '/>
		<polygon fill = 'rgb( 31, 120, 180)' fill-opacity = '0.250000' points = '562.8,150.9 562.8,662.4 564.7,662.4 564.7,148.6 '/>
		<polygon fill = 'rgb( 31, 120, 180)' fill-opacity = '0.250000' points = '564.7,148.6 564.7,662.4 566.5,662.4 566.5,146.4 '/>
		<polygon fill = 'rgb( 31, 120, 180)' fill-opacity = '0.250000' points = '566.5,146.4 566.5,662.4 568.4,662.4 568.4,144.4 '/>
		<polygon fill = 'rgb( 31, 120, 180)' fill-opacity = '0.250000' points = '568.4,144.4 568.4,662.4 570.3,662.4 570.3,142.4 '/>
		<polygon fill = 'rgb( 31, 120, 180)' fill-opacity = '0.250000' points = '570.3,142.4 570.3,662.4 572.2,662.4 572.2,140.5 '/>
		<polygon fill = 'rgb( 31, 120, 180)' fill-opacity = '0.250000' points = '572.2,140.5 572.2,662.4 574.0,662.4 574.0,138.8 '/>
		<polygon fill = 'rgb( 31, 120, 180)' fill-opacity = '0.250000' points = '574.0,138.8 574.0,662.4 575.9,662.4 575.9,137.1 '/>
		<polygon fill = 'rgb( 31, 120, 180)' fill-opacity = '0.250000' points = '575.9,137.1 575.9,662.4 577.8,662.4 577.8,135.6 '/>
		<polygon fill = 'rgb( 31, 120, 180)' fill-opacity = '0.250000' points = '577.8,135.6 577.8,662.4 579.6,662.4 579.6,134.1 '/>
		<polygon fill = 'rgb( 31, 120, 180)' fill-opacity = '0.250000' points = '579.6,134.1 579.6,662.4 581.5,662.4 581.5,132.7 '/>
		<polygon fill = 'rgb( 31, 120, 180)' fill-opacity = '0.250000' points = '581.5,132.7 581.5,662.4 583.4,662.4 583.4,131.4 '/>
		<polygon fill = 'rgb( 31, 120, 180)' fill-opacity = '0.250000' points = '583.4,131.4 583.4,662.4 585.2,662.4 585.2,130.1 '/>
		<polygon fill = 'rgb( 31, 120, 180)' fill-opacity = '0.250000' points = '585.2,130.1 585.2,662.4 587.1,662.4 587.1,128.9 '/>
		<polygon fill = 'rgb( 31, 120, 180)' fill-opacity = '0.250000' points = '587.1,128.9 587.1,662.4 589.0,662.4 589.0,127.7 '/>
		<polygon fill = 'rgb( 31, 120, 180)' fill-opacity = '0.250000' points = '589.0,127.7 589.0,662.4 590.9,662.4 590.9,126.5 '/>
		<polygon fill = 'rgb( 31, 120, 180)' fill-opacity = '0.250000' points = '590.9,126.5 590.9,662.4 592.7,662.4 592.7,125.2 '/>
		<polygon fill = 'rgb( 31, 120, 180)' fill-opacity = '0.250000' points = '592.7,125.2 592.7,662.4 594.6,662.4 594.6,123.9 '/>
		<polygon fill = 'rgb( 31, 120, 180)' fill-opacity = '0.250000' points = '594.6,123.9 594.6,662.4 596.5,662.4 596.5,122.6 '/>
		<polygon fill = 'rgb( 31, 120, 180)' fill-opacity = '0.250000' points = '596.5,122.6 596.5,662.4 598.3,662.4 598.3,121.2 '/>
		<polygon fill = 'rgb( 31, 120, 180)' fill-opacity = '0.250000' points = '598.3,121.2 598.3,662.4 600.2,662.4 600.2,119.7 '/>
		<polygon fill = 'rgb( 31, 120, 180)' fill-opacity = '0.250000' points = '600.2,119.7 600.2,662.4 602.1,662.4 602.1,118.2 '/>
		<polygon fill = 'rgb( 31, 120, 180)' fill-opacity = '0.250000' points = '602.1,118.2 602.1,662.4 604.0,662.4 604.0,116.6 '/>
		<polygon fill = 'rgb( 31, 120, 180)' fill-opacity = '0.250000' points = '604.0,116.6 604.0,662.4 605.8,662.4 605.8,115.0 '/>
		<polygon fill = 'rgb( 31, 120, 180)' fill-opacity = '0.250000' points = '605.8,115.0 605.8,662.4 607.7,662.4 607.7,113.4 '/>
		<polygon fill = 'rgb( 31, 120, 180)' fill-opacity = '0.250000' points = '607.7,113.4 607.7,662.4 609.6,662.4 609.6,111.8 '/>
		<polygon fill = 'rgb( 31, 120, 180)' fill-opacity = '0.250000' points = '609.6,111.8 609.6,662.4 611.4,662.4 611.4,110.3 '/>
		<polygon fill = 'rgb( 31, 120, 180)' fill-opacity = '0.250000' points = '611.4,110.3 611.4,662.4 613.3,662.4 613.3,109.0 '/>
		<polygon fill = 'rgb( 31, 120, 180)' fill-opacity = '0.250000' points = '613.3,109.0 613.3,662.4 615.2,662.4 615.2,107.8 '/>
		<polygon fill = 'rgb( 31, 120, 180)' fill-opacity = '0.250000' points = '615.2,107.8 615.2,662.4 617.0,662.4 617.0,106.9 '/>
		<polygon fill = 'rgb( 31, 120, 180)' fill-opacity = '0.250000' points = '617.0,106.9 617.0,662.4 618.9,662.4 618.9,106.4 '/>
		<polygon fill = 'rgb( 31, 120, 180)' fill-opacity = '0.250000' points = '618.9,106.4 618.9,662.4 620.8,662.4 620.8,106.3 '/>
		<polygon fill = 'rgb( 31, 120, 180)' fill-opacity = '0.250000' points = '620.8,106.3 620.8,662.4 622.7,662.4 622.7,106.7 '/>
		<polygon fill = 'rgb( 31, 120, 180)' fill-opacity = '0.250000' points = '622.7,106.7 622.7,662.4 624.5,662.4 624.5,107.7 '/>
		<polygon fill = 'rgb( 31, 120, 180)' fill-opacity = '0.250000' points = '624.5,107.7 624.5,662.4 626.4,662.4 626.4,109.2 '/>
		<polygon fill = 'rgb( 31, 120, 180)' fill-opacity = '0.250000' points = '626.4,109.2 626.4,662.4 628.3,662.4 628.3,111.4 '/>
		<polygon fill = 'rgb( 31, 120, 180)' fill-opacity = '0.250000' points = '628.3,111.4 628.3,662.4 630.1,662.4 630.1,114.3 '/>
		<polygon fill = 'rgb( 31, 120, 180)' fill-opacity = '0.250000' points = '630.1,114.3 630.1,662.4 632.0,662.4 632.0,117.9 '/>
		<polygon fill = 'rgb( 31, 120, 180)' fill-opacity = '0.250000' points = '632.0,117.9 632.0,662.4 633.9,662.4 633.9,122.2 '/>
		<polygon fill = 'rgb( 31, 120, 180)' fill-opacity = '0.250000' points = '633.9,122.2 633.9,662.4 635.8,662.4 635.8,127.2 '/>
		<polygon fill = 'rgb( 31, 120, 180)' fill-opacity = '0.250000' points = '635.8,127.2 635.8,662.4 637.6,662.4 637.6,132.9 '/>
		<polygon fill = 'rgb( 31, 120, 180)' fill-opacity = '0.250000' points = '637.6,132.9 637.6,662.4 639.5,662.4 639.5,139.2 '/>
		<polygon fill = 'rgb( 31, 120, 180)' fill-opacity = '0.250000' points = '639.5,139.2 639.5,662.4 641.4,662.4 641.4,146.0 '/>
		<polygon fill = 'rgb( 31, 120, 180)' fill-opacity = '0.250000' points = '641.4,146.0 641.4,662.4 643.2,662.4 643.2,153.4 '/>
		<polygon fill = 'rgb( 31, 120, 180)' fill-opacity = '0.250000' points = '643.2,153.4 643.2,662.4 645.1,662.4 645.1,161.1 '/>
		<polygon fill = 'rgb( 31, 120, 180)' fill-opacity = '0.250000' points = '645.1,161.1 645.1,662.4 647.0,662.4 647.0,169.1 '/>
		<polygon fill = 'rgb( 31, 120, 180)' fill-opacity = '0.250000' points = '647.0,169.1 647.0,662.4 648.8,662.4 648.8,177.4 '/>
		<polygon fill = 'rgb( 31, 120, 180)' fill-opacity = '0.250000' points = '648.8,177.4 648.8,662.4 650.7,662.4 650.7,185.7 '/>
		<polygon fill = 'rgb( 31, 120, 180)' fill-opacity = '0.250000' points = '650.7,185.7 650.7,662.4 652.6,662.4 652.6,194.0 '/>
		<polygon fill = 'rgb( 31, 120, 180)' fill-opacity = '0.250000' points = '652.6,194.0 652.6,662.4 654.5,662.4 654.5,202.1 '/>
		<polygon fill = 'rgb( 31, 120, 180)' fill-opacity = '0.250000' points = '654.5,202.1 654.5,662.4 656.3,662.4 656.3,210.1 '/>
		<polygon fill = 'rgb( 31, 120, 180)' fill-opacity = '0.250000' points = '656.3,210.1 656.3,662.4 658.2,662.4 658.2,217.7 '/>
		<polygon fill = 'rgb( 31, 120, 180)' fill-opacity = '0.250000' points = '658.2,217.7 658.2,662.4 660.1,662.4 660.1,224.9 '/>
		<polygon fill = 'rgb( 31, 120, 180)' fill-opacity = '0.250000' points = '660.1,224.9 660.1,662.4 661.9,662.4 661.9,231.5 '/>
		<polygon fill = 'rgb( 31, 120, 180)' fill-opacity = '0.250000' points = '661.9,231.5 661.9,662.4 663.8,662.4 663.8,237.7 '/>
		<polygon fill = 'rgb( 31, 120, 180)' fill-opacity = '0.250000' points = '663.8,237.7 663.8,662.4 665.7,662.4 665.7,243.2 '/>
		<polygon fill = 'rgb( 31, 120, 180)' fill-opacity = '0.250000' points = '665.7,243.2 665.7,662.4 667.5,662.4 667.5,248.1 '/>
		<polygon fill = 'rgb( 31, 120, 180)' fill-opacity = '0.250000' points = '667.5,248.1 667.5,662.4 669.4,662.4 669.4,252.3 '/>
		<polygon fill = 'rgb( 31, 120, 180)' fill-opacity = '0.250000' points = '669.4,252.3 669.4,662.4 671.3,662.4 671.3,256.0 '/>
		<polygon fill = 'rgb( 31, 120, 180)' fill-opacity = '0.250000' points = '671.3,256.0 671.3,662.4 673.2,662.4 673.2,259.0 '/>
		<polygon fill = 'rgb( 31, 120, 180)' fill-opacity = '0.250000' points = '673.2,259.0 673.2,662.4 675.0,662.4 675.0,261.4 '/>
		<polygon fill = 'rgb( 31, 120, 180)' fill-opacity = '0.250000' points = '675.0,261.4 675.0,662.4 676.9,662.4 676.9,263.3 '/>
		<polygon fill = 'rgb( 31, 120, 180)' fill-opacity = '0.250000' points = '676.9,263.3 676.9,662.4 678.8,662.4 678.8,264.7 '/>
		<polygon fill = 'rgb( 31, 120, 180)' fill-opacity = '0.250000' points = '678.8,264.7 678.8,662.4 680.6,662.4 680.6,265.8 '/>
		<polygon fill = 'rgb( 31, 120, 180)' fill-opacity = '0.250000' points = '680.6,265.8 680.6,662.4 682.5,662.4 682.5,266.5 '/>
		<polygon fill = 'rgb( 31, 120, 180)' fill-opacity = '0.250000' points = '682.5,266.5 682.5,662.4 684.4,662.4 684.4,267.0 '/>
		<polygon fill = 'rgb( 31, 120, 180)' fill-opacity = '0.250000' points = '684.4,267.0 684.4,662.4 686.3,662.4 686.3,267.4 '/>
		<polygon fill = 'rgb( 31, 120, 180)' fill-opacity = '0.250000' points = '686.3,267.4 686.3,662.4 688.1,662.4 688.1,267.8 '/>
		<polygon fill = 'rgb( 31, 120, 180)' fill-opacity = '0.250000' points = '688.1,267.8 688.1,662.4 690.0,662.4 690.0,268.3 '/>
		<polygon fill = 'rgb( 31, 120, 180)' fill-opacity = '0.250000' points = '690.0,268.3 690.0,662.4 691.9,662.4 691.9,268.8 '/>
		<polygon fill = 'rgb( 31, 120, 180)' fill-opacity = '0.250000' points = '691.9,268.8 691.9,662.4 693.7,662.4 693.7,269.6 '/>
		<polygon fill = 'rgb( 31, 120, 180)' fill-opacity = '0.250000' points = '693.7,269.6 693.7,662.4 695.6,662.4 695.6,270.7 '/>
		<polygon fill = 'rgb( 31, 120, 180)' fill-opacity = '0.250000' points = '695.6,270.7 695.6,662.4 697.5,662.4 697.5,272.1 '/>
		<polygon fill = 'rgb( 31, 120, 180)' fill-opacity = '0.250000' points = '697.5,272.1 697.5,662.4 699.3,662.4 699.3,273.8 '/>
		<polygon fill = 'rgb( 31, 120, 180)' fill-opacity = '0.250000' points = '699.3,273.8 699.3,662.4 701.2,662.4 701.2,276.0 '/>
		<polygon fill = 'rgb( 31, 120, 180)' fill-opacity = '0.250000' points = '701.2,276.0 701.2,662.4 703.1,662.4 703.1,278.5 '/>
		<polygon fill = 'rgb( 31, 120, 180)' fill-opacity = '0.250000' points = '703.1,278.5 703.1,662.4 705.0,662.4 705.0,281.4 '/>
		<polygon fill = 'rgb( 31, 120, 180)' fill-opacity = '0.250000' points = '705.0,281.4 705.0,662.4 706.8,662.4 706.8,284.7 '/>
		<polygon fill = 'rgb( 31, 120, 180)' fill-opacity = '0.250000' points = '706.8,284.7 706.8,662.4 708.7,662.4 708.7,288.4 '/>
		<polygon fill = 'rgb( 31, 120, 180)' fill-opacity = '0.250000' points = '708.7,288.4 708.7,662.4 710.6,662.4 710.6,292.4 '/>
		<polygon fill = 'rgb( 31, 120, 180)' fill-opacity = '0.250000' points = '710.6,292.4 710.6,662.4 712.4,662.4 712.4,296.5 '/>
		<polygon fill = 'rgb( 31, 120, 180)' fill-opacity = '0.250000' points = '712.4,296.5 712.4,662.4 714.3,662.4 714.3,300.9 '/>
		<polygon fill = 'rgb( 31, 120, 180)' fill-opacity = '0.250000' points = '714.3,300.9 714.3,662.4 716.2,662.4 716.2,305.4 '/>
		<polygon fill = 'rgb( 31, 120, 180)' fill-opacity = '0.250000' points = '716.2,305.4 716.2,662.4 718.1,662.4 718.1,310.0 '/>
		<polygon fill = 'rgb( 31, 120, 180)' fill-opacity = '0.250000' points = '718.1,310.0 718.1,662.4 719.9,662.4 719.9,314.5 '/>
		<polygon fill = 'rgb( 31, 120, 180)' fill-opacity = '0.250000' points = '719.9,314.5 719.9,662.4 721.8,662.4 721.8,318.9 '/>
		<polygon fill = 'rgb( 31, 120, 180)' fill-opacity = '0.250000' points = '721.8,318.9 721.8,662.4 723.7,662.4 723.7,323.2 '/>
		<polygon fill = 'rgb( 31, 120, 180)' fill-opacity = '0.250000' points = '723.7,323.2 723.7,662.4 725.5,662.4 725.5,327.3 '/>
		<polygon fill = 'rgb( 31, 120, 180)' fill-opacity = '0.250000' points = '725.5,327.3 725.5,662.4 727.4,662.4 727.4,331.1 '/>
		<polygon fill = 'rgb( 31, 120, 180)' fill-opacity = '0.250000' points = '727.4,331.1 727.4,662.4 729.3,662.4 729.3,334.6 '/>
		<polygon fill = 'rgb( 31, 120, 180)' fill-opacity = '0.250000' points = '729.3,334.6 729.3,662.4 731.1,662.4 731.1,337.9 '/>
		<polygon fill = 'rgb( 31, 120, 180)' fill-opacity = '0.250000' points = '731.1,337.9 731.1,662.4 733.0,662.4 733.0,340.8 '/>
		<polygon fill = 'rgb( 31, 120, 180)' fill-opacity = '0.250000' points = '733.0,340.8 733.0,662.4 734.9,662.4 734.9,343.4 '/>
		<polygon fill = 'rgb( 31, 120, 180)' fill-opacity = '0.250000' points = '734.9,343.4 734.9,662.4 736.8,662.4 736.8,345.7 '/>
		<polygon fill = 'rgb( 31, 120, 180)' fill-opacity = '0.250000' points = '736.8,345.7 736.8,662.4 738.6,662.4 738.6,347.7 '/>
		<polygon fill = 'rgb( 31, 120, 180)' fill-opacity = '0.250000' points = '738.6,347.7 738.6,662.4 740.5,662.4 740.5,349.5 '/>
		<polygon fill = 'rgb( 31, 120, 180)' fill-opacity = '0.250000' points = '740.5,349.5 740.5,662.4 742.4,662.4 742.4,351.1 '/>
		<polygon fill = 'rgb( 31, 120, 180)' fill-opacity = '0.250000' points = '742.4,351.1 742.4,662.4 744.2,662.4 744.2,352.6 '/>
		<polygon fill = 'rgb( 31, 120, 180)' fill-opacity = '0.250000' points = '744.2,352.6 744.2,662.4 746.1,662.4 746.1,354.0 '/>
		<polygon fill = 'rgb( 31, 120, 180)' fill-opacity = '0.250000' points = '746.1,354.0 746.1,662.4 748.0,662.4 748.0,355.3 '/>
		<polygon fill = 'rgb( 31, 120, 180)' fill-opacity = '0.250000' points = '748.0,355.3 748.0,662.4 749.9,662.4 749.9,356.7 '/>
		<polygon fill = 'rgb( 31, 120, 180)' fill-opacity = '0.250000' points = '749.9,356.7 749.9,662.4 751.7,662.4 751.7,358.2 '/>
		<polygon fill = 'rgb( 31, 120, 180)' fill-opacity = '0.250000' points = '751.7,358.2 751.7,662.4 753.6,662.4 753.6,359.8 '/>
		<polygon fill = 'rgb( 31, 120, 180)' fill-opacity = '0.250000' points = '753.6,359.8 753.6,662.4 755.5,662.4 755.5,361.7 '/>
		<polygon fill = 'rgb( 31, 120, 180)' fill-opacity = '0.250000' points = '755.5,361.7 755.5,662.4 757.3,662.4 757.3,363.7 '/>
		<polygon fill = 'rgb( 31, 120, 180)' fill-opacity = '0.250000' points = '757.3,363.7 757.3,662.4 759.2,662.4 759.2,366.0 '/>
		<polygon fill = 'rgb( 31, 120, 180)' fill-opacity = '0.250000' points = '759.2,366.0 759.2,662.4 761.1,662.4 761.1,368.6 '/>
		<polygon fill = 'rgb( 31, 120, 180)' fill-opacity = '0.250000' points = '761.1,368.6 761.1,662.4 762.9,662.4 762.9,371.4 '/>
		<polygon fill = 'rgb( 31, 120, 180)' fill-opacity = '0.250000' points = '762.9,371.4 762.9,662.4 764.8,662.4 764.8,374.5 '/>
		<polygon fill = 'rgb( 31, 120, 180)' fill-opacity = '0.250000' points = '764.8,374.5 764.8,662.4 766.7,662.4 766.7,377.9 '/>
		<polygon fill = 'rgb( 31, 120, 180)' fill-opacity = '0.250000' points = '766.7,377.9 766.7,662.4 768.6,662.4 768.6,381.4 '/>
		<polygon fill = 'rgb( 31, 120, 180)' fill-opacity = '0.250000' points = '768.6,381.4 768.6,662.4 770.4,662.4 770.4,385.2 '/>
		<polygon fill = 'rgb( 31, 120, 180)' fill-opacity = '0.250000' points = '770.4,385.2 770.4,662.4 772.3,662.4 772.3,389.1 '/>
		<polygon fill = 'rgb( 31, 120, 180)' fill-opacity = '0.250000' points = '772.3,389.1 772.3,662.4 774.2,662.4 774.2,393.1 '/>
		<polygon fill = 'rgb( 31, 120, 180)' fill-opacity = '0.250000' points = '774.2,393.1 774.2,662.4 776.0,662.4 776.0,397.2 '/>
		<polygon fill = 'rgb( 31, 120, 180)' fill-opacity = '0.250000' points = '776.0,397.2 776.0,662.4 777.9,662.4 777.9,401.3 '/>
		<polygon fill = 'rgb( 31, 120, 180)' fill-opacity = '0.250000' points = '777.9,401.3 777.9,662.4 779.8,662.4 779.8,405.3 '/>
		<polygon fill = 'rgb( 31, 120, 180)' fill-opacity = '0.250000' points = '779.8,405.3 779.8,662.4 781.7,662.4 781.7,409.3 '/>
		<polygon fill = 'rgb( 31, 120, 180)' fill-opacity = '0.250000' points = '781.7,409.3 781.7,662.4 783.5,662.4 783.5,413.2 '/>
		<polygon fill = 'rgb( 31, 120, 180)' fill-opacity = '0.250000' points = '783.5,413.2 783.5,662.4 785.4,662.4 785.4,416.9 '/>
		<polygon fill = 'rgb( 31, 120, 180)' fill-opacity = '0.250000' points = '785.4,416.9 785.4,662.4 787.3,662.4 787.3,420.5 '/>
		<polygon fill = 'rgb( 31, 120, 180)' fill-opacity = '0.250000' points = '787.3,420.5 787.3,662.4 789.1,662.4 789.1,423.9 '/>
		<polygon fill = 'rgb( 31, 120, 180)' fill-opacity = '0.250000' points = '789.1,423.9 789.1,662.4 791.0,662.4 791.0,427.1 '/>
		<polygon fill = 'rgb( 31, 120, 180)' fill-opacity = '0.250000' points = '791.0,427.1 791.0,662.4 792.9,662.4 792.9,430.1 '/>
		<polygon fill = 'rgb( 31, 120, 180)' fill-opacity = '0.250000' points = '792.9,430.1 792.9,662.4 794.7,662.4 794.7,432.9 '/>
		<polygon fill = 'rgb( 31, 120, 180)' fill-opacity = '0.250000' points = '794.7,432.9 794.7,662.4 796.6,662.4 796.6,435.6 '/>
		<polygon fill = 'rgb( 31, 120, 180)' fill-opacity = '0.250000' points = '796.6,435.6 796.6,662.4 798.5,662.4 798.5,438.1 '/>
		<polygon fill = 'rgb( 31, 120, 180)' fill-opacity = '0.250000' points = '798.5,438.1 798.5,662.4 800.4,662.4 800.4,440.5 '/>
		<polygon fill = 'rgb( 31, 120, 180)' fill-opacity = '0.250000' points = '800.4,440.5 800.4,662.4 802.2,662.4 802.2,442.7 '/>
		<polygon fill = 'rgb( 31, 120, 180)' fill-opacity = '0.250000' points = '802.2,442.7 802.2,662.4 804.1,662.4 804.1,444.9 '/>
		<polygon fill = 'rgb( 31, 120, 180)' fill-opacity = '0.250000' points = '804.1,444.9 804.1,662.4 806.0,662.4 806.0,447.0 '/>
		<polygon fill = 'rgb( 31, 120, 180)' fill-opacity = '0.250000' points = '806.0,447.0 806.0,662.4 807.8,662.4 807.8,449.1 '/>
		<polygon fill = 'rgb( 31, 120, 180)' fill-opacity = '0.250000' points = '807.8,449.1 807.8,662.4 809.7,662.4 809.7,451.1 '/>
		<polygon fill = 'rgb( 31, 120, 180)' fill-opacity = '0.250000' points = '809.7,451.1 809.7,662.4 811.6,662.4 811.6,453.1 '/>
		<polygon fill = 'rgb( 31, 120, 180)' fill-opacity = '0.250000' points = '811.6,453.1 811.6,662.4 813.5,662.4 813.5,455.1 '/>
		<polygon fill = 'rgb( 31, 120, 180)' fill-opacity = '0.250000' points = '813.5,455.1 813.5,662.4 815.3,662.4 815.3,457.1 '/>
		<polygon fill = 'rgb( 31, 120, 180)' fill-opacity = '0.250000' points = '815.3,457.1 815.3,662.4 817.2,662.4 817.2,459.2 '/>
		<polygon fill = 'rgb( 31, 120, 180)' fill-opacity = '0.250000' points = '817.2,459.2 817.2,662.4 819.1,662.4 819.1,461.3 '/>
		<polygon fill = 'rgb( 31, 120, 180)' fill-opacity = '0.250000' points = '819.1,461.3 819.1,662.4 820.9,662.4 820.9,463.4 '/>
		<polygon fill = 'rgb( 31, 120, 180)' fill-opacity = '0.250000' points = '820.9,463.4 820.9,662.4 822.8,662.4 822.8,465.5 '/>
		<polygon fill = 'rgb( 31, 120, 180)' fill-opacity = '0.250000' points = '822.8,465.5 822.8,662.4 824.7,662.4 824.7,467.6 '/>
		<polygon fill = 'rgb( 31, 120, 180)' fill-opacity = '0.250000' points = '824.7,467.6 824.7,662.4 826.5,662.4 826.5,469.8 '/>
		<polygon fill = 'rgb( 31, 120, 180)' fill-opacity = '0.250000' points = '826.5,469.8 826.5,662.4 828.4,662.4 828.4,472.0 '/>
		<polygon fill = 'rgb( 31, 120, 180)' fill-opacity = '0.250000' points = '828.4,472.0 828.4,662.4 830.3,662.4 830.3,474.2 '/>
		<polygon fill = 'rgb( 31, 120, 180)' fill-opacity = '0.250000' points = '830.3,474.2 830.3,662.4 832.2,662.4 832.2,476.4 '/>
		<polygon fill = 'rgb( 31, 120, 180)' fill-opacity = '0.250000' points = '832.2,476.4 832.2,662.4 834.0,662.4 834.0,478.6 '/>
		<polygon fill = 'rgb( 31, 120, 180)' fill-opacity = '0.250000' points = '834.0,478.6 834.0,662.4 835.9,662.4 835.9,480.8 '/>
		<polygon fill = 'rgb( 31, 120, 180)' fill-opacity = '0.250000' points = '835.9,480.8 835.9,662.4 837.8,662.4 837.8,483.0 '/>
		<polygon fill = 'rgb( 31, 120, 180)' fill-opacity = '0.250000' points = '837.8,483.0 837.8,662.4 839.6,662.4 839.6,485.3 '/>
		<polygon fill = 'rgb( 31, 120, 180)' fill-opacity = '0.250000' points = '839.6,485.3 839.6,662.4 841.5,662.4 841.5,487.5 '/>
		<polygon fill = 'rgb( 31, 120, 180)' fill-opacity = '0.250000' points = '841.5,487.5 841.5,662.4 843.4,662.4 843.4,489.8 '/>
		<polygon fill = 'rgb( 31, 120, 180)' fill-opacity = '0.250000' points = '843.4,489.8 843.4,662.4 845.3,662.4 845.3,492.1 '/>
		<polygon fill = 'rgb( 31, 120, 180)' fill-opacity = '0.250000' points = '845.3,492.1 845.3,662.4 847.1,662.4 847.1,494.4 '/>
		<polygon fill = 'rgb( 31, 120, 180)' fill-opacity = '0.250000' points = '847.1,494.4 847.1,662.4 849.0,662.4 849.0,496.8 '/>
		<polygon fill = 'rgb( 31, 120, 180)' fill-opacity = '0.250000' points = '849.0,496.8 849.0,662.4 850.9,662.4 850.9,499.2 '/>
		<polygon fill = 'rgb( 31, 120, 180)' fill-opacity = '0.250000' points = '850.9,499.2 850.9,662.4 852.7,662.4 852.7,501.7 '/>
		<polygon fill = 'rgb( 31, 120, 180)' fill-opacity = '0.250000' points = '852.7,501.7 852.7,662.4 854.6,662.4 854.6,504.3 '/>
		<polygon fill = 'rgb( 31, 120, 180)' fill-opacity = '0.250000' points = '854.6,504.3 854.6,662.4 856.5,662.4 856.5,506.9 '/>
		<polygon fill = 'rgb( 31, 120, 180)' fill-opacity = '0.250000' points = '856.5,506.9 856.5,662.4 858.3,662.4 858.3,509.6 '/>
		<polygon fill = 'rgb( 31, 120, 180)' fill-opacity = '0.250000' points = '858.3,509.6 858.3,662.4 860.2,662.4 860.2,512.5 '/>
		<polygon fill = 'rgb( 31, 120, 180)' fill-opacity = '0.250000' points = '860.2,512.5 860.2,662.4 862.1,662.4 862.1,515.3 '/>
		<polygon fill = 'rgb( 31, 120, 180)' fill-opacity = '0.250000' points = '862.1,515.3 862.1,662.4 864.0,662.4 864.0,518.3 '/>
		<polygon fill = 'rgb( 31, 120, 180)' fill-opacity = '0.250000' points = '864.0,518.3 864.0,662.4 865.8,662.4 865.8,521.3 '/>
		<polygon fill = 'rgb( 31, 120, 180)' fill-opacity = '0.250000' points = '865.8,521.3 865.8,662.4 867.7,662.4 867.7,524.4 '/>
		<polygon fill = 'rgb( 31, 120, 180)' fill-opacity = '0.250000' points = '867.7,524.4 867.7,662.4 869.6,662.4 869.6,527.6 '/>
		<polygon fill = 'rgb( 31, 120, 180)' fill-opacity = '0.250000' points = '869.6,527.6 869.6,662.4 871.4,662.4 871.4,530.8 '/>
		<polygon fill = 'rgb( 31, 120, 180)' fill-opacity = '0.250000' points = '871.4,530.8 871.4,662.4 873.3,662.4 873.3,534.0 '/>
		<polygon fill = 'rgb( 31, 120, 180)' fill-opacity = '0.250000' points = '873.3,534.0 873.3,662.4 875.2,662.4 875.2,537.2 '/>
		<polygon fill = 'rgb( 31, 120, 180)' fill-opacity = '0.250000' points = '875.2,537.2 875.2,662.4 877.1,662.4 877.1,540.5 '/>
		<polygon fill = 'rgb( 31, 120, 180)' fill-opacity = '0.250000' points = '877.1,540.5 877.1,662.4 878.9,662.4 878.9,543.7 '/>
		<polygon fill = 'rgb( 31, 120, 180)' fill-opacity = '0.250000' points = '878.9,543.7 878.9,662.4 880.8,662.4 880.8,546.9 '/>
		<polygon fill = 'rgb( 31, 120, 180)' fill-opacity = '0.250000' points = '880.8,546.9 880.8,662.4 882.7,662.4 882.7,550.1 '/>
		<polygon fill = 'rgb( 31, 120, 180)' fill-opacity = '0.250000' points = '882.7,550.1 882.7,662.4 884.5,662.4 884.5,553.2 '/>
		<polygon fill = 'rgb( 31, 120, 180)' fill-opacity = '0.250000' points = '884.5,553.2 884.5,662.4 886.4,662.4 886.4,556.3 '/>
		<polygon fill = 'rgb( 31, 120, 180)' fill-opacity = '0.250000' points = '886.4,556.3 886.4,662.4 888.3,662.4 888.3,559.3 '/>
		<polygon fill = 'rgb( 31, 120, 180)' fill-opacity = '0.250000' points = '888.3,559.3 888.3,662.4 890.1,662.4 890.1,562.2 '/>
		<polygon fill = 'rgb( 31, 120, 180)' fill-opacity = '0.250000' points = '890.1,562.2 890.1,662.4 892.0,662.4 892.0,565.1 '/>
		<polygon fill = 'rgb( 31, 120, 180)' fill-opacity = '0.250000' points = '892.0,565.1 892.0,662.4 893.9,662.4 893.9,567.9 '/>
		<polygon fill = 'rgb( 31, 120, 180)' fill-opacity = '0.250000' points = '893.9,567.9 893.9,662.4 895.8,662.4 895.8,570.5 '/>
		<polygon fill = 'rgb( 31, 120, 180)' fill-opacity = '0.250000' points = '895.8,570.5 895.8,662.4 897.6,662.4 897.6,573.1 '/>
		<polygon fill = 'rgb( 31, 120, 180)' fill-opacity = '0.250000' points = '897.6,573.1 897.6,662.4 899.5,662.4 899.5,575.6 '/>
		<polygon fill = 'rgb( 31, 120, 180)' fill-opacity = '0.250000' points = '899.5,575.6 899.5,662.4 901.4,662.4 901.4,578.1 '/>
		<polygon fill = 'rgb( 31, 120, 180)' fill-opacity = '0.250000' points = '901.4,578.1 901.4,662.4 903.2,662.4 903.2,580.4 '/>
		<polygon fill = 'rgb( 31, 120, 180)' fill-opacity = '0.250000' points = '903.2,580.4 903.2,662.4 905.1,662.4 905.1,582.7 '/>
		<polygon fill = 'rgb( 31, 120, 180)' fill-opacity = '0.250000' points = '905.1,582.7 905.1,662.4 907.0,662.4 907.0,584.9 '/>
		<polygon fill = 'rgb( 31, 120, 180)' fill-opacity = '0.250000' points = '907.0,584.9 907.0,662.4 908.8,662.4 908.8,587.0 '/>
		<polygon fill = 'rgb( 31, 120, 180)' fill-opacity = '0.250000' points = '908.8,587.0 908.8,662.4 910.7,662.4 910.7,589.0 '/>
		<polygon fill = 'rgb( 31, 120, 180)' fill-opacity = '0.250000' points = '910.7,589.0 910.7,662.4 912.6,662.4 912.6,591.0 '/>
		<polygon fill = 'rgb( 31, 120, 180)' fill-opacity = '0.250000' points = '912.6,591.0 912.6,662.4 914.5,662.4 914.5,593.0 '/>
		<polygon fill = 'rgb( 31, 120, 180)' fill-opacity = '0.250000' points = '914.5,593.0 914.5,662.4 916.3,662.4 916.3,594.9 '/>
		<polygon fill = 'rgb( 31, 120, 180)' fill-opacity = '0.250000' points = '916.3,594.9 916.3,662.4 918.2,662.4 918.2,596.7 '/>
		<polygon fill = 'rgb( 31, 120, 180)' fill-opacity = '0.250000' points = '918.2,596.7 918.2,662.4 920.1,662.4 920.1,598.5 '/>
		<polygon fill = 'rgb( 31, 120, 180)' fill-opacity = '0.250000' points = '920.1,598.5 920.1,662.4 921.9,662.4 921.9,600.2 '/>
		<polygon fill = 'rgb( 31, 120, 180)' fill-opacity = '0.250000' points = '921.9,600.2 921.9,662.4 923.8,662.4 923.8,601.9 '/>
		<polygon fill = 'rgb( 31, 120, 180)' fill-opacity = '0.250000' points = '923.8,601.9 923.8,662.4 925.7,662.4 925.7,603.6 '/>
	</g>
</g>
	</g>
	<g id="gnuplot_plot_3" ><title>Point estimate</title>
<g fill="none" color="white" stroke="rgb( 31, 120, 180)" stroke-width="2.00" stroke-linecap="butt" stroke-linejoin="miter">
</g>
<g fill="none" color="black" stroke="currentColor" stroke-width="2.00" stroke-linecap="butt" stroke-linejoin="miter">
	<g transform="translate(1089.0,103.0)" stroke="none" fill="black" font-family="Helvetica" font-size="12.00"  text-anchor="start">
		<text><tspan font-family="Helvetica" >Point estimate</tspan></text>
	</g>
</g>
<g fill="none" color="black" stroke="currentColor" stroke-width="2.00" stroke-linecap="butt" stroke-linejoin="miter">
	<path stroke='rgb( 31, 120, 180)'  d='M1038.5,99.1 L1080.7,99.1 M561.2,662.4 L561.2,153.0  '/></g>
	</g>
<g fill="none" color="black" stroke="currentColor" stroke-width="2.00" stroke-linecap="butt" stroke-linejoin="miter">
</g>
<g fill="none" color="black" stroke="black" stroke-width="1.00" stroke-linecap="butt" stroke-linejoin="miter">
</g>
<g fill="none" color="black" stroke="currentColor" stroke-width="1.00" stroke-linecap="butt" stroke-linejoin="miter">
	<path stroke='black'  d='M80.2,54.1 L80.2,662.4 L1013.6,662.4 L1013.6,54.1 L80.2,54.1 Z  '/></g>
<g fill="none" color="black" stroke="currentColor" stroke-width="1.00" stroke-linecap="butt" stroke-linejoin="miter">
</g>
</g>
</svg>

