<?xml version="1.0" encoding="utf-8"  standalone="no"?>
<!DOCTYPE svg PUBLIC "-//W3C//DTD SVG 1.1//EN"
 "http://www.w3.org/Graphics/SVG/1.1/DTD/svg11.dtd">
<svg 
 viewBox="0 0 1280 720"
 xmlns="http://www.w3.org/2000/svg"
 xmlns:xlink="http://www.w3.org/1999/xlink"
>

<title>Gnuplot</title>
<desc>Produced by GNUPLOT 5.0 patchlevel 5 </desc>

<g id="gnuplot_canvas">

<rect x="0" y="0" width="1280" height="720" fill="none"/>
<defs>

	<circle id='gpDot' r='0.5' stroke-width='0.5'/>
	<path id='gpPt0' stroke-width='0.222' stroke='currentColor' d='M-1,0 h2 M0,-1 v2'/>
	<path id='gpPt1' stroke-width='0.222' stroke='currentColor' d='M-1,-1 L1,1 M1,-1 L-1,1'/>
	<path id='gpPt2' stroke-width='0.222' stroke='currentColor' d='M-1,0 L1,0 M0,-1 L0,1 M-1,-1 L1,1 M-1,1 L1,-1'/>
	<rect id='gpPt3' stroke-width='0.222' stroke='currentColor' x='-1' y='-1' width='2' height='2'/>
	<rect id='gpPt4' stroke-width='0.222' stroke='currentColor' fill='currentColor' x='-1' y='-1' width='2' height='2'/>
	<circle id='gpPt5' stroke-width='0.222' stroke='currentColor' cx='0' cy='0' r='1'/>
	<use xlink:href='#gpPt5' id='gpPt6' fill='currentColor' stroke='none'/>
	<path id='gpPt7' stroke-width='0.222' stroke='currentColor' d='M0,-1.33 L-1.33,0.67 L1.33,0.67 z'/>
	<use xlink:href='#gpPt7' id='gpPt8' fill='currentColor' stroke='none'/>
	<use xlink:href='#gpPt7' id='gpPt9' stroke='currentColor' transform='rotate(180)'/>
	<use xlink:href='#gpPt9' id='gpPt10' fill='currentColor' stroke='none'/>
	<use xlink:href='#gpPt3' id='gpPt11' stroke='currentColor' transform='rotate(45)'/>
	<use xlink:href='#gpPt11' id='gpPt12' fill='currentColor' stroke='none'/>
	<path id='gpPt13' stroke-width='0.222' stroke='currentColor' d='M0,1.330 L1.265,0.411 L0.782,-1.067 L-0.782,-1.076 L-1.265,0.411 z'/>
	<use xlink:href='#gpPt13' id='gpPt14' fill='currentColor' stroke='none'/>
	<filter id='textbox' filterUnits='objectBoundingBox' x='0' y='0' height='1' width='1'>
	  <feFlood flood-color='white' flood-opacity='1' result='bgnd'/>
	  <feComposite in='SourceGraphic' in2='bgnd' operator='atop'/>
	</filter>
	<filter id='greybox' filterUnits='objectBoundingBox' x='0' y='0' height='1' width='1'>
	  <feFlood flood-color='lightgrey' flood-opacity='1' result='grey'/>
	  <feComposite in='SourceGraphic' in2='grey' operator='atop'/>
	</filter>
</defs>
<g fill="none" color="white" stroke="currentColor" stroke-width="1.00" stroke-linecap="butt" stroke-linejoin="miter">
</g>
<g fill="none" color="black" stroke="currentColor" stroke-width="1.00" stroke-linecap="butt" stroke-linejoin="miter">
	<path stroke='black'  d='M71.9,662.4 L80.9,662.4  '/>	<g transform="translate(63.6,666.3)" stroke="none" fill="black" font-family="Helvetica" font-size="12.00"  text-anchor="end">
		<text><tspan font-family="Helvetica" > 0</tspan></text>
	</g>
</g>
<g fill="none" color="black" stroke="currentColor" stroke-width="1.00" stroke-linecap="butt" stroke-linejoin="miter">
	<path stroke='black'  d='M71.9,586.4 L80.9,586.4  '/>	<g transform="translate(63.6,590.3)" stroke="none" fill="black" font-family="Helvetica" font-size="12.00"  text-anchor="end">
		<text><tspan font-family="Helvetica" > 20</tspan></text>
	</g>
</g>
<g fill="none" color="black" stroke="currentColor" stroke-width="1.00" stroke-linecap="butt" stroke-linejoin="miter">
	<path stroke='black'  d='M71.9,510.3 L80.9,510.3  '/>	<g transform="translate(63.6,514.2)" stroke="none" fill="black" font-family="Helvetica" font-size="12.00"  text-anchor="end">
		<text><tspan font-family="Helvetica" > 40</tspan></text>
	</g>
</g>
<g fill="none" color="black" stroke="currentColor" stroke-width="1.00" stroke-linecap="butt" stroke-linejoin="miter">
	<path stroke='black'  d='M71.9,434.3 L80.9,434.3  '/>	<g transform="translate(63.6,438.2)" stroke="none" fill="black" font-family="Helvetica" font-size="12.00"  text-anchor="end">
		<text><tspan font-family="Helvetica" > 60</tspan></text>
	</g>
</g>
<g fill="none" color="black" stroke="currentColor" stroke-width="1.00" stroke-linecap="butt" stroke-linejoin="miter">
	<path stroke='black'  d='M71.9,358.2 L80.9,358.2  '/>	<g transform="translate(63.6,362.1)" stroke="none" fill="black" font-family="Helvetica" font-size="12.00"  text-anchor="end">
		<text><tspan font-family="Helvetica" > 80</tspan></text>
	</g>
</g>
<g fill="none" color="black" stroke="currentColor" stroke-width="1.00" stroke-linecap="butt" stroke-linejoin="miter">
	<path stroke='black'  d='M71.9,282.2 L80.9,282.2  '/>	<g transform="translate(63.6,286.1)" stroke="none" fill="black" font-family="Helvetica" font-size="12.00"  text-anchor="end">
		<text><tspan font-family="Helvetica" > 100</tspan></text>
	</g>
</g>
<g fill="none" color="black" stroke="currentColor" stroke-width="1.00" stroke-linecap="butt" stroke-linejoin="miter">
	<path stroke='black'  d='M71.9,206.2 L80.9,206.2  '/>	<g transform="translate(63.6,210.1)" stroke="none" fill="black" font-family="Helvetica" font-size="12.00"  text-anchor="end">
		<text><tspan font-family="Helvetica" > 120</tspan></text>
	</g>
</g>
<g fill="none" color="black" stroke="currentColor" stroke-width="1.00" stroke-linecap="butt" stroke-linejoin="miter">
	<path stroke='black'  d='M71.9,130.1 L80.9,130.1  '/>	<g transform="translate(63.6,134.0)" stroke="none" fill="black" font-family="Helvetica" font-size="12.00"  text-anchor="end">
		<text><tspan font-family="Helvetica" > 140</tspan></text>
	</g>
</g>
<g fill="none" color="black" stroke="currentColor" stroke-width="1.00" stroke-linecap="butt" stroke-linejoin="miter">
	<path stroke='black'  d='M71.9,54.1 L80.9,54.1  '/>	<g transform="translate(63.6,58.0)" stroke="none" fill="black" font-family="Helvetica" font-size="12.00"  text-anchor="end">
		<text><tspan font-family="Helvetica" > 160</tspan></text>
	</g>
</g>
<g fill="none" color="black" stroke="currentColor" stroke-width="1.00" stroke-linecap="butt" stroke-linejoin="miter">
	<path stroke='black'  d='M221.1,662.4 L221.1,653.4  '/>	<g transform="translate(221.1,684.3)" stroke="none" fill="black" font-family="Helvetica" font-size="12.00"  text-anchor="middle">
		<text><tspan font-family="Helvetica" > 10.4</tspan></text>
	</g>
</g>
<g fill="none" color="black" stroke="currentColor" stroke-width="1.00" stroke-linecap="butt" stroke-linejoin="miter">
	<path stroke='black'  d='M378.2,662.4 L378.2,653.4  '/>	<g transform="translate(378.2,684.3)" stroke="none" fill="black" font-family="Helvetica" font-size="12.00"  text-anchor="middle">
		<text><tspan font-family="Helvetica" > 10.402</tspan></text>
	</g>
</g>
<g fill="none" color="black" stroke="currentColor" stroke-width="1.00" stroke-linecap="butt" stroke-linejoin="miter">
	<path stroke='black'  d='M535.3,662.4 L535.3,653.4  '/>	<g transform="translate(535.3,684.3)" stroke="none" fill="black" font-family="Helvetica" font-size="12.00"  text-anchor="middle">
		<text><tspan font-family="Helvetica" > 10.404</tspan></text>
	</g>
</g>
<g fill="none" color="black" stroke="currentColor" stroke-width="1.00" stroke-linecap="butt" stroke-linejoin="miter">
	<path stroke='black'  d='M692.4,662.4 L692.4,653.4  '/>	<g transform="translate(692.4,684.3)" stroke="none" fill="black" font-family="Helvetica" font-size="12.00"  text-anchor="middle">
		<text><tspan font-family="Helvetica" > 10.406</tspan></text>
	</g>
</g>
<g fill="none" color="black" stroke="currentColor" stroke-width="1.00" stroke-linecap="butt" stroke-linejoin="miter">
	<path stroke='black'  d='M849.5,662.4 L849.5,653.4  '/>	<g transform="translate(849.5,684.3)" stroke="none" fill="black" font-family="Helvetica" font-size="12.00"  text-anchor="middle">
		<text><tspan font-family="Helvetica" > 10.408</tspan></text>
	</g>
</g>
<g fill="none" color="black" stroke="currentColor" stroke-width="1.00" stroke-linecap="butt" stroke-linejoin="miter">
	<path stroke='black'  d='M1006.6,662.4 L1006.6,653.4  '/>	<g transform="translate(1006.6,684.3)" stroke="none" fill="black" font-family="Helvetica" font-size="12.00"  text-anchor="middle">
		<text><tspan font-family="Helvetica" > 10.41</tspan></text>
	</g>
</g>
<g fill="none" color="black" stroke="currentColor" stroke-width="1.00" stroke-linecap="butt" stroke-linejoin="miter">
</g>
<g fill="none" color="black" stroke="currentColor" stroke-width="1.00" stroke-linecap="butt" stroke-linejoin="miter">
	<path stroke='black'  d='M71.9,54.1 L71.9,662.4 L1013.6,662.4 L1013.6,54.1 L71.9,54.1 Z  '/></g>
<g fill="none" color="black" stroke="currentColor" stroke-width="1.00" stroke-linecap="butt" stroke-linejoin="miter">
	<g transform="translate(17.0,358.3) rotate(270)" stroke="none" fill="black" font-family="Helvetica" font-size="12.00"  text-anchor="middle">
		<text><tspan font-family="Helvetica" >Density (a.u.)</tspan></text>
	</g>
</g>
<g fill="none" color="black" stroke="currentColor" stroke-width="1.00" stroke-linecap="butt" stroke-linejoin="miter">
	<g transform="translate(542.7,711.3)" stroke="none" fill="black" font-family="Helvetica" font-size="12.00"  text-anchor="middle">
		<text><tspan font-family="Helvetica" >Average time (ms)</tspan></text>
	</g>
</g>
<g fill="none" color="black" stroke="currentColor" stroke-width="1.00" stroke-linecap="butt" stroke-linejoin="miter">
	<g transform="translate(542.7,31.0)" stroke="none" fill="black" font-family="Helvetica" font-size="12.00"  text-anchor="middle">
		<text><tspan font-family="Helvetica" >dlist arena mutex init no_drop: slope</tspan></text>
	</g>
</g>
	<g id="gnuplot_plot_1" ><title>Bootstrap distribution</title>
<g fill="none" color="white" stroke="black" stroke-width="2.00" stroke-linecap="butt" stroke-linejoin="miter">
</g>
<g fill="none" color="black" stroke="currentColor" stroke-width="2.00" stroke-linecap="butt" stroke-linejoin="miter">
	<g transform="translate(1089.0,67.0)" stroke="none" fill="black" font-family="Helvetica" font-size="12.00"  text-anchor="start">
		<text><tspan font-family="Helvetica" >Bootstrap distribution</tspan></text>
	</g>
</g>
<g fill="none" color="black" stroke="currentColor" stroke-width="2.00" stroke-linecap="butt" stroke-linejoin="miter">
	<path stroke='rgb( 31, 120, 180)'  d='M1038.5,63.1 L1080.7,63.1 M71.9,624.5 L73.8,623.2 L75.7,621.8 L77.6,620.5 L79.4,619.1 L81.3,617.7
		L83.2,616.3 L85.1,614.9 L87.0,613.6 L88.9,612.2 L90.8,610.8 L92.7,609.4 L94.5,608.1 L96.4,606.7
		L98.3,605.3 L100.2,604.0 L102.1,602.6 L104.0,601.2 L105.9,599.8 L107.8,598.4 L109.6,596.9 L111.5,595.4
		L113.4,593.9 L115.3,592.3 L117.2,590.7 L119.1,589.1 L121.0,587.3 L122.9,585.5 L124.7,583.7 L126.6,581.7
		L128.5,579.7 L130.4,577.6 L132.3,575.4 L134.2,573.2 L136.1,570.9 L138.0,568.5 L139.8,566.0 L141.7,563.5
		L143.6,560.9 L145.5,558.2 L147.4,555.5 L149.3,552.7 L151.2,549.9 L153.0,547.1 L154.9,544.2 L156.8,541.3
		L158.7,538.4 L160.6,535.5 L162.5,532.5 L164.4,529.5 L166.3,526.5 L168.1,523.5 L170.0,520.5 L171.9,517.5
		L173.8,514.5 L175.7,511.4 L177.6,508.4 L179.5,505.3 L181.4,502.2 L183.2,499.1 L185.1,495.9 L187.0,492.8
		L188.9,489.6 L190.8,486.3 L192.7,483.1 L194.6,479.8 L196.5,476.4 L198.3,473.0 L200.2,469.6 L202.1,466.1
		L204.0,462.5 L205.9,458.9 L207.8,455.3 L209.7,451.5 L211.6,447.7 L213.4,443.9 L215.3,440.0 L217.2,436.0
		L219.1,432.0 L221.0,427.9 L222.9,423.8 L224.8,419.7 L226.6,415.5 L228.5,411.2 L230.4,407.0 L232.3,402.7
		L234.2,398.4 L236.1,394.1 L238.0,389.7 L239.9,385.4 L241.7,381.1 L243.6,376.8 L245.5,372.5 L247.4,368.2
		L249.3,364.0 L251.2,359.7 L253.1,355.5 L255.0,351.3 L256.8,347.2 L258.7,343.0 L260.6,338.9 L262.5,334.7
		L264.4,330.6 L266.3,326.6 L268.2,322.5 L270.1,318.5 L271.9,314.4 L273.8,310.4 L275.7,306.4 L277.6,302.5
		L279.5,298.5 L281.4,294.6 L283.3,290.7 L285.2,286.8 L287.0,283.0 L288.9,279.1 L290.8,275.3 L292.7,271.4
		L294.6,267.6 L296.5,263.8 L298.4,260.0 L300.2,256.1 L302.1,252.3 L304.0,248.5 L305.9,244.6 L307.8,240.8
		L309.7,236.9 L311.6,233.1 L313.5,229.2 L315.3,225.4 L317.2,221.5 L319.1,217.7 L321.0,213.9 L322.9,210.1
		L324.8,206.4 L326.7,202.7 L328.6,199.0 L330.4,195.4 L332.3,191.9 L334.2,188.4 L336.1,185.0 L338.0,181.7
		L339.9,178.4 L341.8,175.2 L343.7,172.0 L345.5,168.9 L347.4,165.8 L349.3,162.8 L351.2,159.9 L353.1,156.9
		L355.0,154.0 L356.9,151.2 L358.8,148.4 L360.6,145.6 L362.5,142.8 L364.4,140.1 L366.3,137.4 L368.2,134.7
		L370.1,132.1 L372.0,129.6 L373.8,127.1 L375.7,124.7 L377.6,122.3 L379.5,120.0 L381.4,117.8 L383.3,115.7
		L385.2,113.6 L387.1,111.5 L388.9,109.6 L390.8,107.7 L392.7,105.8 L394.6,104.0 L396.5,102.2 L398.4,100.5
		L400.3,98.8 L402.2,97.1 L404.0,95.4 L405.9,93.8 L407.8,92.2 L409.7,90.6 L411.6,89.0 L413.5,87.5
		L415.4,85.9 L417.3,84.5 L419.1,83.0 L421.0,81.6 L422.9,80.2 L424.8,78.8 L426.7,77.5 L428.6,76.3
		L430.5,75.1 L432.4,73.9 L434.2,72.8 L436.1,71.7 L438.0,70.7 L439.9,69.8 L441.8,68.8 L443.7,67.9
		L445.6,67.1 L447.4,66.3 L449.3,65.5 L451.2,64.8 L453.1,64.1 L455.0,63.5 L456.9,62.9 L458.8,62.4
		L460.7,61.9 L462.5,61.5 L464.4,61.1 L466.3,60.8 L468.2,60.5 L470.1,60.3 L472.0,60.2 L473.9,60.1
		L475.8,60.1 L477.6,60.2 L479.5,60.4 L481.4,60.6 L483.3,60.9 L485.2,61.2 L487.1,61.6 L489.0,62.1
		L490.9,62.6 L492.7,63.2 L494.6,63.9 L496.5,64.6 L498.4,65.4 L500.3,66.3 L502.2,67.2 L504.1,68.1
		L506.0,69.1 L507.8,70.2 L509.7,71.4 L511.6,72.6 L513.5,73.9 L515.4,75.2 L517.3,76.6 L519.2,78.1
		L521.0,79.7 L522.9,81.3 L524.8,83.0 L526.7,84.8 L528.6,86.6 L530.5,88.6 L532.4,90.5 L534.3,92.6
		L536.1,94.7 L538.0,96.8 L539.9,99.0 L541.8,101.3 L543.7,103.5 L545.6,105.8 L547.5,108.1 L549.4,110.4
		L551.2,112.8 L553.1,115.1 L555.0,117.4 L556.9,119.7 L558.8,121.9 L560.7,124.2 L562.6,126.4 L564.5,128.6
		L566.3,130.7 L568.2,132.9 L570.1,135.0 L572.0,137.1 L573.9,139.2 L575.8,141.3 L577.7,143.4 L579.5,145.6
		L581.4,147.7 L583.3,149.9 L585.2,152.1 L587.1,154.3 L589.0,156.6 L590.9,159.0 L592.8,161.4 L594.6,163.8
		L596.5,166.3 L598.4,168.9 L600.3,171.5 L602.2,174.1 L604.1,176.8 L606.0,179.6 L607.9,182.4 L609.7,185.2
		L611.6,188.0 L613.5,190.9 L615.4,193.7 L617.3,196.6 L619.2,199.5 L621.1,202.4 L623.0,205.3 L624.8,208.2
		L626.7,211.1 L628.6,213.9 L630.5,216.8 L632.4,219.7 L634.3,222.6 L636.2,225.6 L638.1,228.5 L639.9,231.4
		L641.8,234.3 L643.7,237.3 L645.6,240.2 L647.5,243.2 L649.4,246.2 L651.3,249.2 L653.1,252.2 L655.0,255.2
		L656.9,258.3 L658.8,261.3 L660.7,264.4 L662.6,267.5 L664.5,270.6 L666.4,273.7 L668.2,276.8 L670.1,279.9
		L672.0,283.0 L673.9,286.2 L675.8,289.3 L677.7,292.4 L679.6,295.5 L681.5,298.6 L683.3,301.7 L685.2,304.7
		L687.1,307.8 L689.0,310.9 L690.9,313.9 L692.8,317.0 L694.7,320.0 L696.6,323.1 L698.4,326.1 L700.3,329.2
		L702.2,332.2 L704.1,335.3 L706.0,338.4 L707.9,341.4 L709.8,344.5 L711.7,347.6 L713.5,350.6 L715.4,353.7
		L717.3,356.8 L719.2,359.8 L721.1,362.9 L723.0,365.9 L724.9,368.9 L726.7,371.9 L728.6,374.8 L730.5,377.7
		L732.4,380.6 L734.3,383.5 L736.2,386.3 L738.1,389.1 L740.0,391.8 L741.8,394.6 L743.7,397.2 L745.6,399.9
		L747.5,402.5 L749.4,405.1 L751.3,407.7 L753.2,410.3 L755.1,412.9 L756.9,415.4 L758.8,418.0 L760.7,420.5
		L762.6,423.1 L764.5,425.6 L766.4,428.2 L768.3,430.8 L770.2,433.3 L772.0,435.9 L773.9,438.5 L775.8,441.1
		L777.7,443.6 L779.6,446.2 L781.5,448.8 L783.4,451.4 L785.3,454.0 L787.1,456.6 L789.0,459.2 L790.9,461.8
		L792.8,464.4 L794.7,466.9 L796.6,469.5 L798.5,472.0 L800.3,474.5 L802.2,477.0 L804.1,479.5 L806.0,482.0
		L807.9,484.4 L809.8,486.8 L811.7,489.1 L813.6,491.5 L815.4,493.8 L817.3,496.0 L819.2,498.3 L821.1,500.4
		L823.0,502.6 L824.9,504.7 L826.8,506.9 L828.7,508.9 L830.5,511.0 L832.4,513.0 L834.3,515.0 L836.2,516.9
		L838.1,518.9 L840.0,520.8 L841.9,522.7 L843.8,524.6 L845.6,526.4 L847.5,528.2 L849.4,530.0 L851.3,531.8
		L853.2,533.6 L855.1,535.3 L857.0,537.0 L858.9,538.7 L860.7,540.3 L862.6,541.9 L864.5,543.5 L866.4,545.1
		L868.3,546.6 L870.2,548.1 L872.1,549.6 L873.9,551.0 L875.8,552.5 L877.7,553.9 L879.6,555.3 L881.5,556.6
		L883.4,558.0 L885.3,559.3 L887.2,560.7 L889.0,562.0 L890.9,563.3 L892.8,564.6 L894.7,566.0 L896.6,567.3
		L898.5,568.6 L900.4,570.0 L902.3,571.3 L904.1,572.7 L906.0,574.0 L907.9,575.4 L909.8,576.8 L911.7,578.2
		L913.6,579.6 L915.5,580.9 L917.4,582.3 L919.2,583.7 L921.1,585.1 L923.0,586.4 L924.9,587.8 L926.8,589.1
		L928.7,590.5 L930.6,591.8 L932.5,593.1 L934.3,594.3 L936.2,595.6 L938.1,596.8 L940.0,598.0 L941.9,599.2
		L943.8,600.3 L945.7,601.5 L947.5,602.6 L949.4,603.6 L951.3,604.6 L953.2,605.7 L955.1,606.6 L957.0,607.6
		L958.9,608.5 L960.8,609.4 L962.6,610.2 L964.5,611.1 L966.4,611.9 L968.3,612.6 L970.2,613.4 L972.1,614.1
		L974.0,614.9 L975.9,615.6 L977.7,616.2 L979.6,616.9 L981.5,617.6 L983.4,618.2 L985.3,618.9 L987.2,619.5
		L989.1,620.1 L991.0,620.7 L992.8,621.3 L994.7,621.9 L996.6,622.5 L998.5,623.1 L1000.4,623.7 L1002.3,624.3
		L1004.2,624.9 L1006.1,625.5 L1007.9,626.1 L1009.8,626.6 L1011.7,627.2 L1013.6,627.7  '/></g>
	</g>
	<g id="gnuplot_plot_2" ><title>Confidence interval</title>
<g fill="none" color="white" stroke="rgb( 31, 120, 180)" stroke-width="1.00" stroke-linecap="butt" stroke-linejoin="miter">
</g>
<g fill="none" color="black" stroke="currentColor" stroke-width="1.00" stroke-linecap="butt" stroke-linejoin="miter">
	<g transform="translate(1089.0,85.0)" stroke="none" fill="black" font-family="Helvetica" font-size="12.00"  text-anchor="start">
		<text><tspan font-family="Helvetica" >Confidence interval</tspan></text>
	</g>
</g>
<g fill="none" color="black" stroke="currentColor" stroke-width="1.00" stroke-linecap="butt" stroke-linejoin="miter">
	<g stroke='none' shape-rendering='crispEdges'>
		<polygon fill = 'rgb( 31, 120, 180)' fill-opacity = '0.250000' points = '1038.5,85.6 1080.7,85.6 1080.7,76.6 1038.5,76.6 '/>
		<polygon fill = 'rgb( 31, 120, 180)' fill-opacity = '0.250000' points = '158.7,538.4 158.7,662.4 160.6,662.4 160.6,535.5 '/>
		<polygon fill = 'rgb( 31, 120, 180)' fill-opacity = '0.250000' points = '160.6,535.5 160.6,662.4 162.5,662.4 162.5,532.5 '/>
		<polygon fill = 'rgb( 31, 120, 180)' fill-opacity = '0.250000' points = '162.5,532.5 162.5,662.4 164.4,662.4 164.4,529.5 '/>
		<polygon fill = 'rgb( 31, 120, 180)' fill-opacity = '0.250000' points = '164.4,529.5 164.4,662.4 166.3,662.4 166.3,526.5 '/>
		<polygon fill = 'rgb( 31, 120, 180)' fill-opacity = '0.250000' points = '166.3,526.5 166.3,662.4 168.1,662.4 168.1,523.5 '/>
		<polygon fill = 'rgb( 31, 120, 180)' fill-opacity = '0.250000' points = '168.1,523.5 168.1,662.4 170.0,662.4 170.0,520.5 '/>
		<polygon fill = 'rgb( 31, 120, 180)' fill-opacity = '0.250000' points = '170.0,520.5 170.0,662.4 171.9,662.4 171.9,517.5 '/>
		<polygon fill = 'rgb( 31, 120, 180)' fill-opacity = '0.250000' points = '171.9,517.5 171.9,662.4 173.8,662.4 173.8,514.5 '/>
		<polygon fill = 'rgb( 31, 120, 180)' fill-opacity = '0.250000' points = '173.8,514.5 173.8,662.4 175.7,662.4 175.7,511.4 '/>
		<polygon fill = 'rgb( 31, 120, 180)' fill-opacity = '0.250000' points = '175.7,511.4 175.7,662.4 177.6,662.4 177.6,508.4 '/>
		<polygon fill = 'rgb( 31, 120, 180)' fill-opacity = '0.250000' points = '177.6,508.4 177.6,662.4 179.5,662.4 179.5,505.3 '/>
		<polygon fill = 'rgb( 31, 120, 180)' fill-opacity = '0.250000' points = '179.5,505.3 179.5,662.4 181.4,662.4 181.4,502.2 '/>
		<polygon fill = 'rgb( 31, 120, 180)' fill-opacity = '0.250000' points = '181.4,502.2 181.4,662.4 183.2,662.4 183.2,499.1 '/>
		<polygon fill = 'rgb( 31, 120, 180)' fill-opacity = '0.250000' points = '183.2,499.1 183.2,662.4 185.1,662.4 185.1,495.9 '/>
		<polygon fill = 'rgb( 31, 120, 180)' fill-opacity = '0.250000' points = '185.1,495.9 185.1,662.4 187.0,662.4 187.0,492.8 '/>
		<polygon fill = 'rgb( 31, 120, 180)' fill-opacity = '0.250000' points = '187.0,492.8 187.0,662.4 188.9,662.4 188.9,489.6 '/>
		<polygon fill = 'rgb( 31, 120, 180)' fill-opacity = '0.250000' points = '188.9,489.6 188.9,662.4 190.8,662.4 190.8,486.3 '/>
		<polygon fill = 'rgb( 31, 120, 180)' fill-opacity = '0.250000' points = '190.8,486.3 190.8,662.4 192.7,662.4 192.7,483.1 '/>
		<polygon fill = 'rgb( 31, 120, 180)' fill-opacity = '0.250000' points = '192.7,483.1 192.7,662.4 194.6,662.4 194.6,479.8 '/>
		<polygon fill = 'rgb( 31, 120, 180)' fill-opacity = '0.250000' points = '194.6,479.8 194.6,662.4 196.5,662.4 196.5,476.4 '/>
		<polygon fill = 'rgb( 31, 120, 180)' fill-opacity = '0.250000' points = '196.5,476.4 196.5,662.4 198.3,662.4 198.3,473.0 '/>
		<polygon fill = 'rgb( 31, 120, 180)' fill-opacity = '0.250000' points = '198.3,473.0 198.3,662.4 200.2,662.4 200.2,469.6 '/>
		<polygon fill = 'rgb( 31, 120, 180)' fill-opacity = '0.250000' points = '200.2,469.6 200.2,662.4 202.1,662.4 202.1,466.1 '/>
		<polygon fill = 'rgb( 31, 120, 180)' fill-opacity = '0.250000' points = '202.1,466.1 202.1,662.4 204.0,662.4 204.0,462.5 '/>
		<polygon fill = 'rgb( 31, 120, 180)' fill-opacity = '0.250000' points = '204.0,462.5 204.0,662.4 205.9,662.4 205.9,458.9 '/>
		<polygon fill = 'rgb( 31, 120, 180)' fill-opacity = '0.250000' points = '205.9,458.9 205.9,662.4 207.8,662.4 207.8,455.3 '/>
		<polygon fill = 'rgb( 31, 120, 180)' fill-opacity = '0.250000' points = '207.8,455.3 207.8,662.4 209.7,662.4 209.7,451.5 '/>
		<polygon fill = 'rgb( 31, 120, 180)' fill-opacity = '0.250000' points = '209.7,451.5 209.7,662.4 211.6,662.4 211.6,447.7 '/>
		<polygon fill = 'rgb( 31, 120, 180)' fill-opacity = '0.250000' points = '211.6,447.7 211.6,662.4 213.4,662.4 213.4,443.9 '/>
		<polygon fill = 'rgb( 31, 120, 180)' fill-opacity = '0.250000' points = '213.4,443.9 213.4,662.4 215.3,662.4 215.3,440.0 '/>
		<polygon fill = 'rgb( 31, 120, 180)' fill-opacity = '0.250000' points = '215.3,440.0 215.3,662.4 217.2,662.4 217.2,436.0 '/>
		<polygon fill = 'rgb( 31, 120, 180)' fill-opacity = '0.250000' points = '217.2,436.0 217.2,662.4 219.1,662.4 219.1,432.0 '/>
		<polygon fill = 'rgb( 31, 120, 180)' fill-opacity = '0.250000' points = '219.1,432.0 219.1,662.4 221.0,662.4 221.0,427.9 '/>
		<polygon fill = 'rgb( 31, 120, 180)' fill-opacity = '0.250000' points = '221.0,427.9 221.0,662.4 222.9,662.4 222.9,423.8 '/>
		<polygon fill = 'rgb( 31, 120, 180)' fill-opacity = '0.250000' points = '222.9,423.8 222.9,662.4 224.8,662.4 224.8,419.7 '/>
		<polygon fill = 'rgb( 31, 120, 180)' fill-opacity = '0.250000' points = '224.8,419.7 224.8,662.4 226.6,662.4 226.6,415.5 '/>
		<polygon fill = 'rgb( 31, 120, 180)' fill-opacity = '0.250000' points = '226.6,415.5 226.6,662.4 228.5,662.4 228.5,411.2 '/>
		<polygon fill = 'rgb( 31, 120, 180)' fill-opacity = '0.250000' points = '228.5,411.2 228.5,662.4 230.4,662.4 230.4,407.0 '/>
		<polygon fill = 'rgb( 31, 120, 180)' fill-opacity = '0.250000' points = '230.4,407.0 230.4,662.4 232.3,662.4 232.3,402.7 '/>
		<polygon fill = 'rgb( 31, 120, 180)' fill-opacity = '0.250000' points = '232.3,402.7 232.3,662.4 234.2,662.4 234.2,398.4 '/>
		<polygon fill = 'rgb( 31, 120, 180)' fill-opacity = '0.250000' points = '234.2,398.4 234.2,662.4 236.1,662.4 236.1,394.1 '/>
		<polygon fill = 'rgb( 31, 120, 180)' fill-opacity = '0.250000' points = '236.1,394.1 236.1,662.4 238.0,662.4 238.0,389.7 '/>
		<polygon fill = 'rgb( 31, 120, 180)' fill-opacity = '0.250000' points = '238.0,389.7 238.0,662.4 239.9,662.4 239.9,385.4 '/>
		<polygon fill = 'rgb( 31, 120, 180)' fill-opacity = '0.250000' points = '239.9,385.4 239.9,662.4 241.7,662.4 241.7,381.1 '/>
		<polygon fill = 'rgb( 31, 120, 180)' fill-opacity = '0.250000' points = '241.7,381.1 241.7,662.4 243.6,662.4 243.6,376.8 '/>
		<polygon fill = 'rgb( 31, 120, 180)' fill-opacity = '0.250000' points = '243.6,376.8 243.6,662.4 245.5,662.4 245.5,372.5 '/>
		<polygon fill = 'rgb( 31, 120, 180)' fill-opacity = '0.250000' points = '245.5,372.5 245.5,662.4 247.4,662.4 247.4,368.2 '/>
		<polygon fill = 'rgb( 31, 120, 180)' fill-opacity = '0.250000' points = '247.4,368.2 247.4,662.4 249.3,662.4 249.3,364.0 '/>
		<polygon fill = 'rgb( 31, 120, 180)' fill-opacity = '0.250000' points = '249.3,364.0 249.3,662.4 251.2,662.4 251.2,359.7 '/>
		<polygon fill = 'rgb( 31, 120, 180)' fill-opacity = '0.250000' points = '251.2,359.7 251.2,662.4 253.1,662.4 253.1,355.5 '/>
		<polygon fill = 'rgb( 31, 120, 180)' fill-opacity = '0.250000' points = '253.1,355.5 253.1,662.4 255.0,662.4 255.0,351.3 '/>
		<polygon fill = 'rgb( 31, 120, 180)' fill-opacity = '0.250000' points = '255.0,351.3 255.0,662.4 256.8,662.4 256.8,347.2 '/>
		<polygon fill = 'rgb( 31, 120, 180)' fill-opacity = '0.250000' points = '256.8,347.2 256.8,662.4 258.7,662.4 258.7,343.0 '/>
		<polygon fill = 'rgb( 31, 120, 180)' fill-opacity = '0.250000' points = '258.7,343.0 258.7,662.4 260.6,662.4 260.6,338.9 '/>
		<polygon fill = 'rgb( 31, 120, 180)' fill-opacity = '0.250000' points = '260.6,338.9 260.6,662.4 262.5,662.4 262.5,334.7 '/>
		<polygon fill = 'rgb( 31, 120, 180)' fill-opacity = '0.250000' points = '262.5,334.7 262.5,662.4 264.4,662.4 264.4,330.6 '/>
		<polygon fill = 'rgb( 31, 120, 180)' fill-opacity = '0.250000' points = '264.4,330.6 264.4,662.4 266.3,662.4 266.3,326.6 '/>
		<polygon fill = 'rgb( 31, 120, 180)' fill-opacity = '0.250000' points = '266.3,326.6 266.3,662.4 268.2,662.4 268.2,322.5 '/>
		<polygon fill = 'rgb( 31, 120, 180)' fill-opacity = '0.250000' points = '268.2,322.5 268.2,662.4 270.1,662.4 270.1,318.5 '/>
		<polygon fill = 'rgb( 31, 120, 180)' fill-opacity = '0.250000' points = '270.1,318.5 270.1,662.4 271.9,662.4 271.9,314.4 '/>
		<polygon fill = 'rgb( 31, 120, 180)' fill-opacity = '0.250000' points = '271.9,314.4 271.9,662.4 273.8,662.4 273.8,310.4 '/>
		<polygon fill = 'rgb( 31, 120, 180)' fill-opacity = '0.250000' points = '273.8,310.4 273.8,662.4 275.7,662.4 275.7,306.4 '/>
		<polygon fill = 'rgb( 31, 120, 180)' fill-opacity = '0.250000' points = '275.7,306.4 275.7,662.4 277.6,662.4 277.6,302.5 '/>
		<polygon fill = 'rgb( 31, 120, 180)' fill-opacity = '0.250000' points = '277.6,302.5 277.6,662.4 279.5,662.4 279.5,298.5 '/>
		<polygon fill = 'rgb( 31, 120, 180)' fill-opacity = '0.250000' points = '279.5,298.5 279.5,662.4 281.4,662.4 281.4,294.6 '/>
		<polygon fill = 'rgb( 31, 120, 180)' fill-opacity = '0.250000' points = '281.4,294.6 281.4,662.4 283.3,662.4 283.3,290.7 '/>
		<polygon fill = 'rgb( 31, 120, 180)' fill-opacity = '0.250000' points = '283.3,290.7 283.3,662.4 285.2,662.4 285.2,286.8 '/>
		<polygon fill = 'rgb( 31, 120, 180)' fill-opacity = '0.250000' points = '285.2,286.8 285.2,662.4 287.0,662.4 287.0,283.0 '/>
		<polygon fill = 'rgb( 31, 120, 180)' fill-opacity = '0.250000' points = '287.0,283.0 287.0,662.4 288.9,662.4 288.9,279.1 '/>
		<polygon fill = 'rgb( 31, 120, 180)' fill-opacity = '0.250000' points = '288.9,279.1 288.9,662.4 290.8,662.4 290.8,275.3 '/>
		<polygon fill = 'rgb( 31, 120, 180)' fill-opacity = '0.250000' points = '290.8,275.3 290.8,662.4 292.7,662.4 292.7,271.4 '/>
		<polygon fill = 'rgb( 31, 120, 180)' fill-opacity = '0.250000' points = '292.7,271.4 292.7,662.4 294.6,662.4 294.6,267.6 '/>
		<polygon fill = 'rgb( 31, 120, 180)' fill-opacity = '0.250000' points = '294.6,267.6 294.6,662.4 296.5,662.4 296.5,263.8 '/>
		<polygon fill = 'rgb( 31, 120, 180)' fill-opacity = '0.250000' points = '296.5,263.8 296.5,662.4 298.4,662.4 298.4,260.0 '/>
		<polygon fill = 'rgb( 31, 120, 180)' fill-opacity = '0.250000' points = '298.4,260.0 298.4,662.4 300.2,662.4 300.2,256.1 '/>
		<polygon fill = 'rgb( 31, 120, 180)' fill-opacity = '0.250000' points = '300.2,256.1 300.2,662.4 302.1,662.4 302.1,252.3 '/>
		<polygon fill = 'rgb( 31, 120, 180)' fill-opacity = '0.250000' points = '302.1,252.3 302.1,662.4 304.0,662.4 304.0,248.5 '/>
		<polygon fill = 'rgb( 31, 120, 180)' fill-opacity = '0.250000' points = '304.0,248.5 304.0,662.4 305.9,662.4 305.9,244.6 '/>
		<polygon fill = 'rgb( 31, 120, 180)' fill-opacity = '0.250000' points = '305.9,244.6 305.9,662.4 307.8,662.4 307.8,240.8 '/>
		<polygon fill = 'rgb( 31, 120, 180)' fill-opacity = '0.250000' points = '307.8,240.8 307.8,662.4 309.7,662.4 309.7,236.9 '/>
		<polygon fill = 'rgb( 31, 120, 180)' fill-opacity = '0.250000' points = '309.7,236.9 309.7,662.4 311.6,662.4 311.6,233.1 '/>
		<polygon fill = 'rgb( 31, 120, 180)' fill-opacity = '0.250000' points = '311.6,233.1 311.6,662.4 313.5,662.4 313.5,229.2 '/>
		<polygon fill = 'rgb( 31, 120, 180)' fill-opacity = '0.250000' points = '313.5,229.2 313.5,662.4 315.3,662.4 315.3,225.4 '/>
		<polygon fill = 'rgb( 31, 120, 180)' fill-opacity = '0.250000' points = '315.3,225.4 315.3,662.4 317.2,662.4 317.2,221.5 '/>
		<polygon fill = 'rgb( 31, 120, 180)' fill-opacity = '0.250000' points = '317.2,221.5 317.2,662.4 319.1,662.4 319.1,217.7 '/>
		<polygon fill = 'rgb( 31, 120, 180)' fill-opacity = '0.250000' points = '319.1,217.7 319.1,662.4 321.0,662.4 321.0,213.9 '/>
		<polygon fill = 'rgb( 31, 120, 180)' fill-opacity = '0.250000' points = '321.0,213.9 321.0,662.4 322.9,662.4 322.9,210.1 '/>
		<polygon fill = 'rgb( 31, 120, 180)' fill-opacity = '0.250000' points = '322.9,210.1 322.9,662.4 324.8,662.4 324.8,206.4 '/>
		<polygon fill = 'rgb( 31, 120, 180)' fill-opacity = '0.250000' points = '324.8,206.4 324.8,662.4 326.7,662.4 326.7,202.7 '/>
		<polygon fill = 'rgb( 31, 120, 180)' fill-opacity = '0.250000' points = '326.7,202.7 326.7,662.4 328.6,662.4 328.6,199.0 '/>
		<polygon fill = 'rgb( 31, 120, 180)' fill-opacity = '0.250000' points = '328.6,199.0 328.6,662.4 330.4,662.4 330.4,195.4 '/>
		<polygon fill = 'rgb( 31, 120, 180)' fill-opacity = '0.250000' points = '330.4,195.4 330.4,662.4 332.3,662.4 332.3,191.9 '/>
		<polygon fill = 'rgb( 31, 120, 180)' fill-opacity = '0.250000' points = '332.3,191.9 332.3,662.4 334.2,662.4 334.2,188.4 '/>
		<polygon fill = 'rgb( 31, 120, 180)' fill-opacity = '0.250000' points = '334.2,188.4 334.2,662.4 336.1,662.4 336.1,185.0 '/>
		<polygon fill = 'rgb( 31, 120, 180)' fill-opacity = '0.250000' points = '336.1,185.0 336.1,662.4 338.0,662.4 338.0,181.7 '/>
		<polygon fill = 'rgb( 31, 120, 180)' fill-opacity = '0.250000' points = '338.0,181.7 338.0,662.4 339.9,662.4 339.9,178.4 '/>
		<polygon fill = 'rgb( 31, 120, 180)' fill-opacity = '0.250000' points = '339.9,178.4 339.9,662.4 341.8,662.4 341.8,175.2 '/>
		<polygon fill = 'rgb( 31, 120, 180)' fill-opacity = '0.250000' points = '341.8,175.2 341.8,662.4 343.7,662.4 343.7,172.0 '/>
		<polygon fill = 'rgb( 31, 120, 180)' fill-opacity = '0.250000' points = '343.7,172.0 343.7,662.4 345.5,662.4 345.5,168.9 '/>
		<polygon fill = 'rgb( 31, 120, 180)' fill-opacity = '0.250000' points = '345.5,168.9 345.5,662.4 347.4,662.4 347.4,165.8 '/>
		<polygon fill = 'rgb( 31, 120, 180)' fill-opacity = '0.250000' points = '347.4,165.8 347.4,662.4 349.3,662.4 349.3,162.8 '/>
		<polygon fill = 'rgb( 31, 120, 180)' fill-opacity = '0.250000' points = '349.3,162.8 349.3,662.4 351.2,662.4 351.2,159.9 '/>
		<polygon fill = 'rgb( 31, 120, 180)' fill-opacity = '0.250000' points = '351.2,159.9 351.2,662.4 353.1,662.4 353.1,156.9 '/>
		<polygon fill = 'rgb( 31, 120, 180)' fill-opacity = '0.250000' points = '353.1,156.9 353.1,662.4 355.0,662.4 355.0,154.0 '/>
		<polygon fill = 'rgb( 31, 120, 180)' fill-opacity = '0.250000' points = '355.0,154.0 355.0,662.4 356.9,662.4 356.9,151.2 '/>
		<polygon fill = 'rgb( 31, 120, 180)' fill-opacity = '0.250000' points = '356.9,151.2 356.9,662.4 358.8,662.4 358.8,148.4 '/>
		<polygon fill = 'rgb( 31, 120, 180)' fill-opacity = '0.250000' points = '358.8,148.4 358.8,662.4 360.6,662.4 360.6,145.6 '/>
		<polygon fill = 'rgb( 31, 120, 180)' fill-opacity = '0.250000' points = '360.6,145.6 360.6,662.4 362.5,662.4 362.5,142.8 '/>
		<polygon fill = 'rgb( 31, 120, 180)' fill-opacity = '0.250000' points = '362.5,142.8 362.5,662.4 364.4,662.4 364.4,140.1 '/>
		<polygon fill = 'rgb( 31, 120, 180)' fill-opacity = '0.250000' points = '364.4,140.1 364.4,662.4 366.3,662.4 366.3,137.4 '/>
		<polygon fill = 'rgb( 31, 120, 180)' fill-opacity = '0.250000' points = '366.3,137.4 366.3,662.4 368.2,662.4 368.2,134.7 '/>
		<polygon fill = 'rgb( 31, 120, 180)' fill-opacity = '0.250000' points = '368.2,134.7 368.2,662.4 370.1,662.4 370.1,132.1 '/>
		<polygon fill = 'rgb( 31, 120, 180)' fill-opacity = '0.250000' points = '370.1,132.1 370.1,662.4 372.0,662.4 372.0,129.6 '/>
		<polygon fill = 'rgb( 31, 120, 180)' fill-opacity = '0.250000' points = '372.0,129.6 372.0,662.4 373.8,662.4 373.8,127.1 '/>
		<polygon fill = 'rgb( 31, 120, 180)' fill-opacity = '0.250000' points = '373.8,127.1 373.8,662.4 375.7,662.4 375.7,124.7 '/>
		<polygon fill = 'rgb( 31, 120, 180)' fill-opacity = '0.250000' points = '375.7,124.7 375.7,662.4 377.6,662.4 377.6,122.3 '/>
		<polygon fill = 'rgb( 31, 120, 180)' fill-opacity = '0.250000' points = '377.6,122.3 377.6,662.4 379.5,662.4 379.5,120.0 '/>
		<polygon fill = 'rgb( 31, 120, 180)' fill-opacity = '0.250000' points = '379.5,120.0 379.5,662.4 381.4,662.4 381.4,117.8 '/>
		<polygon fill = 'rgb( 31, 120, 180)' fill-opacity = '0.250000' points = '381.4,117.8 381.4,662.4 383.3,662.4 383.3,115.7 '/>
		<polygon fill = 'rgb( 31, 120, 180)' fill-opacity = '0.250000' points = '383.3,115.7 383.3,662.4 385.2,662.4 385.2,113.6 '/>
		<polygon fill = 'rgb( 31, 120, 180)' fill-opacity = '0.250000' points = '385.2,113.6 385.2,662.4 387.1,662.4 387.1,111.5 '/>
		<polygon fill = 'rgb( 31, 120, 180)' fill-opacity = '0.250000' points = '387.1,111.5 387.1,662.4 388.9,662.4 388.9,109.6 '/>
		<polygon fill = 'rgb( 31, 120, 180)' fill-opacity = '0.250000' points = '388.9,109.6 388.9,662.4 390.8,662.4 390.8,107.7 '/>
		<polygon fill = 'rgb( 31, 120, 180)' fill-opacity = '0.250000' points = '390.8,107.7 390.8,662.4 392.7,662.4 392.7,105.8 '/>
		<polygon fill = 'rgb( 31, 120, 180)' fill-opacity = '0.250000' points = '392.7,105.8 392.7,662.4 394.6,662.4 394.6,104.0 '/>
		<polygon fill = 'rgb( 31, 120, 180)' fill-opacity = '0.250000' points = '394.6,104.0 394.6,662.4 396.5,662.4 396.5,102.2 '/>
		<polygon fill = 'rgb( 31, 120, 180)' fill-opacity = '0.250000' points = '396.5,102.2 396.5,662.4 398.4,662.4 398.4,100.5 '/>
		<polygon fill = 'rgb( 31, 120, 180)' fill-opacity = '0.250000' points = '398.4,100.5 398.4,662.4 400.3,662.4 400.3,98.8 '/>
		<polygon fill = 'rgb( 31, 120, 180)' fill-opacity = '0.250000' points = '400.3,98.8 400.3,662.4 402.2,662.4 402.2,97.1 '/>
		<polygon fill = 'rgb( 31, 120, 180)' fill-opacity = '0.250000' points = '402.2,97.1 402.2,662.4 404.0,662.4 404.0,95.4 '/>
		<polygon fill = 'rgb( 31, 120, 180)' fill-opacity = '0.250000' points = '404.0,95.4 404.0,662.4 405.9,662.4 405.9,93.8 '/>
		<polygon fill = 'rgb( 31, 120, 180)' fill-opacity = '0.250000' points = '405.9,93.8 405.9,662.4 407.8,662.4 407.8,92.2 '/>
		<polygon fill = 'rgb( 31, 120, 180)' fill-opacity = '0.250000' points = '407.8,92.2 407.8,662.4 409.7,662.4 409.7,90.6 '/>
		<polygon fill = 'rgb( 31, 120, 180)' fill-opacity = '0.250000' points = '409.7,90.6 409.7,662.4 411.6,662.4 411.6,89.0 '/>
		<polygon fill = 'rgb( 31, 120, 180)' fill-opacity = '0.250000' points = '411.6,89.0 411.6,662.4 413.5,662.4 413.5,87.5 '/>
		<polygon fill = 'rgb( 31, 120, 180)' fill-opacity = '0.250000' points = '413.5,87.5 413.5,662.4 415.4,662.4 415.4,85.9 '/>
		<polygon fill = 'rgb( 31, 120, 180)' fill-opacity = '0.250000' points = '415.4,85.9 415.4,662.4 417.3,662.4 417.3,84.5 '/>
		<polygon fill = 'rgb( 31, 120, 180)' fill-opacity = '0.250000' points = '417.3,84.5 417.3,662.4 419.1,662.4 419.1,83.0 '/>
		<polygon fill = 'rgb( 31, 120, 180)' fill-opacity = '0.250000' points = '419.1,83.0 419.1,662.4 421.0,662.4 421.0,81.6 '/>
		<polygon fill = 'rgb( 31, 120, 180)' fill-opacity = '0.250000' points = '421.0,81.6 421.0,662.4 422.9,662.4 422.9,80.2 '/>
		<polygon fill = 'rgb( 31, 120, 180)' fill-opacity = '0.250000' points = '422.9,80.2 422.9,662.4 424.8,662.4 424.8,78.8 '/>
		<polygon fill = 'rgb( 31, 120, 180)' fill-opacity = '0.250000' points = '424.8,78.8 424.8,662.4 426.7,662.4 426.7,77.5 '/>
		<polygon fill = 'rgb( 31, 120, 180)' fill-opacity = '0.250000' points = '426.7,77.5 426.7,662.4 428.6,662.4 428.6,76.3 '/>
		<polygon fill = 'rgb( 31, 120, 180)' fill-opacity = '0.250000' points = '428.6,76.3 428.6,662.4 430.5,662.4 430.5,75.1 '/>
		<polygon fill = 'rgb( 31, 120, 180)' fill-opacity = '0.250000' points = '430.5,75.1 430.5,662.4 432.4,662.4 432.4,73.9 '/>
		<polygon fill = 'rgb( 31, 120, 180)' fill-opacity = '0.250000' points = '432.4,73.9 432.4,662.4 434.2,662.4 434.2,72.8 '/>
		<polygon fill = 'rgb( 31, 120, 180)' fill-opacity = '0.250000' points = '434.2,72.8 434.2,662.4 436.1,662.4 436.1,71.7 '/>
		<polygon fill = 'rgb( 31, 120, 180)' fill-opacity = '0.250000' points = '436.1,71.7 436.1,662.4 438.0,662.4 438.0,70.7 '/>
		<polygon fill = 'rgb( 31, 120, 180)' fill-opacity = '0.250000' points = '438.0,70.7 438.0,662.4 439.9,662.4 439.9,69.8 '/>
		<polygon fill = 'rgb( 31, 120, 180)' fill-opacity = '0.250000' points = '439.9,69.8 439.9,662.4 441.8,662.4 441.8,68.8 '/>
		<polygon fill = 'rgb( 31, 120, 180)' fill-opacity = '0.250000' points = '441.8,68.8 441.8,662.4 443.7,662.4 443.7,67.9 '/>
		<polygon fill = 'rgb( 31, 120, 180)' fill-opacity = '0.250000' points = '443.7,67.9 443.7,662.4 445.6,662.4 445.6,67.1 '/>
		<polygon fill = 'rgb( 31, 120, 180)' fill-opacity = '0.250000' points = '445.6,67.1 445.6,662.4 447.4,662.4 447.4,66.3 '/>
		<polygon fill = 'rgb( 31, 120, 180)' fill-opacity = '0.250000' points = '447.4,66.3 447.4,662.4 449.3,662.4 449.3,65.5 '/>
		<polygon fill = 'rgb( 31, 120, 180)' fill-opacity = '0.250000' points = '449.3,65.5 449.3,662.4 451.2,662.4 451.2,64.8 '/>
		<polygon fill = 'rgb( 31, 120, 180)' fill-opacity = '0.250000' points = '451.2,64.8 451.2,662.4 453.1,662.4 453.1,64.1 '/>
		<polygon fill = 'rgb( 31, 120, 180)' fill-opacity = '0.250000' points = '453.1,64.1 453.1,662.4 455.0,662.4 455.0,63.5 '/>
		<polygon fill = 'rgb( 31, 120, 180)' fill-opacity = '0.250000' points = '455.0,63.5 455.0,662.4 456.9,662.4 456.9,62.9 '/>
		<polygon fill = 'rgb( 31, 120, 180)' fill-opacity = '0.250000' points = '456.9,62.9 456.9,662.4 458.8,662.4 458.8,62.4 '/>
		<polygon fill = 'rgb( 31, 120, 180)' fill-opacity = '0.250000' points = '458.8,62.4 458.8,662.4 460.7,662.4 460.7,61.9 '/>
		<polygon fill = 'rgb( 31, 120, 180)' fill-opacity = '0.250000' points = '460.7,61.9 460.7,662.4 462.5,662.4 462.5,61.5 '/>
		<polygon fill = 'rgb( 31, 120, 180)' fill-opacity = '0.250000' points = '462.5,61.5 462.5,662.4 464.4,662.4 464.4,61.1 '/>
		<polygon fill = 'rgb( 31, 120, 180)' fill-opacity = '0.250000' points = '464.4,61.1 464.4,662.4 466.3,662.4 466.3,60.8 '/>
		<polygon fill = 'rgb( 31, 120, 180)' fill-opacity = '0.250000' points = '466.3,60.8 466.3,662.4 468.2,662.4 468.2,60.5 '/>
		<polygon fill = 'rgb( 31, 120, 180)' fill-opacity = '0.250000' points = '468.2,60.5 468.2,662.4 470.1,662.4 470.1,60.3 '/>
		<polygon fill = 'rgb( 31, 120, 180)' fill-opacity = '0.250000' points = '470.1,60.3 470.1,662.4 472.0,662.4 472.0,60.2 '/>
		<polygon fill = 'rgb( 31, 120, 180)' fill-opacity = '0.250000' points = '472.0,60.2 472.0,662.4 473.9,662.4 473.9,60.1 '/>
		<polygon fill = 'rgb( 31, 120, 180)' fill-opacity = '0.250000' points = '473.9,60.1 473.9,662.4 475.8,662.4 475.8,60.1 '/>
		<polygon fill = 'rgb( 31, 120, 180)' fill-opacity = '0.250000' points = '475.8,60.1 475.8,662.4 477.6,662.4 477.6,60.2 '/>
		<polygon fill = 'rgb( 31, 120, 180)' fill-opacity = '0.250000' points = '477.6,60.2 477.6,662.4 479.5,662.4 479.5,60.4 '/>
		<polygon fill = 'rgb( 31, 120, 180)' fill-opacity = '0.250000' points = '479.5,60.4 479.5,662.4 481.4,662.4 481.4,60.6 '/>
		<polygon fill = 'rgb( 31, 120, 180)' fill-opacity = '0.250000' points = '481.4,60.6 481.4,662.4 483.3,662.4 483.3,60.9 '/>
		<polygon fill = 'rgb( 31, 120, 180)' fill-opacity = '0.250000' points = '483.3,60.9 483.3,662.4 485.2,662.4 485.2,61.2 '/>
		<polygon fill = 'rgb( 31, 120, 180)' fill-opacity = '0.250000' points = '485.2,61.2 485.2,662.4 487.1,662.4 487.1,61.6 '/>
		<polygon fill = 'rgb( 31, 120, 180)' fill-opacity = '0.250000' points = '487.1,61.6 487.1,662.4 489.0,662.4 489.0,62.1 '/>
		<polygon fill = 'rgb( 31, 120, 180)' fill-opacity = '0.250000' points = '489.0,62.1 489.0,662.4 490.9,662.4 490.9,62.6 '/>
		<polygon fill = 'rgb( 31, 120, 180)' fill-opacity = '0.250000' points = '490.9,62.6 490.9,662.4 492.7,662.4 492.7,63.2 '/>
		<polygon fill = 'rgb( 31, 120, 180)' fill-opacity = '0.250000' points = '492.7,63.2 492.7,662.4 494.6,662.4 494.6,63.9 '/>
		<polygon fill = 'rgb( 31, 120, 180)' fill-opacity = '0.250000' points = '494.6,63.9 494.6,662.4 496.5,662.4 496.5,64.6 '/>
		<polygon fill = 'rgb( 31, 120, 180)' fill-opacity = '0.250000' points = '496.5,64.6 496.5,662.4 498.4,662.4 498.4,65.4 '/>
		<polygon fill = 'rgb( 31, 120, 180)' fill-opacity = '0.250000' points = '498.4,65.4 498.4,662.4 500.3,662.4 500.3,66.3 '/>
		<polygon fill = 'rgb( 31, 120, 180)' fill-opacity = '0.250000' points = '500.3,66.3 500.3,662.4 502.2,662.4 502.2,67.2 '/>
		<polygon fill = 'rgb( 31, 120, 180)' fill-opacity = '0.250000' points = '502.2,67.2 502.2,662.4 504.1,662.4 504.1,68.1 '/>
		<polygon fill = 'rgb( 31, 120, 180)' fill-opacity = '0.250000' points = '504.1,68.1 504.1,662.4 506.0,662.4 506.0,69.1 '/>
		<polygon fill = 'rgb( 31, 120, 180)' fill-opacity = '0.250000' points = '506.0,69.1 506.0,662.4 507.8,662.4 507.8,70.2 '/>
		<polygon fill = 'rgb( 31, 120, 180)' fill-opacity = '0.250000' points = '507.8,70.2 507.8,662.4 509.7,662.4 509.7,71.4 '/>
		<polygon fill = 'rgb( 31, 120, 180)' fill-opacity = '0.250000' points = '509.7,71.4 509.7,662.4 511.6,662.4 511.6,72.6 '/>
		<polygon fill = 'rgb( 31, 120, 180)' fill-opacity = '0.250000' points = '511.6,72.6 511.6,662.4 513.5,662.4 513.5,73.9 '/>
		<polygon fill = 'rgb( 31, 120, 180)' fill-opacity = '0.250000' points = '513.5,73.9 513.5,662.4 515.4,662.4 515.4,75.2 '/>
		<polygon fill = 'rgb( 31, 120, 180)' fill-opacity = '0.250000' points = '515.4,75.2 515.4,662.4 517.3,662.4 517.3,76.6 '/>
		<polygon fill = 'rgb( 31, 120, 180)' fill-opacity = '0.250000' points = '517.3,76.6 517.3,662.4 519.2,662.4 519.2,78.1 '/>
		<polygon fill = 'rgb( 31, 120, 180)' fill-opacity = '0.250000' points = '519.2,78.1 519.2,662.4 521.0,662.4 521.0,79.7 '/>
		<polygon fill = 'rgb( 31, 120, 180)' fill-opacity = '0.250000' points = '521.0,79.7 521.0,662.4 522.9,662.4 522.9,81.3 '/>
		<polygon fill = 'rgb( 31, 120, 180)' fill-opacity = '0.250000' points = '522.9,81.3 522.9,662.4 524.8,662.4 524.8,83.0 '/>
		<polygon fill = 'rgb( 31, 120, 180)' fill-opacity = '0.250000' points = '524.8,83.0 524.8,662.4 526.7,662.4 526.7,84.8 '/>
		<polygon fill = 'rgb( 31, 120, 180)' fill-opacity = '0.250000' points = '526.7,84.8 526.7,662.4 528.6,662.4 528.6,86.6 '/>
		<polygon fill = 'rgb( 31, 120, 180)' fill-opacity = '0.250000' points = '528.6,86.6 528.6,662.4 530.5,662.4 530.5,88.6 '/>
		<polygon fill = 'rgb( 31, 120, 180)' fill-opacity = '0.250000' points = '530.5,88.6 530.5,662.4 532.4,662.4 532.4,90.5 '/>
		<polygon fill = 'rgb( 31, 120, 180)' fill-opacity = '0.250000' points = '532.4,90.5 532.4,662.4 534.3,662.4 534.3,92.6 '/>
		<polygon fill = 'rgb( 31, 120, 180)' fill-opacity = '0.250000' points = '534.3,92.6 534.3,662.4 536.1,662.4 536.1,94.7 '/>
		<polygon fill = 'rgb( 31, 120, 180)' fill-opacity = '0.250000' points = '536.1,94.7 536.1,662.4 538.0,662.4 538.0,96.8 '/>
		<polygon fill = 'rgb( 31, 120, 180)' fill-opacity = '0.250000' points = '538.0,96.8 538.0,662.4 539.9,662.4 539.9,99.0 '/>
		<polygon fill = 'rgb( 31, 120, 180)' fill-opacity = '0.250000' points = '539.9,99.0 539.9,662.4 541.8,662.4 541.8,101.3 '/>
		<polygon fill = 'rgb( 31, 120, 180)' fill-opacity = '0.250000' points = '541.8,101.3 541.8,662.4 543.7,662.4 543.7,103.5 '/>
		<polygon fill = 'rgb( 31, 120, 180)' fill-opacity = '0.250000' points = '543.7,103.5 543.7,662.4 545.6,662.4 545.6,105.8 '/>
		<polygon fill = 'rgb( 31, 120, 180)' fill-opacity = '0.250000' points = '545.6,105.8 545.6,662.4 547.5,662.4 547.5,108.1 '/>
		<polygon fill = 'rgb( 31, 120, 180)' fill-opacity = '0.250000' points = '547.5,108.1 547.5,662.4 549.4,662.4 549.4,110.4 '/>
		<polygon fill = 'rgb( 31, 120, 180)' fill-opacity = '0.250000' points = '549.4,110.4 549.4,662.4 551.2,662.4 551.2,112.8 '/>
		<polygon fill = 'rgb( 31, 120, 180)' fill-opacity = '0.250000' points = '551.2,112.8 551.2,662.4 553.1,662.4 553.1,115.1 '/>
		<polygon fill = 'rgb( 31, 120, 180)' fill-opacity = '0.250000' points = '553.1,115.1 553.1,662.4 555.0,662.4 555.0,117.4 '/>
		<polygon fill = 'rgb( 31, 120, 180)' fill-opacity = '0.250000' points = '555.0,117.4 555.0,662.4 556.9,662.4 556.9,119.7 '/>
		<polygon fill = 'rgb( 31, 120, 180)' fill-opacity = '0.250000' points = '556.9,119.7 556.9,662.4 558.8,662.4 558.8,121.9 '/>
		<polygon fill = 'rgb( 31, 120, 180)' fill-opacity = '0.250000' points = '558.8,121.9 558.8,662.4 560.7,662.4 560.7,124.2 '/>
		<polygon fill = 'rgb( 31, 120, 180)' fill-opacity = '0.250000' points = '560.7,124.2 560.7,662.4 562.6,662.4 562.6,126.4 '/>
		<polygon fill = 'rgb( 31, 120, 180)' fill-opacity = '0.250000' points = '562.6,126.4 562.6,662.4 564.5,662.4 564.5,128.6 '/>
		<polygon fill = 'rgb( 31, 120, 180)' fill-opacity = '0.250000' points = '564.5,128.6 564.5,662.4 566.3,662.4 566.3,130.7 '/>
		<polygon fill = 'rgb( 31, 120, 180)' fill-opacity = '0.250000' points = '566.3,130.7 566.3,662.4 568.2,662.4 568.2,132.9 '/>
		<polygon fill = 'rgb( 31, 120, 180)' fill-opacity = '0.250000' points = '568.2,132.9 568.2,662.4 570.1,662.4 570.1,135.0 '/>
		<polygon fill = 'rgb( 31, 120, 180)' fill-opacity = '0.250000' points = '570.1,135.0 570.1,662.4 572.0,662.4 572.0,137.1 '/>
		<polygon fill = 'rgb( 31, 120, 180)' fill-opacity = '0.250000' points = '572.0,137.1 572.0,662.4 573.9,662.4 573.9,139.2 '/>
		<polygon fill = 'rgb( 31, 120, 180)' fill-opacity = '0.250000' points = '573.9,139.2 573.9,662.4 575.8,662.4 575.8,141.3 '/>
		<polygon fill = 'rgb( 31, 120, 180)' fill-opacity = '0.250000' points = '575.8,141.3 575.8,662.4 577.7,662.4 577.7,143.4 '/>
		<polygon fill = 'rgb( 31, 120, 180)' fill-opacity = '0.250000' points = '577.7,143.4 577.7,662.4 579.5,662.4 579.5,145.6 '/>
		<polygon fill = 'rgb( 31, 120, 180)' fill-opacity = '0.250000' points = '579.5,145.6 579.5,662.4 581.4,662.4 581.4,147.7 '/>
		<polygon fill = 'rgb( 31, 120, 180)' fill-opacity = '0.250000' points = '581.4,147.7 581.4,662.4 583.3,662.4 583.3,149.9 '/>
		<polygon fill = 'rgb( 31, 120, 180)' fill-opacity = '0.250000' points = '583.3,149.9 583.3,662.4 585.2,662.4 585.2,152.1 '/>
		<polygon fill = 'rgb( 31, 120, 180)' fill-opacity = '0.250000' points = '585.2,152.1 585.2,662.4 587.1,662.4 587.1,154.3 '/>
		<polygon fill = 'rgb( 31, 120, 180)' fill-opacity = '0.250000' points = '587.1,154.3 587.1,662.4 589.0,662.4 589.0,156.6 '/>
		<polygon fill = 'rgb( 31, 120, 180)' fill-opacity = '0.250000' points = '589.0,156.6 589.0,662.4 590.9,662.4 590.9,159.0 '/>
		<polygon fill = 'rgb( 31, 120, 180)' fill-opacity = '0.250000' points = '590.9,159.0 590.9,662.4 592.8,662.4 592.8,161.4 '/>
		<polygon fill = 'rgb( 31, 120, 180)' fill-opacity = '0.250000' points = '592.8,161.4 592.8,662.4 594.6,662.4 594.6,163.8 '/>
		<polygon fill = 'rgb( 31, 120, 180)' fill-opacity = '0.250000' points = '594.6,163.8 594.6,662.4 596.5,662.4 596.5,166.3 '/>
		<polygon fill = 'rgb( 31, 120, 180)' fill-opacity = '0.250000' points = '596.5,166.3 596.5,662.4 598.4,662.4 598.4,168.9 '/>
		<polygon fill = 'rgb( 31, 120, 180)' fill-opacity = '0.250000' points = '598.4,168.9 598.4,662.4 600.3,662.4 600.3,171.5 '/>
		<polygon fill = 'rgb( 31, 120, 180)' fill-opacity = '0.250000' points = '600.3,171.5 600.3,662.4 602.2,662.4 602.2,174.1 '/>
		<polygon fill = 'rgb( 31, 120, 180)' fill-opacity = '0.250000' points = '602.2,174.1 602.2,662.4 604.1,662.4 604.1,176.8 '/>
		<polygon fill = 'rgb( 31, 120, 180)' fill-opacity = '0.250000' points = '604.1,176.8 604.1,662.4 606.0,662.4 606.0,179.6 '/>
		<polygon fill = 'rgb( 31, 120, 180)' fill-opacity = '0.250000' points = '606.0,179.6 606.0,662.4 607.9,662.4 607.9,182.4 '/>
		<polygon fill = 'rgb( 31, 120, 180)' fill-opacity = '0.250000' points = '607.9,182.4 607.9,662.4 609.7,662.4 609.7,185.2 '/>
		<polygon fill = 'rgb( 31, 120, 180)' fill-opacity = '0.250000' points = '609.7,185.2 609.7,662.4 611.6,662.4 611.6,188.0 '/>
		<polygon fill = 'rgb( 31, 120, 180)' fill-opacity = '0.250000' points = '611.6,188.0 611.6,662.4 613.5,662.4 613.5,190.9 '/>
		<polygon fill = 'rgb( 31, 120, 180)' fill-opacity = '0.250000' points = '613.5,190.9 613.5,662.4 615.4,662.4 615.4,193.7 '/>
		<polygon fill = 'rgb( 31, 120, 180)' fill-opacity = '0.250000' points = '615.4,193.7 615.4,662.4 617.3,662.4 617.3,196.6 '/>
		<polygon fill = 'rgb( 31, 120, 180)' fill-opacity = '0.250000' points = '617.3,196.6 617.3,662.4 619.2,662.4 619.2,199.5 '/>
		<polygon fill = 'rgb( 31, 120, 180)' fill-opacity = '0.250000' points = '619.2,199.5 619.2,662.4 621.1,662.4 621.1,202.4 '/>
		<polygon fill = 'rgb( 31, 120, 180)' fill-opacity = '0.250000' points = '621.1,202.4 621.1,662.4 623.0,662.4 623.0,205.3 '/>
		<polygon fill = 'rgb( 31, 120, 180)' fill-opacity = '0.250000' points = '623.0,205.3 623.0,662.4 624.8,662.4 624.8,208.2 '/>
		<polygon fill = 'rgb( 31, 120, 180)' fill-opacity = '0.250000' points = '624.8,208.2 624.8,662.4 626.7,662.4 626.7,211.1 '/>
		<polygon fill = 'rgb( 31, 120, 180)' fill-opacity = '0.250000' points = '626.7,211.1 626.7,662.4 628.6,662.4 628.6,213.9 '/>
		<polygon fill = 'rgb( 31, 120, 180)' fill-opacity = '0.250000' points = '628.6,213.9 628.6,662.4 630.5,662.4 630.5,216.8 '/>
		<polygon fill = 'rgb( 31, 120, 180)' fill-opacity = '0.250000' points = '630.5,216.8 630.5,662.4 632.4,662.4 632.4,219.7 '/>
		<polygon fill = 'rgb( 31, 120, 180)' fill-opacity = '0.250000' points = '632.4,219.7 632.4,662.4 634.3,662.4 634.3,222.6 '/>
		<polygon fill = 'rgb( 31, 120, 180)' fill-opacity = '0.250000' points = '634.3,222.6 634.3,662.4 636.2,662.4 636.2,225.6 '/>
		<polygon fill = 'rgb( 31, 120, 180)' fill-opacity = '0.250000' points = '636.2,225.6 636.2,662.4 638.1,662.4 638.1,228.5 '/>
		<polygon fill = 'rgb( 31, 120, 180)' fill-opacity = '0.250000' points = '638.1,228.5 638.1,662.4 639.9,662.4 639.9,231.4 '/>
		<polygon fill = 'rgb( 31, 120, 180)' fill-opacity = '0.250000' points = '639.9,231.4 639.9,662.4 641.8,662.4 641.8,234.3 '/>
		<polygon fill = 'rgb( 31, 120, 180)' fill-opacity = '0.250000' points = '641.8,234.3 641.8,662.4 643.7,662.4 643.7,237.3 '/>
		<polygon fill = 'rgb( 31, 120, 180)' fill-opacity = '0.250000' points = '643.7,237.3 643.7,662.4 645.6,662.4 645.6,240.2 '/>
		<polygon fill = 'rgb( 31, 120, 180)' fill-opacity = '0.250000' points = '645.6,240.2 645.6,662.4 647.5,662.4 647.5,243.2 '/>
		<polygon fill = 'rgb( 31, 120, 180)' fill-opacity = '0.250000' points = '647.5,243.2 647.5,662.4 649.4,662.4 649.4,246.2 '/>
		<polygon fill = 'rgb( 31, 120, 180)' fill-opacity = '0.250000' points = '649.4,246.2 649.4,662.4 651.3,662.4 651.3,249.2 '/>
		<polygon fill = 'rgb( 31, 120, 180)' fill-opacity = '0.250000' points = '651.3,249.2 651.3,662.4 653.1,662.4 653.1,252.2 '/>
		<polygon fill = 'rgb( 31, 120, 180)' fill-opacity = '0.250000' points = '653.1,252.2 653.1,662.4 655.0,662.4 655.0,255.2 '/>
		<polygon fill = 'rgb( 31, 120, 180)' fill-opacity = '0.250000' points = '655.0,255.2 655.0,662.4 656.9,662.4 656.9,258.3 '/>
		<polygon fill = 'rgb( 31, 120, 180)' fill-opacity = '0.250000' points = '656.9,258.3 656.9,662.4 658.8,662.4 658.8,261.3 '/>
		<polygon fill = 'rgb( 31, 120, 180)' fill-opacity = '0.250000' points = '658.8,261.3 658.8,662.4 660.7,662.4 660.7,264.4 '/>
		<polygon fill = 'rgb( 31, 120, 180)' fill-opacity = '0.250000' points = '660.7,264.4 660.7,662.4 662.6,662.4 662.6,267.5 '/>
		<polygon fill = 'rgb( 31, 120, 180)' fill-opacity = '0.250000' points = '662.6,267.5 662.6,662.4 664.5,662.4 664.5,270.6 '/>
		<polygon fill = 'rgb( 31, 120, 180)' fill-opacity = '0.250000' points = '664.5,270.6 664.5,662.4 666.4,662.4 666.4,273.7 '/>
		<polygon fill = 'rgb( 31, 120, 180)' fill-opacity = '0.250000' points = '666.4,273.7 666.4,662.4 668.2,662.4 668.2,276.8 '/>
		<polygon fill = 'rgb( 31, 120, 180)' fill-opacity = '0.250000' points = '668.2,276.8 668.2,662.4 670.1,662.4 670.1,279.9 '/>
		<polygon fill = 'rgb( 31, 120, 180)' fill-opacity = '0.250000' points = '670.1,279.9 670.1,662.4 672.0,662.4 672.0,283.0 '/>
		<polygon fill = 'rgb( 31, 120, 180)' fill-opacity = '0.250000' points = '672.0,283.0 672.0,662.4 673.9,662.4 673.9,286.2 '/>
		<polygon fill = 'rgb( 31, 120, 180)' fill-opacity = '0.250000' points = '673.9,286.2 673.9,662.4 675.8,662.4 675.8,289.3 '/>
		<polygon fill = 'rgb( 31, 120, 180)' fill-opacity = '0.250000' points = '675.8,289.3 675.8,662.4 677.7,662.4 677.7,292.4 '/>
		<polygon fill = 'rgb( 31, 120, 180)' fill-opacity = '0.250000' points = '677.7,292.4 677.7,662.4 679.6,662.4 679.6,295.5 '/>
		<polygon fill = 'rgb( 31, 120, 180)' fill-opacity = '0.250000' points = '679.6,295.5 679.6,662.4 681.5,662.4 681.5,298.6 '/>
		<polygon fill = 'rgb( 31, 120, 180)' fill-opacity = '0.250000' points = '681.5,298.6 681.5,662.4 683.3,662.4 683.3,301.7 '/>
		<polygon fill = 'rgb( 31, 120, 180)' fill-opacity = '0.250000' points = '683.3,301.7 683.3,662.4 685.2,662.4 685.2,304.7 '/>
		<polygon fill = 'rgb( 31, 120, 180)' fill-opacity = '0.250000' points = '685.2,304.7 685.2,662.4 687.1,662.4 687.1,307.8 '/>
		<polygon fill = 'rgb( 31, 120, 180)' fill-opacity = '0.250000' points = '687.1,307.8 687.1,662.4 689.0,662.4 689.0,310.9 '/>
		<polygon fill = 'rgb( 31, 120, 180)' fill-opacity = '0.250000' points = '689.0,310.9 689.0,662.4 690.9,662.4 690.9,313.9 '/>
		<polygon fill = 'rgb( 31, 120, 180)' fill-opacity = '0.250000' points = '690.9,313.9 690.9,662.4 692.8,662.4 692.8,317.0 '/>
		<polygon fill = 'rgb( 31, 120, 180)' fill-opacity = '0.250000' points = '692.8,317.0 692.8,662.4 694.7,662.4 694.7,320.0 '/>
		<polygon fill = 'rgb( 31, 120, 180)' fill-opacity = '0.250000' points = '694.7,320.0 694.7,662.4 696.6,662.4 696.6,323.1 '/>
		<polygon fill = 'rgb( 31, 120, 180)' fill-opacity = '0.250000' points = '696.6,323.1 696.6,662.4 698.4,662.4 698.4,326.1 '/>
		<polygon fill = 'rgb( 31, 120, 180)' fill-opacity = '0.250000' points = '698.4,326.1 698.4,662.4 700.3,662.4 700.3,329.2 '/>
		<polygon fill = 'rgb( 31, 120, 180)' fill-opacity = '0.250000' points = '700.3,329.2 700.3,662.4 702.2,662.4 702.2,332.2 '/>
		<polygon fill = 'rgb( 31, 120, 180)' fill-opacity = '0.250000' points = '702.2,332.2 702.2,662.4 704.1,662.4 704.1,335.3 '/>
		<polygon fill = 'rgb( 31, 120, 180)' fill-opacity = '0.250000' points = '704.1,335.3 704.1,662.4 706.0,662.4 706.0,338.4 '/>
		<polygon fill = 'rgb( 31, 120, 180)' fill-opacity = '0.250000' points = '706.0,338.4 706.0,662.4 707.9,662.4 707.9,341.4 '/>
		<polygon fill = 'rgb( 31, 120, 180)' fill-opacity = '0.250000' points = '707.9,341.4 707.9,662.4 709.8,662.4 709.8,344.5 '/>
		<polygon fill = 'rgb( 31, 120, 180)' fill-opacity = '0.250000' points = '709.8,344.5 709.8,662.4 711.7,662.4 711.7,347.6 '/>
		<polygon fill = 'rgb( 31, 120, 180)' fill-opacity = '0.250000' points = '711.7,347.6 711.7,662.4 713.5,662.4 713.5,350.6 '/>
		<polygon fill = 'rgb( 31, 120, 180)' fill-opacity = '0.250000' points = '713.5,350.6 713.5,662.4 715.4,662.4 715.4,353.7 '/>
		<polygon fill = 'rgb( 31, 120, 180)' fill-opacity = '0.250000' points = '715.4,353.7 715.4,662.4 717.3,662.4 717.3,356.8 '/>
		<polygon fill = 'rgb( 31, 120, 180)' fill-opacity = '0.250000' points = '717.3,356.8 717.3,662.4 719.2,662.4 719.2,359.8 '/>
		<polygon fill = 'rgb( 31, 120, 180)' fill-opacity = '0.250000' points = '719.2,359.8 719.2,662.4 721.1,662.4 721.1,362.9 '/>
		<polygon fill = 'rgb( 31, 120, 180)' fill-opacity = '0.250000' points = '721.1,362.9 721.1,662.4 723.0,662.4 723.0,365.9 '/>
		<polygon fill = 'rgb( 31, 120, 180)' fill-opacity = '0.250000' points = '723.0,365.9 723.0,662.4 724.9,662.4 724.9,368.9 '/>
		<polygon fill = 'rgb( 31, 120, 180)' fill-opacity = '0.250000' points = '724.9,368.9 724.9,662.4 726.7,662.4 726.7,371.9 '/>
		<polygon fill = 'rgb( 31, 120, 180)' fill-opacity = '0.250000' points = '726.7,371.9 726.7,662.4 728.6,662.4 728.6,374.8 '/>
		<polygon fill = 'rgb( 31, 120, 180)' fill-opacity = '0.250000' points = '728.6,374.8 728.6,662.4 730.5,662.4 730.5,377.7 '/>
		<polygon fill = 'rgb( 31, 120, 180)' fill-opacity = '0.250000' points = '730.5,377.7 730.5,662.4 732.4,662.4 732.4,380.6 '/>
		<polygon fill = 'rgb( 31, 120, 180)' fill-opacity = '0.250000' points = '732.4,380.6 732.4,662.4 734.3,662.4 734.3,383.5 '/>
		<polygon fill = 'rgb( 31, 120, 180)' fill-opacity = '0.250000' points = '734.3,383.5 734.3,662.4 736.2,662.4 736.2,386.3 '/>
		<polygon fill = 'rgb( 31, 120, 180)' fill-opacity = '0.250000' points = '736.2,386.3 736.2,662.4 738.1,662.4 738.1,389.1 '/>
		<polygon fill = 'rgb( 31, 120, 180)' fill-opacity = '0.250000' points = '738.1,389.1 738.1,662.4 740.0,662.4 740.0,391.8 '/>
		<polygon fill = 'rgb( 31, 120, 180)' fill-opacity = '0.250000' points = '740.0,391.8 740.0,662.4 741.8,662.4 741.8,394.6 '/>
		<polygon fill = 'rgb( 31, 120, 180)' fill-opacity = '0.250000' points = '741.8,394.6 741.8,662.4 743.7,662.4 743.7,397.2 '/>
		<polygon fill = 'rgb( 31, 120, 180)' fill-opacity = '0.250000' points = '743.7,397.2 743.7,662.4 745.6,662.4 745.6,399.9 '/>
		<polygon fill = 'rgb( 31, 120, 180)' fill-opacity = '0.250000' points = '745.6,399.9 745.6,662.4 747.5,662.4 747.5,402.5 '/>
		<polygon fill = 'rgb( 31, 120, 180)' fill-opacity = '0.250000' points = '747.5,402.5 747.5,662.4 749.4,662.4 749.4,405.1 '/>
		<polygon fill = 'rgb( 31, 120, 180)' fill-opacity = '0.250000' points = '749.4,405.1 749.4,662.4 751.3,662.4 751.3,407.7 '/>
		<polygon fill = 'rgb( 31, 120, 180)' fill-opacity = '0.250000' points = '751.3,407.7 751.3,662.4 753.2,662.4 753.2,410.3 '/>
		<polygon fill = 'rgb( 31, 120, 180)' fill-opacity = '0.250000' points = '753.2,410.3 753.2,662.4 755.1,662.4 755.1,412.9 '/>
		<polygon fill = 'rgb( 31, 120, 180)' fill-opacity = '0.250000' points = '755.1,412.9 755.1,662.4 756.9,662.4 756.9,415.4 '/>
		<polygon fill = 'rgb( 31, 120, 180)' fill-opacity = '0.250000' points = '756.9,415.4 756.9,662.4 758.8,662.4 758.8,418.0 '/>
		<polygon fill = 'rgb( 31, 120, 180)' fill-opacity = '0.250000' points = '758.8,418.0 758.8,662.4 760.7,662.4 760.7,420.5 '/>
		<polygon fill = 'rgb( 31, 120, 180)' fill-opacity = '0.250000' points = '760.7,420.5 760.7,662.4 762.6,662.4 762.6,423.1 '/>
		<polygon fill = 'rgb( 31, 120, 180)' fill-opacity = '0.250000' points = '762.6,423.1 762.6,662.4 764.5,662.4 764.5,425.6 '/>
		<polygon fill = 'rgb( 31, 120, 180)' fill-opacity = '0.250000' points = '764.5,425.6 764.5,662.4 766.4,662.4 766.4,428.2 '/>
		<polygon fill = 'rgb( 31, 120, 180)' fill-opacity = '0.250000' points = '766.4,428.2 766.4,662.4 768.3,662.4 768.3,430.8 '/>
		<polygon fill = 'rgb( 31, 120, 180)' fill-opacity = '0.250000' points = '768.3,430.8 768.3,662.4 770.2,662.4 770.2,433.3 '/>
		<polygon fill = 'rgb( 31, 120, 180)' fill-opacity = '0.250000' points = '770.2,433.3 770.2,662.4 772.0,662.4 772.0,435.9 '/>
		<polygon fill = 'rgb( 31, 120, 180)' fill-opacity = '0.250000' points = '772.0,435.9 772.0,662.4 773.9,662.4 773.9,438.5 '/>
		<polygon fill = 'rgb( 31, 120, 180)' fill-opacity = '0.250000' points = '773.9,438.5 773.9,662.4 775.8,662.4 775.8,441.1 '/>
		<polygon fill = 'rgb( 31, 120, 180)' fill-opacity = '0.250000' points = '775.8,441.1 775.8,662.4 777.7,662.4 777.7,443.6 '/>
		<polygon fill = 'rgb( 31, 120, 180)' fill-opacity = '0.250000' points = '777.7,443.6 777.7,662.4 779.6,662.4 779.6,446.2 '/>
		<polygon fill = 'rgb( 31, 120, 180)' fill-opacity = '0.250000' points = '779.6,446.2 779.6,662.4 781.5,662.4 781.5,448.8 '/>
		<polygon fill = 'rgb( 31, 120, 180)' fill-opacity = '0.250000' points = '781.5,448.8 781.5,662.4 783.4,662.4 783.4,451.4 '/>
		<polygon fill = 'rgb( 31, 120, 180)' fill-opacity = '0.250000' points = '783.4,451.4 783.4,662.4 785.3,662.4 785.3,454.0 '/>
		<polygon fill = 'rgb( 31, 120, 180)' fill-opacity = '0.250000' points = '785.3,454.0 785.3,662.4 787.1,662.4 787.1,456.6 '/>
		<polygon fill = 'rgb( 31, 120, 180)' fill-opacity = '0.250000' points = '787.1,456.6 787.1,662.4 789.0,662.4 789.0,459.2 '/>
		<polygon fill = 'rgb( 31, 120, 180)' fill-opacity = '0.250000' points = '789.0,459.2 789.0,662.4 790.9,662.4 790.9,461.8 '/>
		<polygon fill = 'rgb( 31, 120, 180)' fill-opacity = '0.250000' points = '790.9,461.8 790.9,662.4 792.8,662.4 792.8,464.4 '/>
		<polygon fill = 'rgb( 31, 120, 180)' fill-opacity = '0.250000' points = '792.8,464.4 792.8,662.4 794.7,662.4 794.7,466.9 '/>
		<polygon fill = 'rgb( 31, 120, 180)' fill-opacity = '0.250000' points = '794.7,466.9 794.7,662.4 796.6,662.4 796.6,469.5 '/>
		<polygon fill = 'rgb( 31, 120, 180)' fill-opacity = '0.250000' points = '796.6,469.5 796.6,662.4 798.5,662.4 798.5,472.0 '/>
		<polygon fill = 'rgb( 31, 120, 180)' fill-opacity = '0.250000' points = '798.5,472.0 798.5,662.4 800.3,662.4 800.3,474.5 '/>
		<polygon fill = 'rgb( 31, 120, 180)' fill-opacity = '0.250000' points = '800.3,474.5 800.3,662.4 802.2,662.4 802.2,477.0 '/>
		<polygon fill = 'rgb( 31, 120, 180)' fill-opacity = '0.250000' points = '802.2,477.0 802.2,662.4 804.1,662.4 804.1,479.5 '/>
		<polygon fill = 'rgb( 31, 120, 180)' fill-opacity = '0.250000' points = '804.1,479.5 804.1,662.4 806.0,662.4 806.0,482.0 '/>
		<polygon fill = 'rgb( 31, 120, 180)' fill-opacity = '0.250000' points = '806.0,482.0 806.0,662.4 807.9,662.4 807.9,484.4 '/>
		<polygon fill = 'rgb( 31, 120, 180)' fill-opacity = '0.250000' points = '807.9,484.4 807.9,662.4 809.8,662.4 809.8,486.8 '/>
		<polygon fill = 'rgb( 31, 120, 180)' fill-opacity = '0.250000' points = '809.8,486.8 809.8,662.4 811.7,662.4 811.7,489.1 '/>
		<polygon fill = 'rgb( 31, 120, 180)' fill-opacity = '0.250000' points = '811.7,489.1 811.7,662.4 813.6,662.4 813.6,491.5 '/>
		<polygon fill = 'rgb( 31, 120, 180)' fill-opacity = '0.250000' points = '813.6,491.5 813.6,662.4 815.4,662.4 815.4,493.8 '/>
		<polygon fill = 'rgb( 31, 120, 180)' fill-opacity = '0.250000' points = '815.4,493.8 815.4,662.4 817.3,662.4 817.3,496.0 '/>
		<polygon fill = 'rgb( 31, 120, 180)' fill-opacity = '0.250000' points = '817.3,496.0 817.3,662.4 819.2,662.4 819.2,498.3 '/>
		<polygon fill = 'rgb( 31, 120, 180)' fill-opacity = '0.250000' points = '819.2,498.3 819.2,662.4 821.1,662.4 821.1,500.4 '/>
		<polygon fill = 'rgb( 31, 120, 180)' fill-opacity = '0.250000' points = '821.1,500.4 821.1,662.4 823.0,662.4 823.0,502.6 '/>
		<polygon fill = 'rgb( 31, 120, 180)' fill-opacity = '0.250000' points = '823.0,502.6 823.0,662.4 824.9,662.4 824.9,504.7 '/>
		<polygon fill = 'rgb( 31, 120, 180)' fill-opacity = '0.250000' points = '824.9,504.7 824.9,662.4 826.8,662.4 826.8,506.9 '/>
		<polygon fill = 'rgb( 31, 120, 180)' fill-opacity = '0.250000' points = '826.8,506.9 826.8,662.4 828.7,662.4 828.7,508.9 '/>
		<polygon fill = 'rgb( 31, 120, 180)' fill-opacity = '0.250000' points = '828.7,508.9 828.7,662.4 830.5,662.4 830.5,511.0 '/>
		<polygon fill = 'rgb( 31, 120, 180)' fill-opacity = '0.250000' points = '830.5,511.0 830.5,662.4 832.4,662.4 832.4,513.0 '/>
		<polygon fill = 'rgb( 31, 120, 180)' fill-opacity = '0.250000' points = '832.4,513.0 832.4,662.4 834.3,662.4 834.3,515.0 '/>
		<polygon fill = 'rgb( 31, 120, 180)' fill-opacity = '0.250000' points = '834.3,515.0 834.3,662.4 836.2,662.4 836.2,516.9 '/>
		<polygon fill = 'rgb( 31, 120, 180)' fill-opacity = '0.250000' points = '836.2,516.9 836.2,662.4 838.1,662.4 838.1,518.9 '/>
		<polygon fill = 'rgb( 31, 120, 180)' fill-opacity = '0.250000' points = '838.1,518.9 838.1,662.4 840.0,662.4 840.0,520.8 '/>
		<polygon fill = 'rgb( 31, 120, 180)' fill-opacity = '0.250000' points = '840.0,520.8 840.0,662.4 841.9,662.4 841.9,522.7 '/>
		<polygon fill = 'rgb( 31, 120, 180)' fill-opacity = '0.250000' points = '841.9,522.7 841.9,662.4 843.8,662.4 843.8,524.6 '/>
		<polygon fill = 'rgb( 31, 120, 180)' fill-opacity = '0.250000' points = '843.8,524.6 843.8,662.4 845.6,662.4 845.6,526.4 '/>
		<polygon fill = 'rgb( 31, 120, 180)' fill-opacity = '0.250000' points = '845.6,526.4 845.6,662.4 847.5,662.4 847.5,528.2 '/>
		<polygon fill = 'rgb( 31, 120, 180)' fill-opacity = '0.250000' points = '847.5,528.2 847.5,662.4 849.4,662.4 849.4,530.0 '/>
		<polygon fill = 'rgb( 31, 120, 180)' fill-opacity = '0.250000' points = '849.4,530.0 849.4,662.4 851.3,662.4 851.3,531.8 '/>
		<polygon fill = 'rgb( 31, 120, 180)' fill-opacity = '0.250000' points = '851.3,531.8 851.3,662.4 853.2,662.4 853.2,533.6 '/>
		<polygon fill = 'rgb( 31, 120, 180)' fill-opacity = '0.250000' points = '853.2,533.6 853.2,662.4 855.1,662.4 855.1,535.3 '/>
		<polygon fill = 'rgb( 31, 120, 180)' fill-opacity = '0.250000' points = '855.1,535.3 855.1,662.4 857.0,662.4 857.0,537.0 '/>
		<polygon fill = 'rgb( 31, 120, 180)' fill-opacity = '0.250000' points = '857.0,537.0 857.0,662.4 858.9,662.4 858.9,538.7 '/>
		<polygon fill = 'rgb( 31, 120, 180)' fill-opacity = '0.250000' points = '858.9,538.7 858.9,662.4 860.7,662.4 860.7,540.3 '/>
		<polygon fill = 'rgb( 31, 120, 180)' fill-opacity = '0.250000' points = '860.7,540.3 860.7,662.4 862.6,662.4 862.6,541.9 '/>
		<polygon fill = 'rgb( 31, 120, 180)' fill-opacity = '0.250000' points = '862.6,541.9 862.6,662.4 864.5,662.4 864.5,543.5 '/>
		<polygon fill = 'rgb( 31, 120, 180)' fill-opacity = '0.250000' points = '864.5,543.5 864.5,662.4 866.4,662.4 866.4,545.1 '/>
		<polygon fill = 'rgb( 31, 120, 180)' fill-opacity = '0.250000' points = '866.4,545.1 866.4,662.4 868.3,662.4 868.3,546.6 '/>
		<polygon fill = 'rgb( 31, 120, 180)' fill-opacity = '0.250000' points = '868.3,546.6 868.3,662.4 870.2,662.4 870.2,548.1 '/>
		<polygon fill = 'rgb( 31, 120, 180)' fill-opacity = '0.250000' points = '870.2,548.1 870.2,662.4 872.1,662.4 872.1,549.6 '/>
		<polygon fill = 'rgb( 31, 120, 180)' fill-opacity = '0.250000' points = '872.1,549.6 872.1,662.4 873.9,662.4 873.9,551.0 '/>
		<polygon fill = 'rgb( 31, 120, 180)' fill-opacity = '0.250000' points = '873.9,551.0 873.9,662.4 875.8,662.4 875.8,552.5 '/>
		<polygon fill = 'rgb( 31, 120, 180)' fill-opacity = '0.250000' points = '875.8,552.5 875.8,662.4 877.7,662.4 877.7,553.9 '/>
		<polygon fill = 'rgb( 31, 120, 180)' fill-opacity = '0.250000' points = '877.7,553.9 877.7,662.4 879.6,662.4 879.6,555.3 '/>
		<polygon fill = 'rgb( 31, 120, 180)' fill-opacity = '0.250000' points = '879.6,555.3 879.6,662.4 881.5,662.4 881.5,556.6 '/>
		<polygon fill = 'rgb( 31, 120, 180)' fill-opacity = '0.250000' points = '881.5,556.6 881.5,662.4 883.4,662.4 883.4,558.0 '/>
		<polygon fill = 'rgb( 31, 120, 180)' fill-opacity = '0.250000' points = '883.4,558.0 883.4,662.4 885.3,662.4 885.3,559.3 '/>
		<polygon fill = 'rgb( 31, 120, 180)' fill-opacity = '0.250000' points = '885.3,559.3 885.3,662.4 887.2,662.4 887.2,560.7 '/>
		<polygon fill = 'rgb( 31, 120, 180)' fill-opacity = '0.250000' points = '887.2,560.7 887.2,662.4 889.0,662.4 889.0,562.0 '/>
		<polygon fill = 'rgb( 31, 120, 180)' fill-opacity = '0.250000' points = '889.0,562.0 889.0,662.4 890.9,662.4 890.9,563.3 '/>
		<polygon fill = 'rgb( 31, 120, 180)' fill-opacity = '0.250000' points = '890.9,563.3 890.9,662.4 892.8,662.4 892.8,564.6 '/>
		<polygon fill = 'rgb( 31, 120, 180)' fill-opacity = '0.250000' points = '892.8,564.6 892.8,662.4 894.7,662.4 894.7,566.0 '/>
		<polygon fill = 'rgb( 31, 120, 180)' fill-opacity = '0.250000' points = '894.7,566.0 894.7,662.4 896.6,662.4 896.6,567.3 '/>
		<polygon fill = 'rgb( 31, 120, 180)' fill-opacity = '0.250000' points = '896.6,567.3 896.6,662.4 898.5,662.4 898.5,568.6 '/>
		<polygon fill = 'rgb( 31, 120, 180)' fill-opacity = '0.250000' points = '898.5,568.6 898.5,662.4 900.4,662.4 900.4,570.0 '/>
		<polygon fill = 'rgb( 31, 120, 180)' fill-opacity = '0.250000' points = '900.4,570.0 900.4,662.4 902.3,662.4 902.3,571.3 '/>
		<polygon fill = 'rgb( 31, 120, 180)' fill-opacity = '0.250000' points = '902.3,571.3 902.3,662.4 904.1,662.4 904.1,572.7 '/>
		<polygon fill = 'rgb( 31, 120, 180)' fill-opacity = '0.250000' points = '904.1,572.7 904.1,662.4 906.0,662.4 906.0,574.0 '/>
		<polygon fill = 'rgb( 31, 120, 180)' fill-opacity = '0.250000' points = '906.0,574.0 906.0,662.4 907.9,662.4 907.9,575.4 '/>
		<polygon fill = 'rgb( 31, 120, 180)' fill-opacity = '0.250000' points = '907.9,575.4 907.9,662.4 909.8,662.4 909.8,576.8 '/>
		<polygon fill = 'rgb( 31, 120, 180)' fill-opacity = '0.250000' points = '909.8,576.8 909.8,662.4 911.7,662.4 911.7,578.2 '/>
		<polygon fill = 'rgb( 31, 120, 180)' fill-opacity = '0.250000' points = '911.7,578.2 911.7,662.4 913.6,662.4 913.6,579.6 '/>
		<polygon fill = 'rgb( 31, 120, 180)' fill-opacity = '0.250000' points = '913.6,579.6 913.6,662.4 915.5,662.4 915.5,580.9 '/>
		<polygon fill = 'rgb( 31, 120, 180)' fill-opacity = '0.250000' points = '915.5,580.9 915.5,662.4 917.4,662.4 917.4,582.3 '/>
		<polygon fill = 'rgb( 31, 120, 180)' fill-opacity = '0.250000' points = '917.4,582.3 917.4,662.4 919.2,662.4 919.2,583.7 '/>
		<polygon fill = 'rgb( 31, 120, 180)' fill-opacity = '0.250000' points = '919.2,583.7 919.2,662.4 921.1,662.4 921.1,585.1 '/>
		<polygon fill = 'rgb( 31, 120, 180)' fill-opacity = '0.250000' points = '921.1,585.1 921.1,662.4 923.0,662.4 923.0,586.4 '/>
		<polygon fill = 'rgb( 31, 120, 180)' fill-opacity = '0.250000' points = '923.0,586.4 923.0,662.4 924.9,662.4 924.9,587.8 '/>
	</g>
</g>
	</g>
	<g id="gnuplot_plot_3" ><title>Point estimate</title>
<g fill="none" color="white" stroke="rgb( 31, 120, 180)" stroke-width="2.00" stroke-linecap="butt" stroke-linejoin="miter">
</g>
<g fill="none" color="black" stroke="currentColor" stroke-width="2.00" stroke-linecap="butt" stroke-linejoin="miter">
	<g transform="translate(1089.0,103.0)" stroke="none" fill="black" font-family="Helvetica" font-size="12.00"  text-anchor="start">
		<text><tspan font-family="Helvetica" >Point estimate</tspan></text>
	</g>
</g>
<g fill="none" color="black" stroke="currentColor" stroke-width="2.00" stroke-linecap="butt" stroke-linejoin="miter">
	<path stroke='rgb( 31, 120, 180)'  d='M1038.5,99.1 L1080.7,99.1 M506.3,662.4 L506.3,69.4  '/></g>
	</g>
<g fill="none" color="black" stroke="currentColor" stroke-width="2.00" stroke-linecap="butt" stroke-linejoin="miter">
</g>
<g fill="none" color="black" stroke="black" stroke-width="1.00" stroke-linecap="butt" stroke-linejoin="miter">
</g>
<g fill="none" color="black" stroke="currentColor" stroke-width="1.00" stroke-linecap="butt" stroke-linejoin="miter">
	<path stroke='black'  d='M71.9,54.1 L71.9,662.4 L1013.6,662.4 L1013.6,54.1 L71.9,54.1 Z  '/></g>
<g fill="none" color="black" stroke="currentColor" stroke-width="1.00" stroke-linecap="butt" stroke-linejoin="miter">
</g>
</g>
</svg>

