group,function,value,throughput_num,throughput_type,sample_measured_value,unit,iteration_count
dfs arena mutex par immut (×4),,,,,5615038.0,ns,1
dfs arena mutex par immut (×4),,,,,11174235.0,ns,2
dfs arena mutex par immut (×4),,,,,16449580.0,ns,3
dfs arena mutex par immut (×4),,,,,22164378.0,ns,4
dfs arena mutex par immut (×4),,,,,27686888.0,ns,5
dfs arena mutex par immut (×4),,,,,33189022.0,ns,6
dfs arena mutex par immut (×4),,,,,38643253.0,ns,7
dfs arena mutex par immut (×4),,,,,44207430.0,ns,8
dfs arena mutex par immut (×4),,,,,49736945.0,ns,9
dfs arena mutex par immut (×4),,,,,55292104.0,ns,10
dfs arena mutex par immut (×4),,,,,60972912.0,ns,11
dfs arena mutex par immut (×4),,,,,66461033.0,ns,12
dfs arena mutex par immut (×4),,,,,71993341.0,ns,13
dfs arena mutex par immut (×4),,,,,77636841.0,ns,14
dfs arena mutex par immut (×4),,,,,83135776.0,ns,15
dfs arena mutex par immut (×4),,,,,91075667.0,ns,16
dfs arena mutex par immut (×4),,,,,94088541.0,ns,17
dfs arena mutex par immut (×4),,,,,99444167.0,ns,18
dfs arena mutex par immut (×4),,,,,105289715.0,ns,19
dfs arena mutex par immut (×4),,,,,110519916.0,ns,20
dfs arena mutex par immut (×4),,,,,116537588.0,ns,21
dfs arena mutex par immut (×4),,,,,122050185.0,ns,22
dfs arena mutex par immut (×4),,,,,127543844.0,ns,23
dfs arena mutex par immut (×4),,,,,134548192.0,ns,24
dfs arena mutex par immut (×4),,,,,138437002.0,ns,25
dfs arena mutex par immut (×4),,,,,144393374.0,ns,26
dfs arena mutex par immut (×4),,,,,149192187.0,ns,27
dfs arena mutex par immut (×4),,,,,154580625.0,ns,28
dfs arena mutex par immut (×4),,,,,160655312.0,ns,29
dfs arena mutex par immut (×4),,,,,167958914.0,ns,30
dfs arena mutex par immut (×4),,,,,171883177.0,ns,31
dfs arena mutex par immut (×4),,,,,176882344.0,ns,32
dfs arena mutex par immut (×4),,,,,182220918.0,ns,33
dfs arena mutex par immut (×4),,,,,187993416.0,ns,34
dfs arena mutex par immut (×4),,,,,194975614.0,ns,35
dfs arena mutex par immut (×4),,,,,198691166.0,ns,36
dfs arena mutex par immut (×4),,,,,204538864.0,ns,37
dfs arena mutex par immut (×4),,,,,210003394.0,ns,38
dfs arena mutex par immut (×4),,,,,217657382.0,ns,39
dfs arena mutex par immut (×4),,,,,221536245.0,ns,40
dfs arena mutex par immut (×4),,,,,226805794.0,ns,41
dfs arena mutex par immut (×4),,,,,232923434.0,ns,42
dfs arena mutex par immut (×4),,,,,240063490.0,ns,43
dfs arena mutex par immut (×4),,,,,242831408.0,ns,44
dfs arena mutex par immut (×4),,,,,248592432.0,ns,45
dfs arena mutex par immut (×4),,,,,254325151.0,ns,46
dfs arena mutex par immut (×4),,,,,269837822.0,ns,47
dfs arena mutex par immut (×4),,,,,265516859.0,ns,48
dfs arena mutex par immut (×4),,,,,270759746.0,ns,49
dfs arena mutex par immut (×4),,,,,278425495.0,ns,50
dfs arena mutex par immut (×4),,,,,282351993.0,ns,51
dfs arena mutex par immut (×4),,,,,287524111.0,ns,52
dfs arena mutex par immut (×4),,,,,293781199.0,ns,53
dfs arena mutex par immut (×4),,,,,299761215.0,ns,54
dfs arena mutex par immut (×4),,,,,303854855.0,ns,55
dfs arena mutex par immut (×4),,,,,314095424.0,ns,56
dfs arena mutex par immut (×4),,,,,317190512.0,ns,57
dfs arena mutex par immut (×4),,,,,321478003.0,ns,58
dfs arena mutex par immut (×4),,,,,326195120.0,ns,59
dfs arena mutex par immut (×4),,,,,334171120.0,ns,60
dfs arena mutex par immut (×4),,,,,340274942.0,ns,61
dfs arena mutex par immut (×4),,,,,344370864.0,ns,62
dfs arena mutex par immut (×4),,,,,348343062.0,ns,63
dfs arena mutex par immut (×4),,,,,354620162.0,ns,64
dfs arena mutex par immut (×4),,,,,361931832.0,ns,65
dfs arena mutex par immut (×4),,,,,364936500.0,ns,66
dfs arena mutex par immut (×4),,,,,370691694.0,ns,67
dfs arena mutex par immut (×4),,,,,378341030.0,ns,68
dfs arena mutex par immut (×4),,,,,382088740.0,ns,69
dfs arena mutex par immut (×4),,,,,393967955.0,ns,70
dfs arena mutex par immut (×4),,,,,393378487.0,ns,71
dfs arena mutex par immut (×4),,,,,398537190.0,ns,72
dfs arena mutex par immut (×4),,,,,406782494.0,ns,73
dfs arena mutex par immut (×4),,,,,409976683.0,ns,74
dfs arena mutex par immut (×4),,,,,428038130.0,ns,75
dfs arena mutex par immut (×4),,,,,423919893.0,ns,76
dfs arena mutex par immut (×4),,,,,427920423.0,ns,77
dfs arena mutex par immut (×4),,,,,431779246.0,ns,78
dfs arena mutex par immut (×4),,,,,439895834.0,ns,79
dfs arena mutex par immut (×4),,,,,441858873.0,ns,80
dfs arena mutex par immut (×4),,,,,447242289.0,ns,81
dfs arena mutex par immut (×4),,,,,452802646.0,ns,82
dfs arena mutex par immut (×4),,,,,459295335.0,ns,83
dfs arena mutex par immut (×4),,,,,466494323.0,ns,84
dfs arena mutex par immut (×4),,,,,470034468.0,ns,85
dfs arena mutex par immut (×4),,,,,479394507.0,ns,86
dfs arena mutex par immut (×4),,,,,481335423.0,ns,87
dfs arena mutex par immut (×4),,,,,488740097.0,ns,88
dfs arena mutex par immut (×4),,,,,491824351.0,ns,89
dfs arena mutex par immut (×4),,,,,504420779.0,ns,90
dfs arena mutex par immut (×4),,,,,503780389.0,ns,91
dfs arena mutex par immut (×4),,,,,508730645.0,ns,92
dfs arena mutex par immut (×4),,,,,520128624.0,ns,93
dfs arena mutex par immut (×4),,,,,519561896.0,ns,94
dfs arena mutex par immut (×4),,,,,531207162.0,ns,95
dfs arena mutex par immut (×4),,,,,530613741.0,ns,96
dfs arena mutex par immut (×4),,,,,549514081.0,ns,97
dfs arena mutex par immut (×4),,,,,542965118.0,ns,98
dfs arena mutex par immut (×4),,,,,551409631.0,ns,99
dfs arena mutex par immut (×4),,,,,553306418.0,ns,100
