<?xml version="1.0" encoding="utf-8"  standalone="no"?>
<!DOCTYPE svg PUBLIC "-//W3C//DTD SVG 1.1//EN"
 "http://www.w3.org/Graphics/SVG/1.1/DTD/svg11.dtd">
<svg 
 viewBox="0 0 1280 720"
 xmlns="http://www.w3.org/2000/svg"
 xmlns:xlink="http://www.w3.org/1999/xlink"
>

<title>Gnuplot</title>
<desc>Produced by GNUPLOT 5.0 patchlevel 5 </desc>

<g id="gnuplot_canvas">

<rect x="0" y="0" width="1280" height="720" fill="none"/>
<defs>

	<circle id='gpDot' r='0.5' stroke-width='0.5'/>
	<path id='gpPt0' stroke-width='0.222' stroke='currentColor' d='M-1,0 h2 M0,-1 v2'/>
	<path id='gpPt1' stroke-width='0.222' stroke='currentColor' d='M-1,-1 L1,1 M1,-1 L-1,1'/>
	<path id='gpPt2' stroke-width='0.222' stroke='currentColor' d='M-1,0 L1,0 M0,-1 L0,1 M-1,-1 L1,1 M-1,1 L1,-1'/>
	<rect id='gpPt3' stroke-width='0.222' stroke='currentColor' x='-1' y='-1' width='2' height='2'/>
	<rect id='gpPt4' stroke-width='0.222' stroke='currentColor' fill='currentColor' x='-1' y='-1' width='2' height='2'/>
	<circle id='gpPt5' stroke-width='0.222' stroke='currentColor' cx='0' cy='0' r='1'/>
	<use xlink:href='#gpPt5' id='gpPt6' fill='currentColor' stroke='none'/>
	<path id='gpPt7' stroke-width='0.222' stroke='currentColor' d='M0,-1.33 L-1.33,0.67 L1.33,0.67 z'/>
	<use xlink:href='#gpPt7' id='gpPt8' fill='currentColor' stroke='none'/>
	<use xlink:href='#gpPt7' id='gpPt9' stroke='currentColor' transform='rotate(180)'/>
	<use xlink:href='#gpPt9' id='gpPt10' fill='currentColor' stroke='none'/>
	<use xlink:href='#gpPt3' id='gpPt11' stroke='currentColor' transform='rotate(45)'/>
	<use xlink:href='#gpPt11' id='gpPt12' fill='currentColor' stroke='none'/>
	<path id='gpPt13' stroke-width='0.222' stroke='currentColor' d='M0,1.330 L1.265,0.411 L0.782,-1.067 L-0.782,-1.076 L-1.265,0.411 z'/>
	<use xlink:href='#gpPt13' id='gpPt14' fill='currentColor' stroke='none'/>
	<filter id='textbox' filterUnits='objectBoundingBox' x='0' y='0' height='1' width='1'>
	  <feFlood flood-color='white' flood-opacity='1' result='bgnd'/>
	  <feComposite in='SourceGraphic' in2='bgnd' operator='atop'/>
	</filter>
	<filter id='greybox' filterUnits='objectBoundingBox' x='0' y='0' height='1' width='1'>
	  <feFlood flood-color='lightgrey' flood-opacity='1' result='grey'/>
	  <feComposite in='SourceGraphic' in2='grey' operator='atop'/>
	</filter>
</defs>
<g fill="none" color="white" stroke="currentColor" stroke-width="1.00" stroke-linecap="butt" stroke-linejoin="miter">
</g>
<g fill="none" color="black" stroke="currentColor" stroke-width="1.00" stroke-linecap="butt" stroke-linejoin="miter">
	<path stroke='black'  d='M71.9,662.4 L80.9,662.4  '/>	<g transform="translate(63.6,666.3)" stroke="none" fill="black" font-family="Helvetica" font-size="12.00"  text-anchor="end">
		<text><tspan font-family="Helvetica" > 0</tspan></text>
	</g>
</g>
<g fill="none" color="black" stroke="currentColor" stroke-width="1.00" stroke-linecap="butt" stroke-linejoin="miter">
	<path stroke='black'  d='M71.9,575.5 L80.9,575.5  '/>	<g transform="translate(63.6,579.4)" stroke="none" fill="black" font-family="Helvetica" font-size="12.00"  text-anchor="end">
		<text><tspan font-family="Helvetica" > 100</tspan></text>
	</g>
</g>
<g fill="none" color="black" stroke="currentColor" stroke-width="1.00" stroke-linecap="butt" stroke-linejoin="miter">
	<path stroke='black'  d='M71.9,488.6 L80.9,488.6  '/>	<g transform="translate(63.6,492.5)" stroke="none" fill="black" font-family="Helvetica" font-size="12.00"  text-anchor="end">
		<text><tspan font-family="Helvetica" > 200</tspan></text>
	</g>
</g>
<g fill="none" color="black" stroke="currentColor" stroke-width="1.00" stroke-linecap="butt" stroke-linejoin="miter">
	<path stroke='black'  d='M71.9,401.7 L80.9,401.7  '/>	<g transform="translate(63.6,405.6)" stroke="none" fill="black" font-family="Helvetica" font-size="12.00"  text-anchor="end">
		<text><tspan font-family="Helvetica" > 300</tspan></text>
	</g>
</g>
<g fill="none" color="black" stroke="currentColor" stroke-width="1.00" stroke-linecap="butt" stroke-linejoin="miter">
	<path stroke='black'  d='M71.9,314.8 L80.9,314.8  '/>	<g transform="translate(63.6,318.7)" stroke="none" fill="black" font-family="Helvetica" font-size="12.00"  text-anchor="end">
		<text><tspan font-family="Helvetica" > 400</tspan></text>
	</g>
</g>
<g fill="none" color="black" stroke="currentColor" stroke-width="1.00" stroke-linecap="butt" stroke-linejoin="miter">
	<path stroke='black'  d='M71.9,227.9 L80.9,227.9  '/>	<g transform="translate(63.6,231.8)" stroke="none" fill="black" font-family="Helvetica" font-size="12.00"  text-anchor="end">
		<text><tspan font-family="Helvetica" > 500</tspan></text>
	</g>
</g>
<g fill="none" color="black" stroke="currentColor" stroke-width="1.00" stroke-linecap="butt" stroke-linejoin="miter">
	<path stroke='black'  d='M71.9,141.0 L80.9,141.0  '/>	<g transform="translate(63.6,144.9)" stroke="none" fill="black" font-family="Helvetica" font-size="12.00"  text-anchor="end">
		<text><tspan font-family="Helvetica" > 600</tspan></text>
	</g>
</g>
<g fill="none" color="black" stroke="currentColor" stroke-width="1.00" stroke-linecap="butt" stroke-linejoin="miter">
	<path stroke='black'  d='M71.9,54.1 L80.9,54.1  '/>	<g transform="translate(63.6,58.0)" stroke="none" fill="black" font-family="Helvetica" font-size="12.00"  text-anchor="end">
		<text><tspan font-family="Helvetica" > 700</tspan></text>
	</g>
</g>
<g fill="none" color="black" stroke="currentColor" stroke-width="1.00" stroke-linecap="butt" stroke-linejoin="miter">
	<path stroke='black'  d='M109.1,662.4 L109.1,653.4  '/>	<g transform="translate(109.1,684.3)" stroke="none" fill="black" font-family="Helvetica" font-size="12.00"  text-anchor="middle">
		<text><tspan font-family="Helvetica" > 1.106</tspan></text>
	</g>
</g>
<g fill="none" color="black" stroke="currentColor" stroke-width="1.00" stroke-linecap="butt" stroke-linejoin="miter">
	<path stroke='black'  d='M227.2,662.4 L227.2,653.4  '/>	<g transform="translate(227.2,684.3)" stroke="none" fill="black" font-family="Helvetica" font-size="12.00"  text-anchor="middle">
		<text><tspan font-family="Helvetica" > 1.107</tspan></text>
	</g>
</g>
<g fill="none" color="black" stroke="currentColor" stroke-width="1.00" stroke-linecap="butt" stroke-linejoin="miter">
	<path stroke='black'  d='M345.4,662.4 L345.4,653.4  '/>	<g transform="translate(345.4,684.3)" stroke="none" fill="black" font-family="Helvetica" font-size="12.00"  text-anchor="middle">
		<text><tspan font-family="Helvetica" > 1.108</tspan></text>
	</g>
</g>
<g fill="none" color="black" stroke="currentColor" stroke-width="1.00" stroke-linecap="butt" stroke-linejoin="miter">
	<path stroke='black'  d='M463.5,662.4 L463.5,653.4  '/>	<g transform="translate(463.5,684.3)" stroke="none" fill="black" font-family="Helvetica" font-size="12.00"  text-anchor="middle">
		<text><tspan font-family="Helvetica" > 1.109</tspan></text>
	</g>
</g>
<g fill="none" color="black" stroke="currentColor" stroke-width="1.00" stroke-linecap="butt" stroke-linejoin="miter">
	<path stroke='black'  d='M581.7,662.4 L581.7,653.4  '/>	<g transform="translate(581.7,684.3)" stroke="none" fill="black" font-family="Helvetica" font-size="12.00"  text-anchor="middle">
		<text><tspan font-family="Helvetica" > 1.11</tspan></text>
	</g>
</g>
<g fill="none" color="black" stroke="currentColor" stroke-width="1.00" stroke-linecap="butt" stroke-linejoin="miter">
	<path stroke='black'  d='M699.8,662.4 L699.8,653.4  '/>	<g transform="translate(699.8,684.3)" stroke="none" fill="black" font-family="Helvetica" font-size="12.00"  text-anchor="middle">
		<text><tspan font-family="Helvetica" > 1.111</tspan></text>
	</g>
</g>
<g fill="none" color="black" stroke="currentColor" stroke-width="1.00" stroke-linecap="butt" stroke-linejoin="miter">
	<path stroke='black'  d='M818.0,662.4 L818.0,653.4  '/>	<g transform="translate(818.0,684.3)" stroke="none" fill="black" font-family="Helvetica" font-size="12.00"  text-anchor="middle">
		<text><tspan font-family="Helvetica" > 1.112</tspan></text>
	</g>
</g>
<g fill="none" color="black" stroke="currentColor" stroke-width="1.00" stroke-linecap="butt" stroke-linejoin="miter">
	<path stroke='black'  d='M936.2,662.4 L936.2,653.4  '/>	<g transform="translate(936.2,684.3)" stroke="none" fill="black" font-family="Helvetica" font-size="12.00"  text-anchor="middle">
		<text><tspan font-family="Helvetica" > 1.113</tspan></text>
	</g>
</g>
<g fill="none" color="black" stroke="currentColor" stroke-width="1.00" stroke-linecap="butt" stroke-linejoin="miter">
</g>
<g fill="none" color="black" stroke="currentColor" stroke-width="1.00" stroke-linecap="butt" stroke-linejoin="miter">
	<path stroke='black'  d='M71.9,54.1 L71.9,662.4 L1013.6,662.4 L1013.6,54.1 L71.9,54.1 Z  '/></g>
<g fill="none" color="black" stroke="currentColor" stroke-width="1.00" stroke-linecap="butt" stroke-linejoin="miter">
	<g transform="translate(17.0,358.3) rotate(270)" stroke="none" fill="black" font-family="Helvetica" font-size="12.00"  text-anchor="middle">
		<text><tspan font-family="Helvetica" >Density (a.u.)</tspan></text>
	</g>
</g>
<g fill="none" color="black" stroke="currentColor" stroke-width="1.00" stroke-linecap="butt" stroke-linejoin="miter">
	<g transform="translate(542.7,711.3)" stroke="none" fill="black" font-family="Helvetica" font-size="12.00"  text-anchor="middle">
		<text><tspan font-family="Helvetica" >Average time (ms)</tspan></text>
	</g>
</g>
<g fill="none" color="black" stroke="currentColor" stroke-width="1.00" stroke-linecap="butt" stroke-linejoin="miter">
	<g transform="translate(542.7,31.0)" stroke="none" fill="black" font-family="Helvetica" font-size="12.00"  text-anchor="middle">
		<text><tspan font-family="Helvetica" >dfs arena ghostcell vec immut: median</tspan></text>
	</g>
</g>
	<g id="gnuplot_plot_1" ><title>Bootstrap distribution</title>
<g fill="none" color="white" stroke="black" stroke-width="2.00" stroke-linecap="butt" stroke-linejoin="miter">
</g>
<g fill="none" color="black" stroke="currentColor" stroke-width="2.00" stroke-linecap="butt" stroke-linejoin="miter">
	<g transform="translate(1089.0,67.0)" stroke="none" fill="black" font-family="Helvetica" font-size="12.00"  text-anchor="start">
		<text><tspan font-family="Helvetica" >Bootstrap distribution</tspan></text>
	</g>
</g>
<g fill="none" color="black" stroke="currentColor" stroke-width="2.00" stroke-linecap="butt" stroke-linejoin="miter">
	<path stroke='rgb( 31, 120, 180)'  d='M1038.5,63.1 L1080.7,63.1 M71.9,652.8 L73.8,652.5 L75.7,652.1 L77.6,651.8 L79.4,651.6 L81.3,651.4
		L83.2,651.2 L85.1,651.1 L87.0,651.1 L88.9,651.1 L90.8,651.2 L92.7,651.3 L94.5,651.4 L96.4,651.5
		L98.3,651.6 L100.2,651.7 L102.1,651.8 L104.0,651.8 L105.9,651.8 L107.8,651.7 L109.6,651.5 L111.5,651.2
		L113.4,650.8 L115.3,650.3 L117.2,649.7 L119.1,648.9 L121.0,648.1 L122.9,647.2 L124.7,646.1 L126.6,645.0
		L128.5,643.8 L130.4,642.5 L132.3,641.2 L134.2,639.9 L136.1,638.5 L138.0,637.1 L139.8,635.6 L141.7,634.2
		L143.6,632.8 L145.5,631.5 L147.4,630.1 L149.3,628.8 L151.2,627.5 L153.0,626.2 L154.9,624.8 L156.8,623.5
		L158.7,622.2 L160.6,620.8 L162.5,619.3 L164.4,617.8 L166.3,616.1 L168.1,614.4 L170.0,612.5 L171.9,610.4
		L173.8,608.2 L175.7,605.9 L177.6,603.3 L179.5,600.6 L181.4,597.6 L183.2,594.6 L185.1,591.3 L187.0,588.0
		L188.9,584.5 L190.8,581.0 L192.7,577.5 L194.6,574.0 L196.5,570.6 L198.3,567.3 L200.2,564.1 L202.1,561.2
		L204.0,558.6 L205.9,556.2 L207.8,554.2 L209.7,552.5 L211.6,551.2 L213.4,550.3 L215.3,549.7 L217.2,549.5
		L219.1,549.7 L221.0,550.1 L222.9,550.7 L224.8,551.6 L226.6,552.6 L228.5,553.8 L230.4,555.0 L232.3,556.2
		L234.2,557.3 L236.1,558.3 L238.0,559.3 L239.9,560.0 L241.7,560.5 L243.6,560.9 L245.5,561.0 L247.4,560.8
		L249.3,560.4 L251.2,559.8 L253.1,558.9 L255.0,557.7 L256.8,556.2 L258.7,554.4 L260.6,552.2 L262.5,549.7
		L264.4,546.8 L266.3,543.5 L268.2,539.6 L270.1,535.2 L271.9,530.1 L273.8,524.4 L275.7,517.9 L277.6,510.7
		L279.5,502.6 L281.4,493.6 L283.3,483.8 L285.2,473.1 L287.0,461.5 L288.9,449.1 L290.8,436.0 L292.7,422.2
		L294.6,407.7 L296.5,392.8 L298.4,377.5 L300.2,362.0 L302.1,346.3 L304.0,330.7 L305.9,315.3 L307.8,300.2
		L309.7,285.4 L311.6,271.2 L313.5,257.6 L315.3,244.6 L317.2,232.2 L319.1,220.6 L321.0,209.8 L322.9,199.6
		L324.8,190.1 L326.7,181.2 L328.6,172.9 L330.4,165.2 L332.3,158.0 L334.2,151.4 L336.1,145.2 L338.0,139.4
		L339.9,134.2 L341.8,129.4 L343.7,125.2 L345.5,121.5 L347.4,118.5 L349.3,116.1 L351.2,114.3 L353.1,113.3
		L355.0,113.1 L356.9,113.6 L358.8,114.9 L360.6,117.0 L362.5,119.8 L364.4,123.3 L366.3,127.5 L368.2,132.4
		L370.1,137.8 L372.0,143.8 L373.8,150.3 L375.7,157.2 L377.6,164.6 L379.5,172.5 L381.4,180.8 L383.3,189.5
		L385.2,198.7 L387.1,208.4 L388.9,218.5 L390.8,229.2 L392.7,240.4 L394.6,252.1 L396.5,264.2 L398.4,276.9
		L400.3,289.9 L402.2,303.3 L404.0,316.9 L405.9,330.7 L407.8,344.6 L409.7,358.4 L411.6,372.1 L413.5,385.6
		L415.4,398.8 L417.3,411.5 L419.1,423.6 L421.0,435.3 L422.9,446.2 L424.8,456.5 L426.7,466.1 L428.6,475.0
		L430.5,483.2 L432.4,490.7 L434.2,497.6 L436.1,503.8 L438.0,509.4 L439.9,514.5 L441.8,519.1 L443.7,523.2
		L445.6,526.9 L447.4,530.3 L449.3,533.3 L451.2,536.0 L453.1,538.6 L455.0,540.9 L456.9,543.0 L458.8,544.9
		L460.7,546.7 L462.5,548.3 L464.4,549.9 L466.3,551.3 L468.2,552.7 L470.1,554.0 L472.0,555.3 L473.9,556.5
		L475.8,557.7 L477.6,558.9 L479.5,560.1 L481.4,561.3 L483.3,562.5 L485.2,563.8 L487.1,565.0 L489.0,566.1
		L490.9,567.2 L492.7,568.2 L494.6,569.0 L496.5,569.6 L498.4,569.9 L500.3,570.0 L502.2,569.6 L504.1,568.9
		L506.0,567.9 L507.8,566.4 L509.7,564.6 L511.6,562.4 L513.5,560.0 L515.4,557.4 L517.3,554.7 L519.2,552.0
		L521.0,549.5 L522.9,547.2 L524.8,545.3 L526.7,543.9 L528.6,543.1 L530.5,542.9 L532.4,543.5 L534.3,544.8
		L536.1,546.8 L538.0,549.7 L539.9,553.2 L541.8,557.5 L543.7,562.2 L545.6,567.5 L547.5,573.2 L549.4,579.1
		L551.2,585.2 L553.1,591.3 L555.0,597.3 L556.9,603.2 L558.8,608.9 L560.7,614.2 L562.6,619.1 L564.5,623.7
		L566.3,627.8 L568.2,631.4 L570.1,634.6 L572.0,637.3 L573.9,639.5 L575.8,641.3 L577.7,642.7 L579.5,643.7
		L581.4,644.2 L583.3,644.4 L585.2,644.3 L587.1,643.8 L589.0,643.0 L590.9,641.9 L592.8,640.5 L594.6,638.9
		L596.5,637.0 L598.4,634.9 L600.3,632.7 L602.2,630.3 L604.1,627.8 L606.0,625.3 L607.9,622.8 L609.7,620.4
		L611.6,618.1 L613.5,616.0 L615.4,614.2 L617.3,612.6 L619.2,611.3 L621.1,610.4 L623.0,609.9 L624.8,609.7
		L626.7,609.9 L628.6,610.5 L630.5,611.4 L632.4,612.6 L634.3,614.1 L636.2,615.8 L638.1,617.6 L639.9,619.5
		L641.8,621.5 L643.7,623.4 L645.6,625.3 L647.5,627.1 L649.4,628.8 L651.3,630.4 L653.1,631.7 L655.0,633.0
		L656.9,634.0 L658.8,634.9 L660.7,635.7 L662.6,636.3 L664.5,636.9 L666.4,637.3 L668.2,637.7 L670.1,638.0
		L672.0,638.3 L673.9,638.5 L675.8,638.6 L677.7,638.8 L679.6,638.9 L681.5,638.9 L683.3,638.9 L685.2,638.8
		L687.1,638.6 L689.0,638.4 L690.9,638.1 L692.8,637.7 L694.7,637.2 L696.6,636.8 L698.4,636.2 L700.3,635.7
		L702.2,635.1 L704.1,634.6 L706.0,634.1 L707.9,633.7 L709.8,633.3 L711.7,633.0 L713.5,632.8 L715.4,632.7
		L717.3,632.6 L719.2,632.6 L721.1,632.7 L723.0,632.7 L724.9,632.8 L726.7,632.9 L728.6,632.9 L730.5,632.8
		L732.4,632.7 L734.3,632.5 L736.2,632.1 L738.1,631.7 L740.0,631.2 L741.8,630.6 L743.7,630.0 L745.6,629.3
		L747.5,628.6 L749.4,627.9 L751.3,627.2 L753.2,626.6 L755.1,626.1 L756.9,625.6 L758.8,625.3 L760.7,625.0
		L762.6,624.9 L764.5,624.8 L766.4,624.7 L768.3,624.7 L770.2,624.6 L772.0,624.5 L773.9,624.4 L775.8,624.1
		L777.7,623.7 L779.6,623.1 L781.5,622.3 L783.4,621.4 L785.3,620.3 L787.1,619.1 L789.0,617.7 L790.9,616.3
		L792.8,614.8 L794.7,613.4 L796.6,612.0 L798.5,610.7 L800.3,609.6 L802.2,608.8 L804.1,608.2 L806.0,607.9
		L807.9,607.9 L809.8,608.3 L811.7,609.0 L813.6,610.1 L815.4,611.5 L817.3,613.3 L819.2,615.2 L821.1,617.4
		L823.0,619.8 L824.9,622.2 L826.8,624.8 L828.7,627.3 L830.5,629.7 L832.4,632.1 L834.3,634.3 L836.2,636.2
		L838.1,638.0 L840.0,639.6 L841.9,640.9 L843.8,641.9 L845.6,642.7 L847.5,643.2 L849.4,643.6 L851.3,643.7
		L853.2,643.7 L855.1,643.6 L857.0,643.4 L858.9,643.1 L860.7,642.8 L862.6,642.6 L864.5,642.3 L866.4,642.1
		L868.3,642.1 L870.2,642.1 L872.1,642.2 L873.9,642.4 L875.8,642.7 L877.7,643.1 L879.6,643.6 L881.5,644.1
		L883.4,644.7 L885.3,645.2 L887.2,645.8 L889.0,646.3 L890.9,646.8 L892.8,647.2 L894.7,647.5 L896.6,647.8
		L898.5,647.9 L900.4,647.9 L902.3,647.9 L904.1,647.7 L906.0,647.5 L907.9,647.2 L909.8,646.9 L911.7,646.6
		L913.6,646.3 L915.5,646.0 L917.4,645.7 L919.2,645.5 L921.1,645.4 L923.0,645.3 L924.9,645.4 L926.8,645.5
		L928.7,645.7 L930.6,645.9 L932.5,646.3 L934.3,646.7 L936.2,647.1 L938.1,647.6 L940.0,648.1 L941.9,648.5
		L943.8,648.9 L945.7,649.3 L947.5,649.7 L949.4,650.0 L951.3,650.2 L953.2,650.3 L955.1,650.4 L957.0,650.4
		L958.9,650.4 L960.8,650.3 L962.6,650.1 L964.5,650.0 L966.4,649.8 L968.3,649.6 L970.2,649.4 L972.1,649.3
		L974.0,649.2 L975.9,649.1 L977.7,649.1 L979.6,649.1 L981.5,649.1 L983.4,649.2 L985.3,649.2 L987.2,649.3
		L989.1,649.4 L991.0,649.4 L992.8,649.4 L994.7,649.3 L996.6,649.2 L998.5,649.1 L1000.4,648.9 L1002.3,648.6
		L1004.2,648.2 L1006.1,647.8 L1007.9,647.4 L1009.8,646.9 L1011.7,646.4 L1013.6,645.9  '/></g>
	</g>
	<g id="gnuplot_plot_2" ><title>Confidence interval</title>
<g fill="none" color="white" stroke="rgb( 31, 120, 180)" stroke-width="1.00" stroke-linecap="butt" stroke-linejoin="miter">
</g>
<g fill="none" color="black" stroke="currentColor" stroke-width="1.00" stroke-linecap="butt" stroke-linejoin="miter">
	<g transform="translate(1089.0,85.0)" stroke="none" fill="black" font-family="Helvetica" font-size="12.00"  text-anchor="start">
		<text><tspan font-family="Helvetica" >Confidence interval</tspan></text>
	</g>
</g>
<g fill="none" color="black" stroke="currentColor" stroke-width="1.00" stroke-linecap="butt" stroke-linejoin="miter">
	<g stroke='none' shape-rendering='crispEdges'>
		<polygon fill = 'rgb( 31, 120, 180)' fill-opacity = '0.250000' points = '1038.5,85.6 1080.7,85.6 1080.7,76.6 1038.5,76.6 '/>
		<polygon fill = 'rgb( 31, 120, 180)' fill-opacity = '0.250000' points = '158.7,622.2 158.7,662.4 160.6,662.4 160.6,620.8 '/>
		<polygon fill = 'rgb( 31, 120, 180)' fill-opacity = '0.250000' points = '160.6,620.8 160.6,662.4 162.5,662.4 162.5,619.3 '/>
		<polygon fill = 'rgb( 31, 120, 180)' fill-opacity = '0.250000' points = '162.5,619.3 162.5,662.4 164.4,662.4 164.4,617.8 '/>
		<polygon fill = 'rgb( 31, 120, 180)' fill-opacity = '0.250000' points = '164.4,617.8 164.4,662.4 166.3,662.4 166.3,616.1 '/>
		<polygon fill = 'rgb( 31, 120, 180)' fill-opacity = '0.250000' points = '166.3,616.1 166.3,662.4 168.1,662.4 168.1,614.4 '/>
		<polygon fill = 'rgb( 31, 120, 180)' fill-opacity = '0.250000' points = '168.1,614.4 168.1,662.4 170.0,662.4 170.0,612.5 '/>
		<polygon fill = 'rgb( 31, 120, 180)' fill-opacity = '0.250000' points = '170.0,612.5 170.0,662.4 171.9,662.4 171.9,610.4 '/>
		<polygon fill = 'rgb( 31, 120, 180)' fill-opacity = '0.250000' points = '171.9,610.4 171.9,662.4 173.8,662.4 173.8,608.2 '/>
		<polygon fill = 'rgb( 31, 120, 180)' fill-opacity = '0.250000' points = '173.8,608.2 173.8,662.4 175.7,662.4 175.7,605.9 '/>
		<polygon fill = 'rgb( 31, 120, 180)' fill-opacity = '0.250000' points = '175.7,605.9 175.7,662.4 177.6,662.4 177.6,603.3 '/>
		<polygon fill = 'rgb( 31, 120, 180)' fill-opacity = '0.250000' points = '177.6,603.3 177.6,662.4 179.5,662.4 179.5,600.6 '/>
		<polygon fill = 'rgb( 31, 120, 180)' fill-opacity = '0.250000' points = '179.5,600.6 179.5,662.4 181.4,662.4 181.4,597.6 '/>
		<polygon fill = 'rgb( 31, 120, 180)' fill-opacity = '0.250000' points = '181.4,597.6 181.4,662.4 183.2,662.4 183.2,594.6 '/>
		<polygon fill = 'rgb( 31, 120, 180)' fill-opacity = '0.250000' points = '183.2,594.6 183.2,662.4 185.1,662.4 185.1,591.3 '/>
		<polygon fill = 'rgb( 31, 120, 180)' fill-opacity = '0.250000' points = '185.1,591.3 185.1,662.4 187.0,662.4 187.0,588.0 '/>
		<polygon fill = 'rgb( 31, 120, 180)' fill-opacity = '0.250000' points = '187.0,588.0 187.0,662.4 188.9,662.4 188.9,584.5 '/>
		<polygon fill = 'rgb( 31, 120, 180)' fill-opacity = '0.250000' points = '188.9,584.5 188.9,662.4 190.8,662.4 190.8,581.0 '/>
		<polygon fill = 'rgb( 31, 120, 180)' fill-opacity = '0.250000' points = '190.8,581.0 190.8,662.4 192.7,662.4 192.7,577.5 '/>
		<polygon fill = 'rgb( 31, 120, 180)' fill-opacity = '0.250000' points = '192.7,577.5 192.7,662.4 194.6,662.4 194.6,574.0 '/>
		<polygon fill = 'rgb( 31, 120, 180)' fill-opacity = '0.250000' points = '194.6,574.0 194.6,662.4 196.5,662.4 196.5,570.6 '/>
		<polygon fill = 'rgb( 31, 120, 180)' fill-opacity = '0.250000' points = '196.5,570.6 196.5,662.4 198.3,662.4 198.3,567.3 '/>
		<polygon fill = 'rgb( 31, 120, 180)' fill-opacity = '0.250000' points = '198.3,567.3 198.3,662.4 200.2,662.4 200.2,564.1 '/>
		<polygon fill = 'rgb( 31, 120, 180)' fill-opacity = '0.250000' points = '200.2,564.1 200.2,662.4 202.1,662.4 202.1,561.2 '/>
		<polygon fill = 'rgb( 31, 120, 180)' fill-opacity = '0.250000' points = '202.1,561.2 202.1,662.4 204.0,662.4 204.0,558.6 '/>
		<polygon fill = 'rgb( 31, 120, 180)' fill-opacity = '0.250000' points = '204.0,558.6 204.0,662.4 205.9,662.4 205.9,556.2 '/>
		<polygon fill = 'rgb( 31, 120, 180)' fill-opacity = '0.250000' points = '205.9,556.2 205.9,662.4 207.8,662.4 207.8,554.2 '/>
		<polygon fill = 'rgb( 31, 120, 180)' fill-opacity = '0.250000' points = '207.8,554.2 207.8,662.4 209.7,662.4 209.7,552.5 '/>
		<polygon fill = 'rgb( 31, 120, 180)' fill-opacity = '0.250000' points = '209.7,552.5 209.7,662.4 211.6,662.4 211.6,551.2 '/>
		<polygon fill = 'rgb( 31, 120, 180)' fill-opacity = '0.250000' points = '211.6,551.2 211.6,662.4 213.4,662.4 213.4,550.3 '/>
		<polygon fill = 'rgb( 31, 120, 180)' fill-opacity = '0.250000' points = '213.4,550.3 213.4,662.4 215.3,662.4 215.3,549.7 '/>
		<polygon fill = 'rgb( 31, 120, 180)' fill-opacity = '0.250000' points = '215.3,549.7 215.3,662.4 217.2,662.4 217.2,549.5 '/>
		<polygon fill = 'rgb( 31, 120, 180)' fill-opacity = '0.250000' points = '217.2,549.5 217.2,662.4 219.1,662.4 219.1,549.7 '/>
		<polygon fill = 'rgb( 31, 120, 180)' fill-opacity = '0.250000' points = '219.1,549.7 219.1,662.4 221.0,662.4 221.0,550.1 '/>
		<polygon fill = 'rgb( 31, 120, 180)' fill-opacity = '0.250000' points = '221.0,550.1 221.0,662.4 222.9,662.4 222.9,550.7 '/>
		<polygon fill = 'rgb( 31, 120, 180)' fill-opacity = '0.250000' points = '222.9,550.7 222.9,662.4 224.8,662.4 224.8,551.6 '/>
		<polygon fill = 'rgb( 31, 120, 180)' fill-opacity = '0.250000' points = '224.8,551.6 224.8,662.4 226.6,662.4 226.6,552.6 '/>
		<polygon fill = 'rgb( 31, 120, 180)' fill-opacity = '0.250000' points = '226.6,552.6 226.6,662.4 228.5,662.4 228.5,553.8 '/>
		<polygon fill = 'rgb( 31, 120, 180)' fill-opacity = '0.250000' points = '228.5,553.8 228.5,662.4 230.4,662.4 230.4,555.0 '/>
		<polygon fill = 'rgb( 31, 120, 180)' fill-opacity = '0.250000' points = '230.4,555.0 230.4,662.4 232.3,662.4 232.3,556.2 '/>
		<polygon fill = 'rgb( 31, 120, 180)' fill-opacity = '0.250000' points = '232.3,556.2 232.3,662.4 234.2,662.4 234.2,557.3 '/>
		<polygon fill = 'rgb( 31, 120, 180)' fill-opacity = '0.250000' points = '234.2,557.3 234.2,662.4 236.1,662.4 236.1,558.3 '/>
		<polygon fill = 'rgb( 31, 120, 180)' fill-opacity = '0.250000' points = '236.1,558.3 236.1,662.4 238.0,662.4 238.0,559.3 '/>
		<polygon fill = 'rgb( 31, 120, 180)' fill-opacity = '0.250000' points = '238.0,559.3 238.0,662.4 239.9,662.4 239.9,560.0 '/>
		<polygon fill = 'rgb( 31, 120, 180)' fill-opacity = '0.250000' points = '239.9,560.0 239.9,662.4 241.7,662.4 241.7,560.5 '/>
		<polygon fill = 'rgb( 31, 120, 180)' fill-opacity = '0.250000' points = '241.7,560.5 241.7,662.4 243.6,662.4 243.6,560.9 '/>
		<polygon fill = 'rgb( 31, 120, 180)' fill-opacity = '0.250000' points = '243.6,560.9 243.6,662.4 245.5,662.4 245.5,561.0 '/>
		<polygon fill = 'rgb( 31, 120, 180)' fill-opacity = '0.250000' points = '245.5,561.0 245.5,662.4 247.4,662.4 247.4,560.8 '/>
		<polygon fill = 'rgb( 31, 120, 180)' fill-opacity = '0.250000' points = '247.4,560.8 247.4,662.4 249.3,662.4 249.3,560.4 '/>
		<polygon fill = 'rgb( 31, 120, 180)' fill-opacity = '0.250000' points = '249.3,560.4 249.3,662.4 251.2,662.4 251.2,559.8 '/>
		<polygon fill = 'rgb( 31, 120, 180)' fill-opacity = '0.250000' points = '251.2,559.8 251.2,662.4 253.1,662.4 253.1,558.9 '/>
		<polygon fill = 'rgb( 31, 120, 180)' fill-opacity = '0.250000' points = '253.1,558.9 253.1,662.4 255.0,662.4 255.0,557.7 '/>
		<polygon fill = 'rgb( 31, 120, 180)' fill-opacity = '0.250000' points = '255.0,557.7 255.0,662.4 256.8,662.4 256.8,556.2 '/>
		<polygon fill = 'rgb( 31, 120, 180)' fill-opacity = '0.250000' points = '256.8,556.2 256.8,662.4 258.7,662.4 258.7,554.4 '/>
		<polygon fill = 'rgb( 31, 120, 180)' fill-opacity = '0.250000' points = '258.7,554.4 258.7,662.4 260.6,662.4 260.6,552.2 '/>
		<polygon fill = 'rgb( 31, 120, 180)' fill-opacity = '0.250000' points = '260.6,552.2 260.6,662.4 262.5,662.4 262.5,549.7 '/>
		<polygon fill = 'rgb( 31, 120, 180)' fill-opacity = '0.250000' points = '262.5,549.7 262.5,662.4 264.4,662.4 264.4,546.8 '/>
		<polygon fill = 'rgb( 31, 120, 180)' fill-opacity = '0.250000' points = '264.4,546.8 264.4,662.4 266.3,662.4 266.3,543.5 '/>
		<polygon fill = 'rgb( 31, 120, 180)' fill-opacity = '0.250000' points = '266.3,543.5 266.3,662.4 268.2,662.4 268.2,539.6 '/>
		<polygon fill = 'rgb( 31, 120, 180)' fill-opacity = '0.250000' points = '268.2,539.6 268.2,662.4 270.1,662.4 270.1,535.2 '/>
		<polygon fill = 'rgb( 31, 120, 180)' fill-opacity = '0.250000' points = '270.1,535.2 270.1,662.4 271.9,662.4 271.9,530.1 '/>
		<polygon fill = 'rgb( 31, 120, 180)' fill-opacity = '0.250000' points = '271.9,530.1 271.9,662.4 273.8,662.4 273.8,524.4 '/>
		<polygon fill = 'rgb( 31, 120, 180)' fill-opacity = '0.250000' points = '273.8,524.4 273.8,662.4 275.7,662.4 275.7,517.9 '/>
		<polygon fill = 'rgb( 31, 120, 180)' fill-opacity = '0.250000' points = '275.7,517.9 275.7,662.4 277.6,662.4 277.6,510.7 '/>
		<polygon fill = 'rgb( 31, 120, 180)' fill-opacity = '0.250000' points = '277.6,510.7 277.6,662.4 279.5,662.4 279.5,502.6 '/>
		<polygon fill = 'rgb( 31, 120, 180)' fill-opacity = '0.250000' points = '279.5,502.6 279.5,662.4 281.4,662.4 281.4,493.6 '/>
		<polygon fill = 'rgb( 31, 120, 180)' fill-opacity = '0.250000' points = '281.4,493.6 281.4,662.4 283.3,662.4 283.3,483.8 '/>
		<polygon fill = 'rgb( 31, 120, 180)' fill-opacity = '0.250000' points = '283.3,483.8 283.3,662.4 285.2,662.4 285.2,473.1 '/>
		<polygon fill = 'rgb( 31, 120, 180)' fill-opacity = '0.250000' points = '285.2,473.1 285.2,662.4 287.0,662.4 287.0,461.5 '/>
		<polygon fill = 'rgb( 31, 120, 180)' fill-opacity = '0.250000' points = '287.0,461.5 287.0,662.4 288.9,662.4 288.9,449.1 '/>
		<polygon fill = 'rgb( 31, 120, 180)' fill-opacity = '0.250000' points = '288.9,449.1 288.9,662.4 290.8,662.4 290.8,436.0 '/>
		<polygon fill = 'rgb( 31, 120, 180)' fill-opacity = '0.250000' points = '290.8,436.0 290.8,662.4 292.7,662.4 292.7,422.2 '/>
		<polygon fill = 'rgb( 31, 120, 180)' fill-opacity = '0.250000' points = '292.7,422.2 292.7,662.4 294.6,662.4 294.6,407.7 '/>
		<polygon fill = 'rgb( 31, 120, 180)' fill-opacity = '0.250000' points = '294.6,407.7 294.6,662.4 296.5,662.4 296.5,392.8 '/>
		<polygon fill = 'rgb( 31, 120, 180)' fill-opacity = '0.250000' points = '296.5,392.8 296.5,662.4 298.4,662.4 298.4,377.5 '/>
		<polygon fill = 'rgb( 31, 120, 180)' fill-opacity = '0.250000' points = '298.4,377.5 298.4,662.4 300.2,662.4 300.2,362.0 '/>
		<polygon fill = 'rgb( 31, 120, 180)' fill-opacity = '0.250000' points = '300.2,362.0 300.2,662.4 302.1,662.4 302.1,346.3 '/>
		<polygon fill = 'rgb( 31, 120, 180)' fill-opacity = '0.250000' points = '302.1,346.3 302.1,662.4 304.0,662.4 304.0,330.7 '/>
		<polygon fill = 'rgb( 31, 120, 180)' fill-opacity = '0.250000' points = '304.0,330.7 304.0,662.4 305.9,662.4 305.9,315.3 '/>
		<polygon fill = 'rgb( 31, 120, 180)' fill-opacity = '0.250000' points = '305.9,315.3 305.9,662.4 307.8,662.4 307.8,300.2 '/>
		<polygon fill = 'rgb( 31, 120, 180)' fill-opacity = '0.250000' points = '307.8,300.2 307.8,662.4 309.7,662.4 309.7,285.4 '/>
		<polygon fill = 'rgb( 31, 120, 180)' fill-opacity = '0.250000' points = '309.7,285.4 309.7,662.4 311.6,662.4 311.6,271.2 '/>
		<polygon fill = 'rgb( 31, 120, 180)' fill-opacity = '0.250000' points = '311.6,271.2 311.6,662.4 313.5,662.4 313.5,257.6 '/>
		<polygon fill = 'rgb( 31, 120, 180)' fill-opacity = '0.250000' points = '313.5,257.6 313.5,662.4 315.3,662.4 315.3,244.6 '/>
		<polygon fill = 'rgb( 31, 120, 180)' fill-opacity = '0.250000' points = '315.3,244.6 315.3,662.4 317.2,662.4 317.2,232.2 '/>
		<polygon fill = 'rgb( 31, 120, 180)' fill-opacity = '0.250000' points = '317.2,232.2 317.2,662.4 319.1,662.4 319.1,220.6 '/>
		<polygon fill = 'rgb( 31, 120, 180)' fill-opacity = '0.250000' points = '319.1,220.6 319.1,662.4 321.0,662.4 321.0,209.8 '/>
		<polygon fill = 'rgb( 31, 120, 180)' fill-opacity = '0.250000' points = '321.0,209.8 321.0,662.4 322.9,662.4 322.9,199.6 '/>
		<polygon fill = 'rgb( 31, 120, 180)' fill-opacity = '0.250000' points = '322.9,199.6 322.9,662.4 324.8,662.4 324.8,190.1 '/>
		<polygon fill = 'rgb( 31, 120, 180)' fill-opacity = '0.250000' points = '324.8,190.1 324.8,662.4 326.7,662.4 326.7,181.2 '/>
		<polygon fill = 'rgb( 31, 120, 180)' fill-opacity = '0.250000' points = '326.7,181.2 326.7,662.4 328.6,662.4 328.6,172.9 '/>
		<polygon fill = 'rgb( 31, 120, 180)' fill-opacity = '0.250000' points = '328.6,172.9 328.6,662.4 330.4,662.4 330.4,165.2 '/>
		<polygon fill = 'rgb( 31, 120, 180)' fill-opacity = '0.250000' points = '330.4,165.2 330.4,662.4 332.3,662.4 332.3,158.0 '/>
		<polygon fill = 'rgb( 31, 120, 180)' fill-opacity = '0.250000' points = '332.3,158.0 332.3,662.4 334.2,662.4 334.2,151.4 '/>
		<polygon fill = 'rgb( 31, 120, 180)' fill-opacity = '0.250000' points = '334.2,151.4 334.2,662.4 336.1,662.4 336.1,145.2 '/>
		<polygon fill = 'rgb( 31, 120, 180)' fill-opacity = '0.250000' points = '336.1,145.2 336.1,662.4 338.0,662.4 338.0,139.4 '/>
		<polygon fill = 'rgb( 31, 120, 180)' fill-opacity = '0.250000' points = '338.0,139.4 338.0,662.4 339.9,662.4 339.9,134.2 '/>
		<polygon fill = 'rgb( 31, 120, 180)' fill-opacity = '0.250000' points = '339.9,134.2 339.9,662.4 341.8,662.4 341.8,129.4 '/>
		<polygon fill = 'rgb( 31, 120, 180)' fill-opacity = '0.250000' points = '341.8,129.4 341.8,662.4 343.7,662.4 343.7,125.2 '/>
		<polygon fill = 'rgb( 31, 120, 180)' fill-opacity = '0.250000' points = '343.7,125.2 343.7,662.4 345.5,662.4 345.5,121.5 '/>
		<polygon fill = 'rgb( 31, 120, 180)' fill-opacity = '0.250000' points = '345.5,121.5 345.5,662.4 347.4,662.4 347.4,118.5 '/>
		<polygon fill = 'rgb( 31, 120, 180)' fill-opacity = '0.250000' points = '347.4,118.5 347.4,662.4 349.3,662.4 349.3,116.1 '/>
		<polygon fill = 'rgb( 31, 120, 180)' fill-opacity = '0.250000' points = '349.3,116.1 349.3,662.4 351.2,662.4 351.2,114.3 '/>
		<polygon fill = 'rgb( 31, 120, 180)' fill-opacity = '0.250000' points = '351.2,114.3 351.2,662.4 353.1,662.4 353.1,113.3 '/>
		<polygon fill = 'rgb( 31, 120, 180)' fill-opacity = '0.250000' points = '353.1,113.3 353.1,662.4 355.0,662.4 355.0,113.1 '/>
		<polygon fill = 'rgb( 31, 120, 180)' fill-opacity = '0.250000' points = '355.0,113.1 355.0,662.4 356.9,662.4 356.9,113.6 '/>
		<polygon fill = 'rgb( 31, 120, 180)' fill-opacity = '0.250000' points = '356.9,113.6 356.9,662.4 358.8,662.4 358.8,114.9 '/>
		<polygon fill = 'rgb( 31, 120, 180)' fill-opacity = '0.250000' points = '358.8,114.9 358.8,662.4 360.6,662.4 360.6,117.0 '/>
		<polygon fill = 'rgb( 31, 120, 180)' fill-opacity = '0.250000' points = '360.6,117.0 360.6,662.4 362.5,662.4 362.5,119.8 '/>
		<polygon fill = 'rgb( 31, 120, 180)' fill-opacity = '0.250000' points = '362.5,119.8 362.5,662.4 364.4,662.4 364.4,123.3 '/>
		<polygon fill = 'rgb( 31, 120, 180)' fill-opacity = '0.250000' points = '364.4,123.3 364.4,662.4 366.3,662.4 366.3,127.5 '/>
		<polygon fill = 'rgb( 31, 120, 180)' fill-opacity = '0.250000' points = '366.3,127.5 366.3,662.4 368.2,662.4 368.2,132.4 '/>
		<polygon fill = 'rgb( 31, 120, 180)' fill-opacity = '0.250000' points = '368.2,132.4 368.2,662.4 370.1,662.4 370.1,137.8 '/>
		<polygon fill = 'rgb( 31, 120, 180)' fill-opacity = '0.250000' points = '370.1,137.8 370.1,662.4 372.0,662.4 372.0,143.8 '/>
		<polygon fill = 'rgb( 31, 120, 180)' fill-opacity = '0.250000' points = '372.0,143.8 372.0,662.4 373.8,662.4 373.8,150.3 '/>
		<polygon fill = 'rgb( 31, 120, 180)' fill-opacity = '0.250000' points = '373.8,150.3 373.8,662.4 375.7,662.4 375.7,157.2 '/>
		<polygon fill = 'rgb( 31, 120, 180)' fill-opacity = '0.250000' points = '375.7,157.2 375.7,662.4 377.6,662.4 377.6,164.6 '/>
		<polygon fill = 'rgb( 31, 120, 180)' fill-opacity = '0.250000' points = '377.6,164.6 377.6,662.4 379.5,662.4 379.5,172.5 '/>
		<polygon fill = 'rgb( 31, 120, 180)' fill-opacity = '0.250000' points = '379.5,172.5 379.5,662.4 381.4,662.4 381.4,180.8 '/>
		<polygon fill = 'rgb( 31, 120, 180)' fill-opacity = '0.250000' points = '381.4,180.8 381.4,662.4 383.3,662.4 383.3,189.5 '/>
		<polygon fill = 'rgb( 31, 120, 180)' fill-opacity = '0.250000' points = '383.3,189.5 383.3,662.4 385.2,662.4 385.2,198.7 '/>
		<polygon fill = 'rgb( 31, 120, 180)' fill-opacity = '0.250000' points = '385.2,198.7 385.2,662.4 387.1,662.4 387.1,208.4 '/>
		<polygon fill = 'rgb( 31, 120, 180)' fill-opacity = '0.250000' points = '387.1,208.4 387.1,662.4 388.9,662.4 388.9,218.5 '/>
		<polygon fill = 'rgb( 31, 120, 180)' fill-opacity = '0.250000' points = '388.9,218.5 388.9,662.4 390.8,662.4 390.8,229.2 '/>
		<polygon fill = 'rgb( 31, 120, 180)' fill-opacity = '0.250000' points = '390.8,229.2 390.8,662.4 392.7,662.4 392.7,240.4 '/>
		<polygon fill = 'rgb( 31, 120, 180)' fill-opacity = '0.250000' points = '392.7,240.4 392.7,662.4 394.6,662.4 394.6,252.1 '/>
		<polygon fill = 'rgb( 31, 120, 180)' fill-opacity = '0.250000' points = '394.6,252.1 394.6,662.4 396.5,662.4 396.5,264.2 '/>
		<polygon fill = 'rgb( 31, 120, 180)' fill-opacity = '0.250000' points = '396.5,264.2 396.5,662.4 398.4,662.4 398.4,276.9 '/>
		<polygon fill = 'rgb( 31, 120, 180)' fill-opacity = '0.250000' points = '398.4,276.9 398.4,662.4 400.3,662.4 400.3,289.9 '/>
		<polygon fill = 'rgb( 31, 120, 180)' fill-opacity = '0.250000' points = '400.3,289.9 400.3,662.4 402.2,662.4 402.2,303.3 '/>
		<polygon fill = 'rgb( 31, 120, 180)' fill-opacity = '0.250000' points = '402.2,303.3 402.2,662.4 404.0,662.4 404.0,316.9 '/>
		<polygon fill = 'rgb( 31, 120, 180)' fill-opacity = '0.250000' points = '404.0,316.9 404.0,662.4 405.9,662.4 405.9,330.7 '/>
		<polygon fill = 'rgb( 31, 120, 180)' fill-opacity = '0.250000' points = '405.9,330.7 405.9,662.4 407.8,662.4 407.8,344.6 '/>
		<polygon fill = 'rgb( 31, 120, 180)' fill-opacity = '0.250000' points = '407.8,344.6 407.8,662.4 409.7,662.4 409.7,358.4 '/>
		<polygon fill = 'rgb( 31, 120, 180)' fill-opacity = '0.250000' points = '409.7,358.4 409.7,662.4 411.6,662.4 411.6,372.1 '/>
		<polygon fill = 'rgb( 31, 120, 180)' fill-opacity = '0.250000' points = '411.6,372.1 411.6,662.4 413.5,662.4 413.5,385.6 '/>
		<polygon fill = 'rgb( 31, 120, 180)' fill-opacity = '0.250000' points = '413.5,385.6 413.5,662.4 415.4,662.4 415.4,398.8 '/>
		<polygon fill = 'rgb( 31, 120, 180)' fill-opacity = '0.250000' points = '415.4,398.8 415.4,662.4 417.3,662.4 417.3,411.5 '/>
		<polygon fill = 'rgb( 31, 120, 180)' fill-opacity = '0.250000' points = '417.3,411.5 417.3,662.4 419.1,662.4 419.1,423.6 '/>
		<polygon fill = 'rgb( 31, 120, 180)' fill-opacity = '0.250000' points = '419.1,423.6 419.1,662.4 421.0,662.4 421.0,435.3 '/>
		<polygon fill = 'rgb( 31, 120, 180)' fill-opacity = '0.250000' points = '421.0,435.3 421.0,662.4 422.9,662.4 422.9,446.2 '/>
		<polygon fill = 'rgb( 31, 120, 180)' fill-opacity = '0.250000' points = '422.9,446.2 422.9,662.4 424.8,662.4 424.8,456.5 '/>
		<polygon fill = 'rgb( 31, 120, 180)' fill-opacity = '0.250000' points = '424.8,456.5 424.8,662.4 426.7,662.4 426.7,466.1 '/>
		<polygon fill = 'rgb( 31, 120, 180)' fill-opacity = '0.250000' points = '426.7,466.1 426.7,662.4 428.6,662.4 428.6,475.0 '/>
		<polygon fill = 'rgb( 31, 120, 180)' fill-opacity = '0.250000' points = '428.6,475.0 428.6,662.4 430.5,662.4 430.5,483.2 '/>
		<polygon fill = 'rgb( 31, 120, 180)' fill-opacity = '0.250000' points = '430.5,483.2 430.5,662.4 432.4,662.4 432.4,490.7 '/>
		<polygon fill = 'rgb( 31, 120, 180)' fill-opacity = '0.250000' points = '432.4,490.7 432.4,662.4 434.2,662.4 434.2,497.6 '/>
		<polygon fill = 'rgb( 31, 120, 180)' fill-opacity = '0.250000' points = '434.2,497.6 434.2,662.4 436.1,662.4 436.1,503.8 '/>
		<polygon fill = 'rgb( 31, 120, 180)' fill-opacity = '0.250000' points = '436.1,503.8 436.1,662.4 438.0,662.4 438.0,509.4 '/>
		<polygon fill = 'rgb( 31, 120, 180)' fill-opacity = '0.250000' points = '438.0,509.4 438.0,662.4 439.9,662.4 439.9,514.5 '/>
		<polygon fill = 'rgb( 31, 120, 180)' fill-opacity = '0.250000' points = '439.9,514.5 439.9,662.4 441.8,662.4 441.8,519.1 '/>
		<polygon fill = 'rgb( 31, 120, 180)' fill-opacity = '0.250000' points = '441.8,519.1 441.8,662.4 443.7,662.4 443.7,523.2 '/>
		<polygon fill = 'rgb( 31, 120, 180)' fill-opacity = '0.250000' points = '443.7,523.2 443.7,662.4 445.6,662.4 445.6,526.9 '/>
		<polygon fill = 'rgb( 31, 120, 180)' fill-opacity = '0.250000' points = '445.6,526.9 445.6,662.4 447.4,662.4 447.4,530.3 '/>
		<polygon fill = 'rgb( 31, 120, 180)' fill-opacity = '0.250000' points = '447.4,530.3 447.4,662.4 449.3,662.4 449.3,533.3 '/>
		<polygon fill = 'rgb( 31, 120, 180)' fill-opacity = '0.250000' points = '449.3,533.3 449.3,662.4 451.2,662.4 451.2,536.0 '/>
		<polygon fill = 'rgb( 31, 120, 180)' fill-opacity = '0.250000' points = '451.2,536.0 451.2,662.4 453.1,662.4 453.1,538.6 '/>
		<polygon fill = 'rgb( 31, 120, 180)' fill-opacity = '0.250000' points = '453.1,538.6 453.1,662.4 455.0,662.4 455.0,540.9 '/>
		<polygon fill = 'rgb( 31, 120, 180)' fill-opacity = '0.250000' points = '455.0,540.9 455.0,662.4 456.9,662.4 456.9,543.0 '/>
		<polygon fill = 'rgb( 31, 120, 180)' fill-opacity = '0.250000' points = '456.9,543.0 456.9,662.4 458.8,662.4 458.8,544.9 '/>
		<polygon fill = 'rgb( 31, 120, 180)' fill-opacity = '0.250000' points = '458.8,544.9 458.8,662.4 460.7,662.4 460.7,546.7 '/>
		<polygon fill = 'rgb( 31, 120, 180)' fill-opacity = '0.250000' points = '460.7,546.7 460.7,662.4 462.5,662.4 462.5,548.3 '/>
		<polygon fill = 'rgb( 31, 120, 180)' fill-opacity = '0.250000' points = '462.5,548.3 462.5,662.4 464.4,662.4 464.4,549.9 '/>
		<polygon fill = 'rgb( 31, 120, 180)' fill-opacity = '0.250000' points = '464.4,549.9 464.4,662.4 466.3,662.4 466.3,551.3 '/>
		<polygon fill = 'rgb( 31, 120, 180)' fill-opacity = '0.250000' points = '466.3,551.3 466.3,662.4 468.2,662.4 468.2,552.7 '/>
		<polygon fill = 'rgb( 31, 120, 180)' fill-opacity = '0.250000' points = '468.2,552.7 468.2,662.4 470.1,662.4 470.1,554.0 '/>
		<polygon fill = 'rgb( 31, 120, 180)' fill-opacity = '0.250000' points = '470.1,554.0 470.1,662.4 472.0,662.4 472.0,555.3 '/>
		<polygon fill = 'rgb( 31, 120, 180)' fill-opacity = '0.250000' points = '472.0,555.3 472.0,662.4 473.9,662.4 473.9,556.5 '/>
		<polygon fill = 'rgb( 31, 120, 180)' fill-opacity = '0.250000' points = '473.9,556.5 473.9,662.4 475.8,662.4 475.8,557.7 '/>
		<polygon fill = 'rgb( 31, 120, 180)' fill-opacity = '0.250000' points = '475.8,557.7 475.8,662.4 477.6,662.4 477.6,558.9 '/>
		<polygon fill = 'rgb( 31, 120, 180)' fill-opacity = '0.250000' points = '477.6,558.9 477.6,662.4 479.5,662.4 479.5,560.1 '/>
		<polygon fill = 'rgb( 31, 120, 180)' fill-opacity = '0.250000' points = '479.5,560.1 479.5,662.4 481.4,662.4 481.4,561.3 '/>
		<polygon fill = 'rgb( 31, 120, 180)' fill-opacity = '0.250000' points = '481.4,561.3 481.4,662.4 483.3,662.4 483.3,562.5 '/>
		<polygon fill = 'rgb( 31, 120, 180)' fill-opacity = '0.250000' points = '483.3,562.5 483.3,662.4 485.2,662.4 485.2,563.8 '/>
		<polygon fill = 'rgb( 31, 120, 180)' fill-opacity = '0.250000' points = '485.2,563.8 485.2,662.4 487.1,662.4 487.1,565.0 '/>
		<polygon fill = 'rgb( 31, 120, 180)' fill-opacity = '0.250000' points = '487.1,565.0 487.1,662.4 489.0,662.4 489.0,566.1 '/>
		<polygon fill = 'rgb( 31, 120, 180)' fill-opacity = '0.250000' points = '489.0,566.1 489.0,662.4 490.9,662.4 490.9,567.2 '/>
		<polygon fill = 'rgb( 31, 120, 180)' fill-opacity = '0.250000' points = '490.9,567.2 490.9,662.4 492.7,662.4 492.7,568.2 '/>
		<polygon fill = 'rgb( 31, 120, 180)' fill-opacity = '0.250000' points = '492.7,568.2 492.7,662.4 494.6,662.4 494.6,569.0 '/>
		<polygon fill = 'rgb( 31, 120, 180)' fill-opacity = '0.250000' points = '494.6,569.0 494.6,662.4 496.5,662.4 496.5,569.6 '/>
		<polygon fill = 'rgb( 31, 120, 180)' fill-opacity = '0.250000' points = '496.5,569.6 496.5,662.4 498.4,662.4 498.4,569.9 '/>
		<polygon fill = 'rgb( 31, 120, 180)' fill-opacity = '0.250000' points = '498.4,569.9 498.4,662.4 500.3,662.4 500.3,570.0 '/>
		<polygon fill = 'rgb( 31, 120, 180)' fill-opacity = '0.250000' points = '500.3,570.0 500.3,662.4 502.2,662.4 502.2,569.6 '/>
		<polygon fill = 'rgb( 31, 120, 180)' fill-opacity = '0.250000' points = '502.2,569.6 502.2,662.4 504.1,662.4 504.1,568.9 '/>
		<polygon fill = 'rgb( 31, 120, 180)' fill-opacity = '0.250000' points = '504.1,568.9 504.1,662.4 506.0,662.4 506.0,567.9 '/>
		<polygon fill = 'rgb( 31, 120, 180)' fill-opacity = '0.250000' points = '506.0,567.9 506.0,662.4 507.8,662.4 507.8,566.4 '/>
		<polygon fill = 'rgb( 31, 120, 180)' fill-opacity = '0.250000' points = '507.8,566.4 507.8,662.4 509.7,662.4 509.7,564.6 '/>
		<polygon fill = 'rgb( 31, 120, 180)' fill-opacity = '0.250000' points = '509.7,564.6 509.7,662.4 511.6,662.4 511.6,562.4 '/>
		<polygon fill = 'rgb( 31, 120, 180)' fill-opacity = '0.250000' points = '511.6,562.4 511.6,662.4 513.5,662.4 513.5,560.0 '/>
		<polygon fill = 'rgb( 31, 120, 180)' fill-opacity = '0.250000' points = '513.5,560.0 513.5,662.4 515.4,662.4 515.4,557.4 '/>
		<polygon fill = 'rgb( 31, 120, 180)' fill-opacity = '0.250000' points = '515.4,557.4 515.4,662.4 517.3,662.4 517.3,554.7 '/>
		<polygon fill = 'rgb( 31, 120, 180)' fill-opacity = '0.250000' points = '517.3,554.7 517.3,662.4 519.2,662.4 519.2,552.0 '/>
		<polygon fill = 'rgb( 31, 120, 180)' fill-opacity = '0.250000' points = '519.2,552.0 519.2,662.4 521.0,662.4 521.0,549.5 '/>
		<polygon fill = 'rgb( 31, 120, 180)' fill-opacity = '0.250000' points = '521.0,549.5 521.0,662.4 522.9,662.4 522.9,547.2 '/>
		<polygon fill = 'rgb( 31, 120, 180)' fill-opacity = '0.250000' points = '522.9,547.2 522.9,662.4 524.8,662.4 524.8,545.3 '/>
		<polygon fill = 'rgb( 31, 120, 180)' fill-opacity = '0.250000' points = '524.8,545.3 524.8,662.4 526.7,662.4 526.7,543.9 '/>
		<polygon fill = 'rgb( 31, 120, 180)' fill-opacity = '0.250000' points = '526.7,543.9 526.7,662.4 528.6,662.4 528.6,543.1 '/>
		<polygon fill = 'rgb( 31, 120, 180)' fill-opacity = '0.250000' points = '528.6,543.1 528.6,662.4 530.5,662.4 530.5,542.9 '/>
		<polygon fill = 'rgb( 31, 120, 180)' fill-opacity = '0.250000' points = '530.5,542.9 530.5,662.4 532.4,662.4 532.4,543.5 '/>
		<polygon fill = 'rgb( 31, 120, 180)' fill-opacity = '0.250000' points = '532.4,543.5 532.4,662.4 534.3,662.4 534.3,544.8 '/>
		<polygon fill = 'rgb( 31, 120, 180)' fill-opacity = '0.250000' points = '534.3,544.8 534.3,662.4 536.1,662.4 536.1,546.8 '/>
		<polygon fill = 'rgb( 31, 120, 180)' fill-opacity = '0.250000' points = '536.1,546.8 536.1,662.4 538.0,662.4 538.0,549.7 '/>
		<polygon fill = 'rgb( 31, 120, 180)' fill-opacity = '0.250000' points = '538.0,549.7 538.0,662.4 539.9,662.4 539.9,553.2 '/>
		<polygon fill = 'rgb( 31, 120, 180)' fill-opacity = '0.250000' points = '539.9,553.2 539.9,662.4 541.8,662.4 541.8,557.5 '/>
		<polygon fill = 'rgb( 31, 120, 180)' fill-opacity = '0.250000' points = '541.8,557.5 541.8,662.4 543.7,662.4 543.7,562.2 '/>
		<polygon fill = 'rgb( 31, 120, 180)' fill-opacity = '0.250000' points = '543.7,562.2 543.7,662.4 545.6,662.4 545.6,567.5 '/>
		<polygon fill = 'rgb( 31, 120, 180)' fill-opacity = '0.250000' points = '545.6,567.5 545.6,662.4 547.5,662.4 547.5,573.2 '/>
		<polygon fill = 'rgb( 31, 120, 180)' fill-opacity = '0.250000' points = '547.5,573.2 547.5,662.4 549.4,662.4 549.4,579.1 '/>
		<polygon fill = 'rgb( 31, 120, 180)' fill-opacity = '0.250000' points = '549.4,579.1 549.4,662.4 551.2,662.4 551.2,585.2 '/>
		<polygon fill = 'rgb( 31, 120, 180)' fill-opacity = '0.250000' points = '551.2,585.2 551.2,662.4 553.1,662.4 553.1,591.3 '/>
		<polygon fill = 'rgb( 31, 120, 180)' fill-opacity = '0.250000' points = '553.1,591.3 553.1,662.4 555.0,662.4 555.0,597.3 '/>
		<polygon fill = 'rgb( 31, 120, 180)' fill-opacity = '0.250000' points = '555.0,597.3 555.0,662.4 556.9,662.4 556.9,603.2 '/>
		<polygon fill = 'rgb( 31, 120, 180)' fill-opacity = '0.250000' points = '556.9,603.2 556.9,662.4 558.8,662.4 558.8,608.9 '/>
		<polygon fill = 'rgb( 31, 120, 180)' fill-opacity = '0.250000' points = '558.8,608.9 558.8,662.4 560.7,662.4 560.7,614.2 '/>
		<polygon fill = 'rgb( 31, 120, 180)' fill-opacity = '0.250000' points = '560.7,614.2 560.7,662.4 562.6,662.4 562.6,619.1 '/>
		<polygon fill = 'rgb( 31, 120, 180)' fill-opacity = '0.250000' points = '562.6,619.1 562.6,662.4 564.5,662.4 564.5,623.7 '/>
		<polygon fill = 'rgb( 31, 120, 180)' fill-opacity = '0.250000' points = '564.5,623.7 564.5,662.4 566.3,662.4 566.3,627.8 '/>
		<polygon fill = 'rgb( 31, 120, 180)' fill-opacity = '0.250000' points = '566.3,627.8 566.3,662.4 568.2,662.4 568.2,631.4 '/>
		<polygon fill = 'rgb( 31, 120, 180)' fill-opacity = '0.250000' points = '568.2,631.4 568.2,662.4 570.1,662.4 570.1,634.6 '/>
		<polygon fill = 'rgb( 31, 120, 180)' fill-opacity = '0.250000' points = '570.1,634.6 570.1,662.4 572.0,662.4 572.0,637.3 '/>
		<polygon fill = 'rgb( 31, 120, 180)' fill-opacity = '0.250000' points = '572.0,637.3 572.0,662.4 573.9,662.4 573.9,639.5 '/>
		<polygon fill = 'rgb( 31, 120, 180)' fill-opacity = '0.250000' points = '573.9,639.5 573.9,662.4 575.8,662.4 575.8,641.3 '/>
		<polygon fill = 'rgb( 31, 120, 180)' fill-opacity = '0.250000' points = '575.8,641.3 575.8,662.4 577.7,662.4 577.7,642.7 '/>
		<polygon fill = 'rgb( 31, 120, 180)' fill-opacity = '0.250000' points = '577.7,642.7 577.7,662.4 579.5,662.4 579.5,643.7 '/>
		<polygon fill = 'rgb( 31, 120, 180)' fill-opacity = '0.250000' points = '579.5,643.7 579.5,662.4 581.4,662.4 581.4,644.2 '/>
		<polygon fill = 'rgb( 31, 120, 180)' fill-opacity = '0.250000' points = '581.4,644.2 581.4,662.4 583.3,662.4 583.3,644.4 '/>
		<polygon fill = 'rgb( 31, 120, 180)' fill-opacity = '0.250000' points = '583.3,644.4 583.3,662.4 585.2,662.4 585.2,644.3 '/>
		<polygon fill = 'rgb( 31, 120, 180)' fill-opacity = '0.250000' points = '585.2,644.3 585.2,662.4 587.1,662.4 587.1,643.8 '/>
		<polygon fill = 'rgb( 31, 120, 180)' fill-opacity = '0.250000' points = '587.1,643.8 587.1,662.4 589.0,662.4 589.0,643.0 '/>
		<polygon fill = 'rgb( 31, 120, 180)' fill-opacity = '0.250000' points = '589.0,643.0 589.0,662.4 590.9,662.4 590.9,641.9 '/>
		<polygon fill = 'rgb( 31, 120, 180)' fill-opacity = '0.250000' points = '590.9,641.9 590.9,662.4 592.8,662.4 592.8,640.5 '/>
		<polygon fill = 'rgb( 31, 120, 180)' fill-opacity = '0.250000' points = '592.8,640.5 592.8,662.4 594.6,662.4 594.6,638.9 '/>
		<polygon fill = 'rgb( 31, 120, 180)' fill-opacity = '0.250000' points = '594.6,638.9 594.6,662.4 596.5,662.4 596.5,637.0 '/>
		<polygon fill = 'rgb( 31, 120, 180)' fill-opacity = '0.250000' points = '596.5,637.0 596.5,662.4 598.4,662.4 598.4,634.9 '/>
		<polygon fill = 'rgb( 31, 120, 180)' fill-opacity = '0.250000' points = '598.4,634.9 598.4,662.4 600.3,662.4 600.3,632.7 '/>
		<polygon fill = 'rgb( 31, 120, 180)' fill-opacity = '0.250000' points = '600.3,632.7 600.3,662.4 602.2,662.4 602.2,630.3 '/>
		<polygon fill = 'rgb( 31, 120, 180)' fill-opacity = '0.250000' points = '602.2,630.3 602.2,662.4 604.1,662.4 604.1,627.8 '/>
		<polygon fill = 'rgb( 31, 120, 180)' fill-opacity = '0.250000' points = '604.1,627.8 604.1,662.4 606.0,662.4 606.0,625.3 '/>
		<polygon fill = 'rgb( 31, 120, 180)' fill-opacity = '0.250000' points = '606.0,625.3 606.0,662.4 607.9,662.4 607.9,622.8 '/>
		<polygon fill = 'rgb( 31, 120, 180)' fill-opacity = '0.250000' points = '607.9,622.8 607.9,662.4 609.7,662.4 609.7,620.4 '/>
		<polygon fill = 'rgb( 31, 120, 180)' fill-opacity = '0.250000' points = '609.7,620.4 609.7,662.4 611.6,662.4 611.6,618.1 '/>
		<polygon fill = 'rgb( 31, 120, 180)' fill-opacity = '0.250000' points = '611.6,618.1 611.6,662.4 613.5,662.4 613.5,616.0 '/>
		<polygon fill = 'rgb( 31, 120, 180)' fill-opacity = '0.250000' points = '613.5,616.0 613.5,662.4 615.4,662.4 615.4,614.2 '/>
		<polygon fill = 'rgb( 31, 120, 180)' fill-opacity = '0.250000' points = '615.4,614.2 615.4,662.4 617.3,662.4 617.3,612.6 '/>
		<polygon fill = 'rgb( 31, 120, 180)' fill-opacity = '0.250000' points = '617.3,612.6 617.3,662.4 619.2,662.4 619.2,611.3 '/>
		<polygon fill = 'rgb( 31, 120, 180)' fill-opacity = '0.250000' points = '619.2,611.3 619.2,662.4 621.1,662.4 621.1,610.4 '/>
		<polygon fill = 'rgb( 31, 120, 180)' fill-opacity = '0.250000' points = '621.1,610.4 621.1,662.4 623.0,662.4 623.0,609.9 '/>
		<polygon fill = 'rgb( 31, 120, 180)' fill-opacity = '0.250000' points = '623.0,609.9 623.0,662.4 624.8,662.4 624.8,609.7 '/>
		<polygon fill = 'rgb( 31, 120, 180)' fill-opacity = '0.250000' points = '624.8,609.7 624.8,662.4 626.7,662.4 626.7,609.9 '/>
		<polygon fill = 'rgb( 31, 120, 180)' fill-opacity = '0.250000' points = '626.7,609.9 626.7,662.4 628.6,662.4 628.6,610.5 '/>
		<polygon fill = 'rgb( 31, 120, 180)' fill-opacity = '0.250000' points = '628.6,610.5 628.6,662.4 630.5,662.4 630.5,611.4 '/>
		<polygon fill = 'rgb( 31, 120, 180)' fill-opacity = '0.250000' points = '630.5,611.4 630.5,662.4 632.4,662.4 632.4,612.6 '/>
		<polygon fill = 'rgb( 31, 120, 180)' fill-opacity = '0.250000' points = '632.4,612.6 632.4,662.4 634.3,662.4 634.3,614.1 '/>
		<polygon fill = 'rgb( 31, 120, 180)' fill-opacity = '0.250000' points = '634.3,614.1 634.3,662.4 636.2,662.4 636.2,615.8 '/>
		<polygon fill = 'rgb( 31, 120, 180)' fill-opacity = '0.250000' points = '636.2,615.8 636.2,662.4 638.1,662.4 638.1,617.6 '/>
		<polygon fill = 'rgb( 31, 120, 180)' fill-opacity = '0.250000' points = '638.1,617.6 638.1,662.4 639.9,662.4 639.9,619.5 '/>
		<polygon fill = 'rgb( 31, 120, 180)' fill-opacity = '0.250000' points = '639.9,619.5 639.9,662.4 641.8,662.4 641.8,621.5 '/>
		<polygon fill = 'rgb( 31, 120, 180)' fill-opacity = '0.250000' points = '641.8,621.5 641.8,662.4 643.7,662.4 643.7,623.4 '/>
		<polygon fill = 'rgb( 31, 120, 180)' fill-opacity = '0.250000' points = '643.7,623.4 643.7,662.4 645.6,662.4 645.6,625.3 '/>
		<polygon fill = 'rgb( 31, 120, 180)' fill-opacity = '0.250000' points = '645.6,625.3 645.6,662.4 647.5,662.4 647.5,627.1 '/>
		<polygon fill = 'rgb( 31, 120, 180)' fill-opacity = '0.250000' points = '647.5,627.1 647.5,662.4 649.4,662.4 649.4,628.8 '/>
		<polygon fill = 'rgb( 31, 120, 180)' fill-opacity = '0.250000' points = '649.4,628.8 649.4,662.4 651.3,662.4 651.3,630.4 '/>
		<polygon fill = 'rgb( 31, 120, 180)' fill-opacity = '0.250000' points = '651.3,630.4 651.3,662.4 653.1,662.4 653.1,631.7 '/>
		<polygon fill = 'rgb( 31, 120, 180)' fill-opacity = '0.250000' points = '653.1,631.7 653.1,662.4 655.0,662.4 655.0,633.0 '/>
		<polygon fill = 'rgb( 31, 120, 180)' fill-opacity = '0.250000' points = '655.0,633.0 655.0,662.4 656.9,662.4 656.9,634.0 '/>
		<polygon fill = 'rgb( 31, 120, 180)' fill-opacity = '0.250000' points = '656.9,634.0 656.9,662.4 658.8,662.4 658.8,634.9 '/>
		<polygon fill = 'rgb( 31, 120, 180)' fill-opacity = '0.250000' points = '658.8,634.9 658.8,662.4 660.7,662.4 660.7,635.7 '/>
		<polygon fill = 'rgb( 31, 120, 180)' fill-opacity = '0.250000' points = '660.7,635.7 660.7,662.4 662.6,662.4 662.6,636.3 '/>
		<polygon fill = 'rgb( 31, 120, 180)' fill-opacity = '0.250000' points = '662.6,636.3 662.6,662.4 664.5,662.4 664.5,636.9 '/>
		<polygon fill = 'rgb( 31, 120, 180)' fill-opacity = '0.250000' points = '664.5,636.9 664.5,662.4 666.4,662.4 666.4,637.3 '/>
		<polygon fill = 'rgb( 31, 120, 180)' fill-opacity = '0.250000' points = '666.4,637.3 666.4,662.4 668.2,662.4 668.2,637.7 '/>
		<polygon fill = 'rgb( 31, 120, 180)' fill-opacity = '0.250000' points = '668.2,637.7 668.2,662.4 670.1,662.4 670.1,638.0 '/>
		<polygon fill = 'rgb( 31, 120, 180)' fill-opacity = '0.250000' points = '670.1,638.0 670.1,662.4 672.0,662.4 672.0,638.3 '/>
		<polygon fill = 'rgb( 31, 120, 180)' fill-opacity = '0.250000' points = '672.0,638.3 672.0,662.4 673.9,662.4 673.9,638.5 '/>
		<polygon fill = 'rgb( 31, 120, 180)' fill-opacity = '0.250000' points = '673.9,638.5 673.9,662.4 675.8,662.4 675.8,638.6 '/>
		<polygon fill = 'rgb( 31, 120, 180)' fill-opacity = '0.250000' points = '675.8,638.6 675.8,662.4 677.7,662.4 677.7,638.8 '/>
		<polygon fill = 'rgb( 31, 120, 180)' fill-opacity = '0.250000' points = '677.7,638.8 677.7,662.4 679.6,662.4 679.6,638.9 '/>
		<polygon fill = 'rgb( 31, 120, 180)' fill-opacity = '0.250000' points = '679.6,638.9 679.6,662.4 681.5,662.4 681.5,638.9 '/>
		<polygon fill = 'rgb( 31, 120, 180)' fill-opacity = '0.250000' points = '681.5,638.9 681.5,662.4 683.3,662.4 683.3,638.9 '/>
		<polygon fill = 'rgb( 31, 120, 180)' fill-opacity = '0.250000' points = '683.3,638.9 683.3,662.4 685.2,662.4 685.2,638.8 '/>
		<polygon fill = 'rgb( 31, 120, 180)' fill-opacity = '0.250000' points = '685.2,638.8 685.2,662.4 687.1,662.4 687.1,638.6 '/>
		<polygon fill = 'rgb( 31, 120, 180)' fill-opacity = '0.250000' points = '687.1,638.6 687.1,662.4 689.0,662.4 689.0,638.4 '/>
		<polygon fill = 'rgb( 31, 120, 180)' fill-opacity = '0.250000' points = '689.0,638.4 689.0,662.4 690.9,662.4 690.9,638.1 '/>
		<polygon fill = 'rgb( 31, 120, 180)' fill-opacity = '0.250000' points = '690.9,638.1 690.9,662.4 692.8,662.4 692.8,637.7 '/>
		<polygon fill = 'rgb( 31, 120, 180)' fill-opacity = '0.250000' points = '692.8,637.7 692.8,662.4 694.7,662.4 694.7,637.2 '/>
		<polygon fill = 'rgb( 31, 120, 180)' fill-opacity = '0.250000' points = '694.7,637.2 694.7,662.4 696.6,662.4 696.6,636.8 '/>
		<polygon fill = 'rgb( 31, 120, 180)' fill-opacity = '0.250000' points = '696.6,636.8 696.6,662.4 698.4,662.4 698.4,636.2 '/>
		<polygon fill = 'rgb( 31, 120, 180)' fill-opacity = '0.250000' points = '698.4,636.2 698.4,662.4 700.3,662.4 700.3,635.7 '/>
		<polygon fill = 'rgb( 31, 120, 180)' fill-opacity = '0.250000' points = '700.3,635.7 700.3,662.4 702.2,662.4 702.2,635.1 '/>
		<polygon fill = 'rgb( 31, 120, 180)' fill-opacity = '0.250000' points = '702.2,635.1 702.2,662.4 704.1,662.4 704.1,634.6 '/>
		<polygon fill = 'rgb( 31, 120, 180)' fill-opacity = '0.250000' points = '704.1,634.6 704.1,662.4 706.0,662.4 706.0,634.1 '/>
		<polygon fill = 'rgb( 31, 120, 180)' fill-opacity = '0.250000' points = '706.0,634.1 706.0,662.4 707.9,662.4 707.9,633.7 '/>
		<polygon fill = 'rgb( 31, 120, 180)' fill-opacity = '0.250000' points = '707.9,633.7 707.9,662.4 709.8,662.4 709.8,633.3 '/>
		<polygon fill = 'rgb( 31, 120, 180)' fill-opacity = '0.250000' points = '709.8,633.3 709.8,662.4 711.7,662.4 711.7,633.0 '/>
		<polygon fill = 'rgb( 31, 120, 180)' fill-opacity = '0.250000' points = '711.7,633.0 711.7,662.4 713.5,662.4 713.5,632.8 '/>
		<polygon fill = 'rgb( 31, 120, 180)' fill-opacity = '0.250000' points = '713.5,632.8 713.5,662.4 715.4,662.4 715.4,632.7 '/>
		<polygon fill = 'rgb( 31, 120, 180)' fill-opacity = '0.250000' points = '715.4,632.7 715.4,662.4 717.3,662.4 717.3,632.6 '/>
		<polygon fill = 'rgb( 31, 120, 180)' fill-opacity = '0.250000' points = '717.3,632.6 717.3,662.4 719.2,662.4 719.2,632.6 '/>
		<polygon fill = 'rgb( 31, 120, 180)' fill-opacity = '0.250000' points = '719.2,632.6 719.2,662.4 721.1,662.4 721.1,632.7 '/>
		<polygon fill = 'rgb( 31, 120, 180)' fill-opacity = '0.250000' points = '721.1,632.7 721.1,662.4 723.0,662.4 723.0,632.7 '/>
		<polygon fill = 'rgb( 31, 120, 180)' fill-opacity = '0.250000' points = '723.0,632.7 723.0,662.4 724.9,662.4 724.9,632.8 '/>
		<polygon fill = 'rgb( 31, 120, 180)' fill-opacity = '0.250000' points = '724.9,632.8 724.9,662.4 726.7,662.4 726.7,632.9 '/>
		<polygon fill = 'rgb( 31, 120, 180)' fill-opacity = '0.250000' points = '726.7,632.9 726.7,662.4 728.6,662.4 728.6,632.9 '/>
		<polygon fill = 'rgb( 31, 120, 180)' fill-opacity = '0.250000' points = '728.6,632.9 728.6,662.4 730.5,662.4 730.5,632.8 '/>
		<polygon fill = 'rgb( 31, 120, 180)' fill-opacity = '0.250000' points = '730.5,632.8 730.5,662.4 732.4,662.4 732.4,632.7 '/>
		<polygon fill = 'rgb( 31, 120, 180)' fill-opacity = '0.250000' points = '732.4,632.7 732.4,662.4 734.3,662.4 734.3,632.5 '/>
		<polygon fill = 'rgb( 31, 120, 180)' fill-opacity = '0.250000' points = '734.3,632.5 734.3,662.4 736.2,662.4 736.2,632.1 '/>
		<polygon fill = 'rgb( 31, 120, 180)' fill-opacity = '0.250000' points = '736.2,632.1 736.2,662.4 738.1,662.4 738.1,631.7 '/>
		<polygon fill = 'rgb( 31, 120, 180)' fill-opacity = '0.250000' points = '738.1,631.7 738.1,662.4 740.0,662.4 740.0,631.2 '/>
		<polygon fill = 'rgb( 31, 120, 180)' fill-opacity = '0.250000' points = '740.0,631.2 740.0,662.4 741.8,662.4 741.8,630.6 '/>
		<polygon fill = 'rgb( 31, 120, 180)' fill-opacity = '0.250000' points = '741.8,630.6 741.8,662.4 743.7,662.4 743.7,630.0 '/>
		<polygon fill = 'rgb( 31, 120, 180)' fill-opacity = '0.250000' points = '743.7,630.0 743.7,662.4 745.6,662.4 745.6,629.3 '/>
		<polygon fill = 'rgb( 31, 120, 180)' fill-opacity = '0.250000' points = '745.6,629.3 745.6,662.4 747.5,662.4 747.5,628.6 '/>
		<polygon fill = 'rgb( 31, 120, 180)' fill-opacity = '0.250000' points = '747.5,628.6 747.5,662.4 749.4,662.4 749.4,627.9 '/>
		<polygon fill = 'rgb( 31, 120, 180)' fill-opacity = '0.250000' points = '749.4,627.9 749.4,662.4 751.3,662.4 751.3,627.2 '/>
		<polygon fill = 'rgb( 31, 120, 180)' fill-opacity = '0.250000' points = '751.3,627.2 751.3,662.4 753.2,662.4 753.2,626.6 '/>
		<polygon fill = 'rgb( 31, 120, 180)' fill-opacity = '0.250000' points = '753.2,626.6 753.2,662.4 755.1,662.4 755.1,626.1 '/>
		<polygon fill = 'rgb( 31, 120, 180)' fill-opacity = '0.250000' points = '755.1,626.1 755.1,662.4 756.9,662.4 756.9,625.6 '/>
		<polygon fill = 'rgb( 31, 120, 180)' fill-opacity = '0.250000' points = '756.9,625.6 756.9,662.4 758.8,662.4 758.8,625.3 '/>
		<polygon fill = 'rgb( 31, 120, 180)' fill-opacity = '0.250000' points = '758.8,625.3 758.8,662.4 760.7,662.4 760.7,625.0 '/>
		<polygon fill = 'rgb( 31, 120, 180)' fill-opacity = '0.250000' points = '760.7,625.0 760.7,662.4 762.6,662.4 762.6,624.9 '/>
		<polygon fill = 'rgb( 31, 120, 180)' fill-opacity = '0.250000' points = '762.6,624.9 762.6,662.4 764.5,662.4 764.5,624.8 '/>
		<polygon fill = 'rgb( 31, 120, 180)' fill-opacity = '0.250000' points = '764.5,624.8 764.5,662.4 766.4,662.4 766.4,624.7 '/>
		<polygon fill = 'rgb( 31, 120, 180)' fill-opacity = '0.250000' points = '766.4,624.7 766.4,662.4 768.3,662.4 768.3,624.7 '/>
		<polygon fill = 'rgb( 31, 120, 180)' fill-opacity = '0.250000' points = '768.3,624.7 768.3,662.4 770.2,662.4 770.2,624.6 '/>
		<polygon fill = 'rgb( 31, 120, 180)' fill-opacity = '0.250000' points = '770.2,624.6 770.2,662.4 772.0,662.4 772.0,624.5 '/>
		<polygon fill = 'rgb( 31, 120, 180)' fill-opacity = '0.250000' points = '772.0,624.5 772.0,662.4 773.9,662.4 773.9,624.4 '/>
		<polygon fill = 'rgb( 31, 120, 180)' fill-opacity = '0.250000' points = '773.9,624.4 773.9,662.4 775.8,662.4 775.8,624.1 '/>
		<polygon fill = 'rgb( 31, 120, 180)' fill-opacity = '0.250000' points = '775.8,624.1 775.8,662.4 777.7,662.4 777.7,623.7 '/>
		<polygon fill = 'rgb( 31, 120, 180)' fill-opacity = '0.250000' points = '777.7,623.7 777.7,662.4 779.6,662.4 779.6,623.1 '/>
		<polygon fill = 'rgb( 31, 120, 180)' fill-opacity = '0.250000' points = '779.6,623.1 779.6,662.4 781.5,662.4 781.5,622.3 '/>
		<polygon fill = 'rgb( 31, 120, 180)' fill-opacity = '0.250000' points = '781.5,622.3 781.5,662.4 783.4,662.4 783.4,621.4 '/>
		<polygon fill = 'rgb( 31, 120, 180)' fill-opacity = '0.250000' points = '783.4,621.4 783.4,662.4 785.3,662.4 785.3,620.3 '/>
		<polygon fill = 'rgb( 31, 120, 180)' fill-opacity = '0.250000' points = '785.3,620.3 785.3,662.4 787.1,662.4 787.1,619.1 '/>
		<polygon fill = 'rgb( 31, 120, 180)' fill-opacity = '0.250000' points = '787.1,619.1 787.1,662.4 789.0,662.4 789.0,617.7 '/>
		<polygon fill = 'rgb( 31, 120, 180)' fill-opacity = '0.250000' points = '789.0,617.7 789.0,662.4 790.9,662.4 790.9,616.3 '/>
		<polygon fill = 'rgb( 31, 120, 180)' fill-opacity = '0.250000' points = '790.9,616.3 790.9,662.4 792.8,662.4 792.8,614.8 '/>
		<polygon fill = 'rgb( 31, 120, 180)' fill-opacity = '0.250000' points = '792.8,614.8 792.8,662.4 794.7,662.4 794.7,613.4 '/>
		<polygon fill = 'rgb( 31, 120, 180)' fill-opacity = '0.250000' points = '794.7,613.4 794.7,662.4 796.6,662.4 796.6,612.0 '/>
		<polygon fill = 'rgb( 31, 120, 180)' fill-opacity = '0.250000' points = '796.6,612.0 796.6,662.4 798.5,662.4 798.5,610.7 '/>
		<polygon fill = 'rgb( 31, 120, 180)' fill-opacity = '0.250000' points = '798.5,610.7 798.5,662.4 800.3,662.4 800.3,609.6 '/>
		<polygon fill = 'rgb( 31, 120, 180)' fill-opacity = '0.250000' points = '800.3,609.6 800.3,662.4 802.2,662.4 802.2,608.8 '/>
		<polygon fill = 'rgb( 31, 120, 180)' fill-opacity = '0.250000' points = '802.2,608.8 802.2,662.4 804.1,662.4 804.1,608.2 '/>
		<polygon fill = 'rgb( 31, 120, 180)' fill-opacity = '0.250000' points = '804.1,608.2 804.1,662.4 806.0,662.4 806.0,607.9 '/>
		<polygon fill = 'rgb( 31, 120, 180)' fill-opacity = '0.250000' points = '806.0,607.9 806.0,662.4 807.9,662.4 807.9,607.9 '/>
		<polygon fill = 'rgb( 31, 120, 180)' fill-opacity = '0.250000' points = '807.9,607.9 807.9,662.4 809.8,662.4 809.8,608.3 '/>
		<polygon fill = 'rgb( 31, 120, 180)' fill-opacity = '0.250000' points = '809.8,608.3 809.8,662.4 811.7,662.4 811.7,609.0 '/>
		<polygon fill = 'rgb( 31, 120, 180)' fill-opacity = '0.250000' points = '811.7,609.0 811.7,662.4 813.6,662.4 813.6,610.1 '/>
		<polygon fill = 'rgb( 31, 120, 180)' fill-opacity = '0.250000' points = '813.6,610.1 813.6,662.4 815.4,662.4 815.4,611.5 '/>
		<polygon fill = 'rgb( 31, 120, 180)' fill-opacity = '0.250000' points = '815.4,611.5 815.4,662.4 817.3,662.4 817.3,613.3 '/>
		<polygon fill = 'rgb( 31, 120, 180)' fill-opacity = '0.250000' points = '817.3,613.3 817.3,662.4 819.2,662.4 819.2,615.2 '/>
		<polygon fill = 'rgb( 31, 120, 180)' fill-opacity = '0.250000' points = '819.2,615.2 819.2,662.4 821.1,662.4 821.1,617.4 '/>
		<polygon fill = 'rgb( 31, 120, 180)' fill-opacity = '0.250000' points = '821.1,617.4 821.1,662.4 823.0,662.4 823.0,619.8 '/>
		<polygon fill = 'rgb( 31, 120, 180)' fill-opacity = '0.250000' points = '823.0,619.8 823.0,662.4 824.9,662.4 824.9,622.2 '/>
		<polygon fill = 'rgb( 31, 120, 180)' fill-opacity = '0.250000' points = '824.9,622.2 824.9,662.4 826.8,662.4 826.8,624.8 '/>
		<polygon fill = 'rgb( 31, 120, 180)' fill-opacity = '0.250000' points = '826.8,624.8 826.8,662.4 828.7,662.4 828.7,627.3 '/>
		<polygon fill = 'rgb( 31, 120, 180)' fill-opacity = '0.250000' points = '828.7,627.3 828.7,662.4 830.5,662.4 830.5,629.7 '/>
		<polygon fill = 'rgb( 31, 120, 180)' fill-opacity = '0.250000' points = '830.5,629.7 830.5,662.4 832.4,662.4 832.4,632.1 '/>
		<polygon fill = 'rgb( 31, 120, 180)' fill-opacity = '0.250000' points = '832.4,632.1 832.4,662.4 834.3,662.4 834.3,634.3 '/>
		<polygon fill = 'rgb( 31, 120, 180)' fill-opacity = '0.250000' points = '834.3,634.3 834.3,662.4 836.2,662.4 836.2,636.2 '/>
		<polygon fill = 'rgb( 31, 120, 180)' fill-opacity = '0.250000' points = '836.2,636.2 836.2,662.4 838.1,662.4 838.1,638.0 '/>
		<polygon fill = 'rgb( 31, 120, 180)' fill-opacity = '0.250000' points = '838.1,638.0 838.1,662.4 840.0,662.4 840.0,639.6 '/>
		<polygon fill = 'rgb( 31, 120, 180)' fill-opacity = '0.250000' points = '840.0,639.6 840.0,662.4 841.9,662.4 841.9,640.9 '/>
		<polygon fill = 'rgb( 31, 120, 180)' fill-opacity = '0.250000' points = '841.9,640.9 841.9,662.4 843.8,662.4 843.8,641.9 '/>
		<polygon fill = 'rgb( 31, 120, 180)' fill-opacity = '0.250000' points = '843.8,641.9 843.8,662.4 845.6,662.4 845.6,642.7 '/>
		<polygon fill = 'rgb( 31, 120, 180)' fill-opacity = '0.250000' points = '845.6,642.7 845.6,662.4 847.5,662.4 847.5,643.2 '/>
		<polygon fill = 'rgb( 31, 120, 180)' fill-opacity = '0.250000' points = '847.5,643.2 847.5,662.4 849.4,662.4 849.4,643.6 '/>
		<polygon fill = 'rgb( 31, 120, 180)' fill-opacity = '0.250000' points = '849.4,643.6 849.4,662.4 851.3,662.4 851.3,643.7 '/>
		<polygon fill = 'rgb( 31, 120, 180)' fill-opacity = '0.250000' points = '851.3,643.7 851.3,662.4 853.2,662.4 853.2,643.7 '/>
		<polygon fill = 'rgb( 31, 120, 180)' fill-opacity = '0.250000' points = '853.2,643.7 853.2,662.4 855.1,662.4 855.1,643.6 '/>
		<polygon fill = 'rgb( 31, 120, 180)' fill-opacity = '0.250000' points = '855.1,643.6 855.1,662.4 857.0,662.4 857.0,643.4 '/>
		<polygon fill = 'rgb( 31, 120, 180)' fill-opacity = '0.250000' points = '857.0,643.4 857.0,662.4 858.9,662.4 858.9,643.1 '/>
		<polygon fill = 'rgb( 31, 120, 180)' fill-opacity = '0.250000' points = '858.9,643.1 858.9,662.4 860.7,662.4 860.7,642.8 '/>
		<polygon fill = 'rgb( 31, 120, 180)' fill-opacity = '0.250000' points = '860.7,642.8 860.7,662.4 862.6,662.4 862.6,642.6 '/>
		<polygon fill = 'rgb( 31, 120, 180)' fill-opacity = '0.250000' points = '862.6,642.6 862.6,662.4 864.5,662.4 864.5,642.3 '/>
		<polygon fill = 'rgb( 31, 120, 180)' fill-opacity = '0.250000' points = '864.5,642.3 864.5,662.4 866.4,662.4 866.4,642.1 '/>
		<polygon fill = 'rgb( 31, 120, 180)' fill-opacity = '0.250000' points = '866.4,642.1 866.4,662.4 868.3,662.4 868.3,642.1 '/>
		<polygon fill = 'rgb( 31, 120, 180)' fill-opacity = '0.250000' points = '868.3,642.1 868.3,662.4 870.2,662.4 870.2,642.1 '/>
		<polygon fill = 'rgb( 31, 120, 180)' fill-opacity = '0.250000' points = '870.2,642.1 870.2,662.4 872.1,662.4 872.1,642.2 '/>
		<polygon fill = 'rgb( 31, 120, 180)' fill-opacity = '0.250000' points = '872.1,642.2 872.1,662.4 873.9,662.4 873.9,642.4 '/>
		<polygon fill = 'rgb( 31, 120, 180)' fill-opacity = '0.250000' points = '873.9,642.4 873.9,662.4 875.8,662.4 875.8,642.7 '/>
		<polygon fill = 'rgb( 31, 120, 180)' fill-opacity = '0.250000' points = '875.8,642.7 875.8,662.4 877.7,662.4 877.7,643.1 '/>
		<polygon fill = 'rgb( 31, 120, 180)' fill-opacity = '0.250000' points = '877.7,643.1 877.7,662.4 879.6,662.4 879.6,643.6 '/>
		<polygon fill = 'rgb( 31, 120, 180)' fill-opacity = '0.250000' points = '879.6,643.6 879.6,662.4 881.5,662.4 881.5,644.1 '/>
		<polygon fill = 'rgb( 31, 120, 180)' fill-opacity = '0.250000' points = '881.5,644.1 881.5,662.4 883.4,662.4 883.4,644.7 '/>
		<polygon fill = 'rgb( 31, 120, 180)' fill-opacity = '0.250000' points = '883.4,644.7 883.4,662.4 885.3,662.4 885.3,645.2 '/>
		<polygon fill = 'rgb( 31, 120, 180)' fill-opacity = '0.250000' points = '885.3,645.2 885.3,662.4 887.2,662.4 887.2,645.8 '/>
		<polygon fill = 'rgb( 31, 120, 180)' fill-opacity = '0.250000' points = '887.2,645.8 887.2,662.4 889.0,662.4 889.0,646.3 '/>
		<polygon fill = 'rgb( 31, 120, 180)' fill-opacity = '0.250000' points = '889.0,646.3 889.0,662.4 890.9,662.4 890.9,646.8 '/>
		<polygon fill = 'rgb( 31, 120, 180)' fill-opacity = '0.250000' points = '890.9,646.8 890.9,662.4 892.8,662.4 892.8,647.2 '/>
		<polygon fill = 'rgb( 31, 120, 180)' fill-opacity = '0.250000' points = '892.8,647.2 892.8,662.4 894.7,662.4 894.7,647.5 '/>
		<polygon fill = 'rgb( 31, 120, 180)' fill-opacity = '0.250000' points = '894.7,647.5 894.7,662.4 896.6,662.4 896.6,647.8 '/>
		<polygon fill = 'rgb( 31, 120, 180)' fill-opacity = '0.250000' points = '896.6,647.8 896.6,662.4 898.5,662.4 898.5,647.9 '/>
		<polygon fill = 'rgb( 31, 120, 180)' fill-opacity = '0.250000' points = '898.5,647.9 898.5,662.4 900.4,662.4 900.4,647.9 '/>
		<polygon fill = 'rgb( 31, 120, 180)' fill-opacity = '0.250000' points = '900.4,647.9 900.4,662.4 902.3,662.4 902.3,647.9 '/>
		<polygon fill = 'rgb( 31, 120, 180)' fill-opacity = '0.250000' points = '902.3,647.9 902.3,662.4 904.1,662.4 904.1,647.7 '/>
		<polygon fill = 'rgb( 31, 120, 180)' fill-opacity = '0.250000' points = '904.1,647.7 904.1,662.4 906.0,662.4 906.0,647.5 '/>
		<polygon fill = 'rgb( 31, 120, 180)' fill-opacity = '0.250000' points = '906.0,647.5 906.0,662.4 907.9,662.4 907.9,647.2 '/>
		<polygon fill = 'rgb( 31, 120, 180)' fill-opacity = '0.250000' points = '907.9,647.2 907.9,662.4 909.8,662.4 909.8,646.9 '/>
		<polygon fill = 'rgb( 31, 120, 180)' fill-opacity = '0.250000' points = '909.8,646.9 909.8,662.4 911.7,662.4 911.7,646.6 '/>
		<polygon fill = 'rgb( 31, 120, 180)' fill-opacity = '0.250000' points = '911.7,646.6 911.7,662.4 913.6,662.4 913.6,646.3 '/>
		<polygon fill = 'rgb( 31, 120, 180)' fill-opacity = '0.250000' points = '913.6,646.3 913.6,662.4 915.5,662.4 915.5,646.0 '/>
		<polygon fill = 'rgb( 31, 120, 180)' fill-opacity = '0.250000' points = '915.5,646.0 915.5,662.4 917.4,662.4 917.4,645.7 '/>
		<polygon fill = 'rgb( 31, 120, 180)' fill-opacity = '0.250000' points = '917.4,645.7 917.4,662.4 919.2,662.4 919.2,645.5 '/>
		<polygon fill = 'rgb( 31, 120, 180)' fill-opacity = '0.250000' points = '919.2,645.5 919.2,662.4 921.1,662.4 921.1,645.4 '/>
		<polygon fill = 'rgb( 31, 120, 180)' fill-opacity = '0.250000' points = '921.1,645.4 921.1,662.4 923.0,662.4 923.0,645.3 '/>
		<polygon fill = 'rgb( 31, 120, 180)' fill-opacity = '0.250000' points = '923.0,645.3 923.0,662.4 924.9,662.4 924.9,645.4 '/>
	</g>
</g>
	</g>
	<g id="gnuplot_plot_3" ><title>Point estimate</title>
<g fill="none" color="white" stroke="rgb( 31, 120, 180)" stroke-width="2.00" stroke-linecap="butt" stroke-linejoin="miter">
</g>
<g fill="none" color="black" stroke="currentColor" stroke-width="2.00" stroke-linecap="butt" stroke-linejoin="miter">
	<g transform="translate(1089.0,103.0)" stroke="none" fill="black" font-family="Helvetica" font-size="12.00"  text-anchor="start">
		<text><tspan font-family="Helvetica" >Point estimate</tspan></text>
	</g>
</g>
<g fill="none" color="black" stroke="currentColor" stroke-width="2.00" stroke-linecap="butt" stroke-linejoin="miter">
	<path stroke='rgb( 31, 120, 180)'  d='M1038.5,99.1 L1080.7,99.1 M364.1,662.4 L364.1,122.7  '/></g>
	</g>
<g fill="none" color="black" stroke="currentColor" stroke-width="2.00" stroke-linecap="butt" stroke-linejoin="miter">
</g>
<g fill="none" color="black" stroke="black" stroke-width="1.00" stroke-linecap="butt" stroke-linejoin="miter">
</g>
<g fill="none" color="black" stroke="currentColor" stroke-width="1.00" stroke-linecap="butt" stroke-linejoin="miter">
	<path stroke='black'  d='M71.9,54.1 L71.9,662.4 L1013.6,662.4 L1013.6,54.1 L71.9,54.1 Z  '/></g>
<g fill="none" color="black" stroke="currentColor" stroke-width="1.00" stroke-linecap="butt" stroke-linejoin="miter">
</g>
</g>
</svg>

