<?xml version="1.0" encoding="utf-8"  standalone="no"?>
<!DOCTYPE svg PUBLIC "-//W3C//DTD SVG 1.1//EN"
 "http://www.w3.org/Graphics/SVG/1.1/DTD/svg11.dtd">
<svg 
 viewBox="0 0 1280 720"
 xmlns="http://www.w3.org/2000/svg"
 xmlns:xlink="http://www.w3.org/1999/xlink"
>

<title>Gnuplot</title>
<desc>Produced by GNUPLOT 5.0 patchlevel 5 </desc>

<g id="gnuplot_canvas">

<rect x="0" y="0" width="1280" height="720" fill="none"/>
<defs>

	<circle id='gpDot' r='0.5' stroke-width='0.5'/>
	<path id='gpPt0' stroke-width='0.222' stroke='currentColor' d='M-1,0 h2 M0,-1 v2'/>
	<path id='gpPt1' stroke-width='0.222' stroke='currentColor' d='M-1,-1 L1,1 M1,-1 L-1,1'/>
	<path id='gpPt2' stroke-width='0.222' stroke='currentColor' d='M-1,0 L1,0 M0,-1 L0,1 M-1,-1 L1,1 M-1,1 L1,-1'/>
	<rect id='gpPt3' stroke-width='0.222' stroke='currentColor' x='-1' y='-1' width='2' height='2'/>
	<rect id='gpPt4' stroke-width='0.222' stroke='currentColor' fill='currentColor' x='-1' y='-1' width='2' height='2'/>
	<circle id='gpPt5' stroke-width='0.222' stroke='currentColor' cx='0' cy='0' r='1'/>
	<use xlink:href='#gpPt5' id='gpPt6' fill='currentColor' stroke='none'/>
	<path id='gpPt7' stroke-width='0.222' stroke='currentColor' d='M0,-1.33 L-1.33,0.67 L1.33,0.67 z'/>
	<use xlink:href='#gpPt7' id='gpPt8' fill='currentColor' stroke='none'/>
	<use xlink:href='#gpPt7' id='gpPt9' stroke='currentColor' transform='rotate(180)'/>
	<use xlink:href='#gpPt9' id='gpPt10' fill='currentColor' stroke='none'/>
	<use xlink:href='#gpPt3' id='gpPt11' stroke='currentColor' transform='rotate(45)'/>
	<use xlink:href='#gpPt11' id='gpPt12' fill='currentColor' stroke='none'/>
	<path id='gpPt13' stroke-width='0.222' stroke='currentColor' d='M0,1.330 L1.265,0.411 L0.782,-1.067 L-0.782,-1.076 L-1.265,0.411 z'/>
	<use xlink:href='#gpPt13' id='gpPt14' fill='currentColor' stroke='none'/>
	<filter id='textbox' filterUnits='objectBoundingBox' x='0' y='0' height='1' width='1'>
	  <feFlood flood-color='white' flood-opacity='1' result='bgnd'/>
	  <feComposite in='SourceGraphic' in2='bgnd' operator='atop'/>
	</filter>
	<filter id='greybox' filterUnits='objectBoundingBox' x='0' y='0' height='1' width='1'>
	  <feFlood flood-color='lightgrey' flood-opacity='1' result='grey'/>
	  <feComposite in='SourceGraphic' in2='grey' operator='atop'/>
	</filter>
</defs>
<g fill="none" color="white" stroke="currentColor" stroke-width="1.00" stroke-linecap="butt" stroke-linejoin="miter">
</g>
<g fill="none" color="black" stroke="currentColor" stroke-width="1.00" stroke-linecap="butt" stroke-linejoin="miter">
	<path stroke='black'  d='M63.6,662.4 L72.6,662.4  '/>	<g transform="translate(55.3,666.3)" stroke="none" fill="black" font-family="Helvetica" font-size="12.00"  text-anchor="end">
		<text><tspan font-family="Helvetica" > 0</tspan></text>
	</g>
</g>
<g fill="none" color="black" stroke="currentColor" stroke-width="1.00" stroke-linecap="butt" stroke-linejoin="miter">
	<path stroke='black'  d='M63.6,586.4 L72.6,586.4  '/>	<g transform="translate(55.3,590.3)" stroke="none" fill="black" font-family="Helvetica" font-size="12.00"  text-anchor="end">
		<text><tspan font-family="Helvetica" > 10</tspan></text>
	</g>
</g>
<g fill="none" color="black" stroke="currentColor" stroke-width="1.00" stroke-linecap="butt" stroke-linejoin="miter">
	<path stroke='black'  d='M63.6,510.3 L72.6,510.3  '/>	<g transform="translate(55.3,514.2)" stroke="none" fill="black" font-family="Helvetica" font-size="12.00"  text-anchor="end">
		<text><tspan font-family="Helvetica" > 20</tspan></text>
	</g>
</g>
<g fill="none" color="black" stroke="currentColor" stroke-width="1.00" stroke-linecap="butt" stroke-linejoin="miter">
	<path stroke='black'  d='M63.6,434.3 L72.6,434.3  '/>	<g transform="translate(55.3,438.2)" stroke="none" fill="black" font-family="Helvetica" font-size="12.00"  text-anchor="end">
		<text><tspan font-family="Helvetica" > 30</tspan></text>
	</g>
</g>
<g fill="none" color="black" stroke="currentColor" stroke-width="1.00" stroke-linecap="butt" stroke-linejoin="miter">
	<path stroke='black'  d='M63.6,358.2 L72.6,358.2  '/>	<g transform="translate(55.3,362.1)" stroke="none" fill="black" font-family="Helvetica" font-size="12.00"  text-anchor="end">
		<text><tspan font-family="Helvetica" > 40</tspan></text>
	</g>
</g>
<g fill="none" color="black" stroke="currentColor" stroke-width="1.00" stroke-linecap="butt" stroke-linejoin="miter">
	<path stroke='black'  d='M63.6,282.2 L72.6,282.2  '/>	<g transform="translate(55.3,286.1)" stroke="none" fill="black" font-family="Helvetica" font-size="12.00"  text-anchor="end">
		<text><tspan font-family="Helvetica" > 50</tspan></text>
	</g>
</g>
<g fill="none" color="black" stroke="currentColor" stroke-width="1.00" stroke-linecap="butt" stroke-linejoin="miter">
	<path stroke='black'  d='M63.6,206.2 L72.6,206.2  '/>	<g transform="translate(55.3,210.1)" stroke="none" fill="black" font-family="Helvetica" font-size="12.00"  text-anchor="end">
		<text><tspan font-family="Helvetica" > 60</tspan></text>
	</g>
</g>
<g fill="none" color="black" stroke="currentColor" stroke-width="1.00" stroke-linecap="butt" stroke-linejoin="miter">
	<path stroke='black'  d='M63.6,130.1 L72.6,130.1  '/>	<g transform="translate(55.3,134.0)" stroke="none" fill="black" font-family="Helvetica" font-size="12.00"  text-anchor="end">
		<text><tspan font-family="Helvetica" > 70</tspan></text>
	</g>
</g>
<g fill="none" color="black" stroke="currentColor" stroke-width="1.00" stroke-linecap="butt" stroke-linejoin="miter">
	<path stroke='black'  d='M63.6,54.1 L72.6,54.1  '/>	<g transform="translate(55.3,58.0)" stroke="none" fill="black" font-family="Helvetica" font-size="12.00"  text-anchor="end">
		<text><tspan font-family="Helvetica" > 80</tspan></text>
	</g>
</g>
<g fill="none" color="black" stroke="currentColor" stroke-width="1.00" stroke-linecap="butt" stroke-linejoin="miter">
	<path stroke='black'  d='M173.5,662.4 L173.5,653.4  '/>	<g transform="translate(173.5,684.3)" stroke="none" fill="black" font-family="Helvetica" font-size="12.00"  text-anchor="middle">
		<text><tspan font-family="Helvetica" > 5.86</tspan></text>
	</g>
</g>
<g fill="none" color="black" stroke="currentColor" stroke-width="1.00" stroke-linecap="butt" stroke-linejoin="miter">
	<path stroke='black'  d='M352.9,662.4 L352.9,653.4  '/>	<g transform="translate(352.9,684.3)" stroke="none" fill="black" font-family="Helvetica" font-size="12.00"  text-anchor="middle">
		<text><tspan font-family="Helvetica" > 5.865</tspan></text>
	</g>
</g>
<g fill="none" color="black" stroke="currentColor" stroke-width="1.00" stroke-linecap="butt" stroke-linejoin="miter">
	<path stroke='black'  d='M532.3,662.4 L532.3,653.4  '/>	<g transform="translate(532.3,684.3)" stroke="none" fill="black" font-family="Helvetica" font-size="12.00"  text-anchor="middle">
		<text><tspan font-family="Helvetica" > 5.87</tspan></text>
	</g>
</g>
<g fill="none" color="black" stroke="currentColor" stroke-width="1.00" stroke-linecap="butt" stroke-linejoin="miter">
	<path stroke='black'  d='M711.8,662.4 L711.8,653.4  '/>	<g transform="translate(711.8,684.3)" stroke="none" fill="black" font-family="Helvetica" font-size="12.00"  text-anchor="middle">
		<text><tspan font-family="Helvetica" > 5.875</tspan></text>
	</g>
</g>
<g fill="none" color="black" stroke="currentColor" stroke-width="1.00" stroke-linecap="butt" stroke-linejoin="miter">
	<path stroke='black'  d='M891.2,662.4 L891.2,653.4  '/>	<g transform="translate(891.2,684.3)" stroke="none" fill="black" font-family="Helvetica" font-size="12.00"  text-anchor="middle">
		<text><tspan font-family="Helvetica" > 5.88</tspan></text>
	</g>
</g>
<g fill="none" color="black" stroke="currentColor" stroke-width="1.00" stroke-linecap="butt" stroke-linejoin="miter">
</g>
<g fill="none" color="black" stroke="currentColor" stroke-width="1.00" stroke-linecap="butt" stroke-linejoin="miter">
	<path stroke='black'  d='M63.6,54.1 L63.6,662.4 L1013.6,662.4 L1013.6,54.1 L63.6,54.1 Z  '/></g>
<g fill="none" color="black" stroke="currentColor" stroke-width="1.00" stroke-linecap="butt" stroke-linejoin="miter">
	<g transform="translate(17.0,358.3) rotate(270)" stroke="none" fill="black" font-family="Helvetica" font-size="12.00"  text-anchor="middle">
		<text><tspan font-family="Helvetica" >Density (a.u.)</tspan></text>
	</g>
</g>
<g fill="none" color="black" stroke="currentColor" stroke-width="1.00" stroke-linecap="butt" stroke-linejoin="miter">
	<g transform="translate(538.6,711.3)" stroke="none" fill="black" font-family="Helvetica" font-size="12.00"  text-anchor="middle">
		<text><tspan font-family="Helvetica" >Average time (ms)</tspan></text>
	</g>
</g>
<g fill="none" color="black" stroke="currentColor" stroke-width="1.00" stroke-linecap="butt" stroke-linejoin="miter">
	<g transform="translate(538.6,31.0)" stroke="none" fill="black" font-family="Helvetica" font-size="12.00"  text-anchor="middle">
		<text><tspan font-family="Helvetica" >dfs arena ghostcell vec init: mean</tspan></text>
	</g>
</g>
	<g id="gnuplot_plot_1" ><title>Bootstrap distribution</title>
<g fill="none" color="white" stroke="black" stroke-width="2.00" stroke-linecap="butt" stroke-linejoin="miter">
</g>
<g fill="none" color="black" stroke="currentColor" stroke-width="2.00" stroke-linecap="butt" stroke-linejoin="miter">
	<g transform="translate(1089.0,67.0)" stroke="none" fill="black" font-family="Helvetica" font-size="12.00"  text-anchor="start">
		<text><tspan font-family="Helvetica" >Bootstrap distribution</tspan></text>
	</g>
</g>
<g fill="none" color="black" stroke="currentColor" stroke-width="2.00" stroke-linecap="butt" stroke-linejoin="miter">
	<path stroke='rgb( 31, 120, 180)'  d='M1038.5,63.1 L1080.7,63.1 M63.6,632.9 L65.5,631.7 L67.4,630.5 L69.3,629.2 L71.2,627.9 L73.1,626.6
		L75.0,625.2 L76.9,623.8 L78.8,622.3 L80.7,620.8 L82.6,619.3 L84.5,617.8 L86.4,616.2 L88.3,614.6
		L90.3,613.0 L92.2,611.3 L94.1,609.6 L96.0,607.9 L97.9,606.1 L99.8,604.3 L101.7,602.5 L103.6,600.6
		L105.5,598.7 L107.4,596.8 L109.3,594.8 L111.2,592.7 L113.1,590.7 L115.0,588.5 L116.9,586.3 L118.8,584.1
		L120.7,581.9 L122.6,579.5 L124.5,577.2 L126.4,574.7 L128.3,572.3 L130.2,569.8 L132.1,567.2 L134.0,564.6
		L135.9,562.0 L137.8,559.3 L139.8,556.6 L141.7,553.9 L143.6,551.1 L145.5,548.3 L147.4,545.4 L149.3,542.5
		L151.2,539.6 L153.1,536.7 L155.0,533.7 L156.9,530.7 L158.8,527.7 L160.7,524.6 L162.6,521.6 L164.5,518.4
		L166.4,515.3 L168.3,512.1 L170.2,509.0 L172.1,505.8 L174.0,502.5 L175.9,499.3 L177.8,496.1 L179.7,492.8
		L181.6,489.5 L183.5,486.2 L185.4,482.9 L187.3,479.6 L189.3,476.3 L191.2,473.0 L193.1,469.6 L195.0,466.3
		L196.9,462.9 L198.8,459.5 L200.7,456.1 L202.6,452.7 L204.5,449.2 L206.4,445.7 L208.3,442.2 L210.2,438.6
		L212.1,435.0 L214.0,431.4 L215.9,427.8 L217.8,424.1 L219.7,420.4 L221.6,416.6 L223.5,412.9 L225.4,409.1
		L227.3,405.3 L229.2,401.5 L231.1,397.7 L233.0,393.9 L234.9,390.1 L236.8,386.3 L238.8,382.4 L240.7,378.6
		L242.6,374.8 L244.5,371.1 L246.4,367.3 L248.3,363.5 L250.2,359.8 L252.1,356.0 L254.0,352.3 L255.9,348.6
		L257.8,344.8 L259.7,341.1 L261.6,337.4 L263.5,333.7 L265.4,330.1 L267.3,326.4 L269.2,322.7 L271.1,319.1
		L273.0,315.4 L274.9,311.8 L276.8,308.1 L278.7,304.5 L280.6,300.8 L282.5,297.2 L284.4,293.5 L286.3,289.9
		L288.2,286.2 L290.2,282.6 L292.1,278.9 L294.0,275.2 L295.9,271.5 L297.8,267.8 L299.7,264.1 L301.6,260.4
		L303.5,256.7 L305.4,253.0 L307.3,249.3 L309.2,245.7 L311.1,242.1 L313.0,238.5 L314.9,234.9 L316.8,231.5
		L318.7,228.0 L320.6,224.7 L322.5,221.4 L324.4,218.3 L326.3,215.2 L328.2,212.2 L330.1,209.2 L332.0,206.4
		L333.9,203.7 L335.8,201.0 L337.7,198.4 L339.7,195.9 L341.6,193.4 L343.5,191.0 L345.4,188.7 L347.3,186.4
		L349.2,184.1 L351.1,181.9 L353.0,179.7 L354.9,177.5 L356.8,175.4 L358.7,173.4 L360.6,171.3 L362.5,169.3
		L364.4,167.4 L366.3,165.5 L368.2,163.6 L370.1,161.8 L372.0,160.1 L373.9,158.4 L375.8,156.7 L377.7,155.1
		L379.6,153.6 L381.5,152.1 L383.4,150.6 L385.3,149.1 L387.2,147.7 L389.2,146.3 L391.1,145.0 L393.0,143.6
		L394.9,142.3 L396.8,140.9 L398.7,139.6 L400.6,138.3 L402.5,137.0 L404.4,135.7 L406.3,134.4 L408.2,133.1
		L410.1,131.8 L412.0,130.6 L413.9,129.4 L415.8,128.2 L417.7,127.0 L419.6,125.9 L421.5,124.9 L423.4,123.9
		L425.3,123.0 L427.2,122.1 L429.1,121.3 L431.0,120.6 L432.9,120.0 L434.8,119.4 L436.7,119.0 L438.7,118.6
		L440.6,118.3 L442.5,118.0 L444.4,117.9 L446.3,117.8 L448.2,117.8 L450.1,117.8 L452.0,118.0 L453.9,118.2
		L455.8,118.4 L457.7,118.7 L459.6,119.1 L461.5,119.5 L463.4,120.0 L465.3,120.5 L467.2,121.1 L469.1,121.7
		L471.0,122.3 L472.9,123.0 L474.8,123.7 L476.7,124.4 L478.6,125.2 L480.5,125.9 L482.4,126.7 L484.3,127.6
		L486.2,128.4 L488.1,129.2 L490.1,130.1 L492.0,131.0 L493.9,131.9 L495.8,132.8 L497.7,133.8 L499.6,134.8
		L501.5,135.8 L503.4,136.9 L505.3,138.1 L507.2,139.3 L509.1,140.5 L511.0,141.9 L512.9,143.3 L514.8,144.8
		L516.7,146.3 L518.6,148.0 L520.5,149.7 L522.4,151.4 L524.3,153.3 L526.2,155.1 L528.1,157.0 L530.0,159.0
		L531.9,160.9 L533.8,162.9 L535.7,164.9 L537.6,166.8 L539.6,168.8 L541.5,170.7 L543.4,172.6 L545.3,174.5
		L547.2,176.4 L549.1,178.2 L551.0,180.1 L552.9,181.9 L554.8,183.6 L556.7,185.4 L558.6,187.2 L560.5,188.9
		L562.4,190.7 L564.3,192.5 L566.2,194.3 L568.1,196.1 L570.0,198.0 L571.9,199.9 L573.8,201.8 L575.7,203.7
		L577.6,205.7 L579.5,207.8 L581.4,209.8 L583.3,212.0 L585.2,214.1 L587.1,216.3 L589.1,218.5 L591.0,220.8
		L592.9,223.1 L594.8,225.5 L596.7,227.9 L598.6,230.3 L600.5,232.8 L602.4,235.3 L604.3,237.8 L606.2,240.3
		L608.1,242.9 L610.0,245.5 L611.9,248.1 L613.8,250.8 L615.7,253.5 L617.6,256.2 L619.5,258.9 L621.4,261.6
		L623.3,264.4 L625.2,267.2 L627.1,270.0 L629.0,272.8 L630.9,275.6 L632.8,278.4 L634.7,281.2 L636.6,284.1
		L638.5,286.9 L640.5,289.8 L642.4,292.6 L644.3,295.4 L646.2,298.3 L648.1,301.1 L650.0,303.9 L651.9,306.7
		L653.8,309.5 L655.7,312.3 L657.6,315.1 L659.5,317.8 L661.4,320.6 L663.3,323.4 L665.2,326.2 L667.1,329.0
		L669.0,331.8 L670.9,334.6 L672.8,337.5 L674.7,340.3 L676.6,343.2 L678.5,346.1 L680.4,349.1 L682.3,352.0
		L684.2,355.0 L686.1,358.0 L688.0,361.1 L690.0,364.1 L691.9,367.2 L693.8,370.3 L695.7,373.3 L697.6,376.4
		L699.5,379.5 L701.4,382.6 L703.3,385.7 L705.2,388.8 L707.1,391.8 L709.0,394.9 L710.9,397.9 L712.8,400.9
		L714.7,403.9 L716.6,406.8 L718.5,409.7 L720.4,412.6 L722.3,415.5 L724.2,418.3 L726.1,421.0 L728.0,423.8
		L729.9,426.4 L731.8,429.1 L733.7,431.7 L735.6,434.2 L737.5,436.7 L739.5,439.1 L741.4,441.5 L743.3,443.8
		L745.2,446.1 L747.1,448.3 L749.0,450.4 L750.9,452.6 L752.8,454.6 L754.7,456.6 L756.6,458.6 L758.5,460.6
		L760.4,462.5 L762.3,464.3 L764.2,466.2 L766.1,468.0 L768.0,469.8 L769.9,471.5 L771.8,473.3 L773.7,475.0
		L775.6,476.8 L777.5,478.5 L779.4,480.2 L781.3,482.0 L783.2,483.7 L785.1,485.4 L787.0,487.1 L789.0,488.9
		L790.9,490.6 L792.8,492.4 L794.7,494.1 L796.6,495.9 L798.5,497.7 L800.4,499.5 L802.3,501.3 L804.2,503.2
		L806.1,505.0 L808.0,506.9 L809.9,508.8 L811.8,510.7 L813.7,512.6 L815.6,514.6 L817.5,516.6 L819.4,518.5
		L821.3,520.5 L823.2,522.5 L825.1,524.4 L827.0,526.4 L828.9,528.3 L830.8,530.3 L832.7,532.2 L834.6,534.1
		L836.5,535.9 L838.4,537.7 L840.4,539.5 L842.3,541.2 L844.2,542.9 L846.1,544.5 L848.0,546.2 L849.9,547.7
		L851.8,549.2 L853.7,550.7 L855.6,552.2 L857.5,553.6 L859.4,555.0 L861.3,556.4 L863.2,557.8 L865.1,559.1
		L867.0,560.4 L868.9,561.7 L870.8,563.0 L872.7,564.2 L874.6,565.5 L876.5,566.7 L878.4,567.9 L880.3,569.1
		L882.2,570.3 L884.1,571.5 L886.0,572.6 L887.9,573.8 L889.9,574.9 L891.8,576.0 L893.7,577.1 L895.6,578.2
		L897.5,579.3 L899.4,580.4 L901.3,581.5 L903.2,582.6 L905.1,583.7 L907.0,584.8 L908.9,585.9 L910.8,587.0
		L912.7,588.1 L914.6,589.2 L916.5,590.4 L918.4,591.5 L920.3,592.7 L922.2,593.9 L924.1,595.1 L926.0,596.3
		L927.9,597.5 L929.8,598.7 L931.7,599.9 L933.6,601.1 L935.5,602.3 L937.4,603.5 L939.4,604.6 L941.3,605.8
		L943.2,606.9 L945.1,608.1 L947.0,609.1 L948.9,610.2 L950.8,611.2 L952.7,612.2 L954.6,613.2 L956.5,614.1
		L958.4,615.0 L960.3,615.9 L962.2,616.8 L964.1,617.6 L966.0,618.4 L967.9,619.1 L969.8,619.8 L971.7,620.5
		L973.6,621.2 L975.5,621.9 L977.4,622.5 L979.3,623.1 L981.2,623.7 L983.1,624.3 L985.0,624.9 L986.9,625.4
		L988.9,626.0 L990.8,626.5 L992.7,627.1 L994.6,627.6 L996.5,628.1 L998.4,628.6 L1000.3,629.1 L1002.2,629.6
		L1004.1,630.1 L1006.0,630.6 L1007.9,631.0 L1009.8,631.5 L1011.7,632.0 L1013.6,632.5  '/></g>
	</g>
	<g id="gnuplot_plot_2" ><title>Confidence interval</title>
<g fill="none" color="white" stroke="rgb( 31, 120, 180)" stroke-width="1.00" stroke-linecap="butt" stroke-linejoin="miter">
</g>
<g fill="none" color="black" stroke="currentColor" stroke-width="1.00" stroke-linecap="butt" stroke-linejoin="miter">
	<g transform="translate(1089.0,85.0)" stroke="none" fill="black" font-family="Helvetica" font-size="12.00"  text-anchor="start">
		<text><tspan font-family="Helvetica" >Confidence interval</tspan></text>
	</g>
</g>
<g fill="none" color="black" stroke="currentColor" stroke-width="1.00" stroke-linecap="butt" stroke-linejoin="miter">
	<g stroke='none' shape-rendering='crispEdges'>
		<polygon fill = 'rgb( 31, 120, 180)' fill-opacity = '0.250000' points = '1038.5,85.6 1080.7,85.6 1080.7,76.6 1038.5,76.6 '/>
		<polygon fill = 'rgb( 31, 120, 180)' fill-opacity = '0.250000' points = '151.2,539.6 151.2,662.4 153.1,662.4 153.1,536.7 '/>
		<polygon fill = 'rgb( 31, 120, 180)' fill-opacity = '0.250000' points = '153.1,536.7 153.1,662.4 155.0,662.4 155.0,533.7 '/>
		<polygon fill = 'rgb( 31, 120, 180)' fill-opacity = '0.250000' points = '155.0,533.7 155.0,662.4 156.9,662.4 156.9,530.7 '/>
		<polygon fill = 'rgb( 31, 120, 180)' fill-opacity = '0.250000' points = '156.9,530.7 156.9,662.4 158.8,662.4 158.8,527.7 '/>
		<polygon fill = 'rgb( 31, 120, 180)' fill-opacity = '0.250000' points = '158.8,527.7 158.8,662.4 160.7,662.4 160.7,524.6 '/>
		<polygon fill = 'rgb( 31, 120, 180)' fill-opacity = '0.250000' points = '160.7,524.6 160.7,662.4 162.6,662.4 162.6,521.6 '/>
		<polygon fill = 'rgb( 31, 120, 180)' fill-opacity = '0.250000' points = '162.6,521.6 162.6,662.4 164.5,662.4 164.5,518.4 '/>
		<polygon fill = 'rgb( 31, 120, 180)' fill-opacity = '0.250000' points = '164.5,518.4 164.5,662.4 166.4,662.4 166.4,515.3 '/>
		<polygon fill = 'rgb( 31, 120, 180)' fill-opacity = '0.250000' points = '166.4,515.3 166.4,662.4 168.3,662.4 168.3,512.1 '/>
		<polygon fill = 'rgb( 31, 120, 180)' fill-opacity = '0.250000' points = '168.3,512.1 168.3,662.4 170.2,662.4 170.2,509.0 '/>
		<polygon fill = 'rgb( 31, 120, 180)' fill-opacity = '0.250000' points = '170.2,509.0 170.2,662.4 172.1,662.4 172.1,505.8 '/>
		<polygon fill = 'rgb( 31, 120, 180)' fill-opacity = '0.250000' points = '172.1,505.8 172.1,662.4 174.0,662.4 174.0,502.5 '/>
		<polygon fill = 'rgb( 31, 120, 180)' fill-opacity = '0.250000' points = '174.0,502.5 174.0,662.4 175.9,662.4 175.9,499.3 '/>
		<polygon fill = 'rgb( 31, 120, 180)' fill-opacity = '0.250000' points = '175.9,499.3 175.9,662.4 177.8,662.4 177.8,496.1 '/>
		<polygon fill = 'rgb( 31, 120, 180)' fill-opacity = '0.250000' points = '177.8,496.1 177.8,662.4 179.7,662.4 179.7,492.8 '/>
		<polygon fill = 'rgb( 31, 120, 180)' fill-opacity = '0.250000' points = '179.7,492.8 179.7,662.4 181.6,662.4 181.6,489.5 '/>
		<polygon fill = 'rgb( 31, 120, 180)' fill-opacity = '0.250000' points = '181.6,489.5 181.6,662.4 183.5,662.4 183.5,486.2 '/>
		<polygon fill = 'rgb( 31, 120, 180)' fill-opacity = '0.250000' points = '183.5,486.2 183.5,662.4 185.4,662.4 185.4,482.9 '/>
		<polygon fill = 'rgb( 31, 120, 180)' fill-opacity = '0.250000' points = '185.4,482.9 185.4,662.4 187.3,662.4 187.3,479.6 '/>
		<polygon fill = 'rgb( 31, 120, 180)' fill-opacity = '0.250000' points = '187.3,479.6 187.3,662.4 189.3,662.4 189.3,476.3 '/>
		<polygon fill = 'rgb( 31, 120, 180)' fill-opacity = '0.250000' points = '189.3,476.3 189.3,662.4 191.2,662.4 191.2,473.0 '/>
		<polygon fill = 'rgb( 31, 120, 180)' fill-opacity = '0.250000' points = '191.2,473.0 191.2,662.4 193.1,662.4 193.1,469.6 '/>
		<polygon fill = 'rgb( 31, 120, 180)' fill-opacity = '0.250000' points = '193.1,469.6 193.1,662.4 195.0,662.4 195.0,466.3 '/>
		<polygon fill = 'rgb( 31, 120, 180)' fill-opacity = '0.250000' points = '195.0,466.3 195.0,662.4 196.9,662.4 196.9,462.9 '/>
		<polygon fill = 'rgb( 31, 120, 180)' fill-opacity = '0.250000' points = '196.9,462.9 196.9,662.4 198.8,662.4 198.8,459.5 '/>
		<polygon fill = 'rgb( 31, 120, 180)' fill-opacity = '0.250000' points = '198.8,459.5 198.8,662.4 200.7,662.4 200.7,456.1 '/>
		<polygon fill = 'rgb( 31, 120, 180)' fill-opacity = '0.250000' points = '200.7,456.1 200.7,662.4 202.6,662.4 202.6,452.7 '/>
		<polygon fill = 'rgb( 31, 120, 180)' fill-opacity = '0.250000' points = '202.6,452.7 202.6,662.4 204.5,662.4 204.5,449.2 '/>
		<polygon fill = 'rgb( 31, 120, 180)' fill-opacity = '0.250000' points = '204.5,449.2 204.5,662.4 206.4,662.4 206.4,445.7 '/>
		<polygon fill = 'rgb( 31, 120, 180)' fill-opacity = '0.250000' points = '206.4,445.7 206.4,662.4 208.3,662.4 208.3,442.2 '/>
		<polygon fill = 'rgb( 31, 120, 180)' fill-opacity = '0.250000' points = '208.3,442.2 208.3,662.4 210.2,662.4 210.2,438.6 '/>
		<polygon fill = 'rgb( 31, 120, 180)' fill-opacity = '0.250000' points = '210.2,438.6 210.2,662.4 212.1,662.4 212.1,435.0 '/>
		<polygon fill = 'rgb( 31, 120, 180)' fill-opacity = '0.250000' points = '212.1,435.0 212.1,662.4 214.0,662.4 214.0,431.4 '/>
		<polygon fill = 'rgb( 31, 120, 180)' fill-opacity = '0.250000' points = '214.0,431.4 214.0,662.4 215.9,662.4 215.9,427.8 '/>
		<polygon fill = 'rgb( 31, 120, 180)' fill-opacity = '0.250000' points = '215.9,427.8 215.9,662.4 217.8,662.4 217.8,424.1 '/>
		<polygon fill = 'rgb( 31, 120, 180)' fill-opacity = '0.250000' points = '217.8,424.1 217.8,662.4 219.7,662.4 219.7,420.4 '/>
		<polygon fill = 'rgb( 31, 120, 180)' fill-opacity = '0.250000' points = '219.7,420.4 219.7,662.4 221.6,662.4 221.6,416.6 '/>
		<polygon fill = 'rgb( 31, 120, 180)' fill-opacity = '0.250000' points = '221.6,416.6 221.6,662.4 223.5,662.4 223.5,412.9 '/>
		<polygon fill = 'rgb( 31, 120, 180)' fill-opacity = '0.250000' points = '223.5,412.9 223.5,662.4 225.4,662.4 225.4,409.1 '/>
		<polygon fill = 'rgb( 31, 120, 180)' fill-opacity = '0.250000' points = '225.4,409.1 225.4,662.4 227.3,662.4 227.3,405.3 '/>
		<polygon fill = 'rgb( 31, 120, 180)' fill-opacity = '0.250000' points = '227.3,405.3 227.3,662.4 229.2,662.4 229.2,401.5 '/>
		<polygon fill = 'rgb( 31, 120, 180)' fill-opacity = '0.250000' points = '229.2,401.5 229.2,662.4 231.1,662.4 231.1,397.7 '/>
		<polygon fill = 'rgb( 31, 120, 180)' fill-opacity = '0.250000' points = '231.1,397.7 231.1,662.4 233.0,662.4 233.0,393.9 '/>
		<polygon fill = 'rgb( 31, 120, 180)' fill-opacity = '0.250000' points = '233.0,393.9 233.0,662.4 234.9,662.4 234.9,390.1 '/>
		<polygon fill = 'rgb( 31, 120, 180)' fill-opacity = '0.250000' points = '234.9,390.1 234.9,662.4 236.8,662.4 236.8,386.3 '/>
		<polygon fill = 'rgb( 31, 120, 180)' fill-opacity = '0.250000' points = '236.8,386.3 236.8,662.4 238.8,662.4 238.8,382.4 '/>
		<polygon fill = 'rgb( 31, 120, 180)' fill-opacity = '0.250000' points = '238.8,382.4 238.8,662.4 240.7,662.4 240.7,378.6 '/>
		<polygon fill = 'rgb( 31, 120, 180)' fill-opacity = '0.250000' points = '240.7,378.6 240.7,662.4 242.6,662.4 242.6,374.8 '/>
		<polygon fill = 'rgb( 31, 120, 180)' fill-opacity = '0.250000' points = '242.6,374.8 242.6,662.4 244.5,662.4 244.5,371.1 '/>
		<polygon fill = 'rgb( 31, 120, 180)' fill-opacity = '0.250000' points = '244.5,371.1 244.5,662.4 246.4,662.4 246.4,367.3 '/>
		<polygon fill = 'rgb( 31, 120, 180)' fill-opacity = '0.250000' points = '246.4,367.3 246.4,662.4 248.3,662.4 248.3,363.5 '/>
		<polygon fill = 'rgb( 31, 120, 180)' fill-opacity = '0.250000' points = '248.3,363.5 248.3,662.4 250.2,662.4 250.2,359.8 '/>
		<polygon fill = 'rgb( 31, 120, 180)' fill-opacity = '0.250000' points = '250.2,359.8 250.2,662.4 252.1,662.4 252.1,356.0 '/>
		<polygon fill = 'rgb( 31, 120, 180)' fill-opacity = '0.250000' points = '252.1,356.0 252.1,662.4 254.0,662.4 254.0,352.3 '/>
		<polygon fill = 'rgb( 31, 120, 180)' fill-opacity = '0.250000' points = '254.0,352.3 254.0,662.4 255.9,662.4 255.9,348.6 '/>
		<polygon fill = 'rgb( 31, 120, 180)' fill-opacity = '0.250000' points = '255.9,348.6 255.9,662.4 257.8,662.4 257.8,344.8 '/>
		<polygon fill = 'rgb( 31, 120, 180)' fill-opacity = '0.250000' points = '257.8,344.8 257.8,662.4 259.7,662.4 259.7,341.1 '/>
		<polygon fill = 'rgb( 31, 120, 180)' fill-opacity = '0.250000' points = '259.7,341.1 259.7,662.4 261.6,662.4 261.6,337.4 '/>
		<polygon fill = 'rgb( 31, 120, 180)' fill-opacity = '0.250000' points = '261.6,337.4 261.6,662.4 263.5,662.4 263.5,333.7 '/>
		<polygon fill = 'rgb( 31, 120, 180)' fill-opacity = '0.250000' points = '263.5,333.7 263.5,662.4 265.4,662.4 265.4,330.1 '/>
		<polygon fill = 'rgb( 31, 120, 180)' fill-opacity = '0.250000' points = '265.4,330.1 265.4,662.4 267.3,662.4 267.3,326.4 '/>
		<polygon fill = 'rgb( 31, 120, 180)' fill-opacity = '0.250000' points = '267.3,326.4 267.3,662.4 269.2,662.4 269.2,322.7 '/>
		<polygon fill = 'rgb( 31, 120, 180)' fill-opacity = '0.250000' points = '269.2,322.7 269.2,662.4 271.1,662.4 271.1,319.1 '/>
		<polygon fill = 'rgb( 31, 120, 180)' fill-opacity = '0.250000' points = '271.1,319.1 271.1,662.4 273.0,662.4 273.0,315.4 '/>
		<polygon fill = 'rgb( 31, 120, 180)' fill-opacity = '0.250000' points = '273.0,315.4 273.0,662.4 274.9,662.4 274.9,311.8 '/>
		<polygon fill = 'rgb( 31, 120, 180)' fill-opacity = '0.250000' points = '274.9,311.8 274.9,662.4 276.8,662.4 276.8,308.1 '/>
		<polygon fill = 'rgb( 31, 120, 180)' fill-opacity = '0.250000' points = '276.8,308.1 276.8,662.4 278.7,662.4 278.7,304.5 '/>
		<polygon fill = 'rgb( 31, 120, 180)' fill-opacity = '0.250000' points = '278.7,304.5 278.7,662.4 280.6,662.4 280.6,300.8 '/>
		<polygon fill = 'rgb( 31, 120, 180)' fill-opacity = '0.250000' points = '280.6,300.8 280.6,662.4 282.5,662.4 282.5,297.2 '/>
		<polygon fill = 'rgb( 31, 120, 180)' fill-opacity = '0.250000' points = '282.5,297.2 282.5,662.4 284.4,662.4 284.4,293.5 '/>
		<polygon fill = 'rgb( 31, 120, 180)' fill-opacity = '0.250000' points = '284.4,293.5 284.4,662.4 286.3,662.4 286.3,289.9 '/>
		<polygon fill = 'rgb( 31, 120, 180)' fill-opacity = '0.250000' points = '286.3,289.9 286.3,662.4 288.2,662.4 288.2,286.2 '/>
		<polygon fill = 'rgb( 31, 120, 180)' fill-opacity = '0.250000' points = '288.2,286.2 288.2,662.4 290.2,662.4 290.2,282.6 '/>
		<polygon fill = 'rgb( 31, 120, 180)' fill-opacity = '0.250000' points = '290.2,282.6 290.2,662.4 292.1,662.4 292.1,278.9 '/>
		<polygon fill = 'rgb( 31, 120, 180)' fill-opacity = '0.250000' points = '292.1,278.9 292.1,662.4 294.0,662.4 294.0,275.2 '/>
		<polygon fill = 'rgb( 31, 120, 180)' fill-opacity = '0.250000' points = '294.0,275.2 294.0,662.4 295.9,662.4 295.9,271.5 '/>
		<polygon fill = 'rgb( 31, 120, 180)' fill-opacity = '0.250000' points = '295.9,271.5 295.9,662.4 297.8,662.4 297.8,267.8 '/>
		<polygon fill = 'rgb( 31, 120, 180)' fill-opacity = '0.250000' points = '297.8,267.8 297.8,662.4 299.7,662.4 299.7,264.1 '/>
		<polygon fill = 'rgb( 31, 120, 180)' fill-opacity = '0.250000' points = '299.7,264.1 299.7,662.4 301.6,662.4 301.6,260.4 '/>
		<polygon fill = 'rgb( 31, 120, 180)' fill-opacity = '0.250000' points = '301.6,260.4 301.6,662.4 303.5,662.4 303.5,256.7 '/>
		<polygon fill = 'rgb( 31, 120, 180)' fill-opacity = '0.250000' points = '303.5,256.7 303.5,662.4 305.4,662.4 305.4,253.0 '/>
		<polygon fill = 'rgb( 31, 120, 180)' fill-opacity = '0.250000' points = '305.4,253.0 305.4,662.4 307.3,662.4 307.3,249.3 '/>
		<polygon fill = 'rgb( 31, 120, 180)' fill-opacity = '0.250000' points = '307.3,249.3 307.3,662.4 309.2,662.4 309.2,245.7 '/>
		<polygon fill = 'rgb( 31, 120, 180)' fill-opacity = '0.250000' points = '309.2,245.7 309.2,662.4 311.1,662.4 311.1,242.1 '/>
		<polygon fill = 'rgb( 31, 120, 180)' fill-opacity = '0.250000' points = '311.1,242.1 311.1,662.4 313.0,662.4 313.0,238.5 '/>
		<polygon fill = 'rgb( 31, 120, 180)' fill-opacity = '0.250000' points = '313.0,238.5 313.0,662.4 314.9,662.4 314.9,234.9 '/>
		<polygon fill = 'rgb( 31, 120, 180)' fill-opacity = '0.250000' points = '314.9,234.9 314.9,662.4 316.8,662.4 316.8,231.5 '/>
		<polygon fill = 'rgb( 31, 120, 180)' fill-opacity = '0.250000' points = '316.8,231.5 316.8,662.4 318.7,662.4 318.7,228.0 '/>
		<polygon fill = 'rgb( 31, 120, 180)' fill-opacity = '0.250000' points = '318.7,228.0 318.7,662.4 320.6,662.4 320.6,224.7 '/>
		<polygon fill = 'rgb( 31, 120, 180)' fill-opacity = '0.250000' points = '320.6,224.7 320.6,662.4 322.5,662.4 322.5,221.4 '/>
		<polygon fill = 'rgb( 31, 120, 180)' fill-opacity = '0.250000' points = '322.5,221.4 322.5,662.4 324.4,662.4 324.4,218.3 '/>
		<polygon fill = 'rgb( 31, 120, 180)' fill-opacity = '0.250000' points = '324.4,218.3 324.4,662.4 326.3,662.4 326.3,215.2 '/>
		<polygon fill = 'rgb( 31, 120, 180)' fill-opacity = '0.250000' points = '326.3,215.2 326.3,662.4 328.2,662.4 328.2,212.2 '/>
		<polygon fill = 'rgb( 31, 120, 180)' fill-opacity = '0.250000' points = '328.2,212.2 328.2,662.4 330.1,662.4 330.1,209.2 '/>
		<polygon fill = 'rgb( 31, 120, 180)' fill-opacity = '0.250000' points = '330.1,209.2 330.1,662.4 332.0,662.4 332.0,206.4 '/>
		<polygon fill = 'rgb( 31, 120, 180)' fill-opacity = '0.250000' points = '332.0,206.4 332.0,662.4 333.9,662.4 333.9,203.7 '/>
		<polygon fill = 'rgb( 31, 120, 180)' fill-opacity = '0.250000' points = '333.9,203.7 333.9,662.4 335.8,662.4 335.8,201.0 '/>
		<polygon fill = 'rgb( 31, 120, 180)' fill-opacity = '0.250000' points = '335.8,201.0 335.8,662.4 337.7,662.4 337.7,198.4 '/>
		<polygon fill = 'rgb( 31, 120, 180)' fill-opacity = '0.250000' points = '337.7,198.4 337.7,662.4 339.7,662.4 339.7,195.9 '/>
		<polygon fill = 'rgb( 31, 120, 180)' fill-opacity = '0.250000' points = '339.7,195.9 339.7,662.4 341.6,662.4 341.6,193.4 '/>
		<polygon fill = 'rgb( 31, 120, 180)' fill-opacity = '0.250000' points = '341.6,193.4 341.6,662.4 343.5,662.4 343.5,191.0 '/>
		<polygon fill = 'rgb( 31, 120, 180)' fill-opacity = '0.250000' points = '343.5,191.0 343.5,662.4 345.4,662.4 345.4,188.7 '/>
		<polygon fill = 'rgb( 31, 120, 180)' fill-opacity = '0.250000' points = '345.4,188.7 345.4,662.4 347.3,662.4 347.3,186.4 '/>
		<polygon fill = 'rgb( 31, 120, 180)' fill-opacity = '0.250000' points = '347.3,186.4 347.3,662.4 349.2,662.4 349.2,184.1 '/>
		<polygon fill = 'rgb( 31, 120, 180)' fill-opacity = '0.250000' points = '349.2,184.1 349.2,662.4 351.1,662.4 351.1,181.9 '/>
		<polygon fill = 'rgb( 31, 120, 180)' fill-opacity = '0.250000' points = '351.1,181.9 351.1,662.4 353.0,662.4 353.0,179.7 '/>
		<polygon fill = 'rgb( 31, 120, 180)' fill-opacity = '0.250000' points = '353.0,179.7 353.0,662.4 354.9,662.4 354.9,177.5 '/>
		<polygon fill = 'rgb( 31, 120, 180)' fill-opacity = '0.250000' points = '354.9,177.5 354.9,662.4 356.8,662.4 356.8,175.4 '/>
		<polygon fill = 'rgb( 31, 120, 180)' fill-opacity = '0.250000' points = '356.8,175.4 356.8,662.4 358.7,662.4 358.7,173.4 '/>
		<polygon fill = 'rgb( 31, 120, 180)' fill-opacity = '0.250000' points = '358.7,173.4 358.7,662.4 360.6,662.4 360.6,171.3 '/>
		<polygon fill = 'rgb( 31, 120, 180)' fill-opacity = '0.250000' points = '360.6,171.3 360.6,662.4 362.5,662.4 362.5,169.3 '/>
		<polygon fill = 'rgb( 31, 120, 180)' fill-opacity = '0.250000' points = '362.5,169.3 362.5,662.4 364.4,662.4 364.4,167.4 '/>
		<polygon fill = 'rgb( 31, 120, 180)' fill-opacity = '0.250000' points = '364.4,167.4 364.4,662.4 366.3,662.4 366.3,165.5 '/>
		<polygon fill = 'rgb( 31, 120, 180)' fill-opacity = '0.250000' points = '366.3,165.5 366.3,662.4 368.2,662.4 368.2,163.6 '/>
		<polygon fill = 'rgb( 31, 120, 180)' fill-opacity = '0.250000' points = '368.2,163.6 368.2,662.4 370.1,662.4 370.1,161.8 '/>
		<polygon fill = 'rgb( 31, 120, 180)' fill-opacity = '0.250000' points = '370.1,161.8 370.1,662.4 372.0,662.4 372.0,160.1 '/>
		<polygon fill = 'rgb( 31, 120, 180)' fill-opacity = '0.250000' points = '372.0,160.1 372.0,662.4 373.9,662.4 373.9,158.4 '/>
		<polygon fill = 'rgb( 31, 120, 180)' fill-opacity = '0.250000' points = '373.9,158.4 373.9,662.4 375.8,662.4 375.8,156.7 '/>
		<polygon fill = 'rgb( 31, 120, 180)' fill-opacity = '0.250000' points = '375.8,156.7 375.8,662.4 377.7,662.4 377.7,155.1 '/>
		<polygon fill = 'rgb( 31, 120, 180)' fill-opacity = '0.250000' points = '377.7,155.1 377.7,662.4 379.6,662.4 379.6,153.6 '/>
		<polygon fill = 'rgb( 31, 120, 180)' fill-opacity = '0.250000' points = '379.6,153.6 379.6,662.4 381.5,662.4 381.5,152.1 '/>
		<polygon fill = 'rgb( 31, 120, 180)' fill-opacity = '0.250000' points = '381.5,152.1 381.5,662.4 383.4,662.4 383.4,150.6 '/>
		<polygon fill = 'rgb( 31, 120, 180)' fill-opacity = '0.250000' points = '383.4,150.6 383.4,662.4 385.3,662.4 385.3,149.1 '/>
		<polygon fill = 'rgb( 31, 120, 180)' fill-opacity = '0.250000' points = '385.3,149.1 385.3,662.4 387.2,662.4 387.2,147.7 '/>
		<polygon fill = 'rgb( 31, 120, 180)' fill-opacity = '0.250000' points = '387.2,147.7 387.2,662.4 389.2,662.4 389.2,146.3 '/>
		<polygon fill = 'rgb( 31, 120, 180)' fill-opacity = '0.250000' points = '389.2,146.3 389.2,662.4 391.1,662.4 391.1,145.0 '/>
		<polygon fill = 'rgb( 31, 120, 180)' fill-opacity = '0.250000' points = '391.1,145.0 391.1,662.4 393.0,662.4 393.0,143.6 '/>
		<polygon fill = 'rgb( 31, 120, 180)' fill-opacity = '0.250000' points = '393.0,143.6 393.0,662.4 394.9,662.4 394.9,142.3 '/>
		<polygon fill = 'rgb( 31, 120, 180)' fill-opacity = '0.250000' points = '394.9,142.3 394.9,662.4 396.8,662.4 396.8,140.9 '/>
		<polygon fill = 'rgb( 31, 120, 180)' fill-opacity = '0.250000' points = '396.8,140.9 396.8,662.4 398.7,662.4 398.7,139.6 '/>
		<polygon fill = 'rgb( 31, 120, 180)' fill-opacity = '0.250000' points = '398.7,139.6 398.7,662.4 400.6,662.4 400.6,138.3 '/>
		<polygon fill = 'rgb( 31, 120, 180)' fill-opacity = '0.250000' points = '400.6,138.3 400.6,662.4 402.5,662.4 402.5,137.0 '/>
		<polygon fill = 'rgb( 31, 120, 180)' fill-opacity = '0.250000' points = '402.5,137.0 402.5,662.4 404.4,662.4 404.4,135.7 '/>
		<polygon fill = 'rgb( 31, 120, 180)' fill-opacity = '0.250000' points = '404.4,135.7 404.4,662.4 406.3,662.4 406.3,134.4 '/>
		<polygon fill = 'rgb( 31, 120, 180)' fill-opacity = '0.250000' points = '406.3,134.4 406.3,662.4 408.2,662.4 408.2,133.1 '/>
		<polygon fill = 'rgb( 31, 120, 180)' fill-opacity = '0.250000' points = '408.2,133.1 408.2,662.4 410.1,662.4 410.1,131.8 '/>
		<polygon fill = 'rgb( 31, 120, 180)' fill-opacity = '0.250000' points = '410.1,131.8 410.1,662.4 412.0,662.4 412.0,130.6 '/>
		<polygon fill = 'rgb( 31, 120, 180)' fill-opacity = '0.250000' points = '412.0,130.6 412.0,662.4 413.9,662.4 413.9,129.4 '/>
		<polygon fill = 'rgb( 31, 120, 180)' fill-opacity = '0.250000' points = '413.9,129.4 413.9,662.4 415.8,662.4 415.8,128.2 '/>
		<polygon fill = 'rgb( 31, 120, 180)' fill-opacity = '0.250000' points = '415.8,128.2 415.8,662.4 417.7,662.4 417.7,127.0 '/>
		<polygon fill = 'rgb( 31, 120, 180)' fill-opacity = '0.250000' points = '417.7,127.0 417.7,662.4 419.6,662.4 419.6,125.9 '/>
		<polygon fill = 'rgb( 31, 120, 180)' fill-opacity = '0.250000' points = '419.6,125.9 419.6,662.4 421.5,662.4 421.5,124.9 '/>
		<polygon fill = 'rgb( 31, 120, 180)' fill-opacity = '0.250000' points = '421.5,124.9 421.5,662.4 423.4,662.4 423.4,123.9 '/>
		<polygon fill = 'rgb( 31, 120, 180)' fill-opacity = '0.250000' points = '423.4,123.9 423.4,662.4 425.3,662.4 425.3,123.0 '/>
		<polygon fill = 'rgb( 31, 120, 180)' fill-opacity = '0.250000' points = '425.3,123.0 425.3,662.4 427.2,662.4 427.2,122.1 '/>
		<polygon fill = 'rgb( 31, 120, 180)' fill-opacity = '0.250000' points = '427.2,122.1 427.2,662.4 429.1,662.4 429.1,121.3 '/>
		<polygon fill = 'rgb( 31, 120, 180)' fill-opacity = '0.250000' points = '429.1,121.3 429.1,662.4 431.0,662.4 431.0,120.6 '/>
		<polygon fill = 'rgb( 31, 120, 180)' fill-opacity = '0.250000' points = '431.0,120.6 431.0,662.4 432.9,662.4 432.9,120.0 '/>
		<polygon fill = 'rgb( 31, 120, 180)' fill-opacity = '0.250000' points = '432.9,120.0 432.9,662.4 434.8,662.4 434.8,119.4 '/>
		<polygon fill = 'rgb( 31, 120, 180)' fill-opacity = '0.250000' points = '434.8,119.4 434.8,662.4 436.7,662.4 436.7,119.0 '/>
		<polygon fill = 'rgb( 31, 120, 180)' fill-opacity = '0.250000' points = '436.7,119.0 436.7,662.4 438.7,662.4 438.7,118.6 '/>
		<polygon fill = 'rgb( 31, 120, 180)' fill-opacity = '0.250000' points = '438.7,118.6 438.7,662.4 440.6,662.4 440.6,118.3 '/>
		<polygon fill = 'rgb( 31, 120, 180)' fill-opacity = '0.250000' points = '440.6,118.3 440.6,662.4 442.5,662.4 442.5,118.0 '/>
		<polygon fill = 'rgb( 31, 120, 180)' fill-opacity = '0.250000' points = '442.5,118.0 442.5,662.4 444.4,662.4 444.4,117.9 '/>
		<polygon fill = 'rgb( 31, 120, 180)' fill-opacity = '0.250000' points = '444.4,117.9 444.4,662.4 446.3,662.4 446.3,117.8 '/>
		<polygon fill = 'rgb( 31, 120, 180)' fill-opacity = '0.250000' points = '446.3,117.8 446.3,662.4 448.2,662.4 448.2,117.8 '/>
		<polygon fill = 'rgb( 31, 120, 180)' fill-opacity = '0.250000' points = '448.2,117.8 448.2,662.4 450.1,662.4 450.1,117.8 '/>
		<polygon fill = 'rgb( 31, 120, 180)' fill-opacity = '0.250000' points = '450.1,117.8 450.1,662.4 452.0,662.4 452.0,118.0 '/>
		<polygon fill = 'rgb( 31, 120, 180)' fill-opacity = '0.250000' points = '452.0,118.0 452.0,662.4 453.9,662.4 453.9,118.2 '/>
		<polygon fill = 'rgb( 31, 120, 180)' fill-opacity = '0.250000' points = '453.9,118.2 453.9,662.4 455.8,662.4 455.8,118.4 '/>
		<polygon fill = 'rgb( 31, 120, 180)' fill-opacity = '0.250000' points = '455.8,118.4 455.8,662.4 457.7,662.4 457.7,118.7 '/>
		<polygon fill = 'rgb( 31, 120, 180)' fill-opacity = '0.250000' points = '457.7,118.7 457.7,662.4 459.6,662.4 459.6,119.1 '/>
		<polygon fill = 'rgb( 31, 120, 180)' fill-opacity = '0.250000' points = '459.6,119.1 459.6,662.4 461.5,662.4 461.5,119.5 '/>
		<polygon fill = 'rgb( 31, 120, 180)' fill-opacity = '0.250000' points = '461.5,119.5 461.5,662.4 463.4,662.4 463.4,120.0 '/>
		<polygon fill = 'rgb( 31, 120, 180)' fill-opacity = '0.250000' points = '463.4,120.0 463.4,662.4 465.3,662.4 465.3,120.5 '/>
		<polygon fill = 'rgb( 31, 120, 180)' fill-opacity = '0.250000' points = '465.3,120.5 465.3,662.4 467.2,662.4 467.2,121.1 '/>
		<polygon fill = 'rgb( 31, 120, 180)' fill-opacity = '0.250000' points = '467.2,121.1 467.2,662.4 469.1,662.4 469.1,121.7 '/>
		<polygon fill = 'rgb( 31, 120, 180)' fill-opacity = '0.250000' points = '469.1,121.7 469.1,662.4 471.0,662.4 471.0,122.3 '/>
		<polygon fill = 'rgb( 31, 120, 180)' fill-opacity = '0.250000' points = '471.0,122.3 471.0,662.4 472.9,662.4 472.9,123.0 '/>
		<polygon fill = 'rgb( 31, 120, 180)' fill-opacity = '0.250000' points = '472.9,123.0 472.9,662.4 474.8,662.4 474.8,123.7 '/>
		<polygon fill = 'rgb( 31, 120, 180)' fill-opacity = '0.250000' points = '474.8,123.7 474.8,662.4 476.7,662.4 476.7,124.4 '/>
		<polygon fill = 'rgb( 31, 120, 180)' fill-opacity = '0.250000' points = '476.7,124.4 476.7,662.4 478.6,662.4 478.6,125.2 '/>
		<polygon fill = 'rgb( 31, 120, 180)' fill-opacity = '0.250000' points = '478.6,125.2 478.6,662.4 480.5,662.4 480.5,125.9 '/>
		<polygon fill = 'rgb( 31, 120, 180)' fill-opacity = '0.250000' points = '480.5,125.9 480.5,662.4 482.4,662.4 482.4,126.7 '/>
		<polygon fill = 'rgb( 31, 120, 180)' fill-opacity = '0.250000' points = '482.4,126.7 482.4,662.4 484.3,662.4 484.3,127.6 '/>
		<polygon fill = 'rgb( 31, 120, 180)' fill-opacity = '0.250000' points = '484.3,127.6 484.3,662.4 486.2,662.4 486.2,128.4 '/>
		<polygon fill = 'rgb( 31, 120, 180)' fill-opacity = '0.250000' points = '486.2,128.4 486.2,662.4 488.1,662.4 488.1,129.2 '/>
		<polygon fill = 'rgb( 31, 120, 180)' fill-opacity = '0.250000' points = '488.1,129.2 488.1,662.4 490.1,662.4 490.1,130.1 '/>
		<polygon fill = 'rgb( 31, 120, 180)' fill-opacity = '0.250000' points = '490.1,130.1 490.1,662.4 492.0,662.4 492.0,131.0 '/>
		<polygon fill = 'rgb( 31, 120, 180)' fill-opacity = '0.250000' points = '492.0,131.0 492.0,662.4 493.9,662.4 493.9,131.9 '/>
		<polygon fill = 'rgb( 31, 120, 180)' fill-opacity = '0.250000' points = '493.9,131.9 493.9,662.4 495.8,662.4 495.8,132.8 '/>
		<polygon fill = 'rgb( 31, 120, 180)' fill-opacity = '0.250000' points = '495.8,132.8 495.8,662.4 497.7,662.4 497.7,133.8 '/>
		<polygon fill = 'rgb( 31, 120, 180)' fill-opacity = '0.250000' points = '497.7,133.8 497.7,662.4 499.6,662.4 499.6,134.8 '/>
		<polygon fill = 'rgb( 31, 120, 180)' fill-opacity = '0.250000' points = '499.6,134.8 499.6,662.4 501.5,662.4 501.5,135.8 '/>
		<polygon fill = 'rgb( 31, 120, 180)' fill-opacity = '0.250000' points = '501.5,135.8 501.5,662.4 503.4,662.4 503.4,136.9 '/>
		<polygon fill = 'rgb( 31, 120, 180)' fill-opacity = '0.250000' points = '503.4,136.9 503.4,662.4 505.3,662.4 505.3,138.1 '/>
		<polygon fill = 'rgb( 31, 120, 180)' fill-opacity = '0.250000' points = '505.3,138.1 505.3,662.4 507.2,662.4 507.2,139.3 '/>
		<polygon fill = 'rgb( 31, 120, 180)' fill-opacity = '0.250000' points = '507.2,139.3 507.2,662.4 509.1,662.4 509.1,140.5 '/>
		<polygon fill = 'rgb( 31, 120, 180)' fill-opacity = '0.250000' points = '509.1,140.5 509.1,662.4 511.0,662.4 511.0,141.9 '/>
		<polygon fill = 'rgb( 31, 120, 180)' fill-opacity = '0.250000' points = '511.0,141.9 511.0,662.4 512.9,662.4 512.9,143.3 '/>
		<polygon fill = 'rgb( 31, 120, 180)' fill-opacity = '0.250000' points = '512.9,143.3 512.9,662.4 514.8,662.4 514.8,144.8 '/>
		<polygon fill = 'rgb( 31, 120, 180)' fill-opacity = '0.250000' points = '514.8,144.8 514.8,662.4 516.7,662.4 516.7,146.3 '/>
		<polygon fill = 'rgb( 31, 120, 180)' fill-opacity = '0.250000' points = '516.7,146.3 516.7,662.4 518.6,662.4 518.6,148.0 '/>
		<polygon fill = 'rgb( 31, 120, 180)' fill-opacity = '0.250000' points = '518.6,148.0 518.6,662.4 520.5,662.4 520.5,149.7 '/>
		<polygon fill = 'rgb( 31, 120, 180)' fill-opacity = '0.250000' points = '520.5,149.7 520.5,662.4 522.4,662.4 522.4,151.4 '/>
		<polygon fill = 'rgb( 31, 120, 180)' fill-opacity = '0.250000' points = '522.4,151.4 522.4,662.4 524.3,662.4 524.3,153.3 '/>
		<polygon fill = 'rgb( 31, 120, 180)' fill-opacity = '0.250000' points = '524.3,153.3 524.3,662.4 526.2,662.4 526.2,155.1 '/>
		<polygon fill = 'rgb( 31, 120, 180)' fill-opacity = '0.250000' points = '526.2,155.1 526.2,662.4 528.1,662.4 528.1,157.0 '/>
		<polygon fill = 'rgb( 31, 120, 180)' fill-opacity = '0.250000' points = '528.1,157.0 528.1,662.4 530.0,662.4 530.0,159.0 '/>
		<polygon fill = 'rgb( 31, 120, 180)' fill-opacity = '0.250000' points = '530.0,159.0 530.0,662.4 531.9,662.4 531.9,160.9 '/>
		<polygon fill = 'rgb( 31, 120, 180)' fill-opacity = '0.250000' points = '531.9,160.9 531.9,662.4 533.8,662.4 533.8,162.9 '/>
		<polygon fill = 'rgb( 31, 120, 180)' fill-opacity = '0.250000' points = '533.8,162.9 533.8,662.4 535.7,662.4 535.7,164.9 '/>
		<polygon fill = 'rgb( 31, 120, 180)' fill-opacity = '0.250000' points = '535.7,164.9 535.7,662.4 537.6,662.4 537.6,166.8 '/>
		<polygon fill = 'rgb( 31, 120, 180)' fill-opacity = '0.250000' points = '537.6,166.8 537.6,662.4 539.6,662.4 539.6,168.8 '/>
		<polygon fill = 'rgb( 31, 120, 180)' fill-opacity = '0.250000' points = '539.6,168.8 539.6,662.4 541.5,662.4 541.5,170.7 '/>
		<polygon fill = 'rgb( 31, 120, 180)' fill-opacity = '0.250000' points = '541.5,170.7 541.5,662.4 543.4,662.4 543.4,172.6 '/>
		<polygon fill = 'rgb( 31, 120, 180)' fill-opacity = '0.250000' points = '543.4,172.6 543.4,662.4 545.3,662.4 545.3,174.5 '/>
		<polygon fill = 'rgb( 31, 120, 180)' fill-opacity = '0.250000' points = '545.3,174.5 545.3,662.4 547.2,662.4 547.2,176.4 '/>
		<polygon fill = 'rgb( 31, 120, 180)' fill-opacity = '0.250000' points = '547.2,176.4 547.2,662.4 549.1,662.4 549.1,178.2 '/>
		<polygon fill = 'rgb( 31, 120, 180)' fill-opacity = '0.250000' points = '549.1,178.2 549.1,662.4 551.0,662.4 551.0,180.1 '/>
		<polygon fill = 'rgb( 31, 120, 180)' fill-opacity = '0.250000' points = '551.0,180.1 551.0,662.4 552.9,662.4 552.9,181.9 '/>
		<polygon fill = 'rgb( 31, 120, 180)' fill-opacity = '0.250000' points = '552.9,181.9 552.9,662.4 554.8,662.4 554.8,183.6 '/>
		<polygon fill = 'rgb( 31, 120, 180)' fill-opacity = '0.250000' points = '554.8,183.6 554.8,662.4 556.7,662.4 556.7,185.4 '/>
		<polygon fill = 'rgb( 31, 120, 180)' fill-opacity = '0.250000' points = '556.7,185.4 556.7,662.4 558.6,662.4 558.6,187.2 '/>
		<polygon fill = 'rgb( 31, 120, 180)' fill-opacity = '0.250000' points = '558.6,187.2 558.6,662.4 560.5,662.4 560.5,188.9 '/>
		<polygon fill = 'rgb( 31, 120, 180)' fill-opacity = '0.250000' points = '560.5,188.9 560.5,662.4 562.4,662.4 562.4,190.7 '/>
		<polygon fill = 'rgb( 31, 120, 180)' fill-opacity = '0.250000' points = '562.4,190.7 562.4,662.4 564.3,662.4 564.3,192.5 '/>
		<polygon fill = 'rgb( 31, 120, 180)' fill-opacity = '0.250000' points = '564.3,192.5 564.3,662.4 566.2,662.4 566.2,194.3 '/>
		<polygon fill = 'rgb( 31, 120, 180)' fill-opacity = '0.250000' points = '566.2,194.3 566.2,662.4 568.1,662.4 568.1,196.1 '/>
		<polygon fill = 'rgb( 31, 120, 180)' fill-opacity = '0.250000' points = '568.1,196.1 568.1,662.4 570.0,662.4 570.0,198.0 '/>
		<polygon fill = 'rgb( 31, 120, 180)' fill-opacity = '0.250000' points = '570.0,198.0 570.0,662.4 571.9,662.4 571.9,199.9 '/>
		<polygon fill = 'rgb( 31, 120, 180)' fill-opacity = '0.250000' points = '571.9,199.9 571.9,662.4 573.8,662.4 573.8,201.8 '/>
		<polygon fill = 'rgb( 31, 120, 180)' fill-opacity = '0.250000' points = '573.8,201.8 573.8,662.4 575.7,662.4 575.7,203.7 '/>
		<polygon fill = 'rgb( 31, 120, 180)' fill-opacity = '0.250000' points = '575.7,203.7 575.7,662.4 577.6,662.4 577.6,205.7 '/>
		<polygon fill = 'rgb( 31, 120, 180)' fill-opacity = '0.250000' points = '577.6,205.7 577.6,662.4 579.5,662.4 579.5,207.8 '/>
		<polygon fill = 'rgb( 31, 120, 180)' fill-opacity = '0.250000' points = '579.5,207.8 579.5,662.4 581.4,662.4 581.4,209.8 '/>
		<polygon fill = 'rgb( 31, 120, 180)' fill-opacity = '0.250000' points = '581.4,209.8 581.4,662.4 583.3,662.4 583.3,212.0 '/>
		<polygon fill = 'rgb( 31, 120, 180)' fill-opacity = '0.250000' points = '583.3,212.0 583.3,662.4 585.2,662.4 585.2,214.1 '/>
		<polygon fill = 'rgb( 31, 120, 180)' fill-opacity = '0.250000' points = '585.2,214.1 585.2,662.4 587.1,662.4 587.1,216.3 '/>
		<polygon fill = 'rgb( 31, 120, 180)' fill-opacity = '0.250000' points = '587.1,216.3 587.1,662.4 589.1,662.4 589.1,218.5 '/>
		<polygon fill = 'rgb( 31, 120, 180)' fill-opacity = '0.250000' points = '589.1,218.5 589.1,662.4 591.0,662.4 591.0,220.8 '/>
		<polygon fill = 'rgb( 31, 120, 180)' fill-opacity = '0.250000' points = '591.0,220.8 591.0,662.4 592.9,662.4 592.9,223.1 '/>
		<polygon fill = 'rgb( 31, 120, 180)' fill-opacity = '0.250000' points = '592.9,223.1 592.9,662.4 594.8,662.4 594.8,225.5 '/>
		<polygon fill = 'rgb( 31, 120, 180)' fill-opacity = '0.250000' points = '594.8,225.5 594.8,662.4 596.7,662.4 596.7,227.9 '/>
		<polygon fill = 'rgb( 31, 120, 180)' fill-opacity = '0.250000' points = '596.7,227.9 596.7,662.4 598.6,662.4 598.6,230.3 '/>
		<polygon fill = 'rgb( 31, 120, 180)' fill-opacity = '0.250000' points = '598.6,230.3 598.6,662.4 600.5,662.4 600.5,232.8 '/>
		<polygon fill = 'rgb( 31, 120, 180)' fill-opacity = '0.250000' points = '600.5,232.8 600.5,662.4 602.4,662.4 602.4,235.3 '/>
		<polygon fill = 'rgb( 31, 120, 180)' fill-opacity = '0.250000' points = '602.4,235.3 602.4,662.4 604.3,662.4 604.3,237.8 '/>
		<polygon fill = 'rgb( 31, 120, 180)' fill-opacity = '0.250000' points = '604.3,237.8 604.3,662.4 606.2,662.4 606.2,240.3 '/>
		<polygon fill = 'rgb( 31, 120, 180)' fill-opacity = '0.250000' points = '606.2,240.3 606.2,662.4 608.1,662.4 608.1,242.9 '/>
		<polygon fill = 'rgb( 31, 120, 180)' fill-opacity = '0.250000' points = '608.1,242.9 608.1,662.4 610.0,662.4 610.0,245.5 '/>
		<polygon fill = 'rgb( 31, 120, 180)' fill-opacity = '0.250000' points = '610.0,245.5 610.0,662.4 611.9,662.4 611.9,248.1 '/>
		<polygon fill = 'rgb( 31, 120, 180)' fill-opacity = '0.250000' points = '611.9,248.1 611.9,662.4 613.8,662.4 613.8,250.8 '/>
		<polygon fill = 'rgb( 31, 120, 180)' fill-opacity = '0.250000' points = '613.8,250.8 613.8,662.4 615.7,662.4 615.7,253.5 '/>
		<polygon fill = 'rgb( 31, 120, 180)' fill-opacity = '0.250000' points = '615.7,253.5 615.7,662.4 617.6,662.4 617.6,256.2 '/>
		<polygon fill = 'rgb( 31, 120, 180)' fill-opacity = '0.250000' points = '617.6,256.2 617.6,662.4 619.5,662.4 619.5,258.9 '/>
		<polygon fill = 'rgb( 31, 120, 180)' fill-opacity = '0.250000' points = '619.5,258.9 619.5,662.4 621.4,662.4 621.4,261.6 '/>
		<polygon fill = 'rgb( 31, 120, 180)' fill-opacity = '0.250000' points = '621.4,261.6 621.4,662.4 623.3,662.4 623.3,264.4 '/>
		<polygon fill = 'rgb( 31, 120, 180)' fill-opacity = '0.250000' points = '623.3,264.4 623.3,662.4 625.2,662.4 625.2,267.2 '/>
		<polygon fill = 'rgb( 31, 120, 180)' fill-opacity = '0.250000' points = '625.2,267.2 625.2,662.4 627.1,662.4 627.1,270.0 '/>
		<polygon fill = 'rgb( 31, 120, 180)' fill-opacity = '0.250000' points = '627.1,270.0 627.1,662.4 629.0,662.4 629.0,272.8 '/>
		<polygon fill = 'rgb( 31, 120, 180)' fill-opacity = '0.250000' points = '629.0,272.8 629.0,662.4 630.9,662.4 630.9,275.6 '/>
		<polygon fill = 'rgb( 31, 120, 180)' fill-opacity = '0.250000' points = '630.9,275.6 630.9,662.4 632.8,662.4 632.8,278.4 '/>
		<polygon fill = 'rgb( 31, 120, 180)' fill-opacity = '0.250000' points = '632.8,278.4 632.8,662.4 634.7,662.4 634.7,281.2 '/>
		<polygon fill = 'rgb( 31, 120, 180)' fill-opacity = '0.250000' points = '634.7,281.2 634.7,662.4 636.6,662.4 636.6,284.1 '/>
		<polygon fill = 'rgb( 31, 120, 180)' fill-opacity = '0.250000' points = '636.6,284.1 636.6,662.4 638.5,662.4 638.5,286.9 '/>
		<polygon fill = 'rgb( 31, 120, 180)' fill-opacity = '0.250000' points = '638.5,286.9 638.5,662.4 640.5,662.4 640.5,289.8 '/>
		<polygon fill = 'rgb( 31, 120, 180)' fill-opacity = '0.250000' points = '640.5,289.8 640.5,662.4 642.4,662.4 642.4,292.6 '/>
		<polygon fill = 'rgb( 31, 120, 180)' fill-opacity = '0.250000' points = '642.4,292.6 642.4,662.4 644.3,662.4 644.3,295.4 '/>
		<polygon fill = 'rgb( 31, 120, 180)' fill-opacity = '0.250000' points = '644.3,295.4 644.3,662.4 646.2,662.4 646.2,298.3 '/>
		<polygon fill = 'rgb( 31, 120, 180)' fill-opacity = '0.250000' points = '646.2,298.3 646.2,662.4 648.1,662.4 648.1,301.1 '/>
		<polygon fill = 'rgb( 31, 120, 180)' fill-opacity = '0.250000' points = '648.1,301.1 648.1,662.4 650.0,662.4 650.0,303.9 '/>
		<polygon fill = 'rgb( 31, 120, 180)' fill-opacity = '0.250000' points = '650.0,303.9 650.0,662.4 651.9,662.4 651.9,306.7 '/>
		<polygon fill = 'rgb( 31, 120, 180)' fill-opacity = '0.250000' points = '651.9,306.7 651.9,662.4 653.8,662.4 653.8,309.5 '/>
		<polygon fill = 'rgb( 31, 120, 180)' fill-opacity = '0.250000' points = '653.8,309.5 653.8,662.4 655.7,662.4 655.7,312.3 '/>
		<polygon fill = 'rgb( 31, 120, 180)' fill-opacity = '0.250000' points = '655.7,312.3 655.7,662.4 657.6,662.4 657.6,315.1 '/>
		<polygon fill = 'rgb( 31, 120, 180)' fill-opacity = '0.250000' points = '657.6,315.1 657.6,662.4 659.5,662.4 659.5,317.8 '/>
		<polygon fill = 'rgb( 31, 120, 180)' fill-opacity = '0.250000' points = '659.5,317.8 659.5,662.4 661.4,662.4 661.4,320.6 '/>
		<polygon fill = 'rgb( 31, 120, 180)' fill-opacity = '0.250000' points = '661.4,320.6 661.4,662.4 663.3,662.4 663.3,323.4 '/>
		<polygon fill = 'rgb( 31, 120, 180)' fill-opacity = '0.250000' points = '663.3,323.4 663.3,662.4 665.2,662.4 665.2,326.2 '/>
		<polygon fill = 'rgb( 31, 120, 180)' fill-opacity = '0.250000' points = '665.2,326.2 665.2,662.4 667.1,662.4 667.1,329.0 '/>
		<polygon fill = 'rgb( 31, 120, 180)' fill-opacity = '0.250000' points = '667.1,329.0 667.1,662.4 669.0,662.4 669.0,331.8 '/>
		<polygon fill = 'rgb( 31, 120, 180)' fill-opacity = '0.250000' points = '669.0,331.8 669.0,662.4 670.9,662.4 670.9,334.6 '/>
		<polygon fill = 'rgb( 31, 120, 180)' fill-opacity = '0.250000' points = '670.9,334.6 670.9,662.4 672.8,662.4 672.8,337.5 '/>
		<polygon fill = 'rgb( 31, 120, 180)' fill-opacity = '0.250000' points = '672.8,337.5 672.8,662.4 674.7,662.4 674.7,340.3 '/>
		<polygon fill = 'rgb( 31, 120, 180)' fill-opacity = '0.250000' points = '674.7,340.3 674.7,662.4 676.6,662.4 676.6,343.2 '/>
		<polygon fill = 'rgb( 31, 120, 180)' fill-opacity = '0.250000' points = '676.6,343.2 676.6,662.4 678.5,662.4 678.5,346.1 '/>
		<polygon fill = 'rgb( 31, 120, 180)' fill-opacity = '0.250000' points = '678.5,346.1 678.5,662.4 680.4,662.4 680.4,349.1 '/>
		<polygon fill = 'rgb( 31, 120, 180)' fill-opacity = '0.250000' points = '680.4,349.1 680.4,662.4 682.3,662.4 682.3,352.0 '/>
		<polygon fill = 'rgb( 31, 120, 180)' fill-opacity = '0.250000' points = '682.3,352.0 682.3,662.4 684.2,662.4 684.2,355.0 '/>
		<polygon fill = 'rgb( 31, 120, 180)' fill-opacity = '0.250000' points = '684.2,355.0 684.2,662.4 686.1,662.4 686.1,358.0 '/>
		<polygon fill = 'rgb( 31, 120, 180)' fill-opacity = '0.250000' points = '686.1,358.0 686.1,662.4 688.0,662.4 688.0,361.1 '/>
		<polygon fill = 'rgb( 31, 120, 180)' fill-opacity = '0.250000' points = '688.0,361.1 688.0,662.4 690.0,662.4 690.0,364.1 '/>
		<polygon fill = 'rgb( 31, 120, 180)' fill-opacity = '0.250000' points = '690.0,364.1 690.0,662.4 691.9,662.4 691.9,367.2 '/>
		<polygon fill = 'rgb( 31, 120, 180)' fill-opacity = '0.250000' points = '691.9,367.2 691.9,662.4 693.8,662.4 693.8,370.3 '/>
		<polygon fill = 'rgb( 31, 120, 180)' fill-opacity = '0.250000' points = '693.8,370.3 693.8,662.4 695.7,662.4 695.7,373.3 '/>
		<polygon fill = 'rgb( 31, 120, 180)' fill-opacity = '0.250000' points = '695.7,373.3 695.7,662.4 697.6,662.4 697.6,376.4 '/>
		<polygon fill = 'rgb( 31, 120, 180)' fill-opacity = '0.250000' points = '697.6,376.4 697.6,662.4 699.5,662.4 699.5,379.5 '/>
		<polygon fill = 'rgb( 31, 120, 180)' fill-opacity = '0.250000' points = '699.5,379.5 699.5,662.4 701.4,662.4 701.4,382.6 '/>
		<polygon fill = 'rgb( 31, 120, 180)' fill-opacity = '0.250000' points = '701.4,382.6 701.4,662.4 703.3,662.4 703.3,385.7 '/>
		<polygon fill = 'rgb( 31, 120, 180)' fill-opacity = '0.250000' points = '703.3,385.7 703.3,662.4 705.2,662.4 705.2,388.8 '/>
		<polygon fill = 'rgb( 31, 120, 180)' fill-opacity = '0.250000' points = '705.2,388.8 705.2,662.4 707.1,662.4 707.1,391.8 '/>
		<polygon fill = 'rgb( 31, 120, 180)' fill-opacity = '0.250000' points = '707.1,391.8 707.1,662.4 709.0,662.4 709.0,394.9 '/>
		<polygon fill = 'rgb( 31, 120, 180)' fill-opacity = '0.250000' points = '709.0,394.9 709.0,662.4 710.9,662.4 710.9,397.9 '/>
		<polygon fill = 'rgb( 31, 120, 180)' fill-opacity = '0.250000' points = '710.9,397.9 710.9,662.4 712.8,662.4 712.8,400.9 '/>
		<polygon fill = 'rgb( 31, 120, 180)' fill-opacity = '0.250000' points = '712.8,400.9 712.8,662.4 714.7,662.4 714.7,403.9 '/>
		<polygon fill = 'rgb( 31, 120, 180)' fill-opacity = '0.250000' points = '714.7,403.9 714.7,662.4 716.6,662.4 716.6,406.8 '/>
		<polygon fill = 'rgb( 31, 120, 180)' fill-opacity = '0.250000' points = '716.6,406.8 716.6,662.4 718.5,662.4 718.5,409.7 '/>
		<polygon fill = 'rgb( 31, 120, 180)' fill-opacity = '0.250000' points = '718.5,409.7 718.5,662.4 720.4,662.4 720.4,412.6 '/>
		<polygon fill = 'rgb( 31, 120, 180)' fill-opacity = '0.250000' points = '720.4,412.6 720.4,662.4 722.3,662.4 722.3,415.5 '/>
		<polygon fill = 'rgb( 31, 120, 180)' fill-opacity = '0.250000' points = '722.3,415.5 722.3,662.4 724.2,662.4 724.2,418.3 '/>
		<polygon fill = 'rgb( 31, 120, 180)' fill-opacity = '0.250000' points = '724.2,418.3 724.2,662.4 726.1,662.4 726.1,421.0 '/>
		<polygon fill = 'rgb( 31, 120, 180)' fill-opacity = '0.250000' points = '726.1,421.0 726.1,662.4 728.0,662.4 728.0,423.8 '/>
		<polygon fill = 'rgb( 31, 120, 180)' fill-opacity = '0.250000' points = '728.0,423.8 728.0,662.4 729.9,662.4 729.9,426.4 '/>
		<polygon fill = 'rgb( 31, 120, 180)' fill-opacity = '0.250000' points = '729.9,426.4 729.9,662.4 731.8,662.4 731.8,429.1 '/>
		<polygon fill = 'rgb( 31, 120, 180)' fill-opacity = '0.250000' points = '731.8,429.1 731.8,662.4 733.7,662.4 733.7,431.7 '/>
		<polygon fill = 'rgb( 31, 120, 180)' fill-opacity = '0.250000' points = '733.7,431.7 733.7,662.4 735.6,662.4 735.6,434.2 '/>
		<polygon fill = 'rgb( 31, 120, 180)' fill-opacity = '0.250000' points = '735.6,434.2 735.6,662.4 737.5,662.4 737.5,436.7 '/>
		<polygon fill = 'rgb( 31, 120, 180)' fill-opacity = '0.250000' points = '737.5,436.7 737.5,662.4 739.5,662.4 739.5,439.1 '/>
		<polygon fill = 'rgb( 31, 120, 180)' fill-opacity = '0.250000' points = '739.5,439.1 739.5,662.4 741.4,662.4 741.4,441.5 '/>
		<polygon fill = 'rgb( 31, 120, 180)' fill-opacity = '0.250000' points = '741.4,441.5 741.4,662.4 743.3,662.4 743.3,443.8 '/>
		<polygon fill = 'rgb( 31, 120, 180)' fill-opacity = '0.250000' points = '743.3,443.8 743.3,662.4 745.2,662.4 745.2,446.1 '/>
		<polygon fill = 'rgb( 31, 120, 180)' fill-opacity = '0.250000' points = '745.2,446.1 745.2,662.4 747.1,662.4 747.1,448.3 '/>
		<polygon fill = 'rgb( 31, 120, 180)' fill-opacity = '0.250000' points = '747.1,448.3 747.1,662.4 749.0,662.4 749.0,450.4 '/>
		<polygon fill = 'rgb( 31, 120, 180)' fill-opacity = '0.250000' points = '749.0,450.4 749.0,662.4 750.9,662.4 750.9,452.6 '/>
		<polygon fill = 'rgb( 31, 120, 180)' fill-opacity = '0.250000' points = '750.9,452.6 750.9,662.4 752.8,662.4 752.8,454.6 '/>
		<polygon fill = 'rgb( 31, 120, 180)' fill-opacity = '0.250000' points = '752.8,454.6 752.8,662.4 754.7,662.4 754.7,456.6 '/>
		<polygon fill = 'rgb( 31, 120, 180)' fill-opacity = '0.250000' points = '754.7,456.6 754.7,662.4 756.6,662.4 756.6,458.6 '/>
		<polygon fill = 'rgb( 31, 120, 180)' fill-opacity = '0.250000' points = '756.6,458.6 756.6,662.4 758.5,662.4 758.5,460.6 '/>
		<polygon fill = 'rgb( 31, 120, 180)' fill-opacity = '0.250000' points = '758.5,460.6 758.5,662.4 760.4,662.4 760.4,462.5 '/>
		<polygon fill = 'rgb( 31, 120, 180)' fill-opacity = '0.250000' points = '760.4,462.5 760.4,662.4 762.3,662.4 762.3,464.3 '/>
		<polygon fill = 'rgb( 31, 120, 180)' fill-opacity = '0.250000' points = '762.3,464.3 762.3,662.4 764.2,662.4 764.2,466.2 '/>
		<polygon fill = 'rgb( 31, 120, 180)' fill-opacity = '0.250000' points = '764.2,466.2 764.2,662.4 766.1,662.4 766.1,468.0 '/>
		<polygon fill = 'rgb( 31, 120, 180)' fill-opacity = '0.250000' points = '766.1,468.0 766.1,662.4 768.0,662.4 768.0,469.8 '/>
		<polygon fill = 'rgb( 31, 120, 180)' fill-opacity = '0.250000' points = '768.0,469.8 768.0,662.4 769.9,662.4 769.9,471.5 '/>
		<polygon fill = 'rgb( 31, 120, 180)' fill-opacity = '0.250000' points = '769.9,471.5 769.9,662.4 771.8,662.4 771.8,473.3 '/>
		<polygon fill = 'rgb( 31, 120, 180)' fill-opacity = '0.250000' points = '771.8,473.3 771.8,662.4 773.7,662.4 773.7,475.0 '/>
		<polygon fill = 'rgb( 31, 120, 180)' fill-opacity = '0.250000' points = '773.7,475.0 773.7,662.4 775.6,662.4 775.6,476.8 '/>
		<polygon fill = 'rgb( 31, 120, 180)' fill-opacity = '0.250000' points = '775.6,476.8 775.6,662.4 777.5,662.4 777.5,478.5 '/>
		<polygon fill = 'rgb( 31, 120, 180)' fill-opacity = '0.250000' points = '777.5,478.5 777.5,662.4 779.4,662.4 779.4,480.2 '/>
		<polygon fill = 'rgb( 31, 120, 180)' fill-opacity = '0.250000' points = '779.4,480.2 779.4,662.4 781.3,662.4 781.3,482.0 '/>
		<polygon fill = 'rgb( 31, 120, 180)' fill-opacity = '0.250000' points = '781.3,482.0 781.3,662.4 783.2,662.4 783.2,483.7 '/>
		<polygon fill = 'rgb( 31, 120, 180)' fill-opacity = '0.250000' points = '783.2,483.7 783.2,662.4 785.1,662.4 785.1,485.4 '/>
		<polygon fill = 'rgb( 31, 120, 180)' fill-opacity = '0.250000' points = '785.1,485.4 785.1,662.4 787.0,662.4 787.0,487.1 '/>
		<polygon fill = 'rgb( 31, 120, 180)' fill-opacity = '0.250000' points = '787.0,487.1 787.0,662.4 789.0,662.4 789.0,488.9 '/>
		<polygon fill = 'rgb( 31, 120, 180)' fill-opacity = '0.250000' points = '789.0,488.9 789.0,662.4 790.9,662.4 790.9,490.6 '/>
		<polygon fill = 'rgb( 31, 120, 180)' fill-opacity = '0.250000' points = '790.9,490.6 790.9,662.4 792.8,662.4 792.8,492.4 '/>
		<polygon fill = 'rgb( 31, 120, 180)' fill-opacity = '0.250000' points = '792.8,492.4 792.8,662.4 794.7,662.4 794.7,494.1 '/>
		<polygon fill = 'rgb( 31, 120, 180)' fill-opacity = '0.250000' points = '794.7,494.1 794.7,662.4 796.6,662.4 796.6,495.9 '/>
		<polygon fill = 'rgb( 31, 120, 180)' fill-opacity = '0.250000' points = '796.6,495.9 796.6,662.4 798.5,662.4 798.5,497.7 '/>
		<polygon fill = 'rgb( 31, 120, 180)' fill-opacity = '0.250000' points = '798.5,497.7 798.5,662.4 800.4,662.4 800.4,499.5 '/>
		<polygon fill = 'rgb( 31, 120, 180)' fill-opacity = '0.250000' points = '800.4,499.5 800.4,662.4 802.3,662.4 802.3,501.3 '/>
		<polygon fill = 'rgb( 31, 120, 180)' fill-opacity = '0.250000' points = '802.3,501.3 802.3,662.4 804.2,662.4 804.2,503.2 '/>
		<polygon fill = 'rgb( 31, 120, 180)' fill-opacity = '0.250000' points = '804.2,503.2 804.2,662.4 806.1,662.4 806.1,505.0 '/>
		<polygon fill = 'rgb( 31, 120, 180)' fill-opacity = '0.250000' points = '806.1,505.0 806.1,662.4 808.0,662.4 808.0,506.9 '/>
		<polygon fill = 'rgb( 31, 120, 180)' fill-opacity = '0.250000' points = '808.0,506.9 808.0,662.4 809.9,662.4 809.9,508.8 '/>
		<polygon fill = 'rgb( 31, 120, 180)' fill-opacity = '0.250000' points = '809.9,508.8 809.9,662.4 811.8,662.4 811.8,510.7 '/>
		<polygon fill = 'rgb( 31, 120, 180)' fill-opacity = '0.250000' points = '811.8,510.7 811.8,662.4 813.7,662.4 813.7,512.6 '/>
		<polygon fill = 'rgb( 31, 120, 180)' fill-opacity = '0.250000' points = '813.7,512.6 813.7,662.4 815.6,662.4 815.6,514.6 '/>
		<polygon fill = 'rgb( 31, 120, 180)' fill-opacity = '0.250000' points = '815.6,514.6 815.6,662.4 817.5,662.4 817.5,516.6 '/>
		<polygon fill = 'rgb( 31, 120, 180)' fill-opacity = '0.250000' points = '817.5,516.6 817.5,662.4 819.4,662.4 819.4,518.5 '/>
		<polygon fill = 'rgb( 31, 120, 180)' fill-opacity = '0.250000' points = '819.4,518.5 819.4,662.4 821.3,662.4 821.3,520.5 '/>
		<polygon fill = 'rgb( 31, 120, 180)' fill-opacity = '0.250000' points = '821.3,520.5 821.3,662.4 823.2,662.4 823.2,522.5 '/>
		<polygon fill = 'rgb( 31, 120, 180)' fill-opacity = '0.250000' points = '823.2,522.5 823.2,662.4 825.1,662.4 825.1,524.4 '/>
		<polygon fill = 'rgb( 31, 120, 180)' fill-opacity = '0.250000' points = '825.1,524.4 825.1,662.4 827.0,662.4 827.0,526.4 '/>
		<polygon fill = 'rgb( 31, 120, 180)' fill-opacity = '0.250000' points = '827.0,526.4 827.0,662.4 828.9,662.4 828.9,528.3 '/>
		<polygon fill = 'rgb( 31, 120, 180)' fill-opacity = '0.250000' points = '828.9,528.3 828.9,662.4 830.8,662.4 830.8,530.3 '/>
		<polygon fill = 'rgb( 31, 120, 180)' fill-opacity = '0.250000' points = '830.8,530.3 830.8,662.4 832.7,662.4 832.7,532.2 '/>
		<polygon fill = 'rgb( 31, 120, 180)' fill-opacity = '0.250000' points = '832.7,532.2 832.7,662.4 834.6,662.4 834.6,534.1 '/>
		<polygon fill = 'rgb( 31, 120, 180)' fill-opacity = '0.250000' points = '834.6,534.1 834.6,662.4 836.5,662.4 836.5,535.9 '/>
		<polygon fill = 'rgb( 31, 120, 180)' fill-opacity = '0.250000' points = '836.5,535.9 836.5,662.4 838.4,662.4 838.4,537.7 '/>
		<polygon fill = 'rgb( 31, 120, 180)' fill-opacity = '0.250000' points = '838.4,537.7 838.4,662.4 840.4,662.4 840.4,539.5 '/>
		<polygon fill = 'rgb( 31, 120, 180)' fill-opacity = '0.250000' points = '840.4,539.5 840.4,662.4 842.3,662.4 842.3,541.2 '/>
		<polygon fill = 'rgb( 31, 120, 180)' fill-opacity = '0.250000' points = '842.3,541.2 842.3,662.4 844.2,662.4 844.2,542.9 '/>
		<polygon fill = 'rgb( 31, 120, 180)' fill-opacity = '0.250000' points = '844.2,542.9 844.2,662.4 846.1,662.4 846.1,544.5 '/>
		<polygon fill = 'rgb( 31, 120, 180)' fill-opacity = '0.250000' points = '846.1,544.5 846.1,662.4 848.0,662.4 848.0,546.2 '/>
		<polygon fill = 'rgb( 31, 120, 180)' fill-opacity = '0.250000' points = '848.0,546.2 848.0,662.4 849.9,662.4 849.9,547.7 '/>
		<polygon fill = 'rgb( 31, 120, 180)' fill-opacity = '0.250000' points = '849.9,547.7 849.9,662.4 851.8,662.4 851.8,549.2 '/>
		<polygon fill = 'rgb( 31, 120, 180)' fill-opacity = '0.250000' points = '851.8,549.2 851.8,662.4 853.7,662.4 853.7,550.7 '/>
		<polygon fill = 'rgb( 31, 120, 180)' fill-opacity = '0.250000' points = '853.7,550.7 853.7,662.4 855.6,662.4 855.6,552.2 '/>
		<polygon fill = 'rgb( 31, 120, 180)' fill-opacity = '0.250000' points = '855.6,552.2 855.6,662.4 857.5,662.4 857.5,553.6 '/>
		<polygon fill = 'rgb( 31, 120, 180)' fill-opacity = '0.250000' points = '857.5,553.6 857.5,662.4 859.4,662.4 859.4,555.0 '/>
		<polygon fill = 'rgb( 31, 120, 180)' fill-opacity = '0.250000' points = '859.4,555.0 859.4,662.4 861.3,662.4 861.3,556.4 '/>
		<polygon fill = 'rgb( 31, 120, 180)' fill-opacity = '0.250000' points = '861.3,556.4 861.3,662.4 863.2,662.4 863.2,557.8 '/>
		<polygon fill = 'rgb( 31, 120, 180)' fill-opacity = '0.250000' points = '863.2,557.8 863.2,662.4 865.1,662.4 865.1,559.1 '/>
		<polygon fill = 'rgb( 31, 120, 180)' fill-opacity = '0.250000' points = '865.1,559.1 865.1,662.4 867.0,662.4 867.0,560.4 '/>
		<polygon fill = 'rgb( 31, 120, 180)' fill-opacity = '0.250000' points = '867.0,560.4 867.0,662.4 868.9,662.4 868.9,561.7 '/>
		<polygon fill = 'rgb( 31, 120, 180)' fill-opacity = '0.250000' points = '868.9,561.7 868.9,662.4 870.8,662.4 870.8,563.0 '/>
		<polygon fill = 'rgb( 31, 120, 180)' fill-opacity = '0.250000' points = '870.8,563.0 870.8,662.4 872.7,662.4 872.7,564.2 '/>
		<polygon fill = 'rgb( 31, 120, 180)' fill-opacity = '0.250000' points = '872.7,564.2 872.7,662.4 874.6,662.4 874.6,565.5 '/>
		<polygon fill = 'rgb( 31, 120, 180)' fill-opacity = '0.250000' points = '874.6,565.5 874.6,662.4 876.5,662.4 876.5,566.7 '/>
		<polygon fill = 'rgb( 31, 120, 180)' fill-opacity = '0.250000' points = '876.5,566.7 876.5,662.4 878.4,662.4 878.4,567.9 '/>
		<polygon fill = 'rgb( 31, 120, 180)' fill-opacity = '0.250000' points = '878.4,567.9 878.4,662.4 880.3,662.4 880.3,569.1 '/>
		<polygon fill = 'rgb( 31, 120, 180)' fill-opacity = '0.250000' points = '880.3,569.1 880.3,662.4 882.2,662.4 882.2,570.3 '/>
		<polygon fill = 'rgb( 31, 120, 180)' fill-opacity = '0.250000' points = '882.2,570.3 882.2,662.4 884.1,662.4 884.1,571.5 '/>
		<polygon fill = 'rgb( 31, 120, 180)' fill-opacity = '0.250000' points = '884.1,571.5 884.1,662.4 886.0,662.4 886.0,572.6 '/>
		<polygon fill = 'rgb( 31, 120, 180)' fill-opacity = '0.250000' points = '886.0,572.6 886.0,662.4 887.9,662.4 887.9,573.8 '/>
		<polygon fill = 'rgb( 31, 120, 180)' fill-opacity = '0.250000' points = '887.9,573.8 887.9,662.4 889.9,662.4 889.9,574.9 '/>
		<polygon fill = 'rgb( 31, 120, 180)' fill-opacity = '0.250000' points = '889.9,574.9 889.9,662.4 891.8,662.4 891.8,576.0 '/>
		<polygon fill = 'rgb( 31, 120, 180)' fill-opacity = '0.250000' points = '891.8,576.0 891.8,662.4 893.7,662.4 893.7,577.1 '/>
		<polygon fill = 'rgb( 31, 120, 180)' fill-opacity = '0.250000' points = '893.7,577.1 893.7,662.4 895.6,662.4 895.6,578.2 '/>
		<polygon fill = 'rgb( 31, 120, 180)' fill-opacity = '0.250000' points = '895.6,578.2 895.6,662.4 897.5,662.4 897.5,579.3 '/>
		<polygon fill = 'rgb( 31, 120, 180)' fill-opacity = '0.250000' points = '897.5,579.3 897.5,662.4 899.4,662.4 899.4,580.4 '/>
		<polygon fill = 'rgb( 31, 120, 180)' fill-opacity = '0.250000' points = '899.4,580.4 899.4,662.4 901.3,662.4 901.3,581.5 '/>
		<polygon fill = 'rgb( 31, 120, 180)' fill-opacity = '0.250000' points = '901.3,581.5 901.3,662.4 903.2,662.4 903.2,582.6 '/>
		<polygon fill = 'rgb( 31, 120, 180)' fill-opacity = '0.250000' points = '903.2,582.6 903.2,662.4 905.1,662.4 905.1,583.7 '/>
		<polygon fill = 'rgb( 31, 120, 180)' fill-opacity = '0.250000' points = '905.1,583.7 905.1,662.4 907.0,662.4 907.0,584.8 '/>
		<polygon fill = 'rgb( 31, 120, 180)' fill-opacity = '0.250000' points = '907.0,584.8 907.0,662.4 908.9,662.4 908.9,585.9 '/>
		<polygon fill = 'rgb( 31, 120, 180)' fill-opacity = '0.250000' points = '908.9,585.9 908.9,662.4 910.8,662.4 910.8,587.0 '/>
		<polygon fill = 'rgb( 31, 120, 180)' fill-opacity = '0.250000' points = '910.8,587.0 910.8,662.4 912.7,662.4 912.7,588.1 '/>
		<polygon fill = 'rgb( 31, 120, 180)' fill-opacity = '0.250000' points = '912.7,588.1 912.7,662.4 914.6,662.4 914.6,589.2 '/>
		<polygon fill = 'rgb( 31, 120, 180)' fill-opacity = '0.250000' points = '914.6,589.2 914.6,662.4 916.5,662.4 916.5,590.4 '/>
		<polygon fill = 'rgb( 31, 120, 180)' fill-opacity = '0.250000' points = '916.5,590.4 916.5,662.4 918.4,662.4 918.4,591.5 '/>
		<polygon fill = 'rgb( 31, 120, 180)' fill-opacity = '0.250000' points = '918.4,591.5 918.4,662.4 920.3,662.4 920.3,592.7 '/>
		<polygon fill = 'rgb( 31, 120, 180)' fill-opacity = '0.250000' points = '920.3,592.7 920.3,662.4 922.2,662.4 922.2,593.9 '/>
		<polygon fill = 'rgb( 31, 120, 180)' fill-opacity = '0.250000' points = '922.2,593.9 922.2,662.4 924.1,662.4 924.1,595.1 '/>
	</g>
</g>
	</g>
	<g id="gnuplot_plot_3" ><title>Point estimate</title>
<g fill="none" color="white" stroke="rgb( 31, 120, 180)" stroke-width="2.00" stroke-linecap="butt" stroke-linejoin="miter">
</g>
<g fill="none" color="black" stroke="currentColor" stroke-width="2.00" stroke-linecap="butt" stroke-linejoin="miter">
	<g transform="translate(1089.0,103.0)" stroke="none" fill="black" font-family="Helvetica" font-size="12.00"  text-anchor="start">
		<text><tspan font-family="Helvetica" >Point estimate</tspan></text>
	</g>
</g>
<g fill="none" color="black" stroke="currentColor" stroke-width="2.00" stroke-linecap="butt" stroke-linejoin="miter">
	<path stroke='rgb( 31, 120, 180)'  d='M1038.5,99.1 L1080.7,99.1 M497.4,662.4 L497.4,133.7  '/></g>
	</g>
<g fill="none" color="black" stroke="currentColor" stroke-width="2.00" stroke-linecap="butt" stroke-linejoin="miter">
</g>
<g fill="none" color="black" stroke="black" stroke-width="1.00" stroke-linecap="butt" stroke-linejoin="miter">
</g>
<g fill="none" color="black" stroke="currentColor" stroke-width="1.00" stroke-linecap="butt" stroke-linejoin="miter">
	<path stroke='black'  d='M63.6,54.1 L63.6,662.4 L1013.6,662.4 L1013.6,54.1 L63.6,54.1 Z  '/></g>
<g fill="none" color="black" stroke="currentColor" stroke-width="1.00" stroke-linecap="butt" stroke-linejoin="miter">
</g>
</g>
</svg>

