group,function,value,throughput_num,throughput_type,sample_measured_value,unit,iteration_count
dfs arena ghostcell vec par immut (×4),,,,,1454467.0,ns,1
dfs arena ghostcell vec par immut (×4),,,,,2712665.0,ns,2
dfs arena ghostcell vec par immut (×4),,,,,3985835.0,ns,3
dfs arena ghostcell vec par immut (×4),,,,,5285303.0,ns,4
dfs arena ghostcell vec par immut (×4),,,,,6557700.0,ns,5
dfs arena ghostcell vec par immut (×4),,,,,7727394.0,ns,6
dfs arena ghostcell vec par immut (×4),,,,,9005883.0,ns,7
dfs arena ghostcell vec par immut (×4),,,,,10252735.0,ns,8
dfs arena ghostcell vec par immut (×4),,,,,11511454.0,ns,9
dfs arena ghostcell vec par immut (×4),,,,,12780887.0,ns,10
dfs arena ghostcell vec par immut (×4),,,,,14058511.0,ns,11
dfs arena ghostcell vec par immut (×4),,,,,15232654.0,ns,12
dfs arena ghostcell vec par immut (×4),,,,,16533420.0,ns,13
dfs arena ghostcell vec par immut (×4),,,,,17737173.0,ns,14
dfs arena ghostcell vec par immut (×4),,,,,19071462.0,ns,15
dfs arena ghostcell vec par immut (×4),,,,,20228714.0,ns,16
dfs arena ghostcell vec par immut (×4),,,,,21465064.0,ns,17
dfs arena ghostcell vec par immut (×4),,,,,22853683.0,ns,18
dfs arena ghostcell vec par immut (×4),,,,,24091360.0,ns,19
dfs arena ghostcell vec par immut (×4),,,,,25272163.0,ns,20
dfs arena ghostcell vec par immut (×4),,,,,26525735.0,ns,21
dfs arena ghostcell vec par immut (×4),,,,,27831190.0,ns,22
dfs arena ghostcell vec par immut (×4),,,,,29081603.0,ns,23
dfs arena ghostcell vec par immut (×4),,,,,33314176.0,ns,24
dfs arena ghostcell vec par immut (×4),,,,,31551729.0,ns,25
dfs arena ghostcell vec par immut (×4),,,,,32905850.0,ns,26
dfs arena ghostcell vec par immut (×4),,,,,34063612.0,ns,27
dfs arena ghostcell vec par immut (×4),,,,,35354514.0,ns,28
dfs arena ghostcell vec par immut (×4),,,,,36605630.0,ns,29
dfs arena ghostcell vec par immut (×4),,,,,37822448.0,ns,30
dfs arena ghostcell vec par immut (×4),,,,,39064772.0,ns,31
dfs arena ghostcell vec par immut (×4),,,,,40324463.0,ns,32
dfs arena ghostcell vec par immut (×4),,,,,41563164.0,ns,33
dfs arena ghostcell vec par immut (×4),,,,,42866823.0,ns,34
dfs arena ghostcell vec par immut (×4),,,,,44130051.0,ns,35
dfs arena ghostcell vec par immut (×4),,,,,45323646.0,ns,36
dfs arena ghostcell vec par immut (×4),,,,,46604434.0,ns,37
dfs arena ghostcell vec par immut (×4),,,,,47859159.0,ns,38
dfs arena ghostcell vec par immut (×4),,,,,49086292.0,ns,39
dfs arena ghostcell vec par immut (×4),,,,,50377015.0,ns,40
dfs arena ghostcell vec par immut (×4),,,,,51629564.0,ns,41
dfs arena ghostcell vec par immut (×4),,,,,52871784.0,ns,42
dfs arena ghostcell vec par immut (×4),,,,,54167302.0,ns,43
dfs arena ghostcell vec par immut (×4),,,,,71172790.0,ns,44
dfs arena ghostcell vec par immut (×4),,,,,56771415.0,ns,45
dfs arena ghostcell vec par immut (×4),,,,,57892018.0,ns,46
dfs arena ghostcell vec par immut (×4),,,,,59204430.0,ns,47
dfs arena ghostcell vec par immut (×4),,,,,62775210.0,ns,48
dfs arena ghostcell vec par immut (×4),,,,,61713574.0,ns,49
dfs arena ghostcell vec par immut (×4),,,,,63106053.0,ns,50
dfs arena ghostcell vec par immut (×4),,,,,64220077.0,ns,51
dfs arena ghostcell vec par immut (×4),,,,,65643228.0,ns,52
dfs arena ghostcell vec par immut (×4),,,,,66687337.0,ns,53
dfs arena ghostcell vec par immut (×4),,,,,67791482.0,ns,54
dfs arena ghostcell vec par immut (×4),,,,,69100264.0,ns,55
dfs arena ghostcell vec par immut (×4),,,,,70582159.0,ns,56
dfs arena ghostcell vec par immut (×4),,,,,71679594.0,ns,57
dfs arena ghostcell vec par immut (×4),,,,,75985701.0,ns,58
dfs arena ghostcell vec par immut (×4),,,,,74240300.0,ns,59
dfs arena ghostcell vec par immut (×4),,,,,75537346.0,ns,60
dfs arena ghostcell vec par immut (×4),,,,,76746908.0,ns,61
dfs arena ghostcell vec par immut (×4),,,,,77986127.0,ns,62
dfs arena ghostcell vec par immut (×4),,,,,79080076.0,ns,63
dfs arena ghostcell vec par immut (×4),,,,,80502927.0,ns,64
dfs arena ghostcell vec par immut (×4),,,,,81926626.0,ns,65
dfs arena ghostcell vec par immut (×4),,,,,82987475.0,ns,66
dfs arena ghostcell vec par immut (×4),,,,,84308480.0,ns,67
dfs arena ghostcell vec par immut (×4),,,,,85417605.0,ns,68
dfs arena ghostcell vec par immut (×4),,,,,89664864.0,ns,69
dfs arena ghostcell vec par immut (×4),,,,,87965617.0,ns,70
dfs arena ghostcell vec par immut (×4),,,,,89353618.0,ns,71
dfs arena ghostcell vec par immut (×4),,,,,90495681.0,ns,72
dfs arena ghostcell vec par immut (×4),,,,,91880590.0,ns,73
dfs arena ghostcell vec par immut (×4),,,,,92950455.0,ns,74
dfs arena ghostcell vec par immut (×4),,,,,94486186.0,ns,75
dfs arena ghostcell vec par immut (×4),,,,,95459508.0,ns,76
dfs arena ghostcell vec par immut (×4),,,,,96832476.0,ns,77
dfs arena ghostcell vec par immut (×4),,,,,98608678.0,ns,78
dfs arena ghostcell vec par immut (×4),,,,,102693766.0,ns,79
dfs arena ghostcell vec par immut (×4),,,,,100601382.0,ns,80
dfs arena ghostcell vec par immut (×4),,,,,101826346.0,ns,81
dfs arena ghostcell vec par immut (×4),,,,,103276706.0,ns,82
dfs arena ghostcell vec par immut (×4),,,,,104304348.0,ns,83
dfs arena ghostcell vec par immut (×4),,,,,105514880.0,ns,84
dfs arena ghostcell vec par immut (×4),,,,,106994932.0,ns,85
dfs arena ghostcell vec par immut (×4),,,,,108131181.0,ns,86
dfs arena ghostcell vec par immut (×4),,,,,109239216.0,ns,87
dfs arena ghostcell vec par immut (×4),,,,,113476346.0,ns,88
dfs arena ghostcell vec par immut (×4),,,,,111863464.0,ns,89
dfs arena ghostcell vec par immut (×4),,,,,113090849.0,ns,90
dfs arena ghostcell vec par immut (×4),,,,,114602002.0,ns,91
dfs arena ghostcell vec par immut (×4),,,,,115539030.0,ns,92
dfs arena ghostcell vec par immut (×4),,,,,116838793.0,ns,93
dfs arena ghostcell vec par immut (×4),,,,,118236705.0,ns,94
dfs arena ghostcell vec par immut (×4),,,,,119387374.0,ns,95
dfs arena ghostcell vec par immut (×4),,,,,124221200.0,ns,96
dfs arena ghostcell vec par immut (×4),,,,,121922390.0,ns,97
dfs arena ghostcell vec par immut (×4),,,,,123046118.0,ns,98
dfs arena ghostcell vec par immut (×4),,,,,124420535.0,ns,99
dfs arena ghostcell vec par immut (×4),,,,,125651100.0,ns,100
