<?xml version="1.0" encoding="utf-8"  standalone="no"?>
<!DOCTYPE svg PUBLIC "-//W3C//DTD SVG 1.1//EN"
 "http://www.w3.org/Graphics/SVG/1.1/DTD/svg11.dtd">
<svg 
 viewBox="0 0 450 300"
 xmlns="http://www.w3.org/2000/svg"
 xmlns:xlink="http://www.w3.org/1999/xlink"
>

<title>Gnuplot</title>
<desc>Produced by GNUPLOT 5.0 patchlevel 5 </desc>

<g id="gnuplot_canvas">

<rect x="0" y="0" width="450" height="300" fill="none"/>
<defs>

	<circle id='gpDot' r='0.5' stroke-width='0.5'/>
	<path id='gpPt0' stroke-width='0.222' stroke='currentColor' d='M-1,0 h2 M0,-1 v2'/>
	<path id='gpPt1' stroke-width='0.222' stroke='currentColor' d='M-1,-1 L1,1 M1,-1 L-1,1'/>
	<path id='gpPt2' stroke-width='0.222' stroke='currentColor' d='M-1,0 L1,0 M0,-1 L0,1 M-1,-1 L1,1 M-1,1 L1,-1'/>
	<rect id='gpPt3' stroke-width='0.222' stroke='currentColor' x='-1' y='-1' width='2' height='2'/>
	<rect id='gpPt4' stroke-width='0.222' stroke='currentColor' fill='currentColor' x='-1' y='-1' width='2' height='2'/>
	<circle id='gpPt5' stroke-width='0.222' stroke='currentColor' cx='0' cy='0' r='1'/>
	<use xlink:href='#gpPt5' id='gpPt6' fill='currentColor' stroke='none'/>
	<path id='gpPt7' stroke-width='0.222' stroke='currentColor' d='M0,-1.33 L-1.33,0.67 L1.33,0.67 z'/>
	<use xlink:href='#gpPt7' id='gpPt8' fill='currentColor' stroke='none'/>
	<use xlink:href='#gpPt7' id='gpPt9' stroke='currentColor' transform='rotate(180)'/>
	<use xlink:href='#gpPt9' id='gpPt10' fill='currentColor' stroke='none'/>
	<use xlink:href='#gpPt3' id='gpPt11' stroke='currentColor' transform='rotate(45)'/>
	<use xlink:href='#gpPt11' id='gpPt12' fill='currentColor' stroke='none'/>
	<path id='gpPt13' stroke-width='0.222' stroke='currentColor' d='M0,1.330 L1.265,0.411 L0.782,-1.067 L-0.782,-1.076 L-1.265,0.411 z'/>
	<use xlink:href='#gpPt13' id='gpPt14' fill='currentColor' stroke='none'/>
	<filter id='textbox' filterUnits='objectBoundingBox' x='0' y='0' height='1' width='1'>
	  <feFlood flood-color='white' flood-opacity='1' result='bgnd'/>
	  <feComposite in='SourceGraphic' in2='bgnd' operator='atop'/>
	</filter>
	<filter id='greybox' filterUnits='objectBoundingBox' x='0' y='0' height='1' width='1'>
	  <feFlood flood-color='lightgrey' flood-opacity='1' result='grey'/>
	  <feComposite in='SourceGraphic' in2='grey' operator='atop'/>
	</filter>
</defs>
<g fill="none" color="white" stroke="currentColor" stroke-width="1.00" stroke-linecap="butt" stroke-linejoin="miter">
</g>
<g fill="none" color="black" stroke="currentColor" stroke-width="1.00" stroke-linecap="butt" stroke-linejoin="miter">
	<path stroke='black'  d='M80.2,242.4 L89.2,242.4  '/>	<g transform="translate(71.9,246.3)" stroke="none" fill="black" font-family="Helvetica" font-size="12.00"  text-anchor="end">
		<text><tspan font-family="Helvetica" > 0</tspan></text>
	</g>
</g>
<g fill="none" color="black" stroke="currentColor" stroke-width="1.00" stroke-linecap="butt" stroke-linejoin="miter">
	<path stroke='black'  d='M80.2,201.9 L89.2,201.9  '/>	<g transform="translate(71.9,205.8)" stroke="none" fill="black" font-family="Helvetica" font-size="12.00"  text-anchor="end">
		<text><tspan font-family="Helvetica" > 0.02</tspan></text>
	</g>
</g>
<g fill="none" color="black" stroke="currentColor" stroke-width="1.00" stroke-linecap="butt" stroke-linejoin="miter">
	<path stroke='black'  d='M80.2,161.5 L89.2,161.5  '/>	<g transform="translate(71.9,165.4)" stroke="none" fill="black" font-family="Helvetica" font-size="12.00"  text-anchor="end">
		<text><tspan font-family="Helvetica" > 0.04</tspan></text>
	</g>
</g>
<g fill="none" color="black" stroke="currentColor" stroke-width="1.00" stroke-linecap="butt" stroke-linejoin="miter">
	<path stroke='black'  d='M80.2,121.0 L89.2,121.0  '/>	<g transform="translate(71.9,124.9)" stroke="none" fill="black" font-family="Helvetica" font-size="12.00"  text-anchor="end">
		<text><tspan font-family="Helvetica" > 0.06</tspan></text>
	</g>
</g>
<g fill="none" color="black" stroke="currentColor" stroke-width="1.00" stroke-linecap="butt" stroke-linejoin="miter">
	<path stroke='black'  d='M80.2,80.6 L89.2,80.6  '/>	<g transform="translate(71.9,84.5)" stroke="none" fill="black" font-family="Helvetica" font-size="12.00"  text-anchor="end">
		<text><tspan font-family="Helvetica" > 0.08</tspan></text>
	</g>
</g>
<g fill="none" color="black" stroke="currentColor" stroke-width="1.00" stroke-linecap="butt" stroke-linejoin="miter">
	<path stroke='black'  d='M80.2,40.1 L89.2,40.1  '/>	<g transform="translate(71.9,44.0)" stroke="none" fill="black" font-family="Helvetica" font-size="12.00"  text-anchor="end">
		<text><tspan font-family="Helvetica" > 0.1</tspan></text>
	</g>
</g>
<g fill="none" color="black" stroke="currentColor" stroke-width="1.00" stroke-linecap="butt" stroke-linejoin="miter">
	<path stroke='black'  d='M98.1,242.4 L98.1,233.4  '/>	<g transform="translate(98.1,264.3)" stroke="none" fill="black" font-family="Helvetica" font-size="12.00"  text-anchor="middle">
		<text><tspan font-family="Helvetica" > 240</tspan></text>
	</g>
</g>
<g fill="none" color="black" stroke="currentColor" stroke-width="1.00" stroke-linecap="butt" stroke-linejoin="miter">
	<path stroke='black'  d='M147.0,242.4 L147.0,233.4  '/>	<g transform="translate(147.0,264.3)" stroke="none" fill="black" font-family="Helvetica" font-size="12.00"  text-anchor="middle">
		<text><tspan font-family="Helvetica" > 250</tspan></text>
	</g>
</g>
<g fill="none" color="black" stroke="currentColor" stroke-width="1.00" stroke-linecap="butt" stroke-linejoin="miter">
	<path stroke='black'  d='M196.0,242.4 L196.0,233.4  '/>	<g transform="translate(196.0,264.3)" stroke="none" fill="black" font-family="Helvetica" font-size="12.00"  text-anchor="middle">
		<text><tspan font-family="Helvetica" > 260</tspan></text>
	</g>
</g>
<g fill="none" color="black" stroke="currentColor" stroke-width="1.00" stroke-linecap="butt" stroke-linejoin="miter">
	<path stroke='black'  d='M245.0,242.4 L245.0,233.4  '/>	<g transform="translate(245.0,264.3)" stroke="none" fill="black" font-family="Helvetica" font-size="12.00"  text-anchor="middle">
		<text><tspan font-family="Helvetica" > 270</tspan></text>
	</g>
</g>
<g fill="none" color="black" stroke="currentColor" stroke-width="1.00" stroke-linecap="butt" stroke-linejoin="miter">
	<path stroke='black'  d='M294.0,242.4 L294.0,233.4  '/>	<g transform="translate(294.0,264.3)" stroke="none" fill="black" font-family="Helvetica" font-size="12.00"  text-anchor="middle">
		<text><tspan font-family="Helvetica" > 280</tspan></text>
	</g>
</g>
<g fill="none" color="black" stroke="currentColor" stroke-width="1.00" stroke-linecap="butt" stroke-linejoin="miter">
	<path stroke='black'  d='M343.0,242.4 L343.0,233.4  '/>	<g transform="translate(343.0,264.3)" stroke="none" fill="black" font-family="Helvetica" font-size="12.00"  text-anchor="middle">
		<text><tspan font-family="Helvetica" > 290</tspan></text>
	</g>
</g>
<g fill="none" color="black" stroke="currentColor" stroke-width="1.00" stroke-linecap="butt" stroke-linejoin="miter">
	<path stroke='black'  d='M392.0,242.4 L392.0,233.4  '/>	<g transform="translate(392.0,264.3)" stroke="none" fill="black" font-family="Helvetica" font-size="12.00"  text-anchor="middle">
		<text><tspan font-family="Helvetica" > 300</tspan></text>
	</g>
</g>
<g fill="none" color="black" stroke="currentColor" stroke-width="1.00" stroke-linecap="butt" stroke-linejoin="miter">
</g>
<g fill="none" color="black" stroke="currentColor" stroke-width="1.00" stroke-linecap="butt" stroke-linejoin="miter">
	<path stroke='black'  d='M80.2,16.7 L80.2,242.4 L425.0,242.4 L425.0,16.7 L80.2,16.7 Z  '/></g>
<g fill="none" color="black" stroke="currentColor" stroke-width="1.00" stroke-linecap="butt" stroke-linejoin="miter">
	<g transform="translate(17.0,129.6) rotate(270)" stroke="none" fill="black" font-family="Helvetica" font-size="12.00"  text-anchor="middle">
		<text><tspan font-family="Helvetica" >Density (a.u.)</tspan></text>
	</g>
</g>
<g fill="none" color="black" stroke="currentColor" stroke-width="1.00" stroke-linecap="butt" stroke-linejoin="miter">
	<g transform="translate(252.6,291.3)" stroke="none" fill="black" font-family="Helvetica" font-size="12.00"  text-anchor="middle">
		<text><tspan font-family="Helvetica" >Average time (us)</tspan></text>
	</g>
</g>
<g fill="none" color="black" stroke="currentColor" stroke-width="1.00" stroke-linecap="butt" stroke-linejoin="miter">
</g>
	<g id="gnuplot_plot_1" ><title>PDF</title>
<g fill="none" color="black" stroke="currentColor" stroke-width="1.00" stroke-linecap="butt" stroke-linejoin="miter">
	<g stroke='none' shape-rendering='crispEdges'>
		<polygon fill = 'rgb( 31, 120, 180)' fill-opacity = '0.250000' points = '80.2,241.6 80.2,242.4 80.9,242.4 80.9,241.5 '/>
		<polygon fill = 'rgb( 31, 120, 180)' fill-opacity = '0.250000' points = '80.9,241.5 80.9,242.4 81.6,242.4 81.6,241.4 '/>
		<polygon fill = 'rgb( 31, 120, 180)' fill-opacity = '0.250000' points = '81.6,241.4 81.6,242.4 82.3,242.4 82.3,241.2 '/>
		<polygon fill = 'rgb( 31, 120, 180)' fill-opacity = '0.250000' points = '82.3,241.2 82.3,242.4 83.0,242.4 83.0,241.0 '/>
		<polygon fill = 'rgb( 31, 120, 180)' fill-opacity = '0.250000' points = '83.0,241.0 83.0,242.4 83.7,242.4 83.7,240.8 '/>
		<polygon fill = 'rgb( 31, 120, 180)' fill-opacity = '0.250000' points = '83.7,240.8 83.7,242.4 84.3,242.4 84.3,240.6 '/>
		<polygon fill = 'rgb( 31, 120, 180)' fill-opacity = '0.250000' points = '84.3,240.6 84.3,242.4 85.0,242.4 85.0,240.3 '/>
		<polygon fill = 'rgb( 31, 120, 180)' fill-opacity = '0.250000' points = '85.0,240.3 85.0,242.4 85.7,242.4 85.7,240.0 '/>
		<polygon fill = 'rgb( 31, 120, 180)' fill-opacity = '0.250000' points = '85.7,240.0 85.7,242.4 86.4,242.4 86.4,239.7 '/>
		<polygon fill = 'rgb( 31, 120, 180)' fill-opacity = '0.250000' points = '86.4,239.7 86.4,242.4 87.1,242.4 87.1,239.3 '/>
		<polygon fill = 'rgb( 31, 120, 180)' fill-opacity = '0.250000' points = '87.1,239.3 87.1,242.4 87.8,242.4 87.8,238.9 '/>
		<polygon fill = 'rgb( 31, 120, 180)' fill-opacity = '0.250000' points = '87.8,238.9 87.8,242.4 88.5,242.4 88.5,238.5 '/>
		<polygon fill = 'rgb( 31, 120, 180)' fill-opacity = '0.250000' points = '88.5,238.5 88.5,242.4 89.2,242.4 89.2,237.9 '/>
		<polygon fill = 'rgb( 31, 120, 180)' fill-opacity = '0.250000' points = '89.2,237.9 89.2,242.4 89.9,242.4 89.9,237.4 '/>
		<polygon fill = 'rgb( 31, 120, 180)' fill-opacity = '0.250000' points = '89.9,237.4 89.9,242.4 90.6,242.4 90.6,236.7 '/>
		<polygon fill = 'rgb( 31, 120, 180)' fill-opacity = '0.250000' points = '90.6,236.7 90.6,242.4 91.3,242.4 91.3,236.0 '/>
		<polygon fill = 'rgb( 31, 120, 180)' fill-opacity = '0.250000' points = '91.3,236.0 91.3,242.4 91.9,242.4 91.9,235.2 '/>
		<polygon fill = 'rgb( 31, 120, 180)' fill-opacity = '0.250000' points = '91.9,235.2 91.9,242.4 92.6,242.4 92.6,234.3 '/>
		<polygon fill = 'rgb( 31, 120, 180)' fill-opacity = '0.250000' points = '92.6,234.3 92.6,242.4 93.3,242.4 93.3,233.4 '/>
		<polygon fill = 'rgb( 31, 120, 180)' fill-opacity = '0.250000' points = '93.3,233.4 93.3,242.4 94.0,242.4 94.0,232.3 '/>
		<polygon fill = 'rgb( 31, 120, 180)' fill-opacity = '0.250000' points = '94.0,232.3 94.0,242.4 94.7,242.4 94.7,231.2 '/>
		<polygon fill = 'rgb( 31, 120, 180)' fill-opacity = '0.250000' points = '94.7,231.2 94.7,242.4 95.4,242.4 95.4,229.9 '/>
		<polygon fill = 'rgb( 31, 120, 180)' fill-opacity = '0.250000' points = '95.4,229.9 95.4,242.4 96.1,242.4 96.1,228.6 '/>
		<polygon fill = 'rgb( 31, 120, 180)' fill-opacity = '0.250000' points = '96.1,228.6 96.1,242.4 96.8,242.4 96.8,227.1 '/>
		<polygon fill = 'rgb( 31, 120, 180)' fill-opacity = '0.250000' points = '96.8,227.1 96.8,242.4 97.5,242.4 97.5,225.5 '/>
		<polygon fill = 'rgb( 31, 120, 180)' fill-opacity = '0.250000' points = '97.5,225.5 97.5,242.4 98.2,242.4 98.2,223.7 '/>
		<polygon fill = 'rgb( 31, 120, 180)' fill-opacity = '0.250000' points = '98.2,223.7 98.2,242.4 98.9,242.4 98.9,221.8 '/>
		<polygon fill = 'rgb( 31, 120, 180)' fill-opacity = '0.250000' points = '98.9,221.8 98.9,242.4 99.5,242.4 99.5,219.8 '/>
		<polygon fill = 'rgb( 31, 120, 180)' fill-opacity = '0.250000' points = '99.5,219.8 99.5,242.4 100.2,242.4 100.2,217.6 '/>
		<polygon fill = 'rgb( 31, 120, 180)' fill-opacity = '0.250000' points = '100.2,217.6 100.2,242.4 100.9,242.4 100.9,215.2 '/>
		<polygon fill = 'rgb( 31, 120, 180)' fill-opacity = '0.250000' points = '100.9,215.2 100.9,242.4 101.6,242.4 101.6,212.7 '/>
		<polygon fill = 'rgb( 31, 120, 180)' fill-opacity = '0.250000' points = '101.6,212.7 101.6,242.4 102.3,242.4 102.3,210.0 '/>
		<polygon fill = 'rgb( 31, 120, 180)' fill-opacity = '0.250000' points = '102.3,210.0 102.3,242.4 103.0,242.4 103.0,207.2 '/>
		<polygon fill = 'rgb( 31, 120, 180)' fill-opacity = '0.250000' points = '103.0,207.2 103.0,242.4 103.7,242.4 103.7,204.1 '/>
		<polygon fill = 'rgb( 31, 120, 180)' fill-opacity = '0.250000' points = '103.7,204.1 103.7,242.4 104.4,242.4 104.4,200.9 '/>
		<polygon fill = 'rgb( 31, 120, 180)' fill-opacity = '0.250000' points = '104.4,200.9 104.4,242.4 105.1,242.4 105.1,197.5 '/>
		<polygon fill = 'rgb( 31, 120, 180)' fill-opacity = '0.250000' points = '105.1,197.5 105.1,242.4 105.8,242.4 105.8,193.9 '/>
		<polygon fill = 'rgb( 31, 120, 180)' fill-opacity = '0.250000' points = '105.8,193.9 105.8,242.4 106.5,242.4 106.5,190.1 '/>
		<polygon fill = 'rgb( 31, 120, 180)' fill-opacity = '0.250000' points = '106.5,190.1 106.5,242.4 107.1,242.4 107.1,186.1 '/>
		<polygon fill = 'rgb( 31, 120, 180)' fill-opacity = '0.250000' points = '107.1,186.1 107.1,242.4 107.8,242.4 107.8,182.0 '/>
		<polygon fill = 'rgb( 31, 120, 180)' fill-opacity = '0.250000' points = '107.8,182.0 107.8,242.4 108.5,242.4 108.5,177.7 '/>
		<polygon fill = 'rgb( 31, 120, 180)' fill-opacity = '0.250000' points = '108.5,177.7 108.5,242.4 109.2,242.4 109.2,173.1 '/>
		<polygon fill = 'rgb( 31, 120, 180)' fill-opacity = '0.250000' points = '109.2,173.1 109.2,242.4 109.9,242.4 109.9,168.5 '/>
		<polygon fill = 'rgb( 31, 120, 180)' fill-opacity = '0.250000' points = '109.9,168.5 109.9,242.4 110.6,242.4 110.6,163.6 '/>
		<polygon fill = 'rgb( 31, 120, 180)' fill-opacity = '0.250000' points = '110.6,163.6 110.6,242.4 111.3,242.4 111.3,158.6 '/>
		<polygon fill = 'rgb( 31, 120, 180)' fill-opacity = '0.250000' points = '111.3,158.6 111.3,242.4 112.0,242.4 112.0,153.4 '/>
		<polygon fill = 'rgb( 31, 120, 180)' fill-opacity = '0.250000' points = '112.0,153.4 112.0,242.4 112.7,242.4 112.7,148.1 '/>
		<polygon fill = 'rgb( 31, 120, 180)' fill-opacity = '0.250000' points = '112.7,148.1 112.7,242.4 113.4,242.4 113.4,142.7 '/>
		<polygon fill = 'rgb( 31, 120, 180)' fill-opacity = '0.250000' points = '113.4,142.7 113.4,242.4 114.1,242.4 114.1,137.2 '/>
		<polygon fill = 'rgb( 31, 120, 180)' fill-opacity = '0.250000' points = '114.1,137.2 114.1,242.4 114.7,242.4 114.7,131.6 '/>
		<polygon fill = 'rgb( 31, 120, 180)' fill-opacity = '0.250000' points = '114.7,131.6 114.7,242.4 115.4,242.4 115.4,125.8 '/>
		<polygon fill = 'rgb( 31, 120, 180)' fill-opacity = '0.250000' points = '115.4,125.8 115.4,242.4 116.1,242.4 116.1,120.1 '/>
		<polygon fill = 'rgb( 31, 120, 180)' fill-opacity = '0.250000' points = '116.1,120.1 116.1,242.4 116.8,242.4 116.8,114.2 '/>
		<polygon fill = 'rgb( 31, 120, 180)' fill-opacity = '0.250000' points = '116.8,114.2 116.8,242.4 117.5,242.4 117.5,108.4 '/>
		<polygon fill = 'rgb( 31, 120, 180)' fill-opacity = '0.250000' points = '117.5,108.4 117.5,242.4 118.2,242.4 118.2,102.5 '/>
		<polygon fill = 'rgb( 31, 120, 180)' fill-opacity = '0.250000' points = '118.2,102.5 118.2,242.4 118.9,242.4 118.9,96.7 '/>
		<polygon fill = 'rgb( 31, 120, 180)' fill-opacity = '0.250000' points = '118.9,96.7 118.9,242.4 119.6,242.4 119.6,90.9 '/>
		<polygon fill = 'rgb( 31, 120, 180)' fill-opacity = '0.250000' points = '119.6,90.9 119.6,242.4 120.3,242.4 120.3,85.2 '/>
		<polygon fill = 'rgb( 31, 120, 180)' fill-opacity = '0.250000' points = '120.3,85.2 120.3,242.4 121.0,242.4 121.0,79.5 '/>
		<polygon fill = 'rgb( 31, 120, 180)' fill-opacity = '0.250000' points = '121.0,79.5 121.0,242.4 121.7,242.4 121.7,74.0 '/>
		<polygon fill = 'rgb( 31, 120, 180)' fill-opacity = '0.250000' points = '121.7,74.0 121.7,242.4 122.3,242.4 122.3,68.6 '/>
		<polygon fill = 'rgb( 31, 120, 180)' fill-opacity = '0.250000' points = '122.3,68.6 122.3,242.4 123.0,242.4 123.0,63.3 '/>
		<polygon fill = 'rgb( 31, 120, 180)' fill-opacity = '0.250000' points = '123.0,63.3 123.0,242.4 123.7,242.4 123.7,58.3 '/>
		<polygon fill = 'rgb( 31, 120, 180)' fill-opacity = '0.250000' points = '123.7,58.3 123.7,242.4 124.4,242.4 124.4,53.4 '/>
		<polygon fill = 'rgb( 31, 120, 180)' fill-opacity = '0.250000' points = '124.4,53.4 124.4,242.4 125.1,242.4 125.1,48.8 '/>
		<polygon fill = 'rgb( 31, 120, 180)' fill-opacity = '0.250000' points = '125.1,48.8 125.1,242.4 125.8,242.4 125.8,44.4 '/>
		<polygon fill = 'rgb( 31, 120, 180)' fill-opacity = '0.250000' points = '125.8,44.4 125.8,242.4 126.5,242.4 126.5,40.2 '/>
		<polygon fill = 'rgb( 31, 120, 180)' fill-opacity = '0.250000' points = '126.5,40.2 126.5,242.4 127.2,242.4 127.2,36.4 '/>
		<polygon fill = 'rgb( 31, 120, 180)' fill-opacity = '0.250000' points = '127.2,36.4 127.2,242.4 127.9,242.4 127.9,32.8 '/>
		<polygon fill = 'rgb( 31, 120, 180)' fill-opacity = '0.250000' points = '127.9,32.8 127.9,242.4 128.6,242.4 128.6,29.6 '/>
		<polygon fill = 'rgb( 31, 120, 180)' fill-opacity = '0.250000' points = '128.6,29.6 128.6,242.4 129.3,242.4 129.3,26.7 '/>
		<polygon fill = 'rgb( 31, 120, 180)' fill-opacity = '0.250000' points = '129.3,26.7 129.3,242.4 130.0,242.4 130.0,24.2 '/>
		<polygon fill = 'rgb( 31, 120, 180)' fill-opacity = '0.250000' points = '130.0,24.2 130.0,242.4 130.6,242.4 130.6,22.0 '/>
		<polygon fill = 'rgb( 31, 120, 180)' fill-opacity = '0.250000' points = '130.6,22.0 130.6,242.4 131.3,242.4 131.3,20.2 '/>
		<polygon fill = 'rgb( 31, 120, 180)' fill-opacity = '0.250000' points = '131.3,20.2 131.3,242.4 132.0,242.4 132.0,18.7 '/>
		<polygon fill = 'rgb( 31, 120, 180)' fill-opacity = '0.250000' points = '132.0,18.7 132.0,242.4 132.7,242.4 132.7,17.7 '/>
		<polygon fill = 'rgb( 31, 120, 180)' fill-opacity = '0.250000' points = '132.7,17.7 132.7,242.4 133.4,242.4 133.4,17.0 '/>
		<polygon fill = 'rgb( 31, 120, 180)' fill-opacity = '0.250000' points = '133.4,17.0 133.4,242.4 134.1,242.4 134.1,16.7 '/>
		<polygon fill = 'rgb( 31, 120, 180)' fill-opacity = '0.250000' points = '134.1,16.7 134.1,242.4 134.8,242.4 134.8,16.8 '/>
		<polygon fill = 'rgb( 31, 120, 180)' fill-opacity = '0.250000' points = '134.8,16.8 134.8,242.4 135.5,242.4 135.5,17.3 '/>
		<polygon fill = 'rgb( 31, 120, 180)' fill-opacity = '0.250000' points = '135.5,17.3 135.5,242.4 136.2,242.4 136.2,18.1 '/>
		<polygon fill = 'rgb( 31, 120, 180)' fill-opacity = '0.250000' points = '136.2,18.1 136.2,242.4 136.9,242.4 136.9,19.3 '/>
		<polygon fill = 'rgb( 31, 120, 180)' fill-opacity = '0.250000' points = '136.9,19.3 136.9,242.4 137.6,242.4 137.6,20.9 '/>
		<polygon fill = 'rgb( 31, 120, 180)' fill-opacity = '0.250000' points = '137.6,20.9 137.6,242.4 138.2,242.4 138.2,22.8 '/>
		<polygon fill = 'rgb( 31, 120, 180)' fill-opacity = '0.250000' points = '138.2,22.8 138.2,242.4 138.9,242.4 138.9,25.1 '/>
		<polygon fill = 'rgb( 31, 120, 180)' fill-opacity = '0.250000' points = '138.9,25.1 138.9,242.4 139.6,242.4 139.6,27.6 '/>
		<polygon fill = 'rgb( 31, 120, 180)' fill-opacity = '0.250000' points = '139.6,27.6 139.6,242.4 140.3,242.4 140.3,30.5 '/>
		<polygon fill = 'rgb( 31, 120, 180)' fill-opacity = '0.250000' points = '140.3,30.5 140.3,242.4 141.0,242.4 141.0,33.7 '/>
		<polygon fill = 'rgb( 31, 120, 180)' fill-opacity = '0.250000' points = '141.0,33.7 141.0,242.4 141.7,242.4 141.7,37.1 '/>
		<polygon fill = 'rgb( 31, 120, 180)' fill-opacity = '0.250000' points = '141.7,37.1 141.7,242.4 142.4,242.4 142.4,40.8 '/>
		<polygon fill = 'rgb( 31, 120, 180)' fill-opacity = '0.250000' points = '142.4,40.8 142.4,242.4 143.1,242.4 143.1,44.7 '/>
		<polygon fill = 'rgb( 31, 120, 180)' fill-opacity = '0.250000' points = '143.1,44.7 143.1,242.4 143.8,242.4 143.8,48.8 '/>
		<polygon fill = 'rgb( 31, 120, 180)' fill-opacity = '0.250000' points = '143.8,48.8 143.8,242.4 144.5,242.4 144.5,53.1 '/>
		<polygon fill = 'rgb( 31, 120, 180)' fill-opacity = '0.250000' points = '144.5,53.1 144.5,242.4 145.2,242.4 145.2,57.6 '/>
		<polygon fill = 'rgb( 31, 120, 180)' fill-opacity = '0.250000' points = '145.2,57.6 145.2,242.4 145.8,242.4 145.8,62.2 '/>
		<polygon fill = 'rgb( 31, 120, 180)' fill-opacity = '0.250000' points = '145.8,62.2 145.8,242.4 146.5,242.4 146.5,67.0 '/>
		<polygon fill = 'rgb( 31, 120, 180)' fill-opacity = '0.250000' points = '146.5,67.0 146.5,242.4 147.2,242.4 147.2,71.8 '/>
		<polygon fill = 'rgb( 31, 120, 180)' fill-opacity = '0.250000' points = '147.2,71.8 147.2,242.4 147.9,242.4 147.9,76.8 '/>
		<polygon fill = 'rgb( 31, 120, 180)' fill-opacity = '0.250000' points = '147.9,76.8 147.9,242.4 148.6,242.4 148.6,81.8 '/>
		<polygon fill = 'rgb( 31, 120, 180)' fill-opacity = '0.250000' points = '148.6,81.8 148.6,242.4 149.3,242.4 149.3,86.8 '/>
		<polygon fill = 'rgb( 31, 120, 180)' fill-opacity = '0.250000' points = '149.3,86.8 149.3,242.4 150.0,242.4 150.0,91.9 '/>
		<polygon fill = 'rgb( 31, 120, 180)' fill-opacity = '0.250000' points = '150.0,91.9 150.0,242.4 150.7,242.4 150.7,96.9 '/>
		<polygon fill = 'rgb( 31, 120, 180)' fill-opacity = '0.250000' points = '150.7,96.9 150.7,242.4 151.4,242.4 151.4,102.0 '/>
		<polygon fill = 'rgb( 31, 120, 180)' fill-opacity = '0.250000' points = '151.4,102.0 151.4,242.4 152.1,242.4 152.1,107.0 '/>
		<polygon fill = 'rgb( 31, 120, 180)' fill-opacity = '0.250000' points = '152.1,107.0 152.1,242.4 152.8,242.4 152.8,112.0 '/>
		<polygon fill = 'rgb( 31, 120, 180)' fill-opacity = '0.250000' points = '152.8,112.0 152.8,242.4 153.4,242.4 153.4,116.9 '/>
		<polygon fill = 'rgb( 31, 120, 180)' fill-opacity = '0.250000' points = '153.4,116.9 153.4,242.4 154.1,242.4 154.1,121.7 '/>
		<polygon fill = 'rgb( 31, 120, 180)' fill-opacity = '0.250000' points = '154.1,121.7 154.1,242.4 154.8,242.4 154.8,126.5 '/>
		<polygon fill = 'rgb( 31, 120, 180)' fill-opacity = '0.250000' points = '154.8,126.5 154.8,242.4 155.5,242.4 155.5,131.1 '/>
		<polygon fill = 'rgb( 31, 120, 180)' fill-opacity = '0.250000' points = '155.5,131.1 155.5,242.4 156.2,242.4 156.2,135.7 '/>
		<polygon fill = 'rgb( 31, 120, 180)' fill-opacity = '0.250000' points = '156.2,135.7 156.2,242.4 156.9,242.4 156.9,140.1 '/>
		<polygon fill = 'rgb( 31, 120, 180)' fill-opacity = '0.250000' points = '156.9,140.1 156.9,242.4 157.6,242.4 157.6,144.4 '/>
		<polygon fill = 'rgb( 31, 120, 180)' fill-opacity = '0.250000' points = '157.6,144.4 157.6,242.4 158.3,242.4 158.3,148.6 '/>
		<polygon fill = 'rgb( 31, 120, 180)' fill-opacity = '0.250000' points = '158.3,148.6 158.3,242.4 159.0,242.4 159.0,152.6 '/>
		<polygon fill = 'rgb( 31, 120, 180)' fill-opacity = '0.250000' points = '159.0,152.6 159.0,242.4 159.7,242.4 159.7,156.5 '/>
		<polygon fill = 'rgb( 31, 120, 180)' fill-opacity = '0.250000' points = '159.7,156.5 159.7,242.4 160.4,242.4 160.4,160.3 '/>
		<polygon fill = 'rgb( 31, 120, 180)' fill-opacity = '0.250000' points = '160.4,160.3 160.4,242.4 161.0,242.4 161.0,163.9 '/>
		<polygon fill = 'rgb( 31, 120, 180)' fill-opacity = '0.250000' points = '161.0,163.9 161.0,242.4 161.7,242.4 161.7,167.4 '/>
		<polygon fill = 'rgb( 31, 120, 180)' fill-opacity = '0.250000' points = '161.7,167.4 161.7,242.4 162.4,242.4 162.4,170.7 '/>
		<polygon fill = 'rgb( 31, 120, 180)' fill-opacity = '0.250000' points = '162.4,170.7 162.4,242.4 163.1,242.4 163.1,173.9 '/>
		<polygon fill = 'rgb( 31, 120, 180)' fill-opacity = '0.250000' points = '163.1,173.9 163.1,242.4 163.8,242.4 163.8,176.9 '/>
		<polygon fill = 'rgb( 31, 120, 180)' fill-opacity = '0.250000' points = '163.8,176.9 163.8,242.4 164.5,242.4 164.5,179.8 '/>
		<polygon fill = 'rgb( 31, 120, 180)' fill-opacity = '0.250000' points = '164.5,179.8 164.5,242.4 165.2,242.4 165.2,182.5 '/>
		<polygon fill = 'rgb( 31, 120, 180)' fill-opacity = '0.250000' points = '165.2,182.5 165.2,242.4 165.9,242.4 165.9,185.1 '/>
		<polygon fill = 'rgb( 31, 120, 180)' fill-opacity = '0.250000' points = '165.9,185.1 165.9,242.4 166.6,242.4 166.6,187.6 '/>
		<polygon fill = 'rgb( 31, 120, 180)' fill-opacity = '0.250000' points = '166.6,187.6 166.6,242.4 167.3,242.4 167.3,189.9 '/>
		<polygon fill = 'rgb( 31, 120, 180)' fill-opacity = '0.250000' points = '167.3,189.9 167.3,242.4 168.0,242.4 168.0,192.1 '/>
		<polygon fill = 'rgb( 31, 120, 180)' fill-opacity = '0.250000' points = '168.0,192.1 168.0,242.4 168.6,242.4 168.6,194.2 '/>
		<polygon fill = 'rgb( 31, 120, 180)' fill-opacity = '0.250000' points = '168.6,194.2 168.6,242.4 169.3,242.4 169.3,196.1 '/>
		<polygon fill = 'rgb( 31, 120, 180)' fill-opacity = '0.250000' points = '169.3,196.1 169.3,242.4 170.0,242.4 170.0,198.0 '/>
		<polygon fill = 'rgb( 31, 120, 180)' fill-opacity = '0.250000' points = '170.0,198.0 170.0,242.4 170.7,242.4 170.7,199.7 '/>
		<polygon fill = 'rgb( 31, 120, 180)' fill-opacity = '0.250000' points = '170.7,199.7 170.7,242.4 171.4,242.4 171.4,201.3 '/>
		<polygon fill = 'rgb( 31, 120, 180)' fill-opacity = '0.250000' points = '171.4,201.3 171.4,242.4 172.1,242.4 172.1,202.8 '/>
		<polygon fill = 'rgb( 31, 120, 180)' fill-opacity = '0.250000' points = '172.1,202.8 172.1,242.4 172.8,242.4 172.8,204.3 '/>
		<polygon fill = 'rgb( 31, 120, 180)' fill-opacity = '0.250000' points = '172.8,204.3 172.8,242.4 173.5,242.4 173.5,205.6 '/>
		<polygon fill = 'rgb( 31, 120, 180)' fill-opacity = '0.250000' points = '173.5,205.6 173.5,242.4 174.2,242.4 174.2,206.9 '/>
		<polygon fill = 'rgb( 31, 120, 180)' fill-opacity = '0.250000' points = '174.2,206.9 174.2,242.4 174.9,242.4 174.9,208.0 '/>
		<polygon fill = 'rgb( 31, 120, 180)' fill-opacity = '0.250000' points = '174.9,208.0 174.9,242.4 175.6,242.4 175.6,209.1 '/>
		<polygon fill = 'rgb( 31, 120, 180)' fill-opacity = '0.250000' points = '175.6,209.1 175.6,242.4 176.2,242.4 176.2,210.1 '/>
		<polygon fill = 'rgb( 31, 120, 180)' fill-opacity = '0.250000' points = '176.2,210.1 176.2,242.4 176.9,242.4 176.9,211.1 '/>
		<polygon fill = 'rgb( 31, 120, 180)' fill-opacity = '0.250000' points = '176.9,211.1 176.9,242.4 177.6,242.4 177.6,212.0 '/>
		<polygon fill = 'rgb( 31, 120, 180)' fill-opacity = '0.250000' points = '177.6,212.0 177.6,242.4 178.3,242.4 178.3,212.8 '/>
		<polygon fill = 'rgb( 31, 120, 180)' fill-opacity = '0.250000' points = '178.3,212.8 178.3,242.4 179.0,242.4 179.0,213.6 '/>
		<polygon fill = 'rgb( 31, 120, 180)' fill-opacity = '0.250000' points = '179.0,213.6 179.0,242.4 179.7,242.4 179.7,214.3 '/>
		<polygon fill = 'rgb( 31, 120, 180)' fill-opacity = '0.250000' points = '179.7,214.3 179.7,242.4 180.4,242.4 180.4,215.0 '/>
		<polygon fill = 'rgb( 31, 120, 180)' fill-opacity = '0.250000' points = '180.4,215.0 180.4,242.4 181.1,242.4 181.1,215.6 '/>
		<polygon fill = 'rgb( 31, 120, 180)' fill-opacity = '0.250000' points = '181.1,215.6 181.1,242.4 181.8,242.4 181.8,216.2 '/>
		<polygon fill = 'rgb( 31, 120, 180)' fill-opacity = '0.250000' points = '181.8,216.2 181.8,242.4 182.5,242.4 182.5,216.8 '/>
		<polygon fill = 'rgb( 31, 120, 180)' fill-opacity = '0.250000' points = '182.5,216.8 182.5,242.4 183.2,242.4 183.2,217.3 '/>
		<polygon fill = 'rgb( 31, 120, 180)' fill-opacity = '0.250000' points = '183.2,217.3 183.2,242.4 183.8,242.4 183.8,217.8 '/>
		<polygon fill = 'rgb( 31, 120, 180)' fill-opacity = '0.250000' points = '183.8,217.8 183.8,242.4 184.5,242.4 184.5,218.2 '/>
		<polygon fill = 'rgb( 31, 120, 180)' fill-opacity = '0.250000' points = '184.5,218.2 184.5,242.4 185.2,242.4 185.2,218.7 '/>
		<polygon fill = 'rgb( 31, 120, 180)' fill-opacity = '0.250000' points = '185.2,218.7 185.2,242.4 185.9,242.4 185.9,219.1 '/>
		<polygon fill = 'rgb( 31, 120, 180)' fill-opacity = '0.250000' points = '185.9,219.1 185.9,242.4 186.6,242.4 186.6,219.5 '/>
		<polygon fill = 'rgb( 31, 120, 180)' fill-opacity = '0.250000' points = '186.6,219.5 186.6,242.4 187.3,242.4 187.3,219.9 '/>
		<polygon fill = 'rgb( 31, 120, 180)' fill-opacity = '0.250000' points = '187.3,219.9 187.3,242.4 188.0,242.4 188.0,220.2 '/>
		<polygon fill = 'rgb( 31, 120, 180)' fill-opacity = '0.250000' points = '188.0,220.2 188.0,242.4 188.7,242.4 188.7,220.6 '/>
		<polygon fill = 'rgb( 31, 120, 180)' fill-opacity = '0.250000' points = '188.7,220.6 188.7,242.4 189.4,242.4 189.4,220.9 '/>
		<polygon fill = 'rgb( 31, 120, 180)' fill-opacity = '0.250000' points = '189.4,220.9 189.4,242.4 190.1,242.4 190.1,221.3 '/>
		<polygon fill = 'rgb( 31, 120, 180)' fill-opacity = '0.250000' points = '190.1,221.3 190.1,242.4 190.8,242.4 190.8,221.6 '/>
		<polygon fill = 'rgb( 31, 120, 180)' fill-opacity = '0.250000' points = '190.8,221.6 190.8,242.4 191.4,242.4 191.4,221.9 '/>
		<polygon fill = 'rgb( 31, 120, 180)' fill-opacity = '0.250000' points = '191.4,221.9 191.4,242.4 192.1,242.4 192.1,222.2 '/>
		<polygon fill = 'rgb( 31, 120, 180)' fill-opacity = '0.250000' points = '192.1,222.2 192.1,242.4 192.8,242.4 192.8,222.5 '/>
		<polygon fill = 'rgb( 31, 120, 180)' fill-opacity = '0.250000' points = '192.8,222.5 192.8,242.4 193.5,242.4 193.5,222.8 '/>
		<polygon fill = 'rgb( 31, 120, 180)' fill-opacity = '0.250000' points = '193.5,222.8 193.5,242.4 194.2,242.4 194.2,223.1 '/>
		<polygon fill = 'rgb( 31, 120, 180)' fill-opacity = '0.250000' points = '194.2,223.1 194.2,242.4 194.9,242.4 194.9,223.4 '/>
		<polygon fill = 'rgb( 31, 120, 180)' fill-opacity = '0.250000' points = '194.9,223.4 194.9,242.4 195.6,242.4 195.6,223.7 '/>
		<polygon fill = 'rgb( 31, 120, 180)' fill-opacity = '0.250000' points = '195.6,223.7 195.6,242.4 196.3,242.4 196.3,224.0 '/>
		<polygon fill = 'rgb( 31, 120, 180)' fill-opacity = '0.250000' points = '196.3,224.0 196.3,242.4 197.0,242.4 197.0,224.3 '/>
		<polygon fill = 'rgb( 31, 120, 180)' fill-opacity = '0.250000' points = '197.0,224.3 197.0,242.4 197.7,242.4 197.7,224.6 '/>
		<polygon fill = 'rgb( 31, 120, 180)' fill-opacity = '0.250000' points = '197.7,224.6 197.7,242.4 198.4,242.4 198.4,224.9 '/>
		<polygon fill = 'rgb( 31, 120, 180)' fill-opacity = '0.250000' points = '198.4,224.9 198.4,242.4 199.0,242.4 199.0,225.2 '/>
		<polygon fill = 'rgb( 31, 120, 180)' fill-opacity = '0.250000' points = '199.0,225.2 199.0,242.4 199.7,242.4 199.7,225.5 '/>
		<polygon fill = 'rgb( 31, 120, 180)' fill-opacity = '0.250000' points = '199.7,225.5 199.7,242.4 200.4,242.4 200.4,225.8 '/>
		<polygon fill = 'rgb( 31, 120, 180)' fill-opacity = '0.250000' points = '200.4,225.8 200.4,242.4 201.1,242.4 201.1,226.1 '/>
		<polygon fill = 'rgb( 31, 120, 180)' fill-opacity = '0.250000' points = '201.1,226.1 201.1,242.4 201.8,242.4 201.8,226.4 '/>
		<polygon fill = 'rgb( 31, 120, 180)' fill-opacity = '0.250000' points = '201.8,226.4 201.8,242.4 202.5,242.4 202.5,226.8 '/>
		<polygon fill = 'rgb( 31, 120, 180)' fill-opacity = '0.250000' points = '202.5,226.8 202.5,242.4 203.2,242.4 203.2,227.1 '/>
		<polygon fill = 'rgb( 31, 120, 180)' fill-opacity = '0.250000' points = '203.2,227.1 203.2,242.4 203.9,242.4 203.9,227.5 '/>
		<polygon fill = 'rgb( 31, 120, 180)' fill-opacity = '0.250000' points = '203.9,227.5 203.9,242.4 204.6,242.4 204.6,227.8 '/>
		<polygon fill = 'rgb( 31, 120, 180)' fill-opacity = '0.250000' points = '204.6,227.8 204.6,242.4 205.3,242.4 205.3,228.1 '/>
		<polygon fill = 'rgb( 31, 120, 180)' fill-opacity = '0.250000' points = '205.3,228.1 205.3,242.4 206.0,242.4 206.0,228.5 '/>
		<polygon fill = 'rgb( 31, 120, 180)' fill-opacity = '0.250000' points = '206.0,228.5 206.0,242.4 206.6,242.4 206.6,228.9 '/>
		<polygon fill = 'rgb( 31, 120, 180)' fill-opacity = '0.250000' points = '206.6,228.9 206.6,242.4 207.3,242.4 207.3,229.2 '/>
		<polygon fill = 'rgb( 31, 120, 180)' fill-opacity = '0.250000' points = '207.3,229.2 207.3,242.4 208.0,242.4 208.0,229.6 '/>
		<polygon fill = 'rgb( 31, 120, 180)' fill-opacity = '0.250000' points = '208.0,229.6 208.0,242.4 208.7,242.4 208.7,229.9 '/>
		<polygon fill = 'rgb( 31, 120, 180)' fill-opacity = '0.250000' points = '208.7,229.9 208.7,242.4 209.4,242.4 209.4,230.3 '/>
		<polygon fill = 'rgb( 31, 120, 180)' fill-opacity = '0.250000' points = '209.4,230.3 209.4,242.4 210.1,242.4 210.1,230.7 '/>
		<polygon fill = 'rgb( 31, 120, 180)' fill-opacity = '0.250000' points = '210.1,230.7 210.1,242.4 210.8,242.4 210.8,231.1 '/>
		<polygon fill = 'rgb( 31, 120, 180)' fill-opacity = '0.250000' points = '210.8,231.1 210.8,242.4 211.5,242.4 211.5,231.4 '/>
		<polygon fill = 'rgb( 31, 120, 180)' fill-opacity = '0.250000' points = '211.5,231.4 211.5,242.4 212.2,242.4 212.2,231.8 '/>
		<polygon fill = 'rgb( 31, 120, 180)' fill-opacity = '0.250000' points = '212.2,231.8 212.2,242.4 212.9,242.4 212.9,232.2 '/>
		<polygon fill = 'rgb( 31, 120, 180)' fill-opacity = '0.250000' points = '212.9,232.2 212.9,242.4 213.6,242.4 213.6,232.5 '/>
		<polygon fill = 'rgb( 31, 120, 180)' fill-opacity = '0.250000' points = '213.6,232.5 213.6,242.4 214.3,242.4 214.3,232.9 '/>
		<polygon fill = 'rgb( 31, 120, 180)' fill-opacity = '0.250000' points = '214.3,232.9 214.3,242.4 214.9,242.4 214.9,233.3 '/>
		<polygon fill = 'rgb( 31, 120, 180)' fill-opacity = '0.250000' points = '214.9,233.3 214.9,242.4 215.6,242.4 215.6,233.6 '/>
		<polygon fill = 'rgb( 31, 120, 180)' fill-opacity = '0.250000' points = '215.6,233.6 215.6,242.4 216.3,242.4 216.3,234.0 '/>
		<polygon fill = 'rgb( 31, 120, 180)' fill-opacity = '0.250000' points = '216.3,234.0 216.3,242.4 217.0,242.4 217.0,234.3 '/>
		<polygon fill = 'rgb( 31, 120, 180)' fill-opacity = '0.250000' points = '217.0,234.3 217.0,242.4 217.7,242.4 217.7,234.7 '/>
		<polygon fill = 'rgb( 31, 120, 180)' fill-opacity = '0.250000' points = '217.7,234.7 217.7,242.4 218.4,242.4 218.4,235.0 '/>
		<polygon fill = 'rgb( 31, 120, 180)' fill-opacity = '0.250000' points = '218.4,235.0 218.4,242.4 219.1,242.4 219.1,235.3 '/>
		<polygon fill = 'rgb( 31, 120, 180)' fill-opacity = '0.250000' points = '219.1,235.3 219.1,242.4 219.8,242.4 219.8,235.6 '/>
		<polygon fill = 'rgb( 31, 120, 180)' fill-opacity = '0.250000' points = '219.8,235.6 219.8,242.4 220.5,242.4 220.5,235.9 '/>
		<polygon fill = 'rgb( 31, 120, 180)' fill-opacity = '0.250000' points = '220.5,235.9 220.5,242.4 221.2,242.4 221.2,236.2 '/>
		<polygon fill = 'rgb( 31, 120, 180)' fill-opacity = '0.250000' points = '221.2,236.2 221.2,242.4 221.9,242.4 221.9,236.5 '/>
		<polygon fill = 'rgb( 31, 120, 180)' fill-opacity = '0.250000' points = '221.9,236.5 221.9,242.4 222.5,242.4 222.5,236.8 '/>
		<polygon fill = 'rgb( 31, 120, 180)' fill-opacity = '0.250000' points = '222.5,236.8 222.5,242.4 223.2,242.4 223.2,237.1 '/>
		<polygon fill = 'rgb( 31, 120, 180)' fill-opacity = '0.250000' points = '223.2,237.1 223.2,242.4 223.9,242.4 223.9,237.3 '/>
		<polygon fill = 'rgb( 31, 120, 180)' fill-opacity = '0.250000' points = '223.9,237.3 223.9,242.4 224.6,242.4 224.6,237.6 '/>
		<polygon fill = 'rgb( 31, 120, 180)' fill-opacity = '0.250000' points = '224.6,237.6 224.6,242.4 225.3,242.4 225.3,237.8 '/>
		<polygon fill = 'rgb( 31, 120, 180)' fill-opacity = '0.250000' points = '225.3,237.8 225.3,242.4 226.0,242.4 226.0,238.0 '/>
		<polygon fill = 'rgb( 31, 120, 180)' fill-opacity = '0.250000' points = '226.0,238.0 226.0,242.4 226.7,242.4 226.7,238.2 '/>
		<polygon fill = 'rgb( 31, 120, 180)' fill-opacity = '0.250000' points = '226.7,238.2 226.7,242.4 227.4,242.4 227.4,238.4 '/>
		<polygon fill = 'rgb( 31, 120, 180)' fill-opacity = '0.250000' points = '227.4,238.4 227.4,242.4 228.1,242.4 228.1,238.6 '/>
		<polygon fill = 'rgb( 31, 120, 180)' fill-opacity = '0.250000' points = '228.1,238.6 228.1,242.4 228.8,242.4 228.8,238.7 '/>
		<polygon fill = 'rgb( 31, 120, 180)' fill-opacity = '0.250000' points = '228.8,238.7 228.8,242.4 229.5,242.4 229.5,238.9 '/>
		<polygon fill = 'rgb( 31, 120, 180)' fill-opacity = '0.250000' points = '229.5,238.9 229.5,242.4 230.1,242.4 230.1,239.0 '/>
		<polygon fill = 'rgb( 31, 120, 180)' fill-opacity = '0.250000' points = '230.1,239.0 230.1,242.4 230.8,242.4 230.8,239.1 '/>
		<polygon fill = 'rgb( 31, 120, 180)' fill-opacity = '0.250000' points = '230.8,239.1 230.8,242.4 231.5,242.4 231.5,239.2 '/>
		<polygon fill = 'rgb( 31, 120, 180)' fill-opacity = '0.250000' points = '231.5,239.2 231.5,242.4 232.2,242.4 232.2,239.3 '/>
		<polygon fill = 'rgb( 31, 120, 180)' fill-opacity = '0.250000' points = '232.2,239.3 232.2,242.4 232.9,242.4 232.9,239.4 '/>
		<polygon fill = 'rgb( 31, 120, 180)' fill-opacity = '0.250000' points = '232.9,239.4 232.9,242.4 233.6,242.4 233.6,239.5 '/>
		<polygon fill = 'rgb( 31, 120, 180)' fill-opacity = '0.250000' points = '233.6,239.5 233.6,242.4 234.3,242.4 234.3,239.6 '/>
		<polygon fill = 'rgb( 31, 120, 180)' fill-opacity = '0.250000' points = '234.3,239.6 234.3,242.4 235.0,242.4 235.0,239.6 '/>
		<polygon fill = 'rgb( 31, 120, 180)' fill-opacity = '0.250000' points = '235.0,239.6 235.0,242.4 235.7,242.4 235.7,239.7 '/>
		<polygon fill = 'rgb( 31, 120, 180)' fill-opacity = '0.250000' points = '235.7,239.7 235.7,242.4 236.4,242.4 236.4,239.7 '/>
		<polygon fill = 'rgb( 31, 120, 180)' fill-opacity = '0.250000' points = '236.4,239.7 236.4,242.4 237.1,242.4 237.1,239.7 '/>
		<polygon fill = 'rgb( 31, 120, 180)' fill-opacity = '0.250000' points = '237.1,239.7 237.1,242.4 237.7,242.4 237.7,239.7 '/>
		<polygon fill = 'rgb( 31, 120, 180)' fill-opacity = '0.250000' points = '237.7,239.7 237.7,242.4 238.4,242.4 238.4,239.8 '/>
		<polygon fill = 'rgb( 31, 120, 180)' fill-opacity = '0.250000' points = '238.4,239.8 238.4,242.4 239.1,242.4 239.1,239.8 '/>
		<polygon fill = 'rgb( 31, 120, 180)' fill-opacity = '0.250000' points = '239.1,239.8 239.1,242.4 239.8,242.4 239.8,239.8 '/>
		<polygon fill = 'rgb( 31, 120, 180)' fill-opacity = '0.250000' points = '239.8,239.8 239.8,242.4 240.5,242.4 240.5,239.7 '/>
		<polygon fill = 'rgb( 31, 120, 180)' fill-opacity = '0.250000' points = '240.5,239.7 240.5,242.4 241.2,242.4 241.2,239.7 '/>
		<polygon fill = 'rgb( 31, 120, 180)' fill-opacity = '0.250000' points = '241.2,239.7 241.2,242.4 241.9,242.4 241.9,239.7 '/>
		<polygon fill = 'rgb( 31, 120, 180)' fill-opacity = '0.250000' points = '241.9,239.7 241.9,242.4 242.6,242.4 242.6,239.7 '/>
		<polygon fill = 'rgb( 31, 120, 180)' fill-opacity = '0.250000' points = '242.6,239.7 242.6,242.4 243.3,242.4 243.3,239.7 '/>
		<polygon fill = 'rgb( 31, 120, 180)' fill-opacity = '0.250000' points = '243.3,239.7 243.3,242.4 244.0,242.4 244.0,239.7 '/>
		<polygon fill = 'rgb( 31, 120, 180)' fill-opacity = '0.250000' points = '244.0,239.7 244.0,242.4 244.7,242.4 244.7,239.6 '/>
		<polygon fill = 'rgb( 31, 120, 180)' fill-opacity = '0.250000' points = '244.7,239.6 244.7,242.4 245.3,242.4 245.3,239.6 '/>
		<polygon fill = 'rgb( 31, 120, 180)' fill-opacity = '0.250000' points = '245.3,239.6 245.3,242.4 246.0,242.4 246.0,239.6 '/>
		<polygon fill = 'rgb( 31, 120, 180)' fill-opacity = '0.250000' points = '246.0,239.6 246.0,242.4 246.7,242.4 246.7,239.6 '/>
		<polygon fill = 'rgb( 31, 120, 180)' fill-opacity = '0.250000' points = '246.7,239.6 246.7,242.4 247.4,242.4 247.4,239.5 '/>
		<polygon fill = 'rgb( 31, 120, 180)' fill-opacity = '0.250000' points = '247.4,239.5 247.4,242.4 248.1,242.4 248.1,239.5 '/>
		<polygon fill = 'rgb( 31, 120, 180)' fill-opacity = '0.250000' points = '248.1,239.5 248.1,242.4 248.8,242.4 248.8,239.5 '/>
		<polygon fill = 'rgb( 31, 120, 180)' fill-opacity = '0.250000' points = '248.8,239.5 248.8,242.4 249.5,242.4 249.5,239.5 '/>
		<polygon fill = 'rgb( 31, 120, 180)' fill-opacity = '0.250000' points = '249.5,239.5 249.5,242.4 250.2,242.4 250.2,239.5 '/>
		<polygon fill = 'rgb( 31, 120, 180)' fill-opacity = '0.250000' points = '250.2,239.5 250.2,242.4 250.9,242.4 250.9,239.5 '/>
		<polygon fill = 'rgb( 31, 120, 180)' fill-opacity = '0.250000' points = '250.9,239.5 250.9,242.4 251.6,242.4 251.6,239.5 '/>
		<polygon fill = 'rgb( 31, 120, 180)' fill-opacity = '0.250000' points = '251.6,239.5 251.6,242.4 252.3,242.4 252.3,239.5 '/>
		<polygon fill = 'rgb( 31, 120, 180)' fill-opacity = '0.250000' points = '252.3,239.5 252.3,242.4 252.9,242.4 252.9,239.5 '/>
		<polygon fill = 'rgb( 31, 120, 180)' fill-opacity = '0.250000' points = '252.9,239.5 252.9,242.4 253.6,242.4 253.6,239.5 '/>
		<polygon fill = 'rgb( 31, 120, 180)' fill-opacity = '0.250000' points = '253.6,239.5 253.6,242.4 254.3,242.4 254.3,239.5 '/>
		<polygon fill = 'rgb( 31, 120, 180)' fill-opacity = '0.250000' points = '254.3,239.5 254.3,242.4 255.0,242.4 255.0,239.5 '/>
		<polygon fill = 'rgb( 31, 120, 180)' fill-opacity = '0.250000' points = '255.0,239.5 255.0,242.4 255.7,242.4 255.7,239.5 '/>
		<polygon fill = 'rgb( 31, 120, 180)' fill-opacity = '0.250000' points = '255.7,239.5 255.7,242.4 256.4,242.4 256.4,239.6 '/>
		<polygon fill = 'rgb( 31, 120, 180)' fill-opacity = '0.250000' points = '256.4,239.6 256.4,242.4 257.1,242.4 257.1,239.6 '/>
		<polygon fill = 'rgb( 31, 120, 180)' fill-opacity = '0.250000' points = '257.1,239.6 257.1,242.4 257.8,242.4 257.8,239.6 '/>
		<polygon fill = 'rgb( 31, 120, 180)' fill-opacity = '0.250000' points = '257.8,239.6 257.8,242.4 258.5,242.4 258.5,239.7 '/>
		<polygon fill = 'rgb( 31, 120, 180)' fill-opacity = '0.250000' points = '258.5,239.7 258.5,242.4 259.2,242.4 259.2,239.7 '/>
		<polygon fill = 'rgb( 31, 120, 180)' fill-opacity = '0.250000' points = '259.2,239.7 259.2,242.4 259.9,242.4 259.9,239.8 '/>
		<polygon fill = 'rgb( 31, 120, 180)' fill-opacity = '0.250000' points = '259.9,239.8 259.9,242.4 260.5,242.4 260.5,239.8 '/>
		<polygon fill = 'rgb( 31, 120, 180)' fill-opacity = '0.250000' points = '260.5,239.8 260.5,242.4 261.2,242.4 261.2,239.9 '/>
		<polygon fill = 'rgb( 31, 120, 180)' fill-opacity = '0.250000' points = '261.2,239.9 261.2,242.4 261.9,242.4 261.9,239.9 '/>
		<polygon fill = 'rgb( 31, 120, 180)' fill-opacity = '0.250000' points = '261.9,239.9 261.9,242.4 262.6,242.4 262.6,240.0 '/>
		<polygon fill = 'rgb( 31, 120, 180)' fill-opacity = '0.250000' points = '262.6,240.0 262.6,242.4 263.3,242.4 263.3,240.1 '/>
		<polygon fill = 'rgb( 31, 120, 180)' fill-opacity = '0.250000' points = '263.3,240.1 263.3,242.4 264.0,242.4 264.0,240.2 '/>
		<polygon fill = 'rgb( 31, 120, 180)' fill-opacity = '0.250000' points = '264.0,240.2 264.0,242.4 264.7,242.4 264.7,240.2 '/>
		<polygon fill = 'rgb( 31, 120, 180)' fill-opacity = '0.250000' points = '264.7,240.2 264.7,242.4 265.4,242.4 265.4,240.3 '/>
		<polygon fill = 'rgb( 31, 120, 180)' fill-opacity = '0.250000' points = '265.4,240.3 265.4,242.4 266.1,242.4 266.1,240.4 '/>
		<polygon fill = 'rgb( 31, 120, 180)' fill-opacity = '0.250000' points = '266.1,240.4 266.1,242.4 266.8,242.4 266.8,240.4 '/>
		<polygon fill = 'rgb( 31, 120, 180)' fill-opacity = '0.250000' points = '266.8,240.4 266.8,242.4 267.5,242.4 267.5,240.5 '/>
		<polygon fill = 'rgb( 31, 120, 180)' fill-opacity = '0.250000' points = '267.5,240.5 267.5,242.4 268.1,242.4 268.1,240.6 '/>
		<polygon fill = 'rgb( 31, 120, 180)' fill-opacity = '0.250000' points = '268.1,240.6 268.1,242.4 268.8,242.4 268.8,240.7 '/>
		<polygon fill = 'rgb( 31, 120, 180)' fill-opacity = '0.250000' points = '268.8,240.7 268.8,242.4 269.5,242.4 269.5,240.8 '/>
		<polygon fill = 'rgb( 31, 120, 180)' fill-opacity = '0.250000' points = '269.5,240.8 269.5,242.4 270.2,242.4 270.2,240.8 '/>
		<polygon fill = 'rgb( 31, 120, 180)' fill-opacity = '0.250000' points = '270.2,240.8 270.2,242.4 270.9,242.4 270.9,240.9 '/>
		<polygon fill = 'rgb( 31, 120, 180)' fill-opacity = '0.250000' points = '270.9,240.9 270.9,242.4 271.6,242.4 271.6,241.0 '/>
		<polygon fill = 'rgb( 31, 120, 180)' fill-opacity = '0.250000' points = '271.6,241.0 271.6,242.4 272.3,242.4 272.3,241.0 '/>
		<polygon fill = 'rgb( 31, 120, 180)' fill-opacity = '0.250000' points = '272.3,241.0 272.3,242.4 273.0,242.4 273.0,241.1 '/>
		<polygon fill = 'rgb( 31, 120, 180)' fill-opacity = '0.250000' points = '273.0,241.1 273.0,242.4 273.7,242.4 273.7,241.2 '/>
		<polygon fill = 'rgb( 31, 120, 180)' fill-opacity = '0.250000' points = '273.7,241.2 273.7,242.4 274.4,242.4 274.4,241.2 '/>
		<polygon fill = 'rgb( 31, 120, 180)' fill-opacity = '0.250000' points = '274.4,241.2 274.4,242.4 275.1,242.4 275.1,241.3 '/>
		<polygon fill = 'rgb( 31, 120, 180)' fill-opacity = '0.250000' points = '275.1,241.3 275.1,242.4 275.7,242.4 275.7,241.3 '/>
		<polygon fill = 'rgb( 31, 120, 180)' fill-opacity = '0.250000' points = '275.7,241.3 275.7,242.4 276.4,242.4 276.4,241.4 '/>
		<polygon fill = 'rgb( 31, 120, 180)' fill-opacity = '0.250000' points = '276.4,241.4 276.4,242.4 277.1,242.4 277.1,241.5 '/>
		<polygon fill = 'rgb( 31, 120, 180)' fill-opacity = '0.250000' points = '277.1,241.5 277.1,242.4 277.8,242.4 277.8,241.5 '/>
		<polygon fill = 'rgb( 31, 120, 180)' fill-opacity = '0.250000' points = '277.8,241.5 277.8,242.4 278.5,242.4 278.5,241.5 '/>
		<polygon fill = 'rgb( 31, 120, 180)' fill-opacity = '0.250000' points = '278.5,241.5 278.5,242.4 279.2,242.4 279.2,241.6 '/>
		<polygon fill = 'rgb( 31, 120, 180)' fill-opacity = '0.250000' points = '279.2,241.6 279.2,242.4 279.9,242.4 279.9,241.6 '/>
		<polygon fill = 'rgb( 31, 120, 180)' fill-opacity = '0.250000' points = '279.9,241.6 279.9,242.4 280.6,242.4 280.6,241.6 '/>
		<polygon fill = 'rgb( 31, 120, 180)' fill-opacity = '0.250000' points = '280.6,241.6 280.6,242.4 281.3,242.4 281.3,241.7 '/>
		<polygon fill = 'rgb( 31, 120, 180)' fill-opacity = '0.250000' points = '281.3,241.7 281.3,242.4 282.0,242.4 282.0,241.7 '/>
		<polygon fill = 'rgb( 31, 120, 180)' fill-opacity = '0.250000' points = '282.0,241.7 282.0,242.4 282.7,242.4 282.7,241.7 '/>
		<polygon fill = 'rgb( 31, 120, 180)' fill-opacity = '0.250000' points = '282.7,241.7 282.7,242.4 283.3,242.4 283.3,241.7 '/>
		<polygon fill = 'rgb( 31, 120, 180)' fill-opacity = '0.250000' points = '283.3,241.7 283.3,242.4 284.0,242.4 284.0,241.7 '/>
		<polygon fill = 'rgb( 31, 120, 180)' fill-opacity = '0.250000' points = '284.0,241.7 284.0,242.4 284.7,242.4 284.7,241.7 '/>
		<polygon fill = 'rgb( 31, 120, 180)' fill-opacity = '0.250000' points = '284.7,241.7 284.7,242.4 285.4,242.4 285.4,241.7 '/>
		<polygon fill = 'rgb( 31, 120, 180)' fill-opacity = '0.250000' points = '285.4,241.7 285.4,242.4 286.1,242.4 286.1,241.7 '/>
		<polygon fill = 'rgb( 31, 120, 180)' fill-opacity = '0.250000' points = '286.1,241.7 286.1,242.4 286.8,242.4 286.8,241.7 '/>
		<polygon fill = 'rgb( 31, 120, 180)' fill-opacity = '0.250000' points = '286.8,241.7 286.8,242.4 287.5,242.4 287.5,241.7 '/>
		<polygon fill = 'rgb( 31, 120, 180)' fill-opacity = '0.250000' points = '287.5,241.7 287.5,242.4 288.2,242.4 288.2,241.6 '/>
		<polygon fill = 'rgb( 31, 120, 180)' fill-opacity = '0.250000' points = '288.2,241.6 288.2,242.4 288.9,242.4 288.9,241.6 '/>
		<polygon fill = 'rgb( 31, 120, 180)' fill-opacity = '0.250000' points = '288.9,241.6 288.9,242.4 289.6,242.4 289.6,241.6 '/>
		<polygon fill = 'rgb( 31, 120, 180)' fill-opacity = '0.250000' points = '289.6,241.6 289.6,242.4 290.3,242.4 290.3,241.5 '/>
		<polygon fill = 'rgb( 31, 120, 180)' fill-opacity = '0.250000' points = '290.3,241.5 290.3,242.4 290.9,242.4 290.9,241.5 '/>
		<polygon fill = 'rgb( 31, 120, 180)' fill-opacity = '0.250000' points = '290.9,241.5 290.9,242.4 291.6,242.4 291.6,241.5 '/>
		<polygon fill = 'rgb( 31, 120, 180)' fill-opacity = '0.250000' points = '291.6,241.5 291.6,242.4 292.3,242.4 292.3,241.4 '/>
		<polygon fill = 'rgb( 31, 120, 180)' fill-opacity = '0.250000' points = '292.3,241.4 292.3,242.4 293.0,242.4 293.0,241.4 '/>
		<polygon fill = 'rgb( 31, 120, 180)' fill-opacity = '0.250000' points = '293.0,241.4 293.0,242.4 293.7,242.4 293.7,241.3 '/>
		<polygon fill = 'rgb( 31, 120, 180)' fill-opacity = '0.250000' points = '293.7,241.3 293.7,242.4 294.4,242.4 294.4,241.3 '/>
		<polygon fill = 'rgb( 31, 120, 180)' fill-opacity = '0.250000' points = '294.4,241.3 294.4,242.4 295.1,242.4 295.1,241.2 '/>
		<polygon fill = 'rgb( 31, 120, 180)' fill-opacity = '0.250000' points = '295.1,241.2 295.1,242.4 295.8,242.4 295.8,241.1 '/>
		<polygon fill = 'rgb( 31, 120, 180)' fill-opacity = '0.250000' points = '295.8,241.1 295.8,242.4 296.5,242.4 296.5,241.1 '/>
		<polygon fill = 'rgb( 31, 120, 180)' fill-opacity = '0.250000' points = '296.5,241.1 296.5,242.4 297.2,242.4 297.2,241.0 '/>
		<polygon fill = 'rgb( 31, 120, 180)' fill-opacity = '0.250000' points = '297.2,241.0 297.2,242.4 297.9,242.4 297.9,240.9 '/>
		<polygon fill = 'rgb( 31, 120, 180)' fill-opacity = '0.250000' points = '297.9,240.9 297.9,242.4 298.6,242.4 298.6,240.8 '/>
		<polygon fill = 'rgb( 31, 120, 180)' fill-opacity = '0.250000' points = '298.6,240.8 298.6,242.4 299.2,242.4 299.2,240.8 '/>
		<polygon fill = 'rgb( 31, 120, 180)' fill-opacity = '0.250000' points = '299.2,240.8 299.2,242.4 299.9,242.4 299.9,240.7 '/>
		<polygon fill = 'rgb( 31, 120, 180)' fill-opacity = '0.250000' points = '299.9,240.7 299.9,242.4 300.6,242.4 300.6,240.6 '/>
		<polygon fill = 'rgb( 31, 120, 180)' fill-opacity = '0.250000' points = '300.6,240.6 300.6,242.4 301.3,242.4 301.3,240.5 '/>
		<polygon fill = 'rgb( 31, 120, 180)' fill-opacity = '0.250000' points = '301.3,240.5 301.3,242.4 302.0,242.4 302.0,240.5 '/>
		<polygon fill = 'rgb( 31, 120, 180)' fill-opacity = '0.250000' points = '302.0,240.5 302.0,242.4 302.7,242.4 302.7,240.4 '/>
		<polygon fill = 'rgb( 31, 120, 180)' fill-opacity = '0.250000' points = '302.7,240.4 302.7,242.4 303.4,242.4 303.4,240.3 '/>
		<polygon fill = 'rgb( 31, 120, 180)' fill-opacity = '0.250000' points = '303.4,240.3 303.4,242.4 304.1,242.4 304.1,240.2 '/>
		<polygon fill = 'rgb( 31, 120, 180)' fill-opacity = '0.250000' points = '304.1,240.2 304.1,242.4 304.8,242.4 304.8,240.2 '/>
		<polygon fill = 'rgb( 31, 120, 180)' fill-opacity = '0.250000' points = '304.8,240.2 304.8,242.4 305.5,242.4 305.5,240.1 '/>
		<polygon fill = 'rgb( 31, 120, 180)' fill-opacity = '0.250000' points = '305.5,240.1 305.5,242.4 306.2,242.4 306.2,240.0 '/>
		<polygon fill = 'rgb( 31, 120, 180)' fill-opacity = '0.250000' points = '306.2,240.0 306.2,242.4 306.8,242.4 306.8,240.0 '/>
		<polygon fill = 'rgb( 31, 120, 180)' fill-opacity = '0.250000' points = '306.8,240.0 306.8,242.4 307.5,242.4 307.5,239.9 '/>
		<polygon fill = 'rgb( 31, 120, 180)' fill-opacity = '0.250000' points = '307.5,239.9 307.5,242.4 308.2,242.4 308.2,239.9 '/>
		<polygon fill = 'rgb( 31, 120, 180)' fill-opacity = '0.250000' points = '308.2,239.9 308.2,242.4 308.9,242.4 308.9,239.8 '/>
		<polygon fill = 'rgb( 31, 120, 180)' fill-opacity = '0.250000' points = '308.9,239.8 308.9,242.4 309.6,242.4 309.6,239.8 '/>
		<polygon fill = 'rgb( 31, 120, 180)' fill-opacity = '0.250000' points = '309.6,239.8 309.6,242.4 310.3,242.4 310.3,239.7 '/>
		<polygon fill = 'rgb( 31, 120, 180)' fill-opacity = '0.250000' points = '310.3,239.7 310.3,242.4 311.0,242.4 311.0,239.7 '/>
		<polygon fill = 'rgb( 31, 120, 180)' fill-opacity = '0.250000' points = '311.0,239.7 311.0,242.4 311.7,242.4 311.7,239.6 '/>
		<polygon fill = 'rgb( 31, 120, 180)' fill-opacity = '0.250000' points = '311.7,239.6 311.7,242.4 312.4,242.4 312.4,239.6 '/>
		<polygon fill = 'rgb( 31, 120, 180)' fill-opacity = '0.250000' points = '312.4,239.6 312.4,242.4 313.1,242.4 313.1,239.6 '/>
		<polygon fill = 'rgb( 31, 120, 180)' fill-opacity = '0.250000' points = '313.1,239.6 313.1,242.4 313.8,242.4 313.8,239.6 '/>
		<polygon fill = 'rgb( 31, 120, 180)' fill-opacity = '0.250000' points = '313.8,239.6 313.8,242.4 314.4,242.4 314.4,239.5 '/>
		<polygon fill = 'rgb( 31, 120, 180)' fill-opacity = '0.250000' points = '314.4,239.5 314.4,242.4 315.1,242.4 315.1,239.5 '/>
		<polygon fill = 'rgb( 31, 120, 180)' fill-opacity = '0.250000' points = '315.1,239.5 315.1,242.4 315.8,242.4 315.8,239.5 '/>
		<polygon fill = 'rgb( 31, 120, 180)' fill-opacity = '0.250000' points = '315.8,239.5 315.8,242.4 316.5,242.4 316.5,239.5 '/>
		<polygon fill = 'rgb( 31, 120, 180)' fill-opacity = '0.250000' points = '316.5,239.5 316.5,242.4 317.2,242.4 317.2,239.6 '/>
		<polygon fill = 'rgb( 31, 120, 180)' fill-opacity = '0.250000' points = '317.2,239.6 317.2,242.4 317.9,242.4 317.9,239.6 '/>
		<polygon fill = 'rgb( 31, 120, 180)' fill-opacity = '0.250000' points = '317.9,239.6 317.9,242.4 318.6,242.4 318.6,239.6 '/>
		<polygon fill = 'rgb( 31, 120, 180)' fill-opacity = '0.250000' points = '318.6,239.6 318.6,242.4 319.3,242.4 319.3,239.6 '/>
		<polygon fill = 'rgb( 31, 120, 180)' fill-opacity = '0.250000' points = '319.3,239.6 319.3,242.4 320.0,242.4 320.0,239.6 '/>
		<polygon fill = 'rgb( 31, 120, 180)' fill-opacity = '0.250000' points = '320.0,239.6 320.0,242.4 320.7,242.4 320.7,239.7 '/>
		<polygon fill = 'rgb( 31, 120, 180)' fill-opacity = '0.250000' points = '320.7,239.7 320.7,242.4 321.4,242.4 321.4,239.7 '/>
		<polygon fill = 'rgb( 31, 120, 180)' fill-opacity = '0.250000' points = '321.4,239.7 321.4,242.4 322.0,242.4 322.0,239.8 '/>
		<polygon fill = 'rgb( 31, 120, 180)' fill-opacity = '0.250000' points = '322.0,239.8 322.0,242.4 322.7,242.4 322.7,239.8 '/>
		<polygon fill = 'rgb( 31, 120, 180)' fill-opacity = '0.250000' points = '322.7,239.8 322.7,242.4 323.4,242.4 323.4,239.9 '/>
		<polygon fill = 'rgb( 31, 120, 180)' fill-opacity = '0.250000' points = '323.4,239.9 323.4,242.4 324.1,242.4 324.1,239.9 '/>
		<polygon fill = 'rgb( 31, 120, 180)' fill-opacity = '0.250000' points = '324.1,239.9 324.1,242.4 324.8,242.4 324.8,240.0 '/>
		<polygon fill = 'rgb( 31, 120, 180)' fill-opacity = '0.250000' points = '324.8,240.0 324.8,242.4 325.5,242.4 325.5,240.1 '/>
		<polygon fill = 'rgb( 31, 120, 180)' fill-opacity = '0.250000' points = '325.5,240.1 325.5,242.4 326.2,242.4 326.2,240.1 '/>
		<polygon fill = 'rgb( 31, 120, 180)' fill-opacity = '0.250000' points = '326.2,240.1 326.2,242.4 326.9,242.4 326.9,240.2 '/>
		<polygon fill = 'rgb( 31, 120, 180)' fill-opacity = '0.250000' points = '326.9,240.2 326.9,242.4 327.6,242.4 327.6,240.3 '/>
		<polygon fill = 'rgb( 31, 120, 180)' fill-opacity = '0.250000' points = '327.6,240.3 327.6,242.4 328.3,242.4 328.3,240.4 '/>
		<polygon fill = 'rgb( 31, 120, 180)' fill-opacity = '0.250000' points = '328.3,240.4 328.3,242.4 329.0,242.4 329.0,240.4 '/>
		<polygon fill = 'rgb( 31, 120, 180)' fill-opacity = '0.250000' points = '329.0,240.4 329.0,242.4 329.6,242.4 329.6,240.5 '/>
		<polygon fill = 'rgb( 31, 120, 180)' fill-opacity = '0.250000' points = '329.6,240.5 329.6,242.4 330.3,242.4 330.3,240.6 '/>
		<polygon fill = 'rgb( 31, 120, 180)' fill-opacity = '0.250000' points = '330.3,240.6 330.3,242.4 331.0,242.4 331.0,240.7 '/>
		<polygon fill = 'rgb( 31, 120, 180)' fill-opacity = '0.250000' points = '331.0,240.7 331.0,242.4 331.7,242.4 331.7,240.7 '/>
		<polygon fill = 'rgb( 31, 120, 180)' fill-opacity = '0.250000' points = '331.7,240.7 331.7,242.4 332.4,242.4 332.4,240.8 '/>
		<polygon fill = 'rgb( 31, 120, 180)' fill-opacity = '0.250000' points = '332.4,240.8 332.4,242.4 333.1,242.4 333.1,240.9 '/>
		<polygon fill = 'rgb( 31, 120, 180)' fill-opacity = '0.250000' points = '333.1,240.9 333.1,242.4 333.8,242.4 333.8,241.0 '/>
		<polygon fill = 'rgb( 31, 120, 180)' fill-opacity = '0.250000' points = '333.8,241.0 333.8,242.4 334.5,242.4 334.5,241.0 '/>
		<polygon fill = 'rgb( 31, 120, 180)' fill-opacity = '0.250000' points = '334.5,241.0 334.5,242.4 335.2,242.4 335.2,241.1 '/>
		<polygon fill = 'rgb( 31, 120, 180)' fill-opacity = '0.250000' points = '335.2,241.1 335.2,242.4 335.9,242.4 335.9,241.2 '/>
		<polygon fill = 'rgb( 31, 120, 180)' fill-opacity = '0.250000' points = '335.9,241.2 335.9,242.4 336.6,242.4 336.6,241.2 '/>
		<polygon fill = 'rgb( 31, 120, 180)' fill-opacity = '0.250000' points = '336.6,241.2 336.6,242.4 337.2,242.4 337.2,241.3 '/>
		<polygon fill = 'rgb( 31, 120, 180)' fill-opacity = '0.250000' points = '337.2,241.3 337.2,242.4 337.9,242.4 337.9,241.4 '/>
		<polygon fill = 'rgb( 31, 120, 180)' fill-opacity = '0.250000' points = '337.9,241.4 337.9,242.4 338.6,242.4 338.6,241.4 '/>
		<polygon fill = 'rgb( 31, 120, 180)' fill-opacity = '0.250000' points = '338.6,241.4 338.6,242.4 339.3,242.4 339.3,241.5 '/>
		<polygon fill = 'rgb( 31, 120, 180)' fill-opacity = '0.250000' points = '339.3,241.5 339.3,242.4 340.0,242.4 340.0,241.5 '/>
		<polygon fill = 'rgb( 31, 120, 180)' fill-opacity = '0.250000' points = '340.0,241.5 340.0,242.4 340.7,242.4 340.7,241.6 '/>
		<polygon fill = 'rgb( 31, 120, 180)' fill-opacity = '0.250000' points = '340.7,241.6 340.7,242.4 341.4,242.4 341.4,241.6 '/>
		<polygon fill = 'rgb( 31, 120, 180)' fill-opacity = '0.250000' points = '341.4,241.6 341.4,242.4 342.1,242.4 342.1,241.6 '/>
		<polygon fill = 'rgb( 31, 120, 180)' fill-opacity = '0.250000' points = '342.1,241.6 342.1,242.4 342.8,242.4 342.8,241.7 '/>
		<polygon fill = 'rgb( 31, 120, 180)' fill-opacity = '0.250000' points = '342.8,241.7 342.8,242.4 343.5,242.4 343.5,241.7 '/>
		<polygon fill = 'rgb( 31, 120, 180)' fill-opacity = '0.250000' points = '343.5,241.7 343.5,242.4 344.2,242.4 344.2,241.7 '/>
		<polygon fill = 'rgb( 31, 120, 180)' fill-opacity = '0.250000' points = '344.2,241.7 344.2,242.4 344.8,242.4 344.8,241.7 '/>
		<polygon fill = 'rgb( 31, 120, 180)' fill-opacity = '0.250000' points = '344.8,241.7 344.8,242.4 345.5,242.4 345.5,241.7 '/>
		<polygon fill = 'rgb( 31, 120, 180)' fill-opacity = '0.250000' points = '345.5,241.7 345.5,242.4 346.2,242.4 346.2,241.8 '/>
		<polygon fill = 'rgb( 31, 120, 180)' fill-opacity = '0.250000' points = '346.2,241.8 346.2,242.4 346.9,242.4 346.9,241.8 '/>
		<polygon fill = 'rgb( 31, 120, 180)' fill-opacity = '0.250000' points = '346.9,241.8 346.9,242.4 347.6,242.4 347.6,241.8 '/>
		<polygon fill = 'rgb( 31, 120, 180)' fill-opacity = '0.250000' points = '347.6,241.8 347.6,242.4 348.3,242.4 348.3,241.8 '/>
		<polygon fill = 'rgb( 31, 120, 180)' fill-opacity = '0.250000' points = '348.3,241.8 348.3,242.4 349.0,242.4 349.0,241.8 '/>
		<polygon fill = 'rgb( 31, 120, 180)' fill-opacity = '0.250000' points = '349.0,241.8 349.0,242.4 349.7,242.4 349.7,241.7 '/>
		<polygon fill = 'rgb( 31, 120, 180)' fill-opacity = '0.250000' points = '349.7,241.7 349.7,242.4 350.4,242.4 350.4,241.7 '/>
		<polygon fill = 'rgb( 31, 120, 180)' fill-opacity = '0.250000' points = '350.4,241.7 350.4,242.4 351.1,242.4 351.1,241.7 '/>
		<polygon fill = 'rgb( 31, 120, 180)' fill-opacity = '0.250000' points = '351.1,241.7 351.1,242.4 351.8,242.4 351.8,241.7 '/>
		<polygon fill = 'rgb( 31, 120, 180)' fill-opacity = '0.250000' points = '351.8,241.7 351.8,242.4 352.4,242.4 352.4,241.7 '/>
		<polygon fill = 'rgb( 31, 120, 180)' fill-opacity = '0.250000' points = '352.4,241.7 352.4,242.4 353.1,242.4 353.1,241.6 '/>
		<polygon fill = 'rgb( 31, 120, 180)' fill-opacity = '0.250000' points = '353.1,241.6 353.1,242.4 353.8,242.4 353.8,241.6 '/>
		<polygon fill = 'rgb( 31, 120, 180)' fill-opacity = '0.250000' points = '353.8,241.6 353.8,242.4 354.5,242.4 354.5,241.5 '/>
		<polygon fill = 'rgb( 31, 120, 180)' fill-opacity = '0.250000' points = '354.5,241.5 354.5,242.4 355.2,242.4 355.2,241.5 '/>
		<polygon fill = 'rgb( 31, 120, 180)' fill-opacity = '0.250000' points = '355.2,241.5 355.2,242.4 355.9,242.4 355.9,241.5 '/>
		<polygon fill = 'rgb( 31, 120, 180)' fill-opacity = '0.250000' points = '355.9,241.5 355.9,242.4 356.6,242.4 356.6,241.4 '/>
		<polygon fill = 'rgb( 31, 120, 180)' fill-opacity = '0.250000' points = '356.6,241.4 356.6,242.4 357.3,242.4 357.3,241.3 '/>
		<polygon fill = 'rgb( 31, 120, 180)' fill-opacity = '0.250000' points = '357.3,241.3 357.3,242.4 358.0,242.4 358.0,241.3 '/>
		<polygon fill = 'rgb( 31, 120, 180)' fill-opacity = '0.250000' points = '358.0,241.3 358.0,242.4 358.7,242.4 358.7,241.2 '/>
		<polygon fill = 'rgb( 31, 120, 180)' fill-opacity = '0.250000' points = '358.7,241.2 358.7,242.4 359.4,242.4 359.4,241.2 '/>
		<polygon fill = 'rgb( 31, 120, 180)' fill-opacity = '0.250000' points = '359.4,241.2 359.4,242.4 360.0,242.4 360.0,241.1 '/>
		<polygon fill = 'rgb( 31, 120, 180)' fill-opacity = '0.250000' points = '360.0,241.1 360.0,242.4 360.7,242.4 360.7,241.0 '/>
		<polygon fill = 'rgb( 31, 120, 180)' fill-opacity = '0.250000' points = '360.7,241.0 360.7,242.4 361.4,242.4 361.4,241.0 '/>
		<polygon fill = 'rgb( 31, 120, 180)' fill-opacity = '0.250000' points = '361.4,241.0 361.4,242.4 362.1,242.4 362.1,240.9 '/>
		<polygon fill = 'rgb( 31, 120, 180)' fill-opacity = '0.250000' points = '362.1,240.9 362.1,242.4 362.8,242.4 362.8,240.8 '/>
		<polygon fill = 'rgb( 31, 120, 180)' fill-opacity = '0.250000' points = '362.8,240.8 362.8,242.4 363.5,242.4 363.5,240.7 '/>
		<polygon fill = 'rgb( 31, 120, 180)' fill-opacity = '0.250000' points = '363.5,240.7 363.5,242.4 364.2,242.4 364.2,240.7 '/>
		<polygon fill = 'rgb( 31, 120, 180)' fill-opacity = '0.250000' points = '364.2,240.7 364.2,242.4 364.9,242.4 364.9,240.6 '/>
		<polygon fill = 'rgb( 31, 120, 180)' fill-opacity = '0.250000' points = '364.9,240.6 364.9,242.4 365.6,242.4 365.6,240.5 '/>
		<polygon fill = 'rgb( 31, 120, 180)' fill-opacity = '0.250000' points = '365.6,240.5 365.6,242.4 366.3,242.4 366.3,240.4 '/>
		<polygon fill = 'rgb( 31, 120, 180)' fill-opacity = '0.250000' points = '366.3,240.4 366.3,242.4 367.0,242.4 367.0,240.3 '/>
		<polygon fill = 'rgb( 31, 120, 180)' fill-opacity = '0.250000' points = '367.0,240.3 367.0,242.4 367.6,242.4 367.6,240.3 '/>
		<polygon fill = 'rgb( 31, 120, 180)' fill-opacity = '0.250000' points = '367.6,240.3 367.6,242.4 368.3,242.4 368.3,240.2 '/>
		<polygon fill = 'rgb( 31, 120, 180)' fill-opacity = '0.250000' points = '368.3,240.2 368.3,242.4 369.0,242.4 369.0,240.1 '/>
		<polygon fill = 'rgb( 31, 120, 180)' fill-opacity = '0.250000' points = '369.0,240.1 369.0,242.4 369.7,242.4 369.7,240.1 '/>
		<polygon fill = 'rgb( 31, 120, 180)' fill-opacity = '0.250000' points = '369.7,240.1 369.7,242.4 370.4,242.4 370.4,240.0 '/>
		<polygon fill = 'rgb( 31, 120, 180)' fill-opacity = '0.250000' points = '370.4,240.0 370.4,242.4 371.1,242.4 371.1,239.9 '/>
		<polygon fill = 'rgb( 31, 120, 180)' fill-opacity = '0.250000' points = '371.1,239.9 371.1,242.4 371.8,242.4 371.8,239.9 '/>
		<polygon fill = 'rgb( 31, 120, 180)' fill-opacity = '0.250000' points = '371.8,239.9 371.8,242.4 372.5,242.4 372.5,239.8 '/>
		<polygon fill = 'rgb( 31, 120, 180)' fill-opacity = '0.250000' points = '372.5,239.8 372.5,242.4 373.2,242.4 373.2,239.8 '/>
		<polygon fill = 'rgb( 31, 120, 180)' fill-opacity = '0.250000' points = '373.2,239.8 373.2,242.4 373.9,242.4 373.9,239.7 '/>
		<polygon fill = 'rgb( 31, 120, 180)' fill-opacity = '0.250000' points = '373.9,239.7 373.9,242.4 374.6,242.4 374.6,239.7 '/>
		<polygon fill = 'rgb( 31, 120, 180)' fill-opacity = '0.250000' points = '374.6,239.7 374.6,242.4 375.2,242.4 375.2,239.6 '/>
		<polygon fill = 'rgb( 31, 120, 180)' fill-opacity = '0.250000' points = '375.2,239.6 375.2,242.4 375.9,242.4 375.9,239.6 '/>
		<polygon fill = 'rgb( 31, 120, 180)' fill-opacity = '0.250000' points = '375.9,239.6 375.9,242.4 376.6,242.4 376.6,239.6 '/>
		<polygon fill = 'rgb( 31, 120, 180)' fill-opacity = '0.250000' points = '376.6,239.6 376.6,242.4 377.3,242.4 377.3,239.6 '/>
		<polygon fill = 'rgb( 31, 120, 180)' fill-opacity = '0.250000' points = '377.3,239.6 377.3,242.4 378.0,242.4 378.0,239.5 '/>
		<polygon fill = 'rgb( 31, 120, 180)' fill-opacity = '0.250000' points = '378.0,239.5 378.0,242.4 378.7,242.4 378.7,239.5 '/>
		<polygon fill = 'rgb( 31, 120, 180)' fill-opacity = '0.250000' points = '378.7,239.5 378.7,242.4 379.4,242.4 379.4,239.5 '/>
		<polygon fill = 'rgb( 31, 120, 180)' fill-opacity = '0.250000' points = '379.4,239.5 379.4,242.4 380.1,242.4 380.1,239.5 '/>
		<polygon fill = 'rgb( 31, 120, 180)' fill-opacity = '0.250000' points = '380.1,239.5 380.1,242.4 380.8,242.4 380.8,239.5 '/>
		<polygon fill = 'rgb( 31, 120, 180)' fill-opacity = '0.250000' points = '380.8,239.5 380.8,242.4 381.5,242.4 381.5,239.6 '/>
		<polygon fill = 'rgb( 31, 120, 180)' fill-opacity = '0.250000' points = '381.5,239.6 381.5,242.4 382.2,242.4 382.2,239.6 '/>
		<polygon fill = 'rgb( 31, 120, 180)' fill-opacity = '0.250000' points = '382.2,239.6 382.2,242.4 382.9,242.4 382.9,239.6 '/>
		<polygon fill = 'rgb( 31, 120, 180)' fill-opacity = '0.250000' points = '382.9,239.6 382.9,242.4 383.5,242.4 383.5,239.6 '/>
		<polygon fill = 'rgb( 31, 120, 180)' fill-opacity = '0.250000' points = '383.5,239.6 383.5,242.4 384.2,242.4 384.2,239.7 '/>
		<polygon fill = 'rgb( 31, 120, 180)' fill-opacity = '0.250000' points = '384.2,239.7 384.2,242.4 384.9,242.4 384.9,239.7 '/>
		<polygon fill = 'rgb( 31, 120, 180)' fill-opacity = '0.250000' points = '384.9,239.7 384.9,242.4 385.6,242.4 385.6,239.8 '/>
		<polygon fill = 'rgb( 31, 120, 180)' fill-opacity = '0.250000' points = '385.6,239.8 385.6,242.4 386.3,242.4 386.3,239.8 '/>
		<polygon fill = 'rgb( 31, 120, 180)' fill-opacity = '0.250000' points = '386.3,239.8 386.3,242.4 387.0,242.4 387.0,239.9 '/>
		<polygon fill = 'rgb( 31, 120, 180)' fill-opacity = '0.250000' points = '387.0,239.9 387.0,242.4 387.7,242.4 387.7,239.9 '/>
		<polygon fill = 'rgb( 31, 120, 180)' fill-opacity = '0.250000' points = '387.7,239.9 387.7,242.4 388.4,242.4 388.4,240.0 '/>
		<polygon fill = 'rgb( 31, 120, 180)' fill-opacity = '0.250000' points = '388.4,240.0 388.4,242.4 389.1,242.4 389.1,240.1 '/>
		<polygon fill = 'rgb( 31, 120, 180)' fill-opacity = '0.250000' points = '389.1,240.1 389.1,242.4 389.8,242.4 389.8,240.1 '/>
		<polygon fill = 'rgb( 31, 120, 180)' fill-opacity = '0.250000' points = '389.8,240.1 389.8,242.4 390.5,242.4 390.5,240.2 '/>
		<polygon fill = 'rgb( 31, 120, 180)' fill-opacity = '0.250000' points = '390.5,240.2 390.5,242.4 391.1,242.4 391.1,240.3 '/>
		<polygon fill = 'rgb( 31, 120, 180)' fill-opacity = '0.250000' points = '391.1,240.3 391.1,242.4 391.8,242.4 391.8,240.3 '/>
		<polygon fill = 'rgb( 31, 120, 180)' fill-opacity = '0.250000' points = '391.8,240.3 391.8,242.4 392.5,242.4 392.5,240.4 '/>
		<polygon fill = 'rgb( 31, 120, 180)' fill-opacity = '0.250000' points = '392.5,240.4 392.5,242.4 393.2,242.4 393.2,240.5 '/>
		<polygon fill = 'rgb( 31, 120, 180)' fill-opacity = '0.250000' points = '393.2,240.5 393.2,242.4 393.9,242.4 393.9,240.6 '/>
		<polygon fill = 'rgb( 31, 120, 180)' fill-opacity = '0.250000' points = '393.9,240.6 393.9,242.4 394.6,242.4 394.6,240.7 '/>
		<polygon fill = 'rgb( 31, 120, 180)' fill-opacity = '0.250000' points = '394.6,240.7 394.6,242.4 395.3,242.4 395.3,240.7 '/>
		<polygon fill = 'rgb( 31, 120, 180)' fill-opacity = '0.250000' points = '395.3,240.7 395.3,242.4 396.0,242.4 396.0,240.8 '/>
		<polygon fill = 'rgb( 31, 120, 180)' fill-opacity = '0.250000' points = '396.0,240.8 396.0,242.4 396.7,242.4 396.7,240.9 '/>
		<polygon fill = 'rgb( 31, 120, 180)' fill-opacity = '0.250000' points = '396.7,240.9 396.7,242.4 397.4,242.4 397.4,241.0 '/>
		<polygon fill = 'rgb( 31, 120, 180)' fill-opacity = '0.250000' points = '397.4,241.0 397.4,242.4 398.1,242.4 398.1,241.0 '/>
		<polygon fill = 'rgb( 31, 120, 180)' fill-opacity = '0.250000' points = '398.1,241.0 398.1,242.4 398.7,242.4 398.7,241.1 '/>
		<polygon fill = 'rgb( 31, 120, 180)' fill-opacity = '0.250000' points = '398.7,241.1 398.7,242.4 399.4,242.4 399.4,241.2 '/>
		<polygon fill = 'rgb( 31, 120, 180)' fill-opacity = '0.250000' points = '399.4,241.2 399.4,242.4 400.1,242.4 400.1,241.3 '/>
		<polygon fill = 'rgb( 31, 120, 180)' fill-opacity = '0.250000' points = '400.1,241.3 400.1,242.4 400.8,242.4 400.8,241.3 '/>
		<polygon fill = 'rgb( 31, 120, 180)' fill-opacity = '0.250000' points = '400.8,241.3 400.8,242.4 401.5,242.4 401.5,241.4 '/>
		<polygon fill = 'rgb( 31, 120, 180)' fill-opacity = '0.250000' points = '401.5,241.4 401.5,242.4 402.2,242.4 402.2,241.5 '/>
		<polygon fill = 'rgb( 31, 120, 180)' fill-opacity = '0.250000' points = '402.2,241.5 402.2,242.4 402.9,242.4 402.9,241.5 '/>
		<polygon fill = 'rgb( 31, 120, 180)' fill-opacity = '0.250000' points = '402.9,241.5 402.9,242.4 403.6,242.4 403.6,241.6 '/>
		<polygon fill = 'rgb( 31, 120, 180)' fill-opacity = '0.250000' points = '403.6,241.6 403.6,242.4 404.3,242.4 404.3,241.6 '/>
		<polygon fill = 'rgb( 31, 120, 180)' fill-opacity = '0.250000' points = '404.3,241.6 404.3,242.4 405.0,242.4 405.0,241.7 '/>
		<polygon fill = 'rgb( 31, 120, 180)' fill-opacity = '0.250000' points = '405.0,241.7 405.0,242.4 405.7,242.4 405.7,241.8 '/>
		<polygon fill = 'rgb( 31, 120, 180)' fill-opacity = '0.250000' points = '405.7,241.8 405.7,242.4 406.3,242.4 406.3,241.8 '/>
		<polygon fill = 'rgb( 31, 120, 180)' fill-opacity = '0.250000' points = '406.3,241.8 406.3,242.4 407.0,242.4 407.0,241.9 '/>
		<polygon fill = 'rgb( 31, 120, 180)' fill-opacity = '0.250000' points = '407.0,241.9 407.0,242.4 407.7,242.4 407.7,241.9 '/>
		<polygon fill = 'rgb( 31, 120, 180)' fill-opacity = '0.250000' points = '407.7,241.9 407.7,242.4 408.4,242.4 408.4,241.9 '/>
		<polygon fill = 'rgb( 31, 120, 180)' fill-opacity = '0.250000' points = '408.4,241.9 408.4,242.4 409.1,242.4 409.1,242.0 '/>
		<polygon fill = 'rgb( 31, 120, 180)' fill-opacity = '0.250000' points = '409.1,242.0 409.1,242.4 409.8,242.4 409.8,242.0 '/>
		<polygon fill = 'rgb( 31, 120, 180)' fill-opacity = '0.250000' points = '409.8,242.0 409.8,242.4 410.5,242.4 410.5,242.0 '/>
		<polygon fill = 'rgb( 31, 120, 180)' fill-opacity = '0.250000' points = '410.5,242.0 410.5,242.4 411.2,242.4 411.2,242.1 '/>
		<polygon fill = 'rgb( 31, 120, 180)' fill-opacity = '0.250000' points = '411.2,242.1 411.2,242.4 411.9,242.4 411.9,242.1 '/>
		<polygon fill = 'rgb( 31, 120, 180)' fill-opacity = '0.250000' points = '411.9,242.1 411.9,242.4 412.6,242.4 412.6,242.1 '/>
		<polygon fill = 'rgb( 31, 120, 180)' fill-opacity = '0.250000' points = '412.6,242.1 412.6,242.4 413.3,242.4 413.3,242.2 '/>
		<polygon fill = 'rgb( 31, 120, 180)' fill-opacity = '0.250000' points = '413.3,242.2 413.3,242.4 413.9,242.4 413.9,242.2 '/>
		<polygon fill = 'rgb( 31, 120, 180)' fill-opacity = '0.250000' points = '413.9,242.2 413.9,242.4 414.6,242.4 414.6,242.2 '/>
		<polygon fill = 'rgb( 31, 120, 180)' fill-opacity = '0.250000' points = '414.6,242.2 414.6,242.4 415.3,242.4 415.3,242.2 '/>
		<polygon fill = 'rgb( 31, 120, 180)' fill-opacity = '0.250000' points = '415.3,242.2 415.3,242.4 416.0,242.4 416.0,242.2 '/>
		<polygon fill = 'rgb( 31, 120, 180)' fill-opacity = '0.250000' points = '416.0,242.2 416.0,242.4 416.7,242.4 416.7,242.3 '/>
		<polygon fill = 'rgb( 31, 120, 180)' fill-opacity = '0.250000' points = '416.7,242.3 416.7,242.4 417.4,242.4 417.4,242.3 '/>
		<polygon fill = 'rgb( 31, 120, 180)' fill-opacity = '0.250000' points = '417.4,242.3 417.4,242.4 418.1,242.4 418.1,242.3 '/>
		<polygon fill = 'rgb( 31, 120, 180)' fill-opacity = '0.250000' points = '418.1,242.3 418.1,242.4 418.8,242.4 418.8,242.3 '/>
		<polygon fill = 'rgb( 31, 120, 180)' fill-opacity = '0.250000' points = '418.8,242.3 418.8,242.4 419.5,242.4 419.5,242.3 '/>
		<polygon fill = 'rgb( 31, 120, 180)' fill-opacity = '0.250000' points = '419.5,242.3 419.5,242.4 420.2,242.4 420.2,242.3 '/>
		<polygon fill = 'rgb( 31, 120, 180)' fill-opacity = '0.250000' points = '420.2,242.3 420.2,242.4 420.9,242.4 420.9,242.3 '/>
		<polygon fill = 'rgb( 31, 120, 180)' fill-opacity = '0.250000' points = '420.9,242.3 420.9,242.4 421.5,242.4 421.5,242.3 '/>
		<polygon fill = 'rgb( 31, 120, 180)' fill-opacity = '0.250000' points = '421.5,242.3 421.5,242.4 422.2,242.4 422.2,242.3 '/>
		<polygon fill = 'rgb( 31, 120, 180)' fill-opacity = '0.250000' points = '422.2,242.3 422.2,242.4 422.9,242.4 422.9,242.4 '/>
		<polygon fill = 'rgb( 31, 120, 180)' fill-opacity = '0.250000' points = '422.9,242.4 422.9,242.4 423.6,242.4 423.6,242.4 '/>
		<polygon fill = 'rgb( 31, 120, 180)' fill-opacity = '0.250000' points = '423.6,242.4 423.6,242.4 424.3,242.4 424.3,242.4 '/>
		<polygon fill = 'rgb( 31, 120, 180)' fill-opacity = '0.250000' points = '424.3,242.4 424.3,242.4 425.0,242.4 425.0,242.4 '/>
	</g>
</g>
	</g>
	<g id="gnuplot_plot_2" ><title>Mean</title>
<g fill="none" color="white" stroke="rgb( 31, 120, 180)" stroke-width="2.00" stroke-linecap="butt" stroke-linejoin="miter">
</g>
<g fill="none" color="black" stroke="currentColor" stroke-width="2.00" stroke-linecap="butt" stroke-linejoin="miter">
	<path stroke='rgb( 31, 120, 180)'  d='M145.8,242.4 L145.8,78.3  '/></g>
	</g>
<g fill="none" color="black" stroke="currentColor" stroke-width="2.00" stroke-linecap="butt" stroke-linejoin="miter">
</g>
<g fill="none" color="black" stroke="black" stroke-width="1.00" stroke-linecap="butt" stroke-linejoin="miter">
</g>
<g fill="none" color="black" stroke="currentColor" stroke-width="1.00" stroke-linecap="butt" stroke-linejoin="miter">
	<path stroke='black'  d='M80.2,16.7 L80.2,242.4 L425.0,242.4 L425.0,16.7 L80.2,16.7 Z  '/></g>
<g fill="none" color="black" stroke="currentColor" stroke-width="1.00" stroke-linecap="butt" stroke-linejoin="miter">
</g>
</g>
</svg>

