<?xml version="1.0" encoding="utf-8"  standalone="no"?>
<!DOCTYPE svg PUBLIC "-//W3C//DTD SVG 1.1//EN"
 "http://www.w3.org/Graphics/SVG/1.1/DTD/svg11.dtd">
<svg 
 viewBox="0 0 1280 720"
 xmlns="http://www.w3.org/2000/svg"
 xmlns:xlink="http://www.w3.org/1999/xlink"
>

<title>Gnuplot</title>
<desc>Produced by GNUPLOT 5.0 patchlevel 5 </desc>

<g id="gnuplot_canvas">

<rect x="0" y="0" width="1280" height="720" fill="none"/>
<defs>

	<circle id='gpDot' r='0.5' stroke-width='0.5'/>
	<path id='gpPt0' stroke-width='0.222' stroke='currentColor' d='M-1,0 h2 M0,-1 v2'/>
	<path id='gpPt1' stroke-width='0.222' stroke='currentColor' d='M-1,-1 L1,1 M1,-1 L-1,1'/>
	<path id='gpPt2' stroke-width='0.222' stroke='currentColor' d='M-1,0 L1,0 M0,-1 L0,1 M-1,-1 L1,1 M-1,1 L1,-1'/>
	<rect id='gpPt3' stroke-width='0.222' stroke='currentColor' x='-1' y='-1' width='2' height='2'/>
	<rect id='gpPt4' stroke-width='0.222' stroke='currentColor' fill='currentColor' x='-1' y='-1' width='2' height='2'/>
	<circle id='gpPt5' stroke-width='0.222' stroke='currentColor' cx='0' cy='0' r='1'/>
	<use xlink:href='#gpPt5' id='gpPt6' fill='currentColor' stroke='none'/>
	<path id='gpPt7' stroke-width='0.222' stroke='currentColor' d='M0,-1.33 L-1.33,0.67 L1.33,0.67 z'/>
	<use xlink:href='#gpPt7' id='gpPt8' fill='currentColor' stroke='none'/>
	<use xlink:href='#gpPt7' id='gpPt9' stroke='currentColor' transform='rotate(180)'/>
	<use xlink:href='#gpPt9' id='gpPt10' fill='currentColor' stroke='none'/>
	<use xlink:href='#gpPt3' id='gpPt11' stroke='currentColor' transform='rotate(45)'/>
	<use xlink:href='#gpPt11' id='gpPt12' fill='currentColor' stroke='none'/>
	<path id='gpPt13' stroke-width='0.222' stroke='currentColor' d='M0,1.330 L1.265,0.411 L0.782,-1.067 L-0.782,-1.076 L-1.265,0.411 z'/>
	<use xlink:href='#gpPt13' id='gpPt14' fill='currentColor' stroke='none'/>
	<filter id='textbox' filterUnits='objectBoundingBox' x='0' y='0' height='1' width='1'>
	  <feFlood flood-color='white' flood-opacity='1' result='bgnd'/>
	  <feComposite in='SourceGraphic' in2='bgnd' operator='atop'/>
	</filter>
	<filter id='greybox' filterUnits='objectBoundingBox' x='0' y='0' height='1' width='1'>
	  <feFlood flood-color='lightgrey' flood-opacity='1' result='grey'/>
	  <feComposite in='SourceGraphic' in2='grey' operator='atop'/>
	</filter>
</defs>
<g fill="none" color="white" stroke="currentColor" stroke-width="1.00" stroke-linecap="butt" stroke-linejoin="miter">
</g>
<g fill="none" color="black" stroke="currentColor" stroke-width="1.00" stroke-linecap="butt" stroke-linejoin="miter">
	<path stroke='black'  d='M71.9,662.4 L80.9,662.4  '/>	<g transform="translate(63.6,666.3)" stroke="none" fill="black" font-family="Helvetica" font-size="12.00"  text-anchor="end">
		<text><tspan font-family="Helvetica" > 0</tspan></text>
	</g>
</g>
<g fill="none" color="black" stroke="currentColor" stroke-width="1.00" stroke-linecap="butt" stroke-linejoin="miter">
	<path stroke='black'  d='M71.9,586.4 L80.9,586.4  '/>	<g transform="translate(63.6,590.3)" stroke="none" fill="black" font-family="Helvetica" font-size="12.00"  text-anchor="end">
		<text><tspan font-family="Helvetica" > 0.1</tspan></text>
	</g>
</g>
<g fill="none" color="black" stroke="currentColor" stroke-width="1.00" stroke-linecap="butt" stroke-linejoin="miter">
	<path stroke='black'  d='M71.9,510.3 L80.9,510.3  '/>	<g transform="translate(63.6,514.2)" stroke="none" fill="black" font-family="Helvetica" font-size="12.00"  text-anchor="end">
		<text><tspan font-family="Helvetica" > 0.2</tspan></text>
	</g>
</g>
<g fill="none" color="black" stroke="currentColor" stroke-width="1.00" stroke-linecap="butt" stroke-linejoin="miter">
	<path stroke='black'  d='M71.9,434.3 L80.9,434.3  '/>	<g transform="translate(63.6,438.2)" stroke="none" fill="black" font-family="Helvetica" font-size="12.00"  text-anchor="end">
		<text><tspan font-family="Helvetica" > 0.3</tspan></text>
	</g>
</g>
<g fill="none" color="black" stroke="currentColor" stroke-width="1.00" stroke-linecap="butt" stroke-linejoin="miter">
	<path stroke='black'  d='M71.9,358.2 L80.9,358.2  '/>	<g transform="translate(63.6,362.1)" stroke="none" fill="black" font-family="Helvetica" font-size="12.00"  text-anchor="end">
		<text><tspan font-family="Helvetica" > 0.4</tspan></text>
	</g>
</g>
<g fill="none" color="black" stroke="currentColor" stroke-width="1.00" stroke-linecap="butt" stroke-linejoin="miter">
	<path stroke='black'  d='M71.9,282.2 L80.9,282.2  '/>	<g transform="translate(63.6,286.1)" stroke="none" fill="black" font-family="Helvetica" font-size="12.00"  text-anchor="end">
		<text><tspan font-family="Helvetica" > 0.5</tspan></text>
	</g>
</g>
<g fill="none" color="black" stroke="currentColor" stroke-width="1.00" stroke-linecap="butt" stroke-linejoin="miter">
	<path stroke='black'  d='M71.9,206.2 L80.9,206.2  '/>	<g transform="translate(63.6,210.1)" stroke="none" fill="black" font-family="Helvetica" font-size="12.00"  text-anchor="end">
		<text><tspan font-family="Helvetica" > 0.6</tspan></text>
	</g>
</g>
<g fill="none" color="black" stroke="currentColor" stroke-width="1.00" stroke-linecap="butt" stroke-linejoin="miter">
	<path stroke='black'  d='M71.9,130.1 L80.9,130.1  '/>	<g transform="translate(63.6,134.0)" stroke="none" fill="black" font-family="Helvetica" font-size="12.00"  text-anchor="end">
		<text><tspan font-family="Helvetica" > 0.7</tspan></text>
	</g>
</g>
<g fill="none" color="black" stroke="currentColor" stroke-width="1.00" stroke-linecap="butt" stroke-linejoin="miter">
	<path stroke='black'  d='M71.9,54.1 L80.9,54.1  '/>	<g transform="translate(63.6,58.0)" stroke="none" fill="black" font-family="Helvetica" font-size="12.00"  text-anchor="end">
		<text><tspan font-family="Helvetica" > 0.8</tspan></text>
	</g>
</g>
<g fill="none" color="black" stroke="currentColor" stroke-width="1.00" stroke-linecap="butt" stroke-linejoin="miter">
	<path stroke='black'  d='M201.0,662.4 L201.0,653.4  '/>	<g transform="translate(201.0,684.3)" stroke="none" fill="black" font-family="Helvetica" font-size="12.00"  text-anchor="middle">
		<text><tspan font-family="Helvetica" > 247.5</tspan></text>
	</g>
</g>
<g fill="none" color="black" stroke="currentColor" stroke-width="1.00" stroke-linecap="butt" stroke-linejoin="miter">
	<path stroke='black'  d='M386.9,662.4 L386.9,653.4  '/>	<g transform="translate(386.9,684.3)" stroke="none" fill="black" font-family="Helvetica" font-size="12.00"  text-anchor="middle">
		<text><tspan font-family="Helvetica" > 248</tspan></text>
	</g>
</g>
<g fill="none" color="black" stroke="currentColor" stroke-width="1.00" stroke-linecap="butt" stroke-linejoin="miter">
	<path stroke='black'  d='M572.8,662.4 L572.8,653.4  '/>	<g transform="translate(572.8,684.3)" stroke="none" fill="black" font-family="Helvetica" font-size="12.00"  text-anchor="middle">
		<text><tspan font-family="Helvetica" > 248.5</tspan></text>
	</g>
</g>
<g fill="none" color="black" stroke="currentColor" stroke-width="1.00" stroke-linecap="butt" stroke-linejoin="miter">
	<path stroke='black'  d='M758.7,662.4 L758.7,653.4  '/>	<g transform="translate(758.7,684.3)" stroke="none" fill="black" font-family="Helvetica" font-size="12.00"  text-anchor="middle">
		<text><tspan font-family="Helvetica" > 249</tspan></text>
	</g>
</g>
<g fill="none" color="black" stroke="currentColor" stroke-width="1.00" stroke-linecap="butt" stroke-linejoin="miter">
	<path stroke='black'  d='M944.6,662.4 L944.6,653.4  '/>	<g transform="translate(944.6,684.3)" stroke="none" fill="black" font-family="Helvetica" font-size="12.00"  text-anchor="middle">
		<text><tspan font-family="Helvetica" > 249.5</tspan></text>
	</g>
</g>
<g fill="none" color="black" stroke="currentColor" stroke-width="1.00" stroke-linecap="butt" stroke-linejoin="miter">
</g>
<g fill="none" color="black" stroke="currentColor" stroke-width="1.00" stroke-linecap="butt" stroke-linejoin="miter">
	<path stroke='black'  d='M71.9,54.1 L71.9,662.4 L1013.6,662.4 L1013.6,54.1 L71.9,54.1 Z  '/></g>
<g fill="none" color="black" stroke="currentColor" stroke-width="1.00" stroke-linecap="butt" stroke-linejoin="miter">
	<g transform="translate(17.0,358.3) rotate(270)" stroke="none" fill="black" font-family="Helvetica" font-size="12.00"  text-anchor="middle">
		<text><tspan font-family="Helvetica" >Density (a.u.)</tspan></text>
	</g>
</g>
<g fill="none" color="black" stroke="currentColor" stroke-width="1.00" stroke-linecap="butt" stroke-linejoin="miter">
	<g transform="translate(542.7,711.3)" stroke="none" fill="black" font-family="Helvetica" font-size="12.00"  text-anchor="middle">
		<text><tspan font-family="Helvetica" >Average time (us)</tspan></text>
	</g>
</g>
<g fill="none" color="black" stroke="currentColor" stroke-width="1.00" stroke-linecap="butt" stroke-linejoin="miter">
	<g transform="translate(542.7,31.0)" stroke="none" fill="black" font-family="Helvetica" font-size="12.00"  text-anchor="middle">
		<text><tspan font-family="Helvetica" >dlist arc ghostcell par (×4): slope</tspan></text>
	</g>
</g>
	<g id="gnuplot_plot_1" ><title>Bootstrap distribution</title>
<g fill="none" color="white" stroke="black" stroke-width="2.00" stroke-linecap="butt" stroke-linejoin="miter">
</g>
<g fill="none" color="black" stroke="currentColor" stroke-width="2.00" stroke-linecap="butt" stroke-linejoin="miter">
	<g transform="translate(1089.0,67.0)" stroke="none" fill="black" font-family="Helvetica" font-size="12.00"  text-anchor="start">
		<text><tspan font-family="Helvetica" >Bootstrap distribution</tspan></text>
	</g>
</g>
<g fill="none" color="black" stroke="currentColor" stroke-width="2.00" stroke-linecap="butt" stroke-linejoin="miter">
	<path stroke='rgb( 31, 120, 180)'  d='M1038.5,63.1 L1080.7,63.1 M71.9,629.0 L73.8,627.9 L75.7,626.9 L77.6,625.8 L79.4,624.6 L81.3,623.5
		L83.2,622.3 L85.1,621.1 L87.0,619.9 L88.9,618.7 L90.8,617.4 L92.7,616.1 L94.5,614.8 L96.4,613.4
		L98.3,612.1 L100.2,610.7 L102.1,609.2 L104.0,607.7 L105.9,606.2 L107.8,604.7 L109.6,603.1 L111.5,601.5
		L113.4,599.8 L115.3,598.1 L117.2,596.4 L119.1,594.6 L121.0,592.7 L122.9,590.8 L124.7,588.8 L126.6,586.8
		L128.5,584.8 L130.4,582.7 L132.3,580.5 L134.2,578.4 L136.1,576.2 L138.0,573.9 L139.8,571.6 L141.7,569.4
		L143.6,567.0 L145.5,564.7 L147.4,562.4 L149.3,560.0 L151.2,557.7 L153.0,555.3 L154.9,553.0 L156.8,550.6
		L158.7,548.2 L160.6,545.8 L162.5,543.5 L164.4,541.1 L166.3,538.7 L168.1,536.2 L170.0,533.8 L171.9,531.4
		L173.8,528.9 L175.7,526.4 L177.6,523.9 L179.5,521.3 L181.4,518.7 L183.2,516.1 L185.1,513.5 L187.0,510.8
		L188.9,508.1 L190.8,505.3 L192.7,502.5 L194.6,499.7 L196.5,496.8 L198.3,493.9 L200.2,491.0 L202.1,488.0
		L204.0,484.9 L205.9,481.8 L207.8,478.7 L209.7,475.6 L211.6,472.4 L213.4,469.1 L215.3,465.8 L217.2,462.5
		L219.1,459.2 L221.0,455.8 L222.9,452.4 L224.8,448.9 L226.6,445.4 L228.5,441.9 L230.4,438.3 L232.3,434.7
		L234.2,431.1 L236.1,427.4 L238.0,423.7 L239.9,420.0 L241.7,416.3 L243.6,412.5 L245.5,408.7 L247.4,405.0
		L249.3,401.2 L251.2,397.5 L253.1,393.7 L255.0,390.0 L256.8,386.3 L258.7,382.6 L260.6,379.0 L262.5,375.4
		L264.4,371.8 L266.3,368.3 L268.2,364.8 L270.1,361.4 L271.9,358.0 L273.8,354.6 L275.7,351.3 L277.6,348.0
		L279.5,344.7 L281.4,341.5 L283.3,338.3 L285.2,335.0 L287.0,331.8 L288.9,328.5 L290.8,325.3 L292.7,322.0
		L294.6,318.7 L296.5,315.3 L298.4,312.0 L300.2,308.6 L302.1,305.2 L304.0,301.7 L305.9,298.2 L307.8,294.7
		L309.7,291.2 L311.6,287.7 L313.5,284.2 L315.3,280.6 L317.2,277.1 L319.1,273.6 L321.0,270.1 L322.9,266.6
		L324.8,263.1 L326.7,259.7 L328.6,256.2 L330.4,252.9 L332.3,249.5 L334.2,246.2 L336.1,242.9 L338.0,239.6
		L339.9,236.4 L341.8,233.2 L343.7,230.0 L345.5,226.8 L347.4,223.7 L349.3,220.5 L351.2,217.3 L353.1,214.2
		L355.0,211.0 L356.9,207.8 L358.8,204.6 L360.6,201.4 L362.5,198.2 L364.4,194.9 L366.3,191.7 L368.2,188.4
		L370.1,185.2 L372.0,181.9 L373.8,178.6 L375.7,175.3 L377.6,172.1 L379.5,168.8 L381.4,165.6 L383.3,162.4
		L385.2,159.3 L387.1,156.2 L388.9,153.1 L390.8,150.2 L392.7,147.2 L394.6,144.4 L396.5,141.7 L398.4,139.0
		L400.3,136.4 L402.2,134.0 L404.0,131.6 L405.9,129.4 L407.8,127.3 L409.7,125.3 L411.6,123.4 L413.5,121.6
		L415.4,120.0 L417.3,118.5 L419.1,117.2 L421.0,115.9 L422.9,114.8 L424.8,113.8 L426.7,112.9 L428.6,112.1
		L430.5,111.3 L432.4,110.7 L434.2,110.1 L436.1,109.6 L438.0,109.2 L439.9,108.8 L441.8,108.4 L443.7,108.0
		L445.6,107.6 L447.4,107.2 L449.3,106.8 L451.2,106.3 L453.1,105.9 L455.0,105.3 L456.9,104.7 L458.8,104.1
		L460.7,103.4 L462.5,102.7 L464.4,101.9 L466.3,101.2 L468.2,100.3 L470.1,99.5 L472.0,98.7 L473.9,97.8
		L475.8,97.0 L477.6,96.2 L479.5,95.5 L481.4,94.8 L483.3,94.2 L485.2,93.7 L487.1,93.2 L489.0,92.9
		L490.9,92.6 L492.7,92.4 L494.6,92.3 L496.5,92.3 L498.4,92.4 L500.3,92.6 L502.2,92.9 L504.1,93.2
		L506.0,93.6 L507.8,94.1 L509.7,94.7 L511.6,95.3 L513.5,96.0 L515.4,96.7 L517.3,97.5 L519.2,98.3
		L521.0,99.2 L522.9,100.2 L524.8,101.1 L526.7,102.1 L528.6,103.2 L530.5,104.3 L532.4,105.4 L534.3,106.6
		L536.1,107.8 L538.0,109.0 L539.9,110.3 L541.8,111.6 L543.7,112.9 L545.6,114.3 L547.5,115.7 L549.4,117.1
		L551.2,118.6 L553.1,120.2 L555.0,121.8 L556.9,123.5 L558.8,125.2 L560.7,127.1 L562.6,129.0 L564.5,131.0
		L566.3,133.1 L568.2,135.3 L570.1,137.6 L572.0,140.0 L573.9,142.4 L575.8,144.9 L577.7,147.5 L579.5,150.2
		L581.4,152.9 L583.3,155.6 L585.2,158.3 L587.1,161.1 L589.0,163.8 L590.9,166.6 L592.8,169.3 L594.6,172.0
		L596.5,174.7 L598.4,177.3 L600.3,179.9 L602.2,182.5 L604.1,185.0 L606.0,187.5 L607.9,190.0 L609.7,192.5
		L611.6,194.9 L613.5,197.4 L615.4,199.8 L617.3,202.3 L619.2,204.8 L621.1,207.2 L623.0,209.8 L624.8,212.3
		L626.7,214.9 L628.6,217.5 L630.5,220.2 L632.4,222.9 L634.3,225.6 L636.2,228.4 L638.1,231.2 L639.9,234.0
		L641.8,236.9 L643.7,239.8 L645.6,242.7 L647.5,245.6 L649.4,248.6 L651.3,251.6 L653.1,254.6 L655.0,257.6
		L656.9,260.7 L658.8,263.8 L660.7,266.8 L662.6,270.0 L664.5,273.1 L666.4,276.3 L668.2,279.4 L670.1,282.6
		L672.0,285.8 L673.9,289.0 L675.8,292.3 L677.7,295.5 L679.6,298.7 L681.5,301.9 L683.3,305.1 L685.2,308.3
		L687.1,311.4 L689.0,314.6 L690.9,317.7 L692.8,320.8 L694.7,323.8 L696.6,326.8 L698.4,329.8 L700.3,332.7
		L702.2,335.7 L704.1,338.5 L706.0,341.4 L707.9,344.2 L709.8,347.0 L711.7,349.8 L713.5,352.6 L715.4,355.4
		L717.3,358.1 L719.2,360.9 L721.1,363.7 L723.0,366.5 L724.9,369.3 L726.7,372.1 L728.6,374.9 L730.5,377.7
		L732.4,380.6 L734.3,383.4 L736.2,386.3 L738.1,389.1 L740.0,392.0 L741.8,394.8 L743.7,397.6 L745.6,400.4
		L747.5,403.2 L749.4,405.9 L751.3,408.6 L753.2,411.3 L755.1,413.9 L756.9,416.5 L758.8,419.0 L760.7,421.5
		L762.6,424.0 L764.5,426.4 L766.4,428.8 L768.3,431.1 L770.2,433.5 L772.0,435.8 L773.9,438.1 L775.8,440.5
		L777.7,442.8 L779.6,445.1 L781.5,447.5 L783.4,449.9 L785.3,452.3 L787.1,454.8 L789.0,457.3 L790.9,459.8
		L792.8,462.3 L794.7,464.8 L796.6,467.3 L798.5,469.9 L800.3,472.4 L802.2,475.0 L804.1,477.5 L806.0,480.0
		L807.9,482.4 L809.8,484.9 L811.7,487.3 L813.6,489.6 L815.4,491.9 L817.3,494.1 L819.2,496.3 L821.1,498.5
		L823.0,500.6 L824.9,502.6 L826.8,504.7 L828.7,506.7 L830.5,508.6 L832.4,510.6 L834.3,512.5 L836.2,514.4
		L838.1,516.3 L840.0,518.3 L841.9,520.2 L843.8,522.2 L845.6,524.1 L847.5,526.1 L849.4,528.1 L851.3,530.2
		L853.2,532.2 L855.1,534.3 L857.0,536.3 L858.9,538.4 L860.7,540.5 L862.6,542.5 L864.5,544.6 L866.4,546.6
		L868.3,548.6 L870.2,550.6 L872.1,552.5 L873.9,554.4 L875.8,556.3 L877.7,558.0 L879.6,559.8 L881.5,561.5
		L883.4,563.1 L885.3,564.6 L887.2,566.1 L889.0,567.6 L890.9,569.0 L892.8,570.4 L894.7,571.7 L896.6,572.9
		L898.5,574.2 L900.4,575.4 L902.3,576.5 L904.1,577.7 L906.0,578.8 L907.9,579.9 L909.8,581.0 L911.7,582.1
		L913.6,583.2 L915.5,584.3 L917.4,585.3 L919.2,586.4 L921.1,587.5 L923.0,588.6 L924.9,589.6 L926.8,590.7
		L928.7,591.8 L930.6,592.9 L932.5,594.0 L934.3,595.1 L936.2,596.2 L938.1,597.2 L940.0,598.3 L941.9,599.4
		L943.8,600.5 L945.7,601.6 L947.5,602.7 L949.4,603.7 L951.3,604.8 L953.2,605.8 L955.1,606.9 L957.0,607.9
		L958.9,608.9 L960.8,609.9 L962.6,610.8 L964.5,611.8 L966.4,612.7 L968.3,613.6 L970.2,614.5 L972.1,615.4
		L974.0,616.2 L975.9,617.0 L977.7,617.8 L979.6,618.6 L981.5,619.4 L983.4,620.1 L985.3,620.9 L987.2,621.6
		L989.1,622.3 L991.0,623.0 L992.8,623.6 L994.7,624.3 L996.6,624.9 L998.5,625.6 L1000.4,626.2 L1002.3,626.8
		L1004.2,627.4 L1006.1,628.0 L1007.9,628.6 L1009.8,629.2 L1011.7,629.8 L1013.6,630.3  '/></g>
	</g>
	<g id="gnuplot_plot_2" ><title>Confidence interval</title>
<g fill="none" color="white" stroke="rgb( 31, 120, 180)" stroke-width="1.00" stroke-linecap="butt" stroke-linejoin="miter">
</g>
<g fill="none" color="black" stroke="currentColor" stroke-width="1.00" stroke-linecap="butt" stroke-linejoin="miter">
	<g transform="translate(1089.0,85.0)" stroke="none" fill="black" font-family="Helvetica" font-size="12.00"  text-anchor="start">
		<text><tspan font-family="Helvetica" >Confidence interval</tspan></text>
	</g>
</g>
<g fill="none" color="black" stroke="currentColor" stroke-width="1.00" stroke-linecap="butt" stroke-linejoin="miter">
	<g stroke='none' shape-rendering='crispEdges'>
		<polygon fill = 'rgb( 31, 120, 180)' fill-opacity = '0.250000' points = '1038.5,85.6 1080.7,85.6 1080.7,76.6 1038.5,76.6 '/>
		<polygon fill = 'rgb( 31, 120, 180)' fill-opacity = '0.250000' points = '158.7,548.2 158.7,662.4 160.6,662.4 160.6,545.8 '/>
		<polygon fill = 'rgb( 31, 120, 180)' fill-opacity = '0.250000' points = '160.6,545.8 160.6,662.4 162.5,662.4 162.5,543.5 '/>
		<polygon fill = 'rgb( 31, 120, 180)' fill-opacity = '0.250000' points = '162.5,543.5 162.5,662.4 164.4,662.4 164.4,541.1 '/>
		<polygon fill = 'rgb( 31, 120, 180)' fill-opacity = '0.250000' points = '164.4,541.1 164.4,662.4 166.3,662.4 166.3,538.7 '/>
		<polygon fill = 'rgb( 31, 120, 180)' fill-opacity = '0.250000' points = '166.3,538.7 166.3,662.4 168.1,662.4 168.1,536.2 '/>
		<polygon fill = 'rgb( 31, 120, 180)' fill-opacity = '0.250000' points = '168.1,536.2 168.1,662.4 170.0,662.4 170.0,533.8 '/>
		<polygon fill = 'rgb( 31, 120, 180)' fill-opacity = '0.250000' points = '170.0,533.8 170.0,662.4 171.9,662.4 171.9,531.4 '/>
		<polygon fill = 'rgb( 31, 120, 180)' fill-opacity = '0.250000' points = '171.9,531.4 171.9,662.4 173.8,662.4 173.8,528.9 '/>
		<polygon fill = 'rgb( 31, 120, 180)' fill-opacity = '0.250000' points = '173.8,528.9 173.8,662.4 175.7,662.4 175.7,526.4 '/>
		<polygon fill = 'rgb( 31, 120, 180)' fill-opacity = '0.250000' points = '175.7,526.4 175.7,662.4 177.6,662.4 177.6,523.9 '/>
		<polygon fill = 'rgb( 31, 120, 180)' fill-opacity = '0.250000' points = '177.6,523.9 177.6,662.4 179.5,662.4 179.5,521.3 '/>
		<polygon fill = 'rgb( 31, 120, 180)' fill-opacity = '0.250000' points = '179.5,521.3 179.5,662.4 181.4,662.4 181.4,518.7 '/>
		<polygon fill = 'rgb( 31, 120, 180)' fill-opacity = '0.250000' points = '181.4,518.7 181.4,662.4 183.2,662.4 183.2,516.1 '/>
		<polygon fill = 'rgb( 31, 120, 180)' fill-opacity = '0.250000' points = '183.2,516.1 183.2,662.4 185.1,662.4 185.1,513.5 '/>
		<polygon fill = 'rgb( 31, 120, 180)' fill-opacity = '0.250000' points = '185.1,513.5 185.1,662.4 187.0,662.4 187.0,510.8 '/>
		<polygon fill = 'rgb( 31, 120, 180)' fill-opacity = '0.250000' points = '187.0,510.8 187.0,662.4 188.9,662.4 188.9,508.1 '/>
		<polygon fill = 'rgb( 31, 120, 180)' fill-opacity = '0.250000' points = '188.9,508.1 188.9,662.4 190.8,662.4 190.8,505.3 '/>
		<polygon fill = 'rgb( 31, 120, 180)' fill-opacity = '0.250000' points = '190.8,505.3 190.8,662.4 192.7,662.4 192.7,502.5 '/>
		<polygon fill = 'rgb( 31, 120, 180)' fill-opacity = '0.250000' points = '192.7,502.5 192.7,662.4 194.6,662.4 194.6,499.7 '/>
		<polygon fill = 'rgb( 31, 120, 180)' fill-opacity = '0.250000' points = '194.6,499.7 194.6,662.4 196.5,662.4 196.5,496.8 '/>
		<polygon fill = 'rgb( 31, 120, 180)' fill-opacity = '0.250000' points = '196.5,496.8 196.5,662.4 198.3,662.4 198.3,493.9 '/>
		<polygon fill = 'rgb( 31, 120, 180)' fill-opacity = '0.250000' points = '198.3,493.9 198.3,662.4 200.2,662.4 200.2,491.0 '/>
		<polygon fill = 'rgb( 31, 120, 180)' fill-opacity = '0.250000' points = '200.2,491.0 200.2,662.4 202.1,662.4 202.1,488.0 '/>
		<polygon fill = 'rgb( 31, 120, 180)' fill-opacity = '0.250000' points = '202.1,488.0 202.1,662.4 204.0,662.4 204.0,484.9 '/>
		<polygon fill = 'rgb( 31, 120, 180)' fill-opacity = '0.250000' points = '204.0,484.9 204.0,662.4 205.9,662.4 205.9,481.8 '/>
		<polygon fill = 'rgb( 31, 120, 180)' fill-opacity = '0.250000' points = '205.9,481.8 205.9,662.4 207.8,662.4 207.8,478.7 '/>
		<polygon fill = 'rgb( 31, 120, 180)' fill-opacity = '0.250000' points = '207.8,478.7 207.8,662.4 209.7,662.4 209.7,475.6 '/>
		<polygon fill = 'rgb( 31, 120, 180)' fill-opacity = '0.250000' points = '209.7,475.6 209.7,662.4 211.6,662.4 211.6,472.4 '/>
		<polygon fill = 'rgb( 31, 120, 180)' fill-opacity = '0.250000' points = '211.6,472.4 211.6,662.4 213.4,662.4 213.4,469.1 '/>
		<polygon fill = 'rgb( 31, 120, 180)' fill-opacity = '0.250000' points = '213.4,469.1 213.4,662.4 215.3,662.4 215.3,465.8 '/>
		<polygon fill = 'rgb( 31, 120, 180)' fill-opacity = '0.250000' points = '215.3,465.8 215.3,662.4 217.2,662.4 217.2,462.5 '/>
		<polygon fill = 'rgb( 31, 120, 180)' fill-opacity = '0.250000' points = '217.2,462.5 217.2,662.4 219.1,662.4 219.1,459.2 '/>
		<polygon fill = 'rgb( 31, 120, 180)' fill-opacity = '0.250000' points = '219.1,459.2 219.1,662.4 221.0,662.4 221.0,455.8 '/>
		<polygon fill = 'rgb( 31, 120, 180)' fill-opacity = '0.250000' points = '221.0,455.8 221.0,662.4 222.9,662.4 222.9,452.4 '/>
		<polygon fill = 'rgb( 31, 120, 180)' fill-opacity = '0.250000' points = '222.9,452.4 222.9,662.4 224.8,662.4 224.8,448.9 '/>
		<polygon fill = 'rgb( 31, 120, 180)' fill-opacity = '0.250000' points = '224.8,448.9 224.8,662.4 226.6,662.4 226.6,445.4 '/>
		<polygon fill = 'rgb( 31, 120, 180)' fill-opacity = '0.250000' points = '226.6,445.4 226.6,662.4 228.5,662.4 228.5,441.9 '/>
		<polygon fill = 'rgb( 31, 120, 180)' fill-opacity = '0.250000' points = '228.5,441.9 228.5,662.4 230.4,662.4 230.4,438.3 '/>
		<polygon fill = 'rgb( 31, 120, 180)' fill-opacity = '0.250000' points = '230.4,438.3 230.4,662.4 232.3,662.4 232.3,434.7 '/>
		<polygon fill = 'rgb( 31, 120, 180)' fill-opacity = '0.250000' points = '232.3,434.7 232.3,662.4 234.2,662.4 234.2,431.1 '/>
		<polygon fill = 'rgb( 31, 120, 180)' fill-opacity = '0.250000' points = '234.2,431.1 234.2,662.4 236.1,662.4 236.1,427.4 '/>
		<polygon fill = 'rgb( 31, 120, 180)' fill-opacity = '0.250000' points = '236.1,427.4 236.1,662.4 238.0,662.4 238.0,423.7 '/>
		<polygon fill = 'rgb( 31, 120, 180)' fill-opacity = '0.250000' points = '238.0,423.7 238.0,662.4 239.9,662.4 239.9,420.0 '/>
		<polygon fill = 'rgb( 31, 120, 180)' fill-opacity = '0.250000' points = '239.9,420.0 239.9,662.4 241.7,662.4 241.7,416.3 '/>
		<polygon fill = 'rgb( 31, 120, 180)' fill-opacity = '0.250000' points = '241.7,416.3 241.7,662.4 243.6,662.4 243.6,412.5 '/>
		<polygon fill = 'rgb( 31, 120, 180)' fill-opacity = '0.250000' points = '243.6,412.5 243.6,662.4 245.5,662.4 245.5,408.7 '/>
		<polygon fill = 'rgb( 31, 120, 180)' fill-opacity = '0.250000' points = '245.5,408.7 245.5,662.4 247.4,662.4 247.4,405.0 '/>
		<polygon fill = 'rgb( 31, 120, 180)' fill-opacity = '0.250000' points = '247.4,405.0 247.4,662.4 249.3,662.4 249.3,401.2 '/>
		<polygon fill = 'rgb( 31, 120, 180)' fill-opacity = '0.250000' points = '249.3,401.2 249.3,662.4 251.2,662.4 251.2,397.5 '/>
		<polygon fill = 'rgb( 31, 120, 180)' fill-opacity = '0.250000' points = '251.2,397.5 251.2,662.4 253.1,662.4 253.1,393.7 '/>
		<polygon fill = 'rgb( 31, 120, 180)' fill-opacity = '0.250000' points = '253.1,393.7 253.1,662.4 255.0,662.4 255.0,390.0 '/>
		<polygon fill = 'rgb( 31, 120, 180)' fill-opacity = '0.250000' points = '255.0,390.0 255.0,662.4 256.8,662.4 256.8,386.3 '/>
		<polygon fill = 'rgb( 31, 120, 180)' fill-opacity = '0.250000' points = '256.8,386.3 256.8,662.4 258.7,662.4 258.7,382.6 '/>
		<polygon fill = 'rgb( 31, 120, 180)' fill-opacity = '0.250000' points = '258.7,382.6 258.7,662.4 260.6,662.4 260.6,379.0 '/>
		<polygon fill = 'rgb( 31, 120, 180)' fill-opacity = '0.250000' points = '260.6,379.0 260.6,662.4 262.5,662.4 262.5,375.4 '/>
		<polygon fill = 'rgb( 31, 120, 180)' fill-opacity = '0.250000' points = '262.5,375.4 262.5,662.4 264.4,662.4 264.4,371.8 '/>
		<polygon fill = 'rgb( 31, 120, 180)' fill-opacity = '0.250000' points = '264.4,371.8 264.4,662.4 266.3,662.4 266.3,368.3 '/>
		<polygon fill = 'rgb( 31, 120, 180)' fill-opacity = '0.250000' points = '266.3,368.3 266.3,662.4 268.2,662.4 268.2,364.8 '/>
		<polygon fill = 'rgb( 31, 120, 180)' fill-opacity = '0.250000' points = '268.2,364.8 268.2,662.4 270.1,662.4 270.1,361.4 '/>
		<polygon fill = 'rgb( 31, 120, 180)' fill-opacity = '0.250000' points = '270.1,361.4 270.1,662.4 271.9,662.4 271.9,358.0 '/>
		<polygon fill = 'rgb( 31, 120, 180)' fill-opacity = '0.250000' points = '271.9,358.0 271.9,662.4 273.8,662.4 273.8,354.6 '/>
		<polygon fill = 'rgb( 31, 120, 180)' fill-opacity = '0.250000' points = '273.8,354.6 273.8,662.4 275.7,662.4 275.7,351.3 '/>
		<polygon fill = 'rgb( 31, 120, 180)' fill-opacity = '0.250000' points = '275.7,351.3 275.7,662.4 277.6,662.4 277.6,348.0 '/>
		<polygon fill = 'rgb( 31, 120, 180)' fill-opacity = '0.250000' points = '277.6,348.0 277.6,662.4 279.5,662.4 279.5,344.7 '/>
		<polygon fill = 'rgb( 31, 120, 180)' fill-opacity = '0.250000' points = '279.5,344.7 279.5,662.4 281.4,662.4 281.4,341.5 '/>
		<polygon fill = 'rgb( 31, 120, 180)' fill-opacity = '0.250000' points = '281.4,341.5 281.4,662.4 283.3,662.4 283.3,338.3 '/>
		<polygon fill = 'rgb( 31, 120, 180)' fill-opacity = '0.250000' points = '283.3,338.3 283.3,662.4 285.2,662.4 285.2,335.0 '/>
		<polygon fill = 'rgb( 31, 120, 180)' fill-opacity = '0.250000' points = '285.2,335.0 285.2,662.4 287.0,662.4 287.0,331.8 '/>
		<polygon fill = 'rgb( 31, 120, 180)' fill-opacity = '0.250000' points = '287.0,331.8 287.0,662.4 288.9,662.4 288.9,328.5 '/>
		<polygon fill = 'rgb( 31, 120, 180)' fill-opacity = '0.250000' points = '288.9,328.5 288.9,662.4 290.8,662.4 290.8,325.3 '/>
		<polygon fill = 'rgb( 31, 120, 180)' fill-opacity = '0.250000' points = '290.8,325.3 290.8,662.4 292.7,662.4 292.7,322.0 '/>
		<polygon fill = 'rgb( 31, 120, 180)' fill-opacity = '0.250000' points = '292.7,322.0 292.7,662.4 294.6,662.4 294.6,318.7 '/>
		<polygon fill = 'rgb( 31, 120, 180)' fill-opacity = '0.250000' points = '294.6,318.7 294.6,662.4 296.5,662.4 296.5,315.3 '/>
		<polygon fill = 'rgb( 31, 120, 180)' fill-opacity = '0.250000' points = '296.5,315.3 296.5,662.4 298.4,662.4 298.4,312.0 '/>
		<polygon fill = 'rgb( 31, 120, 180)' fill-opacity = '0.250000' points = '298.4,312.0 298.4,662.4 300.2,662.4 300.2,308.6 '/>
		<polygon fill = 'rgb( 31, 120, 180)' fill-opacity = '0.250000' points = '300.2,308.6 300.2,662.4 302.1,662.4 302.1,305.2 '/>
		<polygon fill = 'rgb( 31, 120, 180)' fill-opacity = '0.250000' points = '302.1,305.2 302.1,662.4 304.0,662.4 304.0,301.7 '/>
		<polygon fill = 'rgb( 31, 120, 180)' fill-opacity = '0.250000' points = '304.0,301.7 304.0,662.4 305.9,662.4 305.9,298.2 '/>
		<polygon fill = 'rgb( 31, 120, 180)' fill-opacity = '0.250000' points = '305.9,298.2 305.9,662.4 307.8,662.4 307.8,294.7 '/>
		<polygon fill = 'rgb( 31, 120, 180)' fill-opacity = '0.250000' points = '307.8,294.7 307.8,662.4 309.7,662.4 309.7,291.2 '/>
		<polygon fill = 'rgb( 31, 120, 180)' fill-opacity = '0.250000' points = '309.7,291.2 309.7,662.4 311.6,662.4 311.6,287.7 '/>
		<polygon fill = 'rgb( 31, 120, 180)' fill-opacity = '0.250000' points = '311.6,287.7 311.6,662.4 313.5,662.4 313.5,284.2 '/>
		<polygon fill = 'rgb( 31, 120, 180)' fill-opacity = '0.250000' points = '313.5,284.2 313.5,662.4 315.3,662.4 315.3,280.6 '/>
		<polygon fill = 'rgb( 31, 120, 180)' fill-opacity = '0.250000' points = '315.3,280.6 315.3,662.4 317.2,662.4 317.2,277.1 '/>
		<polygon fill = 'rgb( 31, 120, 180)' fill-opacity = '0.250000' points = '317.2,277.1 317.2,662.4 319.1,662.4 319.1,273.6 '/>
		<polygon fill = 'rgb( 31, 120, 180)' fill-opacity = '0.250000' points = '319.1,273.6 319.1,662.4 321.0,662.4 321.0,270.1 '/>
		<polygon fill = 'rgb( 31, 120, 180)' fill-opacity = '0.250000' points = '321.0,270.1 321.0,662.4 322.9,662.4 322.9,266.6 '/>
		<polygon fill = 'rgb( 31, 120, 180)' fill-opacity = '0.250000' points = '322.9,266.6 322.9,662.4 324.8,662.4 324.8,263.1 '/>
		<polygon fill = 'rgb( 31, 120, 180)' fill-opacity = '0.250000' points = '324.8,263.1 324.8,662.4 326.7,662.4 326.7,259.7 '/>
		<polygon fill = 'rgb( 31, 120, 180)' fill-opacity = '0.250000' points = '326.7,259.7 326.7,662.4 328.6,662.4 328.6,256.2 '/>
		<polygon fill = 'rgb( 31, 120, 180)' fill-opacity = '0.250000' points = '328.6,256.2 328.6,662.4 330.4,662.4 330.4,252.9 '/>
		<polygon fill = 'rgb( 31, 120, 180)' fill-opacity = '0.250000' points = '330.4,252.9 330.4,662.4 332.3,662.4 332.3,249.5 '/>
		<polygon fill = 'rgb( 31, 120, 180)' fill-opacity = '0.250000' points = '332.3,249.5 332.3,662.4 334.2,662.4 334.2,246.2 '/>
		<polygon fill = 'rgb( 31, 120, 180)' fill-opacity = '0.250000' points = '334.2,246.2 334.2,662.4 336.1,662.4 336.1,242.9 '/>
		<polygon fill = 'rgb( 31, 120, 180)' fill-opacity = '0.250000' points = '336.1,242.9 336.1,662.4 338.0,662.4 338.0,239.6 '/>
		<polygon fill = 'rgb( 31, 120, 180)' fill-opacity = '0.250000' points = '338.0,239.6 338.0,662.4 339.9,662.4 339.9,236.4 '/>
		<polygon fill = 'rgb( 31, 120, 180)' fill-opacity = '0.250000' points = '339.9,236.4 339.9,662.4 341.8,662.4 341.8,233.2 '/>
		<polygon fill = 'rgb( 31, 120, 180)' fill-opacity = '0.250000' points = '341.8,233.2 341.8,662.4 343.7,662.4 343.7,230.0 '/>
		<polygon fill = 'rgb( 31, 120, 180)' fill-opacity = '0.250000' points = '343.7,230.0 343.7,662.4 345.5,662.4 345.5,226.8 '/>
		<polygon fill = 'rgb( 31, 120, 180)' fill-opacity = '0.250000' points = '345.5,226.8 345.5,662.4 347.4,662.4 347.4,223.7 '/>
		<polygon fill = 'rgb( 31, 120, 180)' fill-opacity = '0.250000' points = '347.4,223.7 347.4,662.4 349.3,662.4 349.3,220.5 '/>
		<polygon fill = 'rgb( 31, 120, 180)' fill-opacity = '0.250000' points = '349.3,220.5 349.3,662.4 351.2,662.4 351.2,217.3 '/>
		<polygon fill = 'rgb( 31, 120, 180)' fill-opacity = '0.250000' points = '351.2,217.3 351.2,662.4 353.1,662.4 353.1,214.2 '/>
		<polygon fill = 'rgb( 31, 120, 180)' fill-opacity = '0.250000' points = '353.1,214.2 353.1,662.4 355.0,662.4 355.0,211.0 '/>
		<polygon fill = 'rgb( 31, 120, 180)' fill-opacity = '0.250000' points = '355.0,211.0 355.0,662.4 356.9,662.4 356.9,207.8 '/>
		<polygon fill = 'rgb( 31, 120, 180)' fill-opacity = '0.250000' points = '356.9,207.8 356.9,662.4 358.8,662.4 358.8,204.6 '/>
		<polygon fill = 'rgb( 31, 120, 180)' fill-opacity = '0.250000' points = '358.8,204.6 358.8,662.4 360.6,662.4 360.6,201.4 '/>
		<polygon fill = 'rgb( 31, 120, 180)' fill-opacity = '0.250000' points = '360.6,201.4 360.6,662.4 362.5,662.4 362.5,198.2 '/>
		<polygon fill = 'rgb( 31, 120, 180)' fill-opacity = '0.250000' points = '362.5,198.2 362.5,662.4 364.4,662.4 364.4,194.9 '/>
		<polygon fill = 'rgb( 31, 120, 180)' fill-opacity = '0.250000' points = '364.4,194.9 364.4,662.4 366.3,662.4 366.3,191.7 '/>
		<polygon fill = 'rgb( 31, 120, 180)' fill-opacity = '0.250000' points = '366.3,191.7 366.3,662.4 368.2,662.4 368.2,188.4 '/>
		<polygon fill = 'rgb( 31, 120, 180)' fill-opacity = '0.250000' points = '368.2,188.4 368.2,662.4 370.1,662.4 370.1,185.2 '/>
		<polygon fill = 'rgb( 31, 120, 180)' fill-opacity = '0.250000' points = '370.1,185.2 370.1,662.4 372.0,662.4 372.0,181.9 '/>
		<polygon fill = 'rgb( 31, 120, 180)' fill-opacity = '0.250000' points = '372.0,181.9 372.0,662.4 373.8,662.4 373.8,178.6 '/>
		<polygon fill = 'rgb( 31, 120, 180)' fill-opacity = '0.250000' points = '373.8,178.6 373.8,662.4 375.7,662.4 375.7,175.3 '/>
		<polygon fill = 'rgb( 31, 120, 180)' fill-opacity = '0.250000' points = '375.7,175.3 375.7,662.4 377.6,662.4 377.6,172.1 '/>
		<polygon fill = 'rgb( 31, 120, 180)' fill-opacity = '0.250000' points = '377.6,172.1 377.6,662.4 379.5,662.4 379.5,168.8 '/>
		<polygon fill = 'rgb( 31, 120, 180)' fill-opacity = '0.250000' points = '379.5,168.8 379.5,662.4 381.4,662.4 381.4,165.6 '/>
		<polygon fill = 'rgb( 31, 120, 180)' fill-opacity = '0.250000' points = '381.4,165.6 381.4,662.4 383.3,662.4 383.3,162.4 '/>
		<polygon fill = 'rgb( 31, 120, 180)' fill-opacity = '0.250000' points = '383.3,162.4 383.3,662.4 385.2,662.4 385.2,159.3 '/>
		<polygon fill = 'rgb( 31, 120, 180)' fill-opacity = '0.250000' points = '385.2,159.3 385.2,662.4 387.1,662.4 387.1,156.2 '/>
		<polygon fill = 'rgb( 31, 120, 180)' fill-opacity = '0.250000' points = '387.1,156.2 387.1,662.4 388.9,662.4 388.9,153.1 '/>
		<polygon fill = 'rgb( 31, 120, 180)' fill-opacity = '0.250000' points = '388.9,153.1 388.9,662.4 390.8,662.4 390.8,150.2 '/>
		<polygon fill = 'rgb( 31, 120, 180)' fill-opacity = '0.250000' points = '390.8,150.2 390.8,662.4 392.7,662.4 392.7,147.2 '/>
		<polygon fill = 'rgb( 31, 120, 180)' fill-opacity = '0.250000' points = '392.7,147.2 392.7,662.4 394.6,662.4 394.6,144.4 '/>
		<polygon fill = 'rgb( 31, 120, 180)' fill-opacity = '0.250000' points = '394.6,144.4 394.6,662.4 396.5,662.4 396.5,141.7 '/>
		<polygon fill = 'rgb( 31, 120, 180)' fill-opacity = '0.250000' points = '396.5,141.7 396.5,662.4 398.4,662.4 398.4,139.0 '/>
		<polygon fill = 'rgb( 31, 120, 180)' fill-opacity = '0.250000' points = '398.4,139.0 398.4,662.4 400.3,662.4 400.3,136.4 '/>
		<polygon fill = 'rgb( 31, 120, 180)' fill-opacity = '0.250000' points = '400.3,136.4 400.3,662.4 402.2,662.4 402.2,134.0 '/>
		<polygon fill = 'rgb( 31, 120, 180)' fill-opacity = '0.250000' points = '402.2,134.0 402.2,662.4 404.0,662.4 404.0,131.6 '/>
		<polygon fill = 'rgb( 31, 120, 180)' fill-opacity = '0.250000' points = '404.0,131.6 404.0,662.4 405.9,662.4 405.9,129.4 '/>
		<polygon fill = 'rgb( 31, 120, 180)' fill-opacity = '0.250000' points = '405.9,129.4 405.9,662.4 407.8,662.4 407.8,127.3 '/>
		<polygon fill = 'rgb( 31, 120, 180)' fill-opacity = '0.250000' points = '407.8,127.3 407.8,662.4 409.7,662.4 409.7,125.3 '/>
		<polygon fill = 'rgb( 31, 120, 180)' fill-opacity = '0.250000' points = '409.7,125.3 409.7,662.4 411.6,662.4 411.6,123.4 '/>
		<polygon fill = 'rgb( 31, 120, 180)' fill-opacity = '0.250000' points = '411.6,123.4 411.6,662.4 413.5,662.4 413.5,121.6 '/>
		<polygon fill = 'rgb( 31, 120, 180)' fill-opacity = '0.250000' points = '413.5,121.6 413.5,662.4 415.4,662.4 415.4,120.0 '/>
		<polygon fill = 'rgb( 31, 120, 180)' fill-opacity = '0.250000' points = '415.4,120.0 415.4,662.4 417.3,662.4 417.3,118.5 '/>
		<polygon fill = 'rgb( 31, 120, 180)' fill-opacity = '0.250000' points = '417.3,118.5 417.3,662.4 419.1,662.4 419.1,117.2 '/>
		<polygon fill = 'rgb( 31, 120, 180)' fill-opacity = '0.250000' points = '419.1,117.2 419.1,662.4 421.0,662.4 421.0,115.9 '/>
		<polygon fill = 'rgb( 31, 120, 180)' fill-opacity = '0.250000' points = '421.0,115.9 421.0,662.4 422.9,662.4 422.9,114.8 '/>
		<polygon fill = 'rgb( 31, 120, 180)' fill-opacity = '0.250000' points = '422.9,114.8 422.9,662.4 424.8,662.4 424.8,113.8 '/>
		<polygon fill = 'rgb( 31, 120, 180)' fill-opacity = '0.250000' points = '424.8,113.8 424.8,662.4 426.7,662.4 426.7,112.9 '/>
		<polygon fill = 'rgb( 31, 120, 180)' fill-opacity = '0.250000' points = '426.7,112.9 426.7,662.4 428.6,662.4 428.6,112.1 '/>
		<polygon fill = 'rgb( 31, 120, 180)' fill-opacity = '0.250000' points = '428.6,112.1 428.6,662.4 430.5,662.4 430.5,111.3 '/>
		<polygon fill = 'rgb( 31, 120, 180)' fill-opacity = '0.250000' points = '430.5,111.3 430.5,662.4 432.4,662.4 432.4,110.7 '/>
		<polygon fill = 'rgb( 31, 120, 180)' fill-opacity = '0.250000' points = '432.4,110.7 432.4,662.4 434.2,662.4 434.2,110.1 '/>
		<polygon fill = 'rgb( 31, 120, 180)' fill-opacity = '0.250000' points = '434.2,110.1 434.2,662.4 436.1,662.4 436.1,109.6 '/>
		<polygon fill = 'rgb( 31, 120, 180)' fill-opacity = '0.250000' points = '436.1,109.6 436.1,662.4 438.0,662.4 438.0,109.2 '/>
		<polygon fill = 'rgb( 31, 120, 180)' fill-opacity = '0.250000' points = '438.0,109.2 438.0,662.4 439.9,662.4 439.9,108.8 '/>
		<polygon fill = 'rgb( 31, 120, 180)' fill-opacity = '0.250000' points = '439.9,108.8 439.9,662.4 441.8,662.4 441.8,108.4 '/>
		<polygon fill = 'rgb( 31, 120, 180)' fill-opacity = '0.250000' points = '441.8,108.4 441.8,662.4 443.7,662.4 443.7,108.0 '/>
		<polygon fill = 'rgb( 31, 120, 180)' fill-opacity = '0.250000' points = '443.7,108.0 443.7,662.4 445.6,662.4 445.6,107.6 '/>
		<polygon fill = 'rgb( 31, 120, 180)' fill-opacity = '0.250000' points = '445.6,107.6 445.6,662.4 447.4,662.4 447.4,107.2 '/>
		<polygon fill = 'rgb( 31, 120, 180)' fill-opacity = '0.250000' points = '447.4,107.2 447.4,662.4 449.3,662.4 449.3,106.8 '/>
		<polygon fill = 'rgb( 31, 120, 180)' fill-opacity = '0.250000' points = '449.3,106.8 449.3,662.4 451.2,662.4 451.2,106.3 '/>
		<polygon fill = 'rgb( 31, 120, 180)' fill-opacity = '0.250000' points = '451.2,106.3 451.2,662.4 453.1,662.4 453.1,105.9 '/>
		<polygon fill = 'rgb( 31, 120, 180)' fill-opacity = '0.250000' points = '453.1,105.9 453.1,662.4 455.0,662.4 455.0,105.3 '/>
		<polygon fill = 'rgb( 31, 120, 180)' fill-opacity = '0.250000' points = '455.0,105.3 455.0,662.4 456.9,662.4 456.9,104.7 '/>
		<polygon fill = 'rgb( 31, 120, 180)' fill-opacity = '0.250000' points = '456.9,104.7 456.9,662.4 458.8,662.4 458.8,104.1 '/>
		<polygon fill = 'rgb( 31, 120, 180)' fill-opacity = '0.250000' points = '458.8,104.1 458.8,662.4 460.7,662.4 460.7,103.4 '/>
		<polygon fill = 'rgb( 31, 120, 180)' fill-opacity = '0.250000' points = '460.7,103.4 460.7,662.4 462.5,662.4 462.5,102.7 '/>
		<polygon fill = 'rgb( 31, 120, 180)' fill-opacity = '0.250000' points = '462.5,102.7 462.5,662.4 464.4,662.4 464.4,101.9 '/>
		<polygon fill = 'rgb( 31, 120, 180)' fill-opacity = '0.250000' points = '464.4,101.9 464.4,662.4 466.3,662.4 466.3,101.2 '/>
		<polygon fill = 'rgb( 31, 120, 180)' fill-opacity = '0.250000' points = '466.3,101.2 466.3,662.4 468.2,662.4 468.2,100.3 '/>
		<polygon fill = 'rgb( 31, 120, 180)' fill-opacity = '0.250000' points = '468.2,100.3 468.2,662.4 470.1,662.4 470.1,99.5 '/>
		<polygon fill = 'rgb( 31, 120, 180)' fill-opacity = '0.250000' points = '470.1,99.5 470.1,662.4 472.0,662.4 472.0,98.7 '/>
		<polygon fill = 'rgb( 31, 120, 180)' fill-opacity = '0.250000' points = '472.0,98.7 472.0,662.4 473.9,662.4 473.9,97.8 '/>
		<polygon fill = 'rgb( 31, 120, 180)' fill-opacity = '0.250000' points = '473.9,97.8 473.9,662.4 475.8,662.4 475.8,97.0 '/>
		<polygon fill = 'rgb( 31, 120, 180)' fill-opacity = '0.250000' points = '475.8,97.0 475.8,662.4 477.6,662.4 477.6,96.2 '/>
		<polygon fill = 'rgb( 31, 120, 180)' fill-opacity = '0.250000' points = '477.6,96.2 477.6,662.4 479.5,662.4 479.5,95.5 '/>
		<polygon fill = 'rgb( 31, 120, 180)' fill-opacity = '0.250000' points = '479.5,95.5 479.5,662.4 481.4,662.4 481.4,94.8 '/>
		<polygon fill = 'rgb( 31, 120, 180)' fill-opacity = '0.250000' points = '481.4,94.8 481.4,662.4 483.3,662.4 483.3,94.2 '/>
		<polygon fill = 'rgb( 31, 120, 180)' fill-opacity = '0.250000' points = '483.3,94.2 483.3,662.4 485.2,662.4 485.2,93.7 '/>
		<polygon fill = 'rgb( 31, 120, 180)' fill-opacity = '0.250000' points = '485.2,93.7 485.2,662.4 487.1,662.4 487.1,93.2 '/>
		<polygon fill = 'rgb( 31, 120, 180)' fill-opacity = '0.250000' points = '487.1,93.2 487.1,662.4 489.0,662.4 489.0,92.9 '/>
		<polygon fill = 'rgb( 31, 120, 180)' fill-opacity = '0.250000' points = '489.0,92.9 489.0,662.4 490.9,662.4 490.9,92.6 '/>
		<polygon fill = 'rgb( 31, 120, 180)' fill-opacity = '0.250000' points = '490.9,92.6 490.9,662.4 492.7,662.4 492.7,92.4 '/>
		<polygon fill = 'rgb( 31, 120, 180)' fill-opacity = '0.250000' points = '492.7,92.4 492.7,662.4 494.6,662.4 494.6,92.3 '/>
		<polygon fill = 'rgb( 31, 120, 180)' fill-opacity = '0.250000' points = '494.6,92.3 494.6,662.4 496.5,662.4 496.5,92.3 '/>
		<polygon fill = 'rgb( 31, 120, 180)' fill-opacity = '0.250000' points = '496.5,92.3 496.5,662.4 498.4,662.4 498.4,92.4 '/>
		<polygon fill = 'rgb( 31, 120, 180)' fill-opacity = '0.250000' points = '498.4,92.4 498.4,662.4 500.3,662.4 500.3,92.6 '/>
		<polygon fill = 'rgb( 31, 120, 180)' fill-opacity = '0.250000' points = '500.3,92.6 500.3,662.4 502.2,662.4 502.2,92.9 '/>
		<polygon fill = 'rgb( 31, 120, 180)' fill-opacity = '0.250000' points = '502.2,92.9 502.2,662.4 504.1,662.4 504.1,93.2 '/>
		<polygon fill = 'rgb( 31, 120, 180)' fill-opacity = '0.250000' points = '504.1,93.2 504.1,662.4 506.0,662.4 506.0,93.6 '/>
		<polygon fill = 'rgb( 31, 120, 180)' fill-opacity = '0.250000' points = '506.0,93.6 506.0,662.4 507.8,662.4 507.8,94.1 '/>
		<polygon fill = 'rgb( 31, 120, 180)' fill-opacity = '0.250000' points = '507.8,94.1 507.8,662.4 509.7,662.4 509.7,94.7 '/>
		<polygon fill = 'rgb( 31, 120, 180)' fill-opacity = '0.250000' points = '509.7,94.7 509.7,662.4 511.6,662.4 511.6,95.3 '/>
		<polygon fill = 'rgb( 31, 120, 180)' fill-opacity = '0.250000' points = '511.6,95.3 511.6,662.4 513.5,662.4 513.5,96.0 '/>
		<polygon fill = 'rgb( 31, 120, 180)' fill-opacity = '0.250000' points = '513.5,96.0 513.5,662.4 515.4,662.4 515.4,96.7 '/>
		<polygon fill = 'rgb( 31, 120, 180)' fill-opacity = '0.250000' points = '515.4,96.7 515.4,662.4 517.3,662.4 517.3,97.5 '/>
		<polygon fill = 'rgb( 31, 120, 180)' fill-opacity = '0.250000' points = '517.3,97.5 517.3,662.4 519.2,662.4 519.2,98.3 '/>
		<polygon fill = 'rgb( 31, 120, 180)' fill-opacity = '0.250000' points = '519.2,98.3 519.2,662.4 521.0,662.4 521.0,99.2 '/>
		<polygon fill = 'rgb( 31, 120, 180)' fill-opacity = '0.250000' points = '521.0,99.2 521.0,662.4 522.9,662.4 522.9,100.2 '/>
		<polygon fill = 'rgb( 31, 120, 180)' fill-opacity = '0.250000' points = '522.9,100.2 522.9,662.4 524.8,662.4 524.8,101.1 '/>
		<polygon fill = 'rgb( 31, 120, 180)' fill-opacity = '0.250000' points = '524.8,101.1 524.8,662.4 526.7,662.4 526.7,102.1 '/>
		<polygon fill = 'rgb( 31, 120, 180)' fill-opacity = '0.250000' points = '526.7,102.1 526.7,662.4 528.6,662.4 528.6,103.2 '/>
		<polygon fill = 'rgb( 31, 120, 180)' fill-opacity = '0.250000' points = '528.6,103.2 528.6,662.4 530.5,662.4 530.5,104.3 '/>
		<polygon fill = 'rgb( 31, 120, 180)' fill-opacity = '0.250000' points = '530.5,104.3 530.5,662.4 532.4,662.4 532.4,105.4 '/>
		<polygon fill = 'rgb( 31, 120, 180)' fill-opacity = '0.250000' points = '532.4,105.4 532.4,662.4 534.3,662.4 534.3,106.6 '/>
		<polygon fill = 'rgb( 31, 120, 180)' fill-opacity = '0.250000' points = '534.3,106.6 534.3,662.4 536.1,662.4 536.1,107.8 '/>
		<polygon fill = 'rgb( 31, 120, 180)' fill-opacity = '0.250000' points = '536.1,107.8 536.1,662.4 538.0,662.4 538.0,109.0 '/>
		<polygon fill = 'rgb( 31, 120, 180)' fill-opacity = '0.250000' points = '538.0,109.0 538.0,662.4 539.9,662.4 539.9,110.3 '/>
		<polygon fill = 'rgb( 31, 120, 180)' fill-opacity = '0.250000' points = '539.9,110.3 539.9,662.4 541.8,662.4 541.8,111.6 '/>
		<polygon fill = 'rgb( 31, 120, 180)' fill-opacity = '0.250000' points = '541.8,111.6 541.8,662.4 543.7,662.4 543.7,112.9 '/>
		<polygon fill = 'rgb( 31, 120, 180)' fill-opacity = '0.250000' points = '543.7,112.9 543.7,662.4 545.6,662.4 545.6,114.3 '/>
		<polygon fill = 'rgb( 31, 120, 180)' fill-opacity = '0.250000' points = '545.6,114.3 545.6,662.4 547.5,662.4 547.5,115.7 '/>
		<polygon fill = 'rgb( 31, 120, 180)' fill-opacity = '0.250000' points = '547.5,115.7 547.5,662.4 549.4,662.4 549.4,117.1 '/>
		<polygon fill = 'rgb( 31, 120, 180)' fill-opacity = '0.250000' points = '549.4,117.1 549.4,662.4 551.2,662.4 551.2,118.6 '/>
		<polygon fill = 'rgb( 31, 120, 180)' fill-opacity = '0.250000' points = '551.2,118.6 551.2,662.4 553.1,662.4 553.1,120.2 '/>
		<polygon fill = 'rgb( 31, 120, 180)' fill-opacity = '0.250000' points = '553.1,120.2 553.1,662.4 555.0,662.4 555.0,121.8 '/>
		<polygon fill = 'rgb( 31, 120, 180)' fill-opacity = '0.250000' points = '555.0,121.8 555.0,662.4 556.9,662.4 556.9,123.5 '/>
		<polygon fill = 'rgb( 31, 120, 180)' fill-opacity = '0.250000' points = '556.9,123.5 556.9,662.4 558.8,662.4 558.8,125.2 '/>
		<polygon fill = 'rgb( 31, 120, 180)' fill-opacity = '0.250000' points = '558.8,125.2 558.8,662.4 560.7,662.4 560.7,127.1 '/>
		<polygon fill = 'rgb( 31, 120, 180)' fill-opacity = '0.250000' points = '560.7,127.1 560.7,662.4 562.6,662.4 562.6,129.0 '/>
		<polygon fill = 'rgb( 31, 120, 180)' fill-opacity = '0.250000' points = '562.6,129.0 562.6,662.4 564.5,662.4 564.5,131.0 '/>
		<polygon fill = 'rgb( 31, 120, 180)' fill-opacity = '0.250000' points = '564.5,131.0 564.5,662.4 566.3,662.4 566.3,133.1 '/>
		<polygon fill = 'rgb( 31, 120, 180)' fill-opacity = '0.250000' points = '566.3,133.1 566.3,662.4 568.2,662.4 568.2,135.3 '/>
		<polygon fill = 'rgb( 31, 120, 180)' fill-opacity = '0.250000' points = '568.2,135.3 568.2,662.4 570.1,662.4 570.1,137.6 '/>
		<polygon fill = 'rgb( 31, 120, 180)' fill-opacity = '0.250000' points = '570.1,137.6 570.1,662.4 572.0,662.4 572.0,140.0 '/>
		<polygon fill = 'rgb( 31, 120, 180)' fill-opacity = '0.250000' points = '572.0,140.0 572.0,662.4 573.9,662.4 573.9,142.4 '/>
		<polygon fill = 'rgb( 31, 120, 180)' fill-opacity = '0.250000' points = '573.9,142.4 573.9,662.4 575.8,662.4 575.8,144.9 '/>
		<polygon fill = 'rgb( 31, 120, 180)' fill-opacity = '0.250000' points = '575.8,144.9 575.8,662.4 577.7,662.4 577.7,147.5 '/>
		<polygon fill = 'rgb( 31, 120, 180)' fill-opacity = '0.250000' points = '577.7,147.5 577.7,662.4 579.5,662.4 579.5,150.2 '/>
		<polygon fill = 'rgb( 31, 120, 180)' fill-opacity = '0.250000' points = '579.5,150.2 579.5,662.4 581.4,662.4 581.4,152.9 '/>
		<polygon fill = 'rgb( 31, 120, 180)' fill-opacity = '0.250000' points = '581.4,152.9 581.4,662.4 583.3,662.4 583.3,155.6 '/>
		<polygon fill = 'rgb( 31, 120, 180)' fill-opacity = '0.250000' points = '583.3,155.6 583.3,662.4 585.2,662.4 585.2,158.3 '/>
		<polygon fill = 'rgb( 31, 120, 180)' fill-opacity = '0.250000' points = '585.2,158.3 585.2,662.4 587.1,662.4 587.1,161.1 '/>
		<polygon fill = 'rgb( 31, 120, 180)' fill-opacity = '0.250000' points = '587.1,161.1 587.1,662.4 589.0,662.4 589.0,163.8 '/>
		<polygon fill = 'rgb( 31, 120, 180)' fill-opacity = '0.250000' points = '589.0,163.8 589.0,662.4 590.9,662.4 590.9,166.6 '/>
		<polygon fill = 'rgb( 31, 120, 180)' fill-opacity = '0.250000' points = '590.9,166.6 590.9,662.4 592.8,662.4 592.8,169.3 '/>
		<polygon fill = 'rgb( 31, 120, 180)' fill-opacity = '0.250000' points = '592.8,169.3 592.8,662.4 594.6,662.4 594.6,172.0 '/>
		<polygon fill = 'rgb( 31, 120, 180)' fill-opacity = '0.250000' points = '594.6,172.0 594.6,662.4 596.5,662.4 596.5,174.7 '/>
		<polygon fill = 'rgb( 31, 120, 180)' fill-opacity = '0.250000' points = '596.5,174.7 596.5,662.4 598.4,662.4 598.4,177.3 '/>
		<polygon fill = 'rgb( 31, 120, 180)' fill-opacity = '0.250000' points = '598.4,177.3 598.4,662.4 600.3,662.4 600.3,179.9 '/>
		<polygon fill = 'rgb( 31, 120, 180)' fill-opacity = '0.250000' points = '600.3,179.9 600.3,662.4 602.2,662.4 602.2,182.5 '/>
		<polygon fill = 'rgb( 31, 120, 180)' fill-opacity = '0.250000' points = '602.2,182.5 602.2,662.4 604.1,662.4 604.1,185.0 '/>
		<polygon fill = 'rgb( 31, 120, 180)' fill-opacity = '0.250000' points = '604.1,185.0 604.1,662.4 606.0,662.4 606.0,187.5 '/>
		<polygon fill = 'rgb( 31, 120, 180)' fill-opacity = '0.250000' points = '606.0,187.5 606.0,662.4 607.9,662.4 607.9,190.0 '/>
		<polygon fill = 'rgb( 31, 120, 180)' fill-opacity = '0.250000' points = '607.9,190.0 607.9,662.4 609.7,662.4 609.7,192.5 '/>
		<polygon fill = 'rgb( 31, 120, 180)' fill-opacity = '0.250000' points = '609.7,192.5 609.7,662.4 611.6,662.4 611.6,194.9 '/>
		<polygon fill = 'rgb( 31, 120, 180)' fill-opacity = '0.250000' points = '611.6,194.9 611.6,662.4 613.5,662.4 613.5,197.4 '/>
		<polygon fill = 'rgb( 31, 120, 180)' fill-opacity = '0.250000' points = '613.5,197.4 613.5,662.4 615.4,662.4 615.4,199.8 '/>
		<polygon fill = 'rgb( 31, 120, 180)' fill-opacity = '0.250000' points = '615.4,199.8 615.4,662.4 617.3,662.4 617.3,202.3 '/>
		<polygon fill = 'rgb( 31, 120, 180)' fill-opacity = '0.250000' points = '617.3,202.3 617.3,662.4 619.2,662.4 619.2,204.8 '/>
		<polygon fill = 'rgb( 31, 120, 180)' fill-opacity = '0.250000' points = '619.2,204.8 619.2,662.4 621.1,662.4 621.1,207.2 '/>
		<polygon fill = 'rgb( 31, 120, 180)' fill-opacity = '0.250000' points = '621.1,207.2 621.1,662.4 623.0,662.4 623.0,209.8 '/>
		<polygon fill = 'rgb( 31, 120, 180)' fill-opacity = '0.250000' points = '623.0,209.8 623.0,662.4 624.8,662.4 624.8,212.3 '/>
		<polygon fill = 'rgb( 31, 120, 180)' fill-opacity = '0.250000' points = '624.8,212.3 624.8,662.4 626.7,662.4 626.7,214.9 '/>
		<polygon fill = 'rgb( 31, 120, 180)' fill-opacity = '0.250000' points = '626.7,214.9 626.7,662.4 628.6,662.4 628.6,217.5 '/>
		<polygon fill = 'rgb( 31, 120, 180)' fill-opacity = '0.250000' points = '628.6,217.5 628.6,662.4 630.5,662.4 630.5,220.2 '/>
		<polygon fill = 'rgb( 31, 120, 180)' fill-opacity = '0.250000' points = '630.5,220.2 630.5,662.4 632.4,662.4 632.4,222.9 '/>
		<polygon fill = 'rgb( 31, 120, 180)' fill-opacity = '0.250000' points = '632.4,222.9 632.4,662.4 634.3,662.4 634.3,225.6 '/>
		<polygon fill = 'rgb( 31, 120, 180)' fill-opacity = '0.250000' points = '634.3,225.6 634.3,662.4 636.2,662.4 636.2,228.4 '/>
		<polygon fill = 'rgb( 31, 120, 180)' fill-opacity = '0.250000' points = '636.2,228.4 636.2,662.4 638.1,662.4 638.1,231.2 '/>
		<polygon fill = 'rgb( 31, 120, 180)' fill-opacity = '0.250000' points = '638.1,231.2 638.1,662.4 639.9,662.4 639.9,234.0 '/>
		<polygon fill = 'rgb( 31, 120, 180)' fill-opacity = '0.250000' points = '639.9,234.0 639.9,662.4 641.8,662.4 641.8,236.9 '/>
		<polygon fill = 'rgb( 31, 120, 180)' fill-opacity = '0.250000' points = '641.8,236.9 641.8,662.4 643.7,662.4 643.7,239.8 '/>
		<polygon fill = 'rgb( 31, 120, 180)' fill-opacity = '0.250000' points = '643.7,239.8 643.7,662.4 645.6,662.4 645.6,242.7 '/>
		<polygon fill = 'rgb( 31, 120, 180)' fill-opacity = '0.250000' points = '645.6,242.7 645.6,662.4 647.5,662.4 647.5,245.6 '/>
		<polygon fill = 'rgb( 31, 120, 180)' fill-opacity = '0.250000' points = '647.5,245.6 647.5,662.4 649.4,662.4 649.4,248.6 '/>
		<polygon fill = 'rgb( 31, 120, 180)' fill-opacity = '0.250000' points = '649.4,248.6 649.4,662.4 651.3,662.4 651.3,251.6 '/>
		<polygon fill = 'rgb( 31, 120, 180)' fill-opacity = '0.250000' points = '651.3,251.6 651.3,662.4 653.1,662.4 653.1,254.6 '/>
		<polygon fill = 'rgb( 31, 120, 180)' fill-opacity = '0.250000' points = '653.1,254.6 653.1,662.4 655.0,662.4 655.0,257.6 '/>
		<polygon fill = 'rgb( 31, 120, 180)' fill-opacity = '0.250000' points = '655.0,257.6 655.0,662.4 656.9,662.4 656.9,260.7 '/>
		<polygon fill = 'rgb( 31, 120, 180)' fill-opacity = '0.250000' points = '656.9,260.7 656.9,662.4 658.8,662.4 658.8,263.8 '/>
		<polygon fill = 'rgb( 31, 120, 180)' fill-opacity = '0.250000' points = '658.8,263.8 658.8,662.4 660.7,662.4 660.7,266.8 '/>
		<polygon fill = 'rgb( 31, 120, 180)' fill-opacity = '0.250000' points = '660.7,266.8 660.7,662.4 662.6,662.4 662.6,270.0 '/>
		<polygon fill = 'rgb( 31, 120, 180)' fill-opacity = '0.250000' points = '662.6,270.0 662.6,662.4 664.5,662.4 664.5,273.1 '/>
		<polygon fill = 'rgb( 31, 120, 180)' fill-opacity = '0.250000' points = '664.5,273.1 664.5,662.4 666.4,662.4 666.4,276.3 '/>
		<polygon fill = 'rgb( 31, 120, 180)' fill-opacity = '0.250000' points = '666.4,276.3 666.4,662.4 668.2,662.4 668.2,279.4 '/>
		<polygon fill = 'rgb( 31, 120, 180)' fill-opacity = '0.250000' points = '668.2,279.4 668.2,662.4 670.1,662.4 670.1,282.6 '/>
		<polygon fill = 'rgb( 31, 120, 180)' fill-opacity = '0.250000' points = '670.1,282.6 670.1,662.4 672.0,662.4 672.0,285.8 '/>
		<polygon fill = 'rgb( 31, 120, 180)' fill-opacity = '0.250000' points = '672.0,285.8 672.0,662.4 673.9,662.4 673.9,289.0 '/>
		<polygon fill = 'rgb( 31, 120, 180)' fill-opacity = '0.250000' points = '673.9,289.0 673.9,662.4 675.8,662.4 675.8,292.3 '/>
		<polygon fill = 'rgb( 31, 120, 180)' fill-opacity = '0.250000' points = '675.8,292.3 675.8,662.4 677.7,662.4 677.7,295.5 '/>
		<polygon fill = 'rgb( 31, 120, 180)' fill-opacity = '0.250000' points = '677.7,295.5 677.7,662.4 679.6,662.4 679.6,298.7 '/>
		<polygon fill = 'rgb( 31, 120, 180)' fill-opacity = '0.250000' points = '679.6,298.7 679.6,662.4 681.5,662.4 681.5,301.9 '/>
		<polygon fill = 'rgb( 31, 120, 180)' fill-opacity = '0.250000' points = '681.5,301.9 681.5,662.4 683.3,662.4 683.3,305.1 '/>
		<polygon fill = 'rgb( 31, 120, 180)' fill-opacity = '0.250000' points = '683.3,305.1 683.3,662.4 685.2,662.4 685.2,308.3 '/>
		<polygon fill = 'rgb( 31, 120, 180)' fill-opacity = '0.250000' points = '685.2,308.3 685.2,662.4 687.1,662.4 687.1,311.4 '/>
		<polygon fill = 'rgb( 31, 120, 180)' fill-opacity = '0.250000' points = '687.1,311.4 687.1,662.4 689.0,662.4 689.0,314.6 '/>
		<polygon fill = 'rgb( 31, 120, 180)' fill-opacity = '0.250000' points = '689.0,314.6 689.0,662.4 690.9,662.4 690.9,317.7 '/>
		<polygon fill = 'rgb( 31, 120, 180)' fill-opacity = '0.250000' points = '690.9,317.7 690.9,662.4 692.8,662.4 692.8,320.8 '/>
		<polygon fill = 'rgb( 31, 120, 180)' fill-opacity = '0.250000' points = '692.8,320.8 692.8,662.4 694.7,662.4 694.7,323.8 '/>
		<polygon fill = 'rgb( 31, 120, 180)' fill-opacity = '0.250000' points = '694.7,323.8 694.7,662.4 696.6,662.4 696.6,326.8 '/>
		<polygon fill = 'rgb( 31, 120, 180)' fill-opacity = '0.250000' points = '696.6,326.8 696.6,662.4 698.4,662.4 698.4,329.8 '/>
		<polygon fill = 'rgb( 31, 120, 180)' fill-opacity = '0.250000' points = '698.4,329.8 698.4,662.4 700.3,662.4 700.3,332.7 '/>
		<polygon fill = 'rgb( 31, 120, 180)' fill-opacity = '0.250000' points = '700.3,332.7 700.3,662.4 702.2,662.4 702.2,335.7 '/>
		<polygon fill = 'rgb( 31, 120, 180)' fill-opacity = '0.250000' points = '702.2,335.7 702.2,662.4 704.1,662.4 704.1,338.5 '/>
		<polygon fill = 'rgb( 31, 120, 180)' fill-opacity = '0.250000' points = '704.1,338.5 704.1,662.4 706.0,662.4 706.0,341.4 '/>
		<polygon fill = 'rgb( 31, 120, 180)' fill-opacity = '0.250000' points = '706.0,341.4 706.0,662.4 707.9,662.4 707.9,344.2 '/>
		<polygon fill = 'rgb( 31, 120, 180)' fill-opacity = '0.250000' points = '707.9,344.2 707.9,662.4 709.8,662.4 709.8,347.0 '/>
		<polygon fill = 'rgb( 31, 120, 180)' fill-opacity = '0.250000' points = '709.8,347.0 709.8,662.4 711.7,662.4 711.7,349.8 '/>
		<polygon fill = 'rgb( 31, 120, 180)' fill-opacity = '0.250000' points = '711.7,349.8 711.7,662.4 713.5,662.4 713.5,352.6 '/>
		<polygon fill = 'rgb( 31, 120, 180)' fill-opacity = '0.250000' points = '713.5,352.6 713.5,662.4 715.4,662.4 715.4,355.4 '/>
		<polygon fill = 'rgb( 31, 120, 180)' fill-opacity = '0.250000' points = '715.4,355.4 715.4,662.4 717.3,662.4 717.3,358.1 '/>
		<polygon fill = 'rgb( 31, 120, 180)' fill-opacity = '0.250000' points = '717.3,358.1 717.3,662.4 719.2,662.4 719.2,360.9 '/>
		<polygon fill = 'rgb( 31, 120, 180)' fill-opacity = '0.250000' points = '719.2,360.9 719.2,662.4 721.1,662.4 721.1,363.7 '/>
		<polygon fill = 'rgb( 31, 120, 180)' fill-opacity = '0.250000' points = '721.1,363.7 721.1,662.4 723.0,662.4 723.0,366.5 '/>
		<polygon fill = 'rgb( 31, 120, 180)' fill-opacity = '0.250000' points = '723.0,366.5 723.0,662.4 724.9,662.4 724.9,369.3 '/>
		<polygon fill = 'rgb( 31, 120, 180)' fill-opacity = '0.250000' points = '724.9,369.3 724.9,662.4 726.7,662.4 726.7,372.1 '/>
		<polygon fill = 'rgb( 31, 120, 180)' fill-opacity = '0.250000' points = '726.7,372.1 726.7,662.4 728.6,662.4 728.6,374.9 '/>
		<polygon fill = 'rgb( 31, 120, 180)' fill-opacity = '0.250000' points = '728.6,374.9 728.6,662.4 730.5,662.4 730.5,377.7 '/>
		<polygon fill = 'rgb( 31, 120, 180)' fill-opacity = '0.250000' points = '730.5,377.7 730.5,662.4 732.4,662.4 732.4,380.6 '/>
		<polygon fill = 'rgb( 31, 120, 180)' fill-opacity = '0.250000' points = '732.4,380.6 732.4,662.4 734.3,662.4 734.3,383.4 '/>
		<polygon fill = 'rgb( 31, 120, 180)' fill-opacity = '0.250000' points = '734.3,383.4 734.3,662.4 736.2,662.4 736.2,386.3 '/>
		<polygon fill = 'rgb( 31, 120, 180)' fill-opacity = '0.250000' points = '736.2,386.3 736.2,662.4 738.1,662.4 738.1,389.1 '/>
		<polygon fill = 'rgb( 31, 120, 180)' fill-opacity = '0.250000' points = '738.1,389.1 738.1,662.4 740.0,662.4 740.0,392.0 '/>
		<polygon fill = 'rgb( 31, 120, 180)' fill-opacity = '0.250000' points = '740.0,392.0 740.0,662.4 741.8,662.4 741.8,394.8 '/>
		<polygon fill = 'rgb( 31, 120, 180)' fill-opacity = '0.250000' points = '741.8,394.8 741.8,662.4 743.7,662.4 743.7,397.6 '/>
		<polygon fill = 'rgb( 31, 120, 180)' fill-opacity = '0.250000' points = '743.7,397.6 743.7,662.4 745.6,662.4 745.6,400.4 '/>
		<polygon fill = 'rgb( 31, 120, 180)' fill-opacity = '0.250000' points = '745.6,400.4 745.6,662.4 747.5,662.4 747.5,403.2 '/>
		<polygon fill = 'rgb( 31, 120, 180)' fill-opacity = '0.250000' points = '747.5,403.2 747.5,662.4 749.4,662.4 749.4,405.9 '/>
		<polygon fill = 'rgb( 31, 120, 180)' fill-opacity = '0.250000' points = '749.4,405.9 749.4,662.4 751.3,662.4 751.3,408.6 '/>
		<polygon fill = 'rgb( 31, 120, 180)' fill-opacity = '0.250000' points = '751.3,408.6 751.3,662.4 753.2,662.4 753.2,411.3 '/>
		<polygon fill = 'rgb( 31, 120, 180)' fill-opacity = '0.250000' points = '753.2,411.3 753.2,662.4 755.1,662.4 755.1,413.9 '/>
		<polygon fill = 'rgb( 31, 120, 180)' fill-opacity = '0.250000' points = '755.1,413.9 755.1,662.4 756.9,662.4 756.9,416.5 '/>
		<polygon fill = 'rgb( 31, 120, 180)' fill-opacity = '0.250000' points = '756.9,416.5 756.9,662.4 758.8,662.4 758.8,419.0 '/>
		<polygon fill = 'rgb( 31, 120, 180)' fill-opacity = '0.250000' points = '758.8,419.0 758.8,662.4 760.7,662.4 760.7,421.5 '/>
		<polygon fill = 'rgb( 31, 120, 180)' fill-opacity = '0.250000' points = '760.7,421.5 760.7,662.4 762.6,662.4 762.6,424.0 '/>
		<polygon fill = 'rgb( 31, 120, 180)' fill-opacity = '0.250000' points = '762.6,424.0 762.6,662.4 764.5,662.4 764.5,426.4 '/>
		<polygon fill = 'rgb( 31, 120, 180)' fill-opacity = '0.250000' points = '764.5,426.4 764.5,662.4 766.4,662.4 766.4,428.8 '/>
		<polygon fill = 'rgb( 31, 120, 180)' fill-opacity = '0.250000' points = '766.4,428.8 766.4,662.4 768.3,662.4 768.3,431.1 '/>
		<polygon fill = 'rgb( 31, 120, 180)' fill-opacity = '0.250000' points = '768.3,431.1 768.3,662.4 770.2,662.4 770.2,433.5 '/>
		<polygon fill = 'rgb( 31, 120, 180)' fill-opacity = '0.250000' points = '770.2,433.5 770.2,662.4 772.0,662.4 772.0,435.8 '/>
		<polygon fill = 'rgb( 31, 120, 180)' fill-opacity = '0.250000' points = '772.0,435.8 772.0,662.4 773.9,662.4 773.9,438.1 '/>
		<polygon fill = 'rgb( 31, 120, 180)' fill-opacity = '0.250000' points = '773.9,438.1 773.9,662.4 775.8,662.4 775.8,440.5 '/>
		<polygon fill = 'rgb( 31, 120, 180)' fill-opacity = '0.250000' points = '775.8,440.5 775.8,662.4 777.7,662.4 777.7,442.8 '/>
		<polygon fill = 'rgb( 31, 120, 180)' fill-opacity = '0.250000' points = '777.7,442.8 777.7,662.4 779.6,662.4 779.6,445.1 '/>
		<polygon fill = 'rgb( 31, 120, 180)' fill-opacity = '0.250000' points = '779.6,445.1 779.6,662.4 781.5,662.4 781.5,447.5 '/>
		<polygon fill = 'rgb( 31, 120, 180)' fill-opacity = '0.250000' points = '781.5,447.5 781.5,662.4 783.4,662.4 783.4,449.9 '/>
		<polygon fill = 'rgb( 31, 120, 180)' fill-opacity = '0.250000' points = '783.4,449.9 783.4,662.4 785.3,662.4 785.3,452.3 '/>
		<polygon fill = 'rgb( 31, 120, 180)' fill-opacity = '0.250000' points = '785.3,452.3 785.3,662.4 787.1,662.4 787.1,454.8 '/>
		<polygon fill = 'rgb( 31, 120, 180)' fill-opacity = '0.250000' points = '787.1,454.8 787.1,662.4 789.0,662.4 789.0,457.3 '/>
		<polygon fill = 'rgb( 31, 120, 180)' fill-opacity = '0.250000' points = '789.0,457.3 789.0,662.4 790.9,662.4 790.9,459.8 '/>
		<polygon fill = 'rgb( 31, 120, 180)' fill-opacity = '0.250000' points = '790.9,459.8 790.9,662.4 792.8,662.4 792.8,462.3 '/>
		<polygon fill = 'rgb( 31, 120, 180)' fill-opacity = '0.250000' points = '792.8,462.3 792.8,662.4 794.7,662.4 794.7,464.8 '/>
		<polygon fill = 'rgb( 31, 120, 180)' fill-opacity = '0.250000' points = '794.7,464.8 794.7,662.4 796.6,662.4 796.6,467.3 '/>
		<polygon fill = 'rgb( 31, 120, 180)' fill-opacity = '0.250000' points = '796.6,467.3 796.6,662.4 798.5,662.4 798.5,469.9 '/>
		<polygon fill = 'rgb( 31, 120, 180)' fill-opacity = '0.250000' points = '798.5,469.9 798.5,662.4 800.3,662.4 800.3,472.4 '/>
		<polygon fill = 'rgb( 31, 120, 180)' fill-opacity = '0.250000' points = '800.3,472.4 800.3,662.4 802.2,662.4 802.2,475.0 '/>
		<polygon fill = 'rgb( 31, 120, 180)' fill-opacity = '0.250000' points = '802.2,475.0 802.2,662.4 804.1,662.4 804.1,477.5 '/>
		<polygon fill = 'rgb( 31, 120, 180)' fill-opacity = '0.250000' points = '804.1,477.5 804.1,662.4 806.0,662.4 806.0,480.0 '/>
		<polygon fill = 'rgb( 31, 120, 180)' fill-opacity = '0.250000' points = '806.0,480.0 806.0,662.4 807.9,662.4 807.9,482.4 '/>
		<polygon fill = 'rgb( 31, 120, 180)' fill-opacity = '0.250000' points = '807.9,482.4 807.9,662.4 809.8,662.4 809.8,484.9 '/>
		<polygon fill = 'rgb( 31, 120, 180)' fill-opacity = '0.250000' points = '809.8,484.9 809.8,662.4 811.7,662.4 811.7,487.3 '/>
		<polygon fill = 'rgb( 31, 120, 180)' fill-opacity = '0.250000' points = '811.7,487.3 811.7,662.4 813.6,662.4 813.6,489.6 '/>
		<polygon fill = 'rgb( 31, 120, 180)' fill-opacity = '0.250000' points = '813.6,489.6 813.6,662.4 815.4,662.4 815.4,491.9 '/>
		<polygon fill = 'rgb( 31, 120, 180)' fill-opacity = '0.250000' points = '815.4,491.9 815.4,662.4 817.3,662.4 817.3,494.1 '/>
		<polygon fill = 'rgb( 31, 120, 180)' fill-opacity = '0.250000' points = '817.3,494.1 817.3,662.4 819.2,662.4 819.2,496.3 '/>
		<polygon fill = 'rgb( 31, 120, 180)' fill-opacity = '0.250000' points = '819.2,496.3 819.2,662.4 821.1,662.4 821.1,498.5 '/>
		<polygon fill = 'rgb( 31, 120, 180)' fill-opacity = '0.250000' points = '821.1,498.5 821.1,662.4 823.0,662.4 823.0,500.6 '/>
		<polygon fill = 'rgb( 31, 120, 180)' fill-opacity = '0.250000' points = '823.0,500.6 823.0,662.4 824.9,662.4 824.9,502.6 '/>
		<polygon fill = 'rgb( 31, 120, 180)' fill-opacity = '0.250000' points = '824.9,502.6 824.9,662.4 826.8,662.4 826.8,504.7 '/>
		<polygon fill = 'rgb( 31, 120, 180)' fill-opacity = '0.250000' points = '826.8,504.7 826.8,662.4 828.7,662.4 828.7,506.7 '/>
		<polygon fill = 'rgb( 31, 120, 180)' fill-opacity = '0.250000' points = '828.7,506.7 828.7,662.4 830.5,662.4 830.5,508.6 '/>
		<polygon fill = 'rgb( 31, 120, 180)' fill-opacity = '0.250000' points = '830.5,508.6 830.5,662.4 832.4,662.4 832.4,510.6 '/>
		<polygon fill = 'rgb( 31, 120, 180)' fill-opacity = '0.250000' points = '832.4,510.6 832.4,662.4 834.3,662.4 834.3,512.5 '/>
		<polygon fill = 'rgb( 31, 120, 180)' fill-opacity = '0.250000' points = '834.3,512.5 834.3,662.4 836.2,662.4 836.2,514.4 '/>
		<polygon fill = 'rgb( 31, 120, 180)' fill-opacity = '0.250000' points = '836.2,514.4 836.2,662.4 838.1,662.4 838.1,516.3 '/>
		<polygon fill = 'rgb( 31, 120, 180)' fill-opacity = '0.250000' points = '838.1,516.3 838.1,662.4 840.0,662.4 840.0,518.3 '/>
		<polygon fill = 'rgb( 31, 120, 180)' fill-opacity = '0.250000' points = '840.0,518.3 840.0,662.4 841.9,662.4 841.9,520.2 '/>
		<polygon fill = 'rgb( 31, 120, 180)' fill-opacity = '0.250000' points = '841.9,520.2 841.9,662.4 843.8,662.4 843.8,522.2 '/>
		<polygon fill = 'rgb( 31, 120, 180)' fill-opacity = '0.250000' points = '843.8,522.2 843.8,662.4 845.6,662.4 845.6,524.1 '/>
		<polygon fill = 'rgb( 31, 120, 180)' fill-opacity = '0.250000' points = '845.6,524.1 845.6,662.4 847.5,662.4 847.5,526.1 '/>
		<polygon fill = 'rgb( 31, 120, 180)' fill-opacity = '0.250000' points = '847.5,526.1 847.5,662.4 849.4,662.4 849.4,528.1 '/>
		<polygon fill = 'rgb( 31, 120, 180)' fill-opacity = '0.250000' points = '849.4,528.1 849.4,662.4 851.3,662.4 851.3,530.2 '/>
		<polygon fill = 'rgb( 31, 120, 180)' fill-opacity = '0.250000' points = '851.3,530.2 851.3,662.4 853.2,662.4 853.2,532.2 '/>
		<polygon fill = 'rgb( 31, 120, 180)' fill-opacity = '0.250000' points = '853.2,532.2 853.2,662.4 855.1,662.4 855.1,534.3 '/>
		<polygon fill = 'rgb( 31, 120, 180)' fill-opacity = '0.250000' points = '855.1,534.3 855.1,662.4 857.0,662.4 857.0,536.3 '/>
		<polygon fill = 'rgb( 31, 120, 180)' fill-opacity = '0.250000' points = '857.0,536.3 857.0,662.4 858.9,662.4 858.9,538.4 '/>
		<polygon fill = 'rgb( 31, 120, 180)' fill-opacity = '0.250000' points = '858.9,538.4 858.9,662.4 860.7,662.4 860.7,540.5 '/>
		<polygon fill = 'rgb( 31, 120, 180)' fill-opacity = '0.250000' points = '860.7,540.5 860.7,662.4 862.6,662.4 862.6,542.5 '/>
		<polygon fill = 'rgb( 31, 120, 180)' fill-opacity = '0.250000' points = '862.6,542.5 862.6,662.4 864.5,662.4 864.5,544.6 '/>
		<polygon fill = 'rgb( 31, 120, 180)' fill-opacity = '0.250000' points = '864.5,544.6 864.5,662.4 866.4,662.4 866.4,546.6 '/>
		<polygon fill = 'rgb( 31, 120, 180)' fill-opacity = '0.250000' points = '866.4,546.6 866.4,662.4 868.3,662.4 868.3,548.6 '/>
		<polygon fill = 'rgb( 31, 120, 180)' fill-opacity = '0.250000' points = '868.3,548.6 868.3,662.4 870.2,662.4 870.2,550.6 '/>
		<polygon fill = 'rgb( 31, 120, 180)' fill-opacity = '0.250000' points = '870.2,550.6 870.2,662.4 872.1,662.4 872.1,552.5 '/>
		<polygon fill = 'rgb( 31, 120, 180)' fill-opacity = '0.250000' points = '872.1,552.5 872.1,662.4 873.9,662.4 873.9,554.4 '/>
		<polygon fill = 'rgb( 31, 120, 180)' fill-opacity = '0.250000' points = '873.9,554.4 873.9,662.4 875.8,662.4 875.8,556.3 '/>
		<polygon fill = 'rgb( 31, 120, 180)' fill-opacity = '0.250000' points = '875.8,556.3 875.8,662.4 877.7,662.4 877.7,558.0 '/>
		<polygon fill = 'rgb( 31, 120, 180)' fill-opacity = '0.250000' points = '877.7,558.0 877.7,662.4 879.6,662.4 879.6,559.8 '/>
		<polygon fill = 'rgb( 31, 120, 180)' fill-opacity = '0.250000' points = '879.6,559.8 879.6,662.4 881.5,662.4 881.5,561.5 '/>
		<polygon fill = 'rgb( 31, 120, 180)' fill-opacity = '0.250000' points = '881.5,561.5 881.5,662.4 883.4,662.4 883.4,563.1 '/>
		<polygon fill = 'rgb( 31, 120, 180)' fill-opacity = '0.250000' points = '883.4,563.1 883.4,662.4 885.3,662.4 885.3,564.6 '/>
		<polygon fill = 'rgb( 31, 120, 180)' fill-opacity = '0.250000' points = '885.3,564.6 885.3,662.4 887.2,662.4 887.2,566.1 '/>
		<polygon fill = 'rgb( 31, 120, 180)' fill-opacity = '0.250000' points = '887.2,566.1 887.2,662.4 889.0,662.4 889.0,567.6 '/>
		<polygon fill = 'rgb( 31, 120, 180)' fill-opacity = '0.250000' points = '889.0,567.6 889.0,662.4 890.9,662.4 890.9,569.0 '/>
		<polygon fill = 'rgb( 31, 120, 180)' fill-opacity = '0.250000' points = '890.9,569.0 890.9,662.4 892.8,662.4 892.8,570.4 '/>
		<polygon fill = 'rgb( 31, 120, 180)' fill-opacity = '0.250000' points = '892.8,570.4 892.8,662.4 894.7,662.4 894.7,571.7 '/>
		<polygon fill = 'rgb( 31, 120, 180)' fill-opacity = '0.250000' points = '894.7,571.7 894.7,662.4 896.6,662.4 896.6,572.9 '/>
		<polygon fill = 'rgb( 31, 120, 180)' fill-opacity = '0.250000' points = '896.6,572.9 896.6,662.4 898.5,662.4 898.5,574.2 '/>
		<polygon fill = 'rgb( 31, 120, 180)' fill-opacity = '0.250000' points = '898.5,574.2 898.5,662.4 900.4,662.4 900.4,575.4 '/>
		<polygon fill = 'rgb( 31, 120, 180)' fill-opacity = '0.250000' points = '900.4,575.4 900.4,662.4 902.3,662.4 902.3,576.5 '/>
		<polygon fill = 'rgb( 31, 120, 180)' fill-opacity = '0.250000' points = '902.3,576.5 902.3,662.4 904.1,662.4 904.1,577.7 '/>
		<polygon fill = 'rgb( 31, 120, 180)' fill-opacity = '0.250000' points = '904.1,577.7 904.1,662.4 906.0,662.4 906.0,578.8 '/>
		<polygon fill = 'rgb( 31, 120, 180)' fill-opacity = '0.250000' points = '906.0,578.8 906.0,662.4 907.9,662.4 907.9,579.9 '/>
		<polygon fill = 'rgb( 31, 120, 180)' fill-opacity = '0.250000' points = '907.9,579.9 907.9,662.4 909.8,662.4 909.8,581.0 '/>
		<polygon fill = 'rgb( 31, 120, 180)' fill-opacity = '0.250000' points = '909.8,581.0 909.8,662.4 911.7,662.4 911.7,582.1 '/>
		<polygon fill = 'rgb( 31, 120, 180)' fill-opacity = '0.250000' points = '911.7,582.1 911.7,662.4 913.6,662.4 913.6,583.2 '/>
		<polygon fill = 'rgb( 31, 120, 180)' fill-opacity = '0.250000' points = '913.6,583.2 913.6,662.4 915.5,662.4 915.5,584.3 '/>
		<polygon fill = 'rgb( 31, 120, 180)' fill-opacity = '0.250000' points = '915.5,584.3 915.5,662.4 917.4,662.4 917.4,585.3 '/>
		<polygon fill = 'rgb( 31, 120, 180)' fill-opacity = '0.250000' points = '917.4,585.3 917.4,662.4 919.2,662.4 919.2,586.4 '/>
		<polygon fill = 'rgb( 31, 120, 180)' fill-opacity = '0.250000' points = '919.2,586.4 919.2,662.4 921.1,662.4 921.1,587.5 '/>
		<polygon fill = 'rgb( 31, 120, 180)' fill-opacity = '0.250000' points = '921.1,587.5 921.1,662.4 923.0,662.4 923.0,588.6 '/>
		<polygon fill = 'rgb( 31, 120, 180)' fill-opacity = '0.250000' points = '923.0,588.6 923.0,662.4 924.9,662.4 924.9,589.6 '/>
	</g>
</g>
	</g>
	<g id="gnuplot_plot_3" ><title>Point estimate</title>
<g fill="none" color="white" stroke="rgb( 31, 120, 180)" stroke-width="2.00" stroke-linecap="butt" stroke-linejoin="miter">
</g>
<g fill="none" color="black" stroke="currentColor" stroke-width="2.00" stroke-linecap="butt" stroke-linejoin="miter">
	<g transform="translate(1089.0,103.0)" stroke="none" fill="black" font-family="Helvetica" font-size="12.00"  text-anchor="start">
		<text><tspan font-family="Helvetica" >Point estimate</tspan></text>
	</g>
</g>
<g fill="none" color="black" stroke="currentColor" stroke-width="2.00" stroke-linecap="butt" stroke-linejoin="miter">
	<path stroke='rgb( 31, 120, 180)'  d='M1038.5,99.1 L1080.7,99.1 M512.8,662.4 L512.8,95.8  '/></g>
	</g>
<g fill="none" color="black" stroke="currentColor" stroke-width="2.00" stroke-linecap="butt" stroke-linejoin="miter">
</g>
<g fill="none" color="black" stroke="black" stroke-width="1.00" stroke-linecap="butt" stroke-linejoin="miter">
</g>
<g fill="none" color="black" stroke="currentColor" stroke-width="1.00" stroke-linecap="butt" stroke-linejoin="miter">
	<path stroke='black'  d='M71.9,54.1 L71.9,662.4 L1013.6,662.4 L1013.6,54.1 L71.9,54.1 Z  '/></g>
<g fill="none" color="black" stroke="currentColor" stroke-width="1.00" stroke-linecap="butt" stroke-linejoin="miter">
</g>
</g>
</svg>

