<?xml version="1.0" encoding="utf-8"  standalone="no"?>
<!DOCTYPE svg PUBLIC "-//W3C//DTD SVG 1.1//EN"
 "http://www.w3.org/Graphics/SVG/1.1/DTD/svg11.dtd">
<svg 
 viewBox="0 0 1280 720"
 xmlns="http://www.w3.org/2000/svg"
 xmlns:xlink="http://www.w3.org/1999/xlink"
>

<title>Gnuplot</title>
<desc>Produced by GNUPLOT 5.0 patchlevel 5 </desc>

<g id="gnuplot_canvas">

<rect x="0" y="0" width="1280" height="720" fill="none"/>
<defs>

	<circle id='gpDot' r='0.5' stroke-width='0.5'/>
	<path id='gpPt0' stroke-width='0.222' stroke='currentColor' d='M-1,0 h2 M0,-1 v2'/>
	<path id='gpPt1' stroke-width='0.222' stroke='currentColor' d='M-1,-1 L1,1 M1,-1 L-1,1'/>
	<path id='gpPt2' stroke-width='0.222' stroke='currentColor' d='M-1,0 L1,0 M0,-1 L0,1 M-1,-1 L1,1 M-1,1 L1,-1'/>
	<rect id='gpPt3' stroke-width='0.222' stroke='currentColor' x='-1' y='-1' width='2' height='2'/>
	<rect id='gpPt4' stroke-width='0.222' stroke='currentColor' fill='currentColor' x='-1' y='-1' width='2' height='2'/>
	<circle id='gpPt5' stroke-width='0.222' stroke='currentColor' cx='0' cy='0' r='1'/>
	<use xlink:href='#gpPt5' id='gpPt6' fill='currentColor' stroke='none'/>
	<path id='gpPt7' stroke-width='0.222' stroke='currentColor' d='M0,-1.33 L-1.33,0.67 L1.33,0.67 z'/>
	<use xlink:href='#gpPt7' id='gpPt8' fill='currentColor' stroke='none'/>
	<use xlink:href='#gpPt7' id='gpPt9' stroke='currentColor' transform='rotate(180)'/>
	<use xlink:href='#gpPt9' id='gpPt10' fill='currentColor' stroke='none'/>
	<use xlink:href='#gpPt3' id='gpPt11' stroke='currentColor' transform='rotate(45)'/>
	<use xlink:href='#gpPt11' id='gpPt12' fill='currentColor' stroke='none'/>
	<path id='gpPt13' stroke-width='0.222' stroke='currentColor' d='M0,1.330 L1.265,0.411 L0.782,-1.067 L-0.782,-1.076 L-1.265,0.411 z'/>
	<use xlink:href='#gpPt13' id='gpPt14' fill='currentColor' stroke='none'/>
	<filter id='textbox' filterUnits='objectBoundingBox' x='0' y='0' height='1' width='1'>
	  <feFlood flood-color='white' flood-opacity='1' result='bgnd'/>
	  <feComposite in='SourceGraphic' in2='bgnd' operator='atop'/>
	</filter>
	<filter id='greybox' filterUnits='objectBoundingBox' x='0' y='0' height='1' width='1'>
	  <feFlood flood-color='lightgrey' flood-opacity='1' result='grey'/>
	  <feComposite in='SourceGraphic' in2='grey' operator='atop'/>
	</filter>
</defs>
<g fill="none" color="white" stroke="currentColor" stroke-width="1.00" stroke-linecap="butt" stroke-linejoin="miter">
</g>
<g fill="none" color="black" stroke="currentColor" stroke-width="1.00" stroke-linecap="butt" stroke-linejoin="miter">
	<path stroke='black'  d='M71.9,662.4 L80.9,662.4  '/>	<g transform="translate(63.6,666.3)" stroke="none" fill="black" font-family="Helvetica" font-size="12.00"  text-anchor="end">
		<text><tspan font-family="Helvetica" > 0</tspan></text>
	</g>
</g>
<g fill="none" color="black" stroke="currentColor" stroke-width="1.00" stroke-linecap="butt" stroke-linejoin="miter">
	<path stroke='black'  d='M71.9,575.5 L80.9,575.5  '/>	<g transform="translate(63.6,579.4)" stroke="none" fill="black" font-family="Helvetica" font-size="12.00"  text-anchor="end">
		<text><tspan font-family="Helvetica" > 0.2</tspan></text>
	</g>
</g>
<g fill="none" color="black" stroke="currentColor" stroke-width="1.00" stroke-linecap="butt" stroke-linejoin="miter">
	<path stroke='black'  d='M71.9,488.6 L80.9,488.6  '/>	<g transform="translate(63.6,492.5)" stroke="none" fill="black" font-family="Helvetica" font-size="12.00"  text-anchor="end">
		<text><tspan font-family="Helvetica" > 0.4</tspan></text>
	</g>
</g>
<g fill="none" color="black" stroke="currentColor" stroke-width="1.00" stroke-linecap="butt" stroke-linejoin="miter">
	<path stroke='black'  d='M71.9,401.7 L80.9,401.7  '/>	<g transform="translate(63.6,405.6)" stroke="none" fill="black" font-family="Helvetica" font-size="12.00"  text-anchor="end">
		<text><tspan font-family="Helvetica" > 0.6</tspan></text>
	</g>
</g>
<g fill="none" color="black" stroke="currentColor" stroke-width="1.00" stroke-linecap="butt" stroke-linejoin="miter">
	<path stroke='black'  d='M71.9,314.8 L80.9,314.8  '/>	<g transform="translate(63.6,318.7)" stroke="none" fill="black" font-family="Helvetica" font-size="12.00"  text-anchor="end">
		<text><tspan font-family="Helvetica" > 0.8</tspan></text>
	</g>
</g>
<g fill="none" color="black" stroke="currentColor" stroke-width="1.00" stroke-linecap="butt" stroke-linejoin="miter">
	<path stroke='black'  d='M71.9,227.9 L80.9,227.9  '/>	<g transform="translate(63.6,231.8)" stroke="none" fill="black" font-family="Helvetica" font-size="12.00"  text-anchor="end">
		<text><tspan font-family="Helvetica" > 1</tspan></text>
	</g>
</g>
<g fill="none" color="black" stroke="currentColor" stroke-width="1.00" stroke-linecap="butt" stroke-linejoin="miter">
	<path stroke='black'  d='M71.9,141.0 L80.9,141.0  '/>	<g transform="translate(63.6,144.9)" stroke="none" fill="black" font-family="Helvetica" font-size="12.00"  text-anchor="end">
		<text><tspan font-family="Helvetica" > 1.2</tspan></text>
	</g>
</g>
<g fill="none" color="black" stroke="currentColor" stroke-width="1.00" stroke-linecap="butt" stroke-linejoin="miter">
	<path stroke='black'  d='M71.9,54.1 L80.9,54.1  '/>	<g transform="translate(63.6,58.0)" stroke="none" fill="black" font-family="Helvetica" font-size="12.00"  text-anchor="end">
		<text><tspan font-family="Helvetica" > 1.4</tspan></text>
	</g>
</g>
<g fill="none" color="black" stroke="currentColor" stroke-width="1.00" stroke-linecap="butt" stroke-linejoin="miter">
	<path stroke='black'  d='M205.7,662.4 L205.7,653.4  '/>	<g transform="translate(205.7,684.3)" stroke="none" fill="black" font-family="Helvetica" font-size="12.00"  text-anchor="middle">
		<text><tspan font-family="Helvetica" > 1.5</tspan></text>
	</g>
</g>
<g fill="none" color="black" stroke="currentColor" stroke-width="1.00" stroke-linecap="butt" stroke-linejoin="miter">
	<path stroke='black'  d='M409.4,662.4 L409.4,653.4  '/>	<g transform="translate(409.4,684.3)" stroke="none" fill="black" font-family="Helvetica" font-size="12.00"  text-anchor="middle">
		<text><tspan font-family="Helvetica" > 2</tspan></text>
	</g>
</g>
<g fill="none" color="black" stroke="currentColor" stroke-width="1.00" stroke-linecap="butt" stroke-linejoin="miter">
	<path stroke='black'  d='M613.1,662.4 L613.1,653.4  '/>	<g transform="translate(613.1,684.3)" stroke="none" fill="black" font-family="Helvetica" font-size="12.00"  text-anchor="middle">
		<text><tspan font-family="Helvetica" > 2.5</tspan></text>
	</g>
</g>
<g fill="none" color="black" stroke="currentColor" stroke-width="1.00" stroke-linecap="butt" stroke-linejoin="miter">
	<path stroke='black'  d='M816.8,662.4 L816.8,653.4  '/>	<g transform="translate(816.8,684.3)" stroke="none" fill="black" font-family="Helvetica" font-size="12.00"  text-anchor="middle">
		<text><tspan font-family="Helvetica" > 3</tspan></text>
	</g>
</g>
<g fill="none" color="black" stroke="currentColor" stroke-width="1.00" stroke-linecap="butt" stroke-linejoin="miter">
</g>
<g fill="none" color="black" stroke="currentColor" stroke-width="1.00" stroke-linecap="butt" stroke-linejoin="miter">
	<path stroke='black'  d='M71.9,54.1 L71.9,662.4 L1013.6,662.4 L1013.6,54.1 L71.9,54.1 Z  '/></g>
<g fill="none" color="black" stroke="currentColor" stroke-width="1.00" stroke-linecap="butt" stroke-linejoin="miter">
	<g transform="translate(17.0,358.3) rotate(270)" stroke="none" fill="black" font-family="Helvetica" font-size="12.00"  text-anchor="middle">
		<text><tspan font-family="Helvetica" >Density (a.u.)</tspan></text>
	</g>
</g>
<g fill="none" color="black" stroke="currentColor" stroke-width="1.00" stroke-linecap="butt" stroke-linejoin="miter">
	<g transform="translate(542.7,711.3)" stroke="none" fill="black" font-family="Helvetica" font-size="12.00"  text-anchor="middle">
		<text><tspan font-family="Helvetica" >Average time (us)</tspan></text>
	</g>
</g>
<g fill="none" color="black" stroke="currentColor" stroke-width="1.00" stroke-linecap="butt" stroke-linejoin="miter">
	<g transform="translate(542.7,31.0)" stroke="none" fill="black" font-family="Helvetica" font-size="12.00"  text-anchor="middle">
		<text><tspan font-family="Helvetica" >dfs petgraph init no_drop: MAD</tspan></text>
	</g>
</g>
	<g id="gnuplot_plot_1" ><title>Bootstrap distribution</title>
<g fill="none" color="white" stroke="black" stroke-width="2.00" stroke-linecap="butt" stroke-linejoin="miter">
</g>
<g fill="none" color="black" stroke="currentColor" stroke-width="2.00" stroke-linecap="butt" stroke-linejoin="miter">
	<g transform="translate(1089.0,67.0)" stroke="none" fill="black" font-family="Helvetica" font-size="12.00"  text-anchor="start">
		<text><tspan font-family="Helvetica" >Bootstrap distribution</tspan></text>
	</g>
</g>
<g fill="none" color="black" stroke="currentColor" stroke-width="2.00" stroke-linecap="butt" stroke-linejoin="miter">
	<path stroke='rgb( 31, 120, 180)'  d='M1038.5,63.1 L1080.7,63.1 M71.9,646.3 L73.8,645.8 L75.7,645.3 L77.6,644.8 L79.4,644.3 L81.3,643.7
		L83.2,643.1 L85.1,642.5 L87.0,641.9 L88.9,641.2 L90.8,640.5 L92.7,639.7 L94.5,638.9 L96.4,638.1
		L98.3,637.2 L100.2,636.3 L102.1,635.3 L104.0,634.3 L105.9,633.2 L107.8,632.1 L109.6,630.9 L111.5,629.7
		L113.4,628.4 L115.3,627.0 L117.2,625.5 L119.1,623.9 L121.0,622.2 L122.9,620.4 L124.7,618.5 L126.6,616.5
		L128.5,614.3 L130.4,612.0 L132.3,609.6 L134.2,607.0 L136.1,604.3 L138.0,601.4 L139.8,598.4 L141.7,595.3
		L143.6,592.0 L145.5,588.6 L147.4,585.1 L149.3,581.5 L151.2,577.8 L153.0,574.2 L154.9,570.5 L156.8,566.8
		L158.7,563.1 L160.6,559.5 L162.5,556.0 L164.4,552.6 L166.3,549.4 L168.1,546.3 L170.0,543.3 L171.9,540.6
		L173.8,538.0 L175.7,535.6 L177.6,533.3 L179.5,531.3 L181.4,529.4 L183.2,527.6 L185.1,526.0 L187.0,524.5
		L188.9,523.1 L190.8,521.7 L192.7,520.4 L194.6,519.2 L196.5,517.9 L198.3,516.6 L200.2,515.4 L202.1,514.1
		L204.0,512.7 L205.9,511.3 L207.8,509.9 L209.7,508.4 L211.6,506.8 L213.4,505.2 L215.3,503.5 L217.2,501.8
		L219.1,500.0 L221.0,498.2 L222.9,496.3 L224.8,494.4 L226.6,492.4 L228.5,490.4 L230.4,488.4 L232.3,486.4
		L234.2,484.3 L236.1,482.3 L238.0,480.3 L239.9,478.3 L241.7,476.3 L243.6,474.4 L245.5,472.5 L247.4,470.8
		L249.3,469.1 L251.2,467.5 L253.1,466.1 L255.0,464.8 L256.8,463.7 L258.7,462.8 L260.6,462.0 L262.5,461.5
		L264.4,461.1 L266.3,461.0 L268.2,461.1 L270.1,461.3 L271.9,461.7 L273.8,462.3 L275.7,463.0 L277.6,463.9
		L279.5,464.8 L281.4,465.8 L283.3,466.8 L285.2,467.8 L287.0,468.7 L288.9,469.6 L290.8,470.3 L292.7,470.9
		L294.6,471.3 L296.5,471.4 L298.4,471.4 L300.2,471.1 L302.1,470.5 L304.0,469.7 L305.9,468.7 L307.8,467.3
		L309.7,465.8 L311.6,464.0 L313.5,462.0 L315.3,459.9 L317.2,457.5 L319.1,455.0 L321.0,452.4 L322.9,449.6
		L324.8,446.7 L326.7,443.6 L328.6,440.3 L330.4,436.8 L332.3,433.1 L334.2,429.1 L336.1,424.8 L338.0,420.1
		L339.9,414.9 L341.8,409.3 L343.7,403.1 L345.5,396.3 L347.4,389.0 L349.3,380.9 L351.2,372.3 L353.1,363.1
		L355.0,353.2 L356.9,342.9 L358.8,332.0 L360.6,320.9 L362.5,309.4 L364.4,297.9 L366.3,286.3 L368.2,274.8
		L370.1,263.6 L372.0,252.8 L373.8,242.4 L375.7,232.7 L377.6,223.6 L379.5,215.2 L381.4,207.6 L383.3,200.8
		L385.2,194.7 L387.1,189.4 L388.9,184.7 L390.8,180.7 L392.7,177.1 L394.6,174.0 L396.5,171.2 L398.4,168.6
		L400.3,166.2 L402.2,163.7 L404.0,161.2 L405.9,158.6 L407.8,155.8 L409.7,152.8 L411.6,149.6 L413.5,146.0
		L415.4,142.2 L417.3,138.1 L419.1,133.7 L421.0,129.2 L422.9,124.5 L424.8,119.6 L426.7,114.7 L428.6,109.8
		L430.5,105.0 L432.4,100.3 L434.2,95.9 L436.1,91.8 L438.0,88.1 L439.9,84.8 L441.8,82.1 L443.7,80.0
		L445.6,78.6 L447.4,77.8 L449.3,77.9 L451.2,78.8 L453.1,80.5 L455.0,83.1 L456.9,86.6 L458.8,91.0
		L460.7,96.2 L462.5,102.3 L464.4,109.3 L466.3,117.0 L468.2,125.4 L470.1,134.5 L472.0,144.2 L473.9,154.3
		L475.8,164.8 L477.6,175.6 L479.5,186.5 L481.4,197.4 L483.3,208.2 L485.2,218.8 L487.1,229.1 L489.0,238.9
		L490.9,248.2 L492.7,256.8 L494.6,264.7 L496.5,271.9 L498.4,278.3 L500.3,283.9 L502.2,288.7 L504.1,292.6
		L506.0,295.7 L507.8,298.0 L509.7,299.6 L511.6,300.5 L513.5,300.7 L515.4,300.2 L517.3,299.1 L519.2,297.5
		L521.0,295.4 L522.9,292.8 L524.8,289.8 L526.7,286.4 L528.6,282.7 L530.5,278.7 L532.4,274.6 L534.3,270.5
		L536.1,266.3 L538.0,262.1 L539.9,258.2 L541.8,254.6 L543.7,251.4 L545.6,248.6 L547.5,246.5 L549.4,245.0
		L551.2,244.3 L553.1,244.4 L555.0,245.4 L556.9,247.4 L558.8,250.2 L560.7,254.0 L562.6,258.6 L564.5,264.1
		L566.3,270.5 L568.2,277.6 L570.1,285.3 L572.0,293.6 L573.9,302.4 L575.8,311.5 L577.7,320.8 L579.5,330.3
		L581.4,339.9 L583.3,349.3 L585.2,358.7 L587.1,367.7 L589.0,376.5 L590.9,385.0 L592.8,393.0 L594.6,400.6
		L596.5,407.7 L598.4,414.4 L600.3,420.7 L602.2,426.5 L604.1,431.9 L606.0,436.9 L607.9,441.5 L609.7,445.8
		L611.6,449.8 L613.5,453.5 L615.4,457.0 L617.3,460.3 L619.2,463.4 L621.1,466.4 L623.0,469.3 L624.8,472.2
		L626.7,475.0 L628.6,477.8 L630.5,480.6 L632.4,483.4 L634.3,486.2 L636.2,489.1 L638.1,492.0 L639.9,494.9
		L641.8,497.9 L643.7,500.9 L645.6,504.0 L647.5,507.1 L649.4,510.2 L651.3,513.2 L653.1,516.3 L655.0,519.3
		L656.9,522.3 L658.8,525.2 L660.7,528.1 L662.6,530.9 L664.5,533.6 L666.4,536.2 L668.2,538.7 L670.1,541.0
		L672.0,543.3 L673.9,545.5 L675.8,547.5 L677.7,549.4 L679.6,551.2 L681.5,552.9 L683.3,554.5 L685.2,556.0
		L687.1,557.3 L689.0,558.6 L690.9,559.7 L692.8,560.8 L694.7,561.8 L696.6,562.7 L698.4,563.5 L700.3,564.4
		L702.2,565.1 L704.1,565.9 L706.0,566.7 L707.9,567.4 L709.8,568.3 L711.7,569.1 L713.5,570.0 L715.4,571.0
		L717.3,572.1 L719.2,573.3 L721.1,574.6 L723.0,576.0 L724.9,577.6 L726.7,579.3 L728.6,581.1 L730.5,583.1
		L732.4,585.2 L734.3,587.4 L736.2,589.7 L738.1,592.1 L740.0,594.7 L741.8,597.3 L743.7,599.9 L745.6,602.6
		L747.5,605.3 L749.4,607.9 L751.3,610.6 L753.2,613.2 L755.1,615.7 L756.9,618.2 L758.8,620.5 L760.7,622.7
		L762.6,624.8 L764.5,626.8 L766.4,628.6 L768.3,630.2 L770.2,631.7 L772.0,633.1 L773.9,634.3 L775.8,635.3
		L777.7,636.2 L779.6,637.0 L781.5,637.6 L783.4,638.1 L785.3,638.6 L787.1,638.9 L789.0,639.1 L790.9,639.3
		L792.8,639.3 L794.7,639.3 L796.6,639.3 L798.5,639.2 L800.3,639.0 L802.2,638.8 L804.1,638.5 L806.0,638.3
		L807.9,637.9 L809.8,637.6 L811.7,637.2 L813.6,636.8 L815.4,636.5 L817.3,636.1 L819.2,635.7 L821.1,635.4
		L823.0,635.1 L824.9,634.8 L826.8,634.6 L828.7,634.4 L830.5,634.3 L832.4,634.2 L834.3,634.2 L836.2,634.3
		L838.1,634.5 L840.0,634.7 L841.9,635.0 L843.8,635.4 L845.6,635.8 L847.5,636.3 L849.4,636.9 L851.3,637.5
		L853.2,638.1 L855.1,638.8 L857.0,639.5 L858.9,640.2 L860.7,640.9 L862.6,641.5 L864.5,642.2 L866.4,642.8
		L868.3,643.4 L870.2,643.9 L872.1,644.4 L873.9,644.8 L875.8,645.2 L877.7,645.5 L879.6,645.8 L881.5,646.0
		L883.4,646.2 L885.3,646.3 L887.2,646.3 L889.0,646.4 L890.9,646.4 L892.8,646.3 L894.7,646.3 L896.6,646.2
		L898.5,646.1 L900.4,646.0 L902.3,645.9 L904.1,645.9 L906.0,645.8 L907.9,645.7 L909.8,645.7 L911.7,645.6
		L913.6,645.6 L915.5,645.6 L917.4,645.6 L919.2,645.5 L921.1,645.5 L923.0,645.4 L924.9,645.4 L926.8,645.3
		L928.7,645.2 L930.6,645.1 L932.5,644.9 L934.3,644.7 L936.2,644.5 L938.1,644.3 L940.0,644.0 L941.9,643.7
		L943.8,643.3 L945.7,643.0 L947.5,642.6 L949.4,642.2 L951.3,641.8 L953.2,641.5 L955.1,641.1 L957.0,640.8
		L958.9,640.5 L960.8,640.2 L962.6,640.0 L964.5,639.8 L966.4,639.7 L968.3,639.7 L970.2,639.7 L972.1,639.8
		L974.0,639.9 L975.9,640.1 L977.7,640.3 L979.6,640.6 L981.5,640.9 L983.4,641.2 L985.3,641.6 L987.2,641.9
		L989.1,642.3 L991.0,642.7 L992.8,643.1 L994.7,643.4 L996.6,643.8 L998.5,644.1 L1000.4,644.4 L1002.3,644.6
		L1004.2,644.8 L1006.1,645.1 L1007.9,645.2 L1009.8,645.4 L1011.7,645.5 L1013.6,645.6  '/></g>
	</g>
	<g id="gnuplot_plot_2" ><title>Confidence interval</title>
<g fill="none" color="white" stroke="rgb( 31, 120, 180)" stroke-width="1.00" stroke-linecap="butt" stroke-linejoin="miter">
</g>
<g fill="none" color="black" stroke="currentColor" stroke-width="1.00" stroke-linecap="butt" stroke-linejoin="miter">
	<g transform="translate(1089.0,85.0)" stroke="none" fill="black" font-family="Helvetica" font-size="12.00"  text-anchor="start">
		<text><tspan font-family="Helvetica" >Confidence interval</tspan></text>
	</g>
</g>
<g fill="none" color="black" stroke="currentColor" stroke-width="1.00" stroke-linecap="butt" stroke-linejoin="miter">
	<g stroke='none' shape-rendering='crispEdges'>
		<polygon fill = 'rgb( 31, 120, 180)' fill-opacity = '0.250000' points = '1038.5,85.6 1080.7,85.6 1080.7,76.6 1038.5,76.6 '/>
		<polygon fill = 'rgb( 31, 120, 180)' fill-opacity = '0.250000' points = '158.7,563.1 158.7,662.4 160.6,662.4 160.6,559.5 '/>
		<polygon fill = 'rgb( 31, 120, 180)' fill-opacity = '0.250000' points = '160.6,559.5 160.6,662.4 162.5,662.4 162.5,556.0 '/>
		<polygon fill = 'rgb( 31, 120, 180)' fill-opacity = '0.250000' points = '162.5,556.0 162.5,662.4 164.4,662.4 164.4,552.6 '/>
		<polygon fill = 'rgb( 31, 120, 180)' fill-opacity = '0.250000' points = '164.4,552.6 164.4,662.4 166.3,662.4 166.3,549.4 '/>
		<polygon fill = 'rgb( 31, 120, 180)' fill-opacity = '0.250000' points = '166.3,549.4 166.3,662.4 168.1,662.4 168.1,546.3 '/>
		<polygon fill = 'rgb( 31, 120, 180)' fill-opacity = '0.250000' points = '168.1,546.3 168.1,662.4 170.0,662.4 170.0,543.3 '/>
		<polygon fill = 'rgb( 31, 120, 180)' fill-opacity = '0.250000' points = '170.0,543.3 170.0,662.4 171.9,662.4 171.9,540.6 '/>
		<polygon fill = 'rgb( 31, 120, 180)' fill-opacity = '0.250000' points = '171.9,540.6 171.9,662.4 173.8,662.4 173.8,538.0 '/>
		<polygon fill = 'rgb( 31, 120, 180)' fill-opacity = '0.250000' points = '173.8,538.0 173.8,662.4 175.7,662.4 175.7,535.6 '/>
		<polygon fill = 'rgb( 31, 120, 180)' fill-opacity = '0.250000' points = '175.7,535.6 175.7,662.4 177.6,662.4 177.6,533.3 '/>
		<polygon fill = 'rgb( 31, 120, 180)' fill-opacity = '0.250000' points = '177.6,533.3 177.6,662.4 179.5,662.4 179.5,531.3 '/>
		<polygon fill = 'rgb( 31, 120, 180)' fill-opacity = '0.250000' points = '179.5,531.3 179.5,662.4 181.4,662.4 181.4,529.4 '/>
		<polygon fill = 'rgb( 31, 120, 180)' fill-opacity = '0.250000' points = '181.4,529.4 181.4,662.4 183.2,662.4 183.2,527.6 '/>
		<polygon fill = 'rgb( 31, 120, 180)' fill-opacity = '0.250000' points = '183.2,527.6 183.2,662.4 185.1,662.4 185.1,526.0 '/>
		<polygon fill = 'rgb( 31, 120, 180)' fill-opacity = '0.250000' points = '185.1,526.0 185.1,662.4 187.0,662.4 187.0,524.5 '/>
		<polygon fill = 'rgb( 31, 120, 180)' fill-opacity = '0.250000' points = '187.0,524.5 187.0,662.4 188.9,662.4 188.9,523.1 '/>
		<polygon fill = 'rgb( 31, 120, 180)' fill-opacity = '0.250000' points = '188.9,523.1 188.9,662.4 190.8,662.4 190.8,521.7 '/>
		<polygon fill = 'rgb( 31, 120, 180)' fill-opacity = '0.250000' points = '190.8,521.7 190.8,662.4 192.7,662.4 192.7,520.4 '/>
		<polygon fill = 'rgb( 31, 120, 180)' fill-opacity = '0.250000' points = '192.7,520.4 192.7,662.4 194.6,662.4 194.6,519.2 '/>
		<polygon fill = 'rgb( 31, 120, 180)' fill-opacity = '0.250000' points = '194.6,519.2 194.6,662.4 196.5,662.4 196.5,517.9 '/>
		<polygon fill = 'rgb( 31, 120, 180)' fill-opacity = '0.250000' points = '196.5,517.9 196.5,662.4 198.3,662.4 198.3,516.6 '/>
		<polygon fill = 'rgb( 31, 120, 180)' fill-opacity = '0.250000' points = '198.3,516.6 198.3,662.4 200.2,662.4 200.2,515.4 '/>
		<polygon fill = 'rgb( 31, 120, 180)' fill-opacity = '0.250000' points = '200.2,515.4 200.2,662.4 202.1,662.4 202.1,514.1 '/>
		<polygon fill = 'rgb( 31, 120, 180)' fill-opacity = '0.250000' points = '202.1,514.1 202.1,662.4 204.0,662.4 204.0,512.7 '/>
		<polygon fill = 'rgb( 31, 120, 180)' fill-opacity = '0.250000' points = '204.0,512.7 204.0,662.4 205.9,662.4 205.9,511.3 '/>
		<polygon fill = 'rgb( 31, 120, 180)' fill-opacity = '0.250000' points = '205.9,511.3 205.9,662.4 207.8,662.4 207.8,509.9 '/>
		<polygon fill = 'rgb( 31, 120, 180)' fill-opacity = '0.250000' points = '207.8,509.9 207.8,662.4 209.7,662.4 209.7,508.4 '/>
		<polygon fill = 'rgb( 31, 120, 180)' fill-opacity = '0.250000' points = '209.7,508.4 209.7,662.4 211.6,662.4 211.6,506.8 '/>
		<polygon fill = 'rgb( 31, 120, 180)' fill-opacity = '0.250000' points = '211.6,506.8 211.6,662.4 213.4,662.4 213.4,505.2 '/>
		<polygon fill = 'rgb( 31, 120, 180)' fill-opacity = '0.250000' points = '213.4,505.2 213.4,662.4 215.3,662.4 215.3,503.5 '/>
		<polygon fill = 'rgb( 31, 120, 180)' fill-opacity = '0.250000' points = '215.3,503.5 215.3,662.4 217.2,662.4 217.2,501.8 '/>
		<polygon fill = 'rgb( 31, 120, 180)' fill-opacity = '0.250000' points = '217.2,501.8 217.2,662.4 219.1,662.4 219.1,500.0 '/>
		<polygon fill = 'rgb( 31, 120, 180)' fill-opacity = '0.250000' points = '219.1,500.0 219.1,662.4 221.0,662.4 221.0,498.2 '/>
		<polygon fill = 'rgb( 31, 120, 180)' fill-opacity = '0.250000' points = '221.0,498.2 221.0,662.4 222.9,662.4 222.9,496.3 '/>
		<polygon fill = 'rgb( 31, 120, 180)' fill-opacity = '0.250000' points = '222.9,496.3 222.9,662.4 224.8,662.4 224.8,494.4 '/>
		<polygon fill = 'rgb( 31, 120, 180)' fill-opacity = '0.250000' points = '224.8,494.4 224.8,662.4 226.6,662.4 226.6,492.4 '/>
		<polygon fill = 'rgb( 31, 120, 180)' fill-opacity = '0.250000' points = '226.6,492.4 226.6,662.4 228.5,662.4 228.5,490.4 '/>
		<polygon fill = 'rgb( 31, 120, 180)' fill-opacity = '0.250000' points = '228.5,490.4 228.5,662.4 230.4,662.4 230.4,488.4 '/>
		<polygon fill = 'rgb( 31, 120, 180)' fill-opacity = '0.250000' points = '230.4,488.4 230.4,662.4 232.3,662.4 232.3,486.4 '/>
		<polygon fill = 'rgb( 31, 120, 180)' fill-opacity = '0.250000' points = '232.3,486.4 232.3,662.4 234.2,662.4 234.2,484.3 '/>
		<polygon fill = 'rgb( 31, 120, 180)' fill-opacity = '0.250000' points = '234.2,484.3 234.2,662.4 236.1,662.4 236.1,482.3 '/>
		<polygon fill = 'rgb( 31, 120, 180)' fill-opacity = '0.250000' points = '236.1,482.3 236.1,662.4 238.0,662.4 238.0,480.3 '/>
		<polygon fill = 'rgb( 31, 120, 180)' fill-opacity = '0.250000' points = '238.0,480.3 238.0,662.4 239.9,662.4 239.9,478.3 '/>
		<polygon fill = 'rgb( 31, 120, 180)' fill-opacity = '0.250000' points = '239.9,478.3 239.9,662.4 241.7,662.4 241.7,476.3 '/>
		<polygon fill = 'rgb( 31, 120, 180)' fill-opacity = '0.250000' points = '241.7,476.3 241.7,662.4 243.6,662.4 243.6,474.4 '/>
		<polygon fill = 'rgb( 31, 120, 180)' fill-opacity = '0.250000' points = '243.6,474.4 243.6,662.4 245.5,662.4 245.5,472.5 '/>
		<polygon fill = 'rgb( 31, 120, 180)' fill-opacity = '0.250000' points = '245.5,472.5 245.5,662.4 247.4,662.4 247.4,470.8 '/>
		<polygon fill = 'rgb( 31, 120, 180)' fill-opacity = '0.250000' points = '247.4,470.8 247.4,662.4 249.3,662.4 249.3,469.1 '/>
		<polygon fill = 'rgb( 31, 120, 180)' fill-opacity = '0.250000' points = '249.3,469.1 249.3,662.4 251.2,662.4 251.2,467.5 '/>
		<polygon fill = 'rgb( 31, 120, 180)' fill-opacity = '0.250000' points = '251.2,467.5 251.2,662.4 253.1,662.4 253.1,466.1 '/>
		<polygon fill = 'rgb( 31, 120, 180)' fill-opacity = '0.250000' points = '253.1,466.1 253.1,662.4 255.0,662.4 255.0,464.8 '/>
		<polygon fill = 'rgb( 31, 120, 180)' fill-opacity = '0.250000' points = '255.0,464.8 255.0,662.4 256.8,662.4 256.8,463.7 '/>
		<polygon fill = 'rgb( 31, 120, 180)' fill-opacity = '0.250000' points = '256.8,463.7 256.8,662.4 258.7,662.4 258.7,462.8 '/>
		<polygon fill = 'rgb( 31, 120, 180)' fill-opacity = '0.250000' points = '258.7,462.8 258.7,662.4 260.6,662.4 260.6,462.0 '/>
		<polygon fill = 'rgb( 31, 120, 180)' fill-opacity = '0.250000' points = '260.6,462.0 260.6,662.4 262.5,662.4 262.5,461.5 '/>
		<polygon fill = 'rgb( 31, 120, 180)' fill-opacity = '0.250000' points = '262.5,461.5 262.5,662.4 264.4,662.4 264.4,461.1 '/>
		<polygon fill = 'rgb( 31, 120, 180)' fill-opacity = '0.250000' points = '264.4,461.1 264.4,662.4 266.3,662.4 266.3,461.0 '/>
		<polygon fill = 'rgb( 31, 120, 180)' fill-opacity = '0.250000' points = '266.3,461.0 266.3,662.4 268.2,662.4 268.2,461.1 '/>
		<polygon fill = 'rgb( 31, 120, 180)' fill-opacity = '0.250000' points = '268.2,461.1 268.2,662.4 270.1,662.4 270.1,461.3 '/>
		<polygon fill = 'rgb( 31, 120, 180)' fill-opacity = '0.250000' points = '270.1,461.3 270.1,662.4 271.9,662.4 271.9,461.7 '/>
		<polygon fill = 'rgb( 31, 120, 180)' fill-opacity = '0.250000' points = '271.9,461.7 271.9,662.4 273.8,662.4 273.8,462.3 '/>
		<polygon fill = 'rgb( 31, 120, 180)' fill-opacity = '0.250000' points = '273.8,462.3 273.8,662.4 275.7,662.4 275.7,463.0 '/>
		<polygon fill = 'rgb( 31, 120, 180)' fill-opacity = '0.250000' points = '275.7,463.0 275.7,662.4 277.6,662.4 277.6,463.9 '/>
		<polygon fill = 'rgb( 31, 120, 180)' fill-opacity = '0.250000' points = '277.6,463.9 277.6,662.4 279.5,662.4 279.5,464.8 '/>
		<polygon fill = 'rgb( 31, 120, 180)' fill-opacity = '0.250000' points = '279.5,464.8 279.5,662.4 281.4,662.4 281.4,465.8 '/>
		<polygon fill = 'rgb( 31, 120, 180)' fill-opacity = '0.250000' points = '281.4,465.8 281.4,662.4 283.3,662.4 283.3,466.8 '/>
		<polygon fill = 'rgb( 31, 120, 180)' fill-opacity = '0.250000' points = '283.3,466.8 283.3,662.4 285.2,662.4 285.2,467.8 '/>
		<polygon fill = 'rgb( 31, 120, 180)' fill-opacity = '0.250000' points = '285.2,467.8 285.2,662.4 287.0,662.4 287.0,468.7 '/>
		<polygon fill = 'rgb( 31, 120, 180)' fill-opacity = '0.250000' points = '287.0,468.7 287.0,662.4 288.9,662.4 288.9,469.6 '/>
		<polygon fill = 'rgb( 31, 120, 180)' fill-opacity = '0.250000' points = '288.9,469.6 288.9,662.4 290.8,662.4 290.8,470.3 '/>
		<polygon fill = 'rgb( 31, 120, 180)' fill-opacity = '0.250000' points = '290.8,470.3 290.8,662.4 292.7,662.4 292.7,470.9 '/>
		<polygon fill = 'rgb( 31, 120, 180)' fill-opacity = '0.250000' points = '292.7,470.9 292.7,662.4 294.6,662.4 294.6,471.3 '/>
		<polygon fill = 'rgb( 31, 120, 180)' fill-opacity = '0.250000' points = '294.6,471.3 294.6,662.4 296.5,662.4 296.5,471.4 '/>
		<polygon fill = 'rgb( 31, 120, 180)' fill-opacity = '0.250000' points = '296.5,471.4 296.5,662.4 298.4,662.4 298.4,471.4 '/>
		<polygon fill = 'rgb( 31, 120, 180)' fill-opacity = '0.250000' points = '298.4,471.4 298.4,662.4 300.2,662.4 300.2,471.1 '/>
		<polygon fill = 'rgb( 31, 120, 180)' fill-opacity = '0.250000' points = '300.2,471.1 300.2,662.4 302.1,662.4 302.1,470.5 '/>
		<polygon fill = 'rgb( 31, 120, 180)' fill-opacity = '0.250000' points = '302.1,470.5 302.1,662.4 304.0,662.4 304.0,469.7 '/>
		<polygon fill = 'rgb( 31, 120, 180)' fill-opacity = '0.250000' points = '304.0,469.7 304.0,662.4 305.9,662.4 305.9,468.7 '/>
		<polygon fill = 'rgb( 31, 120, 180)' fill-opacity = '0.250000' points = '305.9,468.7 305.9,662.4 307.8,662.4 307.8,467.3 '/>
		<polygon fill = 'rgb( 31, 120, 180)' fill-opacity = '0.250000' points = '307.8,467.3 307.8,662.4 309.7,662.4 309.7,465.8 '/>
		<polygon fill = 'rgb( 31, 120, 180)' fill-opacity = '0.250000' points = '309.7,465.8 309.7,662.4 311.6,662.4 311.6,464.0 '/>
		<polygon fill = 'rgb( 31, 120, 180)' fill-opacity = '0.250000' points = '311.6,464.0 311.6,662.4 313.5,662.4 313.5,462.0 '/>
		<polygon fill = 'rgb( 31, 120, 180)' fill-opacity = '0.250000' points = '313.5,462.0 313.5,662.4 315.3,662.4 315.3,459.9 '/>
		<polygon fill = 'rgb( 31, 120, 180)' fill-opacity = '0.250000' points = '315.3,459.9 315.3,662.4 317.2,662.4 317.2,457.5 '/>
		<polygon fill = 'rgb( 31, 120, 180)' fill-opacity = '0.250000' points = '317.2,457.5 317.2,662.4 319.1,662.4 319.1,455.0 '/>
		<polygon fill = 'rgb( 31, 120, 180)' fill-opacity = '0.250000' points = '319.1,455.0 319.1,662.4 321.0,662.4 321.0,452.4 '/>
		<polygon fill = 'rgb( 31, 120, 180)' fill-opacity = '0.250000' points = '321.0,452.4 321.0,662.4 322.9,662.4 322.9,449.6 '/>
		<polygon fill = 'rgb( 31, 120, 180)' fill-opacity = '0.250000' points = '322.9,449.6 322.9,662.4 324.8,662.4 324.8,446.7 '/>
		<polygon fill = 'rgb( 31, 120, 180)' fill-opacity = '0.250000' points = '324.8,446.7 324.8,662.4 326.7,662.4 326.7,443.6 '/>
		<polygon fill = 'rgb( 31, 120, 180)' fill-opacity = '0.250000' points = '326.7,443.6 326.7,662.4 328.6,662.4 328.6,440.3 '/>
		<polygon fill = 'rgb( 31, 120, 180)' fill-opacity = '0.250000' points = '328.6,440.3 328.6,662.4 330.4,662.4 330.4,436.8 '/>
		<polygon fill = 'rgb( 31, 120, 180)' fill-opacity = '0.250000' points = '330.4,436.8 330.4,662.4 332.3,662.4 332.3,433.1 '/>
		<polygon fill = 'rgb( 31, 120, 180)' fill-opacity = '0.250000' points = '332.3,433.1 332.3,662.4 334.2,662.4 334.2,429.1 '/>
		<polygon fill = 'rgb( 31, 120, 180)' fill-opacity = '0.250000' points = '334.2,429.1 334.2,662.4 336.1,662.4 336.1,424.8 '/>
		<polygon fill = 'rgb( 31, 120, 180)' fill-opacity = '0.250000' points = '336.1,424.8 336.1,662.4 338.0,662.4 338.0,420.1 '/>
		<polygon fill = 'rgb( 31, 120, 180)' fill-opacity = '0.250000' points = '338.0,420.1 338.0,662.4 339.9,662.4 339.9,414.9 '/>
		<polygon fill = 'rgb( 31, 120, 180)' fill-opacity = '0.250000' points = '339.9,414.9 339.9,662.4 341.8,662.4 341.8,409.3 '/>
		<polygon fill = 'rgb( 31, 120, 180)' fill-opacity = '0.250000' points = '341.8,409.3 341.8,662.4 343.7,662.4 343.7,403.1 '/>
		<polygon fill = 'rgb( 31, 120, 180)' fill-opacity = '0.250000' points = '343.7,403.1 343.7,662.4 345.5,662.4 345.5,396.3 '/>
		<polygon fill = 'rgb( 31, 120, 180)' fill-opacity = '0.250000' points = '345.5,396.3 345.5,662.4 347.4,662.4 347.4,389.0 '/>
		<polygon fill = 'rgb( 31, 120, 180)' fill-opacity = '0.250000' points = '347.4,389.0 347.4,662.4 349.3,662.4 349.3,380.9 '/>
		<polygon fill = 'rgb( 31, 120, 180)' fill-opacity = '0.250000' points = '349.3,380.9 349.3,662.4 351.2,662.4 351.2,372.3 '/>
		<polygon fill = 'rgb( 31, 120, 180)' fill-opacity = '0.250000' points = '351.2,372.3 351.2,662.4 353.1,662.4 353.1,363.1 '/>
		<polygon fill = 'rgb( 31, 120, 180)' fill-opacity = '0.250000' points = '353.1,363.1 353.1,662.4 355.0,662.4 355.0,353.2 '/>
		<polygon fill = 'rgb( 31, 120, 180)' fill-opacity = '0.250000' points = '355.0,353.2 355.0,662.4 356.9,662.4 356.9,342.9 '/>
		<polygon fill = 'rgb( 31, 120, 180)' fill-opacity = '0.250000' points = '356.9,342.9 356.9,662.4 358.8,662.4 358.8,332.0 '/>
		<polygon fill = 'rgb( 31, 120, 180)' fill-opacity = '0.250000' points = '358.8,332.0 358.8,662.4 360.6,662.4 360.6,320.9 '/>
		<polygon fill = 'rgb( 31, 120, 180)' fill-opacity = '0.250000' points = '360.6,320.9 360.6,662.4 362.5,662.4 362.5,309.4 '/>
		<polygon fill = 'rgb( 31, 120, 180)' fill-opacity = '0.250000' points = '362.5,309.4 362.5,662.4 364.4,662.4 364.4,297.9 '/>
		<polygon fill = 'rgb( 31, 120, 180)' fill-opacity = '0.250000' points = '364.4,297.9 364.4,662.4 366.3,662.4 366.3,286.3 '/>
		<polygon fill = 'rgb( 31, 120, 180)' fill-opacity = '0.250000' points = '366.3,286.3 366.3,662.4 368.2,662.4 368.2,274.8 '/>
		<polygon fill = 'rgb( 31, 120, 180)' fill-opacity = '0.250000' points = '368.2,274.8 368.2,662.4 370.1,662.4 370.1,263.6 '/>
		<polygon fill = 'rgb( 31, 120, 180)' fill-opacity = '0.250000' points = '370.1,263.6 370.1,662.4 372.0,662.4 372.0,252.8 '/>
		<polygon fill = 'rgb( 31, 120, 180)' fill-opacity = '0.250000' points = '372.0,252.8 372.0,662.4 373.8,662.4 373.8,242.4 '/>
		<polygon fill = 'rgb( 31, 120, 180)' fill-opacity = '0.250000' points = '373.8,242.4 373.8,662.4 375.7,662.4 375.7,232.7 '/>
		<polygon fill = 'rgb( 31, 120, 180)' fill-opacity = '0.250000' points = '375.7,232.7 375.7,662.4 377.6,662.4 377.6,223.6 '/>
		<polygon fill = 'rgb( 31, 120, 180)' fill-opacity = '0.250000' points = '377.6,223.6 377.6,662.4 379.5,662.4 379.5,215.2 '/>
		<polygon fill = 'rgb( 31, 120, 180)' fill-opacity = '0.250000' points = '379.5,215.2 379.5,662.4 381.4,662.4 381.4,207.6 '/>
		<polygon fill = 'rgb( 31, 120, 180)' fill-opacity = '0.250000' points = '381.4,207.6 381.4,662.4 383.3,662.4 383.3,200.8 '/>
		<polygon fill = 'rgb( 31, 120, 180)' fill-opacity = '0.250000' points = '383.3,200.8 383.3,662.4 385.2,662.4 385.2,194.7 '/>
		<polygon fill = 'rgb( 31, 120, 180)' fill-opacity = '0.250000' points = '385.2,194.7 385.2,662.4 387.1,662.4 387.1,189.4 '/>
		<polygon fill = 'rgb( 31, 120, 180)' fill-opacity = '0.250000' points = '387.1,189.4 387.1,662.4 388.9,662.4 388.9,184.7 '/>
		<polygon fill = 'rgb( 31, 120, 180)' fill-opacity = '0.250000' points = '388.9,184.7 388.9,662.4 390.8,662.4 390.8,180.7 '/>
		<polygon fill = 'rgb( 31, 120, 180)' fill-opacity = '0.250000' points = '390.8,180.7 390.8,662.4 392.7,662.4 392.7,177.1 '/>
		<polygon fill = 'rgb( 31, 120, 180)' fill-opacity = '0.250000' points = '392.7,177.1 392.7,662.4 394.6,662.4 394.6,174.0 '/>
		<polygon fill = 'rgb( 31, 120, 180)' fill-opacity = '0.250000' points = '394.6,174.0 394.6,662.4 396.5,662.4 396.5,171.2 '/>
		<polygon fill = 'rgb( 31, 120, 180)' fill-opacity = '0.250000' points = '396.5,171.2 396.5,662.4 398.4,662.4 398.4,168.6 '/>
		<polygon fill = 'rgb( 31, 120, 180)' fill-opacity = '0.250000' points = '398.4,168.6 398.4,662.4 400.3,662.4 400.3,166.2 '/>
		<polygon fill = 'rgb( 31, 120, 180)' fill-opacity = '0.250000' points = '400.3,166.2 400.3,662.4 402.2,662.4 402.2,163.7 '/>
		<polygon fill = 'rgb( 31, 120, 180)' fill-opacity = '0.250000' points = '402.2,163.7 402.2,662.4 404.0,662.4 404.0,161.2 '/>
		<polygon fill = 'rgb( 31, 120, 180)' fill-opacity = '0.250000' points = '404.0,161.2 404.0,662.4 405.9,662.4 405.9,158.6 '/>
		<polygon fill = 'rgb( 31, 120, 180)' fill-opacity = '0.250000' points = '405.9,158.6 405.9,662.4 407.8,662.4 407.8,155.8 '/>
		<polygon fill = 'rgb( 31, 120, 180)' fill-opacity = '0.250000' points = '407.8,155.8 407.8,662.4 409.7,662.4 409.7,152.8 '/>
		<polygon fill = 'rgb( 31, 120, 180)' fill-opacity = '0.250000' points = '409.7,152.8 409.7,662.4 411.6,662.4 411.6,149.6 '/>
		<polygon fill = 'rgb( 31, 120, 180)' fill-opacity = '0.250000' points = '411.6,149.6 411.6,662.4 413.5,662.4 413.5,146.0 '/>
		<polygon fill = 'rgb( 31, 120, 180)' fill-opacity = '0.250000' points = '413.5,146.0 413.5,662.4 415.4,662.4 415.4,142.2 '/>
		<polygon fill = 'rgb( 31, 120, 180)' fill-opacity = '0.250000' points = '415.4,142.2 415.4,662.4 417.3,662.4 417.3,138.1 '/>
		<polygon fill = 'rgb( 31, 120, 180)' fill-opacity = '0.250000' points = '417.3,138.1 417.3,662.4 419.1,662.4 419.1,133.7 '/>
		<polygon fill = 'rgb( 31, 120, 180)' fill-opacity = '0.250000' points = '419.1,133.7 419.1,662.4 421.0,662.4 421.0,129.2 '/>
		<polygon fill = 'rgb( 31, 120, 180)' fill-opacity = '0.250000' points = '421.0,129.2 421.0,662.4 422.9,662.4 422.9,124.5 '/>
		<polygon fill = 'rgb( 31, 120, 180)' fill-opacity = '0.250000' points = '422.9,124.5 422.9,662.4 424.8,662.4 424.8,119.6 '/>
		<polygon fill = 'rgb( 31, 120, 180)' fill-opacity = '0.250000' points = '424.8,119.6 424.8,662.4 426.7,662.4 426.7,114.7 '/>
		<polygon fill = 'rgb( 31, 120, 180)' fill-opacity = '0.250000' points = '426.7,114.7 426.7,662.4 428.6,662.4 428.6,109.8 '/>
		<polygon fill = 'rgb( 31, 120, 180)' fill-opacity = '0.250000' points = '428.6,109.8 428.6,662.4 430.5,662.4 430.5,105.0 '/>
		<polygon fill = 'rgb( 31, 120, 180)' fill-opacity = '0.250000' points = '430.5,105.0 430.5,662.4 432.4,662.4 432.4,100.3 '/>
		<polygon fill = 'rgb( 31, 120, 180)' fill-opacity = '0.250000' points = '432.4,100.3 432.4,662.4 434.2,662.4 434.2,95.9 '/>
		<polygon fill = 'rgb( 31, 120, 180)' fill-opacity = '0.250000' points = '434.2,95.9 434.2,662.4 436.1,662.4 436.1,91.8 '/>
		<polygon fill = 'rgb( 31, 120, 180)' fill-opacity = '0.250000' points = '436.1,91.8 436.1,662.4 438.0,662.4 438.0,88.1 '/>
		<polygon fill = 'rgb( 31, 120, 180)' fill-opacity = '0.250000' points = '438.0,88.1 438.0,662.4 439.9,662.4 439.9,84.8 '/>
		<polygon fill = 'rgb( 31, 120, 180)' fill-opacity = '0.250000' points = '439.9,84.8 439.9,662.4 441.8,662.4 441.8,82.1 '/>
		<polygon fill = 'rgb( 31, 120, 180)' fill-opacity = '0.250000' points = '441.8,82.1 441.8,662.4 443.7,662.4 443.7,80.0 '/>
		<polygon fill = 'rgb( 31, 120, 180)' fill-opacity = '0.250000' points = '443.7,80.0 443.7,662.4 445.6,662.4 445.6,78.6 '/>
		<polygon fill = 'rgb( 31, 120, 180)' fill-opacity = '0.250000' points = '445.6,78.6 445.6,662.4 447.4,662.4 447.4,77.8 '/>
		<polygon fill = 'rgb( 31, 120, 180)' fill-opacity = '0.250000' points = '447.4,77.8 447.4,662.4 449.3,662.4 449.3,77.9 '/>
		<polygon fill = 'rgb( 31, 120, 180)' fill-opacity = '0.250000' points = '449.3,77.9 449.3,662.4 451.2,662.4 451.2,78.8 '/>
		<polygon fill = 'rgb( 31, 120, 180)' fill-opacity = '0.250000' points = '451.2,78.8 451.2,662.4 453.1,662.4 453.1,80.5 '/>
		<polygon fill = 'rgb( 31, 120, 180)' fill-opacity = '0.250000' points = '453.1,80.5 453.1,662.4 455.0,662.4 455.0,83.1 '/>
		<polygon fill = 'rgb( 31, 120, 180)' fill-opacity = '0.250000' points = '455.0,83.1 455.0,662.4 456.9,662.4 456.9,86.6 '/>
		<polygon fill = 'rgb( 31, 120, 180)' fill-opacity = '0.250000' points = '456.9,86.6 456.9,662.4 458.8,662.4 458.8,91.0 '/>
		<polygon fill = 'rgb( 31, 120, 180)' fill-opacity = '0.250000' points = '458.8,91.0 458.8,662.4 460.7,662.4 460.7,96.2 '/>
		<polygon fill = 'rgb( 31, 120, 180)' fill-opacity = '0.250000' points = '460.7,96.2 460.7,662.4 462.5,662.4 462.5,102.3 '/>
		<polygon fill = 'rgb( 31, 120, 180)' fill-opacity = '0.250000' points = '462.5,102.3 462.5,662.4 464.4,662.4 464.4,109.3 '/>
		<polygon fill = 'rgb( 31, 120, 180)' fill-opacity = '0.250000' points = '464.4,109.3 464.4,662.4 466.3,662.4 466.3,117.0 '/>
		<polygon fill = 'rgb( 31, 120, 180)' fill-opacity = '0.250000' points = '466.3,117.0 466.3,662.4 468.2,662.4 468.2,125.4 '/>
		<polygon fill = 'rgb( 31, 120, 180)' fill-opacity = '0.250000' points = '468.2,125.4 468.2,662.4 470.1,662.4 470.1,134.5 '/>
		<polygon fill = 'rgb( 31, 120, 180)' fill-opacity = '0.250000' points = '470.1,134.5 470.1,662.4 472.0,662.4 472.0,144.2 '/>
		<polygon fill = 'rgb( 31, 120, 180)' fill-opacity = '0.250000' points = '472.0,144.2 472.0,662.4 473.9,662.4 473.9,154.3 '/>
		<polygon fill = 'rgb( 31, 120, 180)' fill-opacity = '0.250000' points = '473.9,154.3 473.9,662.4 475.8,662.4 475.8,164.8 '/>
		<polygon fill = 'rgb( 31, 120, 180)' fill-opacity = '0.250000' points = '475.8,164.8 475.8,662.4 477.6,662.4 477.6,175.6 '/>
		<polygon fill = 'rgb( 31, 120, 180)' fill-opacity = '0.250000' points = '477.6,175.6 477.6,662.4 479.5,662.4 479.5,186.5 '/>
		<polygon fill = 'rgb( 31, 120, 180)' fill-opacity = '0.250000' points = '479.5,186.5 479.5,662.4 481.4,662.4 481.4,197.4 '/>
		<polygon fill = 'rgb( 31, 120, 180)' fill-opacity = '0.250000' points = '481.4,197.4 481.4,662.4 483.3,662.4 483.3,208.2 '/>
		<polygon fill = 'rgb( 31, 120, 180)' fill-opacity = '0.250000' points = '483.3,208.2 483.3,662.4 485.2,662.4 485.2,218.8 '/>
		<polygon fill = 'rgb( 31, 120, 180)' fill-opacity = '0.250000' points = '485.2,218.8 485.2,662.4 487.1,662.4 487.1,229.1 '/>
		<polygon fill = 'rgb( 31, 120, 180)' fill-opacity = '0.250000' points = '487.1,229.1 487.1,662.4 489.0,662.4 489.0,238.9 '/>
		<polygon fill = 'rgb( 31, 120, 180)' fill-opacity = '0.250000' points = '489.0,238.9 489.0,662.4 490.9,662.4 490.9,248.2 '/>
		<polygon fill = 'rgb( 31, 120, 180)' fill-opacity = '0.250000' points = '490.9,248.2 490.9,662.4 492.7,662.4 492.7,256.8 '/>
		<polygon fill = 'rgb( 31, 120, 180)' fill-opacity = '0.250000' points = '492.7,256.8 492.7,662.4 494.6,662.4 494.6,264.7 '/>
		<polygon fill = 'rgb( 31, 120, 180)' fill-opacity = '0.250000' points = '494.6,264.7 494.6,662.4 496.5,662.4 496.5,271.9 '/>
		<polygon fill = 'rgb( 31, 120, 180)' fill-opacity = '0.250000' points = '496.5,271.9 496.5,662.4 498.4,662.4 498.4,278.3 '/>
		<polygon fill = 'rgb( 31, 120, 180)' fill-opacity = '0.250000' points = '498.4,278.3 498.4,662.4 500.3,662.4 500.3,283.9 '/>
		<polygon fill = 'rgb( 31, 120, 180)' fill-opacity = '0.250000' points = '500.3,283.9 500.3,662.4 502.2,662.4 502.2,288.7 '/>
		<polygon fill = 'rgb( 31, 120, 180)' fill-opacity = '0.250000' points = '502.2,288.7 502.2,662.4 504.1,662.4 504.1,292.6 '/>
		<polygon fill = 'rgb( 31, 120, 180)' fill-opacity = '0.250000' points = '504.1,292.6 504.1,662.4 506.0,662.4 506.0,295.7 '/>
		<polygon fill = 'rgb( 31, 120, 180)' fill-opacity = '0.250000' points = '506.0,295.7 506.0,662.4 507.8,662.4 507.8,298.0 '/>
		<polygon fill = 'rgb( 31, 120, 180)' fill-opacity = '0.250000' points = '507.8,298.0 507.8,662.4 509.7,662.4 509.7,299.6 '/>
		<polygon fill = 'rgb( 31, 120, 180)' fill-opacity = '0.250000' points = '509.7,299.6 509.7,662.4 511.6,662.4 511.6,300.5 '/>
		<polygon fill = 'rgb( 31, 120, 180)' fill-opacity = '0.250000' points = '511.6,300.5 511.6,662.4 513.5,662.4 513.5,300.7 '/>
		<polygon fill = 'rgb( 31, 120, 180)' fill-opacity = '0.250000' points = '513.5,300.7 513.5,662.4 515.4,662.4 515.4,300.2 '/>
		<polygon fill = 'rgb( 31, 120, 180)' fill-opacity = '0.250000' points = '515.4,300.2 515.4,662.4 517.3,662.4 517.3,299.1 '/>
		<polygon fill = 'rgb( 31, 120, 180)' fill-opacity = '0.250000' points = '517.3,299.1 517.3,662.4 519.2,662.4 519.2,297.5 '/>
		<polygon fill = 'rgb( 31, 120, 180)' fill-opacity = '0.250000' points = '519.2,297.5 519.2,662.4 521.0,662.4 521.0,295.4 '/>
		<polygon fill = 'rgb( 31, 120, 180)' fill-opacity = '0.250000' points = '521.0,295.4 521.0,662.4 522.9,662.4 522.9,292.8 '/>
		<polygon fill = 'rgb( 31, 120, 180)' fill-opacity = '0.250000' points = '522.9,292.8 522.9,662.4 524.8,662.4 524.8,289.8 '/>
		<polygon fill = 'rgb( 31, 120, 180)' fill-opacity = '0.250000' points = '524.8,289.8 524.8,662.4 526.7,662.4 526.7,286.4 '/>
		<polygon fill = 'rgb( 31, 120, 180)' fill-opacity = '0.250000' points = '526.7,286.4 526.7,662.4 528.6,662.4 528.6,282.7 '/>
		<polygon fill = 'rgb( 31, 120, 180)' fill-opacity = '0.250000' points = '528.6,282.7 528.6,662.4 530.5,662.4 530.5,278.7 '/>
		<polygon fill = 'rgb( 31, 120, 180)' fill-opacity = '0.250000' points = '530.5,278.7 530.5,662.4 532.4,662.4 532.4,274.6 '/>
		<polygon fill = 'rgb( 31, 120, 180)' fill-opacity = '0.250000' points = '532.4,274.6 532.4,662.4 534.3,662.4 534.3,270.5 '/>
		<polygon fill = 'rgb( 31, 120, 180)' fill-opacity = '0.250000' points = '534.3,270.5 534.3,662.4 536.1,662.4 536.1,266.3 '/>
		<polygon fill = 'rgb( 31, 120, 180)' fill-opacity = '0.250000' points = '536.1,266.3 536.1,662.4 538.0,662.4 538.0,262.1 '/>
		<polygon fill = 'rgb( 31, 120, 180)' fill-opacity = '0.250000' points = '538.0,262.1 538.0,662.4 539.9,662.4 539.9,258.2 '/>
		<polygon fill = 'rgb( 31, 120, 180)' fill-opacity = '0.250000' points = '539.9,258.2 539.9,662.4 541.8,662.4 541.8,254.6 '/>
		<polygon fill = 'rgb( 31, 120, 180)' fill-opacity = '0.250000' points = '541.8,254.6 541.8,662.4 543.7,662.4 543.7,251.4 '/>
		<polygon fill = 'rgb( 31, 120, 180)' fill-opacity = '0.250000' points = '543.7,251.4 543.7,662.4 545.6,662.4 545.6,248.6 '/>
		<polygon fill = 'rgb( 31, 120, 180)' fill-opacity = '0.250000' points = '545.6,248.6 545.6,662.4 547.5,662.4 547.5,246.5 '/>
		<polygon fill = 'rgb( 31, 120, 180)' fill-opacity = '0.250000' points = '547.5,246.5 547.5,662.4 549.4,662.4 549.4,245.0 '/>
		<polygon fill = 'rgb( 31, 120, 180)' fill-opacity = '0.250000' points = '549.4,245.0 549.4,662.4 551.2,662.4 551.2,244.3 '/>
		<polygon fill = 'rgb( 31, 120, 180)' fill-opacity = '0.250000' points = '551.2,244.3 551.2,662.4 553.1,662.4 553.1,244.4 '/>
		<polygon fill = 'rgb( 31, 120, 180)' fill-opacity = '0.250000' points = '553.1,244.4 553.1,662.4 555.0,662.4 555.0,245.4 '/>
		<polygon fill = 'rgb( 31, 120, 180)' fill-opacity = '0.250000' points = '555.0,245.4 555.0,662.4 556.9,662.4 556.9,247.4 '/>
		<polygon fill = 'rgb( 31, 120, 180)' fill-opacity = '0.250000' points = '556.9,247.4 556.9,662.4 558.8,662.4 558.8,250.2 '/>
		<polygon fill = 'rgb( 31, 120, 180)' fill-opacity = '0.250000' points = '558.8,250.2 558.8,662.4 560.7,662.4 560.7,254.0 '/>
		<polygon fill = 'rgb( 31, 120, 180)' fill-opacity = '0.250000' points = '560.7,254.0 560.7,662.4 562.6,662.4 562.6,258.6 '/>
		<polygon fill = 'rgb( 31, 120, 180)' fill-opacity = '0.250000' points = '562.6,258.6 562.6,662.4 564.5,662.4 564.5,264.1 '/>
		<polygon fill = 'rgb( 31, 120, 180)' fill-opacity = '0.250000' points = '564.5,264.1 564.5,662.4 566.3,662.4 566.3,270.5 '/>
		<polygon fill = 'rgb( 31, 120, 180)' fill-opacity = '0.250000' points = '566.3,270.5 566.3,662.4 568.2,662.4 568.2,277.6 '/>
		<polygon fill = 'rgb( 31, 120, 180)' fill-opacity = '0.250000' points = '568.2,277.6 568.2,662.4 570.1,662.4 570.1,285.3 '/>
		<polygon fill = 'rgb( 31, 120, 180)' fill-opacity = '0.250000' points = '570.1,285.3 570.1,662.4 572.0,662.4 572.0,293.6 '/>
		<polygon fill = 'rgb( 31, 120, 180)' fill-opacity = '0.250000' points = '572.0,293.6 572.0,662.4 573.9,662.4 573.9,302.4 '/>
		<polygon fill = 'rgb( 31, 120, 180)' fill-opacity = '0.250000' points = '573.9,302.4 573.9,662.4 575.8,662.4 575.8,311.5 '/>
		<polygon fill = 'rgb( 31, 120, 180)' fill-opacity = '0.250000' points = '575.8,311.5 575.8,662.4 577.7,662.4 577.7,320.8 '/>
		<polygon fill = 'rgb( 31, 120, 180)' fill-opacity = '0.250000' points = '577.7,320.8 577.7,662.4 579.5,662.4 579.5,330.3 '/>
		<polygon fill = 'rgb( 31, 120, 180)' fill-opacity = '0.250000' points = '579.5,330.3 579.5,662.4 581.4,662.4 581.4,339.9 '/>
		<polygon fill = 'rgb( 31, 120, 180)' fill-opacity = '0.250000' points = '581.4,339.9 581.4,662.4 583.3,662.4 583.3,349.3 '/>
		<polygon fill = 'rgb( 31, 120, 180)' fill-opacity = '0.250000' points = '583.3,349.3 583.3,662.4 585.2,662.4 585.2,358.7 '/>
		<polygon fill = 'rgb( 31, 120, 180)' fill-opacity = '0.250000' points = '585.2,358.7 585.2,662.4 587.1,662.4 587.1,367.7 '/>
		<polygon fill = 'rgb( 31, 120, 180)' fill-opacity = '0.250000' points = '587.1,367.7 587.1,662.4 589.0,662.4 589.0,376.5 '/>
		<polygon fill = 'rgb( 31, 120, 180)' fill-opacity = '0.250000' points = '589.0,376.5 589.0,662.4 590.9,662.4 590.9,385.0 '/>
		<polygon fill = 'rgb( 31, 120, 180)' fill-opacity = '0.250000' points = '590.9,385.0 590.9,662.4 592.8,662.4 592.8,393.0 '/>
		<polygon fill = 'rgb( 31, 120, 180)' fill-opacity = '0.250000' points = '592.8,393.0 592.8,662.4 594.6,662.4 594.6,400.6 '/>
		<polygon fill = 'rgb( 31, 120, 180)' fill-opacity = '0.250000' points = '594.6,400.6 594.6,662.4 596.5,662.4 596.5,407.7 '/>
		<polygon fill = 'rgb( 31, 120, 180)' fill-opacity = '0.250000' points = '596.5,407.7 596.5,662.4 598.4,662.4 598.4,414.4 '/>
		<polygon fill = 'rgb( 31, 120, 180)' fill-opacity = '0.250000' points = '598.4,414.4 598.4,662.4 600.3,662.4 600.3,420.7 '/>
		<polygon fill = 'rgb( 31, 120, 180)' fill-opacity = '0.250000' points = '600.3,420.7 600.3,662.4 602.2,662.4 602.2,426.5 '/>
		<polygon fill = 'rgb( 31, 120, 180)' fill-opacity = '0.250000' points = '602.2,426.5 602.2,662.4 604.1,662.4 604.1,431.9 '/>
		<polygon fill = 'rgb( 31, 120, 180)' fill-opacity = '0.250000' points = '604.1,431.9 604.1,662.4 606.0,662.4 606.0,436.9 '/>
		<polygon fill = 'rgb( 31, 120, 180)' fill-opacity = '0.250000' points = '606.0,436.9 606.0,662.4 607.9,662.4 607.9,441.5 '/>
		<polygon fill = 'rgb( 31, 120, 180)' fill-opacity = '0.250000' points = '607.9,441.5 607.9,662.4 609.7,662.4 609.7,445.8 '/>
		<polygon fill = 'rgb( 31, 120, 180)' fill-opacity = '0.250000' points = '609.7,445.8 609.7,662.4 611.6,662.4 611.6,449.8 '/>
		<polygon fill = 'rgb( 31, 120, 180)' fill-opacity = '0.250000' points = '611.6,449.8 611.6,662.4 613.5,662.4 613.5,453.5 '/>
		<polygon fill = 'rgb( 31, 120, 180)' fill-opacity = '0.250000' points = '613.5,453.5 613.5,662.4 615.4,662.4 615.4,457.0 '/>
		<polygon fill = 'rgb( 31, 120, 180)' fill-opacity = '0.250000' points = '615.4,457.0 615.4,662.4 617.3,662.4 617.3,460.3 '/>
		<polygon fill = 'rgb( 31, 120, 180)' fill-opacity = '0.250000' points = '617.3,460.3 617.3,662.4 619.2,662.4 619.2,463.4 '/>
		<polygon fill = 'rgb( 31, 120, 180)' fill-opacity = '0.250000' points = '619.2,463.4 619.2,662.4 621.1,662.4 621.1,466.4 '/>
		<polygon fill = 'rgb( 31, 120, 180)' fill-opacity = '0.250000' points = '621.1,466.4 621.1,662.4 623.0,662.4 623.0,469.3 '/>
		<polygon fill = 'rgb( 31, 120, 180)' fill-opacity = '0.250000' points = '623.0,469.3 623.0,662.4 624.8,662.4 624.8,472.2 '/>
		<polygon fill = 'rgb( 31, 120, 180)' fill-opacity = '0.250000' points = '624.8,472.2 624.8,662.4 626.7,662.4 626.7,475.0 '/>
		<polygon fill = 'rgb( 31, 120, 180)' fill-opacity = '0.250000' points = '626.7,475.0 626.7,662.4 628.6,662.4 628.6,477.8 '/>
		<polygon fill = 'rgb( 31, 120, 180)' fill-opacity = '0.250000' points = '628.6,477.8 628.6,662.4 630.5,662.4 630.5,480.6 '/>
		<polygon fill = 'rgb( 31, 120, 180)' fill-opacity = '0.250000' points = '630.5,480.6 630.5,662.4 632.4,662.4 632.4,483.4 '/>
		<polygon fill = 'rgb( 31, 120, 180)' fill-opacity = '0.250000' points = '632.4,483.4 632.4,662.4 634.3,662.4 634.3,486.2 '/>
		<polygon fill = 'rgb( 31, 120, 180)' fill-opacity = '0.250000' points = '634.3,486.2 634.3,662.4 636.2,662.4 636.2,489.1 '/>
		<polygon fill = 'rgb( 31, 120, 180)' fill-opacity = '0.250000' points = '636.2,489.1 636.2,662.4 638.1,662.4 638.1,492.0 '/>
		<polygon fill = 'rgb( 31, 120, 180)' fill-opacity = '0.250000' points = '638.1,492.0 638.1,662.4 639.9,662.4 639.9,494.9 '/>
		<polygon fill = 'rgb( 31, 120, 180)' fill-opacity = '0.250000' points = '639.9,494.9 639.9,662.4 641.8,662.4 641.8,497.9 '/>
		<polygon fill = 'rgb( 31, 120, 180)' fill-opacity = '0.250000' points = '641.8,497.9 641.8,662.4 643.7,662.4 643.7,500.9 '/>
		<polygon fill = 'rgb( 31, 120, 180)' fill-opacity = '0.250000' points = '643.7,500.9 643.7,662.4 645.6,662.4 645.6,504.0 '/>
		<polygon fill = 'rgb( 31, 120, 180)' fill-opacity = '0.250000' points = '645.6,504.0 645.6,662.4 647.5,662.4 647.5,507.1 '/>
		<polygon fill = 'rgb( 31, 120, 180)' fill-opacity = '0.250000' points = '647.5,507.1 647.5,662.4 649.4,662.4 649.4,510.2 '/>
		<polygon fill = 'rgb( 31, 120, 180)' fill-opacity = '0.250000' points = '649.4,510.2 649.4,662.4 651.3,662.4 651.3,513.2 '/>
		<polygon fill = 'rgb( 31, 120, 180)' fill-opacity = '0.250000' points = '651.3,513.2 651.3,662.4 653.1,662.4 653.1,516.3 '/>
		<polygon fill = 'rgb( 31, 120, 180)' fill-opacity = '0.250000' points = '653.1,516.3 653.1,662.4 655.0,662.4 655.0,519.3 '/>
		<polygon fill = 'rgb( 31, 120, 180)' fill-opacity = '0.250000' points = '655.0,519.3 655.0,662.4 656.9,662.4 656.9,522.3 '/>
		<polygon fill = 'rgb( 31, 120, 180)' fill-opacity = '0.250000' points = '656.9,522.3 656.9,662.4 658.8,662.4 658.8,525.2 '/>
		<polygon fill = 'rgb( 31, 120, 180)' fill-opacity = '0.250000' points = '658.8,525.2 658.8,662.4 660.7,662.4 660.7,528.1 '/>
		<polygon fill = 'rgb( 31, 120, 180)' fill-opacity = '0.250000' points = '660.7,528.1 660.7,662.4 662.6,662.4 662.6,530.9 '/>
		<polygon fill = 'rgb( 31, 120, 180)' fill-opacity = '0.250000' points = '662.6,530.9 662.6,662.4 664.5,662.4 664.5,533.6 '/>
		<polygon fill = 'rgb( 31, 120, 180)' fill-opacity = '0.250000' points = '664.5,533.6 664.5,662.4 666.4,662.4 666.4,536.2 '/>
		<polygon fill = 'rgb( 31, 120, 180)' fill-opacity = '0.250000' points = '666.4,536.2 666.4,662.4 668.2,662.4 668.2,538.7 '/>
		<polygon fill = 'rgb( 31, 120, 180)' fill-opacity = '0.250000' points = '668.2,538.7 668.2,662.4 670.1,662.4 670.1,541.0 '/>
		<polygon fill = 'rgb( 31, 120, 180)' fill-opacity = '0.250000' points = '670.1,541.0 670.1,662.4 672.0,662.4 672.0,543.3 '/>
		<polygon fill = 'rgb( 31, 120, 180)' fill-opacity = '0.250000' points = '672.0,543.3 672.0,662.4 673.9,662.4 673.9,545.5 '/>
		<polygon fill = 'rgb( 31, 120, 180)' fill-opacity = '0.250000' points = '673.9,545.5 673.9,662.4 675.8,662.4 675.8,547.5 '/>
		<polygon fill = 'rgb( 31, 120, 180)' fill-opacity = '0.250000' points = '675.8,547.5 675.8,662.4 677.7,662.4 677.7,549.4 '/>
		<polygon fill = 'rgb( 31, 120, 180)' fill-opacity = '0.250000' points = '677.7,549.4 677.7,662.4 679.6,662.4 679.6,551.2 '/>
		<polygon fill = 'rgb( 31, 120, 180)' fill-opacity = '0.250000' points = '679.6,551.2 679.6,662.4 681.5,662.4 681.5,552.9 '/>
		<polygon fill = 'rgb( 31, 120, 180)' fill-opacity = '0.250000' points = '681.5,552.9 681.5,662.4 683.3,662.4 683.3,554.5 '/>
		<polygon fill = 'rgb( 31, 120, 180)' fill-opacity = '0.250000' points = '683.3,554.5 683.3,662.4 685.2,662.4 685.2,556.0 '/>
		<polygon fill = 'rgb( 31, 120, 180)' fill-opacity = '0.250000' points = '685.2,556.0 685.2,662.4 687.1,662.4 687.1,557.3 '/>
		<polygon fill = 'rgb( 31, 120, 180)' fill-opacity = '0.250000' points = '687.1,557.3 687.1,662.4 689.0,662.4 689.0,558.6 '/>
		<polygon fill = 'rgb( 31, 120, 180)' fill-opacity = '0.250000' points = '689.0,558.6 689.0,662.4 690.9,662.4 690.9,559.7 '/>
		<polygon fill = 'rgb( 31, 120, 180)' fill-opacity = '0.250000' points = '690.9,559.7 690.9,662.4 692.8,662.4 692.8,560.8 '/>
		<polygon fill = 'rgb( 31, 120, 180)' fill-opacity = '0.250000' points = '692.8,560.8 692.8,662.4 694.7,662.4 694.7,561.8 '/>
		<polygon fill = 'rgb( 31, 120, 180)' fill-opacity = '0.250000' points = '694.7,561.8 694.7,662.4 696.6,662.4 696.6,562.7 '/>
		<polygon fill = 'rgb( 31, 120, 180)' fill-opacity = '0.250000' points = '696.6,562.7 696.6,662.4 698.4,662.4 698.4,563.5 '/>
		<polygon fill = 'rgb( 31, 120, 180)' fill-opacity = '0.250000' points = '698.4,563.5 698.4,662.4 700.3,662.4 700.3,564.4 '/>
		<polygon fill = 'rgb( 31, 120, 180)' fill-opacity = '0.250000' points = '700.3,564.4 700.3,662.4 702.2,662.4 702.2,565.1 '/>
		<polygon fill = 'rgb( 31, 120, 180)' fill-opacity = '0.250000' points = '702.2,565.1 702.2,662.4 704.1,662.4 704.1,565.9 '/>
		<polygon fill = 'rgb( 31, 120, 180)' fill-opacity = '0.250000' points = '704.1,565.9 704.1,662.4 706.0,662.4 706.0,566.7 '/>
		<polygon fill = 'rgb( 31, 120, 180)' fill-opacity = '0.250000' points = '706.0,566.7 706.0,662.4 707.9,662.4 707.9,567.4 '/>
		<polygon fill = 'rgb( 31, 120, 180)' fill-opacity = '0.250000' points = '707.9,567.4 707.9,662.4 709.8,662.4 709.8,568.3 '/>
		<polygon fill = 'rgb( 31, 120, 180)' fill-opacity = '0.250000' points = '709.8,568.3 709.8,662.4 711.7,662.4 711.7,569.1 '/>
		<polygon fill = 'rgb( 31, 120, 180)' fill-opacity = '0.250000' points = '711.7,569.1 711.7,662.4 713.5,662.4 713.5,570.0 '/>
		<polygon fill = 'rgb( 31, 120, 180)' fill-opacity = '0.250000' points = '713.5,570.0 713.5,662.4 715.4,662.4 715.4,571.0 '/>
		<polygon fill = 'rgb( 31, 120, 180)' fill-opacity = '0.250000' points = '715.4,571.0 715.4,662.4 717.3,662.4 717.3,572.1 '/>
		<polygon fill = 'rgb( 31, 120, 180)' fill-opacity = '0.250000' points = '717.3,572.1 717.3,662.4 719.2,662.4 719.2,573.3 '/>
		<polygon fill = 'rgb( 31, 120, 180)' fill-opacity = '0.250000' points = '719.2,573.3 719.2,662.4 721.1,662.4 721.1,574.6 '/>
		<polygon fill = 'rgb( 31, 120, 180)' fill-opacity = '0.250000' points = '721.1,574.6 721.1,662.4 723.0,662.4 723.0,576.0 '/>
		<polygon fill = 'rgb( 31, 120, 180)' fill-opacity = '0.250000' points = '723.0,576.0 723.0,662.4 724.9,662.4 724.9,577.6 '/>
		<polygon fill = 'rgb( 31, 120, 180)' fill-opacity = '0.250000' points = '724.9,577.6 724.9,662.4 726.7,662.4 726.7,579.3 '/>
		<polygon fill = 'rgb( 31, 120, 180)' fill-opacity = '0.250000' points = '726.7,579.3 726.7,662.4 728.6,662.4 728.6,581.1 '/>
		<polygon fill = 'rgb( 31, 120, 180)' fill-opacity = '0.250000' points = '728.6,581.1 728.6,662.4 730.5,662.4 730.5,583.1 '/>
		<polygon fill = 'rgb( 31, 120, 180)' fill-opacity = '0.250000' points = '730.5,583.1 730.5,662.4 732.4,662.4 732.4,585.2 '/>
		<polygon fill = 'rgb( 31, 120, 180)' fill-opacity = '0.250000' points = '732.4,585.2 732.4,662.4 734.3,662.4 734.3,587.4 '/>
		<polygon fill = 'rgb( 31, 120, 180)' fill-opacity = '0.250000' points = '734.3,587.4 734.3,662.4 736.2,662.4 736.2,589.7 '/>
		<polygon fill = 'rgb( 31, 120, 180)' fill-opacity = '0.250000' points = '736.2,589.7 736.2,662.4 738.1,662.4 738.1,592.1 '/>
		<polygon fill = 'rgb( 31, 120, 180)' fill-opacity = '0.250000' points = '738.1,592.1 738.1,662.4 740.0,662.4 740.0,594.7 '/>
		<polygon fill = 'rgb( 31, 120, 180)' fill-opacity = '0.250000' points = '740.0,594.7 740.0,662.4 741.8,662.4 741.8,597.3 '/>
		<polygon fill = 'rgb( 31, 120, 180)' fill-opacity = '0.250000' points = '741.8,597.3 741.8,662.4 743.7,662.4 743.7,599.9 '/>
		<polygon fill = 'rgb( 31, 120, 180)' fill-opacity = '0.250000' points = '743.7,599.9 743.7,662.4 745.6,662.4 745.6,602.6 '/>
		<polygon fill = 'rgb( 31, 120, 180)' fill-opacity = '0.250000' points = '745.6,602.6 745.6,662.4 747.5,662.4 747.5,605.3 '/>
		<polygon fill = 'rgb( 31, 120, 180)' fill-opacity = '0.250000' points = '747.5,605.3 747.5,662.4 749.4,662.4 749.4,607.9 '/>
		<polygon fill = 'rgb( 31, 120, 180)' fill-opacity = '0.250000' points = '749.4,607.9 749.4,662.4 751.3,662.4 751.3,610.6 '/>
		<polygon fill = 'rgb( 31, 120, 180)' fill-opacity = '0.250000' points = '751.3,610.6 751.3,662.4 753.2,662.4 753.2,613.2 '/>
		<polygon fill = 'rgb( 31, 120, 180)' fill-opacity = '0.250000' points = '753.2,613.2 753.2,662.4 755.1,662.4 755.1,615.7 '/>
		<polygon fill = 'rgb( 31, 120, 180)' fill-opacity = '0.250000' points = '755.1,615.7 755.1,662.4 756.9,662.4 756.9,618.2 '/>
		<polygon fill = 'rgb( 31, 120, 180)' fill-opacity = '0.250000' points = '756.9,618.2 756.9,662.4 758.8,662.4 758.8,620.5 '/>
		<polygon fill = 'rgb( 31, 120, 180)' fill-opacity = '0.250000' points = '758.8,620.5 758.8,662.4 760.7,662.4 760.7,622.7 '/>
		<polygon fill = 'rgb( 31, 120, 180)' fill-opacity = '0.250000' points = '760.7,622.7 760.7,662.4 762.6,662.4 762.6,624.8 '/>
		<polygon fill = 'rgb( 31, 120, 180)' fill-opacity = '0.250000' points = '762.6,624.8 762.6,662.4 764.5,662.4 764.5,626.8 '/>
		<polygon fill = 'rgb( 31, 120, 180)' fill-opacity = '0.250000' points = '764.5,626.8 764.5,662.4 766.4,662.4 766.4,628.6 '/>
		<polygon fill = 'rgb( 31, 120, 180)' fill-opacity = '0.250000' points = '766.4,628.6 766.4,662.4 768.3,662.4 768.3,630.2 '/>
		<polygon fill = 'rgb( 31, 120, 180)' fill-opacity = '0.250000' points = '768.3,630.2 768.3,662.4 770.2,662.4 770.2,631.7 '/>
		<polygon fill = 'rgb( 31, 120, 180)' fill-opacity = '0.250000' points = '770.2,631.7 770.2,662.4 772.0,662.4 772.0,633.1 '/>
		<polygon fill = 'rgb( 31, 120, 180)' fill-opacity = '0.250000' points = '772.0,633.1 772.0,662.4 773.9,662.4 773.9,634.3 '/>
		<polygon fill = 'rgb( 31, 120, 180)' fill-opacity = '0.250000' points = '773.9,634.3 773.9,662.4 775.8,662.4 775.8,635.3 '/>
		<polygon fill = 'rgb( 31, 120, 180)' fill-opacity = '0.250000' points = '775.8,635.3 775.8,662.4 777.7,662.4 777.7,636.2 '/>
		<polygon fill = 'rgb( 31, 120, 180)' fill-opacity = '0.250000' points = '777.7,636.2 777.7,662.4 779.6,662.4 779.6,637.0 '/>
		<polygon fill = 'rgb( 31, 120, 180)' fill-opacity = '0.250000' points = '779.6,637.0 779.6,662.4 781.5,662.4 781.5,637.6 '/>
		<polygon fill = 'rgb( 31, 120, 180)' fill-opacity = '0.250000' points = '781.5,637.6 781.5,662.4 783.4,662.4 783.4,638.1 '/>
		<polygon fill = 'rgb( 31, 120, 180)' fill-opacity = '0.250000' points = '783.4,638.1 783.4,662.4 785.3,662.4 785.3,638.6 '/>
		<polygon fill = 'rgb( 31, 120, 180)' fill-opacity = '0.250000' points = '785.3,638.6 785.3,662.4 787.1,662.4 787.1,638.9 '/>
		<polygon fill = 'rgb( 31, 120, 180)' fill-opacity = '0.250000' points = '787.1,638.9 787.1,662.4 789.0,662.4 789.0,639.1 '/>
		<polygon fill = 'rgb( 31, 120, 180)' fill-opacity = '0.250000' points = '789.0,639.1 789.0,662.4 790.9,662.4 790.9,639.3 '/>
		<polygon fill = 'rgb( 31, 120, 180)' fill-opacity = '0.250000' points = '790.9,639.3 790.9,662.4 792.8,662.4 792.8,639.3 '/>
		<polygon fill = 'rgb( 31, 120, 180)' fill-opacity = '0.250000' points = '792.8,639.3 792.8,662.4 794.7,662.4 794.7,639.3 '/>
		<polygon fill = 'rgb( 31, 120, 180)' fill-opacity = '0.250000' points = '794.7,639.3 794.7,662.4 796.6,662.4 796.6,639.3 '/>
		<polygon fill = 'rgb( 31, 120, 180)' fill-opacity = '0.250000' points = '796.6,639.3 796.6,662.4 798.5,662.4 798.5,639.2 '/>
		<polygon fill = 'rgb( 31, 120, 180)' fill-opacity = '0.250000' points = '798.5,639.2 798.5,662.4 800.3,662.4 800.3,639.0 '/>
		<polygon fill = 'rgb( 31, 120, 180)' fill-opacity = '0.250000' points = '800.3,639.0 800.3,662.4 802.2,662.4 802.2,638.8 '/>
		<polygon fill = 'rgb( 31, 120, 180)' fill-opacity = '0.250000' points = '802.2,638.8 802.2,662.4 804.1,662.4 804.1,638.5 '/>
		<polygon fill = 'rgb( 31, 120, 180)' fill-opacity = '0.250000' points = '804.1,638.5 804.1,662.4 806.0,662.4 806.0,638.3 '/>
		<polygon fill = 'rgb( 31, 120, 180)' fill-opacity = '0.250000' points = '806.0,638.3 806.0,662.4 807.9,662.4 807.9,637.9 '/>
		<polygon fill = 'rgb( 31, 120, 180)' fill-opacity = '0.250000' points = '807.9,637.9 807.9,662.4 809.8,662.4 809.8,637.6 '/>
		<polygon fill = 'rgb( 31, 120, 180)' fill-opacity = '0.250000' points = '809.8,637.6 809.8,662.4 811.7,662.4 811.7,637.2 '/>
		<polygon fill = 'rgb( 31, 120, 180)' fill-opacity = '0.250000' points = '811.7,637.2 811.7,662.4 813.6,662.4 813.6,636.8 '/>
		<polygon fill = 'rgb( 31, 120, 180)' fill-opacity = '0.250000' points = '813.6,636.8 813.6,662.4 815.4,662.4 815.4,636.5 '/>
		<polygon fill = 'rgb( 31, 120, 180)' fill-opacity = '0.250000' points = '815.4,636.5 815.4,662.4 817.3,662.4 817.3,636.1 '/>
		<polygon fill = 'rgb( 31, 120, 180)' fill-opacity = '0.250000' points = '817.3,636.1 817.3,662.4 819.2,662.4 819.2,635.7 '/>
		<polygon fill = 'rgb( 31, 120, 180)' fill-opacity = '0.250000' points = '819.2,635.7 819.2,662.4 821.1,662.4 821.1,635.4 '/>
		<polygon fill = 'rgb( 31, 120, 180)' fill-opacity = '0.250000' points = '821.1,635.4 821.1,662.4 823.0,662.4 823.0,635.1 '/>
		<polygon fill = 'rgb( 31, 120, 180)' fill-opacity = '0.250000' points = '823.0,635.1 823.0,662.4 824.9,662.4 824.9,634.8 '/>
		<polygon fill = 'rgb( 31, 120, 180)' fill-opacity = '0.250000' points = '824.9,634.8 824.9,662.4 826.8,662.4 826.8,634.6 '/>
		<polygon fill = 'rgb( 31, 120, 180)' fill-opacity = '0.250000' points = '826.8,634.6 826.8,662.4 828.7,662.4 828.7,634.4 '/>
		<polygon fill = 'rgb( 31, 120, 180)' fill-opacity = '0.250000' points = '828.7,634.4 828.7,662.4 830.5,662.4 830.5,634.3 '/>
		<polygon fill = 'rgb( 31, 120, 180)' fill-opacity = '0.250000' points = '830.5,634.3 830.5,662.4 832.4,662.4 832.4,634.2 '/>
		<polygon fill = 'rgb( 31, 120, 180)' fill-opacity = '0.250000' points = '832.4,634.2 832.4,662.4 834.3,662.4 834.3,634.2 '/>
		<polygon fill = 'rgb( 31, 120, 180)' fill-opacity = '0.250000' points = '834.3,634.2 834.3,662.4 836.2,662.4 836.2,634.3 '/>
		<polygon fill = 'rgb( 31, 120, 180)' fill-opacity = '0.250000' points = '836.2,634.3 836.2,662.4 838.1,662.4 838.1,634.5 '/>
		<polygon fill = 'rgb( 31, 120, 180)' fill-opacity = '0.250000' points = '838.1,634.5 838.1,662.4 840.0,662.4 840.0,634.7 '/>
		<polygon fill = 'rgb( 31, 120, 180)' fill-opacity = '0.250000' points = '840.0,634.7 840.0,662.4 841.9,662.4 841.9,635.0 '/>
		<polygon fill = 'rgb( 31, 120, 180)' fill-opacity = '0.250000' points = '841.9,635.0 841.9,662.4 843.8,662.4 843.8,635.4 '/>
		<polygon fill = 'rgb( 31, 120, 180)' fill-opacity = '0.250000' points = '843.8,635.4 843.8,662.4 845.6,662.4 845.6,635.8 '/>
		<polygon fill = 'rgb( 31, 120, 180)' fill-opacity = '0.250000' points = '845.6,635.8 845.6,662.4 847.5,662.4 847.5,636.3 '/>
		<polygon fill = 'rgb( 31, 120, 180)' fill-opacity = '0.250000' points = '847.5,636.3 847.5,662.4 849.4,662.4 849.4,636.9 '/>
		<polygon fill = 'rgb( 31, 120, 180)' fill-opacity = '0.250000' points = '849.4,636.9 849.4,662.4 851.3,662.4 851.3,637.5 '/>
		<polygon fill = 'rgb( 31, 120, 180)' fill-opacity = '0.250000' points = '851.3,637.5 851.3,662.4 853.2,662.4 853.2,638.1 '/>
		<polygon fill = 'rgb( 31, 120, 180)' fill-opacity = '0.250000' points = '853.2,638.1 853.2,662.4 855.1,662.4 855.1,638.8 '/>
		<polygon fill = 'rgb( 31, 120, 180)' fill-opacity = '0.250000' points = '855.1,638.8 855.1,662.4 857.0,662.4 857.0,639.5 '/>
		<polygon fill = 'rgb( 31, 120, 180)' fill-opacity = '0.250000' points = '857.0,639.5 857.0,662.4 858.9,662.4 858.9,640.2 '/>
		<polygon fill = 'rgb( 31, 120, 180)' fill-opacity = '0.250000' points = '858.9,640.2 858.9,662.4 860.7,662.4 860.7,640.9 '/>
		<polygon fill = 'rgb( 31, 120, 180)' fill-opacity = '0.250000' points = '860.7,640.9 860.7,662.4 862.6,662.4 862.6,641.5 '/>
		<polygon fill = 'rgb( 31, 120, 180)' fill-opacity = '0.250000' points = '862.6,641.5 862.6,662.4 864.5,662.4 864.5,642.2 '/>
		<polygon fill = 'rgb( 31, 120, 180)' fill-opacity = '0.250000' points = '864.5,642.2 864.5,662.4 866.4,662.4 866.4,642.8 '/>
		<polygon fill = 'rgb( 31, 120, 180)' fill-opacity = '0.250000' points = '866.4,642.8 866.4,662.4 868.3,662.4 868.3,643.4 '/>
		<polygon fill = 'rgb( 31, 120, 180)' fill-opacity = '0.250000' points = '868.3,643.4 868.3,662.4 870.2,662.4 870.2,643.9 '/>
		<polygon fill = 'rgb( 31, 120, 180)' fill-opacity = '0.250000' points = '870.2,643.9 870.2,662.4 872.1,662.4 872.1,644.4 '/>
		<polygon fill = 'rgb( 31, 120, 180)' fill-opacity = '0.250000' points = '872.1,644.4 872.1,662.4 873.9,662.4 873.9,644.8 '/>
		<polygon fill = 'rgb( 31, 120, 180)' fill-opacity = '0.250000' points = '873.9,644.8 873.9,662.4 875.8,662.4 875.8,645.2 '/>
		<polygon fill = 'rgb( 31, 120, 180)' fill-opacity = '0.250000' points = '875.8,645.2 875.8,662.4 877.7,662.4 877.7,645.5 '/>
		<polygon fill = 'rgb( 31, 120, 180)' fill-opacity = '0.250000' points = '877.7,645.5 877.7,662.4 879.6,662.4 879.6,645.8 '/>
		<polygon fill = 'rgb( 31, 120, 180)' fill-opacity = '0.250000' points = '879.6,645.8 879.6,662.4 881.5,662.4 881.5,646.0 '/>
		<polygon fill = 'rgb( 31, 120, 180)' fill-opacity = '0.250000' points = '881.5,646.0 881.5,662.4 883.4,662.4 883.4,646.2 '/>
		<polygon fill = 'rgb( 31, 120, 180)' fill-opacity = '0.250000' points = '883.4,646.2 883.4,662.4 885.3,662.4 885.3,646.3 '/>
		<polygon fill = 'rgb( 31, 120, 180)' fill-opacity = '0.250000' points = '885.3,646.3 885.3,662.4 887.2,662.4 887.2,646.3 '/>
		<polygon fill = 'rgb( 31, 120, 180)' fill-opacity = '0.250000' points = '887.2,646.3 887.2,662.4 889.0,662.4 889.0,646.4 '/>
		<polygon fill = 'rgb( 31, 120, 180)' fill-opacity = '0.250000' points = '889.0,646.4 889.0,662.4 890.9,662.4 890.9,646.4 '/>
		<polygon fill = 'rgb( 31, 120, 180)' fill-opacity = '0.250000' points = '890.9,646.4 890.9,662.4 892.8,662.4 892.8,646.3 '/>
		<polygon fill = 'rgb( 31, 120, 180)' fill-opacity = '0.250000' points = '892.8,646.3 892.8,662.4 894.7,662.4 894.7,646.3 '/>
		<polygon fill = 'rgb( 31, 120, 180)' fill-opacity = '0.250000' points = '894.7,646.3 894.7,662.4 896.6,662.4 896.6,646.2 '/>
		<polygon fill = 'rgb( 31, 120, 180)' fill-opacity = '0.250000' points = '896.6,646.2 896.6,662.4 898.5,662.4 898.5,646.1 '/>
		<polygon fill = 'rgb( 31, 120, 180)' fill-opacity = '0.250000' points = '898.5,646.1 898.5,662.4 900.4,662.4 900.4,646.0 '/>
		<polygon fill = 'rgb( 31, 120, 180)' fill-opacity = '0.250000' points = '900.4,646.0 900.4,662.4 902.3,662.4 902.3,645.9 '/>
		<polygon fill = 'rgb( 31, 120, 180)' fill-opacity = '0.250000' points = '902.3,645.9 902.3,662.4 904.1,662.4 904.1,645.9 '/>
		<polygon fill = 'rgb( 31, 120, 180)' fill-opacity = '0.250000' points = '904.1,645.9 904.1,662.4 906.0,662.4 906.0,645.8 '/>
		<polygon fill = 'rgb( 31, 120, 180)' fill-opacity = '0.250000' points = '906.0,645.8 906.0,662.4 907.9,662.4 907.9,645.7 '/>
		<polygon fill = 'rgb( 31, 120, 180)' fill-opacity = '0.250000' points = '907.9,645.7 907.9,662.4 909.8,662.4 909.8,645.7 '/>
		<polygon fill = 'rgb( 31, 120, 180)' fill-opacity = '0.250000' points = '909.8,645.7 909.8,662.4 911.7,662.4 911.7,645.6 '/>
		<polygon fill = 'rgb( 31, 120, 180)' fill-opacity = '0.250000' points = '911.7,645.6 911.7,662.4 913.6,662.4 913.6,645.6 '/>
		<polygon fill = 'rgb( 31, 120, 180)' fill-opacity = '0.250000' points = '913.6,645.6 913.6,662.4 915.5,662.4 915.5,645.6 '/>
		<polygon fill = 'rgb( 31, 120, 180)' fill-opacity = '0.250000' points = '915.5,645.6 915.5,662.4 917.4,662.4 917.4,645.6 '/>
		<polygon fill = 'rgb( 31, 120, 180)' fill-opacity = '0.250000' points = '917.4,645.6 917.4,662.4 919.2,662.4 919.2,645.5 '/>
		<polygon fill = 'rgb( 31, 120, 180)' fill-opacity = '0.250000' points = '919.2,645.5 919.2,662.4 921.1,662.4 921.1,645.5 '/>
		<polygon fill = 'rgb( 31, 120, 180)' fill-opacity = '0.250000' points = '921.1,645.5 921.1,662.4 923.0,662.4 923.0,645.4 '/>
		<polygon fill = 'rgb( 31, 120, 180)' fill-opacity = '0.250000' points = '923.0,645.4 923.0,662.4 924.9,662.4 924.9,645.4 '/>
	</g>
</g>
	</g>
	<g id="gnuplot_plot_3" ><title>Point estimate</title>
<g fill="none" color="white" stroke="rgb( 31, 120, 180)" stroke-width="2.00" stroke-linecap="butt" stroke-linejoin="miter">
</g>
<g fill="none" color="black" stroke="currentColor" stroke-width="2.00" stroke-linecap="butt" stroke-linejoin="miter">
	<g transform="translate(1089.0,103.0)" stroke="none" fill="black" font-family="Helvetica" font-size="12.00"  text-anchor="start">
		<text><tspan font-family="Helvetica" >Point estimate</tspan></text>
	</g>
</g>
<g fill="none" color="black" stroke="currentColor" stroke-width="2.00" stroke-linecap="butt" stroke-linejoin="miter">
	<path stroke='rgb( 31, 120, 180)'  d='M1038.5,99.1 L1080.7,99.1 M460.2,662.4 L460.2,94.9  '/></g>
	</g>
<g fill="none" color="black" stroke="currentColor" stroke-width="2.00" stroke-linecap="butt" stroke-linejoin="miter">
</g>
<g fill="none" color="black" stroke="black" stroke-width="1.00" stroke-linecap="butt" stroke-linejoin="miter">
</g>
<g fill="none" color="black" stroke="currentColor" stroke-width="1.00" stroke-linecap="butt" stroke-linejoin="miter">
	<path stroke='black'  d='M71.9,54.1 L71.9,662.4 L1013.6,662.4 L1013.6,54.1 L71.9,54.1 Z  '/></g>
<g fill="none" color="black" stroke="currentColor" stroke-width="1.00" stroke-linecap="butt" stroke-linejoin="miter">
</g>
</g>
</svg>

