group,function,value,throughput_num,throughput_type,sample_measured_value,unit,iteration_count
dlist arena mutex init no_drop,,,,,10436174.0,ns,1
dlist arena mutex init no_drop,,,,,20788211.0,ns,2
dlist arena mutex init no_drop,,,,,31129204.0,ns,3
dlist arena mutex init no_drop,,,,,41504543.0,ns,4
dlist arena mutex init no_drop,,,,,51884076.0,ns,5
dlist arena mutex init no_drop,,,,,62394128.0,ns,6
dlist arena mutex init no_drop,,,,,72637320.0,ns,7
dlist arena mutex init no_drop,,,,,83091719.0,ns,8
dlist arena mutex init no_drop,,,,,93807900.0,ns,9
dlist arena mutex init no_drop,,,,,103791444.0,ns,10
dlist arena mutex init no_drop,,,,,114324365.0,ns,11
dlist arena mutex init no_drop,,,,,125184230.0,ns,12
dlist arena mutex init no_drop,,,,,134970638.0,ns,13
dlist arena mutex init no_drop,,,,,145378776.0,ns,14
dlist arena mutex init no_drop,,,,,155938194.0,ns,15
dlist arena mutex init no_drop,,,,,166101648.0,ns,16
dlist arena mutex init no_drop,,,,,177033682.0,ns,17
dlist arena mutex init no_drop,,,,,186904184.0,ns,18
dlist arena mutex init no_drop,,,,,197302435.0,ns,19
dlist arena mutex init no_drop,,,,,207804678.0,ns,20
dlist arena mutex init no_drop,,,,,218761301.0,ns,21
dlist arena mutex init no_drop,,,,,228803482.0,ns,22
dlist arena mutex init no_drop,,,,,238974284.0,ns,23
dlist arena mutex init no_drop,,,,,250927205.0,ns,24
dlist arena mutex init no_drop,,,,,260347589.0,ns,25
dlist arena mutex init no_drop,,,,,270267859.0,ns,26
dlist arena mutex init no_drop,,,,,280522159.0,ns,27
dlist arena mutex init no_drop,,,,,291711341.0,ns,28
dlist arena mutex init no_drop,,,,,301300899.0,ns,29
dlist arena mutex init no_drop,,,,,312300696.0,ns,30
dlist arena mutex init no_drop,,,,,321943385.0,ns,31
dlist arena mutex init no_drop,,,,,332432699.0,ns,32
dlist arena mutex init no_drop,,,,,348037275.0,ns,33
dlist arena mutex init no_drop,,,,,353332960.0,ns,34
dlist arena mutex init no_drop,,,,,364350097.0,ns,35
dlist arena mutex init no_drop,,,,,373742273.0,ns,36
dlist arena mutex init no_drop,,,,,384930338.0,ns,37
dlist arena mutex init no_drop,,,,,395100945.0,ns,38
dlist arena mutex init no_drop,,,,,405677285.0,ns,39
dlist arena mutex init no_drop,,,,,415349626.0,ns,40
dlist arena mutex init no_drop,,,,,426720774.0,ns,41
dlist arena mutex init no_drop,,,,,436586695.0,ns,42
dlist arena mutex init no_drop,,,,,446995449.0,ns,43
dlist arena mutex init no_drop,,,,,457367386.0,ns,44
dlist arena mutex init no_drop,,,,,468449289.0,ns,45
dlist arena mutex init no_drop,,,,,478304979.0,ns,46
dlist arena mutex init no_drop,,,,,489202728.0,ns,47
dlist arena mutex init no_drop,,,,,499102839.0,ns,48
dlist arena mutex init no_drop,,,,,509363380.0,ns,49
dlist arena mutex init no_drop,,,,,519968875.0,ns,50
dlist arena mutex init no_drop,,,,,531342350.0,ns,51
dlist arena mutex init no_drop,,,,,543508488.0,ns,52
dlist arena mutex init no_drop,,,,,550975353.0,ns,53
dlist arena mutex init no_drop,,,,,561820521.0,ns,54
dlist arena mutex init no_drop,,,,,571644123.0,ns,55
dlist arena mutex init no_drop,,,,,582183705.0,ns,56
dlist arena mutex init no_drop,,,,,592509656.0,ns,57
dlist arena mutex init no_drop,,,,,602360593.0,ns,58
dlist arena mutex init no_drop,,,,,614070758.0,ns,59
dlist arena mutex init no_drop,,,,,623748250.0,ns,60
dlist arena mutex init no_drop,,,,,634210620.0,ns,61
dlist arena mutex init no_drop,,,,,644111646.0,ns,62
dlist arena mutex init no_drop,,,,,655412592.0,ns,63
dlist arena mutex init no_drop,,,,,665395616.0,ns,64
dlist arena mutex init no_drop,,,,,679976967.0,ns,65
dlist arena mutex init no_drop,,,,,686074979.0,ns,66
dlist arena mutex init no_drop,,,,,697698230.0,ns,67
dlist arena mutex init no_drop,,,,,706698605.0,ns,68
dlist arena mutex init no_drop,,,,,717668863.0,ns,69
dlist arena mutex init no_drop,,,,,727716195.0,ns,70
dlist arena mutex init no_drop,,,,,738059030.0,ns,71
dlist arena mutex init no_drop,,,,,748997807.0,ns,72
dlist arena mutex init no_drop,,,,,758680514.0,ns,73
dlist arena mutex init no_drop,,,,,769551748.0,ns,74
dlist arena mutex init no_drop,,,,,781562496.0,ns,75
dlist arena mutex init no_drop,,,,,797083379.0,ns,76
dlist arena mutex init no_drop,,,,,800439217.0,ns,77
dlist arena mutex init no_drop,,,,,811516143.0,ns,78
dlist arena mutex init no_drop,,,,,821281930.0,ns,79
dlist arena mutex init no_drop,,,,,831619936.0,ns,80
dlist arena mutex init no_drop,,,,,841788481.0,ns,81
dlist arena mutex init no_drop,,,,,852501071.0,ns,82
dlist arena mutex init no_drop,,,,,862738132.0,ns,83
dlist arena mutex init no_drop,,,,,873395149.0,ns,84
dlist arena mutex init no_drop,,,,,883364384.0,ns,85
dlist arena mutex init no_drop,,,,,899228828.0,ns,86
dlist arena mutex init no_drop,,,,,904343392.0,ns,87
dlist arena mutex init no_drop,,,,,914823284.0,ns,88
dlist arena mutex init no_drop,,,,,925478161.0,ns,89
dlist arena mutex init no_drop,,,,,935416502.0,ns,90
dlist arena mutex init no_drop,,,,,946406237.0,ns,91
dlist arena mutex init no_drop,,,,,956019064.0,ns,92
dlist arena mutex init no_drop,,,,,966859478.0,ns,93
dlist arena mutex init no_drop,,,,,977388157.0,ns,94
dlist arena mutex init no_drop,,,,,991983123.0,ns,95
dlist arena mutex init no_drop,,,,,997951329.0,ns,96
dlist arena mutex init no_drop,,,,,1008402345.0,ns,97
dlist arena mutex init no_drop,,,,,1019181167.0,ns,98
dlist arena mutex init no_drop,,,,,1029537055.0,ns,99
dlist arena mutex init no_drop,,,,,1040356358.0,ns,100
