<?xml version="1.0" encoding="utf-8"  standalone="no"?>
<!DOCTYPE svg PUBLIC "-//W3C//DTD SVG 1.1//EN"
 "http://www.w3.org/Graphics/SVG/1.1/DTD/svg11.dtd">
<svg 
 viewBox="0 0 1280 720"
 xmlns="http://www.w3.org/2000/svg"
 xmlns:xlink="http://www.w3.org/1999/xlink"
>

<title>Gnuplot</title>
<desc>Produced by GNUPLOT 5.0 patchlevel 5 </desc>

<g id="gnuplot_canvas">

<rect x="0" y="0" width="1280" height="720" fill="none"/>
<defs>

	<circle id='gpDot' r='0.5' stroke-width='0.5'/>
	<path id='gpPt0' stroke-width='0.222' stroke='currentColor' d='M-1,0 h2 M0,-1 v2'/>
	<path id='gpPt1' stroke-width='0.222' stroke='currentColor' d='M-1,-1 L1,1 M1,-1 L-1,1'/>
	<path id='gpPt2' stroke-width='0.222' stroke='currentColor' d='M-1,0 L1,0 M0,-1 L0,1 M-1,-1 L1,1 M-1,1 L1,-1'/>
	<rect id='gpPt3' stroke-width='0.222' stroke='currentColor' x='-1' y='-1' width='2' height='2'/>
	<rect id='gpPt4' stroke-width='0.222' stroke='currentColor' fill='currentColor' x='-1' y='-1' width='2' height='2'/>
	<circle id='gpPt5' stroke-width='0.222' stroke='currentColor' cx='0' cy='0' r='1'/>
	<use xlink:href='#gpPt5' id='gpPt6' fill='currentColor' stroke='none'/>
	<path id='gpPt7' stroke-width='0.222' stroke='currentColor' d='M0,-1.33 L-1.33,0.67 L1.33,0.67 z'/>
	<use xlink:href='#gpPt7' id='gpPt8' fill='currentColor' stroke='none'/>
	<use xlink:href='#gpPt7' id='gpPt9' stroke='currentColor' transform='rotate(180)'/>
	<use xlink:href='#gpPt9' id='gpPt10' fill='currentColor' stroke='none'/>
	<use xlink:href='#gpPt3' id='gpPt11' stroke='currentColor' transform='rotate(45)'/>
	<use xlink:href='#gpPt11' id='gpPt12' fill='currentColor' stroke='none'/>
	<path id='gpPt13' stroke-width='0.222' stroke='currentColor' d='M0,1.330 L1.265,0.411 L0.782,-1.067 L-0.782,-1.076 L-1.265,0.411 z'/>
	<use xlink:href='#gpPt13' id='gpPt14' fill='currentColor' stroke='none'/>
	<filter id='textbox' filterUnits='objectBoundingBox' x='0' y='0' height='1' width='1'>
	  <feFlood flood-color='white' flood-opacity='1' result='bgnd'/>
	  <feComposite in='SourceGraphic' in2='bgnd' operator='atop'/>
	</filter>
	<filter id='greybox' filterUnits='objectBoundingBox' x='0' y='0' height='1' width='1'>
	  <feFlood flood-color='lightgrey' flood-opacity='1' result='grey'/>
	  <feComposite in='SourceGraphic' in2='grey' operator='atop'/>
	</filter>
</defs>
<g fill="none" color="white" stroke="currentColor" stroke-width="1.00" stroke-linecap="butt" stroke-linejoin="miter">
</g>
<g fill="none" color="black" stroke="currentColor" stroke-width="1.00" stroke-linecap="butt" stroke-linejoin="miter">
	<path stroke='black'  d='M71.9,662.4 L80.9,662.4  '/>	<g transform="translate(63.6,666.3)" stroke="none" fill="black" font-family="Helvetica" font-size="12.00"  text-anchor="end">
		<text><tspan font-family="Helvetica" > 0</tspan></text>
	</g>
</g>
<g fill="none" color="black" stroke="currentColor" stroke-width="1.00" stroke-linecap="butt" stroke-linejoin="miter">
	<path stroke='black'  d='M71.9,575.5 L80.9,575.5  '/>	<g transform="translate(63.6,579.4)" stroke="none" fill="black" font-family="Helvetica" font-size="12.00"  text-anchor="end">
		<text><tspan font-family="Helvetica" > 100</tspan></text>
	</g>
</g>
<g fill="none" color="black" stroke="currentColor" stroke-width="1.00" stroke-linecap="butt" stroke-linejoin="miter">
	<path stroke='black'  d='M71.9,488.6 L80.9,488.6  '/>	<g transform="translate(63.6,492.5)" stroke="none" fill="black" font-family="Helvetica" font-size="12.00"  text-anchor="end">
		<text><tspan font-family="Helvetica" > 200</tspan></text>
	</g>
</g>
<g fill="none" color="black" stroke="currentColor" stroke-width="1.00" stroke-linecap="butt" stroke-linejoin="miter">
	<path stroke='black'  d='M71.9,401.7 L80.9,401.7  '/>	<g transform="translate(63.6,405.6)" stroke="none" fill="black" font-family="Helvetica" font-size="12.00"  text-anchor="end">
		<text><tspan font-family="Helvetica" > 300</tspan></text>
	</g>
</g>
<g fill="none" color="black" stroke="currentColor" stroke-width="1.00" stroke-linecap="butt" stroke-linejoin="miter">
	<path stroke='black'  d='M71.9,314.8 L80.9,314.8  '/>	<g transform="translate(63.6,318.7)" stroke="none" fill="black" font-family="Helvetica" font-size="12.00"  text-anchor="end">
		<text><tspan font-family="Helvetica" > 400</tspan></text>
	</g>
</g>
<g fill="none" color="black" stroke="currentColor" stroke-width="1.00" stroke-linecap="butt" stroke-linejoin="miter">
	<path stroke='black'  d='M71.9,227.9 L80.9,227.9  '/>	<g transform="translate(63.6,231.8)" stroke="none" fill="black" font-family="Helvetica" font-size="12.00"  text-anchor="end">
		<text><tspan font-family="Helvetica" > 500</tspan></text>
	</g>
</g>
<g fill="none" color="black" stroke="currentColor" stroke-width="1.00" stroke-linecap="butt" stroke-linejoin="miter">
	<path stroke='black'  d='M71.9,141.0 L80.9,141.0  '/>	<g transform="translate(63.6,144.9)" stroke="none" fill="black" font-family="Helvetica" font-size="12.00"  text-anchor="end">
		<text><tspan font-family="Helvetica" > 600</tspan></text>
	</g>
</g>
<g fill="none" color="black" stroke="currentColor" stroke-width="1.00" stroke-linecap="butt" stroke-linejoin="miter">
	<path stroke='black'  d='M71.9,54.1 L80.9,54.1  '/>	<g transform="translate(63.6,58.0)" stroke="none" fill="black" font-family="Helvetica" font-size="12.00"  text-anchor="end">
		<text><tspan font-family="Helvetica" > 700</tspan></text>
	</g>
</g>
<g fill="none" color="black" stroke="currentColor" stroke-width="1.00" stroke-linecap="butt" stroke-linejoin="miter">
	<path stroke='black'  d='M212.1,662.4 L212.1,653.4  '/>	<g transform="translate(212.1,684.3)" stroke="none" fill="black" font-family="Helvetica" font-size="12.00"  text-anchor="middle">
		<text><tspan font-family="Helvetica" > 0.65</tspan></text>
	</g>
</g>
<g fill="none" color="black" stroke="currentColor" stroke-width="1.00" stroke-linecap="butt" stroke-linejoin="miter">
	<path stroke='black'  d='M369.7,662.4 L369.7,653.4  '/>	<g transform="translate(369.7,684.3)" stroke="none" fill="black" font-family="Helvetica" font-size="12.00"  text-anchor="middle">
		<text><tspan font-family="Helvetica" > 0.7</tspan></text>
	</g>
</g>
<g fill="none" color="black" stroke="currentColor" stroke-width="1.00" stroke-linecap="butt" stroke-linejoin="miter">
	<path stroke='black'  d='M527.3,662.4 L527.3,653.4  '/>	<g transform="translate(527.3,684.3)" stroke="none" fill="black" font-family="Helvetica" font-size="12.00"  text-anchor="middle">
		<text><tspan font-family="Helvetica" > 0.75</tspan></text>
	</g>
</g>
<g fill="none" color="black" stroke="currentColor" stroke-width="1.00" stroke-linecap="butt" stroke-linejoin="miter">
	<path stroke='black'  d='M684.9,662.4 L684.9,653.4  '/>	<g transform="translate(684.9,684.3)" stroke="none" fill="black" font-family="Helvetica" font-size="12.00"  text-anchor="middle">
		<text><tspan font-family="Helvetica" > 0.8</tspan></text>
	</g>
</g>
<g fill="none" color="black" stroke="currentColor" stroke-width="1.00" stroke-linecap="butt" stroke-linejoin="miter">
	<path stroke='black'  d='M842.5,662.4 L842.5,653.4  '/>	<g transform="translate(842.5,684.3)" stroke="none" fill="black" font-family="Helvetica" font-size="12.00"  text-anchor="middle">
		<text><tspan font-family="Helvetica" > 0.85</tspan></text>
	</g>
</g>
<g fill="none" color="black" stroke="currentColor" stroke-width="1.00" stroke-linecap="butt" stroke-linejoin="miter">
	<path stroke='black'  d='M1000.1,662.4 L1000.1,653.4  '/>	<g transform="translate(1000.1,684.3)" stroke="none" fill="black" font-family="Helvetica" font-size="12.00"  text-anchor="middle">
		<text><tspan font-family="Helvetica" > 0.9</tspan></text>
	</g>
</g>
<g fill="none" color="black" stroke="currentColor" stroke-width="1.00" stroke-linecap="butt" stroke-linejoin="miter">
</g>
<g fill="none" color="black" stroke="currentColor" stroke-width="1.00" stroke-linecap="butt" stroke-linejoin="miter">
	<path stroke='black'  d='M71.9,54.1 L71.9,662.4 L1013.6,662.4 L1013.6,54.1 L71.9,54.1 Z  '/></g>
<g fill="none" color="black" stroke="currentColor" stroke-width="1.00" stroke-linecap="butt" stroke-linejoin="miter">
	<g transform="translate(17.0,358.3) rotate(270)" stroke="none" fill="black" font-family="Helvetica" font-size="12.00"  text-anchor="middle">
		<text><tspan font-family="Helvetica" >Density (a.u.)</tspan></text>
	</g>
</g>
<g fill="none" color="black" stroke="currentColor" stroke-width="1.00" stroke-linecap="butt" stroke-linejoin="miter">
	<g transform="translate(542.7,711.3)" stroke="none" fill="black" font-family="Helvetica" font-size="12.00"  text-anchor="middle">
		<text><tspan font-family="Helvetica" >Relative change (%)</tspan></text>
	</g>
</g>
<g fill="none" color="black" stroke="currentColor" stroke-width="1.00" stroke-linecap="butt" stroke-linejoin="miter">
	<g transform="translate(542.7,31.0)" stroke="none" fill="black" font-family="Helvetica" font-size="12.00"  text-anchor="middle">
		<text><tspan font-family="Helvetica" >rayon overhead: median</tspan></text>
	</g>
</g>
	<g id="gnuplot_plot_1" ><title>Bootstrap distribution</title>
<g fill="none" color="white" stroke="black" stroke-width="2.00" stroke-linecap="butt" stroke-linejoin="miter">
</g>
<g fill="none" color="black" stroke="currentColor" stroke-width="2.00" stroke-linecap="butt" stroke-linejoin="miter">
	<g transform="translate(1089.0,67.0)" stroke="none" fill="black" font-family="Helvetica" font-size="12.00"  text-anchor="start">
		<text><tspan font-family="Helvetica" >Bootstrap distribution</tspan></text>
	</g>
</g>
<g fill="none" color="black" stroke="currentColor" stroke-width="2.00" stroke-linecap="butt" stroke-linejoin="miter">
	<path stroke='rgb( 31, 120, 180)'  d='M1038.5,63.1 L1080.7,63.1 M71.9,631.2 L73.8,630.2 L75.7,629.2 L77.6,628.3 L79.4,627.3 L81.3,626.3
		L83.2,625.4 L85.1,624.4 L87.0,623.4 L88.9,622.3 L90.8,621.3 L92.7,620.2 L94.5,619.1 L96.4,618.0
		L98.3,616.8 L100.2,615.6 L102.1,614.3 L104.0,613.0 L105.9,611.7 L107.8,610.3 L109.6,608.9 L111.5,607.4
		L113.4,605.9 L115.3,604.3 L117.2,602.8 L119.1,601.1 L121.0,599.4 L122.9,597.7 L124.7,596.0 L126.6,594.2
		L128.5,592.3 L130.4,590.5 L132.3,588.6 L134.2,586.7 L136.1,584.7 L138.0,582.7 L139.8,580.6 L141.7,578.6
		L143.6,576.4 L145.5,574.3 L147.4,572.1 L149.3,569.8 L151.2,567.5 L153.0,565.1 L154.9,562.7 L156.8,560.2
		L158.7,557.7 L160.6,555.1 L162.5,552.5 L164.4,549.8 L166.3,547.1 L168.1,544.3 L170.0,541.5 L171.9,538.7
		L173.8,535.8 L175.7,533.0 L177.6,530.1 L179.5,527.3 L181.4,524.4 L183.2,521.6 L185.1,518.9 L187.0,516.2
		L188.9,513.5 L190.8,510.9 L192.7,508.4 L194.6,505.9 L196.5,503.5 L198.3,501.3 L200.2,499.1 L202.1,497.0
		L204.0,495.0 L205.9,493.1 L207.8,491.3 L209.7,489.6 L211.6,487.9 L213.4,486.4 L215.3,484.8 L217.2,483.4
		L219.1,481.9 L221.0,480.4 L222.9,479.0 L224.8,477.5 L226.6,475.9 L228.5,474.3 L230.4,472.6 L232.3,470.8
		L234.2,468.9 L236.1,466.8 L238.0,464.6 L239.9,462.3 L241.7,459.8 L243.6,457.1 L245.5,454.3 L247.4,451.4
		L249.3,448.3 L251.2,445.1 L253.1,441.7 L255.0,438.3 L256.8,434.7 L258.7,431.1 L260.6,427.4 L262.5,423.7
		L264.4,420.0 L266.3,416.2 L268.2,412.5 L270.1,408.7 L271.9,405.0 L273.8,401.2 L275.7,397.5 L277.6,393.8
		L279.5,390.2 L281.4,386.5 L283.3,382.9 L285.2,379.3 L287.0,375.6 L288.9,372.0 L290.8,368.5 L292.7,364.9
		L294.6,361.4 L296.5,358.0 L298.4,354.6 L300.2,351.3 L302.1,348.1 L304.0,345.1 L305.9,342.3 L307.8,339.6
		L309.7,337.1 L311.6,334.9 L313.5,332.9 L315.3,331.1 L317.2,329.5 L319.1,328.1 L321.0,326.9 L322.9,325.9
		L324.8,325.0 L326.7,324.3 L328.6,323.6 L330.4,322.9 L332.3,322.2 L334.2,321.4 L336.1,320.5 L338.0,319.5
		L339.9,318.4 L341.8,317.0 L343.7,315.5 L345.5,313.7 L347.4,311.7 L349.3,309.5 L351.2,307.0 L353.1,304.4
		L355.0,301.4 L356.9,298.3 L358.8,295.0 L360.6,291.5 L362.5,287.9 L364.4,284.1 L366.3,280.1 L368.2,276.1
		L370.1,271.9 L372.0,267.5 L373.8,263.1 L375.7,258.6 L377.6,254.0 L379.5,249.3 L381.4,244.5 L383.3,239.7
		L385.2,234.8 L387.1,229.8 L388.9,224.9 L390.8,219.9 L392.7,215.0 L394.6,210.0 L396.5,205.2 L398.4,200.4
		L400.3,195.7 L402.2,191.1 L404.0,186.6 L405.9,182.2 L407.8,177.9 L409.7,173.7 L411.6,169.7 L413.5,165.7
		L415.4,161.8 L417.3,157.9 L419.1,154.1 L421.0,150.2 L422.9,146.3 L424.8,142.4 L426.7,138.5 L428.6,134.5
		L430.5,130.4 L432.4,126.3 L434.2,122.2 L436.1,118.1 L438.0,114.0 L439.9,110.0 L441.8,106.1 L443.7,102.3
		L445.6,98.8 L447.4,95.6 L449.3,92.7 L451.2,90.2 L453.1,88.1 L455.0,86.4 L456.9,85.2 L458.8,84.5
		L460.7,84.4 L462.5,84.7 L464.4,85.6 L466.3,86.9 L468.2,88.7 L470.1,90.8 L472.0,93.4 L473.9,96.2
		L475.8,99.2 L477.6,102.4 L479.5,105.6 L481.4,108.9 L483.3,112.1 L485.2,115.1 L487.1,117.9 L489.0,120.5
		L490.9,122.7 L492.7,124.5 L494.6,126.0 L496.5,127.0 L498.4,127.6 L500.3,127.8 L502.2,127.5 L504.1,126.9
		L506.0,125.9 L507.8,124.5 L509.7,122.9 L511.6,121.0 L513.5,118.9 L515.4,116.7 L517.3,114.4 L519.2,112.0
		L521.0,109.6 L522.9,107.2 L524.8,104.9 L526.7,102.7 L528.6,100.5 L530.5,98.5 L532.4,96.7 L534.3,95.0
		L536.1,93.5 L538.0,92.2 L539.9,91.0 L541.8,90.1 L543.7,89.3 L545.6,88.8 L547.5,88.5 L549.4,88.4
		L551.2,88.5 L553.1,88.9 L555.0,89.5 L556.9,90.4 L558.8,91.5 L560.7,92.8 L562.6,94.4 L564.5,96.3
		L566.3,98.4 L568.2,100.7 L570.1,103.3 L572.0,106.1 L573.9,109.0 L575.8,112.2 L577.7,115.6 L579.5,119.1
		L581.4,122.8 L583.3,126.6 L585.2,130.5 L587.1,134.6 L589.0,138.7 L590.9,143.0 L592.8,147.3 L594.6,151.8
		L596.5,156.3 L598.4,160.8 L600.3,165.5 L602.2,170.1 L604.1,174.9 L606.0,179.6 L607.9,184.4 L609.7,189.2
		L611.6,194.0 L613.5,198.8 L615.4,203.5 L617.3,208.2 L619.2,212.8 L621.1,217.3 L623.0,221.6 L624.8,225.8
		L626.7,229.8 L628.6,233.7 L630.5,237.3 L632.4,240.7 L634.3,243.8 L636.2,246.7 L638.1,249.4 L639.9,251.7
		L641.8,253.9 L643.7,255.7 L645.6,257.3 L647.5,258.7 L649.4,259.8 L651.3,260.7 L653.1,261.4 L655.0,261.8
		L656.9,262.1 L658.8,262.2 L660.7,262.2 L662.6,262.0 L664.5,261.7 L666.4,261.4 L668.2,261.0 L670.1,260.6
		L672.0,260.1 L673.9,259.7 L675.8,259.4 L677.7,259.1 L679.6,258.9 L681.5,258.9 L683.3,258.9 L685.2,259.2
		L687.1,259.5 L689.0,260.0 L690.9,260.7 L692.8,261.5 L694.7,262.5 L696.6,263.7 L698.4,265.0 L700.3,266.5
		L702.2,268.1 L704.1,269.9 L706.0,271.8 L707.9,273.9 L709.8,276.2 L711.7,278.7 L713.5,281.4 L715.4,284.3
		L717.3,287.4 L719.2,290.8 L721.1,294.4 L723.0,298.3 L724.9,302.5 L726.7,306.9 L728.6,311.6 L730.5,316.6
		L732.4,321.8 L734.3,327.2 L736.2,332.9 L738.1,338.7 L740.0,344.7 L741.8,350.8 L743.7,357.0 L745.6,363.2
		L747.5,369.5 L749.4,375.7 L751.3,381.8 L753.2,387.9 L755.1,393.8 L756.9,399.6 L758.8,405.2 L760.7,410.7
		L762.6,416.0 L764.5,421.1 L766.4,426.1 L768.3,430.9 L770.2,435.5 L772.0,440.0 L773.9,444.3 L775.8,448.5
		L777.7,452.6 L779.6,456.5 L781.5,460.4 L783.4,464.1 L785.3,467.8 L787.1,471.3 L789.0,474.8 L790.9,478.1
		L792.8,481.3 L794.7,484.5 L796.6,487.4 L798.5,490.3 L800.3,493.0 L802.2,495.6 L804.1,498.0 L806.0,500.4
		L807.9,502.5 L809.8,504.6 L811.7,506.5 L813.6,508.4 L815.4,510.1 L817.3,511.8 L819.2,513.4 L821.1,514.9
		L823.0,516.4 L824.9,517.9 L826.8,519.3 L828.7,520.8 L830.5,522.3 L832.4,523.8 L834.3,525.3 L836.2,526.9
		L838.1,528.5 L840.0,530.1 L841.9,531.8 L843.8,533.5 L845.6,535.2 L847.5,536.9 L849.4,538.6 L851.3,540.3
		L853.2,541.9 L855.1,543.6 L857.0,545.1 L858.9,546.6 L860.7,548.0 L862.6,549.4 L864.5,550.7 L866.4,551.9
		L868.3,553.0 L870.2,554.1 L872.1,555.1 L873.9,556.1 L875.8,557.1 L877.7,558.0 L879.6,558.9 L881.5,559.8
		L883.4,560.7 L885.3,561.7 L887.2,562.7 L889.0,563.7 L890.9,564.8 L892.8,565.9 L894.7,567.1 L896.6,568.3
		L898.5,569.5 L900.4,570.7 L902.3,572.0 L904.1,573.3 L906.0,574.5 L907.9,575.7 L909.8,576.9 L911.7,578.1
		L913.6,579.2 L915.5,580.3 L917.4,581.4 L919.2,582.4 L921.1,583.3 L923.0,584.3 L924.9,585.2 L926.8,586.1
		L928.7,587.0 L930.6,587.8 L932.5,588.7 L934.3,589.6 L936.2,590.5 L938.1,591.5 L940.0,592.4 L941.9,593.4
		L943.8,594.4 L945.7,595.4 L947.5,596.4 L949.4,597.5 L951.3,598.5 L953.2,599.6 L955.1,600.7 L957.0,601.7
		L958.9,602.8 L960.8,603.8 L962.6,604.8 L964.5,605.9 L966.4,606.9 L968.3,607.9 L970.2,608.8 L972.1,609.8
		L974.0,610.8 L975.9,611.7 L977.7,612.7 L979.6,613.7 L981.5,614.6 L983.4,615.6 L985.3,616.6 L987.2,617.6
		L989.1,618.6 L991.0,619.6 L992.8,620.6 L994.7,621.6 L996.6,622.6 L998.5,623.7 L1000.4,624.7 L1002.3,625.7
		L1004.2,626.7 L1006.1,627.7 L1007.9,628.7 L1009.8,629.6 L1011.7,630.6 L1013.6,631.5  '/></g>
	</g>
	<g id="gnuplot_plot_2" ><title>Confidence interval</title>
<g fill="none" color="white" stroke="rgb( 31, 120, 180)" stroke-width="1.00" stroke-linecap="butt" stroke-linejoin="miter">
</g>
<g fill="none" color="black" stroke="currentColor" stroke-width="1.00" stroke-linecap="butt" stroke-linejoin="miter">
	<g transform="translate(1089.0,85.0)" stroke="none" fill="black" font-family="Helvetica" font-size="12.00"  text-anchor="start">
		<text><tspan font-family="Helvetica" >Confidence interval</tspan></text>
	</g>
</g>
<g fill="none" color="black" stroke="currentColor" stroke-width="1.00" stroke-linecap="butt" stroke-linejoin="miter">
	<g stroke='none' shape-rendering='crispEdges'>
		<polygon fill = 'rgb( 31, 120, 180)' fill-opacity = '0.250000' points = '1038.5,85.6 1080.7,85.6 1080.7,76.6 1038.5,76.6 '/>
		<polygon fill = 'rgb( 31, 120, 180)' fill-opacity = '0.250000' points = '158.7,557.7 158.7,662.4 160.6,662.4 160.6,555.1 '/>
		<polygon fill = 'rgb( 31, 120, 180)' fill-opacity = '0.250000' points = '160.6,555.1 160.6,662.4 162.5,662.4 162.5,552.5 '/>
		<polygon fill = 'rgb( 31, 120, 180)' fill-opacity = '0.250000' points = '162.5,552.5 162.5,662.4 164.4,662.4 164.4,549.8 '/>
		<polygon fill = 'rgb( 31, 120, 180)' fill-opacity = '0.250000' points = '164.4,549.8 164.4,662.4 166.3,662.4 166.3,547.1 '/>
		<polygon fill = 'rgb( 31, 120, 180)' fill-opacity = '0.250000' points = '166.3,547.1 166.3,662.4 168.1,662.4 168.1,544.3 '/>
		<polygon fill = 'rgb( 31, 120, 180)' fill-opacity = '0.250000' points = '168.1,544.3 168.1,662.4 170.0,662.4 170.0,541.5 '/>
		<polygon fill = 'rgb( 31, 120, 180)' fill-opacity = '0.250000' points = '170.0,541.5 170.0,662.4 171.9,662.4 171.9,538.7 '/>
		<polygon fill = 'rgb( 31, 120, 180)' fill-opacity = '0.250000' points = '171.9,538.7 171.9,662.4 173.8,662.4 173.8,535.8 '/>
		<polygon fill = 'rgb( 31, 120, 180)' fill-opacity = '0.250000' points = '173.8,535.8 173.8,662.4 175.7,662.4 175.7,533.0 '/>
		<polygon fill = 'rgb( 31, 120, 180)' fill-opacity = '0.250000' points = '175.7,533.0 175.7,662.4 177.6,662.4 177.6,530.1 '/>
		<polygon fill = 'rgb( 31, 120, 180)' fill-opacity = '0.250000' points = '177.6,530.1 177.6,662.4 179.5,662.4 179.5,527.3 '/>
		<polygon fill = 'rgb( 31, 120, 180)' fill-opacity = '0.250000' points = '179.5,527.3 179.5,662.4 181.4,662.4 181.4,524.4 '/>
		<polygon fill = 'rgb( 31, 120, 180)' fill-opacity = '0.250000' points = '181.4,524.4 181.4,662.4 183.2,662.4 183.2,521.6 '/>
		<polygon fill = 'rgb( 31, 120, 180)' fill-opacity = '0.250000' points = '183.2,521.6 183.2,662.4 185.1,662.4 185.1,518.9 '/>
		<polygon fill = 'rgb( 31, 120, 180)' fill-opacity = '0.250000' points = '185.1,518.9 185.1,662.4 187.0,662.4 187.0,516.2 '/>
		<polygon fill = 'rgb( 31, 120, 180)' fill-opacity = '0.250000' points = '187.0,516.2 187.0,662.4 188.9,662.4 188.9,513.5 '/>
		<polygon fill = 'rgb( 31, 120, 180)' fill-opacity = '0.250000' points = '188.9,513.5 188.9,662.4 190.8,662.4 190.8,510.9 '/>
		<polygon fill = 'rgb( 31, 120, 180)' fill-opacity = '0.250000' points = '190.8,510.9 190.8,662.4 192.7,662.4 192.7,508.4 '/>
		<polygon fill = 'rgb( 31, 120, 180)' fill-opacity = '0.250000' points = '192.7,508.4 192.7,662.4 194.6,662.4 194.6,505.9 '/>
		<polygon fill = 'rgb( 31, 120, 180)' fill-opacity = '0.250000' points = '194.6,505.9 194.6,662.4 196.5,662.4 196.5,503.5 '/>
		<polygon fill = 'rgb( 31, 120, 180)' fill-opacity = '0.250000' points = '196.5,503.5 196.5,662.4 198.3,662.4 198.3,501.3 '/>
		<polygon fill = 'rgb( 31, 120, 180)' fill-opacity = '0.250000' points = '198.3,501.3 198.3,662.4 200.2,662.4 200.2,499.1 '/>
		<polygon fill = 'rgb( 31, 120, 180)' fill-opacity = '0.250000' points = '200.2,499.1 200.2,662.4 202.1,662.4 202.1,497.0 '/>
		<polygon fill = 'rgb( 31, 120, 180)' fill-opacity = '0.250000' points = '202.1,497.0 202.1,662.4 204.0,662.4 204.0,495.0 '/>
		<polygon fill = 'rgb( 31, 120, 180)' fill-opacity = '0.250000' points = '204.0,495.0 204.0,662.4 205.9,662.4 205.9,493.1 '/>
		<polygon fill = 'rgb( 31, 120, 180)' fill-opacity = '0.250000' points = '205.9,493.1 205.9,662.4 207.8,662.4 207.8,491.3 '/>
		<polygon fill = 'rgb( 31, 120, 180)' fill-opacity = '0.250000' points = '207.8,491.3 207.8,662.4 209.7,662.4 209.7,489.6 '/>
		<polygon fill = 'rgb( 31, 120, 180)' fill-opacity = '0.250000' points = '209.7,489.6 209.7,662.4 211.6,662.4 211.6,487.9 '/>
		<polygon fill = 'rgb( 31, 120, 180)' fill-opacity = '0.250000' points = '211.6,487.9 211.6,662.4 213.4,662.4 213.4,486.4 '/>
		<polygon fill = 'rgb( 31, 120, 180)' fill-opacity = '0.250000' points = '213.4,486.4 213.4,662.4 215.3,662.4 215.3,484.8 '/>
		<polygon fill = 'rgb( 31, 120, 180)' fill-opacity = '0.250000' points = '215.3,484.8 215.3,662.4 217.2,662.4 217.2,483.4 '/>
		<polygon fill = 'rgb( 31, 120, 180)' fill-opacity = '0.250000' points = '217.2,483.4 217.2,662.4 219.1,662.4 219.1,481.9 '/>
		<polygon fill = 'rgb( 31, 120, 180)' fill-opacity = '0.250000' points = '219.1,481.9 219.1,662.4 221.0,662.4 221.0,480.4 '/>
		<polygon fill = 'rgb( 31, 120, 180)' fill-opacity = '0.250000' points = '221.0,480.4 221.0,662.4 222.9,662.4 222.9,479.0 '/>
		<polygon fill = 'rgb( 31, 120, 180)' fill-opacity = '0.250000' points = '222.9,479.0 222.9,662.4 224.8,662.4 224.8,477.5 '/>
		<polygon fill = 'rgb( 31, 120, 180)' fill-opacity = '0.250000' points = '224.8,477.5 224.8,662.4 226.6,662.4 226.6,475.9 '/>
		<polygon fill = 'rgb( 31, 120, 180)' fill-opacity = '0.250000' points = '226.6,475.9 226.6,662.4 228.5,662.4 228.5,474.3 '/>
		<polygon fill = 'rgb( 31, 120, 180)' fill-opacity = '0.250000' points = '228.5,474.3 228.5,662.4 230.4,662.4 230.4,472.6 '/>
		<polygon fill = 'rgb( 31, 120, 180)' fill-opacity = '0.250000' points = '230.4,472.6 230.4,662.4 232.3,662.4 232.3,470.8 '/>
		<polygon fill = 'rgb( 31, 120, 180)' fill-opacity = '0.250000' points = '232.3,470.8 232.3,662.4 234.2,662.4 234.2,468.9 '/>
		<polygon fill = 'rgb( 31, 120, 180)' fill-opacity = '0.250000' points = '234.2,468.9 234.2,662.4 236.1,662.4 236.1,466.8 '/>
		<polygon fill = 'rgb( 31, 120, 180)' fill-opacity = '0.250000' points = '236.1,466.8 236.1,662.4 238.0,662.4 238.0,464.6 '/>
		<polygon fill = 'rgb( 31, 120, 180)' fill-opacity = '0.250000' points = '238.0,464.6 238.0,662.4 239.9,662.4 239.9,462.3 '/>
		<polygon fill = 'rgb( 31, 120, 180)' fill-opacity = '0.250000' points = '239.9,462.3 239.9,662.4 241.7,662.4 241.7,459.8 '/>
		<polygon fill = 'rgb( 31, 120, 180)' fill-opacity = '0.250000' points = '241.7,459.8 241.7,662.4 243.6,662.4 243.6,457.1 '/>
		<polygon fill = 'rgb( 31, 120, 180)' fill-opacity = '0.250000' points = '243.6,457.1 243.6,662.4 245.5,662.4 245.5,454.3 '/>
		<polygon fill = 'rgb( 31, 120, 180)' fill-opacity = '0.250000' points = '245.5,454.3 245.5,662.4 247.4,662.4 247.4,451.4 '/>
		<polygon fill = 'rgb( 31, 120, 180)' fill-opacity = '0.250000' points = '247.4,451.4 247.4,662.4 249.3,662.4 249.3,448.3 '/>
		<polygon fill = 'rgb( 31, 120, 180)' fill-opacity = '0.250000' points = '249.3,448.3 249.3,662.4 251.2,662.4 251.2,445.1 '/>
		<polygon fill = 'rgb( 31, 120, 180)' fill-opacity = '0.250000' points = '251.2,445.1 251.2,662.4 253.1,662.4 253.1,441.7 '/>
		<polygon fill = 'rgb( 31, 120, 180)' fill-opacity = '0.250000' points = '253.1,441.7 253.1,662.4 255.0,662.4 255.0,438.3 '/>
		<polygon fill = 'rgb( 31, 120, 180)' fill-opacity = '0.250000' points = '255.0,438.3 255.0,662.4 256.8,662.4 256.8,434.7 '/>
		<polygon fill = 'rgb( 31, 120, 180)' fill-opacity = '0.250000' points = '256.8,434.7 256.8,662.4 258.7,662.4 258.7,431.1 '/>
		<polygon fill = 'rgb( 31, 120, 180)' fill-opacity = '0.250000' points = '258.7,431.1 258.7,662.4 260.6,662.4 260.6,427.4 '/>
		<polygon fill = 'rgb( 31, 120, 180)' fill-opacity = '0.250000' points = '260.6,427.4 260.6,662.4 262.5,662.4 262.5,423.7 '/>
		<polygon fill = 'rgb( 31, 120, 180)' fill-opacity = '0.250000' points = '262.5,423.7 262.5,662.4 264.4,662.4 264.4,420.0 '/>
		<polygon fill = 'rgb( 31, 120, 180)' fill-opacity = '0.250000' points = '264.4,420.0 264.4,662.4 266.3,662.4 266.3,416.2 '/>
		<polygon fill = 'rgb( 31, 120, 180)' fill-opacity = '0.250000' points = '266.3,416.2 266.3,662.4 268.2,662.4 268.2,412.5 '/>
		<polygon fill = 'rgb( 31, 120, 180)' fill-opacity = '0.250000' points = '268.2,412.5 268.2,662.4 270.1,662.4 270.1,408.7 '/>
		<polygon fill = 'rgb( 31, 120, 180)' fill-opacity = '0.250000' points = '270.1,408.7 270.1,662.4 271.9,662.4 271.9,405.0 '/>
		<polygon fill = 'rgb( 31, 120, 180)' fill-opacity = '0.250000' points = '271.9,405.0 271.9,662.4 273.8,662.4 273.8,401.2 '/>
		<polygon fill = 'rgb( 31, 120, 180)' fill-opacity = '0.250000' points = '273.8,401.2 273.8,662.4 275.7,662.4 275.7,397.5 '/>
		<polygon fill = 'rgb( 31, 120, 180)' fill-opacity = '0.250000' points = '275.7,397.5 275.7,662.4 277.6,662.4 277.6,393.8 '/>
		<polygon fill = 'rgb( 31, 120, 180)' fill-opacity = '0.250000' points = '277.6,393.8 277.6,662.4 279.5,662.4 279.5,390.2 '/>
		<polygon fill = 'rgb( 31, 120, 180)' fill-opacity = '0.250000' points = '279.5,390.2 279.5,662.4 281.4,662.4 281.4,386.5 '/>
		<polygon fill = 'rgb( 31, 120, 180)' fill-opacity = '0.250000' points = '281.4,386.5 281.4,662.4 283.3,662.4 283.3,382.9 '/>
		<polygon fill = 'rgb( 31, 120, 180)' fill-opacity = '0.250000' points = '283.3,382.9 283.3,662.4 285.2,662.4 285.2,379.3 '/>
		<polygon fill = 'rgb( 31, 120, 180)' fill-opacity = '0.250000' points = '285.2,379.3 285.2,662.4 287.0,662.4 287.0,375.6 '/>
		<polygon fill = 'rgb( 31, 120, 180)' fill-opacity = '0.250000' points = '287.0,375.6 287.0,662.4 288.9,662.4 288.9,372.0 '/>
		<polygon fill = 'rgb( 31, 120, 180)' fill-opacity = '0.250000' points = '288.9,372.0 288.9,662.4 290.8,662.4 290.8,368.5 '/>
		<polygon fill = 'rgb( 31, 120, 180)' fill-opacity = '0.250000' points = '290.8,368.5 290.8,662.4 292.7,662.4 292.7,364.9 '/>
		<polygon fill = 'rgb( 31, 120, 180)' fill-opacity = '0.250000' points = '292.7,364.9 292.7,662.4 294.6,662.4 294.6,361.4 '/>
		<polygon fill = 'rgb( 31, 120, 180)' fill-opacity = '0.250000' points = '294.6,361.4 294.6,662.4 296.5,662.4 296.5,358.0 '/>
		<polygon fill = 'rgb( 31, 120, 180)' fill-opacity = '0.250000' points = '296.5,358.0 296.5,662.4 298.4,662.4 298.4,354.6 '/>
		<polygon fill = 'rgb( 31, 120, 180)' fill-opacity = '0.250000' points = '298.4,354.6 298.4,662.4 300.2,662.4 300.2,351.3 '/>
		<polygon fill = 'rgb( 31, 120, 180)' fill-opacity = '0.250000' points = '300.2,351.3 300.2,662.4 302.1,662.4 302.1,348.1 '/>
		<polygon fill = 'rgb( 31, 120, 180)' fill-opacity = '0.250000' points = '302.1,348.1 302.1,662.4 304.0,662.4 304.0,345.1 '/>
		<polygon fill = 'rgb( 31, 120, 180)' fill-opacity = '0.250000' points = '304.0,345.1 304.0,662.4 305.9,662.4 305.9,342.3 '/>
		<polygon fill = 'rgb( 31, 120, 180)' fill-opacity = '0.250000' points = '305.9,342.3 305.9,662.4 307.8,662.4 307.8,339.6 '/>
		<polygon fill = 'rgb( 31, 120, 180)' fill-opacity = '0.250000' points = '307.8,339.6 307.8,662.4 309.7,662.4 309.7,337.1 '/>
		<polygon fill = 'rgb( 31, 120, 180)' fill-opacity = '0.250000' points = '309.7,337.1 309.7,662.4 311.6,662.4 311.6,334.9 '/>
		<polygon fill = 'rgb( 31, 120, 180)' fill-opacity = '0.250000' points = '311.6,334.9 311.6,662.4 313.5,662.4 313.5,332.9 '/>
		<polygon fill = 'rgb( 31, 120, 180)' fill-opacity = '0.250000' points = '313.5,332.9 313.5,662.4 315.3,662.4 315.3,331.1 '/>
		<polygon fill = 'rgb( 31, 120, 180)' fill-opacity = '0.250000' points = '315.3,331.1 315.3,662.4 317.2,662.4 317.2,329.5 '/>
		<polygon fill = 'rgb( 31, 120, 180)' fill-opacity = '0.250000' points = '317.2,329.5 317.2,662.4 319.1,662.4 319.1,328.1 '/>
		<polygon fill = 'rgb( 31, 120, 180)' fill-opacity = '0.250000' points = '319.1,328.1 319.1,662.4 321.0,662.4 321.0,326.9 '/>
		<polygon fill = 'rgb( 31, 120, 180)' fill-opacity = '0.250000' points = '321.0,326.9 321.0,662.4 322.9,662.4 322.9,325.9 '/>
		<polygon fill = 'rgb( 31, 120, 180)' fill-opacity = '0.250000' points = '322.9,325.9 322.9,662.4 324.8,662.4 324.8,325.0 '/>
		<polygon fill = 'rgb( 31, 120, 180)' fill-opacity = '0.250000' points = '324.8,325.0 324.8,662.4 326.7,662.4 326.7,324.3 '/>
		<polygon fill = 'rgb( 31, 120, 180)' fill-opacity = '0.250000' points = '326.7,324.3 326.7,662.4 328.6,662.4 328.6,323.6 '/>
		<polygon fill = 'rgb( 31, 120, 180)' fill-opacity = '0.250000' points = '328.6,323.6 328.6,662.4 330.4,662.4 330.4,322.9 '/>
		<polygon fill = 'rgb( 31, 120, 180)' fill-opacity = '0.250000' points = '330.4,322.9 330.4,662.4 332.3,662.4 332.3,322.2 '/>
		<polygon fill = 'rgb( 31, 120, 180)' fill-opacity = '0.250000' points = '332.3,322.2 332.3,662.4 334.2,662.4 334.2,321.4 '/>
		<polygon fill = 'rgb( 31, 120, 180)' fill-opacity = '0.250000' points = '334.2,321.4 334.2,662.4 336.1,662.4 336.1,320.5 '/>
		<polygon fill = 'rgb( 31, 120, 180)' fill-opacity = '0.250000' points = '336.1,320.5 336.1,662.4 338.0,662.4 338.0,319.5 '/>
		<polygon fill = 'rgb( 31, 120, 180)' fill-opacity = '0.250000' points = '338.0,319.5 338.0,662.4 339.9,662.4 339.9,318.4 '/>
		<polygon fill = 'rgb( 31, 120, 180)' fill-opacity = '0.250000' points = '339.9,318.4 339.9,662.4 341.8,662.4 341.8,317.0 '/>
		<polygon fill = 'rgb( 31, 120, 180)' fill-opacity = '0.250000' points = '341.8,317.0 341.8,662.4 343.7,662.4 343.7,315.5 '/>
		<polygon fill = 'rgb( 31, 120, 180)' fill-opacity = '0.250000' points = '343.7,315.5 343.7,662.4 345.5,662.4 345.5,313.7 '/>
		<polygon fill = 'rgb( 31, 120, 180)' fill-opacity = '0.250000' points = '345.5,313.7 345.5,662.4 347.4,662.4 347.4,311.7 '/>
		<polygon fill = 'rgb( 31, 120, 180)' fill-opacity = '0.250000' points = '347.4,311.7 347.4,662.4 349.3,662.4 349.3,309.5 '/>
		<polygon fill = 'rgb( 31, 120, 180)' fill-opacity = '0.250000' points = '349.3,309.5 349.3,662.4 351.2,662.4 351.2,307.0 '/>
		<polygon fill = 'rgb( 31, 120, 180)' fill-opacity = '0.250000' points = '351.2,307.0 351.2,662.4 353.1,662.4 353.1,304.4 '/>
		<polygon fill = 'rgb( 31, 120, 180)' fill-opacity = '0.250000' points = '353.1,304.4 353.1,662.4 355.0,662.4 355.0,301.4 '/>
		<polygon fill = 'rgb( 31, 120, 180)' fill-opacity = '0.250000' points = '355.0,301.4 355.0,662.4 356.9,662.4 356.9,298.3 '/>
		<polygon fill = 'rgb( 31, 120, 180)' fill-opacity = '0.250000' points = '356.9,298.3 356.9,662.4 358.8,662.4 358.8,295.0 '/>
		<polygon fill = 'rgb( 31, 120, 180)' fill-opacity = '0.250000' points = '358.8,295.0 358.8,662.4 360.6,662.4 360.6,291.5 '/>
		<polygon fill = 'rgb( 31, 120, 180)' fill-opacity = '0.250000' points = '360.6,291.5 360.6,662.4 362.5,662.4 362.5,287.9 '/>
		<polygon fill = 'rgb( 31, 120, 180)' fill-opacity = '0.250000' points = '362.5,287.9 362.5,662.4 364.4,662.4 364.4,284.1 '/>
		<polygon fill = 'rgb( 31, 120, 180)' fill-opacity = '0.250000' points = '364.4,284.1 364.4,662.4 366.3,662.4 366.3,280.1 '/>
		<polygon fill = 'rgb( 31, 120, 180)' fill-opacity = '0.250000' points = '366.3,280.1 366.3,662.4 368.2,662.4 368.2,276.1 '/>
		<polygon fill = 'rgb( 31, 120, 180)' fill-opacity = '0.250000' points = '368.2,276.1 368.2,662.4 370.1,662.4 370.1,271.9 '/>
		<polygon fill = 'rgb( 31, 120, 180)' fill-opacity = '0.250000' points = '370.1,271.9 370.1,662.4 372.0,662.4 372.0,267.5 '/>
		<polygon fill = 'rgb( 31, 120, 180)' fill-opacity = '0.250000' points = '372.0,267.5 372.0,662.4 373.8,662.4 373.8,263.1 '/>
		<polygon fill = 'rgb( 31, 120, 180)' fill-opacity = '0.250000' points = '373.8,263.1 373.8,662.4 375.7,662.4 375.7,258.6 '/>
		<polygon fill = 'rgb( 31, 120, 180)' fill-opacity = '0.250000' points = '375.7,258.6 375.7,662.4 377.6,662.4 377.6,254.0 '/>
		<polygon fill = 'rgb( 31, 120, 180)' fill-opacity = '0.250000' points = '377.6,254.0 377.6,662.4 379.5,662.4 379.5,249.3 '/>
		<polygon fill = 'rgb( 31, 120, 180)' fill-opacity = '0.250000' points = '379.5,249.3 379.5,662.4 381.4,662.4 381.4,244.5 '/>
		<polygon fill = 'rgb( 31, 120, 180)' fill-opacity = '0.250000' points = '381.4,244.5 381.4,662.4 383.3,662.4 383.3,239.7 '/>
		<polygon fill = 'rgb( 31, 120, 180)' fill-opacity = '0.250000' points = '383.3,239.7 383.3,662.4 385.2,662.4 385.2,234.8 '/>
		<polygon fill = 'rgb( 31, 120, 180)' fill-opacity = '0.250000' points = '385.2,234.8 385.2,662.4 387.1,662.4 387.1,229.8 '/>
		<polygon fill = 'rgb( 31, 120, 180)' fill-opacity = '0.250000' points = '387.1,229.8 387.1,662.4 388.9,662.4 388.9,224.9 '/>
		<polygon fill = 'rgb( 31, 120, 180)' fill-opacity = '0.250000' points = '388.9,224.9 388.9,662.4 390.8,662.4 390.8,219.9 '/>
		<polygon fill = 'rgb( 31, 120, 180)' fill-opacity = '0.250000' points = '390.8,219.9 390.8,662.4 392.7,662.4 392.7,215.0 '/>
		<polygon fill = 'rgb( 31, 120, 180)' fill-opacity = '0.250000' points = '392.7,215.0 392.7,662.4 394.6,662.4 394.6,210.0 '/>
		<polygon fill = 'rgb( 31, 120, 180)' fill-opacity = '0.250000' points = '394.6,210.0 394.6,662.4 396.5,662.4 396.5,205.2 '/>
		<polygon fill = 'rgb( 31, 120, 180)' fill-opacity = '0.250000' points = '396.5,205.2 396.5,662.4 398.4,662.4 398.4,200.4 '/>
		<polygon fill = 'rgb( 31, 120, 180)' fill-opacity = '0.250000' points = '398.4,200.4 398.4,662.4 400.3,662.4 400.3,195.7 '/>
		<polygon fill = 'rgb( 31, 120, 180)' fill-opacity = '0.250000' points = '400.3,195.7 400.3,662.4 402.2,662.4 402.2,191.1 '/>
		<polygon fill = 'rgb( 31, 120, 180)' fill-opacity = '0.250000' points = '402.2,191.1 402.2,662.4 404.0,662.4 404.0,186.6 '/>
		<polygon fill = 'rgb( 31, 120, 180)' fill-opacity = '0.250000' points = '404.0,186.6 404.0,662.4 405.9,662.4 405.9,182.2 '/>
		<polygon fill = 'rgb( 31, 120, 180)' fill-opacity = '0.250000' points = '405.9,182.2 405.9,662.4 407.8,662.4 407.8,177.9 '/>
		<polygon fill = 'rgb( 31, 120, 180)' fill-opacity = '0.250000' points = '407.8,177.9 407.8,662.4 409.7,662.4 409.7,173.7 '/>
		<polygon fill = 'rgb( 31, 120, 180)' fill-opacity = '0.250000' points = '409.7,173.7 409.7,662.4 411.6,662.4 411.6,169.7 '/>
		<polygon fill = 'rgb( 31, 120, 180)' fill-opacity = '0.250000' points = '411.6,169.7 411.6,662.4 413.5,662.4 413.5,165.7 '/>
		<polygon fill = 'rgb( 31, 120, 180)' fill-opacity = '0.250000' points = '413.5,165.7 413.5,662.4 415.4,662.4 415.4,161.8 '/>
		<polygon fill = 'rgb( 31, 120, 180)' fill-opacity = '0.250000' points = '415.4,161.8 415.4,662.4 417.3,662.4 417.3,157.9 '/>
		<polygon fill = 'rgb( 31, 120, 180)' fill-opacity = '0.250000' points = '417.3,157.9 417.3,662.4 419.1,662.4 419.1,154.1 '/>
		<polygon fill = 'rgb( 31, 120, 180)' fill-opacity = '0.250000' points = '419.1,154.1 419.1,662.4 421.0,662.4 421.0,150.2 '/>
		<polygon fill = 'rgb( 31, 120, 180)' fill-opacity = '0.250000' points = '421.0,150.2 421.0,662.4 422.9,662.4 422.9,146.3 '/>
		<polygon fill = 'rgb( 31, 120, 180)' fill-opacity = '0.250000' points = '422.9,146.3 422.9,662.4 424.8,662.4 424.8,142.4 '/>
		<polygon fill = 'rgb( 31, 120, 180)' fill-opacity = '0.250000' points = '424.8,142.4 424.8,662.4 426.7,662.4 426.7,138.5 '/>
		<polygon fill = 'rgb( 31, 120, 180)' fill-opacity = '0.250000' points = '426.7,138.5 426.7,662.4 428.6,662.4 428.6,134.5 '/>
		<polygon fill = 'rgb( 31, 120, 180)' fill-opacity = '0.250000' points = '428.6,134.5 428.6,662.4 430.5,662.4 430.5,130.4 '/>
		<polygon fill = 'rgb( 31, 120, 180)' fill-opacity = '0.250000' points = '430.5,130.4 430.5,662.4 432.4,662.4 432.4,126.3 '/>
		<polygon fill = 'rgb( 31, 120, 180)' fill-opacity = '0.250000' points = '432.4,126.3 432.4,662.4 434.2,662.4 434.2,122.2 '/>
		<polygon fill = 'rgb( 31, 120, 180)' fill-opacity = '0.250000' points = '434.2,122.2 434.2,662.4 436.1,662.4 436.1,118.1 '/>
		<polygon fill = 'rgb( 31, 120, 180)' fill-opacity = '0.250000' points = '436.1,118.1 436.1,662.4 438.0,662.4 438.0,114.0 '/>
		<polygon fill = 'rgb( 31, 120, 180)' fill-opacity = '0.250000' points = '438.0,114.0 438.0,662.4 439.9,662.4 439.9,110.0 '/>
		<polygon fill = 'rgb( 31, 120, 180)' fill-opacity = '0.250000' points = '439.9,110.0 439.9,662.4 441.8,662.4 441.8,106.1 '/>
		<polygon fill = 'rgb( 31, 120, 180)' fill-opacity = '0.250000' points = '441.8,106.1 441.8,662.4 443.7,662.4 443.7,102.3 '/>
		<polygon fill = 'rgb( 31, 120, 180)' fill-opacity = '0.250000' points = '443.7,102.3 443.7,662.4 445.6,662.4 445.6,98.8 '/>
		<polygon fill = 'rgb( 31, 120, 180)' fill-opacity = '0.250000' points = '445.6,98.8 445.6,662.4 447.4,662.4 447.4,95.6 '/>
		<polygon fill = 'rgb( 31, 120, 180)' fill-opacity = '0.250000' points = '447.4,95.6 447.4,662.4 449.3,662.4 449.3,92.7 '/>
		<polygon fill = 'rgb( 31, 120, 180)' fill-opacity = '0.250000' points = '449.3,92.7 449.3,662.4 451.2,662.4 451.2,90.2 '/>
		<polygon fill = 'rgb( 31, 120, 180)' fill-opacity = '0.250000' points = '451.2,90.2 451.2,662.4 453.1,662.4 453.1,88.1 '/>
		<polygon fill = 'rgb( 31, 120, 180)' fill-opacity = '0.250000' points = '453.1,88.1 453.1,662.4 455.0,662.4 455.0,86.4 '/>
		<polygon fill = 'rgb( 31, 120, 180)' fill-opacity = '0.250000' points = '455.0,86.4 455.0,662.4 456.9,662.4 456.9,85.2 '/>
		<polygon fill = 'rgb( 31, 120, 180)' fill-opacity = '0.250000' points = '456.9,85.2 456.9,662.4 458.8,662.4 458.8,84.5 '/>
		<polygon fill = 'rgb( 31, 120, 180)' fill-opacity = '0.250000' points = '458.8,84.5 458.8,662.4 460.7,662.4 460.7,84.4 '/>
		<polygon fill = 'rgb( 31, 120, 180)' fill-opacity = '0.250000' points = '460.7,84.4 460.7,662.4 462.5,662.4 462.5,84.7 '/>
		<polygon fill = 'rgb( 31, 120, 180)' fill-opacity = '0.250000' points = '462.5,84.7 462.5,662.4 464.4,662.4 464.4,85.6 '/>
		<polygon fill = 'rgb( 31, 120, 180)' fill-opacity = '0.250000' points = '464.4,85.6 464.4,662.4 466.3,662.4 466.3,86.9 '/>
		<polygon fill = 'rgb( 31, 120, 180)' fill-opacity = '0.250000' points = '466.3,86.9 466.3,662.4 468.2,662.4 468.2,88.7 '/>
		<polygon fill = 'rgb( 31, 120, 180)' fill-opacity = '0.250000' points = '468.2,88.7 468.2,662.4 470.1,662.4 470.1,90.8 '/>
		<polygon fill = 'rgb( 31, 120, 180)' fill-opacity = '0.250000' points = '470.1,90.8 470.1,662.4 472.0,662.4 472.0,93.4 '/>
		<polygon fill = 'rgb( 31, 120, 180)' fill-opacity = '0.250000' points = '472.0,93.4 472.0,662.4 473.9,662.4 473.9,96.2 '/>
		<polygon fill = 'rgb( 31, 120, 180)' fill-opacity = '0.250000' points = '473.9,96.2 473.9,662.4 475.8,662.4 475.8,99.2 '/>
		<polygon fill = 'rgb( 31, 120, 180)' fill-opacity = '0.250000' points = '475.8,99.2 475.8,662.4 477.6,662.4 477.6,102.4 '/>
		<polygon fill = 'rgb( 31, 120, 180)' fill-opacity = '0.250000' points = '477.6,102.4 477.6,662.4 479.5,662.4 479.5,105.6 '/>
		<polygon fill = 'rgb( 31, 120, 180)' fill-opacity = '0.250000' points = '479.5,105.6 479.5,662.4 481.4,662.4 481.4,108.9 '/>
		<polygon fill = 'rgb( 31, 120, 180)' fill-opacity = '0.250000' points = '481.4,108.9 481.4,662.4 483.3,662.4 483.3,112.1 '/>
		<polygon fill = 'rgb( 31, 120, 180)' fill-opacity = '0.250000' points = '483.3,112.1 483.3,662.4 485.2,662.4 485.2,115.1 '/>
		<polygon fill = 'rgb( 31, 120, 180)' fill-opacity = '0.250000' points = '485.2,115.1 485.2,662.4 487.1,662.4 487.1,117.9 '/>
		<polygon fill = 'rgb( 31, 120, 180)' fill-opacity = '0.250000' points = '487.1,117.9 487.1,662.4 489.0,662.4 489.0,120.5 '/>
		<polygon fill = 'rgb( 31, 120, 180)' fill-opacity = '0.250000' points = '489.0,120.5 489.0,662.4 490.9,662.4 490.9,122.7 '/>
		<polygon fill = 'rgb( 31, 120, 180)' fill-opacity = '0.250000' points = '490.9,122.7 490.9,662.4 492.7,662.4 492.7,124.5 '/>
		<polygon fill = 'rgb( 31, 120, 180)' fill-opacity = '0.250000' points = '492.7,124.5 492.7,662.4 494.6,662.4 494.6,126.0 '/>
		<polygon fill = 'rgb( 31, 120, 180)' fill-opacity = '0.250000' points = '494.6,126.0 494.6,662.4 496.5,662.4 496.5,127.0 '/>
		<polygon fill = 'rgb( 31, 120, 180)' fill-opacity = '0.250000' points = '496.5,127.0 496.5,662.4 498.4,662.4 498.4,127.6 '/>
		<polygon fill = 'rgb( 31, 120, 180)' fill-opacity = '0.250000' points = '498.4,127.6 498.4,662.4 500.3,662.4 500.3,127.8 '/>
		<polygon fill = 'rgb( 31, 120, 180)' fill-opacity = '0.250000' points = '500.3,127.8 500.3,662.4 502.2,662.4 502.2,127.5 '/>
		<polygon fill = 'rgb( 31, 120, 180)' fill-opacity = '0.250000' points = '502.2,127.5 502.2,662.4 504.1,662.4 504.1,126.9 '/>
		<polygon fill = 'rgb( 31, 120, 180)' fill-opacity = '0.250000' points = '504.1,126.9 504.1,662.4 506.0,662.4 506.0,125.9 '/>
		<polygon fill = 'rgb( 31, 120, 180)' fill-opacity = '0.250000' points = '506.0,125.9 506.0,662.4 507.8,662.4 507.8,124.5 '/>
		<polygon fill = 'rgb( 31, 120, 180)' fill-opacity = '0.250000' points = '507.8,124.5 507.8,662.4 509.7,662.4 509.7,122.9 '/>
		<polygon fill = 'rgb( 31, 120, 180)' fill-opacity = '0.250000' points = '509.7,122.9 509.7,662.4 511.6,662.4 511.6,121.0 '/>
		<polygon fill = 'rgb( 31, 120, 180)' fill-opacity = '0.250000' points = '511.6,121.0 511.6,662.4 513.5,662.4 513.5,118.9 '/>
		<polygon fill = 'rgb( 31, 120, 180)' fill-opacity = '0.250000' points = '513.5,118.9 513.5,662.4 515.4,662.4 515.4,116.7 '/>
		<polygon fill = 'rgb( 31, 120, 180)' fill-opacity = '0.250000' points = '515.4,116.7 515.4,662.4 517.3,662.4 517.3,114.4 '/>
		<polygon fill = 'rgb( 31, 120, 180)' fill-opacity = '0.250000' points = '517.3,114.4 517.3,662.4 519.2,662.4 519.2,112.0 '/>
		<polygon fill = 'rgb( 31, 120, 180)' fill-opacity = '0.250000' points = '519.2,112.0 519.2,662.4 521.0,662.4 521.0,109.6 '/>
		<polygon fill = 'rgb( 31, 120, 180)' fill-opacity = '0.250000' points = '521.0,109.6 521.0,662.4 522.9,662.4 522.9,107.2 '/>
		<polygon fill = 'rgb( 31, 120, 180)' fill-opacity = '0.250000' points = '522.9,107.2 522.9,662.4 524.8,662.4 524.8,104.9 '/>
		<polygon fill = 'rgb( 31, 120, 180)' fill-opacity = '0.250000' points = '524.8,104.9 524.8,662.4 526.7,662.4 526.7,102.7 '/>
		<polygon fill = 'rgb( 31, 120, 180)' fill-opacity = '0.250000' points = '526.7,102.7 526.7,662.4 528.6,662.4 528.6,100.5 '/>
		<polygon fill = 'rgb( 31, 120, 180)' fill-opacity = '0.250000' points = '528.6,100.5 528.6,662.4 530.5,662.4 530.5,98.5 '/>
		<polygon fill = 'rgb( 31, 120, 180)' fill-opacity = '0.250000' points = '530.5,98.5 530.5,662.4 532.4,662.4 532.4,96.7 '/>
		<polygon fill = 'rgb( 31, 120, 180)' fill-opacity = '0.250000' points = '532.4,96.7 532.4,662.4 534.3,662.4 534.3,95.0 '/>
		<polygon fill = 'rgb( 31, 120, 180)' fill-opacity = '0.250000' points = '534.3,95.0 534.3,662.4 536.1,662.4 536.1,93.5 '/>
		<polygon fill = 'rgb( 31, 120, 180)' fill-opacity = '0.250000' points = '536.1,93.5 536.1,662.4 538.0,662.4 538.0,92.2 '/>
		<polygon fill = 'rgb( 31, 120, 180)' fill-opacity = '0.250000' points = '538.0,92.2 538.0,662.4 539.9,662.4 539.9,91.0 '/>
		<polygon fill = 'rgb( 31, 120, 180)' fill-opacity = '0.250000' points = '539.9,91.0 539.9,662.4 541.8,662.4 541.8,90.1 '/>
		<polygon fill = 'rgb( 31, 120, 180)' fill-opacity = '0.250000' points = '541.8,90.1 541.8,662.4 543.7,662.4 543.7,89.3 '/>
		<polygon fill = 'rgb( 31, 120, 180)' fill-opacity = '0.250000' points = '543.7,89.3 543.7,662.4 545.6,662.4 545.6,88.8 '/>
		<polygon fill = 'rgb( 31, 120, 180)' fill-opacity = '0.250000' points = '545.6,88.8 545.6,662.4 547.5,662.4 547.5,88.5 '/>
		<polygon fill = 'rgb( 31, 120, 180)' fill-opacity = '0.250000' points = '547.5,88.5 547.5,662.4 549.4,662.4 549.4,88.4 '/>
		<polygon fill = 'rgb( 31, 120, 180)' fill-opacity = '0.250000' points = '549.4,88.4 549.4,662.4 551.2,662.4 551.2,88.5 '/>
		<polygon fill = 'rgb( 31, 120, 180)' fill-opacity = '0.250000' points = '551.2,88.5 551.2,662.4 553.1,662.4 553.1,88.9 '/>
		<polygon fill = 'rgb( 31, 120, 180)' fill-opacity = '0.250000' points = '553.1,88.9 553.1,662.4 555.0,662.4 555.0,89.5 '/>
		<polygon fill = 'rgb( 31, 120, 180)' fill-opacity = '0.250000' points = '555.0,89.5 555.0,662.4 556.9,662.4 556.9,90.4 '/>
		<polygon fill = 'rgb( 31, 120, 180)' fill-opacity = '0.250000' points = '556.9,90.4 556.9,662.4 558.8,662.4 558.8,91.5 '/>
		<polygon fill = 'rgb( 31, 120, 180)' fill-opacity = '0.250000' points = '558.8,91.5 558.8,662.4 560.7,662.4 560.7,92.8 '/>
		<polygon fill = 'rgb( 31, 120, 180)' fill-opacity = '0.250000' points = '560.7,92.8 560.7,662.4 562.6,662.4 562.6,94.4 '/>
		<polygon fill = 'rgb( 31, 120, 180)' fill-opacity = '0.250000' points = '562.6,94.4 562.6,662.4 564.5,662.4 564.5,96.3 '/>
		<polygon fill = 'rgb( 31, 120, 180)' fill-opacity = '0.250000' points = '564.5,96.3 564.5,662.4 566.3,662.4 566.3,98.4 '/>
		<polygon fill = 'rgb( 31, 120, 180)' fill-opacity = '0.250000' points = '566.3,98.4 566.3,662.4 568.2,662.4 568.2,100.7 '/>
		<polygon fill = 'rgb( 31, 120, 180)' fill-opacity = '0.250000' points = '568.2,100.7 568.2,662.4 570.1,662.4 570.1,103.3 '/>
		<polygon fill = 'rgb( 31, 120, 180)' fill-opacity = '0.250000' points = '570.1,103.3 570.1,662.4 572.0,662.4 572.0,106.1 '/>
		<polygon fill = 'rgb( 31, 120, 180)' fill-opacity = '0.250000' points = '572.0,106.1 572.0,662.4 573.9,662.4 573.9,109.0 '/>
		<polygon fill = 'rgb( 31, 120, 180)' fill-opacity = '0.250000' points = '573.9,109.0 573.9,662.4 575.8,662.4 575.8,112.2 '/>
		<polygon fill = 'rgb( 31, 120, 180)' fill-opacity = '0.250000' points = '575.8,112.2 575.8,662.4 577.7,662.4 577.7,115.6 '/>
		<polygon fill = 'rgb( 31, 120, 180)' fill-opacity = '0.250000' points = '577.7,115.6 577.7,662.4 579.5,662.4 579.5,119.1 '/>
		<polygon fill = 'rgb( 31, 120, 180)' fill-opacity = '0.250000' points = '579.5,119.1 579.5,662.4 581.4,662.4 581.4,122.8 '/>
		<polygon fill = 'rgb( 31, 120, 180)' fill-opacity = '0.250000' points = '581.4,122.8 581.4,662.4 583.3,662.4 583.3,126.6 '/>
		<polygon fill = 'rgb( 31, 120, 180)' fill-opacity = '0.250000' points = '583.3,126.6 583.3,662.4 585.2,662.4 585.2,130.5 '/>
		<polygon fill = 'rgb( 31, 120, 180)' fill-opacity = '0.250000' points = '585.2,130.5 585.2,662.4 587.1,662.4 587.1,134.6 '/>
		<polygon fill = 'rgb( 31, 120, 180)' fill-opacity = '0.250000' points = '587.1,134.6 587.1,662.4 589.0,662.4 589.0,138.7 '/>
		<polygon fill = 'rgb( 31, 120, 180)' fill-opacity = '0.250000' points = '589.0,138.7 589.0,662.4 590.9,662.4 590.9,143.0 '/>
		<polygon fill = 'rgb( 31, 120, 180)' fill-opacity = '0.250000' points = '590.9,143.0 590.9,662.4 592.8,662.4 592.8,147.3 '/>
		<polygon fill = 'rgb( 31, 120, 180)' fill-opacity = '0.250000' points = '592.8,147.3 592.8,662.4 594.6,662.4 594.6,151.8 '/>
		<polygon fill = 'rgb( 31, 120, 180)' fill-opacity = '0.250000' points = '594.6,151.8 594.6,662.4 596.5,662.4 596.5,156.3 '/>
		<polygon fill = 'rgb( 31, 120, 180)' fill-opacity = '0.250000' points = '596.5,156.3 596.5,662.4 598.4,662.4 598.4,160.8 '/>
		<polygon fill = 'rgb( 31, 120, 180)' fill-opacity = '0.250000' points = '598.4,160.8 598.4,662.4 600.3,662.4 600.3,165.5 '/>
		<polygon fill = 'rgb( 31, 120, 180)' fill-opacity = '0.250000' points = '600.3,165.5 600.3,662.4 602.2,662.4 602.2,170.1 '/>
		<polygon fill = 'rgb( 31, 120, 180)' fill-opacity = '0.250000' points = '602.2,170.1 602.2,662.4 604.1,662.4 604.1,174.9 '/>
		<polygon fill = 'rgb( 31, 120, 180)' fill-opacity = '0.250000' points = '604.1,174.9 604.1,662.4 606.0,662.4 606.0,179.6 '/>
		<polygon fill = 'rgb( 31, 120, 180)' fill-opacity = '0.250000' points = '606.0,179.6 606.0,662.4 607.9,662.4 607.9,184.4 '/>
		<polygon fill = 'rgb( 31, 120, 180)' fill-opacity = '0.250000' points = '607.9,184.4 607.9,662.4 609.7,662.4 609.7,189.2 '/>
		<polygon fill = 'rgb( 31, 120, 180)' fill-opacity = '0.250000' points = '609.7,189.2 609.7,662.4 611.6,662.4 611.6,194.0 '/>
		<polygon fill = 'rgb( 31, 120, 180)' fill-opacity = '0.250000' points = '611.6,194.0 611.6,662.4 613.5,662.4 613.5,198.8 '/>
		<polygon fill = 'rgb( 31, 120, 180)' fill-opacity = '0.250000' points = '613.5,198.8 613.5,662.4 615.4,662.4 615.4,203.5 '/>
		<polygon fill = 'rgb( 31, 120, 180)' fill-opacity = '0.250000' points = '615.4,203.5 615.4,662.4 617.3,662.4 617.3,208.2 '/>
		<polygon fill = 'rgb( 31, 120, 180)' fill-opacity = '0.250000' points = '617.3,208.2 617.3,662.4 619.2,662.4 619.2,212.8 '/>
		<polygon fill = 'rgb( 31, 120, 180)' fill-opacity = '0.250000' points = '619.2,212.8 619.2,662.4 621.1,662.4 621.1,217.3 '/>
		<polygon fill = 'rgb( 31, 120, 180)' fill-opacity = '0.250000' points = '621.1,217.3 621.1,662.4 623.0,662.4 623.0,221.6 '/>
		<polygon fill = 'rgb( 31, 120, 180)' fill-opacity = '0.250000' points = '623.0,221.6 623.0,662.4 624.8,662.4 624.8,225.8 '/>
		<polygon fill = 'rgb( 31, 120, 180)' fill-opacity = '0.250000' points = '624.8,225.8 624.8,662.4 626.7,662.4 626.7,229.8 '/>
		<polygon fill = 'rgb( 31, 120, 180)' fill-opacity = '0.250000' points = '626.7,229.8 626.7,662.4 628.6,662.4 628.6,233.7 '/>
		<polygon fill = 'rgb( 31, 120, 180)' fill-opacity = '0.250000' points = '628.6,233.7 628.6,662.4 630.5,662.4 630.5,237.3 '/>
		<polygon fill = 'rgb( 31, 120, 180)' fill-opacity = '0.250000' points = '630.5,237.3 630.5,662.4 632.4,662.4 632.4,240.7 '/>
		<polygon fill = 'rgb( 31, 120, 180)' fill-opacity = '0.250000' points = '632.4,240.7 632.4,662.4 634.3,662.4 634.3,243.8 '/>
		<polygon fill = 'rgb( 31, 120, 180)' fill-opacity = '0.250000' points = '634.3,243.8 634.3,662.4 636.2,662.4 636.2,246.7 '/>
		<polygon fill = 'rgb( 31, 120, 180)' fill-opacity = '0.250000' points = '636.2,246.7 636.2,662.4 638.1,662.4 638.1,249.4 '/>
		<polygon fill = 'rgb( 31, 120, 180)' fill-opacity = '0.250000' points = '638.1,249.4 638.1,662.4 639.9,662.4 639.9,251.7 '/>
		<polygon fill = 'rgb( 31, 120, 180)' fill-opacity = '0.250000' points = '639.9,251.7 639.9,662.4 641.8,662.4 641.8,253.9 '/>
		<polygon fill = 'rgb( 31, 120, 180)' fill-opacity = '0.250000' points = '641.8,253.9 641.8,662.4 643.7,662.4 643.7,255.7 '/>
		<polygon fill = 'rgb( 31, 120, 180)' fill-opacity = '0.250000' points = '643.7,255.7 643.7,662.4 645.6,662.4 645.6,257.3 '/>
		<polygon fill = 'rgb( 31, 120, 180)' fill-opacity = '0.250000' points = '645.6,257.3 645.6,662.4 647.5,662.4 647.5,258.7 '/>
		<polygon fill = 'rgb( 31, 120, 180)' fill-opacity = '0.250000' points = '647.5,258.7 647.5,662.4 649.4,662.4 649.4,259.8 '/>
		<polygon fill = 'rgb( 31, 120, 180)' fill-opacity = '0.250000' points = '649.4,259.8 649.4,662.4 651.3,662.4 651.3,260.7 '/>
		<polygon fill = 'rgb( 31, 120, 180)' fill-opacity = '0.250000' points = '651.3,260.7 651.3,662.4 653.1,662.4 653.1,261.4 '/>
		<polygon fill = 'rgb( 31, 120, 180)' fill-opacity = '0.250000' points = '653.1,261.4 653.1,662.4 655.0,662.4 655.0,261.8 '/>
		<polygon fill = 'rgb( 31, 120, 180)' fill-opacity = '0.250000' points = '655.0,261.8 655.0,662.4 656.9,662.4 656.9,262.1 '/>
		<polygon fill = 'rgb( 31, 120, 180)' fill-opacity = '0.250000' points = '656.9,262.1 656.9,662.4 658.8,662.4 658.8,262.2 '/>
		<polygon fill = 'rgb( 31, 120, 180)' fill-opacity = '0.250000' points = '658.8,262.2 658.8,662.4 660.7,662.4 660.7,262.2 '/>
		<polygon fill = 'rgb( 31, 120, 180)' fill-opacity = '0.250000' points = '660.7,262.2 660.7,662.4 662.6,662.4 662.6,262.0 '/>
		<polygon fill = 'rgb( 31, 120, 180)' fill-opacity = '0.250000' points = '662.6,262.0 662.6,662.4 664.5,662.4 664.5,261.7 '/>
		<polygon fill = 'rgb( 31, 120, 180)' fill-opacity = '0.250000' points = '664.5,261.7 664.5,662.4 666.4,662.4 666.4,261.4 '/>
		<polygon fill = 'rgb( 31, 120, 180)' fill-opacity = '0.250000' points = '666.4,261.4 666.4,662.4 668.2,662.4 668.2,261.0 '/>
		<polygon fill = 'rgb( 31, 120, 180)' fill-opacity = '0.250000' points = '668.2,261.0 668.2,662.4 670.1,662.4 670.1,260.6 '/>
		<polygon fill = 'rgb( 31, 120, 180)' fill-opacity = '0.250000' points = '670.1,260.6 670.1,662.4 672.0,662.4 672.0,260.1 '/>
		<polygon fill = 'rgb( 31, 120, 180)' fill-opacity = '0.250000' points = '672.0,260.1 672.0,662.4 673.9,662.4 673.9,259.7 '/>
		<polygon fill = 'rgb( 31, 120, 180)' fill-opacity = '0.250000' points = '673.9,259.7 673.9,662.4 675.8,662.4 675.8,259.4 '/>
		<polygon fill = 'rgb( 31, 120, 180)' fill-opacity = '0.250000' points = '675.8,259.4 675.8,662.4 677.7,662.4 677.7,259.1 '/>
		<polygon fill = 'rgb( 31, 120, 180)' fill-opacity = '0.250000' points = '677.7,259.1 677.7,662.4 679.6,662.4 679.6,258.9 '/>
		<polygon fill = 'rgb( 31, 120, 180)' fill-opacity = '0.250000' points = '679.6,258.9 679.6,662.4 681.5,662.4 681.5,258.9 '/>
		<polygon fill = 'rgb( 31, 120, 180)' fill-opacity = '0.250000' points = '681.5,258.9 681.5,662.4 683.3,662.4 683.3,258.9 '/>
		<polygon fill = 'rgb( 31, 120, 180)' fill-opacity = '0.250000' points = '683.3,258.9 683.3,662.4 685.2,662.4 685.2,259.2 '/>
		<polygon fill = 'rgb( 31, 120, 180)' fill-opacity = '0.250000' points = '685.2,259.2 685.2,662.4 687.1,662.4 687.1,259.5 '/>
		<polygon fill = 'rgb( 31, 120, 180)' fill-opacity = '0.250000' points = '687.1,259.5 687.1,662.4 689.0,662.4 689.0,260.0 '/>
		<polygon fill = 'rgb( 31, 120, 180)' fill-opacity = '0.250000' points = '689.0,260.0 689.0,662.4 690.9,662.4 690.9,260.7 '/>
		<polygon fill = 'rgb( 31, 120, 180)' fill-opacity = '0.250000' points = '690.9,260.7 690.9,662.4 692.8,662.4 692.8,261.5 '/>
		<polygon fill = 'rgb( 31, 120, 180)' fill-opacity = '0.250000' points = '692.8,261.5 692.8,662.4 694.7,662.4 694.7,262.5 '/>
		<polygon fill = 'rgb( 31, 120, 180)' fill-opacity = '0.250000' points = '694.7,262.5 694.7,662.4 696.6,662.4 696.6,263.7 '/>
		<polygon fill = 'rgb( 31, 120, 180)' fill-opacity = '0.250000' points = '696.6,263.7 696.6,662.4 698.4,662.4 698.4,265.0 '/>
		<polygon fill = 'rgb( 31, 120, 180)' fill-opacity = '0.250000' points = '698.4,265.0 698.4,662.4 700.3,662.4 700.3,266.5 '/>
		<polygon fill = 'rgb( 31, 120, 180)' fill-opacity = '0.250000' points = '700.3,266.5 700.3,662.4 702.2,662.4 702.2,268.1 '/>
		<polygon fill = 'rgb( 31, 120, 180)' fill-opacity = '0.250000' points = '702.2,268.1 702.2,662.4 704.1,662.4 704.1,269.9 '/>
		<polygon fill = 'rgb( 31, 120, 180)' fill-opacity = '0.250000' points = '704.1,269.9 704.1,662.4 706.0,662.4 706.0,271.8 '/>
		<polygon fill = 'rgb( 31, 120, 180)' fill-opacity = '0.250000' points = '706.0,271.8 706.0,662.4 707.9,662.4 707.9,273.9 '/>
		<polygon fill = 'rgb( 31, 120, 180)' fill-opacity = '0.250000' points = '707.9,273.9 707.9,662.4 709.8,662.4 709.8,276.2 '/>
		<polygon fill = 'rgb( 31, 120, 180)' fill-opacity = '0.250000' points = '709.8,276.2 709.8,662.4 711.7,662.4 711.7,278.7 '/>
		<polygon fill = 'rgb( 31, 120, 180)' fill-opacity = '0.250000' points = '711.7,278.7 711.7,662.4 713.5,662.4 713.5,281.4 '/>
		<polygon fill = 'rgb( 31, 120, 180)' fill-opacity = '0.250000' points = '713.5,281.4 713.5,662.4 715.4,662.4 715.4,284.3 '/>
		<polygon fill = 'rgb( 31, 120, 180)' fill-opacity = '0.250000' points = '715.4,284.3 715.4,662.4 717.3,662.4 717.3,287.4 '/>
		<polygon fill = 'rgb( 31, 120, 180)' fill-opacity = '0.250000' points = '717.3,287.4 717.3,662.4 719.2,662.4 719.2,290.8 '/>
		<polygon fill = 'rgb( 31, 120, 180)' fill-opacity = '0.250000' points = '719.2,290.8 719.2,662.4 721.1,662.4 721.1,294.4 '/>
		<polygon fill = 'rgb( 31, 120, 180)' fill-opacity = '0.250000' points = '721.1,294.4 721.1,662.4 723.0,662.4 723.0,298.3 '/>
		<polygon fill = 'rgb( 31, 120, 180)' fill-opacity = '0.250000' points = '723.0,298.3 723.0,662.4 724.9,662.4 724.9,302.5 '/>
		<polygon fill = 'rgb( 31, 120, 180)' fill-opacity = '0.250000' points = '724.9,302.5 724.9,662.4 726.7,662.4 726.7,306.9 '/>
		<polygon fill = 'rgb( 31, 120, 180)' fill-opacity = '0.250000' points = '726.7,306.9 726.7,662.4 728.6,662.4 728.6,311.6 '/>
		<polygon fill = 'rgb( 31, 120, 180)' fill-opacity = '0.250000' points = '728.6,311.6 728.6,662.4 730.5,662.4 730.5,316.6 '/>
		<polygon fill = 'rgb( 31, 120, 180)' fill-opacity = '0.250000' points = '730.5,316.6 730.5,662.4 732.4,662.4 732.4,321.8 '/>
		<polygon fill = 'rgb( 31, 120, 180)' fill-opacity = '0.250000' points = '732.4,321.8 732.4,662.4 734.3,662.4 734.3,327.2 '/>
		<polygon fill = 'rgb( 31, 120, 180)' fill-opacity = '0.250000' points = '734.3,327.2 734.3,662.4 736.2,662.4 736.2,332.9 '/>
		<polygon fill = 'rgb( 31, 120, 180)' fill-opacity = '0.250000' points = '736.2,332.9 736.2,662.4 738.1,662.4 738.1,338.7 '/>
		<polygon fill = 'rgb( 31, 120, 180)' fill-opacity = '0.250000' points = '738.1,338.7 738.1,662.4 740.0,662.4 740.0,344.7 '/>
		<polygon fill = 'rgb( 31, 120, 180)' fill-opacity = '0.250000' points = '740.0,344.7 740.0,662.4 741.8,662.4 741.8,350.8 '/>
		<polygon fill = 'rgb( 31, 120, 180)' fill-opacity = '0.250000' points = '741.8,350.8 741.8,662.4 743.7,662.4 743.7,357.0 '/>
		<polygon fill = 'rgb( 31, 120, 180)' fill-opacity = '0.250000' points = '743.7,357.0 743.7,662.4 745.6,662.4 745.6,363.2 '/>
		<polygon fill = 'rgb( 31, 120, 180)' fill-opacity = '0.250000' points = '745.6,363.2 745.6,662.4 747.5,662.4 747.5,369.5 '/>
		<polygon fill = 'rgb( 31, 120, 180)' fill-opacity = '0.250000' points = '747.5,369.5 747.5,662.4 749.4,662.4 749.4,375.7 '/>
		<polygon fill = 'rgb( 31, 120, 180)' fill-opacity = '0.250000' points = '749.4,375.7 749.4,662.4 751.3,662.4 751.3,381.8 '/>
		<polygon fill = 'rgb( 31, 120, 180)' fill-opacity = '0.250000' points = '751.3,381.8 751.3,662.4 753.2,662.4 753.2,387.9 '/>
		<polygon fill = 'rgb( 31, 120, 180)' fill-opacity = '0.250000' points = '753.2,387.9 753.2,662.4 755.1,662.4 755.1,393.8 '/>
		<polygon fill = 'rgb( 31, 120, 180)' fill-opacity = '0.250000' points = '755.1,393.8 755.1,662.4 756.9,662.4 756.9,399.6 '/>
		<polygon fill = 'rgb( 31, 120, 180)' fill-opacity = '0.250000' points = '756.9,399.6 756.9,662.4 758.8,662.4 758.8,405.2 '/>
		<polygon fill = 'rgb( 31, 120, 180)' fill-opacity = '0.250000' points = '758.8,405.2 758.8,662.4 760.7,662.4 760.7,410.7 '/>
		<polygon fill = 'rgb( 31, 120, 180)' fill-opacity = '0.250000' points = '760.7,410.7 760.7,662.4 762.6,662.4 762.6,416.0 '/>
		<polygon fill = 'rgb( 31, 120, 180)' fill-opacity = '0.250000' points = '762.6,416.0 762.6,662.4 764.5,662.4 764.5,421.1 '/>
		<polygon fill = 'rgb( 31, 120, 180)' fill-opacity = '0.250000' points = '764.5,421.1 764.5,662.4 766.4,662.4 766.4,426.1 '/>
		<polygon fill = 'rgb( 31, 120, 180)' fill-opacity = '0.250000' points = '766.4,426.1 766.4,662.4 768.3,662.4 768.3,430.9 '/>
		<polygon fill = 'rgb( 31, 120, 180)' fill-opacity = '0.250000' points = '768.3,430.9 768.3,662.4 770.2,662.4 770.2,435.5 '/>
		<polygon fill = 'rgb( 31, 120, 180)' fill-opacity = '0.250000' points = '770.2,435.5 770.2,662.4 772.0,662.4 772.0,440.0 '/>
		<polygon fill = 'rgb( 31, 120, 180)' fill-opacity = '0.250000' points = '772.0,440.0 772.0,662.4 773.9,662.4 773.9,444.3 '/>
		<polygon fill = 'rgb( 31, 120, 180)' fill-opacity = '0.250000' points = '773.9,444.3 773.9,662.4 775.8,662.4 775.8,448.5 '/>
		<polygon fill = 'rgb( 31, 120, 180)' fill-opacity = '0.250000' points = '775.8,448.5 775.8,662.4 777.7,662.4 777.7,452.6 '/>
		<polygon fill = 'rgb( 31, 120, 180)' fill-opacity = '0.250000' points = '777.7,452.6 777.7,662.4 779.6,662.4 779.6,456.5 '/>
		<polygon fill = 'rgb( 31, 120, 180)' fill-opacity = '0.250000' points = '779.6,456.5 779.6,662.4 781.5,662.4 781.5,460.4 '/>
		<polygon fill = 'rgb( 31, 120, 180)' fill-opacity = '0.250000' points = '781.5,460.4 781.5,662.4 783.4,662.4 783.4,464.1 '/>
		<polygon fill = 'rgb( 31, 120, 180)' fill-opacity = '0.250000' points = '783.4,464.1 783.4,662.4 785.3,662.4 785.3,467.8 '/>
		<polygon fill = 'rgb( 31, 120, 180)' fill-opacity = '0.250000' points = '785.3,467.8 785.3,662.4 787.1,662.4 787.1,471.3 '/>
		<polygon fill = 'rgb( 31, 120, 180)' fill-opacity = '0.250000' points = '787.1,471.3 787.1,662.4 789.0,662.4 789.0,474.8 '/>
		<polygon fill = 'rgb( 31, 120, 180)' fill-opacity = '0.250000' points = '789.0,474.8 789.0,662.4 790.9,662.4 790.9,478.1 '/>
		<polygon fill = 'rgb( 31, 120, 180)' fill-opacity = '0.250000' points = '790.9,478.1 790.9,662.4 792.8,662.4 792.8,481.3 '/>
		<polygon fill = 'rgb( 31, 120, 180)' fill-opacity = '0.250000' points = '792.8,481.3 792.8,662.4 794.7,662.4 794.7,484.5 '/>
		<polygon fill = 'rgb( 31, 120, 180)' fill-opacity = '0.250000' points = '794.7,484.5 794.7,662.4 796.6,662.4 796.6,487.4 '/>
		<polygon fill = 'rgb( 31, 120, 180)' fill-opacity = '0.250000' points = '796.6,487.4 796.6,662.4 798.5,662.4 798.5,490.3 '/>
		<polygon fill = 'rgb( 31, 120, 180)' fill-opacity = '0.250000' points = '798.5,490.3 798.5,662.4 800.3,662.4 800.3,493.0 '/>
		<polygon fill = 'rgb( 31, 120, 180)' fill-opacity = '0.250000' points = '800.3,493.0 800.3,662.4 802.2,662.4 802.2,495.6 '/>
		<polygon fill = 'rgb( 31, 120, 180)' fill-opacity = '0.250000' points = '802.2,495.6 802.2,662.4 804.1,662.4 804.1,498.0 '/>
		<polygon fill = 'rgb( 31, 120, 180)' fill-opacity = '0.250000' points = '804.1,498.0 804.1,662.4 806.0,662.4 806.0,500.4 '/>
		<polygon fill = 'rgb( 31, 120, 180)' fill-opacity = '0.250000' points = '806.0,500.4 806.0,662.4 807.9,662.4 807.9,502.5 '/>
		<polygon fill = 'rgb( 31, 120, 180)' fill-opacity = '0.250000' points = '807.9,502.5 807.9,662.4 809.8,662.4 809.8,504.6 '/>
		<polygon fill = 'rgb( 31, 120, 180)' fill-opacity = '0.250000' points = '809.8,504.6 809.8,662.4 811.7,662.4 811.7,506.5 '/>
		<polygon fill = 'rgb( 31, 120, 180)' fill-opacity = '0.250000' points = '811.7,506.5 811.7,662.4 813.6,662.4 813.6,508.4 '/>
		<polygon fill = 'rgb( 31, 120, 180)' fill-opacity = '0.250000' points = '813.6,508.4 813.6,662.4 815.4,662.4 815.4,510.1 '/>
		<polygon fill = 'rgb( 31, 120, 180)' fill-opacity = '0.250000' points = '815.4,510.1 815.4,662.4 817.3,662.4 817.3,511.8 '/>
		<polygon fill = 'rgb( 31, 120, 180)' fill-opacity = '0.250000' points = '817.3,511.8 817.3,662.4 819.2,662.4 819.2,513.4 '/>
		<polygon fill = 'rgb( 31, 120, 180)' fill-opacity = '0.250000' points = '819.2,513.4 819.2,662.4 821.1,662.4 821.1,514.9 '/>
		<polygon fill = 'rgb( 31, 120, 180)' fill-opacity = '0.250000' points = '821.1,514.9 821.1,662.4 823.0,662.4 823.0,516.4 '/>
		<polygon fill = 'rgb( 31, 120, 180)' fill-opacity = '0.250000' points = '823.0,516.4 823.0,662.4 824.9,662.4 824.9,517.9 '/>
		<polygon fill = 'rgb( 31, 120, 180)' fill-opacity = '0.250000' points = '824.9,517.9 824.9,662.4 826.8,662.4 826.8,519.3 '/>
		<polygon fill = 'rgb( 31, 120, 180)' fill-opacity = '0.250000' points = '826.8,519.3 826.8,662.4 828.7,662.4 828.7,520.8 '/>
		<polygon fill = 'rgb( 31, 120, 180)' fill-opacity = '0.250000' points = '828.7,520.8 828.7,662.4 830.5,662.4 830.5,522.3 '/>
		<polygon fill = 'rgb( 31, 120, 180)' fill-opacity = '0.250000' points = '830.5,522.3 830.5,662.4 832.4,662.4 832.4,523.8 '/>
		<polygon fill = 'rgb( 31, 120, 180)' fill-opacity = '0.250000' points = '832.4,523.8 832.4,662.4 834.3,662.4 834.3,525.3 '/>
		<polygon fill = 'rgb( 31, 120, 180)' fill-opacity = '0.250000' points = '834.3,525.3 834.3,662.4 836.2,662.4 836.2,526.9 '/>
		<polygon fill = 'rgb( 31, 120, 180)' fill-opacity = '0.250000' points = '836.2,526.9 836.2,662.4 838.1,662.4 838.1,528.5 '/>
		<polygon fill = 'rgb( 31, 120, 180)' fill-opacity = '0.250000' points = '838.1,528.5 838.1,662.4 840.0,662.4 840.0,530.1 '/>
		<polygon fill = 'rgb( 31, 120, 180)' fill-opacity = '0.250000' points = '840.0,530.1 840.0,662.4 841.9,662.4 841.9,531.8 '/>
		<polygon fill = 'rgb( 31, 120, 180)' fill-opacity = '0.250000' points = '841.9,531.8 841.9,662.4 843.8,662.4 843.8,533.5 '/>
		<polygon fill = 'rgb( 31, 120, 180)' fill-opacity = '0.250000' points = '843.8,533.5 843.8,662.4 845.6,662.4 845.6,535.2 '/>
		<polygon fill = 'rgb( 31, 120, 180)' fill-opacity = '0.250000' points = '845.6,535.2 845.6,662.4 847.5,662.4 847.5,536.9 '/>
		<polygon fill = 'rgb( 31, 120, 180)' fill-opacity = '0.250000' points = '847.5,536.9 847.5,662.4 849.4,662.4 849.4,538.6 '/>
		<polygon fill = 'rgb( 31, 120, 180)' fill-opacity = '0.250000' points = '849.4,538.6 849.4,662.4 851.3,662.4 851.3,540.3 '/>
		<polygon fill = 'rgb( 31, 120, 180)' fill-opacity = '0.250000' points = '851.3,540.3 851.3,662.4 853.2,662.4 853.2,541.9 '/>
		<polygon fill = 'rgb( 31, 120, 180)' fill-opacity = '0.250000' points = '853.2,541.9 853.2,662.4 855.1,662.4 855.1,543.6 '/>
		<polygon fill = 'rgb( 31, 120, 180)' fill-opacity = '0.250000' points = '855.1,543.6 855.1,662.4 857.0,662.4 857.0,545.1 '/>
		<polygon fill = 'rgb( 31, 120, 180)' fill-opacity = '0.250000' points = '857.0,545.1 857.0,662.4 858.9,662.4 858.9,546.6 '/>
		<polygon fill = 'rgb( 31, 120, 180)' fill-opacity = '0.250000' points = '858.9,546.6 858.9,662.4 860.7,662.4 860.7,548.0 '/>
		<polygon fill = 'rgb( 31, 120, 180)' fill-opacity = '0.250000' points = '860.7,548.0 860.7,662.4 862.6,662.4 862.6,549.4 '/>
		<polygon fill = 'rgb( 31, 120, 180)' fill-opacity = '0.250000' points = '862.6,549.4 862.6,662.4 864.5,662.4 864.5,550.7 '/>
		<polygon fill = 'rgb( 31, 120, 180)' fill-opacity = '0.250000' points = '864.5,550.7 864.5,662.4 866.4,662.4 866.4,551.9 '/>
		<polygon fill = 'rgb( 31, 120, 180)' fill-opacity = '0.250000' points = '866.4,551.9 866.4,662.4 868.3,662.4 868.3,553.0 '/>
		<polygon fill = 'rgb( 31, 120, 180)' fill-opacity = '0.250000' points = '868.3,553.0 868.3,662.4 870.2,662.4 870.2,554.1 '/>
		<polygon fill = 'rgb( 31, 120, 180)' fill-opacity = '0.250000' points = '870.2,554.1 870.2,662.4 872.1,662.4 872.1,555.1 '/>
		<polygon fill = 'rgb( 31, 120, 180)' fill-opacity = '0.250000' points = '872.1,555.1 872.1,662.4 873.9,662.4 873.9,556.1 '/>
		<polygon fill = 'rgb( 31, 120, 180)' fill-opacity = '0.250000' points = '873.9,556.1 873.9,662.4 875.8,662.4 875.8,557.1 '/>
		<polygon fill = 'rgb( 31, 120, 180)' fill-opacity = '0.250000' points = '875.8,557.1 875.8,662.4 877.7,662.4 877.7,558.0 '/>
		<polygon fill = 'rgb( 31, 120, 180)' fill-opacity = '0.250000' points = '877.7,558.0 877.7,662.4 879.6,662.4 879.6,558.9 '/>
		<polygon fill = 'rgb( 31, 120, 180)' fill-opacity = '0.250000' points = '879.6,558.9 879.6,662.4 881.5,662.4 881.5,559.8 '/>
		<polygon fill = 'rgb( 31, 120, 180)' fill-opacity = '0.250000' points = '881.5,559.8 881.5,662.4 883.4,662.4 883.4,560.7 '/>
		<polygon fill = 'rgb( 31, 120, 180)' fill-opacity = '0.250000' points = '883.4,560.7 883.4,662.4 885.3,662.4 885.3,561.7 '/>
		<polygon fill = 'rgb( 31, 120, 180)' fill-opacity = '0.250000' points = '885.3,561.7 885.3,662.4 887.2,662.4 887.2,562.7 '/>
		<polygon fill = 'rgb( 31, 120, 180)' fill-opacity = '0.250000' points = '887.2,562.7 887.2,662.4 889.0,662.4 889.0,563.7 '/>
		<polygon fill = 'rgb( 31, 120, 180)' fill-opacity = '0.250000' points = '889.0,563.7 889.0,662.4 890.9,662.4 890.9,564.8 '/>
		<polygon fill = 'rgb( 31, 120, 180)' fill-opacity = '0.250000' points = '890.9,564.8 890.9,662.4 892.8,662.4 892.8,565.9 '/>
		<polygon fill = 'rgb( 31, 120, 180)' fill-opacity = '0.250000' points = '892.8,565.9 892.8,662.4 894.7,662.4 894.7,567.1 '/>
		<polygon fill = 'rgb( 31, 120, 180)' fill-opacity = '0.250000' points = '894.7,567.1 894.7,662.4 896.6,662.4 896.6,568.3 '/>
		<polygon fill = 'rgb( 31, 120, 180)' fill-opacity = '0.250000' points = '896.6,568.3 896.6,662.4 898.5,662.4 898.5,569.5 '/>
		<polygon fill = 'rgb( 31, 120, 180)' fill-opacity = '0.250000' points = '898.5,569.5 898.5,662.4 900.4,662.4 900.4,570.7 '/>
		<polygon fill = 'rgb( 31, 120, 180)' fill-opacity = '0.250000' points = '900.4,570.7 900.4,662.4 902.3,662.4 902.3,572.0 '/>
		<polygon fill = 'rgb( 31, 120, 180)' fill-opacity = '0.250000' points = '902.3,572.0 902.3,662.4 904.1,662.4 904.1,573.3 '/>
		<polygon fill = 'rgb( 31, 120, 180)' fill-opacity = '0.250000' points = '904.1,573.3 904.1,662.4 906.0,662.4 906.0,574.5 '/>
		<polygon fill = 'rgb( 31, 120, 180)' fill-opacity = '0.250000' points = '906.0,574.5 906.0,662.4 907.9,662.4 907.9,575.7 '/>
		<polygon fill = 'rgb( 31, 120, 180)' fill-opacity = '0.250000' points = '907.9,575.7 907.9,662.4 909.8,662.4 909.8,576.9 '/>
		<polygon fill = 'rgb( 31, 120, 180)' fill-opacity = '0.250000' points = '909.8,576.9 909.8,662.4 911.7,662.4 911.7,578.1 '/>
		<polygon fill = 'rgb( 31, 120, 180)' fill-opacity = '0.250000' points = '911.7,578.1 911.7,662.4 913.6,662.4 913.6,579.2 '/>
		<polygon fill = 'rgb( 31, 120, 180)' fill-opacity = '0.250000' points = '913.6,579.2 913.6,662.4 915.5,662.4 915.5,580.3 '/>
		<polygon fill = 'rgb( 31, 120, 180)' fill-opacity = '0.250000' points = '915.5,580.3 915.5,662.4 917.4,662.4 917.4,581.4 '/>
		<polygon fill = 'rgb( 31, 120, 180)' fill-opacity = '0.250000' points = '917.4,581.4 917.4,662.4 919.2,662.4 919.2,582.4 '/>
		<polygon fill = 'rgb( 31, 120, 180)' fill-opacity = '0.250000' points = '919.2,582.4 919.2,662.4 921.1,662.4 921.1,583.3 '/>
		<polygon fill = 'rgb( 31, 120, 180)' fill-opacity = '0.250000' points = '921.1,583.3 921.1,662.4 923.0,662.4 923.0,584.3 '/>
		<polygon fill = 'rgb( 31, 120, 180)' fill-opacity = '0.250000' points = '923.0,584.3 923.0,662.4 924.9,662.4 924.9,585.2 '/>
	</g>
</g>
	</g>
	<g id="gnuplot_plot_3" ><title>Point estimate</title>
<g fill="none" color="white" stroke="rgb( 31, 120, 180)" stroke-width="2.00" stroke-linecap="butt" stroke-linejoin="miter">
</g>
<g fill="none" color="black" stroke="currentColor" stroke-width="2.00" stroke-linecap="butt" stroke-linejoin="miter">
	<g transform="translate(1089.0,103.0)" stroke="none" fill="black" font-family="Helvetica" font-size="12.00"  text-anchor="start">
		<text><tspan font-family="Helvetica" >Point estimate</tspan></text>
	</g>
</g>
<g fill="none" color="black" stroke="currentColor" stroke-width="2.00" stroke-linecap="butt" stroke-linejoin="miter">
	<path stroke='rgb( 31, 120, 180)'  d='M1038.5,99.1 L1080.7,99.1 M523.2,662.4 L523.2,106.9  '/></g>
	</g>
	<g id="gnuplot_plot_4" ><title>Noise threshold</title>
<g fill="none" color="white" stroke="rgb( 31, 120, 180)" stroke-width="1.00" stroke-linecap="butt" stroke-linejoin="miter">
</g>
<g fill="none" color="black" stroke="currentColor" stroke-width="1.00" stroke-linecap="butt" stroke-linejoin="miter">
	<g transform="translate(1089.0,121.0)" stroke="none" fill="black" font-family="Helvetica" font-size="12.00"  text-anchor="start">
		<text><tspan font-family="Helvetica" >Noise threshold</tspan></text>
	</g>
</g>
<g fill="none" color="black" stroke="currentColor" stroke-width="1.00" stroke-linecap="butt" stroke-linejoin="miter">
	<g stroke='none' shape-rendering='crispEdges'>
		<polygon fill = 'rgb(227,  26,  28)' fill-opacity = '0.100000' points = '1038.5,121.6 1080.7,121.6 1080.7,112.6 1038.5,112.6 '/>
		<polygon fill = 'rgb(227,  26,  28)' fill-opacity = '0.100000' points = '71.9,54.1 71.9,662.4 1013.6,662.4 1013.6,54.1 '/>
	</g>
</g>
	</g>
<g fill="none" color="white" stroke="rgb(227,  26,  28)" stroke-width="2.00" stroke-linecap="butt" stroke-linejoin="miter">
</g>
<g fill="none" color="black" stroke="currentColor" stroke-width="2.00" stroke-linecap="butt" stroke-linejoin="miter">
</g>
<g fill="none" color="black" stroke="black" stroke-width="1.00" stroke-linecap="butt" stroke-linejoin="miter">
</g>
<g fill="none" color="black" stroke="currentColor" stroke-width="1.00" stroke-linecap="butt" stroke-linejoin="miter">
	<path stroke='black'  d='M71.9,54.1 L71.9,662.4 L1013.6,662.4 L1013.6,54.1 L71.9,54.1 Z  '/></g>
<g fill="none" color="black" stroke="currentColor" stroke-width="1.00" stroke-linecap="butt" stroke-linejoin="miter">
</g>
</g>
</svg>

