<?xml version="1.0" encoding="utf-8"  standalone="no"?>
<!DOCTYPE svg PUBLIC "-//W3C//DTD SVG 1.1//EN"
 "http://www.w3.org/Graphics/SVG/1.1/DTD/svg11.dtd">
<svg 
 viewBox="0 0 1280 720"
 xmlns="http://www.w3.org/2000/svg"
 xmlns:xlink="http://www.w3.org/1999/xlink"
>

<title>Gnuplot</title>
<desc>Produced by GNUPLOT 5.0 patchlevel 5 </desc>

<g id="gnuplot_canvas">

<rect x="0" y="0" width="1280" height="720" fill="none"/>
<defs>

	<circle id='gpDot' r='0.5' stroke-width='0.5'/>
	<path id='gpPt0' stroke-width='0.222' stroke='currentColor' d='M-1,0 h2 M0,-1 v2'/>
	<path id='gpPt1' stroke-width='0.222' stroke='currentColor' d='M-1,-1 L1,1 M1,-1 L-1,1'/>
	<path id='gpPt2' stroke-width='0.222' stroke='currentColor' d='M-1,0 L1,0 M0,-1 L0,1 M-1,-1 L1,1 M-1,1 L1,-1'/>
	<rect id='gpPt3' stroke-width='0.222' stroke='currentColor' x='-1' y='-1' width='2' height='2'/>
	<rect id='gpPt4' stroke-width='0.222' stroke='currentColor' fill='currentColor' x='-1' y='-1' width='2' height='2'/>
	<circle id='gpPt5' stroke-width='0.222' stroke='currentColor' cx='0' cy='0' r='1'/>
	<use xlink:href='#gpPt5' id='gpPt6' fill='currentColor' stroke='none'/>
	<path id='gpPt7' stroke-width='0.222' stroke='currentColor' d='M0,-1.33 L-1.33,0.67 L1.33,0.67 z'/>
	<use xlink:href='#gpPt7' id='gpPt8' fill='currentColor' stroke='none'/>
	<use xlink:href='#gpPt7' id='gpPt9' stroke='currentColor' transform='rotate(180)'/>
	<use xlink:href='#gpPt9' id='gpPt10' fill='currentColor' stroke='none'/>
	<use xlink:href='#gpPt3' id='gpPt11' stroke='currentColor' transform='rotate(45)'/>
	<use xlink:href='#gpPt11' id='gpPt12' fill='currentColor' stroke='none'/>
	<path id='gpPt13' stroke-width='0.222' stroke='currentColor' d='M0,1.330 L1.265,0.411 L0.782,-1.067 L-0.782,-1.076 L-1.265,0.411 z'/>
	<use xlink:href='#gpPt13' id='gpPt14' fill='currentColor' stroke='none'/>
	<filter id='textbox' filterUnits='objectBoundingBox' x='0' y='0' height='1' width='1'>
	  <feFlood flood-color='white' flood-opacity='1' result='bgnd'/>
	  <feComposite in='SourceGraphic' in2='bgnd' operator='atop'/>
	</filter>
	<filter id='greybox' filterUnits='objectBoundingBox' x='0' y='0' height='1' width='1'>
	  <feFlood flood-color='lightgrey' flood-opacity='1' result='grey'/>
	  <feComposite in='SourceGraphic' in2='grey' operator='atop'/>
	</filter>
</defs>
<g fill="none" color="white" stroke="currentColor" stroke-width="1.00" stroke-linecap="butt" stroke-linejoin="miter">
</g>
<g fill="none" color="black" stroke="currentColor" stroke-width="1.00" stroke-linecap="butt" stroke-linejoin="miter">
	<path stroke='black'  d='M80.2,662.4 L89.2,662.4  '/>	<g transform="translate(71.9,666.3)" stroke="none" fill="black" font-family="Helvetica" font-size="12.00"  text-anchor="end">
		<text><tspan font-family="Helvetica" > 0</tspan></text>
	</g>
</g>
<g fill="none" color="black" stroke="currentColor" stroke-width="1.00" stroke-linecap="butt" stroke-linejoin="miter">
	<path stroke='black'  d='M80.2,575.5 L89.2,575.5  '/>	<g transform="translate(71.9,579.4)" stroke="none" fill="black" font-family="Helvetica" font-size="12.00"  text-anchor="end">
		<text><tspan font-family="Helvetica" > 200</tspan></text>
	</g>
</g>
<g fill="none" color="black" stroke="currentColor" stroke-width="1.00" stroke-linecap="butt" stroke-linejoin="miter">
	<path stroke='black'  d='M80.2,488.6 L89.2,488.6  '/>	<g transform="translate(71.9,492.5)" stroke="none" fill="black" font-family="Helvetica" font-size="12.00"  text-anchor="end">
		<text><tspan font-family="Helvetica" > 400</tspan></text>
	</g>
</g>
<g fill="none" color="black" stroke="currentColor" stroke-width="1.00" stroke-linecap="butt" stroke-linejoin="miter">
	<path stroke='black'  d='M80.2,401.7 L89.2,401.7  '/>	<g transform="translate(71.9,405.6)" stroke="none" fill="black" font-family="Helvetica" font-size="12.00"  text-anchor="end">
		<text><tspan font-family="Helvetica" > 600</tspan></text>
	</g>
</g>
<g fill="none" color="black" stroke="currentColor" stroke-width="1.00" stroke-linecap="butt" stroke-linejoin="miter">
	<path stroke='black'  d='M80.2,314.8 L89.2,314.8  '/>	<g transform="translate(71.9,318.7)" stroke="none" fill="black" font-family="Helvetica" font-size="12.00"  text-anchor="end">
		<text><tspan font-family="Helvetica" > 800</tspan></text>
	</g>
</g>
<g fill="none" color="black" stroke="currentColor" stroke-width="1.00" stroke-linecap="butt" stroke-linejoin="miter">
	<path stroke='black'  d='M80.2,227.9 L89.2,227.9  '/>	<g transform="translate(71.9,231.8)" stroke="none" fill="black" font-family="Helvetica" font-size="12.00"  text-anchor="end">
		<text><tspan font-family="Helvetica" > 1000</tspan></text>
	</g>
</g>
<g fill="none" color="black" stroke="currentColor" stroke-width="1.00" stroke-linecap="butt" stroke-linejoin="miter">
	<path stroke='black'  d='M80.2,141.0 L89.2,141.0  '/>	<g transform="translate(71.9,144.9)" stroke="none" fill="black" font-family="Helvetica" font-size="12.00"  text-anchor="end">
		<text><tspan font-family="Helvetica" > 1200</tspan></text>
	</g>
</g>
<g fill="none" color="black" stroke="currentColor" stroke-width="1.00" stroke-linecap="butt" stroke-linejoin="miter">
	<path stroke='black'  d='M80.2,54.1 L89.2,54.1  '/>	<g transform="translate(71.9,58.0)" stroke="none" fill="black" font-family="Helvetica" font-size="12.00"  text-anchor="end">
		<text><tspan font-family="Helvetica" > 1400</tspan></text>
	</g>
</g>
<g fill="none" color="black" stroke="currentColor" stroke-width="1.00" stroke-linecap="butt" stroke-linejoin="miter">
	<path stroke='black'  d='M113.0,662.4 L113.0,653.4  '/>	<g transform="translate(113.0,684.3)" stroke="none" fill="black" font-family="Helvetica" font-size="12.00"  text-anchor="middle">
		<text><tspan font-family="Helvetica" >-0.94</tspan></text>
	</g>
</g>
<g fill="none" color="black" stroke="currentColor" stroke-width="1.00" stroke-linecap="butt" stroke-linejoin="miter">
	<path stroke='black'  d='M243.2,662.4 L243.2,653.4  '/>	<g transform="translate(243.2,684.3)" stroke="none" fill="black" font-family="Helvetica" font-size="12.00"  text-anchor="middle">
		<text><tspan font-family="Helvetica" >-0.92</tspan></text>
	</g>
</g>
<g fill="none" color="black" stroke="currentColor" stroke-width="1.00" stroke-linecap="butt" stroke-linejoin="miter">
	<path stroke='black'  d='M373.5,662.4 L373.5,653.4  '/>	<g transform="translate(373.5,684.3)" stroke="none" fill="black" font-family="Helvetica" font-size="12.00"  text-anchor="middle">
		<text><tspan font-family="Helvetica" >-0.9</tspan></text>
	</g>
</g>
<g fill="none" color="black" stroke="currentColor" stroke-width="1.00" stroke-linecap="butt" stroke-linejoin="miter">
	<path stroke='black'  d='M503.7,662.4 L503.7,653.4  '/>	<g transform="translate(503.7,684.3)" stroke="none" fill="black" font-family="Helvetica" font-size="12.00"  text-anchor="middle">
		<text><tspan font-family="Helvetica" >-0.88</tspan></text>
	</g>
</g>
<g fill="none" color="black" stroke="currentColor" stroke-width="1.00" stroke-linecap="butt" stroke-linejoin="miter">
	<path stroke='black'  d='M634.0,662.4 L634.0,653.4  '/>	<g transform="translate(634.0,684.3)" stroke="none" fill="black" font-family="Helvetica" font-size="12.00"  text-anchor="middle">
		<text><tspan font-family="Helvetica" >-0.86</tspan></text>
	</g>
</g>
<g fill="none" color="black" stroke="currentColor" stroke-width="1.00" stroke-linecap="butt" stroke-linejoin="miter">
	<path stroke='black'  d='M764.3,662.4 L764.3,653.4  '/>	<g transform="translate(764.3,684.3)" stroke="none" fill="black" font-family="Helvetica" font-size="12.00"  text-anchor="middle">
		<text><tspan font-family="Helvetica" >-0.84</tspan></text>
	</g>
</g>
<g fill="none" color="black" stroke="currentColor" stroke-width="1.00" stroke-linecap="butt" stroke-linejoin="miter">
	<path stroke='black'  d='M894.5,662.4 L894.5,653.4  '/>	<g transform="translate(894.5,684.3)" stroke="none" fill="black" font-family="Helvetica" font-size="12.00"  text-anchor="middle">
		<text><tspan font-family="Helvetica" >-0.82</tspan></text>
	</g>
</g>
<g fill="none" color="black" stroke="currentColor" stroke-width="1.00" stroke-linecap="butt" stroke-linejoin="miter">
</g>
<g fill="none" color="black" stroke="currentColor" stroke-width="1.00" stroke-linecap="butt" stroke-linejoin="miter">
	<path stroke='black'  d='M80.2,54.1 L80.2,662.4 L1013.6,662.4 L1013.6,54.1 L80.2,54.1 Z  '/></g>
<g fill="none" color="black" stroke="currentColor" stroke-width="1.00" stroke-linecap="butt" stroke-linejoin="miter">
	<g transform="translate(17.0,358.3) rotate(270)" stroke="none" fill="black" font-family="Helvetica" font-size="12.00"  text-anchor="middle">
		<text><tspan font-family="Helvetica" >Density (a.u.)</tspan></text>
	</g>
</g>
<g fill="none" color="black" stroke="currentColor" stroke-width="1.00" stroke-linecap="butt" stroke-linejoin="miter">
	<g transform="translate(546.9,711.3)" stroke="none" fill="black" font-family="Helvetica" font-size="12.00"  text-anchor="middle">
		<text><tspan font-family="Helvetica" >Relative change (%)</tspan></text>
	</g>
</g>
<g fill="none" color="black" stroke="currentColor" stroke-width="1.00" stroke-linecap="butt" stroke-linejoin="miter">
	<g transform="translate(546.9,31.0)" stroke="none" fill="black" font-family="Helvetica" font-size="12.00"  text-anchor="middle">
		<text><tspan font-family="Helvetica" >dfs arena ghostcell list init: median</tspan></text>
	</g>
</g>
	<g id="gnuplot_plot_1" ><title>Bootstrap distribution</title>
<g fill="none" color="white" stroke="black" stroke-width="2.00" stroke-linecap="butt" stroke-linejoin="miter">
</g>
<g fill="none" color="black" stroke="currentColor" stroke-width="2.00" stroke-linecap="butt" stroke-linejoin="miter">
	<g transform="translate(1089.0,67.0)" stroke="none" fill="black" font-family="Helvetica" font-size="12.00"  text-anchor="start">
		<text><tspan font-family="Helvetica" >Bootstrap distribution</tspan></text>
	</g>
</g>
<g fill="none" color="black" stroke="currentColor" stroke-width="2.00" stroke-linecap="butt" stroke-linejoin="miter">
	<path stroke='rgb( 31, 120, 180)'  d='M1038.5,63.1 L1080.7,63.1 M80.2,621.7 L82.1,620.8 L83.9,620.0 L85.8,619.2 L87.7,618.3 L89.6,617.5
		L91.4,616.7 L93.3,615.8 L95.2,615.0 L97.0,614.1 L98.9,613.2 L100.8,612.3 L102.6,611.3 L104.5,610.4
		L106.4,609.5 L108.3,608.5 L110.1,607.5 L112.0,606.6 L113.9,605.6 L115.7,604.7 L117.6,603.8 L119.5,602.8
		L121.4,602.0 L123.2,601.1 L125.1,600.3 L127.0,599.4 L128.8,598.7 L130.7,597.9 L132.6,597.1 L134.4,596.4
		L136.3,595.6 L138.2,594.9 L140.1,594.1 L141.9,593.4 L143.8,592.6 L145.7,591.8 L147.5,591.0 L149.4,590.1
		L151.3,589.2 L153.2,588.3 L155.0,587.4 L156.9,586.4 L158.8,585.5 L160.6,584.5 L162.5,583.5 L164.4,582.5
		L166.2,581.5 L168.1,580.6 L170.0,579.7 L171.9,578.8 L173.7,577.9 L175.6,577.2 L177.5,576.4 L179.3,575.8
		L181.2,575.2 L183.1,574.6 L185.0,574.1 L186.8,573.7 L188.7,573.2 L190.6,572.8 L192.4,572.5 L194.3,572.1
		L196.2,571.7 L198.0,571.3 L199.9,570.8 L201.8,570.3 L203.7,569.7 L205.5,569.1 L207.4,568.3 L209.3,567.4
		L211.1,566.4 L213.0,565.2 L214.9,563.9 L216.7,562.5 L218.6,560.9 L220.5,559.1 L222.4,557.2 L224.2,555.1
		L226.1,552.8 L228.0,550.4 L229.8,547.8 L231.7,545.1 L233.6,542.2 L235.5,539.2 L237.3,536.0 L239.2,532.7
		L241.1,529.2 L242.9,525.6 L244.8,521.8 L246.7,518.0 L248.5,514.0 L250.4,509.8 L252.3,505.5 L254.2,501.1
		L256.0,496.6 L257.9,492.0 L259.8,487.2 L261.6,482.4 L263.5,477.4 L265.4,472.4 L267.3,467.3 L269.1,462.1
		L271.0,456.9 L272.9,451.6 L274.7,446.4 L276.6,441.1 L278.5,435.9 L280.3,430.7 L282.2,425.5 L284.1,420.4
		L286.0,415.4 L287.8,410.4 L289.7,405.5 L291.6,400.7 L293.4,395.9 L295.3,391.1 L297.2,386.4 L299.1,381.6
		L300.9,376.9 L302.8,372.0 L304.7,367.1 L306.5,362.1 L308.4,356.9 L310.3,351.5 L312.1,346.0 L314.0,340.3
		L315.9,334.4 L317.8,328.2 L319.6,321.8 L321.5,315.2 L323.4,308.3 L325.2,301.3 L327.1,294.0 L329.0,286.6
		L330.9,279.1 L332.7,271.4 L334.6,263.6 L336.5,255.8 L338.3,247.9 L340.2,240.1 L342.1,232.2 L343.9,224.5
		L345.8,216.8 L347.7,209.2 L349.6,201.7 L351.4,194.4 L353.3,187.3 L355.2,180.3 L357.0,173.6 L358.9,167.1
		L360.8,160.8 L362.7,154.8 L364.5,149.2 L366.4,143.8 L368.3,138.9 L370.1,134.3 L372.0,130.1 L373.9,126.4
		L375.7,123.1 L377.6,120.4 L379.5,118.1 L381.4,116.4 L383.2,115.2 L385.1,114.4 L387.0,114.2 L388.8,114.5
		L390.7,115.1 L392.6,116.2 L394.5,117.6 L396.3,119.2 L398.2,121.1 L400.1,123.1 L401.9,125.2 L403.8,127.3
		L405.7,129.3 L407.5,131.2 L409.4,132.9 L411.3,134.5 L413.2,135.7 L415.0,136.7 L416.9,137.5 L418.8,138.0
		L420.6,138.2 L422.5,138.2 L424.4,138.1 L426.3,137.8 L428.1,137.5 L430.0,137.2 L431.9,136.9 L433.7,136.7
		L435.6,136.7 L437.5,136.8 L439.3,137.2 L441.2,137.9 L443.1,138.8 L445.0,139.9 L446.8,141.4 L448.7,143.0
		L450.6,144.8 L452.4,146.7 L454.3,148.7 L456.2,150.7 L458.0,152.7 L459.9,154.5 L461.8,156.1 L463.7,157.6
		L465.5,158.7 L467.4,159.5 L469.3,160.0 L471.1,160.0 L473.0,159.7 L474.9,159.0 L476.8,158.0 L478.6,156.6
		L480.5,154.9 L482.4,152.9 L484.2,150.7 L486.1,148.4 L488.0,146.0 L489.8,143.5 L491.7,141.0 L493.6,138.6
		L495.5,136.4 L497.3,134.3 L499.2,132.4 L501.1,130.7 L502.9,129.3 L504.8,128.2 L506.7,127.4 L508.6,126.8
		L510.4,126.6 L512.3,126.7 L514.2,127.1 L516.0,127.8 L517.9,128.8 L519.8,130.0 L521.6,131.4 L523.5,133.0
		L525.4,134.8 L527.3,136.7 L529.1,138.7 L531.0,140.7 L532.9,142.8 L534.7,144.8 L536.6,146.8 L538.5,148.7
		L540.4,150.5 L542.2,152.2 L544.1,153.7 L546.0,155.1 L547.8,156.2 L549.7,157.2 L551.6,157.9 L553.4,158.6
		L555.3,159.0 L557.2,159.3 L559.1,159.5 L560.9,159.7 L562.8,159.8 L564.7,159.9 L566.5,160.0 L568.4,160.1
		L570.3,160.3 L572.2,160.6 L574.0,161.0 L575.9,161.5 L577.8,162.0 L579.6,162.7 L581.5,163.3 L583.4,164.0
		L585.2,164.7 L587.1,165.3 L589.0,165.8 L590.9,166.1 L592.7,166.2 L594.6,166.2 L596.5,165.8 L598.3,165.2
		L600.2,164.3 L602.1,163.1 L604.0,161.5 L605.8,159.7 L607.7,157.6 L609.6,155.3 L611.4,152.8 L613.3,150.2
		L615.2,147.5 L617.0,144.7 L618.9,142.1 L620.8,139.5 L622.7,137.2 L624.5,135.1 L626.4,133.3 L628.3,131.9
		L630.1,130.9 L632.0,130.3 L633.9,130.2 L635.8,130.6 L637.6,131.5 L639.5,132.8 L641.4,134.7 L643.2,136.9
		L645.1,139.6 L647.0,142.7 L648.8,146.0 L650.7,149.7 L652.6,153.5 L654.5,157.5 L656.3,161.6 L658.2,165.7
		L660.1,169.8 L661.9,173.8 L663.8,177.7 L665.7,181.5 L667.5,185.1 L669.4,188.5 L671.3,191.7 L673.2,194.7
		L675.0,197.5 L676.9,200.1 L678.8,202.5 L680.6,204.8 L682.5,206.9 L684.4,208.9 L686.3,210.8 L688.1,212.7
		L690.0,214.6 L691.9,216.5 L693.7,218.5 L695.6,220.6 L697.5,222.7 L699.3,225.0 L701.2,227.5 L703.1,230.1
		L705.0,232.9 L706.8,235.9 L708.7,239.0 L710.6,242.3 L712.4,245.8 L714.3,249.5 L716.2,253.2 L718.1,257.1
		L719.9,261.1 L721.8,265.2 L723.7,269.4 L725.5,273.5 L727.4,277.7 L729.3,281.9 L731.1,286.1 L733.0,290.2
		L734.9,294.3 L736.8,298.3 L738.6,302.3 L740.5,306.3 L742.4,310.1 L744.2,314.0 L746.1,317.8 L748.0,321.6
		L749.9,325.4 L751.7,329.2 L753.6,333.1 L755.5,336.9 L757.3,340.8 L759.2,344.7 L761.1,348.6 L762.9,352.5
		L764.8,356.4 L766.7,360.3 L768.6,364.2 L770.4,368.0 L772.3,371.7 L774.2,375.4 L776.0,378.9 L777.9,382.3
		L779.8,385.6 L781.7,388.8 L783.5,391.9 L785.4,394.9 L787.3,397.8 L789.1,400.6 L791.0,403.4 L792.9,406.2
		L794.7,409.0 L796.6,411.8 L798.5,414.7 L800.4,417.7 L802.2,420.8 L804.1,424.0 L806.0,427.3 L807.8,430.8
		L809.7,434.4 L811.6,438.1 L813.5,441.9 L815.3,445.9 L817.2,449.9 L819.1,454.0 L820.9,458.1 L822.8,462.2
		L824.7,466.4 L826.5,470.5 L828.4,474.5 L830.3,478.5 L832.2,482.4 L834.0,486.3 L835.9,490.0 L837.8,493.6
		L839.6,497.0 L841.5,500.4 L843.4,503.6 L845.3,506.7 L847.1,509.7 L849.0,512.5 L850.9,515.3 L852.7,517.9
		L854.6,520.4 L856.5,522.8 L858.3,525.1 L860.2,527.4 L862.1,529.5 L864.0,531.6 L865.8,533.6 L867.7,535.6
		L869.6,537.5 L871.4,539.4 L873.3,541.2 L875.2,543.1 L877.1,544.9 L878.9,546.8 L880.8,548.6 L882.7,550.4
		L884.5,552.3 L886.4,554.1 L888.3,556.0 L890.1,557.9 L892.0,559.8 L893.9,561.7 L895.8,563.5 L897.6,565.4
		L899.5,567.2 L901.4,569.0 L903.2,570.8 L905.1,572.5 L907.0,574.1 L908.8,575.6 L910.7,577.1 L912.6,578.4
		L914.5,579.6 L916.3,580.7 L918.2,581.7 L920.1,582.6 L921.9,583.3 L923.8,584.0 L925.7,584.5 L927.6,585.0
		L929.4,585.4 L931.3,585.8 L933.2,586.2 L935.0,586.6 L936.9,587.0 L938.8,587.4 L940.6,587.9 L942.5,588.6
		L944.4,589.3 L946.3,590.1 L948.1,591.1 L950.0,592.2 L951.9,593.4 L953.7,594.8 L955.6,596.2 L957.5,597.8
		L959.4,599.5 L961.2,601.2 L963.1,603.0 L965.0,604.8 L966.8,606.6 L968.7,608.4 L970.6,610.1 L972.4,611.8
		L974.3,613.5 L976.2,615.1 L978.1,616.6 L979.9,618.0 L981.8,619.3 L983.7,620.5 L985.5,621.7 L987.4,622.7
		L989.3,623.7 L991.2,624.5 L993.0,625.3 L994.9,626.1 L996.8,626.7 L998.6,627.3 L1000.5,627.8 L1002.4,628.3
		L1004.2,628.6 L1006.1,629.0 L1008.0,629.2 L1009.9,629.4 L1011.7,629.6 L1013.6,629.7  '/></g>
	</g>
	<g id="gnuplot_plot_2" ><title>Confidence interval</title>
<g fill="none" color="white" stroke="rgb( 31, 120, 180)" stroke-width="1.00" stroke-linecap="butt" stroke-linejoin="miter">
</g>
<g fill="none" color="black" stroke="currentColor" stroke-width="1.00" stroke-linecap="butt" stroke-linejoin="miter">
	<g transform="translate(1089.0,85.0)" stroke="none" fill="black" font-family="Helvetica" font-size="12.00"  text-anchor="start">
		<text><tspan font-family="Helvetica" >Confidence interval</tspan></text>
	</g>
</g>
<g fill="none" color="black" stroke="currentColor" stroke-width="1.00" stroke-linecap="butt" stroke-linejoin="miter">
	<g stroke='none' shape-rendering='crispEdges'>
		<polygon fill = 'rgb( 31, 120, 180)' fill-opacity = '0.250000' points = '1038.5,85.6 1080.7,85.6 1080.7,76.6 1038.5,76.6 '/>
		<polygon fill = 'rgb( 31, 120, 180)' fill-opacity = '0.250000' points = '166.2,581.5 166.2,662.4 168.1,662.4 168.1,580.6 '/>
		<polygon fill = 'rgb( 31, 120, 180)' fill-opacity = '0.250000' points = '168.1,580.6 168.1,662.4 170.0,662.4 170.0,579.7 '/>
		<polygon fill = 'rgb( 31, 120, 180)' fill-opacity = '0.250000' points = '170.0,579.7 170.0,662.4 171.9,662.4 171.9,578.8 '/>
		<polygon fill = 'rgb( 31, 120, 180)' fill-opacity = '0.250000' points = '171.9,578.8 171.9,662.4 173.7,662.4 173.7,577.9 '/>
		<polygon fill = 'rgb( 31, 120, 180)' fill-opacity = '0.250000' points = '173.7,577.9 173.7,662.4 175.6,662.4 175.6,577.2 '/>
		<polygon fill = 'rgb( 31, 120, 180)' fill-opacity = '0.250000' points = '175.6,577.2 175.6,662.4 177.5,662.4 177.5,576.4 '/>
		<polygon fill = 'rgb( 31, 120, 180)' fill-opacity = '0.250000' points = '177.5,576.4 177.5,662.4 179.3,662.4 179.3,575.8 '/>
		<polygon fill = 'rgb( 31, 120, 180)' fill-opacity = '0.250000' points = '179.3,575.8 179.3,662.4 181.2,662.4 181.2,575.2 '/>
		<polygon fill = 'rgb( 31, 120, 180)' fill-opacity = '0.250000' points = '181.2,575.2 181.2,662.4 183.1,662.4 183.1,574.6 '/>
		<polygon fill = 'rgb( 31, 120, 180)' fill-opacity = '0.250000' points = '183.1,574.6 183.1,662.4 185.0,662.4 185.0,574.1 '/>
		<polygon fill = 'rgb( 31, 120, 180)' fill-opacity = '0.250000' points = '185.0,574.1 185.0,662.4 186.8,662.4 186.8,573.7 '/>
		<polygon fill = 'rgb( 31, 120, 180)' fill-opacity = '0.250000' points = '186.8,573.7 186.8,662.4 188.7,662.4 188.7,573.2 '/>
		<polygon fill = 'rgb( 31, 120, 180)' fill-opacity = '0.250000' points = '188.7,573.2 188.7,662.4 190.6,662.4 190.6,572.8 '/>
		<polygon fill = 'rgb( 31, 120, 180)' fill-opacity = '0.250000' points = '190.6,572.8 190.6,662.4 192.4,662.4 192.4,572.5 '/>
		<polygon fill = 'rgb( 31, 120, 180)' fill-opacity = '0.250000' points = '192.4,572.5 192.4,662.4 194.3,662.4 194.3,572.1 '/>
		<polygon fill = 'rgb( 31, 120, 180)' fill-opacity = '0.250000' points = '194.3,572.1 194.3,662.4 196.2,662.4 196.2,571.7 '/>
		<polygon fill = 'rgb( 31, 120, 180)' fill-opacity = '0.250000' points = '196.2,571.7 196.2,662.4 198.0,662.4 198.0,571.3 '/>
		<polygon fill = 'rgb( 31, 120, 180)' fill-opacity = '0.250000' points = '198.0,571.3 198.0,662.4 199.9,662.4 199.9,570.8 '/>
		<polygon fill = 'rgb( 31, 120, 180)' fill-opacity = '0.250000' points = '199.9,570.8 199.9,662.4 201.8,662.4 201.8,570.3 '/>
		<polygon fill = 'rgb( 31, 120, 180)' fill-opacity = '0.250000' points = '201.8,570.3 201.8,662.4 203.7,662.4 203.7,569.7 '/>
		<polygon fill = 'rgb( 31, 120, 180)' fill-opacity = '0.250000' points = '203.7,569.7 203.7,662.4 205.5,662.4 205.5,569.1 '/>
		<polygon fill = 'rgb( 31, 120, 180)' fill-opacity = '0.250000' points = '205.5,569.1 205.5,662.4 207.4,662.4 207.4,568.3 '/>
		<polygon fill = 'rgb( 31, 120, 180)' fill-opacity = '0.250000' points = '207.4,568.3 207.4,662.4 209.3,662.4 209.3,567.4 '/>
		<polygon fill = 'rgb( 31, 120, 180)' fill-opacity = '0.250000' points = '209.3,567.4 209.3,662.4 211.1,662.4 211.1,566.4 '/>
		<polygon fill = 'rgb( 31, 120, 180)' fill-opacity = '0.250000' points = '211.1,566.4 211.1,662.4 213.0,662.4 213.0,565.2 '/>
		<polygon fill = 'rgb( 31, 120, 180)' fill-opacity = '0.250000' points = '213.0,565.2 213.0,662.4 214.9,662.4 214.9,563.9 '/>
		<polygon fill = 'rgb( 31, 120, 180)' fill-opacity = '0.250000' points = '214.9,563.9 214.9,662.4 216.7,662.4 216.7,562.5 '/>
		<polygon fill = 'rgb( 31, 120, 180)' fill-opacity = '0.250000' points = '216.7,562.5 216.7,662.4 218.6,662.4 218.6,560.9 '/>
		<polygon fill = 'rgb( 31, 120, 180)' fill-opacity = '0.250000' points = '218.6,560.9 218.6,662.4 220.5,662.4 220.5,559.1 '/>
		<polygon fill = 'rgb( 31, 120, 180)' fill-opacity = '0.250000' points = '220.5,559.1 220.5,662.4 222.4,662.4 222.4,557.2 '/>
		<polygon fill = 'rgb( 31, 120, 180)' fill-opacity = '0.250000' points = '222.4,557.2 222.4,662.4 224.2,662.4 224.2,555.1 '/>
		<polygon fill = 'rgb( 31, 120, 180)' fill-opacity = '0.250000' points = '224.2,555.1 224.2,662.4 226.1,662.4 226.1,552.8 '/>
		<polygon fill = 'rgb( 31, 120, 180)' fill-opacity = '0.250000' points = '226.1,552.8 226.1,662.4 228.0,662.4 228.0,550.4 '/>
		<polygon fill = 'rgb( 31, 120, 180)' fill-opacity = '0.250000' points = '228.0,550.4 228.0,662.4 229.8,662.4 229.8,547.8 '/>
		<polygon fill = 'rgb( 31, 120, 180)' fill-opacity = '0.250000' points = '229.8,547.8 229.8,662.4 231.7,662.4 231.7,545.1 '/>
		<polygon fill = 'rgb( 31, 120, 180)' fill-opacity = '0.250000' points = '231.7,545.1 231.7,662.4 233.6,662.4 233.6,542.2 '/>
		<polygon fill = 'rgb( 31, 120, 180)' fill-opacity = '0.250000' points = '233.6,542.2 233.6,662.4 235.5,662.4 235.5,539.2 '/>
		<polygon fill = 'rgb( 31, 120, 180)' fill-opacity = '0.250000' points = '235.5,539.2 235.5,662.4 237.3,662.4 237.3,536.0 '/>
		<polygon fill = 'rgb( 31, 120, 180)' fill-opacity = '0.250000' points = '237.3,536.0 237.3,662.4 239.2,662.4 239.2,532.7 '/>
		<polygon fill = 'rgb( 31, 120, 180)' fill-opacity = '0.250000' points = '239.2,532.7 239.2,662.4 241.1,662.4 241.1,529.2 '/>
		<polygon fill = 'rgb( 31, 120, 180)' fill-opacity = '0.250000' points = '241.1,529.2 241.1,662.4 242.9,662.4 242.9,525.6 '/>
		<polygon fill = 'rgb( 31, 120, 180)' fill-opacity = '0.250000' points = '242.9,525.6 242.9,662.4 244.8,662.4 244.8,521.8 '/>
		<polygon fill = 'rgb( 31, 120, 180)' fill-opacity = '0.250000' points = '244.8,521.8 244.8,662.4 246.7,662.4 246.7,518.0 '/>
		<polygon fill = 'rgb( 31, 120, 180)' fill-opacity = '0.250000' points = '246.7,518.0 246.7,662.4 248.5,662.4 248.5,514.0 '/>
		<polygon fill = 'rgb( 31, 120, 180)' fill-opacity = '0.250000' points = '248.5,514.0 248.5,662.4 250.4,662.4 250.4,509.8 '/>
		<polygon fill = 'rgb( 31, 120, 180)' fill-opacity = '0.250000' points = '250.4,509.8 250.4,662.4 252.3,662.4 252.3,505.5 '/>
		<polygon fill = 'rgb( 31, 120, 180)' fill-opacity = '0.250000' points = '252.3,505.5 252.3,662.4 254.2,662.4 254.2,501.1 '/>
		<polygon fill = 'rgb( 31, 120, 180)' fill-opacity = '0.250000' points = '254.2,501.1 254.2,662.4 256.0,662.4 256.0,496.6 '/>
		<polygon fill = 'rgb( 31, 120, 180)' fill-opacity = '0.250000' points = '256.0,496.6 256.0,662.4 257.9,662.4 257.9,492.0 '/>
		<polygon fill = 'rgb( 31, 120, 180)' fill-opacity = '0.250000' points = '257.9,492.0 257.9,662.4 259.8,662.4 259.8,487.2 '/>
		<polygon fill = 'rgb( 31, 120, 180)' fill-opacity = '0.250000' points = '259.8,487.2 259.8,662.4 261.6,662.4 261.6,482.4 '/>
		<polygon fill = 'rgb( 31, 120, 180)' fill-opacity = '0.250000' points = '261.6,482.4 261.6,662.4 263.5,662.4 263.5,477.4 '/>
		<polygon fill = 'rgb( 31, 120, 180)' fill-opacity = '0.250000' points = '263.5,477.4 263.5,662.4 265.4,662.4 265.4,472.4 '/>
		<polygon fill = 'rgb( 31, 120, 180)' fill-opacity = '0.250000' points = '265.4,472.4 265.4,662.4 267.3,662.4 267.3,467.3 '/>
		<polygon fill = 'rgb( 31, 120, 180)' fill-opacity = '0.250000' points = '267.3,467.3 267.3,662.4 269.1,662.4 269.1,462.1 '/>
		<polygon fill = 'rgb( 31, 120, 180)' fill-opacity = '0.250000' points = '269.1,462.1 269.1,662.4 271.0,662.4 271.0,456.9 '/>
		<polygon fill = 'rgb( 31, 120, 180)' fill-opacity = '0.250000' points = '271.0,456.9 271.0,662.4 272.9,662.4 272.9,451.6 '/>
		<polygon fill = 'rgb( 31, 120, 180)' fill-opacity = '0.250000' points = '272.9,451.6 272.9,662.4 274.7,662.4 274.7,446.4 '/>
		<polygon fill = 'rgb( 31, 120, 180)' fill-opacity = '0.250000' points = '274.7,446.4 274.7,662.4 276.6,662.4 276.6,441.1 '/>
		<polygon fill = 'rgb( 31, 120, 180)' fill-opacity = '0.250000' points = '276.6,441.1 276.6,662.4 278.5,662.4 278.5,435.9 '/>
		<polygon fill = 'rgb( 31, 120, 180)' fill-opacity = '0.250000' points = '278.5,435.9 278.5,662.4 280.3,662.4 280.3,430.7 '/>
		<polygon fill = 'rgb( 31, 120, 180)' fill-opacity = '0.250000' points = '280.3,430.7 280.3,662.4 282.2,662.4 282.2,425.5 '/>
		<polygon fill = 'rgb( 31, 120, 180)' fill-opacity = '0.250000' points = '282.2,425.5 282.2,662.4 284.1,662.4 284.1,420.4 '/>
		<polygon fill = 'rgb( 31, 120, 180)' fill-opacity = '0.250000' points = '284.1,420.4 284.1,662.4 286.0,662.4 286.0,415.4 '/>
		<polygon fill = 'rgb( 31, 120, 180)' fill-opacity = '0.250000' points = '286.0,415.4 286.0,662.4 287.8,662.4 287.8,410.4 '/>
		<polygon fill = 'rgb( 31, 120, 180)' fill-opacity = '0.250000' points = '287.8,410.4 287.8,662.4 289.7,662.4 289.7,405.5 '/>
		<polygon fill = 'rgb( 31, 120, 180)' fill-opacity = '0.250000' points = '289.7,405.5 289.7,662.4 291.6,662.4 291.6,400.7 '/>
		<polygon fill = 'rgb( 31, 120, 180)' fill-opacity = '0.250000' points = '291.6,400.7 291.6,662.4 293.4,662.4 293.4,395.9 '/>
		<polygon fill = 'rgb( 31, 120, 180)' fill-opacity = '0.250000' points = '293.4,395.9 293.4,662.4 295.3,662.4 295.3,391.1 '/>
		<polygon fill = 'rgb( 31, 120, 180)' fill-opacity = '0.250000' points = '295.3,391.1 295.3,662.4 297.2,662.4 297.2,386.4 '/>
		<polygon fill = 'rgb( 31, 120, 180)' fill-opacity = '0.250000' points = '297.2,386.4 297.2,662.4 299.1,662.4 299.1,381.6 '/>
		<polygon fill = 'rgb( 31, 120, 180)' fill-opacity = '0.250000' points = '299.1,381.6 299.1,662.4 300.9,662.4 300.9,376.9 '/>
		<polygon fill = 'rgb( 31, 120, 180)' fill-opacity = '0.250000' points = '300.9,376.9 300.9,662.4 302.8,662.4 302.8,372.0 '/>
		<polygon fill = 'rgb( 31, 120, 180)' fill-opacity = '0.250000' points = '302.8,372.0 302.8,662.4 304.7,662.4 304.7,367.1 '/>
		<polygon fill = 'rgb( 31, 120, 180)' fill-opacity = '0.250000' points = '304.7,367.1 304.7,662.4 306.5,662.4 306.5,362.1 '/>
		<polygon fill = 'rgb( 31, 120, 180)' fill-opacity = '0.250000' points = '306.5,362.1 306.5,662.4 308.4,662.4 308.4,356.9 '/>
		<polygon fill = 'rgb( 31, 120, 180)' fill-opacity = '0.250000' points = '308.4,356.9 308.4,662.4 310.3,662.4 310.3,351.5 '/>
		<polygon fill = 'rgb( 31, 120, 180)' fill-opacity = '0.250000' points = '310.3,351.5 310.3,662.4 312.1,662.4 312.1,346.0 '/>
		<polygon fill = 'rgb( 31, 120, 180)' fill-opacity = '0.250000' points = '312.1,346.0 312.1,662.4 314.0,662.4 314.0,340.3 '/>
		<polygon fill = 'rgb( 31, 120, 180)' fill-opacity = '0.250000' points = '314.0,340.3 314.0,662.4 315.9,662.4 315.9,334.4 '/>
		<polygon fill = 'rgb( 31, 120, 180)' fill-opacity = '0.250000' points = '315.9,334.4 315.9,662.4 317.8,662.4 317.8,328.2 '/>
		<polygon fill = 'rgb( 31, 120, 180)' fill-opacity = '0.250000' points = '317.8,328.2 317.8,662.4 319.6,662.4 319.6,321.8 '/>
		<polygon fill = 'rgb( 31, 120, 180)' fill-opacity = '0.250000' points = '319.6,321.8 319.6,662.4 321.5,662.4 321.5,315.2 '/>
		<polygon fill = 'rgb( 31, 120, 180)' fill-opacity = '0.250000' points = '321.5,315.2 321.5,662.4 323.4,662.4 323.4,308.3 '/>
		<polygon fill = 'rgb( 31, 120, 180)' fill-opacity = '0.250000' points = '323.4,308.3 323.4,662.4 325.2,662.4 325.2,301.3 '/>
		<polygon fill = 'rgb( 31, 120, 180)' fill-opacity = '0.250000' points = '325.2,301.3 325.2,662.4 327.1,662.4 327.1,294.0 '/>
		<polygon fill = 'rgb( 31, 120, 180)' fill-opacity = '0.250000' points = '327.1,294.0 327.1,662.4 329.0,662.4 329.0,286.6 '/>
		<polygon fill = 'rgb( 31, 120, 180)' fill-opacity = '0.250000' points = '329.0,286.6 329.0,662.4 330.9,662.4 330.9,279.1 '/>
		<polygon fill = 'rgb( 31, 120, 180)' fill-opacity = '0.250000' points = '330.9,279.1 330.9,662.4 332.7,662.4 332.7,271.4 '/>
		<polygon fill = 'rgb( 31, 120, 180)' fill-opacity = '0.250000' points = '332.7,271.4 332.7,662.4 334.6,662.4 334.6,263.6 '/>
		<polygon fill = 'rgb( 31, 120, 180)' fill-opacity = '0.250000' points = '334.6,263.6 334.6,662.4 336.5,662.4 336.5,255.8 '/>
		<polygon fill = 'rgb( 31, 120, 180)' fill-opacity = '0.250000' points = '336.5,255.8 336.5,662.4 338.3,662.4 338.3,247.9 '/>
		<polygon fill = 'rgb( 31, 120, 180)' fill-opacity = '0.250000' points = '338.3,247.9 338.3,662.4 340.2,662.4 340.2,240.1 '/>
		<polygon fill = 'rgb( 31, 120, 180)' fill-opacity = '0.250000' points = '340.2,240.1 340.2,662.4 342.1,662.4 342.1,232.2 '/>
		<polygon fill = 'rgb( 31, 120, 180)' fill-opacity = '0.250000' points = '342.1,232.2 342.1,662.4 343.9,662.4 343.9,224.5 '/>
		<polygon fill = 'rgb( 31, 120, 180)' fill-opacity = '0.250000' points = '343.9,224.5 343.9,662.4 345.8,662.4 345.8,216.8 '/>
		<polygon fill = 'rgb( 31, 120, 180)' fill-opacity = '0.250000' points = '345.8,216.8 345.8,662.4 347.7,662.4 347.7,209.2 '/>
		<polygon fill = 'rgb( 31, 120, 180)' fill-opacity = '0.250000' points = '347.7,209.2 347.7,662.4 349.6,662.4 349.6,201.7 '/>
		<polygon fill = 'rgb( 31, 120, 180)' fill-opacity = '0.250000' points = '349.6,201.7 349.6,662.4 351.4,662.4 351.4,194.4 '/>
		<polygon fill = 'rgb( 31, 120, 180)' fill-opacity = '0.250000' points = '351.4,194.4 351.4,662.4 353.3,662.4 353.3,187.3 '/>
		<polygon fill = 'rgb( 31, 120, 180)' fill-opacity = '0.250000' points = '353.3,187.3 353.3,662.4 355.2,662.4 355.2,180.3 '/>
		<polygon fill = 'rgb( 31, 120, 180)' fill-opacity = '0.250000' points = '355.2,180.3 355.2,662.4 357.0,662.4 357.0,173.6 '/>
		<polygon fill = 'rgb( 31, 120, 180)' fill-opacity = '0.250000' points = '357.0,173.6 357.0,662.4 358.9,662.4 358.9,167.1 '/>
		<polygon fill = 'rgb( 31, 120, 180)' fill-opacity = '0.250000' points = '358.9,167.1 358.9,662.4 360.8,662.4 360.8,160.8 '/>
		<polygon fill = 'rgb( 31, 120, 180)' fill-opacity = '0.250000' points = '360.8,160.8 360.8,662.4 362.7,662.4 362.7,154.8 '/>
		<polygon fill = 'rgb( 31, 120, 180)' fill-opacity = '0.250000' points = '362.7,154.8 362.7,662.4 364.5,662.4 364.5,149.2 '/>
		<polygon fill = 'rgb( 31, 120, 180)' fill-opacity = '0.250000' points = '364.5,149.2 364.5,662.4 366.4,662.4 366.4,143.8 '/>
		<polygon fill = 'rgb( 31, 120, 180)' fill-opacity = '0.250000' points = '366.4,143.8 366.4,662.4 368.3,662.4 368.3,138.9 '/>
		<polygon fill = 'rgb( 31, 120, 180)' fill-opacity = '0.250000' points = '368.3,138.9 368.3,662.4 370.1,662.4 370.1,134.3 '/>
		<polygon fill = 'rgb( 31, 120, 180)' fill-opacity = '0.250000' points = '370.1,134.3 370.1,662.4 372.0,662.4 372.0,130.1 '/>
		<polygon fill = 'rgb( 31, 120, 180)' fill-opacity = '0.250000' points = '372.0,130.1 372.0,662.4 373.9,662.4 373.9,126.4 '/>
		<polygon fill = 'rgb( 31, 120, 180)' fill-opacity = '0.250000' points = '373.9,126.4 373.9,662.4 375.7,662.4 375.7,123.1 '/>
		<polygon fill = 'rgb( 31, 120, 180)' fill-opacity = '0.250000' points = '375.7,123.1 375.7,662.4 377.6,662.4 377.6,120.4 '/>
		<polygon fill = 'rgb( 31, 120, 180)' fill-opacity = '0.250000' points = '377.6,120.4 377.6,662.4 379.5,662.4 379.5,118.1 '/>
		<polygon fill = 'rgb( 31, 120, 180)' fill-opacity = '0.250000' points = '379.5,118.1 379.5,662.4 381.4,662.4 381.4,116.4 '/>
		<polygon fill = 'rgb( 31, 120, 180)' fill-opacity = '0.250000' points = '381.4,116.4 381.4,662.4 383.2,662.4 383.2,115.2 '/>
		<polygon fill = 'rgb( 31, 120, 180)' fill-opacity = '0.250000' points = '383.2,115.2 383.2,662.4 385.1,662.4 385.1,114.4 '/>
		<polygon fill = 'rgb( 31, 120, 180)' fill-opacity = '0.250000' points = '385.1,114.4 385.1,662.4 387.0,662.4 387.0,114.2 '/>
		<polygon fill = 'rgb( 31, 120, 180)' fill-opacity = '0.250000' points = '387.0,114.2 387.0,662.4 388.8,662.4 388.8,114.5 '/>
		<polygon fill = 'rgb( 31, 120, 180)' fill-opacity = '0.250000' points = '388.8,114.5 388.8,662.4 390.7,662.4 390.7,115.1 '/>
		<polygon fill = 'rgb( 31, 120, 180)' fill-opacity = '0.250000' points = '390.7,115.1 390.7,662.4 392.6,662.4 392.6,116.2 '/>
		<polygon fill = 'rgb( 31, 120, 180)' fill-opacity = '0.250000' points = '392.6,116.2 392.6,662.4 394.5,662.4 394.5,117.6 '/>
		<polygon fill = 'rgb( 31, 120, 180)' fill-opacity = '0.250000' points = '394.5,117.6 394.5,662.4 396.3,662.4 396.3,119.2 '/>
		<polygon fill = 'rgb( 31, 120, 180)' fill-opacity = '0.250000' points = '396.3,119.2 396.3,662.4 398.2,662.4 398.2,121.1 '/>
		<polygon fill = 'rgb( 31, 120, 180)' fill-opacity = '0.250000' points = '398.2,121.1 398.2,662.4 400.1,662.4 400.1,123.1 '/>
		<polygon fill = 'rgb( 31, 120, 180)' fill-opacity = '0.250000' points = '400.1,123.1 400.1,662.4 401.9,662.4 401.9,125.2 '/>
		<polygon fill = 'rgb( 31, 120, 180)' fill-opacity = '0.250000' points = '401.9,125.2 401.9,662.4 403.8,662.4 403.8,127.3 '/>
		<polygon fill = 'rgb( 31, 120, 180)' fill-opacity = '0.250000' points = '403.8,127.3 403.8,662.4 405.7,662.4 405.7,129.3 '/>
		<polygon fill = 'rgb( 31, 120, 180)' fill-opacity = '0.250000' points = '405.7,129.3 405.7,662.4 407.5,662.4 407.5,131.2 '/>
		<polygon fill = 'rgb( 31, 120, 180)' fill-opacity = '0.250000' points = '407.5,131.2 407.5,662.4 409.4,662.4 409.4,132.9 '/>
		<polygon fill = 'rgb( 31, 120, 180)' fill-opacity = '0.250000' points = '409.4,132.9 409.4,662.4 411.3,662.4 411.3,134.5 '/>
		<polygon fill = 'rgb( 31, 120, 180)' fill-opacity = '0.250000' points = '411.3,134.5 411.3,662.4 413.2,662.4 413.2,135.7 '/>
		<polygon fill = 'rgb( 31, 120, 180)' fill-opacity = '0.250000' points = '413.2,135.7 413.2,662.4 415.0,662.4 415.0,136.7 '/>
		<polygon fill = 'rgb( 31, 120, 180)' fill-opacity = '0.250000' points = '415.0,136.7 415.0,662.4 416.9,662.4 416.9,137.5 '/>
		<polygon fill = 'rgb( 31, 120, 180)' fill-opacity = '0.250000' points = '416.9,137.5 416.9,662.4 418.8,662.4 418.8,138.0 '/>
		<polygon fill = 'rgb( 31, 120, 180)' fill-opacity = '0.250000' points = '418.8,138.0 418.8,662.4 420.6,662.4 420.6,138.2 '/>
		<polygon fill = 'rgb( 31, 120, 180)' fill-opacity = '0.250000' points = '420.6,138.2 420.6,662.4 422.5,662.4 422.5,138.2 '/>
		<polygon fill = 'rgb( 31, 120, 180)' fill-opacity = '0.250000' points = '422.5,138.2 422.5,662.4 424.4,662.4 424.4,138.1 '/>
		<polygon fill = 'rgb( 31, 120, 180)' fill-opacity = '0.250000' points = '424.4,138.1 424.4,662.4 426.3,662.4 426.3,137.8 '/>
		<polygon fill = 'rgb( 31, 120, 180)' fill-opacity = '0.250000' points = '426.3,137.8 426.3,662.4 428.1,662.4 428.1,137.5 '/>
		<polygon fill = 'rgb( 31, 120, 180)' fill-opacity = '0.250000' points = '428.1,137.5 428.1,662.4 430.0,662.4 430.0,137.2 '/>
		<polygon fill = 'rgb( 31, 120, 180)' fill-opacity = '0.250000' points = '430.0,137.2 430.0,662.4 431.9,662.4 431.9,136.9 '/>
		<polygon fill = 'rgb( 31, 120, 180)' fill-opacity = '0.250000' points = '431.9,136.9 431.9,662.4 433.7,662.4 433.7,136.7 '/>
		<polygon fill = 'rgb( 31, 120, 180)' fill-opacity = '0.250000' points = '433.7,136.7 433.7,662.4 435.6,662.4 435.6,136.7 '/>
		<polygon fill = 'rgb( 31, 120, 180)' fill-opacity = '0.250000' points = '435.6,136.7 435.6,662.4 437.5,662.4 437.5,136.8 '/>
		<polygon fill = 'rgb( 31, 120, 180)' fill-opacity = '0.250000' points = '437.5,136.8 437.5,662.4 439.3,662.4 439.3,137.2 '/>
		<polygon fill = 'rgb( 31, 120, 180)' fill-opacity = '0.250000' points = '439.3,137.2 439.3,662.4 441.2,662.4 441.2,137.9 '/>
		<polygon fill = 'rgb( 31, 120, 180)' fill-opacity = '0.250000' points = '441.2,137.9 441.2,662.4 443.1,662.4 443.1,138.8 '/>
		<polygon fill = 'rgb( 31, 120, 180)' fill-opacity = '0.250000' points = '443.1,138.8 443.1,662.4 445.0,662.4 445.0,139.9 '/>
		<polygon fill = 'rgb( 31, 120, 180)' fill-opacity = '0.250000' points = '445.0,139.9 445.0,662.4 446.8,662.4 446.8,141.4 '/>
		<polygon fill = 'rgb( 31, 120, 180)' fill-opacity = '0.250000' points = '446.8,141.4 446.8,662.4 448.7,662.4 448.7,143.0 '/>
		<polygon fill = 'rgb( 31, 120, 180)' fill-opacity = '0.250000' points = '448.7,143.0 448.7,662.4 450.6,662.4 450.6,144.8 '/>
		<polygon fill = 'rgb( 31, 120, 180)' fill-opacity = '0.250000' points = '450.6,144.8 450.6,662.4 452.4,662.4 452.4,146.7 '/>
		<polygon fill = 'rgb( 31, 120, 180)' fill-opacity = '0.250000' points = '452.4,146.7 452.4,662.4 454.3,662.4 454.3,148.7 '/>
		<polygon fill = 'rgb( 31, 120, 180)' fill-opacity = '0.250000' points = '454.3,148.7 454.3,662.4 456.2,662.4 456.2,150.7 '/>
		<polygon fill = 'rgb( 31, 120, 180)' fill-opacity = '0.250000' points = '456.2,150.7 456.2,662.4 458.0,662.4 458.0,152.7 '/>
		<polygon fill = 'rgb( 31, 120, 180)' fill-opacity = '0.250000' points = '458.0,152.7 458.0,662.4 459.9,662.4 459.9,154.5 '/>
		<polygon fill = 'rgb( 31, 120, 180)' fill-opacity = '0.250000' points = '459.9,154.5 459.9,662.4 461.8,662.4 461.8,156.1 '/>
		<polygon fill = 'rgb( 31, 120, 180)' fill-opacity = '0.250000' points = '461.8,156.1 461.8,662.4 463.7,662.4 463.7,157.6 '/>
		<polygon fill = 'rgb( 31, 120, 180)' fill-opacity = '0.250000' points = '463.7,157.6 463.7,662.4 465.5,662.4 465.5,158.7 '/>
		<polygon fill = 'rgb( 31, 120, 180)' fill-opacity = '0.250000' points = '465.5,158.7 465.5,662.4 467.4,662.4 467.4,159.5 '/>
		<polygon fill = 'rgb( 31, 120, 180)' fill-opacity = '0.250000' points = '467.4,159.5 467.4,662.4 469.3,662.4 469.3,160.0 '/>
		<polygon fill = 'rgb( 31, 120, 180)' fill-opacity = '0.250000' points = '469.3,160.0 469.3,662.4 471.1,662.4 471.1,160.0 '/>
		<polygon fill = 'rgb( 31, 120, 180)' fill-opacity = '0.250000' points = '471.1,160.0 471.1,662.4 473.0,662.4 473.0,159.7 '/>
		<polygon fill = 'rgb( 31, 120, 180)' fill-opacity = '0.250000' points = '473.0,159.7 473.0,662.4 474.9,662.4 474.9,159.0 '/>
		<polygon fill = 'rgb( 31, 120, 180)' fill-opacity = '0.250000' points = '474.9,159.0 474.9,662.4 476.8,662.4 476.8,158.0 '/>
		<polygon fill = 'rgb( 31, 120, 180)' fill-opacity = '0.250000' points = '476.8,158.0 476.8,662.4 478.6,662.4 478.6,156.6 '/>
		<polygon fill = 'rgb( 31, 120, 180)' fill-opacity = '0.250000' points = '478.6,156.6 478.6,662.4 480.5,662.4 480.5,154.9 '/>
		<polygon fill = 'rgb( 31, 120, 180)' fill-opacity = '0.250000' points = '480.5,154.9 480.5,662.4 482.4,662.4 482.4,152.9 '/>
		<polygon fill = 'rgb( 31, 120, 180)' fill-opacity = '0.250000' points = '482.4,152.9 482.4,662.4 484.2,662.4 484.2,150.7 '/>
		<polygon fill = 'rgb( 31, 120, 180)' fill-opacity = '0.250000' points = '484.2,150.7 484.2,662.4 486.1,662.4 486.1,148.4 '/>
		<polygon fill = 'rgb( 31, 120, 180)' fill-opacity = '0.250000' points = '486.1,148.4 486.1,662.4 488.0,662.4 488.0,146.0 '/>
		<polygon fill = 'rgb( 31, 120, 180)' fill-opacity = '0.250000' points = '488.0,146.0 488.0,662.4 489.8,662.4 489.8,143.5 '/>
		<polygon fill = 'rgb( 31, 120, 180)' fill-opacity = '0.250000' points = '489.8,143.5 489.8,662.4 491.7,662.4 491.7,141.0 '/>
		<polygon fill = 'rgb( 31, 120, 180)' fill-opacity = '0.250000' points = '491.7,141.0 491.7,662.4 493.6,662.4 493.6,138.6 '/>
		<polygon fill = 'rgb( 31, 120, 180)' fill-opacity = '0.250000' points = '493.6,138.6 493.6,662.4 495.5,662.4 495.5,136.4 '/>
		<polygon fill = 'rgb( 31, 120, 180)' fill-opacity = '0.250000' points = '495.5,136.4 495.5,662.4 497.3,662.4 497.3,134.3 '/>
		<polygon fill = 'rgb( 31, 120, 180)' fill-opacity = '0.250000' points = '497.3,134.3 497.3,662.4 499.2,662.4 499.2,132.4 '/>
		<polygon fill = 'rgb( 31, 120, 180)' fill-opacity = '0.250000' points = '499.2,132.4 499.2,662.4 501.1,662.4 501.1,130.7 '/>
		<polygon fill = 'rgb( 31, 120, 180)' fill-opacity = '0.250000' points = '501.1,130.7 501.1,662.4 502.9,662.4 502.9,129.3 '/>
		<polygon fill = 'rgb( 31, 120, 180)' fill-opacity = '0.250000' points = '502.9,129.3 502.9,662.4 504.8,662.4 504.8,128.2 '/>
		<polygon fill = 'rgb( 31, 120, 180)' fill-opacity = '0.250000' points = '504.8,128.2 504.8,662.4 506.7,662.4 506.7,127.4 '/>
		<polygon fill = 'rgb( 31, 120, 180)' fill-opacity = '0.250000' points = '506.7,127.4 506.7,662.4 508.6,662.4 508.6,126.8 '/>
		<polygon fill = 'rgb( 31, 120, 180)' fill-opacity = '0.250000' points = '508.6,126.8 508.6,662.4 510.4,662.4 510.4,126.6 '/>
		<polygon fill = 'rgb( 31, 120, 180)' fill-opacity = '0.250000' points = '510.4,126.6 510.4,662.4 512.3,662.4 512.3,126.7 '/>
		<polygon fill = 'rgb( 31, 120, 180)' fill-opacity = '0.250000' points = '512.3,126.7 512.3,662.4 514.2,662.4 514.2,127.1 '/>
		<polygon fill = 'rgb( 31, 120, 180)' fill-opacity = '0.250000' points = '514.2,127.1 514.2,662.4 516.0,662.4 516.0,127.8 '/>
		<polygon fill = 'rgb( 31, 120, 180)' fill-opacity = '0.250000' points = '516.0,127.8 516.0,662.4 517.9,662.4 517.9,128.8 '/>
		<polygon fill = 'rgb( 31, 120, 180)' fill-opacity = '0.250000' points = '517.9,128.8 517.9,662.4 519.8,662.4 519.8,130.0 '/>
		<polygon fill = 'rgb( 31, 120, 180)' fill-opacity = '0.250000' points = '519.8,130.0 519.8,662.4 521.6,662.4 521.6,131.4 '/>
		<polygon fill = 'rgb( 31, 120, 180)' fill-opacity = '0.250000' points = '521.6,131.4 521.6,662.4 523.5,662.4 523.5,133.0 '/>
		<polygon fill = 'rgb( 31, 120, 180)' fill-opacity = '0.250000' points = '523.5,133.0 523.5,662.4 525.4,662.4 525.4,134.8 '/>
		<polygon fill = 'rgb( 31, 120, 180)' fill-opacity = '0.250000' points = '525.4,134.8 525.4,662.4 527.3,662.4 527.3,136.7 '/>
		<polygon fill = 'rgb( 31, 120, 180)' fill-opacity = '0.250000' points = '527.3,136.7 527.3,662.4 529.1,662.4 529.1,138.7 '/>
		<polygon fill = 'rgb( 31, 120, 180)' fill-opacity = '0.250000' points = '529.1,138.7 529.1,662.4 531.0,662.4 531.0,140.7 '/>
		<polygon fill = 'rgb( 31, 120, 180)' fill-opacity = '0.250000' points = '531.0,140.7 531.0,662.4 532.9,662.4 532.9,142.8 '/>
		<polygon fill = 'rgb( 31, 120, 180)' fill-opacity = '0.250000' points = '532.9,142.8 532.9,662.4 534.7,662.4 534.7,144.8 '/>
		<polygon fill = 'rgb( 31, 120, 180)' fill-opacity = '0.250000' points = '534.7,144.8 534.7,662.4 536.6,662.4 536.6,146.8 '/>
		<polygon fill = 'rgb( 31, 120, 180)' fill-opacity = '0.250000' points = '536.6,146.8 536.6,662.4 538.5,662.4 538.5,148.7 '/>
		<polygon fill = 'rgb( 31, 120, 180)' fill-opacity = '0.250000' points = '538.5,148.7 538.5,662.4 540.4,662.4 540.4,150.5 '/>
		<polygon fill = 'rgb( 31, 120, 180)' fill-opacity = '0.250000' points = '540.4,150.5 540.4,662.4 542.2,662.4 542.2,152.2 '/>
		<polygon fill = 'rgb( 31, 120, 180)' fill-opacity = '0.250000' points = '542.2,152.2 542.2,662.4 544.1,662.4 544.1,153.7 '/>
		<polygon fill = 'rgb( 31, 120, 180)' fill-opacity = '0.250000' points = '544.1,153.7 544.1,662.4 546.0,662.4 546.0,155.1 '/>
		<polygon fill = 'rgb( 31, 120, 180)' fill-opacity = '0.250000' points = '546.0,155.1 546.0,662.4 547.8,662.4 547.8,156.2 '/>
		<polygon fill = 'rgb( 31, 120, 180)' fill-opacity = '0.250000' points = '547.8,156.2 547.8,662.4 549.7,662.4 549.7,157.2 '/>
		<polygon fill = 'rgb( 31, 120, 180)' fill-opacity = '0.250000' points = '549.7,157.2 549.7,662.4 551.6,662.4 551.6,157.9 '/>
		<polygon fill = 'rgb( 31, 120, 180)' fill-opacity = '0.250000' points = '551.6,157.9 551.6,662.4 553.4,662.4 553.4,158.6 '/>
		<polygon fill = 'rgb( 31, 120, 180)' fill-opacity = '0.250000' points = '553.4,158.6 553.4,662.4 555.3,662.4 555.3,159.0 '/>
		<polygon fill = 'rgb( 31, 120, 180)' fill-opacity = '0.250000' points = '555.3,159.0 555.3,662.4 557.2,662.4 557.2,159.3 '/>
		<polygon fill = 'rgb( 31, 120, 180)' fill-opacity = '0.250000' points = '557.2,159.3 557.2,662.4 559.1,662.4 559.1,159.5 '/>
		<polygon fill = 'rgb( 31, 120, 180)' fill-opacity = '0.250000' points = '559.1,159.5 559.1,662.4 560.9,662.4 560.9,159.7 '/>
		<polygon fill = 'rgb( 31, 120, 180)' fill-opacity = '0.250000' points = '560.9,159.7 560.9,662.4 562.8,662.4 562.8,159.8 '/>
		<polygon fill = 'rgb( 31, 120, 180)' fill-opacity = '0.250000' points = '562.8,159.8 562.8,662.4 564.7,662.4 564.7,159.9 '/>
		<polygon fill = 'rgb( 31, 120, 180)' fill-opacity = '0.250000' points = '564.7,159.9 564.7,662.4 566.5,662.4 566.5,160.0 '/>
		<polygon fill = 'rgb( 31, 120, 180)' fill-opacity = '0.250000' points = '566.5,160.0 566.5,662.4 568.4,662.4 568.4,160.1 '/>
		<polygon fill = 'rgb( 31, 120, 180)' fill-opacity = '0.250000' points = '568.4,160.1 568.4,662.4 570.3,662.4 570.3,160.3 '/>
		<polygon fill = 'rgb( 31, 120, 180)' fill-opacity = '0.250000' points = '570.3,160.3 570.3,662.4 572.2,662.4 572.2,160.6 '/>
		<polygon fill = 'rgb( 31, 120, 180)' fill-opacity = '0.250000' points = '572.2,160.6 572.2,662.4 574.0,662.4 574.0,161.0 '/>
		<polygon fill = 'rgb( 31, 120, 180)' fill-opacity = '0.250000' points = '574.0,161.0 574.0,662.4 575.9,662.4 575.9,161.5 '/>
		<polygon fill = 'rgb( 31, 120, 180)' fill-opacity = '0.250000' points = '575.9,161.5 575.9,662.4 577.8,662.4 577.8,162.0 '/>
		<polygon fill = 'rgb( 31, 120, 180)' fill-opacity = '0.250000' points = '577.8,162.0 577.8,662.4 579.6,662.4 579.6,162.7 '/>
		<polygon fill = 'rgb( 31, 120, 180)' fill-opacity = '0.250000' points = '579.6,162.7 579.6,662.4 581.5,662.4 581.5,163.3 '/>
		<polygon fill = 'rgb( 31, 120, 180)' fill-opacity = '0.250000' points = '581.5,163.3 581.5,662.4 583.4,662.4 583.4,164.0 '/>
		<polygon fill = 'rgb( 31, 120, 180)' fill-opacity = '0.250000' points = '583.4,164.0 583.4,662.4 585.2,662.4 585.2,164.7 '/>
		<polygon fill = 'rgb( 31, 120, 180)' fill-opacity = '0.250000' points = '585.2,164.7 585.2,662.4 587.1,662.4 587.1,165.3 '/>
		<polygon fill = 'rgb( 31, 120, 180)' fill-opacity = '0.250000' points = '587.1,165.3 587.1,662.4 589.0,662.4 589.0,165.8 '/>
		<polygon fill = 'rgb( 31, 120, 180)' fill-opacity = '0.250000' points = '589.0,165.8 589.0,662.4 590.9,662.4 590.9,166.1 '/>
		<polygon fill = 'rgb( 31, 120, 180)' fill-opacity = '0.250000' points = '590.9,166.1 590.9,662.4 592.7,662.4 592.7,166.2 '/>
		<polygon fill = 'rgb( 31, 120, 180)' fill-opacity = '0.250000' points = '592.7,166.2 592.7,662.4 594.6,662.4 594.6,166.2 '/>
		<polygon fill = 'rgb( 31, 120, 180)' fill-opacity = '0.250000' points = '594.6,166.2 594.6,662.4 596.5,662.4 596.5,165.8 '/>
		<polygon fill = 'rgb( 31, 120, 180)' fill-opacity = '0.250000' points = '596.5,165.8 596.5,662.4 598.3,662.4 598.3,165.2 '/>
		<polygon fill = 'rgb( 31, 120, 180)' fill-opacity = '0.250000' points = '598.3,165.2 598.3,662.4 600.2,662.4 600.2,164.3 '/>
		<polygon fill = 'rgb( 31, 120, 180)' fill-opacity = '0.250000' points = '600.2,164.3 600.2,662.4 602.1,662.4 602.1,163.1 '/>
		<polygon fill = 'rgb( 31, 120, 180)' fill-opacity = '0.250000' points = '602.1,163.1 602.1,662.4 604.0,662.4 604.0,161.5 '/>
		<polygon fill = 'rgb( 31, 120, 180)' fill-opacity = '0.250000' points = '604.0,161.5 604.0,662.4 605.8,662.4 605.8,159.7 '/>
		<polygon fill = 'rgb( 31, 120, 180)' fill-opacity = '0.250000' points = '605.8,159.7 605.8,662.4 607.7,662.4 607.7,157.6 '/>
		<polygon fill = 'rgb( 31, 120, 180)' fill-opacity = '0.250000' points = '607.7,157.6 607.7,662.4 609.6,662.4 609.6,155.3 '/>
		<polygon fill = 'rgb( 31, 120, 180)' fill-opacity = '0.250000' points = '609.6,155.3 609.6,662.4 611.4,662.4 611.4,152.8 '/>
		<polygon fill = 'rgb( 31, 120, 180)' fill-opacity = '0.250000' points = '611.4,152.8 611.4,662.4 613.3,662.4 613.3,150.2 '/>
		<polygon fill = 'rgb( 31, 120, 180)' fill-opacity = '0.250000' points = '613.3,150.2 613.3,662.4 615.2,662.4 615.2,147.5 '/>
		<polygon fill = 'rgb( 31, 120, 180)' fill-opacity = '0.250000' points = '615.2,147.5 615.2,662.4 617.0,662.4 617.0,144.7 '/>
		<polygon fill = 'rgb( 31, 120, 180)' fill-opacity = '0.250000' points = '617.0,144.7 617.0,662.4 618.9,662.4 618.9,142.1 '/>
		<polygon fill = 'rgb( 31, 120, 180)' fill-opacity = '0.250000' points = '618.9,142.1 618.9,662.4 620.8,662.4 620.8,139.5 '/>
		<polygon fill = 'rgb( 31, 120, 180)' fill-opacity = '0.250000' points = '620.8,139.5 620.8,662.4 622.7,662.4 622.7,137.2 '/>
		<polygon fill = 'rgb( 31, 120, 180)' fill-opacity = '0.250000' points = '622.7,137.2 622.7,662.4 624.5,662.4 624.5,135.1 '/>
		<polygon fill = 'rgb( 31, 120, 180)' fill-opacity = '0.250000' points = '624.5,135.1 624.5,662.4 626.4,662.4 626.4,133.3 '/>
		<polygon fill = 'rgb( 31, 120, 180)' fill-opacity = '0.250000' points = '626.4,133.3 626.4,662.4 628.3,662.4 628.3,131.9 '/>
		<polygon fill = 'rgb( 31, 120, 180)' fill-opacity = '0.250000' points = '628.3,131.9 628.3,662.4 630.1,662.4 630.1,130.9 '/>
		<polygon fill = 'rgb( 31, 120, 180)' fill-opacity = '0.250000' points = '630.1,130.9 630.1,662.4 632.0,662.4 632.0,130.3 '/>
		<polygon fill = 'rgb( 31, 120, 180)' fill-opacity = '0.250000' points = '632.0,130.3 632.0,662.4 633.9,662.4 633.9,130.2 '/>
		<polygon fill = 'rgb( 31, 120, 180)' fill-opacity = '0.250000' points = '633.9,130.2 633.9,662.4 635.8,662.4 635.8,130.6 '/>
		<polygon fill = 'rgb( 31, 120, 180)' fill-opacity = '0.250000' points = '635.8,130.6 635.8,662.4 637.6,662.4 637.6,131.5 '/>
		<polygon fill = 'rgb( 31, 120, 180)' fill-opacity = '0.250000' points = '637.6,131.5 637.6,662.4 639.5,662.4 639.5,132.8 '/>
		<polygon fill = 'rgb( 31, 120, 180)' fill-opacity = '0.250000' points = '639.5,132.8 639.5,662.4 641.4,662.4 641.4,134.7 '/>
		<polygon fill = 'rgb( 31, 120, 180)' fill-opacity = '0.250000' points = '641.4,134.7 641.4,662.4 643.2,662.4 643.2,136.9 '/>
		<polygon fill = 'rgb( 31, 120, 180)' fill-opacity = '0.250000' points = '643.2,136.9 643.2,662.4 645.1,662.4 645.1,139.6 '/>
		<polygon fill = 'rgb( 31, 120, 180)' fill-opacity = '0.250000' points = '645.1,139.6 645.1,662.4 647.0,662.4 647.0,142.7 '/>
		<polygon fill = 'rgb( 31, 120, 180)' fill-opacity = '0.250000' points = '647.0,142.7 647.0,662.4 648.8,662.4 648.8,146.0 '/>
		<polygon fill = 'rgb( 31, 120, 180)' fill-opacity = '0.250000' points = '648.8,146.0 648.8,662.4 650.7,662.4 650.7,149.7 '/>
		<polygon fill = 'rgb( 31, 120, 180)' fill-opacity = '0.250000' points = '650.7,149.7 650.7,662.4 652.6,662.4 652.6,153.5 '/>
		<polygon fill = 'rgb( 31, 120, 180)' fill-opacity = '0.250000' points = '652.6,153.5 652.6,662.4 654.5,662.4 654.5,157.5 '/>
		<polygon fill = 'rgb( 31, 120, 180)' fill-opacity = '0.250000' points = '654.5,157.5 654.5,662.4 656.3,662.4 656.3,161.6 '/>
		<polygon fill = 'rgb( 31, 120, 180)' fill-opacity = '0.250000' points = '656.3,161.6 656.3,662.4 658.2,662.4 658.2,165.7 '/>
		<polygon fill = 'rgb( 31, 120, 180)' fill-opacity = '0.250000' points = '658.2,165.7 658.2,662.4 660.1,662.4 660.1,169.8 '/>
		<polygon fill = 'rgb( 31, 120, 180)' fill-opacity = '0.250000' points = '660.1,169.8 660.1,662.4 661.9,662.4 661.9,173.8 '/>
		<polygon fill = 'rgb( 31, 120, 180)' fill-opacity = '0.250000' points = '661.9,173.8 661.9,662.4 663.8,662.4 663.8,177.7 '/>
		<polygon fill = 'rgb( 31, 120, 180)' fill-opacity = '0.250000' points = '663.8,177.7 663.8,662.4 665.7,662.4 665.7,181.5 '/>
		<polygon fill = 'rgb( 31, 120, 180)' fill-opacity = '0.250000' points = '665.7,181.5 665.7,662.4 667.5,662.4 667.5,185.1 '/>
		<polygon fill = 'rgb( 31, 120, 180)' fill-opacity = '0.250000' points = '667.5,185.1 667.5,662.4 669.4,662.4 669.4,188.5 '/>
		<polygon fill = 'rgb( 31, 120, 180)' fill-opacity = '0.250000' points = '669.4,188.5 669.4,662.4 671.3,662.4 671.3,191.7 '/>
		<polygon fill = 'rgb( 31, 120, 180)' fill-opacity = '0.250000' points = '671.3,191.7 671.3,662.4 673.2,662.4 673.2,194.7 '/>
		<polygon fill = 'rgb( 31, 120, 180)' fill-opacity = '0.250000' points = '673.2,194.7 673.2,662.4 675.0,662.4 675.0,197.5 '/>
		<polygon fill = 'rgb( 31, 120, 180)' fill-opacity = '0.250000' points = '675.0,197.5 675.0,662.4 676.9,662.4 676.9,200.1 '/>
		<polygon fill = 'rgb( 31, 120, 180)' fill-opacity = '0.250000' points = '676.9,200.1 676.9,662.4 678.8,662.4 678.8,202.5 '/>
		<polygon fill = 'rgb( 31, 120, 180)' fill-opacity = '0.250000' points = '678.8,202.5 678.8,662.4 680.6,662.4 680.6,204.8 '/>
		<polygon fill = 'rgb( 31, 120, 180)' fill-opacity = '0.250000' points = '680.6,204.8 680.6,662.4 682.5,662.4 682.5,206.9 '/>
		<polygon fill = 'rgb( 31, 120, 180)' fill-opacity = '0.250000' points = '682.5,206.9 682.5,662.4 684.4,662.4 684.4,208.9 '/>
		<polygon fill = 'rgb( 31, 120, 180)' fill-opacity = '0.250000' points = '684.4,208.9 684.4,662.4 686.3,662.4 686.3,210.8 '/>
		<polygon fill = 'rgb( 31, 120, 180)' fill-opacity = '0.250000' points = '686.3,210.8 686.3,662.4 688.1,662.4 688.1,212.7 '/>
		<polygon fill = 'rgb( 31, 120, 180)' fill-opacity = '0.250000' points = '688.1,212.7 688.1,662.4 690.0,662.4 690.0,214.6 '/>
		<polygon fill = 'rgb( 31, 120, 180)' fill-opacity = '0.250000' points = '690.0,214.6 690.0,662.4 691.9,662.4 691.9,216.5 '/>
		<polygon fill = 'rgb( 31, 120, 180)' fill-opacity = '0.250000' points = '691.9,216.5 691.9,662.4 693.7,662.4 693.7,218.5 '/>
		<polygon fill = 'rgb( 31, 120, 180)' fill-opacity = '0.250000' points = '693.7,218.5 693.7,662.4 695.6,662.4 695.6,220.6 '/>
		<polygon fill = 'rgb( 31, 120, 180)' fill-opacity = '0.250000' points = '695.6,220.6 695.6,662.4 697.5,662.4 697.5,222.7 '/>
		<polygon fill = 'rgb( 31, 120, 180)' fill-opacity = '0.250000' points = '697.5,222.7 697.5,662.4 699.3,662.4 699.3,225.0 '/>
		<polygon fill = 'rgb( 31, 120, 180)' fill-opacity = '0.250000' points = '699.3,225.0 699.3,662.4 701.2,662.4 701.2,227.5 '/>
		<polygon fill = 'rgb( 31, 120, 180)' fill-opacity = '0.250000' points = '701.2,227.5 701.2,662.4 703.1,662.4 703.1,230.1 '/>
		<polygon fill = 'rgb( 31, 120, 180)' fill-opacity = '0.250000' points = '703.1,230.1 703.1,662.4 705.0,662.4 705.0,232.9 '/>
		<polygon fill = 'rgb( 31, 120, 180)' fill-opacity = '0.250000' points = '705.0,232.9 705.0,662.4 706.8,662.4 706.8,235.9 '/>
		<polygon fill = 'rgb( 31, 120, 180)' fill-opacity = '0.250000' points = '706.8,235.9 706.8,662.4 708.7,662.4 708.7,239.0 '/>
		<polygon fill = 'rgb( 31, 120, 180)' fill-opacity = '0.250000' points = '708.7,239.0 708.7,662.4 710.6,662.4 710.6,242.3 '/>
		<polygon fill = 'rgb( 31, 120, 180)' fill-opacity = '0.250000' points = '710.6,242.3 710.6,662.4 712.4,662.4 712.4,245.8 '/>
		<polygon fill = 'rgb( 31, 120, 180)' fill-opacity = '0.250000' points = '712.4,245.8 712.4,662.4 714.3,662.4 714.3,249.5 '/>
		<polygon fill = 'rgb( 31, 120, 180)' fill-opacity = '0.250000' points = '714.3,249.5 714.3,662.4 716.2,662.4 716.2,253.2 '/>
		<polygon fill = 'rgb( 31, 120, 180)' fill-opacity = '0.250000' points = '716.2,253.2 716.2,662.4 718.1,662.4 718.1,257.1 '/>
		<polygon fill = 'rgb( 31, 120, 180)' fill-opacity = '0.250000' points = '718.1,257.1 718.1,662.4 719.9,662.4 719.9,261.1 '/>
		<polygon fill = 'rgb( 31, 120, 180)' fill-opacity = '0.250000' points = '719.9,261.1 719.9,662.4 721.8,662.4 721.8,265.2 '/>
		<polygon fill = 'rgb( 31, 120, 180)' fill-opacity = '0.250000' points = '721.8,265.2 721.8,662.4 723.7,662.4 723.7,269.4 '/>
		<polygon fill = 'rgb( 31, 120, 180)' fill-opacity = '0.250000' points = '723.7,269.4 723.7,662.4 725.5,662.4 725.5,273.5 '/>
		<polygon fill = 'rgb( 31, 120, 180)' fill-opacity = '0.250000' points = '725.5,273.5 725.5,662.4 727.4,662.4 727.4,277.7 '/>
		<polygon fill = 'rgb( 31, 120, 180)' fill-opacity = '0.250000' points = '727.4,277.7 727.4,662.4 729.3,662.4 729.3,281.9 '/>
		<polygon fill = 'rgb( 31, 120, 180)' fill-opacity = '0.250000' points = '729.3,281.9 729.3,662.4 731.1,662.4 731.1,286.1 '/>
		<polygon fill = 'rgb( 31, 120, 180)' fill-opacity = '0.250000' points = '731.1,286.1 731.1,662.4 733.0,662.4 733.0,290.2 '/>
		<polygon fill = 'rgb( 31, 120, 180)' fill-opacity = '0.250000' points = '733.0,290.2 733.0,662.4 734.9,662.4 734.9,294.3 '/>
		<polygon fill = 'rgb( 31, 120, 180)' fill-opacity = '0.250000' points = '734.9,294.3 734.9,662.4 736.8,662.4 736.8,298.3 '/>
		<polygon fill = 'rgb( 31, 120, 180)' fill-opacity = '0.250000' points = '736.8,298.3 736.8,662.4 738.6,662.4 738.6,302.3 '/>
		<polygon fill = 'rgb( 31, 120, 180)' fill-opacity = '0.250000' points = '738.6,302.3 738.6,662.4 740.5,662.4 740.5,306.3 '/>
		<polygon fill = 'rgb( 31, 120, 180)' fill-opacity = '0.250000' points = '740.5,306.3 740.5,662.4 742.4,662.4 742.4,310.1 '/>
		<polygon fill = 'rgb( 31, 120, 180)' fill-opacity = '0.250000' points = '742.4,310.1 742.4,662.4 744.2,662.4 744.2,314.0 '/>
		<polygon fill = 'rgb( 31, 120, 180)' fill-opacity = '0.250000' points = '744.2,314.0 744.2,662.4 746.1,662.4 746.1,317.8 '/>
		<polygon fill = 'rgb( 31, 120, 180)' fill-opacity = '0.250000' points = '746.1,317.8 746.1,662.4 748.0,662.4 748.0,321.6 '/>
		<polygon fill = 'rgb( 31, 120, 180)' fill-opacity = '0.250000' points = '748.0,321.6 748.0,662.4 749.9,662.4 749.9,325.4 '/>
		<polygon fill = 'rgb( 31, 120, 180)' fill-opacity = '0.250000' points = '749.9,325.4 749.9,662.4 751.7,662.4 751.7,329.2 '/>
		<polygon fill = 'rgb( 31, 120, 180)' fill-opacity = '0.250000' points = '751.7,329.2 751.7,662.4 753.6,662.4 753.6,333.1 '/>
		<polygon fill = 'rgb( 31, 120, 180)' fill-opacity = '0.250000' points = '753.6,333.1 753.6,662.4 755.5,662.4 755.5,336.9 '/>
		<polygon fill = 'rgb( 31, 120, 180)' fill-opacity = '0.250000' points = '755.5,336.9 755.5,662.4 757.3,662.4 757.3,340.8 '/>
		<polygon fill = 'rgb( 31, 120, 180)' fill-opacity = '0.250000' points = '757.3,340.8 757.3,662.4 759.2,662.4 759.2,344.7 '/>
		<polygon fill = 'rgb( 31, 120, 180)' fill-opacity = '0.250000' points = '759.2,344.7 759.2,662.4 761.1,662.4 761.1,348.6 '/>
		<polygon fill = 'rgb( 31, 120, 180)' fill-opacity = '0.250000' points = '761.1,348.6 761.1,662.4 762.9,662.4 762.9,352.5 '/>
		<polygon fill = 'rgb( 31, 120, 180)' fill-opacity = '0.250000' points = '762.9,352.5 762.9,662.4 764.8,662.4 764.8,356.4 '/>
		<polygon fill = 'rgb( 31, 120, 180)' fill-opacity = '0.250000' points = '764.8,356.4 764.8,662.4 766.7,662.4 766.7,360.3 '/>
		<polygon fill = 'rgb( 31, 120, 180)' fill-opacity = '0.250000' points = '766.7,360.3 766.7,662.4 768.6,662.4 768.6,364.2 '/>
		<polygon fill = 'rgb( 31, 120, 180)' fill-opacity = '0.250000' points = '768.6,364.2 768.6,662.4 770.4,662.4 770.4,368.0 '/>
		<polygon fill = 'rgb( 31, 120, 180)' fill-opacity = '0.250000' points = '770.4,368.0 770.4,662.4 772.3,662.4 772.3,371.7 '/>
		<polygon fill = 'rgb( 31, 120, 180)' fill-opacity = '0.250000' points = '772.3,371.7 772.3,662.4 774.2,662.4 774.2,375.4 '/>
		<polygon fill = 'rgb( 31, 120, 180)' fill-opacity = '0.250000' points = '774.2,375.4 774.2,662.4 776.0,662.4 776.0,378.9 '/>
		<polygon fill = 'rgb( 31, 120, 180)' fill-opacity = '0.250000' points = '776.0,378.9 776.0,662.4 777.9,662.4 777.9,382.3 '/>
		<polygon fill = 'rgb( 31, 120, 180)' fill-opacity = '0.250000' points = '777.9,382.3 777.9,662.4 779.8,662.4 779.8,385.6 '/>
		<polygon fill = 'rgb( 31, 120, 180)' fill-opacity = '0.250000' points = '779.8,385.6 779.8,662.4 781.7,662.4 781.7,388.8 '/>
		<polygon fill = 'rgb( 31, 120, 180)' fill-opacity = '0.250000' points = '781.7,388.8 781.7,662.4 783.5,662.4 783.5,391.9 '/>
		<polygon fill = 'rgb( 31, 120, 180)' fill-opacity = '0.250000' points = '783.5,391.9 783.5,662.4 785.4,662.4 785.4,394.9 '/>
		<polygon fill = 'rgb( 31, 120, 180)' fill-opacity = '0.250000' points = '785.4,394.9 785.4,662.4 787.3,662.4 787.3,397.8 '/>
		<polygon fill = 'rgb( 31, 120, 180)' fill-opacity = '0.250000' points = '787.3,397.8 787.3,662.4 789.1,662.4 789.1,400.6 '/>
		<polygon fill = 'rgb( 31, 120, 180)' fill-opacity = '0.250000' points = '789.1,400.6 789.1,662.4 791.0,662.4 791.0,403.4 '/>
		<polygon fill = 'rgb( 31, 120, 180)' fill-opacity = '0.250000' points = '791.0,403.4 791.0,662.4 792.9,662.4 792.9,406.2 '/>
		<polygon fill = 'rgb( 31, 120, 180)' fill-opacity = '0.250000' points = '792.9,406.2 792.9,662.4 794.7,662.4 794.7,409.0 '/>
		<polygon fill = 'rgb( 31, 120, 180)' fill-opacity = '0.250000' points = '794.7,409.0 794.7,662.4 796.6,662.4 796.6,411.8 '/>
		<polygon fill = 'rgb( 31, 120, 180)' fill-opacity = '0.250000' points = '796.6,411.8 796.6,662.4 798.5,662.4 798.5,414.7 '/>
		<polygon fill = 'rgb( 31, 120, 180)' fill-opacity = '0.250000' points = '798.5,414.7 798.5,662.4 800.4,662.4 800.4,417.7 '/>
		<polygon fill = 'rgb( 31, 120, 180)' fill-opacity = '0.250000' points = '800.4,417.7 800.4,662.4 802.2,662.4 802.2,420.8 '/>
		<polygon fill = 'rgb( 31, 120, 180)' fill-opacity = '0.250000' points = '802.2,420.8 802.2,662.4 804.1,662.4 804.1,424.0 '/>
		<polygon fill = 'rgb( 31, 120, 180)' fill-opacity = '0.250000' points = '804.1,424.0 804.1,662.4 806.0,662.4 806.0,427.3 '/>
		<polygon fill = 'rgb( 31, 120, 180)' fill-opacity = '0.250000' points = '806.0,427.3 806.0,662.4 807.8,662.4 807.8,430.8 '/>
		<polygon fill = 'rgb( 31, 120, 180)' fill-opacity = '0.250000' points = '807.8,430.8 807.8,662.4 809.7,662.4 809.7,434.4 '/>
		<polygon fill = 'rgb( 31, 120, 180)' fill-opacity = '0.250000' points = '809.7,434.4 809.7,662.4 811.6,662.4 811.6,438.1 '/>
		<polygon fill = 'rgb( 31, 120, 180)' fill-opacity = '0.250000' points = '811.6,438.1 811.6,662.4 813.5,662.4 813.5,441.9 '/>
		<polygon fill = 'rgb( 31, 120, 180)' fill-opacity = '0.250000' points = '813.5,441.9 813.5,662.4 815.3,662.4 815.3,445.9 '/>
		<polygon fill = 'rgb( 31, 120, 180)' fill-opacity = '0.250000' points = '815.3,445.9 815.3,662.4 817.2,662.4 817.2,449.9 '/>
		<polygon fill = 'rgb( 31, 120, 180)' fill-opacity = '0.250000' points = '817.2,449.9 817.2,662.4 819.1,662.4 819.1,454.0 '/>
		<polygon fill = 'rgb( 31, 120, 180)' fill-opacity = '0.250000' points = '819.1,454.0 819.1,662.4 820.9,662.4 820.9,458.1 '/>
		<polygon fill = 'rgb( 31, 120, 180)' fill-opacity = '0.250000' points = '820.9,458.1 820.9,662.4 822.8,662.4 822.8,462.2 '/>
		<polygon fill = 'rgb( 31, 120, 180)' fill-opacity = '0.250000' points = '822.8,462.2 822.8,662.4 824.7,662.4 824.7,466.4 '/>
		<polygon fill = 'rgb( 31, 120, 180)' fill-opacity = '0.250000' points = '824.7,466.4 824.7,662.4 826.5,662.4 826.5,470.5 '/>
		<polygon fill = 'rgb( 31, 120, 180)' fill-opacity = '0.250000' points = '826.5,470.5 826.5,662.4 828.4,662.4 828.4,474.5 '/>
		<polygon fill = 'rgb( 31, 120, 180)' fill-opacity = '0.250000' points = '828.4,474.5 828.4,662.4 830.3,662.4 830.3,478.5 '/>
		<polygon fill = 'rgb( 31, 120, 180)' fill-opacity = '0.250000' points = '830.3,478.5 830.3,662.4 832.2,662.4 832.2,482.4 '/>
		<polygon fill = 'rgb( 31, 120, 180)' fill-opacity = '0.250000' points = '832.2,482.4 832.2,662.4 834.0,662.4 834.0,486.3 '/>
		<polygon fill = 'rgb( 31, 120, 180)' fill-opacity = '0.250000' points = '834.0,486.3 834.0,662.4 835.9,662.4 835.9,490.0 '/>
		<polygon fill = 'rgb( 31, 120, 180)' fill-opacity = '0.250000' points = '835.9,490.0 835.9,662.4 837.8,662.4 837.8,493.6 '/>
		<polygon fill = 'rgb( 31, 120, 180)' fill-opacity = '0.250000' points = '837.8,493.6 837.8,662.4 839.6,662.4 839.6,497.0 '/>
		<polygon fill = 'rgb( 31, 120, 180)' fill-opacity = '0.250000' points = '839.6,497.0 839.6,662.4 841.5,662.4 841.5,500.4 '/>
		<polygon fill = 'rgb( 31, 120, 180)' fill-opacity = '0.250000' points = '841.5,500.4 841.5,662.4 843.4,662.4 843.4,503.6 '/>
		<polygon fill = 'rgb( 31, 120, 180)' fill-opacity = '0.250000' points = '843.4,503.6 843.4,662.4 845.3,662.4 845.3,506.7 '/>
		<polygon fill = 'rgb( 31, 120, 180)' fill-opacity = '0.250000' points = '845.3,506.7 845.3,662.4 847.1,662.4 847.1,509.7 '/>
		<polygon fill = 'rgb( 31, 120, 180)' fill-opacity = '0.250000' points = '847.1,509.7 847.1,662.4 849.0,662.4 849.0,512.5 '/>
		<polygon fill = 'rgb( 31, 120, 180)' fill-opacity = '0.250000' points = '849.0,512.5 849.0,662.4 850.9,662.4 850.9,515.3 '/>
		<polygon fill = 'rgb( 31, 120, 180)' fill-opacity = '0.250000' points = '850.9,515.3 850.9,662.4 852.7,662.4 852.7,517.9 '/>
		<polygon fill = 'rgb( 31, 120, 180)' fill-opacity = '0.250000' points = '852.7,517.9 852.7,662.4 854.6,662.4 854.6,520.4 '/>
		<polygon fill = 'rgb( 31, 120, 180)' fill-opacity = '0.250000' points = '854.6,520.4 854.6,662.4 856.5,662.4 856.5,522.8 '/>
		<polygon fill = 'rgb( 31, 120, 180)' fill-opacity = '0.250000' points = '856.5,522.8 856.5,662.4 858.3,662.4 858.3,525.1 '/>
		<polygon fill = 'rgb( 31, 120, 180)' fill-opacity = '0.250000' points = '858.3,525.1 858.3,662.4 860.2,662.4 860.2,527.4 '/>
		<polygon fill = 'rgb( 31, 120, 180)' fill-opacity = '0.250000' points = '860.2,527.4 860.2,662.4 862.1,662.4 862.1,529.5 '/>
		<polygon fill = 'rgb( 31, 120, 180)' fill-opacity = '0.250000' points = '862.1,529.5 862.1,662.4 864.0,662.4 864.0,531.6 '/>
		<polygon fill = 'rgb( 31, 120, 180)' fill-opacity = '0.250000' points = '864.0,531.6 864.0,662.4 865.8,662.4 865.8,533.6 '/>
		<polygon fill = 'rgb( 31, 120, 180)' fill-opacity = '0.250000' points = '865.8,533.6 865.8,662.4 867.7,662.4 867.7,535.6 '/>
		<polygon fill = 'rgb( 31, 120, 180)' fill-opacity = '0.250000' points = '867.7,535.6 867.7,662.4 869.6,662.4 869.6,537.5 '/>
		<polygon fill = 'rgb( 31, 120, 180)' fill-opacity = '0.250000' points = '869.6,537.5 869.6,662.4 871.4,662.4 871.4,539.4 '/>
		<polygon fill = 'rgb( 31, 120, 180)' fill-opacity = '0.250000' points = '871.4,539.4 871.4,662.4 873.3,662.4 873.3,541.2 '/>
		<polygon fill = 'rgb( 31, 120, 180)' fill-opacity = '0.250000' points = '873.3,541.2 873.3,662.4 875.2,662.4 875.2,543.1 '/>
		<polygon fill = 'rgb( 31, 120, 180)' fill-opacity = '0.250000' points = '875.2,543.1 875.2,662.4 877.1,662.4 877.1,544.9 '/>
		<polygon fill = 'rgb( 31, 120, 180)' fill-opacity = '0.250000' points = '877.1,544.9 877.1,662.4 878.9,662.4 878.9,546.8 '/>
		<polygon fill = 'rgb( 31, 120, 180)' fill-opacity = '0.250000' points = '878.9,546.8 878.9,662.4 880.8,662.4 880.8,548.6 '/>
		<polygon fill = 'rgb( 31, 120, 180)' fill-opacity = '0.250000' points = '880.8,548.6 880.8,662.4 882.7,662.4 882.7,550.4 '/>
		<polygon fill = 'rgb( 31, 120, 180)' fill-opacity = '0.250000' points = '882.7,550.4 882.7,662.4 884.5,662.4 884.5,552.3 '/>
		<polygon fill = 'rgb( 31, 120, 180)' fill-opacity = '0.250000' points = '884.5,552.3 884.5,662.4 886.4,662.4 886.4,554.1 '/>
		<polygon fill = 'rgb( 31, 120, 180)' fill-opacity = '0.250000' points = '886.4,554.1 886.4,662.4 888.3,662.4 888.3,556.0 '/>
		<polygon fill = 'rgb( 31, 120, 180)' fill-opacity = '0.250000' points = '888.3,556.0 888.3,662.4 890.1,662.4 890.1,557.9 '/>
		<polygon fill = 'rgb( 31, 120, 180)' fill-opacity = '0.250000' points = '890.1,557.9 890.1,662.4 892.0,662.4 892.0,559.8 '/>
		<polygon fill = 'rgb( 31, 120, 180)' fill-opacity = '0.250000' points = '892.0,559.8 892.0,662.4 893.9,662.4 893.9,561.7 '/>
		<polygon fill = 'rgb( 31, 120, 180)' fill-opacity = '0.250000' points = '893.9,561.7 893.9,662.4 895.8,662.4 895.8,563.5 '/>
		<polygon fill = 'rgb( 31, 120, 180)' fill-opacity = '0.250000' points = '895.8,563.5 895.8,662.4 897.6,662.4 897.6,565.4 '/>
		<polygon fill = 'rgb( 31, 120, 180)' fill-opacity = '0.250000' points = '897.6,565.4 897.6,662.4 899.5,662.4 899.5,567.2 '/>
		<polygon fill = 'rgb( 31, 120, 180)' fill-opacity = '0.250000' points = '899.5,567.2 899.5,662.4 901.4,662.4 901.4,569.0 '/>
		<polygon fill = 'rgb( 31, 120, 180)' fill-opacity = '0.250000' points = '901.4,569.0 901.4,662.4 903.2,662.4 903.2,570.8 '/>
		<polygon fill = 'rgb( 31, 120, 180)' fill-opacity = '0.250000' points = '903.2,570.8 903.2,662.4 905.1,662.4 905.1,572.5 '/>
		<polygon fill = 'rgb( 31, 120, 180)' fill-opacity = '0.250000' points = '905.1,572.5 905.1,662.4 907.0,662.4 907.0,574.1 '/>
		<polygon fill = 'rgb( 31, 120, 180)' fill-opacity = '0.250000' points = '907.0,574.1 907.0,662.4 908.8,662.4 908.8,575.6 '/>
		<polygon fill = 'rgb( 31, 120, 180)' fill-opacity = '0.250000' points = '908.8,575.6 908.8,662.4 910.7,662.4 910.7,577.1 '/>
		<polygon fill = 'rgb( 31, 120, 180)' fill-opacity = '0.250000' points = '910.7,577.1 910.7,662.4 912.6,662.4 912.6,578.4 '/>
		<polygon fill = 'rgb( 31, 120, 180)' fill-opacity = '0.250000' points = '912.6,578.4 912.6,662.4 914.5,662.4 914.5,579.6 '/>
		<polygon fill = 'rgb( 31, 120, 180)' fill-opacity = '0.250000' points = '914.5,579.6 914.5,662.4 916.3,662.4 916.3,580.7 '/>
		<polygon fill = 'rgb( 31, 120, 180)' fill-opacity = '0.250000' points = '916.3,580.7 916.3,662.4 918.2,662.4 918.2,581.7 '/>
		<polygon fill = 'rgb( 31, 120, 180)' fill-opacity = '0.250000' points = '918.2,581.7 918.2,662.4 920.1,662.4 920.1,582.6 '/>
		<polygon fill = 'rgb( 31, 120, 180)' fill-opacity = '0.250000' points = '920.1,582.6 920.1,662.4 921.9,662.4 921.9,583.3 '/>
		<polygon fill = 'rgb( 31, 120, 180)' fill-opacity = '0.250000' points = '921.9,583.3 921.9,662.4 923.8,662.4 923.8,584.0 '/>
		<polygon fill = 'rgb( 31, 120, 180)' fill-opacity = '0.250000' points = '923.8,584.0 923.8,662.4 925.7,662.4 925.7,584.5 '/>
	</g>
</g>
	</g>
	<g id="gnuplot_plot_3" ><title>Point estimate</title>
<g fill="none" color="white" stroke="rgb( 31, 120, 180)" stroke-width="2.00" stroke-linecap="butt" stroke-linejoin="miter">
</g>
<g fill="none" color="black" stroke="currentColor" stroke-width="2.00" stroke-linecap="butt" stroke-linejoin="miter">
	<g transform="translate(1089.0,103.0)" stroke="none" fill="black" font-family="Helvetica" font-size="12.00"  text-anchor="start">
		<text><tspan font-family="Helvetica" >Point estimate</tspan></text>
	</g>
</g>
<g fill="none" color="black" stroke="currentColor" stroke-width="2.00" stroke-linecap="butt" stroke-linejoin="miter">
	<path stroke='rgb( 31, 120, 180)'  d='M1038.5,99.1 L1080.7,99.1 M529.3,662.4 L529.3,138.8  '/></g>
	</g>
	<g id="gnuplot_plot_4" ><title>Noise threshold</title>
<g fill="none" color="white" stroke="rgb( 31, 120, 180)" stroke-width="1.00" stroke-linecap="butt" stroke-linejoin="miter">
</g>
<g fill="none" color="black" stroke="currentColor" stroke-width="1.00" stroke-linecap="butt" stroke-linejoin="miter">
	<g transform="translate(1089.0,121.0)" stroke="none" fill="black" font-family="Helvetica" font-size="12.00"  text-anchor="start">
		<text><tspan font-family="Helvetica" >Noise threshold</tspan></text>
	</g>
</g>
<g fill="none" color="black" stroke="currentColor" stroke-width="1.00" stroke-linecap="butt" stroke-linejoin="miter">
	<g stroke='none' shape-rendering='crispEdges'>
		<polygon fill = 'rgb(227,  26,  28)' fill-opacity = '0.100000' points = '1038.5,121.6 1080.7,121.6 1080.7,112.6 1038.5,112.6 '/>
		<polygon fill = 'rgb(227,  26,  28)' fill-opacity = '0.100000' points = '80.2,54.1 80.2,662.4 1013.6,662.4 1013.6,54.1 '/>
	</g>
</g>
	</g>
<g fill="none" color="white" stroke="rgb(227,  26,  28)" stroke-width="2.00" stroke-linecap="butt" stroke-linejoin="miter">
</g>
<g fill="none" color="black" stroke="currentColor" stroke-width="2.00" stroke-linecap="butt" stroke-linejoin="miter">
</g>
<g fill="none" color="black" stroke="black" stroke-width="1.00" stroke-linecap="butt" stroke-linejoin="miter">
</g>
<g fill="none" color="black" stroke="currentColor" stroke-width="1.00" stroke-linecap="butt" stroke-linejoin="miter">
	<path stroke='black'  d='M80.2,54.1 L80.2,662.4 L1013.6,662.4 L1013.6,54.1 L80.2,54.1 Z  '/></g>
<g fill="none" color="black" stroke="currentColor" stroke-width="1.00" stroke-linecap="butt" stroke-linejoin="miter">
</g>
</g>
</svg>

