<?xml version="1.0" encoding="utf-8"  standalone="no"?>
<!DOCTYPE svg PUBLIC "-//W3C//DTD SVG 1.1//EN"
 "http://www.w3.org/Graphics/SVG/1.1/DTD/svg11.dtd">
<svg 
 viewBox="0 0 1280 720"
 xmlns="http://www.w3.org/2000/svg"
 xmlns:xlink="http://www.w3.org/1999/xlink"
>

<title>Gnuplot</title>
<desc>Produced by GNUPLOT 5.0 patchlevel 5 </desc>

<g id="gnuplot_canvas">

<rect x="0" y="0" width="1280" height="720" fill="none"/>
<defs>

	<circle id='gpDot' r='0.5' stroke-width='0.5'/>
	<path id='gpPt0' stroke-width='0.222' stroke='currentColor' d='M-1,0 h2 M0,-1 v2'/>
	<path id='gpPt1' stroke-width='0.222' stroke='currentColor' d='M-1,-1 L1,1 M1,-1 L-1,1'/>
	<path id='gpPt2' stroke-width='0.222' stroke='currentColor' d='M-1,0 L1,0 M0,-1 L0,1 M-1,-1 L1,1 M-1,1 L1,-1'/>
	<rect id='gpPt3' stroke-width='0.222' stroke='currentColor' x='-1' y='-1' width='2' height='2'/>
	<rect id='gpPt4' stroke-width='0.222' stroke='currentColor' fill='currentColor' x='-1' y='-1' width='2' height='2'/>
	<circle id='gpPt5' stroke-width='0.222' stroke='currentColor' cx='0' cy='0' r='1'/>
	<use xlink:href='#gpPt5' id='gpPt6' fill='currentColor' stroke='none'/>
	<path id='gpPt7' stroke-width='0.222' stroke='currentColor' d='M0,-1.33 L-1.33,0.67 L1.33,0.67 z'/>
	<use xlink:href='#gpPt7' id='gpPt8' fill='currentColor' stroke='none'/>
	<use xlink:href='#gpPt7' id='gpPt9' stroke='currentColor' transform='rotate(180)'/>
	<use xlink:href='#gpPt9' id='gpPt10' fill='currentColor' stroke='none'/>
	<use xlink:href='#gpPt3' id='gpPt11' stroke='currentColor' transform='rotate(45)'/>
	<use xlink:href='#gpPt11' id='gpPt12' fill='currentColor' stroke='none'/>
	<path id='gpPt13' stroke-width='0.222' stroke='currentColor' d='M0,1.330 L1.265,0.411 L0.782,-1.067 L-0.782,-1.076 L-1.265,0.411 z'/>
	<use xlink:href='#gpPt13' id='gpPt14' fill='currentColor' stroke='none'/>
	<filter id='textbox' filterUnits='objectBoundingBox' x='0' y='0' height='1' width='1'>
	  <feFlood flood-color='white' flood-opacity='1' result='bgnd'/>
	  <feComposite in='SourceGraphic' in2='bgnd' operator='atop'/>
	</filter>
	<filter id='greybox' filterUnits='objectBoundingBox' x='0' y='0' height='1' width='1'>
	  <feFlood flood-color='lightgrey' flood-opacity='1' result='grey'/>
	  <feComposite in='SourceGraphic' in2='grey' operator='atop'/>
	</filter>
</defs>
<g fill="none" color="white" stroke="currentColor" stroke-width="1.00" stroke-linecap="butt" stroke-linejoin="miter">
</g>
<g fill="none" color="black" stroke="currentColor" stroke-width="1.00" stroke-linecap="butt" stroke-linejoin="miter">
	<path stroke='black'  d='M71.9,662.4 L80.9,662.4  '/>	<g transform="translate(63.6,666.3)" stroke="none" fill="black" font-family="Helvetica" font-size="12.00"  text-anchor="end">
		<text><tspan font-family="Helvetica" > 0</tspan></text>
	</g>
</g>
<g fill="none" color="black" stroke="currentColor" stroke-width="1.00" stroke-linecap="butt" stroke-linejoin="miter">
	<path stroke='black'  d='M71.9,575.5 L80.9,575.5  '/>	<g transform="translate(63.6,579.4)" stroke="none" fill="black" font-family="Helvetica" font-size="12.00"  text-anchor="end">
		<text><tspan font-family="Helvetica" > 100</tspan></text>
	</g>
</g>
<g fill="none" color="black" stroke="currentColor" stroke-width="1.00" stroke-linecap="butt" stroke-linejoin="miter">
	<path stroke='black'  d='M71.9,488.6 L80.9,488.6  '/>	<g transform="translate(63.6,492.5)" stroke="none" fill="black" font-family="Helvetica" font-size="12.00"  text-anchor="end">
		<text><tspan font-family="Helvetica" > 200</tspan></text>
	</g>
</g>
<g fill="none" color="black" stroke="currentColor" stroke-width="1.00" stroke-linecap="butt" stroke-linejoin="miter">
	<path stroke='black'  d='M71.9,401.7 L80.9,401.7  '/>	<g transform="translate(63.6,405.6)" stroke="none" fill="black" font-family="Helvetica" font-size="12.00"  text-anchor="end">
		<text><tspan font-family="Helvetica" > 300</tspan></text>
	</g>
</g>
<g fill="none" color="black" stroke="currentColor" stroke-width="1.00" stroke-linecap="butt" stroke-linejoin="miter">
	<path stroke='black'  d='M71.9,314.8 L80.9,314.8  '/>	<g transform="translate(63.6,318.7)" stroke="none" fill="black" font-family="Helvetica" font-size="12.00"  text-anchor="end">
		<text><tspan font-family="Helvetica" > 400</tspan></text>
	</g>
</g>
<g fill="none" color="black" stroke="currentColor" stroke-width="1.00" stroke-linecap="butt" stroke-linejoin="miter">
	<path stroke='black'  d='M71.9,227.9 L80.9,227.9  '/>	<g transform="translate(63.6,231.8)" stroke="none" fill="black" font-family="Helvetica" font-size="12.00"  text-anchor="end">
		<text><tspan font-family="Helvetica" > 500</tspan></text>
	</g>
</g>
<g fill="none" color="black" stroke="currentColor" stroke-width="1.00" stroke-linecap="butt" stroke-linejoin="miter">
	<path stroke='black'  d='M71.9,141.0 L80.9,141.0  '/>	<g transform="translate(63.6,144.9)" stroke="none" fill="black" font-family="Helvetica" font-size="12.00"  text-anchor="end">
		<text><tspan font-family="Helvetica" > 600</tspan></text>
	</g>
</g>
<g fill="none" color="black" stroke="currentColor" stroke-width="1.00" stroke-linecap="butt" stroke-linejoin="miter">
	<path stroke='black'  d='M71.9,54.1 L80.9,54.1  '/>	<g transform="translate(63.6,58.0)" stroke="none" fill="black" font-family="Helvetica" font-size="12.00"  text-anchor="end">
		<text><tspan font-family="Helvetica" > 700</tspan></text>
	</g>
</g>
<g fill="none" color="black" stroke="currentColor" stroke-width="1.00" stroke-linecap="butt" stroke-linejoin="miter">
	<path stroke='black'  d='M141.5,662.4 L141.5,653.4  '/>	<g transform="translate(141.5,684.3)" stroke="none" fill="black" font-family="Helvetica" font-size="12.00"  text-anchor="middle">
		<text><tspan font-family="Helvetica" >-7</tspan></text>
	</g>
</g>
<g fill="none" color="black" stroke="currentColor" stroke-width="1.00" stroke-linecap="butt" stroke-linejoin="miter">
	<path stroke='black'  d='M269.7,662.4 L269.7,653.4  '/>	<g transform="translate(269.7,684.3)" stroke="none" fill="black" font-family="Helvetica" font-size="12.00"  text-anchor="middle">
		<text><tspan font-family="Helvetica" >-6.95</tspan></text>
	</g>
</g>
<g fill="none" color="black" stroke="currentColor" stroke-width="1.00" stroke-linecap="butt" stroke-linejoin="miter">
	<path stroke='black'  d='M397.8,662.4 L397.8,653.4  '/>	<g transform="translate(397.8,684.3)" stroke="none" fill="black" font-family="Helvetica" font-size="12.00"  text-anchor="middle">
		<text><tspan font-family="Helvetica" >-6.9</tspan></text>
	</g>
</g>
<g fill="none" color="black" stroke="currentColor" stroke-width="1.00" stroke-linecap="butt" stroke-linejoin="miter">
	<path stroke='black'  d='M526.0,662.4 L526.0,653.4  '/>	<g transform="translate(526.0,684.3)" stroke="none" fill="black" font-family="Helvetica" font-size="12.00"  text-anchor="middle">
		<text><tspan font-family="Helvetica" >-6.85</tspan></text>
	</g>
</g>
<g fill="none" color="black" stroke="currentColor" stroke-width="1.00" stroke-linecap="butt" stroke-linejoin="miter">
	<path stroke='black'  d='M654.1,662.4 L654.1,653.4  '/>	<g transform="translate(654.1,684.3)" stroke="none" fill="black" font-family="Helvetica" font-size="12.00"  text-anchor="middle">
		<text><tspan font-family="Helvetica" >-6.8</tspan></text>
	</g>
</g>
<g fill="none" color="black" stroke="currentColor" stroke-width="1.00" stroke-linecap="butt" stroke-linejoin="miter">
	<path stroke='black'  d='M782.3,662.4 L782.3,653.4  '/>	<g transform="translate(782.3,684.3)" stroke="none" fill="black" font-family="Helvetica" font-size="12.00"  text-anchor="middle">
		<text><tspan font-family="Helvetica" >-6.75</tspan></text>
	</g>
</g>
<g fill="none" color="black" stroke="currentColor" stroke-width="1.00" stroke-linecap="butt" stroke-linejoin="miter">
	<path stroke='black'  d='M910.4,662.4 L910.4,653.4  '/>	<g transform="translate(910.4,684.3)" stroke="none" fill="black" font-family="Helvetica" font-size="12.00"  text-anchor="middle">
		<text><tspan font-family="Helvetica" >-6.7</tspan></text>
	</g>
</g>
<g fill="none" color="black" stroke="currentColor" stroke-width="1.00" stroke-linecap="butt" stroke-linejoin="miter">
</g>
<g fill="none" color="black" stroke="currentColor" stroke-width="1.00" stroke-linecap="butt" stroke-linejoin="miter">
	<path stroke='black'  d='M71.9,54.1 L71.9,662.4 L1013.6,662.4 L1013.6,54.1 L71.9,54.1 Z  '/></g>
<g fill="none" color="black" stroke="currentColor" stroke-width="1.00" stroke-linecap="butt" stroke-linejoin="miter">
	<g transform="translate(17.0,358.3) rotate(270)" stroke="none" fill="black" font-family="Helvetica" font-size="12.00"  text-anchor="middle">
		<text><tspan font-family="Helvetica" >Density (a.u.)</tspan></text>
	</g>
</g>
<g fill="none" color="black" stroke="currentColor" stroke-width="1.00" stroke-linecap="butt" stroke-linejoin="miter">
	<g transform="translate(542.7,711.3)" stroke="none" fill="black" font-family="Helvetica" font-size="12.00"  text-anchor="middle">
		<text><tspan font-family="Helvetica" >Relative change (%)</tspan></text>
	</g>
</g>
<g fill="none" color="black" stroke="currentColor" stroke-width="1.00" stroke-linecap="butt" stroke-linejoin="miter">
	<g transform="translate(542.7,31.0)" stroke="none" fill="black" font-family="Helvetica" font-size="12.00"  text-anchor="middle">
		<text><tspan font-family="Helvetica" >dfs arena ghostcell vec init: median</tspan></text>
	</g>
</g>
	<g id="gnuplot_plot_1" ><title>Bootstrap distribution</title>
<g fill="none" color="white" stroke="black" stroke-width="2.00" stroke-linecap="butt" stroke-linejoin="miter">
</g>
<g fill="none" color="black" stroke="currentColor" stroke-width="2.00" stroke-linecap="butt" stroke-linejoin="miter">
	<g transform="translate(1089.0,67.0)" stroke="none" fill="black" font-family="Helvetica" font-size="12.00"  text-anchor="start">
		<text><tspan font-family="Helvetica" >Bootstrap distribution</tspan></text>
	</g>
</g>
<g fill="none" color="black" stroke="currentColor" stroke-width="2.00" stroke-linecap="butt" stroke-linejoin="miter">
	<path stroke='rgb( 31, 120, 180)'  d='M1038.5,63.1 L1080.7,63.1 M71.9,634.4 L73.8,634.1 L75.7,633.8 L77.6,633.4 L79.4,633.1 L81.3,632.8
		L83.2,632.4 L85.1,632.1 L87.0,631.7 L88.9,631.4 L90.8,631.0 L92.7,630.7 L94.5,630.3 L96.4,629.9
		L98.3,629.6 L100.2,629.2 L102.1,628.9 L104.0,628.5 L105.9,628.1 L107.8,627.8 L109.6,627.4 L111.5,627.0
		L113.4,626.6 L115.3,626.2 L117.2,625.8 L119.1,625.4 L121.0,625.0 L122.9,624.6 L124.7,624.2 L126.6,623.8
		L128.5,623.4 L130.4,622.9 L132.3,622.5 L134.2,622.0 L136.1,621.4 L138.0,620.9 L139.8,620.3 L141.7,619.6
		L143.6,618.9 L145.5,618.0 L147.4,617.1 L149.3,616.1 L151.2,614.9 L153.0,613.6 L154.9,612.2 L156.8,610.6
		L158.7,608.9 L160.6,606.9 L162.5,604.9 L164.4,602.6 L166.3,600.3 L168.1,597.7 L170.0,595.1 L171.9,592.3
		L173.8,589.4 L175.7,586.5 L177.6,583.5 L179.5,580.5 L181.4,577.5 L183.2,574.6 L185.1,571.7 L187.0,568.8
		L188.9,566.1 L190.8,563.5 L192.7,561.0 L194.6,558.7 L196.5,556.5 L198.3,554.4 L200.2,552.5 L202.1,550.7
		L204.0,549.0 L205.9,547.5 L207.8,546.0 L209.7,544.6 L211.6,543.2 L213.4,541.8 L215.3,540.5 L217.2,539.0
		L219.1,537.6 L221.0,536.0 L222.9,534.3 L224.8,532.4 L226.6,530.3 L228.5,528.1 L230.4,525.6 L232.3,522.8
		L234.2,519.8 L236.1,516.5 L238.0,512.9 L239.9,508.9 L241.7,504.6 L243.6,500.0 L245.5,495.0 L247.4,489.7
		L249.3,484.0 L251.2,478.1 L253.1,471.8 L255.0,465.2 L256.8,458.4 L258.7,451.3 L260.6,444.0 L262.5,436.6
		L264.4,428.9 L266.3,421.2 L268.2,413.4 L270.1,405.6 L271.9,397.7 L273.8,389.8 L275.7,382.0 L277.6,374.2
		L279.5,366.5 L281.4,358.9 L283.3,351.5 L285.2,344.1 L287.0,336.9 L288.9,329.9 L290.8,323.0 L292.7,316.3
		L294.6,309.7 L296.5,303.3 L298.4,297.0 L300.2,290.9 L302.1,284.9 L304.0,279.1 L305.9,273.4 L307.8,267.8
		L309.7,262.3 L311.6,256.9 L313.5,251.6 L315.3,246.4 L317.2,241.2 L319.1,236.1 L321.0,231.0 L322.9,225.9
		L324.8,220.8 L326.7,215.8 L328.6,210.7 L330.4,205.6 L332.3,200.6 L334.2,195.5 L336.1,190.4 L338.0,185.3
		L339.9,180.2 L341.8,175.2 L343.7,170.2 L345.5,165.3 L347.4,160.5 L349.3,155.8 L351.2,151.3 L353.1,147.0
		L355.0,142.8 L356.9,138.9 L358.8,135.3 L360.6,132.0 L362.5,129.0 L364.4,126.4 L366.3,124.1 L368.2,122.2
		L370.1,120.6 L372.0,119.5 L373.8,118.6 L375.7,118.2 L377.6,118.0 L379.5,118.2 L381.4,118.7 L383.3,119.3
		L385.2,120.2 L387.1,121.3 L388.9,122.5 L390.8,123.7 L392.7,125.0 L394.6,126.4 L396.5,127.6 L398.4,128.9
		L400.3,130.0 L402.2,131.0 L404.0,131.9 L405.9,132.7 L407.8,133.2 L409.7,133.7 L411.6,133.9 L413.5,134.0
		L415.4,134.0 L417.3,133.8 L419.1,133.5 L421.0,133.0 L422.9,132.5 L424.8,131.9 L426.7,131.3 L428.6,130.7
		L430.5,130.1 L432.4,129.5 L434.2,128.9 L436.1,128.4 L438.0,128.1 L439.9,127.8 L441.8,127.6 L443.7,127.6
		L445.6,127.7 L447.4,128.0 L449.3,128.5 L451.2,129.1 L453.1,129.8 L455.0,130.8 L456.9,131.8 L458.8,133.1
		L460.7,134.5 L462.5,136.0 L464.4,137.7 L466.3,139.6 L468.2,141.6 L470.1,143.7 L472.0,146.0 L473.9,148.4
		L475.8,150.9 L477.6,153.6 L479.5,156.3 L481.4,159.2 L483.3,162.2 L485.2,165.3 L487.1,168.4 L489.0,171.6
		L490.9,174.9 L492.7,178.2 L494.6,181.5 L496.5,184.8 L498.4,188.2 L500.3,191.5 L502.2,194.9 L504.1,198.2
		L506.0,201.6 L507.8,205.0 L509.7,208.4 L511.6,211.8 L513.5,215.3 L515.4,218.8 L517.3,222.4 L519.2,226.0
		L521.0,229.7 L522.9,233.5 L524.8,237.4 L526.7,241.4 L528.6,245.5 L530.5,249.6 L532.4,253.9 L534.3,258.2
		L536.1,262.6 L538.0,267.1 L539.9,271.6 L541.8,276.2 L543.7,280.8 L545.6,285.4 L547.5,290.1 L549.4,294.7
		L551.2,299.3 L553.1,303.9 L555.0,308.5 L556.9,313.0 L558.8,317.4 L560.7,321.8 L562.6,326.0 L564.5,330.1
		L566.3,334.1 L568.2,337.9 L570.1,341.6 L572.0,345.1 L573.9,348.4 L575.8,351.5 L577.7,354.4 L579.5,357.1
		L581.4,359.6 L583.3,362.0 L585.2,364.1 L587.1,366.2 L589.0,368.1 L590.9,369.9 L592.8,371.6 L594.6,373.3
		L596.5,375.0 L598.4,376.6 L600.3,378.3 L602.2,380.1 L604.1,381.9 L606.0,383.8 L607.9,385.8 L609.7,388.0
		L611.6,390.3 L613.5,392.7 L615.4,395.3 L617.3,398.0 L619.2,400.9 L621.1,403.9 L623.0,407.1 L624.8,410.3
		L626.7,413.7 L628.6,417.1 L630.5,420.6 L632.4,424.2 L634.3,427.8 L636.2,431.5 L638.1,435.1 L639.9,438.7
		L641.8,442.2 L643.7,445.7 L645.6,449.1 L647.5,452.3 L649.4,455.4 L651.3,458.4 L653.1,461.1 L655.0,463.6
		L656.9,466.0 L658.8,468.1 L660.7,469.9 L662.6,471.6 L664.5,472.9 L666.4,474.1 L668.2,475.0 L670.1,475.7
		L672.0,476.2 L673.9,476.5 L675.8,476.6 L677.7,476.6 L679.6,476.4 L681.5,476.1 L683.3,475.8 L685.2,475.3
		L687.1,474.9 L689.0,474.4 L690.9,473.9 L692.8,473.4 L694.7,472.9 L696.6,472.5 L698.4,472.1 L700.3,471.8
		L702.2,471.6 L704.1,471.5 L706.0,471.5 L707.9,471.6 L709.8,471.8 L711.7,472.2 L713.5,472.7 L715.4,473.3
		L717.3,474.1 L719.2,475.1 L721.1,476.2 L723.0,477.5 L724.9,478.9 L726.7,480.4 L728.6,482.1 L730.5,483.8
		L732.4,485.7 L734.3,487.6 L736.2,489.6 L738.1,491.6 L740.0,493.6 L741.8,495.6 L743.7,497.6 L745.6,499.4
		L747.5,501.2 L749.4,502.9 L751.3,504.5 L753.2,506.0 L755.1,507.4 L756.9,508.6 L758.8,509.7 L760.7,510.8
		L762.6,511.7 L764.5,512.6 L766.4,513.3 L768.3,514.1 L770.2,514.8 L772.0,515.5 L773.9,516.2 L775.8,516.9
		L777.7,517.7 L779.6,518.5 L781.5,519.4 L783.4,520.4 L785.3,521.5 L787.1,522.6 L789.0,523.9 L790.9,525.2
		L792.8,526.6 L794.7,528.2 L796.6,529.8 L798.5,531.5 L800.3,533.3 L802.2,535.1 L804.1,537.0 L806.0,539.0
		L807.9,540.9 L809.8,542.9 L811.7,544.9 L813.6,546.9 L815.4,548.9 L817.3,550.9 L819.2,552.8 L821.1,554.7
		L823.0,556.5 L824.9,558.3 L826.8,559.9 L828.7,561.6 L830.5,563.1 L832.4,564.6 L834.3,565.9 L836.2,567.2
		L838.1,568.4 L840.0,569.5 L841.9,570.5 L843.8,571.5 L845.6,572.3 L847.5,573.1 L849.4,573.9 L851.3,574.6
		L853.2,575.2 L855.1,575.8 L857.0,576.4 L858.9,577.0 L860.7,577.5 L862.6,578.0 L864.5,578.6 L866.4,579.1
		L868.3,579.6 L870.2,580.1 L872.1,580.6 L873.9,581.1 L875.8,581.7 L877.7,582.2 L879.6,582.7 L881.5,583.3
		L883.4,583.8 L885.3,584.4 L887.2,585.0 L889.0,585.6 L890.9,586.2 L892.8,586.9 L894.7,587.6 L896.6,588.4
		L898.5,589.2 L900.4,590.1 L902.3,591.0 L904.1,591.9 L906.0,593.0 L907.9,594.0 L909.8,595.1 L911.7,596.3
		L913.6,597.5 L915.5,598.8 L917.4,600.1 L919.2,601.4 L921.1,602.7 L923.0,604.1 L924.9,605.4 L926.8,606.8
		L928.7,608.1 L930.6,609.5 L932.5,610.8 L934.3,612.1 L936.2,613.3 L938.1,614.6 L940.0,615.8 L941.9,617.0
		L943.8,618.2 L945.7,619.3 L947.5,620.4 L949.4,621.5 L951.3,622.6 L953.2,623.6 L955.1,624.6 L957.0,625.6
		L958.9,626.5 L960.8,627.5 L962.6,628.4 L964.5,629.2 L966.4,630.1 L968.3,630.9 L970.2,631.7 L972.1,632.4
		L974.0,633.2 L975.9,633.9 L977.7,634.6 L979.6,635.3 L981.5,636.0 L983.4,636.6 L985.3,637.3 L987.2,637.9
		L989.1,638.5 L991.0,639.1 L992.8,639.7 L994.7,640.4 L996.6,640.9 L998.5,641.5 L1000.4,642.1 L1002.3,642.7
		L1004.2,643.3 L1006.1,643.9 L1007.9,644.4 L1009.8,645.0 L1011.7,645.5 L1013.6,646.0  '/></g>
	</g>
	<g id="gnuplot_plot_2" ><title>Confidence interval</title>
<g fill="none" color="white" stroke="rgb( 31, 120, 180)" stroke-width="1.00" stroke-linecap="butt" stroke-linejoin="miter">
</g>
<g fill="none" color="black" stroke="currentColor" stroke-width="1.00" stroke-linecap="butt" stroke-linejoin="miter">
	<g transform="translate(1089.0,85.0)" stroke="none" fill="black" font-family="Helvetica" font-size="12.00"  text-anchor="start">
		<text><tspan font-family="Helvetica" >Confidence interval</tspan></text>
	</g>
</g>
<g fill="none" color="black" stroke="currentColor" stroke-width="1.00" stroke-linecap="butt" stroke-linejoin="miter">
	<g stroke='none' shape-rendering='crispEdges'>
		<polygon fill = 'rgb( 31, 120, 180)' fill-opacity = '0.250000' points = '1038.5,85.6 1080.7,85.6 1080.7,76.6 1038.5,76.6 '/>
		<polygon fill = 'rgb( 31, 120, 180)' fill-opacity = '0.250000' points = '158.7,608.9 158.7,662.4 160.6,662.4 160.6,606.9 '/>
		<polygon fill = 'rgb( 31, 120, 180)' fill-opacity = '0.250000' points = '160.6,606.9 160.6,662.4 162.5,662.4 162.5,604.9 '/>
		<polygon fill = 'rgb( 31, 120, 180)' fill-opacity = '0.250000' points = '162.5,604.9 162.5,662.4 164.4,662.4 164.4,602.6 '/>
		<polygon fill = 'rgb( 31, 120, 180)' fill-opacity = '0.250000' points = '164.4,602.6 164.4,662.4 166.3,662.4 166.3,600.3 '/>
		<polygon fill = 'rgb( 31, 120, 180)' fill-opacity = '0.250000' points = '166.3,600.3 166.3,662.4 168.1,662.4 168.1,597.7 '/>
		<polygon fill = 'rgb( 31, 120, 180)' fill-opacity = '0.250000' points = '168.1,597.7 168.1,662.4 170.0,662.4 170.0,595.1 '/>
		<polygon fill = 'rgb( 31, 120, 180)' fill-opacity = '0.250000' points = '170.0,595.1 170.0,662.4 171.9,662.4 171.9,592.3 '/>
		<polygon fill = 'rgb( 31, 120, 180)' fill-opacity = '0.250000' points = '171.9,592.3 171.9,662.4 173.8,662.4 173.8,589.4 '/>
		<polygon fill = 'rgb( 31, 120, 180)' fill-opacity = '0.250000' points = '173.8,589.4 173.8,662.4 175.7,662.4 175.7,586.5 '/>
		<polygon fill = 'rgb( 31, 120, 180)' fill-opacity = '0.250000' points = '175.7,586.5 175.7,662.4 177.6,662.4 177.6,583.5 '/>
		<polygon fill = 'rgb( 31, 120, 180)' fill-opacity = '0.250000' points = '177.6,583.5 177.6,662.4 179.5,662.4 179.5,580.5 '/>
		<polygon fill = 'rgb( 31, 120, 180)' fill-opacity = '0.250000' points = '179.5,580.5 179.5,662.4 181.4,662.4 181.4,577.5 '/>
		<polygon fill = 'rgb( 31, 120, 180)' fill-opacity = '0.250000' points = '181.4,577.5 181.4,662.4 183.2,662.4 183.2,574.6 '/>
		<polygon fill = 'rgb( 31, 120, 180)' fill-opacity = '0.250000' points = '183.2,574.6 183.2,662.4 185.1,662.4 185.1,571.7 '/>
		<polygon fill = 'rgb( 31, 120, 180)' fill-opacity = '0.250000' points = '185.1,571.7 185.1,662.4 187.0,662.4 187.0,568.8 '/>
		<polygon fill = 'rgb( 31, 120, 180)' fill-opacity = '0.250000' points = '187.0,568.8 187.0,662.4 188.9,662.4 188.9,566.1 '/>
		<polygon fill = 'rgb( 31, 120, 180)' fill-opacity = '0.250000' points = '188.9,566.1 188.9,662.4 190.8,662.4 190.8,563.5 '/>
		<polygon fill = 'rgb( 31, 120, 180)' fill-opacity = '0.250000' points = '190.8,563.5 190.8,662.4 192.7,662.4 192.7,561.0 '/>
		<polygon fill = 'rgb( 31, 120, 180)' fill-opacity = '0.250000' points = '192.7,561.0 192.7,662.4 194.6,662.4 194.6,558.7 '/>
		<polygon fill = 'rgb( 31, 120, 180)' fill-opacity = '0.250000' points = '194.6,558.7 194.6,662.4 196.5,662.4 196.5,556.5 '/>
		<polygon fill = 'rgb( 31, 120, 180)' fill-opacity = '0.250000' points = '196.5,556.5 196.5,662.4 198.3,662.4 198.3,554.4 '/>
		<polygon fill = 'rgb( 31, 120, 180)' fill-opacity = '0.250000' points = '198.3,554.4 198.3,662.4 200.2,662.4 200.2,552.5 '/>
		<polygon fill = 'rgb( 31, 120, 180)' fill-opacity = '0.250000' points = '200.2,552.5 200.2,662.4 202.1,662.4 202.1,550.7 '/>
		<polygon fill = 'rgb( 31, 120, 180)' fill-opacity = '0.250000' points = '202.1,550.7 202.1,662.4 204.0,662.4 204.0,549.0 '/>
		<polygon fill = 'rgb( 31, 120, 180)' fill-opacity = '0.250000' points = '204.0,549.0 204.0,662.4 205.9,662.4 205.9,547.5 '/>
		<polygon fill = 'rgb( 31, 120, 180)' fill-opacity = '0.250000' points = '205.9,547.5 205.9,662.4 207.8,662.4 207.8,546.0 '/>
		<polygon fill = 'rgb( 31, 120, 180)' fill-opacity = '0.250000' points = '207.8,546.0 207.8,662.4 209.7,662.4 209.7,544.6 '/>
		<polygon fill = 'rgb( 31, 120, 180)' fill-opacity = '0.250000' points = '209.7,544.6 209.7,662.4 211.6,662.4 211.6,543.2 '/>
		<polygon fill = 'rgb( 31, 120, 180)' fill-opacity = '0.250000' points = '211.6,543.2 211.6,662.4 213.4,662.4 213.4,541.8 '/>
		<polygon fill = 'rgb( 31, 120, 180)' fill-opacity = '0.250000' points = '213.4,541.8 213.4,662.4 215.3,662.4 215.3,540.5 '/>
		<polygon fill = 'rgb( 31, 120, 180)' fill-opacity = '0.250000' points = '215.3,540.5 215.3,662.4 217.2,662.4 217.2,539.0 '/>
		<polygon fill = 'rgb( 31, 120, 180)' fill-opacity = '0.250000' points = '217.2,539.0 217.2,662.4 219.1,662.4 219.1,537.6 '/>
		<polygon fill = 'rgb( 31, 120, 180)' fill-opacity = '0.250000' points = '219.1,537.6 219.1,662.4 221.0,662.4 221.0,536.0 '/>
		<polygon fill = 'rgb( 31, 120, 180)' fill-opacity = '0.250000' points = '221.0,536.0 221.0,662.4 222.9,662.4 222.9,534.3 '/>
		<polygon fill = 'rgb( 31, 120, 180)' fill-opacity = '0.250000' points = '222.9,534.3 222.9,662.4 224.8,662.4 224.8,532.4 '/>
		<polygon fill = 'rgb( 31, 120, 180)' fill-opacity = '0.250000' points = '224.8,532.4 224.8,662.4 226.6,662.4 226.6,530.3 '/>
		<polygon fill = 'rgb( 31, 120, 180)' fill-opacity = '0.250000' points = '226.6,530.3 226.6,662.4 228.5,662.4 228.5,528.1 '/>
		<polygon fill = 'rgb( 31, 120, 180)' fill-opacity = '0.250000' points = '228.5,528.1 228.5,662.4 230.4,662.4 230.4,525.6 '/>
		<polygon fill = 'rgb( 31, 120, 180)' fill-opacity = '0.250000' points = '230.4,525.6 230.4,662.4 232.3,662.4 232.3,522.8 '/>
		<polygon fill = 'rgb( 31, 120, 180)' fill-opacity = '0.250000' points = '232.3,522.8 232.3,662.4 234.2,662.4 234.2,519.8 '/>
		<polygon fill = 'rgb( 31, 120, 180)' fill-opacity = '0.250000' points = '234.2,519.8 234.2,662.4 236.1,662.4 236.1,516.5 '/>
		<polygon fill = 'rgb( 31, 120, 180)' fill-opacity = '0.250000' points = '236.1,516.5 236.1,662.4 238.0,662.4 238.0,512.9 '/>
		<polygon fill = 'rgb( 31, 120, 180)' fill-opacity = '0.250000' points = '238.0,512.9 238.0,662.4 239.9,662.4 239.9,508.9 '/>
		<polygon fill = 'rgb( 31, 120, 180)' fill-opacity = '0.250000' points = '239.9,508.9 239.9,662.4 241.7,662.4 241.7,504.6 '/>
		<polygon fill = 'rgb( 31, 120, 180)' fill-opacity = '0.250000' points = '241.7,504.6 241.7,662.4 243.6,662.4 243.6,500.0 '/>
		<polygon fill = 'rgb( 31, 120, 180)' fill-opacity = '0.250000' points = '243.6,500.0 243.6,662.4 245.5,662.4 245.5,495.0 '/>
		<polygon fill = 'rgb( 31, 120, 180)' fill-opacity = '0.250000' points = '245.5,495.0 245.5,662.4 247.4,662.4 247.4,489.7 '/>
		<polygon fill = 'rgb( 31, 120, 180)' fill-opacity = '0.250000' points = '247.4,489.7 247.4,662.4 249.3,662.4 249.3,484.0 '/>
		<polygon fill = 'rgb( 31, 120, 180)' fill-opacity = '0.250000' points = '249.3,484.0 249.3,662.4 251.2,662.4 251.2,478.1 '/>
		<polygon fill = 'rgb( 31, 120, 180)' fill-opacity = '0.250000' points = '251.2,478.1 251.2,662.4 253.1,662.4 253.1,471.8 '/>
		<polygon fill = 'rgb( 31, 120, 180)' fill-opacity = '0.250000' points = '253.1,471.8 253.1,662.4 255.0,662.4 255.0,465.2 '/>
		<polygon fill = 'rgb( 31, 120, 180)' fill-opacity = '0.250000' points = '255.0,465.2 255.0,662.4 256.8,662.4 256.8,458.4 '/>
		<polygon fill = 'rgb( 31, 120, 180)' fill-opacity = '0.250000' points = '256.8,458.4 256.8,662.4 258.7,662.4 258.7,451.3 '/>
		<polygon fill = 'rgb( 31, 120, 180)' fill-opacity = '0.250000' points = '258.7,451.3 258.7,662.4 260.6,662.4 260.6,444.0 '/>
		<polygon fill = 'rgb( 31, 120, 180)' fill-opacity = '0.250000' points = '260.6,444.0 260.6,662.4 262.5,662.4 262.5,436.6 '/>
		<polygon fill = 'rgb( 31, 120, 180)' fill-opacity = '0.250000' points = '262.5,436.6 262.5,662.4 264.4,662.4 264.4,428.9 '/>
		<polygon fill = 'rgb( 31, 120, 180)' fill-opacity = '0.250000' points = '264.4,428.9 264.4,662.4 266.3,662.4 266.3,421.2 '/>
		<polygon fill = 'rgb( 31, 120, 180)' fill-opacity = '0.250000' points = '266.3,421.2 266.3,662.4 268.2,662.4 268.2,413.4 '/>
		<polygon fill = 'rgb( 31, 120, 180)' fill-opacity = '0.250000' points = '268.2,413.4 268.2,662.4 270.1,662.4 270.1,405.6 '/>
		<polygon fill = 'rgb( 31, 120, 180)' fill-opacity = '0.250000' points = '270.1,405.6 270.1,662.4 271.9,662.4 271.9,397.7 '/>
		<polygon fill = 'rgb( 31, 120, 180)' fill-opacity = '0.250000' points = '271.9,397.7 271.9,662.4 273.8,662.4 273.8,389.8 '/>
		<polygon fill = 'rgb( 31, 120, 180)' fill-opacity = '0.250000' points = '273.8,389.8 273.8,662.4 275.7,662.4 275.7,382.0 '/>
		<polygon fill = 'rgb( 31, 120, 180)' fill-opacity = '0.250000' points = '275.7,382.0 275.7,662.4 277.6,662.4 277.6,374.2 '/>
		<polygon fill = 'rgb( 31, 120, 180)' fill-opacity = '0.250000' points = '277.6,374.2 277.6,662.4 279.5,662.4 279.5,366.5 '/>
		<polygon fill = 'rgb( 31, 120, 180)' fill-opacity = '0.250000' points = '279.5,366.5 279.5,662.4 281.4,662.4 281.4,358.9 '/>
		<polygon fill = 'rgb( 31, 120, 180)' fill-opacity = '0.250000' points = '281.4,358.9 281.4,662.4 283.3,662.4 283.3,351.5 '/>
		<polygon fill = 'rgb( 31, 120, 180)' fill-opacity = '0.250000' points = '283.3,351.5 283.3,662.4 285.2,662.4 285.2,344.1 '/>
		<polygon fill = 'rgb( 31, 120, 180)' fill-opacity = '0.250000' points = '285.2,344.1 285.2,662.4 287.0,662.4 287.0,336.9 '/>
		<polygon fill = 'rgb( 31, 120, 180)' fill-opacity = '0.250000' points = '287.0,336.9 287.0,662.4 288.9,662.4 288.9,329.9 '/>
		<polygon fill = 'rgb( 31, 120, 180)' fill-opacity = '0.250000' points = '288.9,329.9 288.9,662.4 290.8,662.4 290.8,323.0 '/>
		<polygon fill = 'rgb( 31, 120, 180)' fill-opacity = '0.250000' points = '290.8,323.0 290.8,662.4 292.7,662.4 292.7,316.3 '/>
		<polygon fill = 'rgb( 31, 120, 180)' fill-opacity = '0.250000' points = '292.7,316.3 292.7,662.4 294.6,662.4 294.6,309.7 '/>
		<polygon fill = 'rgb( 31, 120, 180)' fill-opacity = '0.250000' points = '294.6,309.7 294.6,662.4 296.5,662.4 296.5,303.3 '/>
		<polygon fill = 'rgb( 31, 120, 180)' fill-opacity = '0.250000' points = '296.5,303.3 296.5,662.4 298.4,662.4 298.4,297.0 '/>
		<polygon fill = 'rgb( 31, 120, 180)' fill-opacity = '0.250000' points = '298.4,297.0 298.4,662.4 300.2,662.4 300.2,290.9 '/>
		<polygon fill = 'rgb( 31, 120, 180)' fill-opacity = '0.250000' points = '300.2,290.9 300.2,662.4 302.1,662.4 302.1,284.9 '/>
		<polygon fill = 'rgb( 31, 120, 180)' fill-opacity = '0.250000' points = '302.1,284.9 302.1,662.4 304.0,662.4 304.0,279.1 '/>
		<polygon fill = 'rgb( 31, 120, 180)' fill-opacity = '0.250000' points = '304.0,279.1 304.0,662.4 305.9,662.4 305.9,273.4 '/>
		<polygon fill = 'rgb( 31, 120, 180)' fill-opacity = '0.250000' points = '305.9,273.4 305.9,662.4 307.8,662.4 307.8,267.8 '/>
		<polygon fill = 'rgb( 31, 120, 180)' fill-opacity = '0.250000' points = '307.8,267.8 307.8,662.4 309.7,662.4 309.7,262.3 '/>
		<polygon fill = 'rgb( 31, 120, 180)' fill-opacity = '0.250000' points = '309.7,262.3 309.7,662.4 311.6,662.4 311.6,256.9 '/>
		<polygon fill = 'rgb( 31, 120, 180)' fill-opacity = '0.250000' points = '311.6,256.9 311.6,662.4 313.5,662.4 313.5,251.6 '/>
		<polygon fill = 'rgb( 31, 120, 180)' fill-opacity = '0.250000' points = '313.5,251.6 313.5,662.4 315.3,662.4 315.3,246.4 '/>
		<polygon fill = 'rgb( 31, 120, 180)' fill-opacity = '0.250000' points = '315.3,246.4 315.3,662.4 317.2,662.4 317.2,241.2 '/>
		<polygon fill = 'rgb( 31, 120, 180)' fill-opacity = '0.250000' points = '317.2,241.2 317.2,662.4 319.1,662.4 319.1,236.1 '/>
		<polygon fill = 'rgb( 31, 120, 180)' fill-opacity = '0.250000' points = '319.1,236.1 319.1,662.4 321.0,662.4 321.0,231.0 '/>
		<polygon fill = 'rgb( 31, 120, 180)' fill-opacity = '0.250000' points = '321.0,231.0 321.0,662.4 322.9,662.4 322.9,225.9 '/>
		<polygon fill = 'rgb( 31, 120, 180)' fill-opacity = '0.250000' points = '322.9,225.9 322.9,662.4 324.8,662.4 324.8,220.8 '/>
		<polygon fill = 'rgb( 31, 120, 180)' fill-opacity = '0.250000' points = '324.8,220.8 324.8,662.4 326.7,662.4 326.7,215.8 '/>
		<polygon fill = 'rgb( 31, 120, 180)' fill-opacity = '0.250000' points = '326.7,215.8 326.7,662.4 328.6,662.4 328.6,210.7 '/>
		<polygon fill = 'rgb( 31, 120, 180)' fill-opacity = '0.250000' points = '328.6,210.7 328.6,662.4 330.4,662.4 330.4,205.6 '/>
		<polygon fill = 'rgb( 31, 120, 180)' fill-opacity = '0.250000' points = '330.4,205.6 330.4,662.4 332.3,662.4 332.3,200.6 '/>
		<polygon fill = 'rgb( 31, 120, 180)' fill-opacity = '0.250000' points = '332.3,200.6 332.3,662.4 334.2,662.4 334.2,195.5 '/>
		<polygon fill = 'rgb( 31, 120, 180)' fill-opacity = '0.250000' points = '334.2,195.5 334.2,662.4 336.1,662.4 336.1,190.4 '/>
		<polygon fill = 'rgb( 31, 120, 180)' fill-opacity = '0.250000' points = '336.1,190.4 336.1,662.4 338.0,662.4 338.0,185.3 '/>
		<polygon fill = 'rgb( 31, 120, 180)' fill-opacity = '0.250000' points = '338.0,185.3 338.0,662.4 339.9,662.4 339.9,180.2 '/>
		<polygon fill = 'rgb( 31, 120, 180)' fill-opacity = '0.250000' points = '339.9,180.2 339.9,662.4 341.8,662.4 341.8,175.2 '/>
		<polygon fill = 'rgb( 31, 120, 180)' fill-opacity = '0.250000' points = '341.8,175.2 341.8,662.4 343.7,662.4 343.7,170.2 '/>
		<polygon fill = 'rgb( 31, 120, 180)' fill-opacity = '0.250000' points = '343.7,170.2 343.7,662.4 345.5,662.4 345.5,165.3 '/>
		<polygon fill = 'rgb( 31, 120, 180)' fill-opacity = '0.250000' points = '345.5,165.3 345.5,662.4 347.4,662.4 347.4,160.5 '/>
		<polygon fill = 'rgb( 31, 120, 180)' fill-opacity = '0.250000' points = '347.4,160.5 347.4,662.4 349.3,662.4 349.3,155.8 '/>
		<polygon fill = 'rgb( 31, 120, 180)' fill-opacity = '0.250000' points = '349.3,155.8 349.3,662.4 351.2,662.4 351.2,151.3 '/>
		<polygon fill = 'rgb( 31, 120, 180)' fill-opacity = '0.250000' points = '351.2,151.3 351.2,662.4 353.1,662.4 353.1,147.0 '/>
		<polygon fill = 'rgb( 31, 120, 180)' fill-opacity = '0.250000' points = '353.1,147.0 353.1,662.4 355.0,662.4 355.0,142.8 '/>
		<polygon fill = 'rgb( 31, 120, 180)' fill-opacity = '0.250000' points = '355.0,142.8 355.0,662.4 356.9,662.4 356.9,138.9 '/>
		<polygon fill = 'rgb( 31, 120, 180)' fill-opacity = '0.250000' points = '356.9,138.9 356.9,662.4 358.8,662.4 358.8,135.3 '/>
		<polygon fill = 'rgb( 31, 120, 180)' fill-opacity = '0.250000' points = '358.8,135.3 358.8,662.4 360.6,662.4 360.6,132.0 '/>
		<polygon fill = 'rgb( 31, 120, 180)' fill-opacity = '0.250000' points = '360.6,132.0 360.6,662.4 362.5,662.4 362.5,129.0 '/>
		<polygon fill = 'rgb( 31, 120, 180)' fill-opacity = '0.250000' points = '362.5,129.0 362.5,662.4 364.4,662.4 364.4,126.4 '/>
		<polygon fill = 'rgb( 31, 120, 180)' fill-opacity = '0.250000' points = '364.4,126.4 364.4,662.4 366.3,662.4 366.3,124.1 '/>
		<polygon fill = 'rgb( 31, 120, 180)' fill-opacity = '0.250000' points = '366.3,124.1 366.3,662.4 368.2,662.4 368.2,122.2 '/>
		<polygon fill = 'rgb( 31, 120, 180)' fill-opacity = '0.250000' points = '368.2,122.2 368.2,662.4 370.1,662.4 370.1,120.6 '/>
		<polygon fill = 'rgb( 31, 120, 180)' fill-opacity = '0.250000' points = '370.1,120.6 370.1,662.4 372.0,662.4 372.0,119.5 '/>
		<polygon fill = 'rgb( 31, 120, 180)' fill-opacity = '0.250000' points = '372.0,119.5 372.0,662.4 373.8,662.4 373.8,118.6 '/>
		<polygon fill = 'rgb( 31, 120, 180)' fill-opacity = '0.250000' points = '373.8,118.6 373.8,662.4 375.7,662.4 375.7,118.2 '/>
		<polygon fill = 'rgb( 31, 120, 180)' fill-opacity = '0.250000' points = '375.7,118.2 375.7,662.4 377.6,662.4 377.6,118.0 '/>
		<polygon fill = 'rgb( 31, 120, 180)' fill-opacity = '0.250000' points = '377.6,118.0 377.6,662.4 379.5,662.4 379.5,118.2 '/>
		<polygon fill = 'rgb( 31, 120, 180)' fill-opacity = '0.250000' points = '379.5,118.2 379.5,662.4 381.4,662.4 381.4,118.7 '/>
		<polygon fill = 'rgb( 31, 120, 180)' fill-opacity = '0.250000' points = '381.4,118.7 381.4,662.4 383.3,662.4 383.3,119.3 '/>
		<polygon fill = 'rgb( 31, 120, 180)' fill-opacity = '0.250000' points = '383.3,119.3 383.3,662.4 385.2,662.4 385.2,120.2 '/>
		<polygon fill = 'rgb( 31, 120, 180)' fill-opacity = '0.250000' points = '385.2,120.2 385.2,662.4 387.1,662.4 387.1,121.3 '/>
		<polygon fill = 'rgb( 31, 120, 180)' fill-opacity = '0.250000' points = '387.1,121.3 387.1,662.4 388.9,662.4 388.9,122.5 '/>
		<polygon fill = 'rgb( 31, 120, 180)' fill-opacity = '0.250000' points = '388.9,122.5 388.9,662.4 390.8,662.4 390.8,123.7 '/>
		<polygon fill = 'rgb( 31, 120, 180)' fill-opacity = '0.250000' points = '390.8,123.7 390.8,662.4 392.7,662.4 392.7,125.0 '/>
		<polygon fill = 'rgb( 31, 120, 180)' fill-opacity = '0.250000' points = '392.7,125.0 392.7,662.4 394.6,662.4 394.6,126.4 '/>
		<polygon fill = 'rgb( 31, 120, 180)' fill-opacity = '0.250000' points = '394.6,126.4 394.6,662.4 396.5,662.4 396.5,127.6 '/>
		<polygon fill = 'rgb( 31, 120, 180)' fill-opacity = '0.250000' points = '396.5,127.6 396.5,662.4 398.4,662.4 398.4,128.9 '/>
		<polygon fill = 'rgb( 31, 120, 180)' fill-opacity = '0.250000' points = '398.4,128.9 398.4,662.4 400.3,662.4 400.3,130.0 '/>
		<polygon fill = 'rgb( 31, 120, 180)' fill-opacity = '0.250000' points = '400.3,130.0 400.3,662.4 402.2,662.4 402.2,131.0 '/>
		<polygon fill = 'rgb( 31, 120, 180)' fill-opacity = '0.250000' points = '402.2,131.0 402.2,662.4 404.0,662.4 404.0,131.9 '/>
		<polygon fill = 'rgb( 31, 120, 180)' fill-opacity = '0.250000' points = '404.0,131.9 404.0,662.4 405.9,662.4 405.9,132.7 '/>
		<polygon fill = 'rgb( 31, 120, 180)' fill-opacity = '0.250000' points = '405.9,132.7 405.9,662.4 407.8,662.4 407.8,133.2 '/>
		<polygon fill = 'rgb( 31, 120, 180)' fill-opacity = '0.250000' points = '407.8,133.2 407.8,662.4 409.7,662.4 409.7,133.7 '/>
		<polygon fill = 'rgb( 31, 120, 180)' fill-opacity = '0.250000' points = '409.7,133.7 409.7,662.4 411.6,662.4 411.6,133.9 '/>
		<polygon fill = 'rgb( 31, 120, 180)' fill-opacity = '0.250000' points = '411.6,133.9 411.6,662.4 413.5,662.4 413.5,134.0 '/>
		<polygon fill = 'rgb( 31, 120, 180)' fill-opacity = '0.250000' points = '413.5,134.0 413.5,662.4 415.4,662.4 415.4,134.0 '/>
		<polygon fill = 'rgb( 31, 120, 180)' fill-opacity = '0.250000' points = '415.4,134.0 415.4,662.4 417.3,662.4 417.3,133.8 '/>
		<polygon fill = 'rgb( 31, 120, 180)' fill-opacity = '0.250000' points = '417.3,133.8 417.3,662.4 419.1,662.4 419.1,133.5 '/>
		<polygon fill = 'rgb( 31, 120, 180)' fill-opacity = '0.250000' points = '419.1,133.5 419.1,662.4 421.0,662.4 421.0,133.0 '/>
		<polygon fill = 'rgb( 31, 120, 180)' fill-opacity = '0.250000' points = '421.0,133.0 421.0,662.4 422.9,662.4 422.9,132.5 '/>
		<polygon fill = 'rgb( 31, 120, 180)' fill-opacity = '0.250000' points = '422.9,132.5 422.9,662.4 424.8,662.4 424.8,131.9 '/>
		<polygon fill = 'rgb( 31, 120, 180)' fill-opacity = '0.250000' points = '424.8,131.9 424.8,662.4 426.7,662.4 426.7,131.3 '/>
		<polygon fill = 'rgb( 31, 120, 180)' fill-opacity = '0.250000' points = '426.7,131.3 426.7,662.4 428.6,662.4 428.6,130.7 '/>
		<polygon fill = 'rgb( 31, 120, 180)' fill-opacity = '0.250000' points = '428.6,130.7 428.6,662.4 430.5,662.4 430.5,130.1 '/>
		<polygon fill = 'rgb( 31, 120, 180)' fill-opacity = '0.250000' points = '430.5,130.1 430.5,662.4 432.4,662.4 432.4,129.5 '/>
		<polygon fill = 'rgb( 31, 120, 180)' fill-opacity = '0.250000' points = '432.4,129.5 432.4,662.4 434.2,662.4 434.2,128.9 '/>
		<polygon fill = 'rgb( 31, 120, 180)' fill-opacity = '0.250000' points = '434.2,128.9 434.2,662.4 436.1,662.4 436.1,128.4 '/>
		<polygon fill = 'rgb( 31, 120, 180)' fill-opacity = '0.250000' points = '436.1,128.4 436.1,662.4 438.0,662.4 438.0,128.1 '/>
		<polygon fill = 'rgb( 31, 120, 180)' fill-opacity = '0.250000' points = '438.0,128.1 438.0,662.4 439.9,662.4 439.9,127.8 '/>
		<polygon fill = 'rgb( 31, 120, 180)' fill-opacity = '0.250000' points = '439.9,127.8 439.9,662.4 441.8,662.4 441.8,127.6 '/>
		<polygon fill = 'rgb( 31, 120, 180)' fill-opacity = '0.250000' points = '441.8,127.6 441.8,662.4 443.7,662.4 443.7,127.6 '/>
		<polygon fill = 'rgb( 31, 120, 180)' fill-opacity = '0.250000' points = '443.7,127.6 443.7,662.4 445.6,662.4 445.6,127.7 '/>
		<polygon fill = 'rgb( 31, 120, 180)' fill-opacity = '0.250000' points = '445.6,127.7 445.6,662.4 447.4,662.4 447.4,128.0 '/>
		<polygon fill = 'rgb( 31, 120, 180)' fill-opacity = '0.250000' points = '447.4,128.0 447.4,662.4 449.3,662.4 449.3,128.5 '/>
		<polygon fill = 'rgb( 31, 120, 180)' fill-opacity = '0.250000' points = '449.3,128.5 449.3,662.4 451.2,662.4 451.2,129.1 '/>
		<polygon fill = 'rgb( 31, 120, 180)' fill-opacity = '0.250000' points = '451.2,129.1 451.2,662.4 453.1,662.4 453.1,129.8 '/>
		<polygon fill = 'rgb( 31, 120, 180)' fill-opacity = '0.250000' points = '453.1,129.8 453.1,662.4 455.0,662.4 455.0,130.8 '/>
		<polygon fill = 'rgb( 31, 120, 180)' fill-opacity = '0.250000' points = '455.0,130.8 455.0,662.4 456.9,662.4 456.9,131.8 '/>
		<polygon fill = 'rgb( 31, 120, 180)' fill-opacity = '0.250000' points = '456.9,131.8 456.9,662.4 458.8,662.4 458.8,133.1 '/>
		<polygon fill = 'rgb( 31, 120, 180)' fill-opacity = '0.250000' points = '458.8,133.1 458.8,662.4 460.7,662.4 460.7,134.5 '/>
		<polygon fill = 'rgb( 31, 120, 180)' fill-opacity = '0.250000' points = '460.7,134.5 460.7,662.4 462.5,662.4 462.5,136.0 '/>
		<polygon fill = 'rgb( 31, 120, 180)' fill-opacity = '0.250000' points = '462.5,136.0 462.5,662.4 464.4,662.4 464.4,137.7 '/>
		<polygon fill = 'rgb( 31, 120, 180)' fill-opacity = '0.250000' points = '464.4,137.7 464.4,662.4 466.3,662.4 466.3,139.6 '/>
		<polygon fill = 'rgb( 31, 120, 180)' fill-opacity = '0.250000' points = '466.3,139.6 466.3,662.4 468.2,662.4 468.2,141.6 '/>
		<polygon fill = 'rgb( 31, 120, 180)' fill-opacity = '0.250000' points = '468.2,141.6 468.2,662.4 470.1,662.4 470.1,143.7 '/>
		<polygon fill = 'rgb( 31, 120, 180)' fill-opacity = '0.250000' points = '470.1,143.7 470.1,662.4 472.0,662.4 472.0,146.0 '/>
		<polygon fill = 'rgb( 31, 120, 180)' fill-opacity = '0.250000' points = '472.0,146.0 472.0,662.4 473.9,662.4 473.9,148.4 '/>
		<polygon fill = 'rgb( 31, 120, 180)' fill-opacity = '0.250000' points = '473.9,148.4 473.9,662.4 475.8,662.4 475.8,150.9 '/>
		<polygon fill = 'rgb( 31, 120, 180)' fill-opacity = '0.250000' points = '475.8,150.9 475.8,662.4 477.6,662.4 477.6,153.6 '/>
		<polygon fill = 'rgb( 31, 120, 180)' fill-opacity = '0.250000' points = '477.6,153.6 477.6,662.4 479.5,662.4 479.5,156.3 '/>
		<polygon fill = 'rgb( 31, 120, 180)' fill-opacity = '0.250000' points = '479.5,156.3 479.5,662.4 481.4,662.4 481.4,159.2 '/>
		<polygon fill = 'rgb( 31, 120, 180)' fill-opacity = '0.250000' points = '481.4,159.2 481.4,662.4 483.3,662.4 483.3,162.2 '/>
		<polygon fill = 'rgb( 31, 120, 180)' fill-opacity = '0.250000' points = '483.3,162.2 483.3,662.4 485.2,662.4 485.2,165.3 '/>
		<polygon fill = 'rgb( 31, 120, 180)' fill-opacity = '0.250000' points = '485.2,165.3 485.2,662.4 487.1,662.4 487.1,168.4 '/>
		<polygon fill = 'rgb( 31, 120, 180)' fill-opacity = '0.250000' points = '487.1,168.4 487.1,662.4 489.0,662.4 489.0,171.6 '/>
		<polygon fill = 'rgb( 31, 120, 180)' fill-opacity = '0.250000' points = '489.0,171.6 489.0,662.4 490.9,662.4 490.9,174.9 '/>
		<polygon fill = 'rgb( 31, 120, 180)' fill-opacity = '0.250000' points = '490.9,174.9 490.9,662.4 492.7,662.4 492.7,178.2 '/>
		<polygon fill = 'rgb( 31, 120, 180)' fill-opacity = '0.250000' points = '492.7,178.2 492.7,662.4 494.6,662.4 494.6,181.5 '/>
		<polygon fill = 'rgb( 31, 120, 180)' fill-opacity = '0.250000' points = '494.6,181.5 494.6,662.4 496.5,662.4 496.5,184.8 '/>
		<polygon fill = 'rgb( 31, 120, 180)' fill-opacity = '0.250000' points = '496.5,184.8 496.5,662.4 498.4,662.4 498.4,188.2 '/>
		<polygon fill = 'rgb( 31, 120, 180)' fill-opacity = '0.250000' points = '498.4,188.2 498.4,662.4 500.3,662.4 500.3,191.5 '/>
		<polygon fill = 'rgb( 31, 120, 180)' fill-opacity = '0.250000' points = '500.3,191.5 500.3,662.4 502.2,662.4 502.2,194.9 '/>
		<polygon fill = 'rgb( 31, 120, 180)' fill-opacity = '0.250000' points = '502.2,194.9 502.2,662.4 504.1,662.4 504.1,198.2 '/>
		<polygon fill = 'rgb( 31, 120, 180)' fill-opacity = '0.250000' points = '504.1,198.2 504.1,662.4 506.0,662.4 506.0,201.6 '/>
		<polygon fill = 'rgb( 31, 120, 180)' fill-opacity = '0.250000' points = '506.0,201.6 506.0,662.4 507.8,662.4 507.8,205.0 '/>
		<polygon fill = 'rgb( 31, 120, 180)' fill-opacity = '0.250000' points = '507.8,205.0 507.8,662.4 509.7,662.4 509.7,208.4 '/>
		<polygon fill = 'rgb( 31, 120, 180)' fill-opacity = '0.250000' points = '509.7,208.4 509.7,662.4 511.6,662.4 511.6,211.8 '/>
		<polygon fill = 'rgb( 31, 120, 180)' fill-opacity = '0.250000' points = '511.6,211.8 511.6,662.4 513.5,662.4 513.5,215.3 '/>
		<polygon fill = 'rgb( 31, 120, 180)' fill-opacity = '0.250000' points = '513.5,215.3 513.5,662.4 515.4,662.4 515.4,218.8 '/>
		<polygon fill = 'rgb( 31, 120, 180)' fill-opacity = '0.250000' points = '515.4,218.8 515.4,662.4 517.3,662.4 517.3,222.4 '/>
		<polygon fill = 'rgb( 31, 120, 180)' fill-opacity = '0.250000' points = '517.3,222.4 517.3,662.4 519.2,662.4 519.2,226.0 '/>
		<polygon fill = 'rgb( 31, 120, 180)' fill-opacity = '0.250000' points = '519.2,226.0 519.2,662.4 521.0,662.4 521.0,229.7 '/>
		<polygon fill = 'rgb( 31, 120, 180)' fill-opacity = '0.250000' points = '521.0,229.7 521.0,662.4 522.9,662.4 522.9,233.5 '/>
		<polygon fill = 'rgb( 31, 120, 180)' fill-opacity = '0.250000' points = '522.9,233.5 522.9,662.4 524.8,662.4 524.8,237.4 '/>
		<polygon fill = 'rgb( 31, 120, 180)' fill-opacity = '0.250000' points = '524.8,237.4 524.8,662.4 526.7,662.4 526.7,241.4 '/>
		<polygon fill = 'rgb( 31, 120, 180)' fill-opacity = '0.250000' points = '526.7,241.4 526.7,662.4 528.6,662.4 528.6,245.5 '/>
		<polygon fill = 'rgb( 31, 120, 180)' fill-opacity = '0.250000' points = '528.6,245.5 528.6,662.4 530.5,662.4 530.5,249.6 '/>
		<polygon fill = 'rgb( 31, 120, 180)' fill-opacity = '0.250000' points = '530.5,249.6 530.5,662.4 532.4,662.4 532.4,253.9 '/>
		<polygon fill = 'rgb( 31, 120, 180)' fill-opacity = '0.250000' points = '532.4,253.9 532.4,662.4 534.3,662.4 534.3,258.2 '/>
		<polygon fill = 'rgb( 31, 120, 180)' fill-opacity = '0.250000' points = '534.3,258.2 534.3,662.4 536.1,662.4 536.1,262.6 '/>
		<polygon fill = 'rgb( 31, 120, 180)' fill-opacity = '0.250000' points = '536.1,262.6 536.1,662.4 538.0,662.4 538.0,267.1 '/>
		<polygon fill = 'rgb( 31, 120, 180)' fill-opacity = '0.250000' points = '538.0,267.1 538.0,662.4 539.9,662.4 539.9,271.6 '/>
		<polygon fill = 'rgb( 31, 120, 180)' fill-opacity = '0.250000' points = '539.9,271.6 539.9,662.4 541.8,662.4 541.8,276.2 '/>
		<polygon fill = 'rgb( 31, 120, 180)' fill-opacity = '0.250000' points = '541.8,276.2 541.8,662.4 543.7,662.4 543.7,280.8 '/>
		<polygon fill = 'rgb( 31, 120, 180)' fill-opacity = '0.250000' points = '543.7,280.8 543.7,662.4 545.6,662.4 545.6,285.4 '/>
		<polygon fill = 'rgb( 31, 120, 180)' fill-opacity = '0.250000' points = '545.6,285.4 545.6,662.4 547.5,662.4 547.5,290.1 '/>
		<polygon fill = 'rgb( 31, 120, 180)' fill-opacity = '0.250000' points = '547.5,290.1 547.5,662.4 549.4,662.4 549.4,294.7 '/>
		<polygon fill = 'rgb( 31, 120, 180)' fill-opacity = '0.250000' points = '549.4,294.7 549.4,662.4 551.2,662.4 551.2,299.3 '/>
		<polygon fill = 'rgb( 31, 120, 180)' fill-opacity = '0.250000' points = '551.2,299.3 551.2,662.4 553.1,662.4 553.1,303.9 '/>
		<polygon fill = 'rgb( 31, 120, 180)' fill-opacity = '0.250000' points = '553.1,303.9 553.1,662.4 555.0,662.4 555.0,308.5 '/>
		<polygon fill = 'rgb( 31, 120, 180)' fill-opacity = '0.250000' points = '555.0,308.5 555.0,662.4 556.9,662.4 556.9,313.0 '/>
		<polygon fill = 'rgb( 31, 120, 180)' fill-opacity = '0.250000' points = '556.9,313.0 556.9,662.4 558.8,662.4 558.8,317.4 '/>
		<polygon fill = 'rgb( 31, 120, 180)' fill-opacity = '0.250000' points = '558.8,317.4 558.8,662.4 560.7,662.4 560.7,321.8 '/>
		<polygon fill = 'rgb( 31, 120, 180)' fill-opacity = '0.250000' points = '560.7,321.8 560.7,662.4 562.6,662.4 562.6,326.0 '/>
		<polygon fill = 'rgb( 31, 120, 180)' fill-opacity = '0.250000' points = '562.6,326.0 562.6,662.4 564.5,662.4 564.5,330.1 '/>
		<polygon fill = 'rgb( 31, 120, 180)' fill-opacity = '0.250000' points = '564.5,330.1 564.5,662.4 566.3,662.4 566.3,334.1 '/>
		<polygon fill = 'rgb( 31, 120, 180)' fill-opacity = '0.250000' points = '566.3,334.1 566.3,662.4 568.2,662.4 568.2,337.9 '/>
		<polygon fill = 'rgb( 31, 120, 180)' fill-opacity = '0.250000' points = '568.2,337.9 568.2,662.4 570.1,662.4 570.1,341.6 '/>
		<polygon fill = 'rgb( 31, 120, 180)' fill-opacity = '0.250000' points = '570.1,341.6 570.1,662.4 572.0,662.4 572.0,345.1 '/>
		<polygon fill = 'rgb( 31, 120, 180)' fill-opacity = '0.250000' points = '572.0,345.1 572.0,662.4 573.9,662.4 573.9,348.4 '/>
		<polygon fill = 'rgb( 31, 120, 180)' fill-opacity = '0.250000' points = '573.9,348.4 573.9,662.4 575.8,662.4 575.8,351.5 '/>
		<polygon fill = 'rgb( 31, 120, 180)' fill-opacity = '0.250000' points = '575.8,351.5 575.8,662.4 577.7,662.4 577.7,354.4 '/>
		<polygon fill = 'rgb( 31, 120, 180)' fill-opacity = '0.250000' points = '577.7,354.4 577.7,662.4 579.5,662.4 579.5,357.1 '/>
		<polygon fill = 'rgb( 31, 120, 180)' fill-opacity = '0.250000' points = '579.5,357.1 579.5,662.4 581.4,662.4 581.4,359.6 '/>
		<polygon fill = 'rgb( 31, 120, 180)' fill-opacity = '0.250000' points = '581.4,359.6 581.4,662.4 583.3,662.4 583.3,362.0 '/>
		<polygon fill = 'rgb( 31, 120, 180)' fill-opacity = '0.250000' points = '583.3,362.0 583.3,662.4 585.2,662.4 585.2,364.1 '/>
		<polygon fill = 'rgb( 31, 120, 180)' fill-opacity = '0.250000' points = '585.2,364.1 585.2,662.4 587.1,662.4 587.1,366.2 '/>
		<polygon fill = 'rgb( 31, 120, 180)' fill-opacity = '0.250000' points = '587.1,366.2 587.1,662.4 589.0,662.4 589.0,368.1 '/>
		<polygon fill = 'rgb( 31, 120, 180)' fill-opacity = '0.250000' points = '589.0,368.1 589.0,662.4 590.9,662.4 590.9,369.9 '/>
		<polygon fill = 'rgb( 31, 120, 180)' fill-opacity = '0.250000' points = '590.9,369.9 590.9,662.4 592.8,662.4 592.8,371.6 '/>
		<polygon fill = 'rgb( 31, 120, 180)' fill-opacity = '0.250000' points = '592.8,371.6 592.8,662.4 594.6,662.4 594.6,373.3 '/>
		<polygon fill = 'rgb( 31, 120, 180)' fill-opacity = '0.250000' points = '594.6,373.3 594.6,662.4 596.5,662.4 596.5,375.0 '/>
		<polygon fill = 'rgb( 31, 120, 180)' fill-opacity = '0.250000' points = '596.5,375.0 596.5,662.4 598.4,662.4 598.4,376.6 '/>
		<polygon fill = 'rgb( 31, 120, 180)' fill-opacity = '0.250000' points = '598.4,376.6 598.4,662.4 600.3,662.4 600.3,378.3 '/>
		<polygon fill = 'rgb( 31, 120, 180)' fill-opacity = '0.250000' points = '600.3,378.3 600.3,662.4 602.2,662.4 602.2,380.1 '/>
		<polygon fill = 'rgb( 31, 120, 180)' fill-opacity = '0.250000' points = '602.2,380.1 602.2,662.4 604.1,662.4 604.1,381.9 '/>
		<polygon fill = 'rgb( 31, 120, 180)' fill-opacity = '0.250000' points = '604.1,381.9 604.1,662.4 606.0,662.4 606.0,383.8 '/>
		<polygon fill = 'rgb( 31, 120, 180)' fill-opacity = '0.250000' points = '606.0,383.8 606.0,662.4 607.9,662.4 607.9,385.8 '/>
		<polygon fill = 'rgb( 31, 120, 180)' fill-opacity = '0.250000' points = '607.9,385.8 607.9,662.4 609.7,662.4 609.7,388.0 '/>
		<polygon fill = 'rgb( 31, 120, 180)' fill-opacity = '0.250000' points = '609.7,388.0 609.7,662.4 611.6,662.4 611.6,390.3 '/>
		<polygon fill = 'rgb( 31, 120, 180)' fill-opacity = '0.250000' points = '611.6,390.3 611.6,662.4 613.5,662.4 613.5,392.7 '/>
		<polygon fill = 'rgb( 31, 120, 180)' fill-opacity = '0.250000' points = '613.5,392.7 613.5,662.4 615.4,662.4 615.4,395.3 '/>
		<polygon fill = 'rgb( 31, 120, 180)' fill-opacity = '0.250000' points = '615.4,395.3 615.4,662.4 617.3,662.4 617.3,398.0 '/>
		<polygon fill = 'rgb( 31, 120, 180)' fill-opacity = '0.250000' points = '617.3,398.0 617.3,662.4 619.2,662.4 619.2,400.9 '/>
		<polygon fill = 'rgb( 31, 120, 180)' fill-opacity = '0.250000' points = '619.2,400.9 619.2,662.4 621.1,662.4 621.1,403.9 '/>
		<polygon fill = 'rgb( 31, 120, 180)' fill-opacity = '0.250000' points = '621.1,403.9 621.1,662.4 623.0,662.4 623.0,407.1 '/>
		<polygon fill = 'rgb( 31, 120, 180)' fill-opacity = '0.250000' points = '623.0,407.1 623.0,662.4 624.8,662.4 624.8,410.3 '/>
		<polygon fill = 'rgb( 31, 120, 180)' fill-opacity = '0.250000' points = '624.8,410.3 624.8,662.4 626.7,662.4 626.7,413.7 '/>
		<polygon fill = 'rgb( 31, 120, 180)' fill-opacity = '0.250000' points = '626.7,413.7 626.7,662.4 628.6,662.4 628.6,417.1 '/>
		<polygon fill = 'rgb( 31, 120, 180)' fill-opacity = '0.250000' points = '628.6,417.1 628.6,662.4 630.5,662.4 630.5,420.6 '/>
		<polygon fill = 'rgb( 31, 120, 180)' fill-opacity = '0.250000' points = '630.5,420.6 630.5,662.4 632.4,662.4 632.4,424.2 '/>
		<polygon fill = 'rgb( 31, 120, 180)' fill-opacity = '0.250000' points = '632.4,424.2 632.4,662.4 634.3,662.4 634.3,427.8 '/>
		<polygon fill = 'rgb( 31, 120, 180)' fill-opacity = '0.250000' points = '634.3,427.8 634.3,662.4 636.2,662.4 636.2,431.5 '/>
		<polygon fill = 'rgb( 31, 120, 180)' fill-opacity = '0.250000' points = '636.2,431.5 636.2,662.4 638.1,662.4 638.1,435.1 '/>
		<polygon fill = 'rgb( 31, 120, 180)' fill-opacity = '0.250000' points = '638.1,435.1 638.1,662.4 639.9,662.4 639.9,438.7 '/>
		<polygon fill = 'rgb( 31, 120, 180)' fill-opacity = '0.250000' points = '639.9,438.7 639.9,662.4 641.8,662.4 641.8,442.2 '/>
		<polygon fill = 'rgb( 31, 120, 180)' fill-opacity = '0.250000' points = '641.8,442.2 641.8,662.4 643.7,662.4 643.7,445.7 '/>
		<polygon fill = 'rgb( 31, 120, 180)' fill-opacity = '0.250000' points = '643.7,445.7 643.7,662.4 645.6,662.4 645.6,449.1 '/>
		<polygon fill = 'rgb( 31, 120, 180)' fill-opacity = '0.250000' points = '645.6,449.1 645.6,662.4 647.5,662.4 647.5,452.3 '/>
		<polygon fill = 'rgb( 31, 120, 180)' fill-opacity = '0.250000' points = '647.5,452.3 647.5,662.4 649.4,662.4 649.4,455.4 '/>
		<polygon fill = 'rgb( 31, 120, 180)' fill-opacity = '0.250000' points = '649.4,455.4 649.4,662.4 651.3,662.4 651.3,458.4 '/>
		<polygon fill = 'rgb( 31, 120, 180)' fill-opacity = '0.250000' points = '651.3,458.4 651.3,662.4 653.1,662.4 653.1,461.1 '/>
		<polygon fill = 'rgb( 31, 120, 180)' fill-opacity = '0.250000' points = '653.1,461.1 653.1,662.4 655.0,662.4 655.0,463.6 '/>
		<polygon fill = 'rgb( 31, 120, 180)' fill-opacity = '0.250000' points = '655.0,463.6 655.0,662.4 656.9,662.4 656.9,466.0 '/>
		<polygon fill = 'rgb( 31, 120, 180)' fill-opacity = '0.250000' points = '656.9,466.0 656.9,662.4 658.8,662.4 658.8,468.1 '/>
		<polygon fill = 'rgb( 31, 120, 180)' fill-opacity = '0.250000' points = '658.8,468.1 658.8,662.4 660.7,662.4 660.7,469.9 '/>
		<polygon fill = 'rgb( 31, 120, 180)' fill-opacity = '0.250000' points = '660.7,469.9 660.7,662.4 662.6,662.4 662.6,471.6 '/>
		<polygon fill = 'rgb( 31, 120, 180)' fill-opacity = '0.250000' points = '662.6,471.6 662.6,662.4 664.5,662.4 664.5,472.9 '/>
		<polygon fill = 'rgb( 31, 120, 180)' fill-opacity = '0.250000' points = '664.5,472.9 664.5,662.4 666.4,662.4 666.4,474.1 '/>
		<polygon fill = 'rgb( 31, 120, 180)' fill-opacity = '0.250000' points = '666.4,474.1 666.4,662.4 668.2,662.4 668.2,475.0 '/>
		<polygon fill = 'rgb( 31, 120, 180)' fill-opacity = '0.250000' points = '668.2,475.0 668.2,662.4 670.1,662.4 670.1,475.7 '/>
		<polygon fill = 'rgb( 31, 120, 180)' fill-opacity = '0.250000' points = '670.1,475.7 670.1,662.4 672.0,662.4 672.0,476.2 '/>
		<polygon fill = 'rgb( 31, 120, 180)' fill-opacity = '0.250000' points = '672.0,476.2 672.0,662.4 673.9,662.4 673.9,476.5 '/>
		<polygon fill = 'rgb( 31, 120, 180)' fill-opacity = '0.250000' points = '673.9,476.5 673.9,662.4 675.8,662.4 675.8,476.6 '/>
		<polygon fill = 'rgb( 31, 120, 180)' fill-opacity = '0.250000' points = '675.8,476.6 675.8,662.4 677.7,662.4 677.7,476.6 '/>
		<polygon fill = 'rgb( 31, 120, 180)' fill-opacity = '0.250000' points = '677.7,476.6 677.7,662.4 679.6,662.4 679.6,476.4 '/>
		<polygon fill = 'rgb( 31, 120, 180)' fill-opacity = '0.250000' points = '679.6,476.4 679.6,662.4 681.5,662.4 681.5,476.1 '/>
		<polygon fill = 'rgb( 31, 120, 180)' fill-opacity = '0.250000' points = '681.5,476.1 681.5,662.4 683.3,662.4 683.3,475.8 '/>
		<polygon fill = 'rgb( 31, 120, 180)' fill-opacity = '0.250000' points = '683.3,475.8 683.3,662.4 685.2,662.4 685.2,475.3 '/>
		<polygon fill = 'rgb( 31, 120, 180)' fill-opacity = '0.250000' points = '685.2,475.3 685.2,662.4 687.1,662.4 687.1,474.9 '/>
		<polygon fill = 'rgb( 31, 120, 180)' fill-opacity = '0.250000' points = '687.1,474.9 687.1,662.4 689.0,662.4 689.0,474.4 '/>
		<polygon fill = 'rgb( 31, 120, 180)' fill-opacity = '0.250000' points = '689.0,474.4 689.0,662.4 690.9,662.4 690.9,473.9 '/>
		<polygon fill = 'rgb( 31, 120, 180)' fill-opacity = '0.250000' points = '690.9,473.9 690.9,662.4 692.8,662.4 692.8,473.4 '/>
		<polygon fill = 'rgb( 31, 120, 180)' fill-opacity = '0.250000' points = '692.8,473.4 692.8,662.4 694.7,662.4 694.7,472.9 '/>
		<polygon fill = 'rgb( 31, 120, 180)' fill-opacity = '0.250000' points = '694.7,472.9 694.7,662.4 696.6,662.4 696.6,472.5 '/>
		<polygon fill = 'rgb( 31, 120, 180)' fill-opacity = '0.250000' points = '696.6,472.5 696.6,662.4 698.4,662.4 698.4,472.1 '/>
		<polygon fill = 'rgb( 31, 120, 180)' fill-opacity = '0.250000' points = '698.4,472.1 698.4,662.4 700.3,662.4 700.3,471.8 '/>
		<polygon fill = 'rgb( 31, 120, 180)' fill-opacity = '0.250000' points = '700.3,471.8 700.3,662.4 702.2,662.4 702.2,471.6 '/>
		<polygon fill = 'rgb( 31, 120, 180)' fill-opacity = '0.250000' points = '702.2,471.6 702.2,662.4 704.1,662.4 704.1,471.5 '/>
		<polygon fill = 'rgb( 31, 120, 180)' fill-opacity = '0.250000' points = '704.1,471.5 704.1,662.4 706.0,662.4 706.0,471.5 '/>
		<polygon fill = 'rgb( 31, 120, 180)' fill-opacity = '0.250000' points = '706.0,471.5 706.0,662.4 707.9,662.4 707.9,471.6 '/>
		<polygon fill = 'rgb( 31, 120, 180)' fill-opacity = '0.250000' points = '707.9,471.6 707.9,662.4 709.8,662.4 709.8,471.8 '/>
		<polygon fill = 'rgb( 31, 120, 180)' fill-opacity = '0.250000' points = '709.8,471.8 709.8,662.4 711.7,662.4 711.7,472.2 '/>
		<polygon fill = 'rgb( 31, 120, 180)' fill-opacity = '0.250000' points = '711.7,472.2 711.7,662.4 713.5,662.4 713.5,472.7 '/>
		<polygon fill = 'rgb( 31, 120, 180)' fill-opacity = '0.250000' points = '713.5,472.7 713.5,662.4 715.4,662.4 715.4,473.3 '/>
		<polygon fill = 'rgb( 31, 120, 180)' fill-opacity = '0.250000' points = '715.4,473.3 715.4,662.4 717.3,662.4 717.3,474.1 '/>
		<polygon fill = 'rgb( 31, 120, 180)' fill-opacity = '0.250000' points = '717.3,474.1 717.3,662.4 719.2,662.4 719.2,475.1 '/>
		<polygon fill = 'rgb( 31, 120, 180)' fill-opacity = '0.250000' points = '719.2,475.1 719.2,662.4 721.1,662.4 721.1,476.2 '/>
		<polygon fill = 'rgb( 31, 120, 180)' fill-opacity = '0.250000' points = '721.1,476.2 721.1,662.4 723.0,662.4 723.0,477.5 '/>
		<polygon fill = 'rgb( 31, 120, 180)' fill-opacity = '0.250000' points = '723.0,477.5 723.0,662.4 724.9,662.4 724.9,478.9 '/>
		<polygon fill = 'rgb( 31, 120, 180)' fill-opacity = '0.250000' points = '724.9,478.9 724.9,662.4 726.7,662.4 726.7,480.4 '/>
		<polygon fill = 'rgb( 31, 120, 180)' fill-opacity = '0.250000' points = '726.7,480.4 726.7,662.4 728.6,662.4 728.6,482.1 '/>
		<polygon fill = 'rgb( 31, 120, 180)' fill-opacity = '0.250000' points = '728.6,482.1 728.6,662.4 730.5,662.4 730.5,483.8 '/>
		<polygon fill = 'rgb( 31, 120, 180)' fill-opacity = '0.250000' points = '730.5,483.8 730.5,662.4 732.4,662.4 732.4,485.7 '/>
		<polygon fill = 'rgb( 31, 120, 180)' fill-opacity = '0.250000' points = '732.4,485.7 732.4,662.4 734.3,662.4 734.3,487.6 '/>
		<polygon fill = 'rgb( 31, 120, 180)' fill-opacity = '0.250000' points = '734.3,487.6 734.3,662.4 736.2,662.4 736.2,489.6 '/>
		<polygon fill = 'rgb( 31, 120, 180)' fill-opacity = '0.250000' points = '736.2,489.6 736.2,662.4 738.1,662.4 738.1,491.6 '/>
		<polygon fill = 'rgb( 31, 120, 180)' fill-opacity = '0.250000' points = '738.1,491.6 738.1,662.4 740.0,662.4 740.0,493.6 '/>
		<polygon fill = 'rgb( 31, 120, 180)' fill-opacity = '0.250000' points = '740.0,493.6 740.0,662.4 741.8,662.4 741.8,495.6 '/>
		<polygon fill = 'rgb( 31, 120, 180)' fill-opacity = '0.250000' points = '741.8,495.6 741.8,662.4 743.7,662.4 743.7,497.6 '/>
		<polygon fill = 'rgb( 31, 120, 180)' fill-opacity = '0.250000' points = '743.7,497.6 743.7,662.4 745.6,662.4 745.6,499.4 '/>
		<polygon fill = 'rgb( 31, 120, 180)' fill-opacity = '0.250000' points = '745.6,499.4 745.6,662.4 747.5,662.4 747.5,501.2 '/>
		<polygon fill = 'rgb( 31, 120, 180)' fill-opacity = '0.250000' points = '747.5,501.2 747.5,662.4 749.4,662.4 749.4,502.9 '/>
		<polygon fill = 'rgb( 31, 120, 180)' fill-opacity = '0.250000' points = '749.4,502.9 749.4,662.4 751.3,662.4 751.3,504.5 '/>
		<polygon fill = 'rgb( 31, 120, 180)' fill-opacity = '0.250000' points = '751.3,504.5 751.3,662.4 753.2,662.4 753.2,506.0 '/>
		<polygon fill = 'rgb( 31, 120, 180)' fill-opacity = '0.250000' points = '753.2,506.0 753.2,662.4 755.1,662.4 755.1,507.4 '/>
		<polygon fill = 'rgb( 31, 120, 180)' fill-opacity = '0.250000' points = '755.1,507.4 755.1,662.4 756.9,662.4 756.9,508.6 '/>
		<polygon fill = 'rgb( 31, 120, 180)' fill-opacity = '0.250000' points = '756.9,508.6 756.9,662.4 758.8,662.4 758.8,509.7 '/>
		<polygon fill = 'rgb( 31, 120, 180)' fill-opacity = '0.250000' points = '758.8,509.7 758.8,662.4 760.7,662.4 760.7,510.8 '/>
		<polygon fill = 'rgb( 31, 120, 180)' fill-opacity = '0.250000' points = '760.7,510.8 760.7,662.4 762.6,662.4 762.6,511.7 '/>
		<polygon fill = 'rgb( 31, 120, 180)' fill-opacity = '0.250000' points = '762.6,511.7 762.6,662.4 764.5,662.4 764.5,512.6 '/>
		<polygon fill = 'rgb( 31, 120, 180)' fill-opacity = '0.250000' points = '764.5,512.6 764.5,662.4 766.4,662.4 766.4,513.3 '/>
		<polygon fill = 'rgb( 31, 120, 180)' fill-opacity = '0.250000' points = '766.4,513.3 766.4,662.4 768.3,662.4 768.3,514.1 '/>
		<polygon fill = 'rgb( 31, 120, 180)' fill-opacity = '0.250000' points = '768.3,514.1 768.3,662.4 770.2,662.4 770.2,514.8 '/>
		<polygon fill = 'rgb( 31, 120, 180)' fill-opacity = '0.250000' points = '770.2,514.8 770.2,662.4 772.0,662.4 772.0,515.5 '/>
		<polygon fill = 'rgb( 31, 120, 180)' fill-opacity = '0.250000' points = '772.0,515.5 772.0,662.4 773.9,662.4 773.9,516.2 '/>
		<polygon fill = 'rgb( 31, 120, 180)' fill-opacity = '0.250000' points = '773.9,516.2 773.9,662.4 775.8,662.4 775.8,516.9 '/>
		<polygon fill = 'rgb( 31, 120, 180)' fill-opacity = '0.250000' points = '775.8,516.9 775.8,662.4 777.7,662.4 777.7,517.7 '/>
		<polygon fill = 'rgb( 31, 120, 180)' fill-opacity = '0.250000' points = '777.7,517.7 777.7,662.4 779.6,662.4 779.6,518.5 '/>
		<polygon fill = 'rgb( 31, 120, 180)' fill-opacity = '0.250000' points = '779.6,518.5 779.6,662.4 781.5,662.4 781.5,519.4 '/>
		<polygon fill = 'rgb( 31, 120, 180)' fill-opacity = '0.250000' points = '781.5,519.4 781.5,662.4 783.4,662.4 783.4,520.4 '/>
		<polygon fill = 'rgb( 31, 120, 180)' fill-opacity = '0.250000' points = '783.4,520.4 783.4,662.4 785.3,662.4 785.3,521.5 '/>
		<polygon fill = 'rgb( 31, 120, 180)' fill-opacity = '0.250000' points = '785.3,521.5 785.3,662.4 787.1,662.4 787.1,522.6 '/>
		<polygon fill = 'rgb( 31, 120, 180)' fill-opacity = '0.250000' points = '787.1,522.6 787.1,662.4 789.0,662.4 789.0,523.9 '/>
		<polygon fill = 'rgb( 31, 120, 180)' fill-opacity = '0.250000' points = '789.0,523.9 789.0,662.4 790.9,662.4 790.9,525.2 '/>
		<polygon fill = 'rgb( 31, 120, 180)' fill-opacity = '0.250000' points = '790.9,525.2 790.9,662.4 792.8,662.4 792.8,526.6 '/>
		<polygon fill = 'rgb( 31, 120, 180)' fill-opacity = '0.250000' points = '792.8,526.6 792.8,662.4 794.7,662.4 794.7,528.2 '/>
		<polygon fill = 'rgb( 31, 120, 180)' fill-opacity = '0.250000' points = '794.7,528.2 794.7,662.4 796.6,662.4 796.6,529.8 '/>
		<polygon fill = 'rgb( 31, 120, 180)' fill-opacity = '0.250000' points = '796.6,529.8 796.6,662.4 798.5,662.4 798.5,531.5 '/>
		<polygon fill = 'rgb( 31, 120, 180)' fill-opacity = '0.250000' points = '798.5,531.5 798.5,662.4 800.3,662.4 800.3,533.3 '/>
		<polygon fill = 'rgb( 31, 120, 180)' fill-opacity = '0.250000' points = '800.3,533.3 800.3,662.4 802.2,662.4 802.2,535.1 '/>
		<polygon fill = 'rgb( 31, 120, 180)' fill-opacity = '0.250000' points = '802.2,535.1 802.2,662.4 804.1,662.4 804.1,537.0 '/>
		<polygon fill = 'rgb( 31, 120, 180)' fill-opacity = '0.250000' points = '804.1,537.0 804.1,662.4 806.0,662.4 806.0,539.0 '/>
		<polygon fill = 'rgb( 31, 120, 180)' fill-opacity = '0.250000' points = '806.0,539.0 806.0,662.4 807.9,662.4 807.9,540.9 '/>
		<polygon fill = 'rgb( 31, 120, 180)' fill-opacity = '0.250000' points = '807.9,540.9 807.9,662.4 809.8,662.4 809.8,542.9 '/>
		<polygon fill = 'rgb( 31, 120, 180)' fill-opacity = '0.250000' points = '809.8,542.9 809.8,662.4 811.7,662.4 811.7,544.9 '/>
		<polygon fill = 'rgb( 31, 120, 180)' fill-opacity = '0.250000' points = '811.7,544.9 811.7,662.4 813.6,662.4 813.6,546.9 '/>
		<polygon fill = 'rgb( 31, 120, 180)' fill-opacity = '0.250000' points = '813.6,546.9 813.6,662.4 815.4,662.4 815.4,548.9 '/>
		<polygon fill = 'rgb( 31, 120, 180)' fill-opacity = '0.250000' points = '815.4,548.9 815.4,662.4 817.3,662.4 817.3,550.9 '/>
		<polygon fill = 'rgb( 31, 120, 180)' fill-opacity = '0.250000' points = '817.3,550.9 817.3,662.4 819.2,662.4 819.2,552.8 '/>
		<polygon fill = 'rgb( 31, 120, 180)' fill-opacity = '0.250000' points = '819.2,552.8 819.2,662.4 821.1,662.4 821.1,554.7 '/>
		<polygon fill = 'rgb( 31, 120, 180)' fill-opacity = '0.250000' points = '821.1,554.7 821.1,662.4 823.0,662.4 823.0,556.5 '/>
		<polygon fill = 'rgb( 31, 120, 180)' fill-opacity = '0.250000' points = '823.0,556.5 823.0,662.4 824.9,662.4 824.9,558.3 '/>
		<polygon fill = 'rgb( 31, 120, 180)' fill-opacity = '0.250000' points = '824.9,558.3 824.9,662.4 826.8,662.4 826.8,559.9 '/>
		<polygon fill = 'rgb( 31, 120, 180)' fill-opacity = '0.250000' points = '826.8,559.9 826.8,662.4 828.7,662.4 828.7,561.6 '/>
		<polygon fill = 'rgb( 31, 120, 180)' fill-opacity = '0.250000' points = '828.7,561.6 828.7,662.4 830.5,662.4 830.5,563.1 '/>
		<polygon fill = 'rgb( 31, 120, 180)' fill-opacity = '0.250000' points = '830.5,563.1 830.5,662.4 832.4,662.4 832.4,564.6 '/>
		<polygon fill = 'rgb( 31, 120, 180)' fill-opacity = '0.250000' points = '832.4,564.6 832.4,662.4 834.3,662.4 834.3,565.9 '/>
		<polygon fill = 'rgb( 31, 120, 180)' fill-opacity = '0.250000' points = '834.3,565.9 834.3,662.4 836.2,662.4 836.2,567.2 '/>
		<polygon fill = 'rgb( 31, 120, 180)' fill-opacity = '0.250000' points = '836.2,567.2 836.2,662.4 838.1,662.4 838.1,568.4 '/>
		<polygon fill = 'rgb( 31, 120, 180)' fill-opacity = '0.250000' points = '838.1,568.4 838.1,662.4 840.0,662.4 840.0,569.5 '/>
		<polygon fill = 'rgb( 31, 120, 180)' fill-opacity = '0.250000' points = '840.0,569.5 840.0,662.4 841.9,662.4 841.9,570.5 '/>
		<polygon fill = 'rgb( 31, 120, 180)' fill-opacity = '0.250000' points = '841.9,570.5 841.9,662.4 843.8,662.4 843.8,571.5 '/>
		<polygon fill = 'rgb( 31, 120, 180)' fill-opacity = '0.250000' points = '843.8,571.5 843.8,662.4 845.6,662.4 845.6,572.3 '/>
		<polygon fill = 'rgb( 31, 120, 180)' fill-opacity = '0.250000' points = '845.6,572.3 845.6,662.4 847.5,662.4 847.5,573.1 '/>
		<polygon fill = 'rgb( 31, 120, 180)' fill-opacity = '0.250000' points = '847.5,573.1 847.5,662.4 849.4,662.4 849.4,573.9 '/>
		<polygon fill = 'rgb( 31, 120, 180)' fill-opacity = '0.250000' points = '849.4,573.9 849.4,662.4 851.3,662.4 851.3,574.6 '/>
		<polygon fill = 'rgb( 31, 120, 180)' fill-opacity = '0.250000' points = '851.3,574.6 851.3,662.4 853.2,662.4 853.2,575.2 '/>
		<polygon fill = 'rgb( 31, 120, 180)' fill-opacity = '0.250000' points = '853.2,575.2 853.2,662.4 855.1,662.4 855.1,575.8 '/>
		<polygon fill = 'rgb( 31, 120, 180)' fill-opacity = '0.250000' points = '855.1,575.8 855.1,662.4 857.0,662.4 857.0,576.4 '/>
		<polygon fill = 'rgb( 31, 120, 180)' fill-opacity = '0.250000' points = '857.0,576.4 857.0,662.4 858.9,662.4 858.9,577.0 '/>
		<polygon fill = 'rgb( 31, 120, 180)' fill-opacity = '0.250000' points = '858.9,577.0 858.9,662.4 860.7,662.4 860.7,577.5 '/>
		<polygon fill = 'rgb( 31, 120, 180)' fill-opacity = '0.250000' points = '860.7,577.5 860.7,662.4 862.6,662.4 862.6,578.0 '/>
		<polygon fill = 'rgb( 31, 120, 180)' fill-opacity = '0.250000' points = '862.6,578.0 862.6,662.4 864.5,662.4 864.5,578.6 '/>
		<polygon fill = 'rgb( 31, 120, 180)' fill-opacity = '0.250000' points = '864.5,578.6 864.5,662.4 866.4,662.4 866.4,579.1 '/>
		<polygon fill = 'rgb( 31, 120, 180)' fill-opacity = '0.250000' points = '866.4,579.1 866.4,662.4 868.3,662.4 868.3,579.6 '/>
		<polygon fill = 'rgb( 31, 120, 180)' fill-opacity = '0.250000' points = '868.3,579.6 868.3,662.4 870.2,662.4 870.2,580.1 '/>
		<polygon fill = 'rgb( 31, 120, 180)' fill-opacity = '0.250000' points = '870.2,580.1 870.2,662.4 872.1,662.4 872.1,580.6 '/>
		<polygon fill = 'rgb( 31, 120, 180)' fill-opacity = '0.250000' points = '872.1,580.6 872.1,662.4 873.9,662.4 873.9,581.1 '/>
		<polygon fill = 'rgb( 31, 120, 180)' fill-opacity = '0.250000' points = '873.9,581.1 873.9,662.4 875.8,662.4 875.8,581.7 '/>
		<polygon fill = 'rgb( 31, 120, 180)' fill-opacity = '0.250000' points = '875.8,581.7 875.8,662.4 877.7,662.4 877.7,582.2 '/>
		<polygon fill = 'rgb( 31, 120, 180)' fill-opacity = '0.250000' points = '877.7,582.2 877.7,662.4 879.6,662.4 879.6,582.7 '/>
		<polygon fill = 'rgb( 31, 120, 180)' fill-opacity = '0.250000' points = '879.6,582.7 879.6,662.4 881.5,662.4 881.5,583.3 '/>
		<polygon fill = 'rgb( 31, 120, 180)' fill-opacity = '0.250000' points = '881.5,583.3 881.5,662.4 883.4,662.4 883.4,583.8 '/>
		<polygon fill = 'rgb( 31, 120, 180)' fill-opacity = '0.250000' points = '883.4,583.8 883.4,662.4 885.3,662.4 885.3,584.4 '/>
		<polygon fill = 'rgb( 31, 120, 180)' fill-opacity = '0.250000' points = '885.3,584.4 885.3,662.4 887.2,662.4 887.2,585.0 '/>
		<polygon fill = 'rgb( 31, 120, 180)' fill-opacity = '0.250000' points = '887.2,585.0 887.2,662.4 889.0,662.4 889.0,585.6 '/>
		<polygon fill = 'rgb( 31, 120, 180)' fill-opacity = '0.250000' points = '889.0,585.6 889.0,662.4 890.9,662.4 890.9,586.2 '/>
		<polygon fill = 'rgb( 31, 120, 180)' fill-opacity = '0.250000' points = '890.9,586.2 890.9,662.4 892.8,662.4 892.8,586.9 '/>
		<polygon fill = 'rgb( 31, 120, 180)' fill-opacity = '0.250000' points = '892.8,586.9 892.8,662.4 894.7,662.4 894.7,587.6 '/>
		<polygon fill = 'rgb( 31, 120, 180)' fill-opacity = '0.250000' points = '894.7,587.6 894.7,662.4 896.6,662.4 896.6,588.4 '/>
		<polygon fill = 'rgb( 31, 120, 180)' fill-opacity = '0.250000' points = '896.6,588.4 896.6,662.4 898.5,662.4 898.5,589.2 '/>
		<polygon fill = 'rgb( 31, 120, 180)' fill-opacity = '0.250000' points = '898.5,589.2 898.5,662.4 900.4,662.4 900.4,590.1 '/>
		<polygon fill = 'rgb( 31, 120, 180)' fill-opacity = '0.250000' points = '900.4,590.1 900.4,662.4 902.3,662.4 902.3,591.0 '/>
		<polygon fill = 'rgb( 31, 120, 180)' fill-opacity = '0.250000' points = '902.3,591.0 902.3,662.4 904.1,662.4 904.1,591.9 '/>
		<polygon fill = 'rgb( 31, 120, 180)' fill-opacity = '0.250000' points = '904.1,591.9 904.1,662.4 906.0,662.4 906.0,593.0 '/>
		<polygon fill = 'rgb( 31, 120, 180)' fill-opacity = '0.250000' points = '906.0,593.0 906.0,662.4 907.9,662.4 907.9,594.0 '/>
		<polygon fill = 'rgb( 31, 120, 180)' fill-opacity = '0.250000' points = '907.9,594.0 907.9,662.4 909.8,662.4 909.8,595.1 '/>
		<polygon fill = 'rgb( 31, 120, 180)' fill-opacity = '0.250000' points = '909.8,595.1 909.8,662.4 911.7,662.4 911.7,596.3 '/>
		<polygon fill = 'rgb( 31, 120, 180)' fill-opacity = '0.250000' points = '911.7,596.3 911.7,662.4 913.6,662.4 913.6,597.5 '/>
		<polygon fill = 'rgb( 31, 120, 180)' fill-opacity = '0.250000' points = '913.6,597.5 913.6,662.4 915.5,662.4 915.5,598.8 '/>
		<polygon fill = 'rgb( 31, 120, 180)' fill-opacity = '0.250000' points = '915.5,598.8 915.5,662.4 917.4,662.4 917.4,600.1 '/>
		<polygon fill = 'rgb( 31, 120, 180)' fill-opacity = '0.250000' points = '917.4,600.1 917.4,662.4 919.2,662.4 919.2,601.4 '/>
		<polygon fill = 'rgb( 31, 120, 180)' fill-opacity = '0.250000' points = '919.2,601.4 919.2,662.4 921.1,662.4 921.1,602.7 '/>
		<polygon fill = 'rgb( 31, 120, 180)' fill-opacity = '0.250000' points = '921.1,602.7 921.1,662.4 923.0,662.4 923.0,604.1 '/>
		<polygon fill = 'rgb( 31, 120, 180)' fill-opacity = '0.250000' points = '923.0,604.1 923.0,662.4 924.9,662.4 924.9,605.4 '/>
	</g>
</g>
	</g>
	<g id="gnuplot_plot_3" ><title>Point estimate</title>
<g fill="none" color="white" stroke="rgb( 31, 120, 180)" stroke-width="2.00" stroke-linecap="butt" stroke-linejoin="miter">
</g>
<g fill="none" color="black" stroke="currentColor" stroke-width="2.00" stroke-linecap="butt" stroke-linejoin="miter">
	<g transform="translate(1089.0,103.0)" stroke="none" fill="black" font-family="Helvetica" font-size="12.00"  text-anchor="start">
		<text><tspan font-family="Helvetica" >Point estimate</tspan></text>
	</g>
</g>
<g fill="none" color="black" stroke="currentColor" stroke-width="2.00" stroke-linecap="butt" stroke-linejoin="miter">
	<path stroke='rgb( 31, 120, 180)'  d='M1038.5,99.1 L1080.7,99.1 M423.7,662.4 L423.7,132.3  '/></g>
	</g>
	<g id="gnuplot_plot_4" ><title>Noise threshold</title>
<g fill="none" color="white" stroke="rgb( 31, 120, 180)" stroke-width="1.00" stroke-linecap="butt" stroke-linejoin="miter">
</g>
<g fill="none" color="black" stroke="currentColor" stroke-width="1.00" stroke-linecap="butt" stroke-linejoin="miter">
	<g transform="translate(1089.0,121.0)" stroke="none" fill="black" font-family="Helvetica" font-size="12.00"  text-anchor="start">
		<text><tspan font-family="Helvetica" >Noise threshold</tspan></text>
	</g>
</g>
<g fill="none" color="black" stroke="currentColor" stroke-width="1.00" stroke-linecap="butt" stroke-linejoin="miter">
	<g stroke='none' shape-rendering='crispEdges'>
		<polygon fill = 'rgb(227,  26,  28)' fill-opacity = '0.100000' points = '1038.5,121.6 1080.7,121.6 1080.7,112.6 1038.5,112.6 '/>
		<polygon fill = 'rgb(227,  26,  28)' fill-opacity = '0.100000' points = '542.8,54.1 542.8,662.4 542.8,662.4 542.8,54.1 '/>
	</g>
</g>
	</g>
<g fill="none" color="white" stroke="rgb(227,  26,  28)" stroke-width="2.00" stroke-linecap="butt" stroke-linejoin="miter">
</g>
<g fill="none" color="black" stroke="currentColor" stroke-width="2.00" stroke-linecap="butt" stroke-linejoin="miter">
</g>
<g fill="none" color="black" stroke="black" stroke-width="1.00" stroke-linecap="butt" stroke-linejoin="miter">
</g>
<g fill="none" color="black" stroke="currentColor" stroke-width="1.00" stroke-linecap="butt" stroke-linejoin="miter">
	<path stroke='black'  d='M71.9,54.1 L71.9,662.4 L1013.6,662.4 L1013.6,54.1 L71.9,54.1 Z  '/></g>
<g fill="none" color="black" stroke="currentColor" stroke-width="1.00" stroke-linecap="butt" stroke-linejoin="miter">
</g>
</g>
</svg>

