<?xml version="1.0" encoding="utf-8"  standalone="no"?>
<!DOCTYPE svg PUBLIC "-//W3C//DTD SVG 1.1//EN"
 "http://www.w3.org/Graphics/SVG/1.1/DTD/svg11.dtd">
<svg 
 viewBox="0 0 1280 720"
 xmlns="http://www.w3.org/2000/svg"
 xmlns:xlink="http://www.w3.org/1999/xlink"
>

<title>Gnuplot</title>
<desc>Produced by GNUPLOT 5.0 patchlevel 5 </desc>

<g id="gnuplot_canvas">

<rect x="0" y="0" width="1280" height="720" fill="none"/>
<defs>

	<circle id='gpDot' r='0.5' stroke-width='0.5'/>
	<path id='gpPt0' stroke-width='0.222' stroke='currentColor' d='M-1,0 h2 M0,-1 v2'/>
	<path id='gpPt1' stroke-width='0.222' stroke='currentColor' d='M-1,-1 L1,1 M1,-1 L-1,1'/>
	<path id='gpPt2' stroke-width='0.222' stroke='currentColor' d='M-1,0 L1,0 M0,-1 L0,1 M-1,-1 L1,1 M-1,1 L1,-1'/>
	<rect id='gpPt3' stroke-width='0.222' stroke='currentColor' x='-1' y='-1' width='2' height='2'/>
	<rect id='gpPt4' stroke-width='0.222' stroke='currentColor' fill='currentColor' x='-1' y='-1' width='2' height='2'/>
	<circle id='gpPt5' stroke-width='0.222' stroke='currentColor' cx='0' cy='0' r='1'/>
	<use xlink:href='#gpPt5' id='gpPt6' fill='currentColor' stroke='none'/>
	<path id='gpPt7' stroke-width='0.222' stroke='currentColor' d='M0,-1.33 L-1.33,0.67 L1.33,0.67 z'/>
	<use xlink:href='#gpPt7' id='gpPt8' fill='currentColor' stroke='none'/>
	<use xlink:href='#gpPt7' id='gpPt9' stroke='currentColor' transform='rotate(180)'/>
	<use xlink:href='#gpPt9' id='gpPt10' fill='currentColor' stroke='none'/>
	<use xlink:href='#gpPt3' id='gpPt11' stroke='currentColor' transform='rotate(45)'/>
	<use xlink:href='#gpPt11' id='gpPt12' fill='currentColor' stroke='none'/>
	<path id='gpPt13' stroke-width='0.222' stroke='currentColor' d='M0,1.330 L1.265,0.411 L0.782,-1.067 L-0.782,-1.076 L-1.265,0.411 z'/>
	<use xlink:href='#gpPt13' id='gpPt14' fill='currentColor' stroke='none'/>
	<filter id='textbox' filterUnits='objectBoundingBox' x='0' y='0' height='1' width='1'>
	  <feFlood flood-color='white' flood-opacity='1' result='bgnd'/>
	  <feComposite in='SourceGraphic' in2='bgnd' operator='atop'/>
	</filter>
	<filter id='greybox' filterUnits='objectBoundingBox' x='0' y='0' height='1' width='1'>
	  <feFlood flood-color='lightgrey' flood-opacity='1' result='grey'/>
	  <feComposite in='SourceGraphic' in2='grey' operator='atop'/>
	</filter>
</defs>
<g fill="none" color="white" stroke="currentColor" stroke-width="1.00" stroke-linecap="butt" stroke-linejoin="miter">
</g>
<g fill="none" color="black" stroke="currentColor" stroke-width="1.00" stroke-linecap="butt" stroke-linejoin="miter">
	<path stroke='black'  d='M71.9,662.4 L80.9,662.4  '/>	<g transform="translate(63.6,666.3)" stroke="none" fill="black" font-family="Helvetica" font-size="12.00"  text-anchor="end">
		<text><tspan font-family="Helvetica" > 0</tspan></text>
	</g>
</g>
<g fill="none" color="black" stroke="currentColor" stroke-width="1.00" stroke-linecap="butt" stroke-linejoin="miter">
	<path stroke='black'  d='M71.9,561.0 L80.9,561.0  '/>	<g transform="translate(63.6,564.9)" stroke="none" fill="black" font-family="Helvetica" font-size="12.00"  text-anchor="end">
		<text><tspan font-family="Helvetica" > 50</tspan></text>
	</g>
</g>
<g fill="none" color="black" stroke="currentColor" stroke-width="1.00" stroke-linecap="butt" stroke-linejoin="miter">
	<path stroke='black'  d='M71.9,459.6 L80.9,459.6  '/>	<g transform="translate(63.6,463.5)" stroke="none" fill="black" font-family="Helvetica" font-size="12.00"  text-anchor="end">
		<text><tspan font-family="Helvetica" > 100</tspan></text>
	</g>
</g>
<g fill="none" color="black" stroke="currentColor" stroke-width="1.00" stroke-linecap="butt" stroke-linejoin="miter">
	<path stroke='black'  d='M71.9,358.2 L80.9,358.2  '/>	<g transform="translate(63.6,362.1)" stroke="none" fill="black" font-family="Helvetica" font-size="12.00"  text-anchor="end">
		<text><tspan font-family="Helvetica" > 150</tspan></text>
	</g>
</g>
<g fill="none" color="black" stroke="currentColor" stroke-width="1.00" stroke-linecap="butt" stroke-linejoin="miter">
	<path stroke='black'  d='M71.9,256.9 L80.9,256.9  '/>	<g transform="translate(63.6,260.8)" stroke="none" fill="black" font-family="Helvetica" font-size="12.00"  text-anchor="end">
		<text><tspan font-family="Helvetica" > 200</tspan></text>
	</g>
</g>
<g fill="none" color="black" stroke="currentColor" stroke-width="1.00" stroke-linecap="butt" stroke-linejoin="miter">
	<path stroke='black'  d='M71.9,155.5 L80.9,155.5  '/>	<g transform="translate(63.6,159.4)" stroke="none" fill="black" font-family="Helvetica" font-size="12.00"  text-anchor="end">
		<text><tspan font-family="Helvetica" > 250</tspan></text>
	</g>
</g>
<g fill="none" color="black" stroke="currentColor" stroke-width="1.00" stroke-linecap="butt" stroke-linejoin="miter">
	<path stroke='black'  d='M71.9,54.1 L80.9,54.1  '/>	<g transform="translate(63.6,58.0)" stroke="none" fill="black" font-family="Helvetica" font-size="12.00"  text-anchor="end">
		<text><tspan font-family="Helvetica" > 300</tspan></text>
	</g>
</g>
<g fill="none" color="black" stroke="currentColor" stroke-width="1.00" stroke-linecap="butt" stroke-linejoin="miter">
	<path stroke='black'  d='M137.1,662.4 L137.1,653.4  '/>	<g transform="translate(137.1,684.3)" stroke="none" fill="black" font-family="Helvetica" font-size="12.00"  text-anchor="middle">
		<text><tspan font-family="Helvetica" > 1.577</tspan></text>
	</g>
</g>
<g fill="none" color="black" stroke="currentColor" stroke-width="1.00" stroke-linecap="butt" stroke-linejoin="miter">
	<path stroke='black'  d='M277.4,662.4 L277.4,653.4  '/>	<g transform="translate(277.4,684.3)" stroke="none" fill="black" font-family="Helvetica" font-size="12.00"  text-anchor="middle">
		<text><tspan font-family="Helvetica" > 1.578</tspan></text>
	</g>
</g>
<g fill="none" color="black" stroke="currentColor" stroke-width="1.00" stroke-linecap="butt" stroke-linejoin="miter">
	<path stroke='black'  d='M417.7,662.4 L417.7,653.4  '/>	<g transform="translate(417.7,684.3)" stroke="none" fill="black" font-family="Helvetica" font-size="12.00"  text-anchor="middle">
		<text><tspan font-family="Helvetica" > 1.579</tspan></text>
	</g>
</g>
<g fill="none" color="black" stroke="currentColor" stroke-width="1.00" stroke-linecap="butt" stroke-linejoin="miter">
	<path stroke='black'  d='M558.0,662.4 L558.0,653.4  '/>	<g transform="translate(558.0,684.3)" stroke="none" fill="black" font-family="Helvetica" font-size="12.00"  text-anchor="middle">
		<text><tspan font-family="Helvetica" > 1.58</tspan></text>
	</g>
</g>
<g fill="none" color="black" stroke="currentColor" stroke-width="1.00" stroke-linecap="butt" stroke-linejoin="miter">
	<path stroke='black'  d='M698.3,662.4 L698.3,653.4  '/>	<g transform="translate(698.3,684.3)" stroke="none" fill="black" font-family="Helvetica" font-size="12.00"  text-anchor="middle">
		<text><tspan font-family="Helvetica" > 1.581</tspan></text>
	</g>
</g>
<g fill="none" color="black" stroke="currentColor" stroke-width="1.00" stroke-linecap="butt" stroke-linejoin="miter">
	<path stroke='black'  d='M838.6,662.4 L838.6,653.4  '/>	<g transform="translate(838.6,684.3)" stroke="none" fill="black" font-family="Helvetica" font-size="12.00"  text-anchor="middle">
		<text><tspan font-family="Helvetica" > 1.582</tspan></text>
	</g>
</g>
<g fill="none" color="black" stroke="currentColor" stroke-width="1.00" stroke-linecap="butt" stroke-linejoin="miter">
	<path stroke='black'  d='M978.9,662.4 L978.9,653.4  '/>	<g transform="translate(978.9,684.3)" stroke="none" fill="black" font-family="Helvetica" font-size="12.00"  text-anchor="middle">
		<text><tspan font-family="Helvetica" > 1.583</tspan></text>
	</g>
</g>
<g fill="none" color="black" stroke="currentColor" stroke-width="1.00" stroke-linecap="butt" stroke-linejoin="miter">
</g>
<g fill="none" color="black" stroke="currentColor" stroke-width="1.00" stroke-linecap="butt" stroke-linejoin="miter">
	<path stroke='black'  d='M71.9,54.1 L71.9,662.4 L1013.6,662.4 L1013.6,54.1 L71.9,54.1 Z  '/></g>
<g fill="none" color="black" stroke="currentColor" stroke-width="1.00" stroke-linecap="butt" stroke-linejoin="miter">
	<g transform="translate(17.0,358.3) rotate(270)" stroke="none" fill="black" font-family="Helvetica" font-size="12.00"  text-anchor="middle">
		<text><tspan font-family="Helvetica" >Density (a.u.)</tspan></text>
	</g>
</g>
<g fill="none" color="black" stroke="currentColor" stroke-width="1.00" stroke-linecap="butt" stroke-linejoin="miter">
	<g transform="translate(542.7,711.3)" stroke="none" fill="black" font-family="Helvetica" font-size="12.00"  text-anchor="middle">
		<text><tspan font-family="Helvetica" >Average time (ms)</tspan></text>
	</g>
</g>
<g fill="none" color="black" stroke="currentColor" stroke-width="1.00" stroke-linecap="butt" stroke-linejoin="miter">
	<g transform="translate(542.7,31.0)" stroke="none" fill="black" font-family="Helvetica" font-size="12.00"  text-anchor="middle">
		<text><tspan font-family="Helvetica" >dfs petgraph mut: mean</tspan></text>
	</g>
</g>
	<g id="gnuplot_plot_1" ><title>Bootstrap distribution</title>
<g fill="none" color="white" stroke="black" stroke-width="2.00" stroke-linecap="butt" stroke-linejoin="miter">
</g>
<g fill="none" color="black" stroke="currentColor" stroke-width="2.00" stroke-linecap="butt" stroke-linejoin="miter">
	<g transform="translate(1089.0,67.0)" stroke="none" fill="black" font-family="Helvetica" font-size="12.00"  text-anchor="start">
		<text><tspan font-family="Helvetica" >Bootstrap distribution</tspan></text>
	</g>
</g>
<g fill="none" color="black" stroke="currentColor" stroke-width="2.00" stroke-linecap="butt" stroke-linejoin="miter">
	<path stroke='rgb( 31, 120, 180)'  d='M1038.5,63.1 L1080.7,63.1 M71.9,629.3 L73.8,628.4 L75.7,627.4 L77.6,626.4 L79.4,625.3 L81.3,624.3
		L83.2,623.3 L85.1,622.2 L87.0,621.1 L88.9,619.9 L90.8,618.8 L92.7,617.5 L94.5,616.3 L96.4,615.0
		L98.3,613.6 L100.2,612.2 L102.1,610.7 L104.0,609.1 L105.9,607.4 L107.8,605.7 L109.6,603.9 L111.5,602.0
		L113.4,600.1 L115.3,598.0 L117.2,595.9 L119.1,593.7 L121.0,591.4 L122.9,589.1 L124.7,586.7 L126.6,584.3
		L128.5,581.8 L130.4,579.2 L132.3,576.6 L134.2,574.0 L136.1,571.4 L138.0,568.7 L139.8,566.1 L141.7,563.4
		L143.6,560.7 L145.5,558.0 L147.4,555.3 L149.3,552.5 L151.2,549.8 L153.0,547.1 L154.9,544.4 L156.8,541.7
		L158.7,539.0 L160.6,536.3 L162.5,533.5 L164.4,530.8 L166.3,528.0 L168.1,525.3 L170.0,522.5 L171.9,519.7
		L173.8,516.9 L175.7,514.1 L177.6,511.3 L179.5,508.4 L181.4,505.5 L183.2,502.6 L185.1,499.7 L187.0,496.7
		L188.9,493.7 L190.8,490.7 L192.7,487.7 L194.6,484.6 L196.5,481.5 L198.3,478.3 L200.2,475.2 L202.1,471.9
		L204.0,468.7 L205.9,465.4 L207.8,462.0 L209.7,458.6 L211.6,455.2 L213.4,451.7 L215.3,448.2 L217.2,444.6
		L219.1,441.0 L221.0,437.4 L222.9,433.7 L224.8,430.0 L226.6,426.2 L228.5,422.5 L230.4,418.7 L232.3,414.8
		L234.2,411.0 L236.1,407.2 L238.0,403.3 L239.9,399.4 L241.7,395.6 L243.6,391.7 L245.5,387.9 L247.4,384.1
		L249.3,380.2 L251.2,376.4 L253.1,372.6 L255.0,368.9 L256.8,365.1 L258.7,361.3 L260.6,357.6 L262.5,353.8
		L264.4,350.0 L266.3,346.3 L268.2,342.5 L270.1,338.7 L271.9,334.8 L273.8,331.0 L275.7,327.1 L277.6,323.2
		L279.5,319.2 L281.4,315.3 L283.3,311.2 L285.2,307.2 L287.0,303.1 L288.9,299.0 L290.8,294.9 L292.7,290.8
		L294.6,286.7 L296.5,282.5 L298.4,278.4 L300.2,274.2 L302.1,270.1 L304.0,266.0 L305.9,261.9 L307.8,257.8
		L309.7,253.7 L311.6,249.7 L313.5,245.7 L315.3,241.7 L317.2,237.8 L319.1,233.8 L321.0,230.0 L322.9,226.1
		L324.8,222.3 L326.7,218.6 L328.6,214.8 L330.4,211.1 L332.3,207.5 L334.2,203.9 L336.1,200.4 L338.0,196.9
		L339.9,193.5 L341.8,190.1 L343.7,186.8 L345.5,183.6 L347.4,180.5 L349.3,177.4 L351.2,174.5 L353.1,171.6
		L355.0,168.8 L356.9,166.2 L358.8,163.6 L360.6,161.1 L362.5,158.6 L364.4,156.3 L366.3,154.0 L368.2,151.9
		L370.1,149.7 L372.0,147.7 L373.8,145.6 L375.7,143.6 L377.6,141.7 L379.5,139.8 L381.4,137.9 L383.3,136.0
		L385.2,134.1 L387.1,132.3 L388.9,130.4 L390.8,128.6 L392.7,126.7 L394.6,124.9 L396.5,123.1 L398.4,121.2
		L400.3,119.4 L402.2,117.7 L404.0,115.9 L405.9,114.2 L407.8,112.5 L409.7,110.8 L411.6,109.2 L413.5,107.6
		L415.4,106.1 L417.3,104.6 L419.1,103.2 L421.0,101.9 L422.9,100.6 L424.8,99.4 L426.7,98.2 L428.6,97.2
		L430.5,96.2 L432.4,95.2 L434.2,94.3 L436.1,93.5 L438.0,92.8 L439.9,92.1 L441.8,91.5 L443.7,91.0
		L445.6,90.5 L447.4,90.1 L449.3,89.8 L451.2,89.5 L453.1,89.2 L455.0,89.1 L456.9,88.9 L458.8,88.9
		L460.7,88.9 L462.5,88.9 L464.4,89.0 L466.3,89.1 L468.2,89.3 L470.1,89.5 L472.0,89.8 L473.9,90.1
		L475.8,90.4 L477.6,90.7 L479.5,91.1 L481.4,91.5 L483.3,92.0 L485.2,92.4 L487.1,92.9 L489.0,93.5
		L490.9,94.1 L492.7,94.7 L494.6,95.4 L496.5,96.2 L498.4,97.0 L500.3,97.9 L502.2,98.8 L504.1,99.9
		L506.0,101.0 L507.8,102.2 L509.7,103.5 L511.6,104.9 L513.5,106.3 L515.4,107.9 L517.3,109.5 L519.2,111.3
		L521.0,113.1 L522.9,115.0 L524.8,116.9 L526.7,119.0 L528.6,121.1 L530.5,123.2 L532.4,125.4 L534.3,127.7
		L536.1,130.0 L538.0,132.3 L539.9,134.7 L541.8,137.1 L543.7,139.6 L545.6,142.0 L547.5,144.5 L549.4,147.0
		L551.2,149.5 L553.1,152.0 L555.0,154.5 L556.9,157.0 L558.8,159.5 L560.7,162.0 L562.6,164.4 L564.5,166.8
		L566.3,169.1 L568.2,171.4 L570.1,173.6 L572.0,175.8 L573.9,177.9 L575.8,180.0 L577.7,182.0 L579.5,184.0
		L581.4,185.9 L583.3,187.8 L585.2,189.6 L587.1,191.4 L589.0,193.2 L590.9,195.0 L592.8,196.7 L594.6,198.4
		L596.5,200.2 L598.4,201.9 L600.3,203.7 L602.2,205.5 L604.1,207.4 L606.0,209.2 L607.9,211.2 L609.7,213.2
		L611.6,215.2 L613.5,217.3 L615.4,219.5 L617.3,221.7 L619.2,224.0 L621.1,226.3 L623.0,228.7 L624.8,231.2
		L626.7,233.7 L628.6,236.3 L630.5,239.0 L632.4,241.7 L634.3,244.4 L636.2,247.2 L638.1,250.0 L639.9,252.8
		L641.8,255.7 L643.7,258.6 L645.6,261.5 L647.5,264.5 L649.4,267.4 L651.3,270.4 L653.1,273.4 L655.0,276.3
		L656.9,279.3 L658.8,282.2 L660.7,285.2 L662.6,288.1 L664.5,291.0 L666.4,293.9 L668.2,296.7 L670.1,299.6
		L672.0,302.4 L673.9,305.2 L675.8,308.0 L677.7,310.7 L679.6,313.5 L681.5,316.2 L683.3,318.9 L685.2,321.6
		L687.1,324.3 L689.0,326.9 L690.9,329.6 L692.8,332.3 L694.7,335.0 L696.6,337.7 L698.4,340.4 L700.3,343.1
		L702.2,345.9 L704.1,348.6 L706.0,351.4 L707.9,354.3 L709.8,357.1 L711.7,360.0 L713.5,362.9 L715.4,365.8
		L717.3,368.7 L719.2,371.6 L721.1,374.5 L723.0,377.4 L724.9,380.2 L726.7,383.0 L728.6,385.9 L730.5,388.6
		L732.4,391.3 L734.3,394.0 L736.2,396.7 L738.1,399.2 L740.0,401.8 L741.8,404.3 L743.7,406.8 L745.6,409.2
		L747.5,411.6 L749.4,414.0 L751.3,416.4 L753.2,418.7 L755.1,421.1 L756.9,423.5 L758.8,425.8 L760.7,428.3
		L762.6,430.7 L764.5,433.1 L766.4,435.6 L768.3,438.2 L770.2,440.7 L772.0,443.3 L773.9,446.0 L775.8,448.6
		L777.7,451.3 L779.6,454.0 L781.5,456.8 L783.4,459.5 L785.3,462.3 L787.1,465.1 L789.0,467.9 L790.9,470.7
		L792.8,473.4 L794.7,476.2 L796.6,478.9 L798.5,481.7 L800.3,484.3 L802.2,487.0 L804.1,489.6 L806.0,492.1
		L807.9,494.6 L809.8,497.1 L811.7,499.5 L813.6,501.8 L815.4,504.1 L817.3,506.3 L819.2,508.5 L821.1,510.6
		L823.0,512.6 L824.9,514.6 L826.8,516.6 L828.7,518.5 L830.5,520.3 L832.4,522.1 L834.3,523.9 L836.2,525.6
		L838.1,527.3 L840.0,529.0 L841.9,530.7 L843.8,532.3 L845.6,533.9 L847.5,535.5 L849.4,537.1 L851.3,538.6
		L853.2,540.2 L855.1,541.8 L857.0,543.3 L858.9,544.8 L860.7,546.4 L862.6,547.9 L864.5,549.4 L866.4,550.9
		L868.3,552.3 L870.2,553.8 L872.1,555.2 L873.9,556.6 L875.8,558.1 L877.7,559.4 L879.6,560.8 L881.5,562.2
		L883.4,563.5 L885.3,564.8 L887.2,566.2 L889.0,567.5 L890.9,568.8 L892.8,570.0 L894.7,571.3 L896.6,572.6
		L898.5,573.8 L900.4,575.1 L902.3,576.3 L904.1,577.6 L906.0,578.8 L907.9,580.0 L909.8,581.3 L911.7,582.5
		L913.6,583.7 L915.5,584.8 L917.4,586.0 L919.2,587.1 L921.1,588.3 L923.0,589.4 L924.9,590.5 L926.8,591.5
		L928.7,592.6 L930.6,593.6 L932.5,594.6 L934.3,595.6 L936.2,596.6 L938.1,597.5 L940.0,598.4 L941.9,599.4
		L943.8,600.3 L945.7,601.2 L947.5,602.0 L949.4,602.9 L951.3,603.8 L953.2,604.7 L955.1,605.6 L957.0,606.5
		L958.9,607.4 L960.8,608.3 L962.6,609.1 L964.5,610.0 L966.4,611.0 L968.3,611.9 L970.2,612.8 L972.1,613.7
		L974.0,614.6 L975.9,615.5 L977.7,616.4 L979.6,617.3 L981.5,618.2 L983.4,619.0 L985.3,619.9 L987.2,620.8
		L989.1,621.6 L991.0,622.5 L992.8,623.3 L994.7,624.1 L996.6,624.9 L998.5,625.7 L1000.4,626.5 L1002.3,627.3
		L1004.2,628.1 L1006.1,628.8 L1007.9,629.6 L1009.8,630.3 L1011.7,631.0 L1013.6,631.7  '/></g>
	</g>
	<g id="gnuplot_plot_2" ><title>Confidence interval</title>
<g fill="none" color="white" stroke="rgb( 31, 120, 180)" stroke-width="1.00" stroke-linecap="butt" stroke-linejoin="miter">
</g>
<g fill="none" color="black" stroke="currentColor" stroke-width="1.00" stroke-linecap="butt" stroke-linejoin="miter">
	<g transform="translate(1089.0,85.0)" stroke="none" fill="black" font-family="Helvetica" font-size="12.00"  text-anchor="start">
		<text><tspan font-family="Helvetica" >Confidence interval</tspan></text>
	</g>
</g>
<g fill="none" color="black" stroke="currentColor" stroke-width="1.00" stroke-linecap="butt" stroke-linejoin="miter">
	<g stroke='none' shape-rendering='crispEdges'>
		<polygon fill = 'rgb( 31, 120, 180)' fill-opacity = '0.250000' points = '1038.5,85.6 1080.7,85.6 1080.7,76.6 1038.5,76.6 '/>
		<polygon fill = 'rgb( 31, 120, 180)' fill-opacity = '0.250000' points = '158.7,539.0 158.7,662.4 160.6,662.4 160.6,536.3 '/>
		<polygon fill = 'rgb( 31, 120, 180)' fill-opacity = '0.250000' points = '160.6,536.3 160.6,662.4 162.5,662.4 162.5,533.5 '/>
		<polygon fill = 'rgb( 31, 120, 180)' fill-opacity = '0.250000' points = '162.5,533.5 162.5,662.4 164.4,662.4 164.4,530.8 '/>
		<polygon fill = 'rgb( 31, 120, 180)' fill-opacity = '0.250000' points = '164.4,530.8 164.4,662.4 166.3,662.4 166.3,528.0 '/>
		<polygon fill = 'rgb( 31, 120, 180)' fill-opacity = '0.250000' points = '166.3,528.0 166.3,662.4 168.1,662.4 168.1,525.3 '/>
		<polygon fill = 'rgb( 31, 120, 180)' fill-opacity = '0.250000' points = '168.1,525.3 168.1,662.4 170.0,662.4 170.0,522.5 '/>
		<polygon fill = 'rgb( 31, 120, 180)' fill-opacity = '0.250000' points = '170.0,522.5 170.0,662.4 171.9,662.4 171.9,519.7 '/>
		<polygon fill = 'rgb( 31, 120, 180)' fill-opacity = '0.250000' points = '171.9,519.7 171.9,662.4 173.8,662.4 173.8,516.9 '/>
		<polygon fill = 'rgb( 31, 120, 180)' fill-opacity = '0.250000' points = '173.8,516.9 173.8,662.4 175.7,662.4 175.7,514.1 '/>
		<polygon fill = 'rgb( 31, 120, 180)' fill-opacity = '0.250000' points = '175.7,514.1 175.7,662.4 177.6,662.4 177.6,511.3 '/>
		<polygon fill = 'rgb( 31, 120, 180)' fill-opacity = '0.250000' points = '177.6,511.3 177.6,662.4 179.5,662.4 179.5,508.4 '/>
		<polygon fill = 'rgb( 31, 120, 180)' fill-opacity = '0.250000' points = '179.5,508.4 179.5,662.4 181.4,662.4 181.4,505.5 '/>
		<polygon fill = 'rgb( 31, 120, 180)' fill-opacity = '0.250000' points = '181.4,505.5 181.4,662.4 183.2,662.4 183.2,502.6 '/>
		<polygon fill = 'rgb( 31, 120, 180)' fill-opacity = '0.250000' points = '183.2,502.6 183.2,662.4 185.1,662.4 185.1,499.7 '/>
		<polygon fill = 'rgb( 31, 120, 180)' fill-opacity = '0.250000' points = '185.1,499.7 185.1,662.4 187.0,662.4 187.0,496.7 '/>
		<polygon fill = 'rgb( 31, 120, 180)' fill-opacity = '0.250000' points = '187.0,496.7 187.0,662.4 188.9,662.4 188.9,493.7 '/>
		<polygon fill = 'rgb( 31, 120, 180)' fill-opacity = '0.250000' points = '188.9,493.7 188.9,662.4 190.8,662.4 190.8,490.7 '/>
		<polygon fill = 'rgb( 31, 120, 180)' fill-opacity = '0.250000' points = '190.8,490.7 190.8,662.4 192.7,662.4 192.7,487.7 '/>
		<polygon fill = 'rgb( 31, 120, 180)' fill-opacity = '0.250000' points = '192.7,487.7 192.7,662.4 194.6,662.4 194.6,484.6 '/>
		<polygon fill = 'rgb( 31, 120, 180)' fill-opacity = '0.250000' points = '194.6,484.6 194.6,662.4 196.5,662.4 196.5,481.5 '/>
		<polygon fill = 'rgb( 31, 120, 180)' fill-opacity = '0.250000' points = '196.5,481.5 196.5,662.4 198.3,662.4 198.3,478.3 '/>
		<polygon fill = 'rgb( 31, 120, 180)' fill-opacity = '0.250000' points = '198.3,478.3 198.3,662.4 200.2,662.4 200.2,475.2 '/>
		<polygon fill = 'rgb( 31, 120, 180)' fill-opacity = '0.250000' points = '200.2,475.2 200.2,662.4 202.1,662.4 202.1,471.9 '/>
		<polygon fill = 'rgb( 31, 120, 180)' fill-opacity = '0.250000' points = '202.1,471.9 202.1,662.4 204.0,662.4 204.0,468.7 '/>
		<polygon fill = 'rgb( 31, 120, 180)' fill-opacity = '0.250000' points = '204.0,468.7 204.0,662.4 205.9,662.4 205.9,465.4 '/>
		<polygon fill = 'rgb( 31, 120, 180)' fill-opacity = '0.250000' points = '205.9,465.4 205.9,662.4 207.8,662.4 207.8,462.0 '/>
		<polygon fill = 'rgb( 31, 120, 180)' fill-opacity = '0.250000' points = '207.8,462.0 207.8,662.4 209.7,662.4 209.7,458.6 '/>
		<polygon fill = 'rgb( 31, 120, 180)' fill-opacity = '0.250000' points = '209.7,458.6 209.7,662.4 211.6,662.4 211.6,455.2 '/>
		<polygon fill = 'rgb( 31, 120, 180)' fill-opacity = '0.250000' points = '211.6,455.2 211.6,662.4 213.4,662.4 213.4,451.7 '/>
		<polygon fill = 'rgb( 31, 120, 180)' fill-opacity = '0.250000' points = '213.4,451.7 213.4,662.4 215.3,662.4 215.3,448.2 '/>
		<polygon fill = 'rgb( 31, 120, 180)' fill-opacity = '0.250000' points = '215.3,448.2 215.3,662.4 217.2,662.4 217.2,444.6 '/>
		<polygon fill = 'rgb( 31, 120, 180)' fill-opacity = '0.250000' points = '217.2,444.6 217.2,662.4 219.1,662.4 219.1,441.0 '/>
		<polygon fill = 'rgb( 31, 120, 180)' fill-opacity = '0.250000' points = '219.1,441.0 219.1,662.4 221.0,662.4 221.0,437.4 '/>
		<polygon fill = 'rgb( 31, 120, 180)' fill-opacity = '0.250000' points = '221.0,437.4 221.0,662.4 222.9,662.4 222.9,433.7 '/>
		<polygon fill = 'rgb( 31, 120, 180)' fill-opacity = '0.250000' points = '222.9,433.7 222.9,662.4 224.8,662.4 224.8,430.0 '/>
		<polygon fill = 'rgb( 31, 120, 180)' fill-opacity = '0.250000' points = '224.8,430.0 224.8,662.4 226.6,662.4 226.6,426.2 '/>
		<polygon fill = 'rgb( 31, 120, 180)' fill-opacity = '0.250000' points = '226.6,426.2 226.6,662.4 228.5,662.4 228.5,422.5 '/>
		<polygon fill = 'rgb( 31, 120, 180)' fill-opacity = '0.250000' points = '228.5,422.5 228.5,662.4 230.4,662.4 230.4,418.7 '/>
		<polygon fill = 'rgb( 31, 120, 180)' fill-opacity = '0.250000' points = '230.4,418.7 230.4,662.4 232.3,662.4 232.3,414.8 '/>
		<polygon fill = 'rgb( 31, 120, 180)' fill-opacity = '0.250000' points = '232.3,414.8 232.3,662.4 234.2,662.4 234.2,411.0 '/>
		<polygon fill = 'rgb( 31, 120, 180)' fill-opacity = '0.250000' points = '234.2,411.0 234.2,662.4 236.1,662.4 236.1,407.2 '/>
		<polygon fill = 'rgb( 31, 120, 180)' fill-opacity = '0.250000' points = '236.1,407.2 236.1,662.4 238.0,662.4 238.0,403.3 '/>
		<polygon fill = 'rgb( 31, 120, 180)' fill-opacity = '0.250000' points = '238.0,403.3 238.0,662.4 239.9,662.4 239.9,399.4 '/>
		<polygon fill = 'rgb( 31, 120, 180)' fill-opacity = '0.250000' points = '239.9,399.4 239.9,662.4 241.7,662.4 241.7,395.6 '/>
		<polygon fill = 'rgb( 31, 120, 180)' fill-opacity = '0.250000' points = '241.7,395.6 241.7,662.4 243.6,662.4 243.6,391.7 '/>
		<polygon fill = 'rgb( 31, 120, 180)' fill-opacity = '0.250000' points = '243.6,391.7 243.6,662.4 245.5,662.4 245.5,387.9 '/>
		<polygon fill = 'rgb( 31, 120, 180)' fill-opacity = '0.250000' points = '245.5,387.9 245.5,662.4 247.4,662.4 247.4,384.1 '/>
		<polygon fill = 'rgb( 31, 120, 180)' fill-opacity = '0.250000' points = '247.4,384.1 247.4,662.4 249.3,662.4 249.3,380.2 '/>
		<polygon fill = 'rgb( 31, 120, 180)' fill-opacity = '0.250000' points = '249.3,380.2 249.3,662.4 251.2,662.4 251.2,376.4 '/>
		<polygon fill = 'rgb( 31, 120, 180)' fill-opacity = '0.250000' points = '251.2,376.4 251.2,662.4 253.1,662.4 253.1,372.6 '/>
		<polygon fill = 'rgb( 31, 120, 180)' fill-opacity = '0.250000' points = '253.1,372.6 253.1,662.4 255.0,662.4 255.0,368.9 '/>
		<polygon fill = 'rgb( 31, 120, 180)' fill-opacity = '0.250000' points = '255.0,368.9 255.0,662.4 256.8,662.4 256.8,365.1 '/>
		<polygon fill = 'rgb( 31, 120, 180)' fill-opacity = '0.250000' points = '256.8,365.1 256.8,662.4 258.7,662.4 258.7,361.3 '/>
		<polygon fill = 'rgb( 31, 120, 180)' fill-opacity = '0.250000' points = '258.7,361.3 258.7,662.4 260.6,662.4 260.6,357.6 '/>
		<polygon fill = 'rgb( 31, 120, 180)' fill-opacity = '0.250000' points = '260.6,357.6 260.6,662.4 262.5,662.4 262.5,353.8 '/>
		<polygon fill = 'rgb( 31, 120, 180)' fill-opacity = '0.250000' points = '262.5,353.8 262.5,662.4 264.4,662.4 264.4,350.0 '/>
		<polygon fill = 'rgb( 31, 120, 180)' fill-opacity = '0.250000' points = '264.4,350.0 264.4,662.4 266.3,662.4 266.3,346.3 '/>
		<polygon fill = 'rgb( 31, 120, 180)' fill-opacity = '0.250000' points = '266.3,346.3 266.3,662.4 268.2,662.4 268.2,342.5 '/>
		<polygon fill = 'rgb( 31, 120, 180)' fill-opacity = '0.250000' points = '268.2,342.5 268.2,662.4 270.1,662.4 270.1,338.7 '/>
		<polygon fill = 'rgb( 31, 120, 180)' fill-opacity = '0.250000' points = '270.1,338.7 270.1,662.4 271.9,662.4 271.9,334.8 '/>
		<polygon fill = 'rgb( 31, 120, 180)' fill-opacity = '0.250000' points = '271.9,334.8 271.9,662.4 273.8,662.4 273.8,331.0 '/>
		<polygon fill = 'rgb( 31, 120, 180)' fill-opacity = '0.250000' points = '273.8,331.0 273.8,662.4 275.7,662.4 275.7,327.1 '/>
		<polygon fill = 'rgb( 31, 120, 180)' fill-opacity = '0.250000' points = '275.7,327.1 275.7,662.4 277.6,662.4 277.6,323.2 '/>
		<polygon fill = 'rgb( 31, 120, 180)' fill-opacity = '0.250000' points = '277.6,323.2 277.6,662.4 279.5,662.4 279.5,319.2 '/>
		<polygon fill = 'rgb( 31, 120, 180)' fill-opacity = '0.250000' points = '279.5,319.2 279.5,662.4 281.4,662.4 281.4,315.3 '/>
		<polygon fill = 'rgb( 31, 120, 180)' fill-opacity = '0.250000' points = '281.4,315.3 281.4,662.4 283.3,662.4 283.3,311.2 '/>
		<polygon fill = 'rgb( 31, 120, 180)' fill-opacity = '0.250000' points = '283.3,311.2 283.3,662.4 285.2,662.4 285.2,307.2 '/>
		<polygon fill = 'rgb( 31, 120, 180)' fill-opacity = '0.250000' points = '285.2,307.2 285.2,662.4 287.0,662.4 287.0,303.1 '/>
		<polygon fill = 'rgb( 31, 120, 180)' fill-opacity = '0.250000' points = '287.0,303.1 287.0,662.4 288.9,662.4 288.9,299.0 '/>
		<polygon fill = 'rgb( 31, 120, 180)' fill-opacity = '0.250000' points = '288.9,299.0 288.9,662.4 290.8,662.4 290.8,294.9 '/>
		<polygon fill = 'rgb( 31, 120, 180)' fill-opacity = '0.250000' points = '290.8,294.9 290.8,662.4 292.7,662.4 292.7,290.8 '/>
		<polygon fill = 'rgb( 31, 120, 180)' fill-opacity = '0.250000' points = '292.7,290.8 292.7,662.4 294.6,662.4 294.6,286.7 '/>
		<polygon fill = 'rgb( 31, 120, 180)' fill-opacity = '0.250000' points = '294.6,286.7 294.6,662.4 296.5,662.4 296.5,282.5 '/>
		<polygon fill = 'rgb( 31, 120, 180)' fill-opacity = '0.250000' points = '296.5,282.5 296.5,662.4 298.4,662.4 298.4,278.4 '/>
		<polygon fill = 'rgb( 31, 120, 180)' fill-opacity = '0.250000' points = '298.4,278.4 298.4,662.4 300.2,662.4 300.2,274.2 '/>
		<polygon fill = 'rgb( 31, 120, 180)' fill-opacity = '0.250000' points = '300.2,274.2 300.2,662.4 302.1,662.4 302.1,270.1 '/>
		<polygon fill = 'rgb( 31, 120, 180)' fill-opacity = '0.250000' points = '302.1,270.1 302.1,662.4 304.0,662.4 304.0,266.0 '/>
		<polygon fill = 'rgb( 31, 120, 180)' fill-opacity = '0.250000' points = '304.0,266.0 304.0,662.4 305.9,662.4 305.9,261.9 '/>
		<polygon fill = 'rgb( 31, 120, 180)' fill-opacity = '0.250000' points = '305.9,261.9 305.9,662.4 307.8,662.4 307.8,257.8 '/>
		<polygon fill = 'rgb( 31, 120, 180)' fill-opacity = '0.250000' points = '307.8,257.8 307.8,662.4 309.7,662.4 309.7,253.7 '/>
		<polygon fill = 'rgb( 31, 120, 180)' fill-opacity = '0.250000' points = '309.7,253.7 309.7,662.4 311.6,662.4 311.6,249.7 '/>
		<polygon fill = 'rgb( 31, 120, 180)' fill-opacity = '0.250000' points = '311.6,249.7 311.6,662.4 313.5,662.4 313.5,245.7 '/>
		<polygon fill = 'rgb( 31, 120, 180)' fill-opacity = '0.250000' points = '313.5,245.7 313.5,662.4 315.3,662.4 315.3,241.7 '/>
		<polygon fill = 'rgb( 31, 120, 180)' fill-opacity = '0.250000' points = '315.3,241.7 315.3,662.4 317.2,662.4 317.2,237.8 '/>
		<polygon fill = 'rgb( 31, 120, 180)' fill-opacity = '0.250000' points = '317.2,237.8 317.2,662.4 319.1,662.4 319.1,233.8 '/>
		<polygon fill = 'rgb( 31, 120, 180)' fill-opacity = '0.250000' points = '319.1,233.8 319.1,662.4 321.0,662.4 321.0,230.0 '/>
		<polygon fill = 'rgb( 31, 120, 180)' fill-opacity = '0.250000' points = '321.0,230.0 321.0,662.4 322.9,662.4 322.9,226.1 '/>
		<polygon fill = 'rgb( 31, 120, 180)' fill-opacity = '0.250000' points = '322.9,226.1 322.9,662.4 324.8,662.4 324.8,222.3 '/>
		<polygon fill = 'rgb( 31, 120, 180)' fill-opacity = '0.250000' points = '324.8,222.3 324.8,662.4 326.7,662.4 326.7,218.6 '/>
		<polygon fill = 'rgb( 31, 120, 180)' fill-opacity = '0.250000' points = '326.7,218.6 326.7,662.4 328.6,662.4 328.6,214.8 '/>
		<polygon fill = 'rgb( 31, 120, 180)' fill-opacity = '0.250000' points = '328.6,214.8 328.6,662.4 330.4,662.4 330.4,211.1 '/>
		<polygon fill = 'rgb( 31, 120, 180)' fill-opacity = '0.250000' points = '330.4,211.1 330.4,662.4 332.3,662.4 332.3,207.5 '/>
		<polygon fill = 'rgb( 31, 120, 180)' fill-opacity = '0.250000' points = '332.3,207.5 332.3,662.4 334.2,662.4 334.2,203.9 '/>
		<polygon fill = 'rgb( 31, 120, 180)' fill-opacity = '0.250000' points = '334.2,203.9 334.2,662.4 336.1,662.4 336.1,200.4 '/>
		<polygon fill = 'rgb( 31, 120, 180)' fill-opacity = '0.250000' points = '336.1,200.4 336.1,662.4 338.0,662.4 338.0,196.9 '/>
		<polygon fill = 'rgb( 31, 120, 180)' fill-opacity = '0.250000' points = '338.0,196.9 338.0,662.4 339.9,662.4 339.9,193.5 '/>
		<polygon fill = 'rgb( 31, 120, 180)' fill-opacity = '0.250000' points = '339.9,193.5 339.9,662.4 341.8,662.4 341.8,190.1 '/>
		<polygon fill = 'rgb( 31, 120, 180)' fill-opacity = '0.250000' points = '341.8,190.1 341.8,662.4 343.7,662.4 343.7,186.8 '/>
		<polygon fill = 'rgb( 31, 120, 180)' fill-opacity = '0.250000' points = '343.7,186.8 343.7,662.4 345.5,662.4 345.5,183.6 '/>
		<polygon fill = 'rgb( 31, 120, 180)' fill-opacity = '0.250000' points = '345.5,183.6 345.5,662.4 347.4,662.4 347.4,180.5 '/>
		<polygon fill = 'rgb( 31, 120, 180)' fill-opacity = '0.250000' points = '347.4,180.5 347.4,662.4 349.3,662.4 349.3,177.4 '/>
		<polygon fill = 'rgb( 31, 120, 180)' fill-opacity = '0.250000' points = '349.3,177.4 349.3,662.4 351.2,662.4 351.2,174.5 '/>
		<polygon fill = 'rgb( 31, 120, 180)' fill-opacity = '0.250000' points = '351.2,174.5 351.2,662.4 353.1,662.4 353.1,171.6 '/>
		<polygon fill = 'rgb( 31, 120, 180)' fill-opacity = '0.250000' points = '353.1,171.6 353.1,662.4 355.0,662.4 355.0,168.8 '/>
		<polygon fill = 'rgb( 31, 120, 180)' fill-opacity = '0.250000' points = '355.0,168.8 355.0,662.4 356.9,662.4 356.9,166.2 '/>
		<polygon fill = 'rgb( 31, 120, 180)' fill-opacity = '0.250000' points = '356.9,166.2 356.9,662.4 358.8,662.4 358.8,163.6 '/>
		<polygon fill = 'rgb( 31, 120, 180)' fill-opacity = '0.250000' points = '358.8,163.6 358.8,662.4 360.6,662.4 360.6,161.1 '/>
		<polygon fill = 'rgb( 31, 120, 180)' fill-opacity = '0.250000' points = '360.6,161.1 360.6,662.4 362.5,662.4 362.5,158.6 '/>
		<polygon fill = 'rgb( 31, 120, 180)' fill-opacity = '0.250000' points = '362.5,158.6 362.5,662.4 364.4,662.4 364.4,156.3 '/>
		<polygon fill = 'rgb( 31, 120, 180)' fill-opacity = '0.250000' points = '364.4,156.3 364.4,662.4 366.3,662.4 366.3,154.0 '/>
		<polygon fill = 'rgb( 31, 120, 180)' fill-opacity = '0.250000' points = '366.3,154.0 366.3,662.4 368.2,662.4 368.2,151.9 '/>
		<polygon fill = 'rgb( 31, 120, 180)' fill-opacity = '0.250000' points = '368.2,151.9 368.2,662.4 370.1,662.4 370.1,149.7 '/>
		<polygon fill = 'rgb( 31, 120, 180)' fill-opacity = '0.250000' points = '370.1,149.7 370.1,662.4 372.0,662.4 372.0,147.7 '/>
		<polygon fill = 'rgb( 31, 120, 180)' fill-opacity = '0.250000' points = '372.0,147.7 372.0,662.4 373.8,662.4 373.8,145.6 '/>
		<polygon fill = 'rgb( 31, 120, 180)' fill-opacity = '0.250000' points = '373.8,145.6 373.8,662.4 375.7,662.4 375.7,143.6 '/>
		<polygon fill = 'rgb( 31, 120, 180)' fill-opacity = '0.250000' points = '375.7,143.6 375.7,662.4 377.6,662.4 377.6,141.7 '/>
		<polygon fill = 'rgb( 31, 120, 180)' fill-opacity = '0.250000' points = '377.6,141.7 377.6,662.4 379.5,662.4 379.5,139.8 '/>
		<polygon fill = 'rgb( 31, 120, 180)' fill-opacity = '0.250000' points = '379.5,139.8 379.5,662.4 381.4,662.4 381.4,137.9 '/>
		<polygon fill = 'rgb( 31, 120, 180)' fill-opacity = '0.250000' points = '381.4,137.9 381.4,662.4 383.3,662.4 383.3,136.0 '/>
		<polygon fill = 'rgb( 31, 120, 180)' fill-opacity = '0.250000' points = '383.3,136.0 383.3,662.4 385.2,662.4 385.2,134.1 '/>
		<polygon fill = 'rgb( 31, 120, 180)' fill-opacity = '0.250000' points = '385.2,134.1 385.2,662.4 387.1,662.4 387.1,132.3 '/>
		<polygon fill = 'rgb( 31, 120, 180)' fill-opacity = '0.250000' points = '387.1,132.3 387.1,662.4 388.9,662.4 388.9,130.4 '/>
		<polygon fill = 'rgb( 31, 120, 180)' fill-opacity = '0.250000' points = '388.9,130.4 388.9,662.4 390.8,662.4 390.8,128.6 '/>
		<polygon fill = 'rgb( 31, 120, 180)' fill-opacity = '0.250000' points = '390.8,128.6 390.8,662.4 392.7,662.4 392.7,126.7 '/>
		<polygon fill = 'rgb( 31, 120, 180)' fill-opacity = '0.250000' points = '392.7,126.7 392.7,662.4 394.6,662.4 394.6,124.9 '/>
		<polygon fill = 'rgb( 31, 120, 180)' fill-opacity = '0.250000' points = '394.6,124.9 394.6,662.4 396.5,662.4 396.5,123.1 '/>
		<polygon fill = 'rgb( 31, 120, 180)' fill-opacity = '0.250000' points = '396.5,123.1 396.5,662.4 398.4,662.4 398.4,121.2 '/>
		<polygon fill = 'rgb( 31, 120, 180)' fill-opacity = '0.250000' points = '398.4,121.2 398.4,662.4 400.3,662.4 400.3,119.4 '/>
		<polygon fill = 'rgb( 31, 120, 180)' fill-opacity = '0.250000' points = '400.3,119.4 400.3,662.4 402.2,662.4 402.2,117.7 '/>
		<polygon fill = 'rgb( 31, 120, 180)' fill-opacity = '0.250000' points = '402.2,117.7 402.2,662.4 404.0,662.4 404.0,115.9 '/>
		<polygon fill = 'rgb( 31, 120, 180)' fill-opacity = '0.250000' points = '404.0,115.9 404.0,662.4 405.9,662.4 405.9,114.2 '/>
		<polygon fill = 'rgb( 31, 120, 180)' fill-opacity = '0.250000' points = '405.9,114.2 405.9,662.4 407.8,662.4 407.8,112.5 '/>
		<polygon fill = 'rgb( 31, 120, 180)' fill-opacity = '0.250000' points = '407.8,112.5 407.8,662.4 409.7,662.4 409.7,110.8 '/>
		<polygon fill = 'rgb( 31, 120, 180)' fill-opacity = '0.250000' points = '409.7,110.8 409.7,662.4 411.6,662.4 411.6,109.2 '/>
		<polygon fill = 'rgb( 31, 120, 180)' fill-opacity = '0.250000' points = '411.6,109.2 411.6,662.4 413.5,662.4 413.5,107.6 '/>
		<polygon fill = 'rgb( 31, 120, 180)' fill-opacity = '0.250000' points = '413.5,107.6 413.5,662.4 415.4,662.4 415.4,106.1 '/>
		<polygon fill = 'rgb( 31, 120, 180)' fill-opacity = '0.250000' points = '415.4,106.1 415.4,662.4 417.3,662.4 417.3,104.6 '/>
		<polygon fill = 'rgb( 31, 120, 180)' fill-opacity = '0.250000' points = '417.3,104.6 417.3,662.4 419.1,662.4 419.1,103.2 '/>
		<polygon fill = 'rgb( 31, 120, 180)' fill-opacity = '0.250000' points = '419.1,103.2 419.1,662.4 421.0,662.4 421.0,101.9 '/>
		<polygon fill = 'rgb( 31, 120, 180)' fill-opacity = '0.250000' points = '421.0,101.9 421.0,662.4 422.9,662.4 422.9,100.6 '/>
		<polygon fill = 'rgb( 31, 120, 180)' fill-opacity = '0.250000' points = '422.9,100.6 422.9,662.4 424.8,662.4 424.8,99.4 '/>
		<polygon fill = 'rgb( 31, 120, 180)' fill-opacity = '0.250000' points = '424.8,99.4 424.8,662.4 426.7,662.4 426.7,98.2 '/>
		<polygon fill = 'rgb( 31, 120, 180)' fill-opacity = '0.250000' points = '426.7,98.2 426.7,662.4 428.6,662.4 428.6,97.2 '/>
		<polygon fill = 'rgb( 31, 120, 180)' fill-opacity = '0.250000' points = '428.6,97.2 428.6,662.4 430.5,662.4 430.5,96.2 '/>
		<polygon fill = 'rgb( 31, 120, 180)' fill-opacity = '0.250000' points = '430.5,96.2 430.5,662.4 432.4,662.4 432.4,95.2 '/>
		<polygon fill = 'rgb( 31, 120, 180)' fill-opacity = '0.250000' points = '432.4,95.2 432.4,662.4 434.2,662.4 434.2,94.3 '/>
		<polygon fill = 'rgb( 31, 120, 180)' fill-opacity = '0.250000' points = '434.2,94.3 434.2,662.4 436.1,662.4 436.1,93.5 '/>
		<polygon fill = 'rgb( 31, 120, 180)' fill-opacity = '0.250000' points = '436.1,93.5 436.1,662.4 438.0,662.4 438.0,92.8 '/>
		<polygon fill = 'rgb( 31, 120, 180)' fill-opacity = '0.250000' points = '438.0,92.8 438.0,662.4 439.9,662.4 439.9,92.1 '/>
		<polygon fill = 'rgb( 31, 120, 180)' fill-opacity = '0.250000' points = '439.9,92.1 439.9,662.4 441.8,662.4 441.8,91.5 '/>
		<polygon fill = 'rgb( 31, 120, 180)' fill-opacity = '0.250000' points = '441.8,91.5 441.8,662.4 443.7,662.4 443.7,91.0 '/>
		<polygon fill = 'rgb( 31, 120, 180)' fill-opacity = '0.250000' points = '443.7,91.0 443.7,662.4 445.6,662.4 445.6,90.5 '/>
		<polygon fill = 'rgb( 31, 120, 180)' fill-opacity = '0.250000' points = '445.6,90.5 445.6,662.4 447.4,662.4 447.4,90.1 '/>
		<polygon fill = 'rgb( 31, 120, 180)' fill-opacity = '0.250000' points = '447.4,90.1 447.4,662.4 449.3,662.4 449.3,89.8 '/>
		<polygon fill = 'rgb( 31, 120, 180)' fill-opacity = '0.250000' points = '449.3,89.8 449.3,662.4 451.2,662.4 451.2,89.5 '/>
		<polygon fill = 'rgb( 31, 120, 180)' fill-opacity = '0.250000' points = '451.2,89.5 451.2,662.4 453.1,662.4 453.1,89.2 '/>
		<polygon fill = 'rgb( 31, 120, 180)' fill-opacity = '0.250000' points = '453.1,89.2 453.1,662.4 455.0,662.4 455.0,89.1 '/>
		<polygon fill = 'rgb( 31, 120, 180)' fill-opacity = '0.250000' points = '455.0,89.1 455.0,662.4 456.9,662.4 456.9,88.9 '/>
		<polygon fill = 'rgb( 31, 120, 180)' fill-opacity = '0.250000' points = '456.9,88.9 456.9,662.4 458.8,662.4 458.8,88.9 '/>
		<polygon fill = 'rgb( 31, 120, 180)' fill-opacity = '0.250000' points = '458.8,88.9 458.8,662.4 460.7,662.4 460.7,88.9 '/>
		<polygon fill = 'rgb( 31, 120, 180)' fill-opacity = '0.250000' points = '460.7,88.9 460.7,662.4 462.5,662.4 462.5,88.9 '/>
		<polygon fill = 'rgb( 31, 120, 180)' fill-opacity = '0.250000' points = '462.5,88.9 462.5,662.4 464.4,662.4 464.4,89.0 '/>
		<polygon fill = 'rgb( 31, 120, 180)' fill-opacity = '0.250000' points = '464.4,89.0 464.4,662.4 466.3,662.4 466.3,89.1 '/>
		<polygon fill = 'rgb( 31, 120, 180)' fill-opacity = '0.250000' points = '466.3,89.1 466.3,662.4 468.2,662.4 468.2,89.3 '/>
		<polygon fill = 'rgb( 31, 120, 180)' fill-opacity = '0.250000' points = '468.2,89.3 468.2,662.4 470.1,662.4 470.1,89.5 '/>
		<polygon fill = 'rgb( 31, 120, 180)' fill-opacity = '0.250000' points = '470.1,89.5 470.1,662.4 472.0,662.4 472.0,89.8 '/>
		<polygon fill = 'rgb( 31, 120, 180)' fill-opacity = '0.250000' points = '472.0,89.8 472.0,662.4 473.9,662.4 473.9,90.1 '/>
		<polygon fill = 'rgb( 31, 120, 180)' fill-opacity = '0.250000' points = '473.9,90.1 473.9,662.4 475.8,662.4 475.8,90.4 '/>
		<polygon fill = 'rgb( 31, 120, 180)' fill-opacity = '0.250000' points = '475.8,90.4 475.8,662.4 477.6,662.4 477.6,90.7 '/>
		<polygon fill = 'rgb( 31, 120, 180)' fill-opacity = '0.250000' points = '477.6,90.7 477.6,662.4 479.5,662.4 479.5,91.1 '/>
		<polygon fill = 'rgb( 31, 120, 180)' fill-opacity = '0.250000' points = '479.5,91.1 479.5,662.4 481.4,662.4 481.4,91.5 '/>
		<polygon fill = 'rgb( 31, 120, 180)' fill-opacity = '0.250000' points = '481.4,91.5 481.4,662.4 483.3,662.4 483.3,92.0 '/>
		<polygon fill = 'rgb( 31, 120, 180)' fill-opacity = '0.250000' points = '483.3,92.0 483.3,662.4 485.2,662.4 485.2,92.4 '/>
		<polygon fill = 'rgb( 31, 120, 180)' fill-opacity = '0.250000' points = '485.2,92.4 485.2,662.4 487.1,662.4 487.1,92.9 '/>
		<polygon fill = 'rgb( 31, 120, 180)' fill-opacity = '0.250000' points = '487.1,92.9 487.1,662.4 489.0,662.4 489.0,93.5 '/>
		<polygon fill = 'rgb( 31, 120, 180)' fill-opacity = '0.250000' points = '489.0,93.5 489.0,662.4 490.9,662.4 490.9,94.1 '/>
		<polygon fill = 'rgb( 31, 120, 180)' fill-opacity = '0.250000' points = '490.9,94.1 490.9,662.4 492.7,662.4 492.7,94.7 '/>
		<polygon fill = 'rgb( 31, 120, 180)' fill-opacity = '0.250000' points = '492.7,94.7 492.7,662.4 494.6,662.4 494.6,95.4 '/>
		<polygon fill = 'rgb( 31, 120, 180)' fill-opacity = '0.250000' points = '494.6,95.4 494.6,662.4 496.5,662.4 496.5,96.2 '/>
		<polygon fill = 'rgb( 31, 120, 180)' fill-opacity = '0.250000' points = '496.5,96.2 496.5,662.4 498.4,662.4 498.4,97.0 '/>
		<polygon fill = 'rgb( 31, 120, 180)' fill-opacity = '0.250000' points = '498.4,97.0 498.4,662.4 500.3,662.4 500.3,97.9 '/>
		<polygon fill = 'rgb( 31, 120, 180)' fill-opacity = '0.250000' points = '500.3,97.9 500.3,662.4 502.2,662.4 502.2,98.8 '/>
		<polygon fill = 'rgb( 31, 120, 180)' fill-opacity = '0.250000' points = '502.2,98.8 502.2,662.4 504.1,662.4 504.1,99.9 '/>
		<polygon fill = 'rgb( 31, 120, 180)' fill-opacity = '0.250000' points = '504.1,99.9 504.1,662.4 506.0,662.4 506.0,101.0 '/>
		<polygon fill = 'rgb( 31, 120, 180)' fill-opacity = '0.250000' points = '506.0,101.0 506.0,662.4 507.8,662.4 507.8,102.2 '/>
		<polygon fill = 'rgb( 31, 120, 180)' fill-opacity = '0.250000' points = '507.8,102.2 507.8,662.4 509.7,662.4 509.7,103.5 '/>
		<polygon fill = 'rgb( 31, 120, 180)' fill-opacity = '0.250000' points = '509.7,103.5 509.7,662.4 511.6,662.4 511.6,104.9 '/>
		<polygon fill = 'rgb( 31, 120, 180)' fill-opacity = '0.250000' points = '511.6,104.9 511.6,662.4 513.5,662.4 513.5,106.3 '/>
		<polygon fill = 'rgb( 31, 120, 180)' fill-opacity = '0.250000' points = '513.5,106.3 513.5,662.4 515.4,662.4 515.4,107.9 '/>
		<polygon fill = 'rgb( 31, 120, 180)' fill-opacity = '0.250000' points = '515.4,107.9 515.4,662.4 517.3,662.4 517.3,109.5 '/>
		<polygon fill = 'rgb( 31, 120, 180)' fill-opacity = '0.250000' points = '517.3,109.5 517.3,662.4 519.2,662.4 519.2,111.3 '/>
		<polygon fill = 'rgb( 31, 120, 180)' fill-opacity = '0.250000' points = '519.2,111.3 519.2,662.4 521.0,662.4 521.0,113.1 '/>
		<polygon fill = 'rgb( 31, 120, 180)' fill-opacity = '0.250000' points = '521.0,113.1 521.0,662.4 522.9,662.4 522.9,115.0 '/>
		<polygon fill = 'rgb( 31, 120, 180)' fill-opacity = '0.250000' points = '522.9,115.0 522.9,662.4 524.8,662.4 524.8,116.9 '/>
		<polygon fill = 'rgb( 31, 120, 180)' fill-opacity = '0.250000' points = '524.8,116.9 524.8,662.4 526.7,662.4 526.7,119.0 '/>
		<polygon fill = 'rgb( 31, 120, 180)' fill-opacity = '0.250000' points = '526.7,119.0 526.7,662.4 528.6,662.4 528.6,121.1 '/>
		<polygon fill = 'rgb( 31, 120, 180)' fill-opacity = '0.250000' points = '528.6,121.1 528.6,662.4 530.5,662.4 530.5,123.2 '/>
		<polygon fill = 'rgb( 31, 120, 180)' fill-opacity = '0.250000' points = '530.5,123.2 530.5,662.4 532.4,662.4 532.4,125.4 '/>
		<polygon fill = 'rgb( 31, 120, 180)' fill-opacity = '0.250000' points = '532.4,125.4 532.4,662.4 534.3,662.4 534.3,127.7 '/>
		<polygon fill = 'rgb( 31, 120, 180)' fill-opacity = '0.250000' points = '534.3,127.7 534.3,662.4 536.1,662.4 536.1,130.0 '/>
		<polygon fill = 'rgb( 31, 120, 180)' fill-opacity = '0.250000' points = '536.1,130.0 536.1,662.4 538.0,662.4 538.0,132.3 '/>
		<polygon fill = 'rgb( 31, 120, 180)' fill-opacity = '0.250000' points = '538.0,132.3 538.0,662.4 539.9,662.4 539.9,134.7 '/>
		<polygon fill = 'rgb( 31, 120, 180)' fill-opacity = '0.250000' points = '539.9,134.7 539.9,662.4 541.8,662.4 541.8,137.1 '/>
		<polygon fill = 'rgb( 31, 120, 180)' fill-opacity = '0.250000' points = '541.8,137.1 541.8,662.4 543.7,662.4 543.7,139.6 '/>
		<polygon fill = 'rgb( 31, 120, 180)' fill-opacity = '0.250000' points = '543.7,139.6 543.7,662.4 545.6,662.4 545.6,142.0 '/>
		<polygon fill = 'rgb( 31, 120, 180)' fill-opacity = '0.250000' points = '545.6,142.0 545.6,662.4 547.5,662.4 547.5,144.5 '/>
		<polygon fill = 'rgb( 31, 120, 180)' fill-opacity = '0.250000' points = '547.5,144.5 547.5,662.4 549.4,662.4 549.4,147.0 '/>
		<polygon fill = 'rgb( 31, 120, 180)' fill-opacity = '0.250000' points = '549.4,147.0 549.4,662.4 551.2,662.4 551.2,149.5 '/>
		<polygon fill = 'rgb( 31, 120, 180)' fill-opacity = '0.250000' points = '551.2,149.5 551.2,662.4 553.1,662.4 553.1,152.0 '/>
		<polygon fill = 'rgb( 31, 120, 180)' fill-opacity = '0.250000' points = '553.1,152.0 553.1,662.4 555.0,662.4 555.0,154.5 '/>
		<polygon fill = 'rgb( 31, 120, 180)' fill-opacity = '0.250000' points = '555.0,154.5 555.0,662.4 556.9,662.4 556.9,157.0 '/>
		<polygon fill = 'rgb( 31, 120, 180)' fill-opacity = '0.250000' points = '556.9,157.0 556.9,662.4 558.8,662.4 558.8,159.5 '/>
		<polygon fill = 'rgb( 31, 120, 180)' fill-opacity = '0.250000' points = '558.8,159.5 558.8,662.4 560.7,662.4 560.7,162.0 '/>
		<polygon fill = 'rgb( 31, 120, 180)' fill-opacity = '0.250000' points = '560.7,162.0 560.7,662.4 562.6,662.4 562.6,164.4 '/>
		<polygon fill = 'rgb( 31, 120, 180)' fill-opacity = '0.250000' points = '562.6,164.4 562.6,662.4 564.5,662.4 564.5,166.8 '/>
		<polygon fill = 'rgb( 31, 120, 180)' fill-opacity = '0.250000' points = '564.5,166.8 564.5,662.4 566.3,662.4 566.3,169.1 '/>
		<polygon fill = 'rgb( 31, 120, 180)' fill-opacity = '0.250000' points = '566.3,169.1 566.3,662.4 568.2,662.4 568.2,171.4 '/>
		<polygon fill = 'rgb( 31, 120, 180)' fill-opacity = '0.250000' points = '568.2,171.4 568.2,662.4 570.1,662.4 570.1,173.6 '/>
		<polygon fill = 'rgb( 31, 120, 180)' fill-opacity = '0.250000' points = '570.1,173.6 570.1,662.4 572.0,662.4 572.0,175.8 '/>
		<polygon fill = 'rgb( 31, 120, 180)' fill-opacity = '0.250000' points = '572.0,175.8 572.0,662.4 573.9,662.4 573.9,177.9 '/>
		<polygon fill = 'rgb( 31, 120, 180)' fill-opacity = '0.250000' points = '573.9,177.9 573.9,662.4 575.8,662.4 575.8,180.0 '/>
		<polygon fill = 'rgb( 31, 120, 180)' fill-opacity = '0.250000' points = '575.8,180.0 575.8,662.4 577.7,662.4 577.7,182.0 '/>
		<polygon fill = 'rgb( 31, 120, 180)' fill-opacity = '0.250000' points = '577.7,182.0 577.7,662.4 579.5,662.4 579.5,184.0 '/>
		<polygon fill = 'rgb( 31, 120, 180)' fill-opacity = '0.250000' points = '579.5,184.0 579.5,662.4 581.4,662.4 581.4,185.9 '/>
		<polygon fill = 'rgb( 31, 120, 180)' fill-opacity = '0.250000' points = '581.4,185.9 581.4,662.4 583.3,662.4 583.3,187.8 '/>
		<polygon fill = 'rgb( 31, 120, 180)' fill-opacity = '0.250000' points = '583.3,187.8 583.3,662.4 585.2,662.4 585.2,189.6 '/>
		<polygon fill = 'rgb( 31, 120, 180)' fill-opacity = '0.250000' points = '585.2,189.6 585.2,662.4 587.1,662.4 587.1,191.4 '/>
		<polygon fill = 'rgb( 31, 120, 180)' fill-opacity = '0.250000' points = '587.1,191.4 587.1,662.4 589.0,662.4 589.0,193.2 '/>
		<polygon fill = 'rgb( 31, 120, 180)' fill-opacity = '0.250000' points = '589.0,193.2 589.0,662.4 590.9,662.4 590.9,195.0 '/>
		<polygon fill = 'rgb( 31, 120, 180)' fill-opacity = '0.250000' points = '590.9,195.0 590.9,662.4 592.8,662.4 592.8,196.7 '/>
		<polygon fill = 'rgb( 31, 120, 180)' fill-opacity = '0.250000' points = '592.8,196.7 592.8,662.4 594.6,662.4 594.6,198.4 '/>
		<polygon fill = 'rgb( 31, 120, 180)' fill-opacity = '0.250000' points = '594.6,198.4 594.6,662.4 596.5,662.4 596.5,200.2 '/>
		<polygon fill = 'rgb( 31, 120, 180)' fill-opacity = '0.250000' points = '596.5,200.2 596.5,662.4 598.4,662.4 598.4,201.9 '/>
		<polygon fill = 'rgb( 31, 120, 180)' fill-opacity = '0.250000' points = '598.4,201.9 598.4,662.4 600.3,662.4 600.3,203.7 '/>
		<polygon fill = 'rgb( 31, 120, 180)' fill-opacity = '0.250000' points = '600.3,203.7 600.3,662.4 602.2,662.4 602.2,205.5 '/>
		<polygon fill = 'rgb( 31, 120, 180)' fill-opacity = '0.250000' points = '602.2,205.5 602.2,662.4 604.1,662.4 604.1,207.4 '/>
		<polygon fill = 'rgb( 31, 120, 180)' fill-opacity = '0.250000' points = '604.1,207.4 604.1,662.4 606.0,662.4 606.0,209.2 '/>
		<polygon fill = 'rgb( 31, 120, 180)' fill-opacity = '0.250000' points = '606.0,209.2 606.0,662.4 607.9,662.4 607.9,211.2 '/>
		<polygon fill = 'rgb( 31, 120, 180)' fill-opacity = '0.250000' points = '607.9,211.2 607.9,662.4 609.7,662.4 609.7,213.2 '/>
		<polygon fill = 'rgb( 31, 120, 180)' fill-opacity = '0.250000' points = '609.7,213.2 609.7,662.4 611.6,662.4 611.6,215.2 '/>
		<polygon fill = 'rgb( 31, 120, 180)' fill-opacity = '0.250000' points = '611.6,215.2 611.6,662.4 613.5,662.4 613.5,217.3 '/>
		<polygon fill = 'rgb( 31, 120, 180)' fill-opacity = '0.250000' points = '613.5,217.3 613.5,662.4 615.4,662.4 615.4,219.5 '/>
		<polygon fill = 'rgb( 31, 120, 180)' fill-opacity = '0.250000' points = '615.4,219.5 615.4,662.4 617.3,662.4 617.3,221.7 '/>
		<polygon fill = 'rgb( 31, 120, 180)' fill-opacity = '0.250000' points = '617.3,221.7 617.3,662.4 619.2,662.4 619.2,224.0 '/>
		<polygon fill = 'rgb( 31, 120, 180)' fill-opacity = '0.250000' points = '619.2,224.0 619.2,662.4 621.1,662.4 621.1,226.3 '/>
		<polygon fill = 'rgb( 31, 120, 180)' fill-opacity = '0.250000' points = '621.1,226.3 621.1,662.4 623.0,662.4 623.0,228.7 '/>
		<polygon fill = 'rgb( 31, 120, 180)' fill-opacity = '0.250000' points = '623.0,228.7 623.0,662.4 624.8,662.4 624.8,231.2 '/>
		<polygon fill = 'rgb( 31, 120, 180)' fill-opacity = '0.250000' points = '624.8,231.2 624.8,662.4 626.7,662.4 626.7,233.7 '/>
		<polygon fill = 'rgb( 31, 120, 180)' fill-opacity = '0.250000' points = '626.7,233.7 626.7,662.4 628.6,662.4 628.6,236.3 '/>
		<polygon fill = 'rgb( 31, 120, 180)' fill-opacity = '0.250000' points = '628.6,236.3 628.6,662.4 630.5,662.4 630.5,239.0 '/>
		<polygon fill = 'rgb( 31, 120, 180)' fill-opacity = '0.250000' points = '630.5,239.0 630.5,662.4 632.4,662.4 632.4,241.7 '/>
		<polygon fill = 'rgb( 31, 120, 180)' fill-opacity = '0.250000' points = '632.4,241.7 632.4,662.4 634.3,662.4 634.3,244.4 '/>
		<polygon fill = 'rgb( 31, 120, 180)' fill-opacity = '0.250000' points = '634.3,244.4 634.3,662.4 636.2,662.4 636.2,247.2 '/>
		<polygon fill = 'rgb( 31, 120, 180)' fill-opacity = '0.250000' points = '636.2,247.2 636.2,662.4 638.1,662.4 638.1,250.0 '/>
		<polygon fill = 'rgb( 31, 120, 180)' fill-opacity = '0.250000' points = '638.1,250.0 638.1,662.4 639.9,662.4 639.9,252.8 '/>
		<polygon fill = 'rgb( 31, 120, 180)' fill-opacity = '0.250000' points = '639.9,252.8 639.9,662.4 641.8,662.4 641.8,255.7 '/>
		<polygon fill = 'rgb( 31, 120, 180)' fill-opacity = '0.250000' points = '641.8,255.7 641.8,662.4 643.7,662.4 643.7,258.6 '/>
		<polygon fill = 'rgb( 31, 120, 180)' fill-opacity = '0.250000' points = '643.7,258.6 643.7,662.4 645.6,662.4 645.6,261.5 '/>
		<polygon fill = 'rgb( 31, 120, 180)' fill-opacity = '0.250000' points = '645.6,261.5 645.6,662.4 647.5,662.4 647.5,264.5 '/>
		<polygon fill = 'rgb( 31, 120, 180)' fill-opacity = '0.250000' points = '647.5,264.5 647.5,662.4 649.4,662.4 649.4,267.4 '/>
		<polygon fill = 'rgb( 31, 120, 180)' fill-opacity = '0.250000' points = '649.4,267.4 649.4,662.4 651.3,662.4 651.3,270.4 '/>
		<polygon fill = 'rgb( 31, 120, 180)' fill-opacity = '0.250000' points = '651.3,270.4 651.3,662.4 653.1,662.4 653.1,273.4 '/>
		<polygon fill = 'rgb( 31, 120, 180)' fill-opacity = '0.250000' points = '653.1,273.4 653.1,662.4 655.0,662.4 655.0,276.3 '/>
		<polygon fill = 'rgb( 31, 120, 180)' fill-opacity = '0.250000' points = '655.0,276.3 655.0,662.4 656.9,662.4 656.9,279.3 '/>
		<polygon fill = 'rgb( 31, 120, 180)' fill-opacity = '0.250000' points = '656.9,279.3 656.9,662.4 658.8,662.4 658.8,282.2 '/>
		<polygon fill = 'rgb( 31, 120, 180)' fill-opacity = '0.250000' points = '658.8,282.2 658.8,662.4 660.7,662.4 660.7,285.2 '/>
		<polygon fill = 'rgb( 31, 120, 180)' fill-opacity = '0.250000' points = '660.7,285.2 660.7,662.4 662.6,662.4 662.6,288.1 '/>
		<polygon fill = 'rgb( 31, 120, 180)' fill-opacity = '0.250000' points = '662.6,288.1 662.6,662.4 664.5,662.4 664.5,291.0 '/>
		<polygon fill = 'rgb( 31, 120, 180)' fill-opacity = '0.250000' points = '664.5,291.0 664.5,662.4 666.4,662.4 666.4,293.9 '/>
		<polygon fill = 'rgb( 31, 120, 180)' fill-opacity = '0.250000' points = '666.4,293.9 666.4,662.4 668.2,662.4 668.2,296.7 '/>
		<polygon fill = 'rgb( 31, 120, 180)' fill-opacity = '0.250000' points = '668.2,296.7 668.2,662.4 670.1,662.4 670.1,299.6 '/>
		<polygon fill = 'rgb( 31, 120, 180)' fill-opacity = '0.250000' points = '670.1,299.6 670.1,662.4 672.0,662.4 672.0,302.4 '/>
		<polygon fill = 'rgb( 31, 120, 180)' fill-opacity = '0.250000' points = '672.0,302.4 672.0,662.4 673.9,662.4 673.9,305.2 '/>
		<polygon fill = 'rgb( 31, 120, 180)' fill-opacity = '0.250000' points = '673.9,305.2 673.9,662.4 675.8,662.4 675.8,308.0 '/>
		<polygon fill = 'rgb( 31, 120, 180)' fill-opacity = '0.250000' points = '675.8,308.0 675.8,662.4 677.7,662.4 677.7,310.7 '/>
		<polygon fill = 'rgb( 31, 120, 180)' fill-opacity = '0.250000' points = '677.7,310.7 677.7,662.4 679.6,662.4 679.6,313.5 '/>
		<polygon fill = 'rgb( 31, 120, 180)' fill-opacity = '0.250000' points = '679.6,313.5 679.6,662.4 681.5,662.4 681.5,316.2 '/>
		<polygon fill = 'rgb( 31, 120, 180)' fill-opacity = '0.250000' points = '681.5,316.2 681.5,662.4 683.3,662.4 683.3,318.9 '/>
		<polygon fill = 'rgb( 31, 120, 180)' fill-opacity = '0.250000' points = '683.3,318.9 683.3,662.4 685.2,662.4 685.2,321.6 '/>
		<polygon fill = 'rgb( 31, 120, 180)' fill-opacity = '0.250000' points = '685.2,321.6 685.2,662.4 687.1,662.4 687.1,324.3 '/>
		<polygon fill = 'rgb( 31, 120, 180)' fill-opacity = '0.250000' points = '687.1,324.3 687.1,662.4 689.0,662.4 689.0,326.9 '/>
		<polygon fill = 'rgb( 31, 120, 180)' fill-opacity = '0.250000' points = '689.0,326.9 689.0,662.4 690.9,662.4 690.9,329.6 '/>
		<polygon fill = 'rgb( 31, 120, 180)' fill-opacity = '0.250000' points = '690.9,329.6 690.9,662.4 692.8,662.4 692.8,332.3 '/>
		<polygon fill = 'rgb( 31, 120, 180)' fill-opacity = '0.250000' points = '692.8,332.3 692.8,662.4 694.7,662.4 694.7,335.0 '/>
		<polygon fill = 'rgb( 31, 120, 180)' fill-opacity = '0.250000' points = '694.7,335.0 694.7,662.4 696.6,662.4 696.6,337.7 '/>
		<polygon fill = 'rgb( 31, 120, 180)' fill-opacity = '0.250000' points = '696.6,337.7 696.6,662.4 698.4,662.4 698.4,340.4 '/>
		<polygon fill = 'rgb( 31, 120, 180)' fill-opacity = '0.250000' points = '698.4,340.4 698.4,662.4 700.3,662.4 700.3,343.1 '/>
		<polygon fill = 'rgb( 31, 120, 180)' fill-opacity = '0.250000' points = '700.3,343.1 700.3,662.4 702.2,662.4 702.2,345.9 '/>
		<polygon fill = 'rgb( 31, 120, 180)' fill-opacity = '0.250000' points = '702.2,345.9 702.2,662.4 704.1,662.4 704.1,348.6 '/>
		<polygon fill = 'rgb( 31, 120, 180)' fill-opacity = '0.250000' points = '704.1,348.6 704.1,662.4 706.0,662.4 706.0,351.4 '/>
		<polygon fill = 'rgb( 31, 120, 180)' fill-opacity = '0.250000' points = '706.0,351.4 706.0,662.4 707.9,662.4 707.9,354.3 '/>
		<polygon fill = 'rgb( 31, 120, 180)' fill-opacity = '0.250000' points = '707.9,354.3 707.9,662.4 709.8,662.4 709.8,357.1 '/>
		<polygon fill = 'rgb( 31, 120, 180)' fill-opacity = '0.250000' points = '709.8,357.1 709.8,662.4 711.7,662.4 711.7,360.0 '/>
		<polygon fill = 'rgb( 31, 120, 180)' fill-opacity = '0.250000' points = '711.7,360.0 711.7,662.4 713.5,662.4 713.5,362.9 '/>
		<polygon fill = 'rgb( 31, 120, 180)' fill-opacity = '0.250000' points = '713.5,362.9 713.5,662.4 715.4,662.4 715.4,365.8 '/>
		<polygon fill = 'rgb( 31, 120, 180)' fill-opacity = '0.250000' points = '715.4,365.8 715.4,662.4 717.3,662.4 717.3,368.7 '/>
		<polygon fill = 'rgb( 31, 120, 180)' fill-opacity = '0.250000' points = '717.3,368.7 717.3,662.4 719.2,662.4 719.2,371.6 '/>
		<polygon fill = 'rgb( 31, 120, 180)' fill-opacity = '0.250000' points = '719.2,371.6 719.2,662.4 721.1,662.4 721.1,374.5 '/>
		<polygon fill = 'rgb( 31, 120, 180)' fill-opacity = '0.250000' points = '721.1,374.5 721.1,662.4 723.0,662.4 723.0,377.4 '/>
		<polygon fill = 'rgb( 31, 120, 180)' fill-opacity = '0.250000' points = '723.0,377.4 723.0,662.4 724.9,662.4 724.9,380.2 '/>
		<polygon fill = 'rgb( 31, 120, 180)' fill-opacity = '0.250000' points = '724.9,380.2 724.9,662.4 726.7,662.4 726.7,383.0 '/>
		<polygon fill = 'rgb( 31, 120, 180)' fill-opacity = '0.250000' points = '726.7,383.0 726.7,662.4 728.6,662.4 728.6,385.9 '/>
		<polygon fill = 'rgb( 31, 120, 180)' fill-opacity = '0.250000' points = '728.6,385.9 728.6,662.4 730.5,662.4 730.5,388.6 '/>
		<polygon fill = 'rgb( 31, 120, 180)' fill-opacity = '0.250000' points = '730.5,388.6 730.5,662.4 732.4,662.4 732.4,391.3 '/>
		<polygon fill = 'rgb( 31, 120, 180)' fill-opacity = '0.250000' points = '732.4,391.3 732.4,662.4 734.3,662.4 734.3,394.0 '/>
		<polygon fill = 'rgb( 31, 120, 180)' fill-opacity = '0.250000' points = '734.3,394.0 734.3,662.4 736.2,662.4 736.2,396.7 '/>
		<polygon fill = 'rgb( 31, 120, 180)' fill-opacity = '0.250000' points = '736.2,396.7 736.2,662.4 738.1,662.4 738.1,399.2 '/>
		<polygon fill = 'rgb( 31, 120, 180)' fill-opacity = '0.250000' points = '738.1,399.2 738.1,662.4 740.0,662.4 740.0,401.8 '/>
		<polygon fill = 'rgb( 31, 120, 180)' fill-opacity = '0.250000' points = '740.0,401.8 740.0,662.4 741.8,662.4 741.8,404.3 '/>
		<polygon fill = 'rgb( 31, 120, 180)' fill-opacity = '0.250000' points = '741.8,404.3 741.8,662.4 743.7,662.4 743.7,406.8 '/>
		<polygon fill = 'rgb( 31, 120, 180)' fill-opacity = '0.250000' points = '743.7,406.8 743.7,662.4 745.6,662.4 745.6,409.2 '/>
		<polygon fill = 'rgb( 31, 120, 180)' fill-opacity = '0.250000' points = '745.6,409.2 745.6,662.4 747.5,662.4 747.5,411.6 '/>
		<polygon fill = 'rgb( 31, 120, 180)' fill-opacity = '0.250000' points = '747.5,411.6 747.5,662.4 749.4,662.4 749.4,414.0 '/>
		<polygon fill = 'rgb( 31, 120, 180)' fill-opacity = '0.250000' points = '749.4,414.0 749.4,662.4 751.3,662.4 751.3,416.4 '/>
		<polygon fill = 'rgb( 31, 120, 180)' fill-opacity = '0.250000' points = '751.3,416.4 751.3,662.4 753.2,662.4 753.2,418.7 '/>
		<polygon fill = 'rgb( 31, 120, 180)' fill-opacity = '0.250000' points = '753.2,418.7 753.2,662.4 755.1,662.4 755.1,421.1 '/>
		<polygon fill = 'rgb( 31, 120, 180)' fill-opacity = '0.250000' points = '755.1,421.1 755.1,662.4 756.9,662.4 756.9,423.5 '/>
		<polygon fill = 'rgb( 31, 120, 180)' fill-opacity = '0.250000' points = '756.9,423.5 756.9,662.4 758.8,662.4 758.8,425.8 '/>
		<polygon fill = 'rgb( 31, 120, 180)' fill-opacity = '0.250000' points = '758.8,425.8 758.8,662.4 760.7,662.4 760.7,428.3 '/>
		<polygon fill = 'rgb( 31, 120, 180)' fill-opacity = '0.250000' points = '760.7,428.3 760.7,662.4 762.6,662.4 762.6,430.7 '/>
		<polygon fill = 'rgb( 31, 120, 180)' fill-opacity = '0.250000' points = '762.6,430.7 762.6,662.4 764.5,662.4 764.5,433.1 '/>
		<polygon fill = 'rgb( 31, 120, 180)' fill-opacity = '0.250000' points = '764.5,433.1 764.5,662.4 766.4,662.4 766.4,435.6 '/>
		<polygon fill = 'rgb( 31, 120, 180)' fill-opacity = '0.250000' points = '766.4,435.6 766.4,662.4 768.3,662.4 768.3,438.2 '/>
		<polygon fill = 'rgb( 31, 120, 180)' fill-opacity = '0.250000' points = '768.3,438.2 768.3,662.4 770.2,662.4 770.2,440.7 '/>
		<polygon fill = 'rgb( 31, 120, 180)' fill-opacity = '0.250000' points = '770.2,440.7 770.2,662.4 772.0,662.4 772.0,443.3 '/>
		<polygon fill = 'rgb( 31, 120, 180)' fill-opacity = '0.250000' points = '772.0,443.3 772.0,662.4 773.9,662.4 773.9,446.0 '/>
		<polygon fill = 'rgb( 31, 120, 180)' fill-opacity = '0.250000' points = '773.9,446.0 773.9,662.4 775.8,662.4 775.8,448.6 '/>
		<polygon fill = 'rgb( 31, 120, 180)' fill-opacity = '0.250000' points = '775.8,448.6 775.8,662.4 777.7,662.4 777.7,451.3 '/>
		<polygon fill = 'rgb( 31, 120, 180)' fill-opacity = '0.250000' points = '777.7,451.3 777.7,662.4 779.6,662.4 779.6,454.0 '/>
		<polygon fill = 'rgb( 31, 120, 180)' fill-opacity = '0.250000' points = '779.6,454.0 779.6,662.4 781.5,662.4 781.5,456.8 '/>
		<polygon fill = 'rgb( 31, 120, 180)' fill-opacity = '0.250000' points = '781.5,456.8 781.5,662.4 783.4,662.4 783.4,459.5 '/>
		<polygon fill = 'rgb( 31, 120, 180)' fill-opacity = '0.250000' points = '783.4,459.5 783.4,662.4 785.3,662.4 785.3,462.3 '/>
		<polygon fill = 'rgb( 31, 120, 180)' fill-opacity = '0.250000' points = '785.3,462.3 785.3,662.4 787.1,662.4 787.1,465.1 '/>
		<polygon fill = 'rgb( 31, 120, 180)' fill-opacity = '0.250000' points = '787.1,465.1 787.1,662.4 789.0,662.4 789.0,467.9 '/>
		<polygon fill = 'rgb( 31, 120, 180)' fill-opacity = '0.250000' points = '789.0,467.9 789.0,662.4 790.9,662.4 790.9,470.7 '/>
		<polygon fill = 'rgb( 31, 120, 180)' fill-opacity = '0.250000' points = '790.9,470.7 790.9,662.4 792.8,662.4 792.8,473.4 '/>
		<polygon fill = 'rgb( 31, 120, 180)' fill-opacity = '0.250000' points = '792.8,473.4 792.8,662.4 794.7,662.4 794.7,476.2 '/>
		<polygon fill = 'rgb( 31, 120, 180)' fill-opacity = '0.250000' points = '794.7,476.2 794.7,662.4 796.6,662.4 796.6,478.9 '/>
		<polygon fill = 'rgb( 31, 120, 180)' fill-opacity = '0.250000' points = '796.6,478.9 796.6,662.4 798.5,662.4 798.5,481.7 '/>
		<polygon fill = 'rgb( 31, 120, 180)' fill-opacity = '0.250000' points = '798.5,481.7 798.5,662.4 800.3,662.4 800.3,484.3 '/>
		<polygon fill = 'rgb( 31, 120, 180)' fill-opacity = '0.250000' points = '800.3,484.3 800.3,662.4 802.2,662.4 802.2,487.0 '/>
		<polygon fill = 'rgb( 31, 120, 180)' fill-opacity = '0.250000' points = '802.2,487.0 802.2,662.4 804.1,662.4 804.1,489.6 '/>
		<polygon fill = 'rgb( 31, 120, 180)' fill-opacity = '0.250000' points = '804.1,489.6 804.1,662.4 806.0,662.4 806.0,492.1 '/>
		<polygon fill = 'rgb( 31, 120, 180)' fill-opacity = '0.250000' points = '806.0,492.1 806.0,662.4 807.9,662.4 807.9,494.6 '/>
		<polygon fill = 'rgb( 31, 120, 180)' fill-opacity = '0.250000' points = '807.9,494.6 807.9,662.4 809.8,662.4 809.8,497.1 '/>
		<polygon fill = 'rgb( 31, 120, 180)' fill-opacity = '0.250000' points = '809.8,497.1 809.8,662.4 811.7,662.4 811.7,499.5 '/>
		<polygon fill = 'rgb( 31, 120, 180)' fill-opacity = '0.250000' points = '811.7,499.5 811.7,662.4 813.6,662.4 813.6,501.8 '/>
		<polygon fill = 'rgb( 31, 120, 180)' fill-opacity = '0.250000' points = '813.6,501.8 813.6,662.4 815.4,662.4 815.4,504.1 '/>
		<polygon fill = 'rgb( 31, 120, 180)' fill-opacity = '0.250000' points = '815.4,504.1 815.4,662.4 817.3,662.4 817.3,506.3 '/>
		<polygon fill = 'rgb( 31, 120, 180)' fill-opacity = '0.250000' points = '817.3,506.3 817.3,662.4 819.2,662.4 819.2,508.5 '/>
		<polygon fill = 'rgb( 31, 120, 180)' fill-opacity = '0.250000' points = '819.2,508.5 819.2,662.4 821.1,662.4 821.1,510.6 '/>
		<polygon fill = 'rgb( 31, 120, 180)' fill-opacity = '0.250000' points = '821.1,510.6 821.1,662.4 823.0,662.4 823.0,512.6 '/>
		<polygon fill = 'rgb( 31, 120, 180)' fill-opacity = '0.250000' points = '823.0,512.6 823.0,662.4 824.9,662.4 824.9,514.6 '/>
		<polygon fill = 'rgb( 31, 120, 180)' fill-opacity = '0.250000' points = '824.9,514.6 824.9,662.4 826.8,662.4 826.8,516.6 '/>
		<polygon fill = 'rgb( 31, 120, 180)' fill-opacity = '0.250000' points = '826.8,516.6 826.8,662.4 828.7,662.4 828.7,518.5 '/>
		<polygon fill = 'rgb( 31, 120, 180)' fill-opacity = '0.250000' points = '828.7,518.5 828.7,662.4 830.5,662.4 830.5,520.3 '/>
		<polygon fill = 'rgb( 31, 120, 180)' fill-opacity = '0.250000' points = '830.5,520.3 830.5,662.4 832.4,662.4 832.4,522.1 '/>
		<polygon fill = 'rgb( 31, 120, 180)' fill-opacity = '0.250000' points = '832.4,522.1 832.4,662.4 834.3,662.4 834.3,523.9 '/>
		<polygon fill = 'rgb( 31, 120, 180)' fill-opacity = '0.250000' points = '834.3,523.9 834.3,662.4 836.2,662.4 836.2,525.6 '/>
		<polygon fill = 'rgb( 31, 120, 180)' fill-opacity = '0.250000' points = '836.2,525.6 836.2,662.4 838.1,662.4 838.1,527.3 '/>
		<polygon fill = 'rgb( 31, 120, 180)' fill-opacity = '0.250000' points = '838.1,527.3 838.1,662.4 840.0,662.4 840.0,529.0 '/>
		<polygon fill = 'rgb( 31, 120, 180)' fill-opacity = '0.250000' points = '840.0,529.0 840.0,662.4 841.9,662.4 841.9,530.7 '/>
		<polygon fill = 'rgb( 31, 120, 180)' fill-opacity = '0.250000' points = '841.9,530.7 841.9,662.4 843.8,662.4 843.8,532.3 '/>
		<polygon fill = 'rgb( 31, 120, 180)' fill-opacity = '0.250000' points = '843.8,532.3 843.8,662.4 845.6,662.4 845.6,533.9 '/>
		<polygon fill = 'rgb( 31, 120, 180)' fill-opacity = '0.250000' points = '845.6,533.9 845.6,662.4 847.5,662.4 847.5,535.5 '/>
		<polygon fill = 'rgb( 31, 120, 180)' fill-opacity = '0.250000' points = '847.5,535.5 847.5,662.4 849.4,662.4 849.4,537.1 '/>
		<polygon fill = 'rgb( 31, 120, 180)' fill-opacity = '0.250000' points = '849.4,537.1 849.4,662.4 851.3,662.4 851.3,538.6 '/>
		<polygon fill = 'rgb( 31, 120, 180)' fill-opacity = '0.250000' points = '851.3,538.6 851.3,662.4 853.2,662.4 853.2,540.2 '/>
		<polygon fill = 'rgb( 31, 120, 180)' fill-opacity = '0.250000' points = '853.2,540.2 853.2,662.4 855.1,662.4 855.1,541.8 '/>
		<polygon fill = 'rgb( 31, 120, 180)' fill-opacity = '0.250000' points = '855.1,541.8 855.1,662.4 857.0,662.4 857.0,543.3 '/>
		<polygon fill = 'rgb( 31, 120, 180)' fill-opacity = '0.250000' points = '857.0,543.3 857.0,662.4 858.9,662.4 858.9,544.8 '/>
		<polygon fill = 'rgb( 31, 120, 180)' fill-opacity = '0.250000' points = '858.9,544.8 858.9,662.4 860.7,662.4 860.7,546.4 '/>
		<polygon fill = 'rgb( 31, 120, 180)' fill-opacity = '0.250000' points = '860.7,546.4 860.7,662.4 862.6,662.4 862.6,547.9 '/>
		<polygon fill = 'rgb( 31, 120, 180)' fill-opacity = '0.250000' points = '862.6,547.9 862.6,662.4 864.5,662.4 864.5,549.4 '/>
		<polygon fill = 'rgb( 31, 120, 180)' fill-opacity = '0.250000' points = '864.5,549.4 864.5,662.4 866.4,662.4 866.4,550.9 '/>
		<polygon fill = 'rgb( 31, 120, 180)' fill-opacity = '0.250000' points = '866.4,550.9 866.4,662.4 868.3,662.4 868.3,552.3 '/>
		<polygon fill = 'rgb( 31, 120, 180)' fill-opacity = '0.250000' points = '868.3,552.3 868.3,662.4 870.2,662.4 870.2,553.8 '/>
		<polygon fill = 'rgb( 31, 120, 180)' fill-opacity = '0.250000' points = '870.2,553.8 870.2,662.4 872.1,662.4 872.1,555.2 '/>
		<polygon fill = 'rgb( 31, 120, 180)' fill-opacity = '0.250000' points = '872.1,555.2 872.1,662.4 873.9,662.4 873.9,556.6 '/>
		<polygon fill = 'rgb( 31, 120, 180)' fill-opacity = '0.250000' points = '873.9,556.6 873.9,662.4 875.8,662.4 875.8,558.1 '/>
		<polygon fill = 'rgb( 31, 120, 180)' fill-opacity = '0.250000' points = '875.8,558.1 875.8,662.4 877.7,662.4 877.7,559.4 '/>
		<polygon fill = 'rgb( 31, 120, 180)' fill-opacity = '0.250000' points = '877.7,559.4 877.7,662.4 879.6,662.4 879.6,560.8 '/>
		<polygon fill = 'rgb( 31, 120, 180)' fill-opacity = '0.250000' points = '879.6,560.8 879.6,662.4 881.5,662.4 881.5,562.2 '/>
		<polygon fill = 'rgb( 31, 120, 180)' fill-opacity = '0.250000' points = '881.5,562.2 881.5,662.4 883.4,662.4 883.4,563.5 '/>
		<polygon fill = 'rgb( 31, 120, 180)' fill-opacity = '0.250000' points = '883.4,563.5 883.4,662.4 885.3,662.4 885.3,564.8 '/>
		<polygon fill = 'rgb( 31, 120, 180)' fill-opacity = '0.250000' points = '885.3,564.8 885.3,662.4 887.2,662.4 887.2,566.2 '/>
		<polygon fill = 'rgb( 31, 120, 180)' fill-opacity = '0.250000' points = '887.2,566.2 887.2,662.4 889.0,662.4 889.0,567.5 '/>
		<polygon fill = 'rgb( 31, 120, 180)' fill-opacity = '0.250000' points = '889.0,567.5 889.0,662.4 890.9,662.4 890.9,568.8 '/>
		<polygon fill = 'rgb( 31, 120, 180)' fill-opacity = '0.250000' points = '890.9,568.8 890.9,662.4 892.8,662.4 892.8,570.0 '/>
		<polygon fill = 'rgb( 31, 120, 180)' fill-opacity = '0.250000' points = '892.8,570.0 892.8,662.4 894.7,662.4 894.7,571.3 '/>
		<polygon fill = 'rgb( 31, 120, 180)' fill-opacity = '0.250000' points = '894.7,571.3 894.7,662.4 896.6,662.4 896.6,572.6 '/>
		<polygon fill = 'rgb( 31, 120, 180)' fill-opacity = '0.250000' points = '896.6,572.6 896.6,662.4 898.5,662.4 898.5,573.8 '/>
		<polygon fill = 'rgb( 31, 120, 180)' fill-opacity = '0.250000' points = '898.5,573.8 898.5,662.4 900.4,662.4 900.4,575.1 '/>
		<polygon fill = 'rgb( 31, 120, 180)' fill-opacity = '0.250000' points = '900.4,575.1 900.4,662.4 902.3,662.4 902.3,576.3 '/>
		<polygon fill = 'rgb( 31, 120, 180)' fill-opacity = '0.250000' points = '902.3,576.3 902.3,662.4 904.1,662.4 904.1,577.6 '/>
		<polygon fill = 'rgb( 31, 120, 180)' fill-opacity = '0.250000' points = '904.1,577.6 904.1,662.4 906.0,662.4 906.0,578.8 '/>
		<polygon fill = 'rgb( 31, 120, 180)' fill-opacity = '0.250000' points = '906.0,578.8 906.0,662.4 907.9,662.4 907.9,580.0 '/>
		<polygon fill = 'rgb( 31, 120, 180)' fill-opacity = '0.250000' points = '907.9,580.0 907.9,662.4 909.8,662.4 909.8,581.3 '/>
		<polygon fill = 'rgb( 31, 120, 180)' fill-opacity = '0.250000' points = '909.8,581.3 909.8,662.4 911.7,662.4 911.7,582.5 '/>
		<polygon fill = 'rgb( 31, 120, 180)' fill-opacity = '0.250000' points = '911.7,582.5 911.7,662.4 913.6,662.4 913.6,583.7 '/>
		<polygon fill = 'rgb( 31, 120, 180)' fill-opacity = '0.250000' points = '913.6,583.7 913.6,662.4 915.5,662.4 915.5,584.8 '/>
		<polygon fill = 'rgb( 31, 120, 180)' fill-opacity = '0.250000' points = '915.5,584.8 915.5,662.4 917.4,662.4 917.4,586.0 '/>
		<polygon fill = 'rgb( 31, 120, 180)' fill-opacity = '0.250000' points = '917.4,586.0 917.4,662.4 919.2,662.4 919.2,587.1 '/>
		<polygon fill = 'rgb( 31, 120, 180)' fill-opacity = '0.250000' points = '919.2,587.1 919.2,662.4 921.1,662.4 921.1,588.3 '/>
		<polygon fill = 'rgb( 31, 120, 180)' fill-opacity = '0.250000' points = '921.1,588.3 921.1,662.4 923.0,662.4 923.0,589.4 '/>
		<polygon fill = 'rgb( 31, 120, 180)' fill-opacity = '0.250000' points = '923.0,589.4 923.0,662.4 924.9,662.4 924.9,590.5 '/>
	</g>
</g>
	</g>
	<g id="gnuplot_plot_3" ><title>Point estimate</title>
<g fill="none" color="white" stroke="rgb( 31, 120, 180)" stroke-width="2.00" stroke-linecap="butt" stroke-linejoin="miter">
</g>
<g fill="none" color="black" stroke="currentColor" stroke-width="2.00" stroke-linecap="butt" stroke-linejoin="miter">
	<g transform="translate(1089.0,103.0)" stroke="none" fill="black" font-family="Helvetica" font-size="12.00"  text-anchor="start">
		<text><tspan font-family="Helvetica" >Point estimate</tspan></text>
	</g>
</g>
<g fill="none" color="black" stroke="currentColor" stroke-width="2.00" stroke-linecap="butt" stroke-linejoin="miter">
	<path stroke='rgb( 31, 120, 180)'  d='M1038.5,99.1 L1080.7,99.1 M506.1,662.4 L506.1,101.1  '/></g>
	</g>
<g fill="none" color="black" stroke="currentColor" stroke-width="2.00" stroke-linecap="butt" stroke-linejoin="miter">
</g>
<g fill="none" color="black" stroke="black" stroke-width="1.00" stroke-linecap="butt" stroke-linejoin="miter">
</g>
<g fill="none" color="black" stroke="currentColor" stroke-width="1.00" stroke-linecap="butt" stroke-linejoin="miter">
	<path stroke='black'  d='M71.9,54.1 L71.9,662.4 L1013.6,662.4 L1013.6,54.1 L71.9,54.1 Z  '/></g>
<g fill="none" color="black" stroke="currentColor" stroke-width="1.00" stroke-linecap="butt" stroke-linejoin="miter">
</g>
</g>
</svg>

