group,function,value,throughput_num,throughput_type,sample_measured_value,unit,iteration_count
dfs petgraph init no_drop,,,,,2145036.0,ns,1
dfs petgraph init no_drop,,,,,4218594.0,ns,2
dfs petgraph init no_drop,,,,,6332547.0,ns,3
dfs petgraph init no_drop,,,,,8444591.0,ns,4
dfs petgraph init no_drop,,,,,10557738.0,ns,5
dfs petgraph init no_drop,,,,,12662883.0,ns,6
dfs petgraph init no_drop,,,,,14781267.0,ns,7
dfs petgraph init no_drop,,,,,16888470.0,ns,8
dfs petgraph init no_drop,,,,,19080838.0,ns,9
dfs petgraph init no_drop,,,,,21167859.0,ns,10
dfs petgraph init no_drop,,,,,23213427.0,ns,11
dfs petgraph init no_drop,,,,,25327464.0,ns,12
dfs petgraph init no_drop,,,,,27436754.0,ns,13
dfs petgraph init no_drop,,,,,29549201.0,ns,14
dfs petgraph init no_drop,,,,,31659183.0,ns,15
dfs petgraph init no_drop,,,,,33773759.0,ns,16
dfs petgraph init no_drop,,,,,35880873.0,ns,17
dfs petgraph init no_drop,,,,,38054244.0,ns,18
dfs petgraph init no_drop,,,,,40104535.0,ns,19
dfs petgraph init no_drop,,,,,42213077.0,ns,20
dfs petgraph init no_drop,,,,,45825107.0,ns,21
dfs petgraph init no_drop,,,,,46433678.0,ns,22
dfs petgraph init no_drop,,,,,48544002.0,ns,23
dfs petgraph init no_drop,,,,,50736531.0,ns,24
dfs petgraph init no_drop,,,,,52766643.0,ns,25
dfs petgraph init no_drop,,,,,54874962.0,ns,26
dfs petgraph init no_drop,,,,,56990484.0,ns,27
dfs petgraph init no_drop,,,,,59213628.0,ns,28
dfs petgraph init no_drop,,,,,61210040.0,ns,29
dfs petgraph init no_drop,,,,,63326754.0,ns,30
dfs petgraph init no_drop,,,,,65511385.0,ns,31
dfs petgraph init no_drop,,,,,67707251.0,ns,32
dfs petgraph init no_drop,,,,,69645090.0,ns,33
dfs petgraph init no_drop,,,,,71756047.0,ns,34
dfs petgraph init no_drop,,,,,73867272.0,ns,35
dfs petgraph init no_drop,,,,,76586296.0,ns,36
dfs petgraph init no_drop,,,,,79707247.0,ns,37
dfs petgraph init no_drop,,,,,80207979.0,ns,38
dfs petgraph init no_drop,,,,,82467636.0,ns,39
dfs petgraph init no_drop,,,,,84736034.0,ns,40
dfs petgraph init no_drop,,,,,86532188.0,ns,41
dfs petgraph init no_drop,,,,,88779991.0,ns,42
dfs petgraph init no_drop,,,,,90766742.0,ns,43
dfs petgraph init no_drop,,,,,92936343.0,ns,44
dfs petgraph init no_drop,,,,,95036490.0,ns,45
dfs petgraph init no_drop,,,,,97094494.0,ns,46
dfs petgraph init no_drop,,,,,99268094.0,ns,47
dfs petgraph init no_drop,,,,,102779416.0,ns,48
dfs petgraph init no_drop,,,,,103443906.0,ns,49
dfs petgraph init no_drop,,,,,105595836.0,ns,50
dfs petgraph init no_drop,,,,,107641341.0,ns,51
dfs petgraph init no_drop,,,,,109806603.0,ns,52
dfs petgraph init no_drop,,,,,111984702.0,ns,53
dfs petgraph init no_drop,,,,,114161515.0,ns,54
dfs petgraph init no_drop,,,,,116089109.0,ns,55
dfs petgraph init no_drop,,,,,118573394.0,ns,56
dfs petgraph init no_drop,,,,,122527523.0,ns,57
dfs petgraph init no_drop,,,,,123981047.0,ns,58
dfs petgraph init no_drop,,,,,125867750.0,ns,59
dfs petgraph init no_drop,,,,,127241839.0,ns,60
dfs petgraph init no_drop,,,,,128750172.0,ns,61
dfs petgraph init no_drop,,,,,131032163.0,ns,62
dfs petgraph init no_drop,,,,,132973401.0,ns,63
dfs petgraph init no_drop,,,,,135172378.0,ns,64
dfs petgraph init no_drop,,,,,138635885.0,ns,65
dfs petgraph init no_drop,,,,,139357872.0,ns,66
dfs petgraph init no_drop,,,,,141400444.0,ns,67
dfs petgraph init no_drop,,,,,143691925.0,ns,68
dfs petgraph init no_drop,,,,,145855138.0,ns,69
dfs petgraph init no_drop,,,,,147771404.0,ns,70
dfs petgraph init no_drop,,,,,150186908.0,ns,71
dfs petgraph init no_drop,,,,,153578606.0,ns,72
dfs petgraph init no_drop,,,,,154271434.0,ns,73
dfs petgraph init no_drop,,,,,156270056.0,ns,74
dfs petgraph init no_drop,,,,,158644718.0,ns,75
dfs petgraph init no_drop,,,,,160536864.0,ns,76
dfs petgraph init no_drop,,,,,162643083.0,ns,77
dfs petgraph init no_drop,,,,,166396245.0,ns,78
dfs petgraph init no_drop,,,,,166883141.0,ns,79
dfs petgraph init no_drop,,,,,169001888.0,ns,80
dfs petgraph init no_drop,,,,,171037103.0,ns,81
dfs petgraph init no_drop,,,,,173277968.0,ns,82
dfs petgraph init no_drop,,,,,175721498.0,ns,83
dfs petgraph init no_drop,,,,,179031542.0,ns,84
dfs petgraph init no_drop,,,,,179525037.0,ns,85
dfs petgraph init no_drop,,,,,181651686.0,ns,86
dfs petgraph init no_drop,,,,,183849630.0,ns,87
dfs petgraph init no_drop,,,,,185804208.0,ns,88
dfs petgraph init no_drop,,,,,192658502.0,ns,89
dfs petgraph init no_drop,,,,,192407028.0,ns,90
dfs petgraph init no_drop,,,,,192084539.0,ns,91
dfs petgraph init no_drop,,,,,194158902.0,ns,92
dfs petgraph init no_drop,,,,,196666269.0,ns,93
dfs petgraph init no_drop,,,,,200282899.0,ns,94
dfs petgraph init no_drop,,,,,200567230.0,ns,95
dfs petgraph init no_drop,,,,,202752046.0,ns,96
dfs petgraph init no_drop,,,,,204915838.0,ns,97
dfs petgraph init no_drop,,,,,207360479.0,ns,98
dfs petgraph init no_drop,,,,,210469587.0,ns,99
dfs petgraph init no_drop,,,,,211171815.0,ns,100
