<?xml version="1.0" encoding="utf-8"  standalone="no"?>
<!DOCTYPE svg PUBLIC "-//W3C//DTD SVG 1.1//EN"
 "http://www.w3.org/Graphics/SVG/1.1/DTD/svg11.dtd">
<svg 
 viewBox="0 0 1280 720"
 xmlns="http://www.w3.org/2000/svg"
 xmlns:xlink="http://www.w3.org/1999/xlink"
>

<title>Gnuplot</title>
<desc>Produced by GNUPLOT 5.0 patchlevel 5 </desc>

<g id="gnuplot_canvas">

<rect x="0" y="0" width="1280" height="720" fill="none"/>
<defs>

	<circle id='gpDot' r='0.5' stroke-width='0.5'/>
	<path id='gpPt0' stroke-width='0.222' stroke='currentColor' d='M-1,0 h2 M0,-1 v2'/>
	<path id='gpPt1' stroke-width='0.222' stroke='currentColor' d='M-1,-1 L1,1 M1,-1 L-1,1'/>
	<path id='gpPt2' stroke-width='0.222' stroke='currentColor' d='M-1,0 L1,0 M0,-1 L0,1 M-1,-1 L1,1 M-1,1 L1,-1'/>
	<rect id='gpPt3' stroke-width='0.222' stroke='currentColor' x='-1' y='-1' width='2' height='2'/>
	<rect id='gpPt4' stroke-width='0.222' stroke='currentColor' fill='currentColor' x='-1' y='-1' width='2' height='2'/>
	<circle id='gpPt5' stroke-width='0.222' stroke='currentColor' cx='0' cy='0' r='1'/>
	<use xlink:href='#gpPt5' id='gpPt6' fill='currentColor' stroke='none'/>
	<path id='gpPt7' stroke-width='0.222' stroke='currentColor' d='M0,-1.33 L-1.33,0.67 L1.33,0.67 z'/>
	<use xlink:href='#gpPt7' id='gpPt8' fill='currentColor' stroke='none'/>
	<use xlink:href='#gpPt7' id='gpPt9' stroke='currentColor' transform='rotate(180)'/>
	<use xlink:href='#gpPt9' id='gpPt10' fill='currentColor' stroke='none'/>
	<use xlink:href='#gpPt3' id='gpPt11' stroke='currentColor' transform='rotate(45)'/>
	<use xlink:href='#gpPt11' id='gpPt12' fill='currentColor' stroke='none'/>
	<path id='gpPt13' stroke-width='0.222' stroke='currentColor' d='M0,1.330 L1.265,0.411 L0.782,-1.067 L-0.782,-1.076 L-1.265,0.411 z'/>
	<use xlink:href='#gpPt13' id='gpPt14' fill='currentColor' stroke='none'/>
	<filter id='textbox' filterUnits='objectBoundingBox' x='0' y='0' height='1' width='1'>
	  <feFlood flood-color='white' flood-opacity='1' result='bgnd'/>
	  <feComposite in='SourceGraphic' in2='bgnd' operator='atop'/>
	</filter>
	<filter id='greybox' filterUnits='objectBoundingBox' x='0' y='0' height='1' width='1'>
	  <feFlood flood-color='lightgrey' flood-opacity='1' result='grey'/>
	  <feComposite in='SourceGraphic' in2='grey' operator='atop'/>
	</filter>
</defs>
<g fill="none" color="white" stroke="currentColor" stroke-width="1.00" stroke-linecap="butt" stroke-linejoin="miter">
</g>
<g fill="none" color="black" stroke="currentColor" stroke-width="1.00" stroke-linecap="butt" stroke-linejoin="miter">
	<path stroke='black'  d='M80.2,662.4 L89.2,662.4  '/>	<g transform="translate(71.9,666.3)" stroke="none" fill="black" font-family="Helvetica" font-size="12.00"  text-anchor="end">
		<text><tspan font-family="Helvetica" > 0</tspan></text>
	</g>
</g>
<g fill="none" color="black" stroke="currentColor" stroke-width="1.00" stroke-linecap="butt" stroke-linejoin="miter">
	<path stroke='black'  d='M80.2,575.5 L89.2,575.5  '/>	<g transform="translate(71.9,579.4)" stroke="none" fill="black" font-family="Helvetica" font-size="12.00"  text-anchor="end">
		<text><tspan font-family="Helvetica" > 200</tspan></text>
	</g>
</g>
<g fill="none" color="black" stroke="currentColor" stroke-width="1.00" stroke-linecap="butt" stroke-linejoin="miter">
	<path stroke='black'  d='M80.2,488.6 L89.2,488.6  '/>	<g transform="translate(71.9,492.5)" stroke="none" fill="black" font-family="Helvetica" font-size="12.00"  text-anchor="end">
		<text><tspan font-family="Helvetica" > 400</tspan></text>
	</g>
</g>
<g fill="none" color="black" stroke="currentColor" stroke-width="1.00" stroke-linecap="butt" stroke-linejoin="miter">
	<path stroke='black'  d='M80.2,401.7 L89.2,401.7  '/>	<g transform="translate(71.9,405.6)" stroke="none" fill="black" font-family="Helvetica" font-size="12.00"  text-anchor="end">
		<text><tspan font-family="Helvetica" > 600</tspan></text>
	</g>
</g>
<g fill="none" color="black" stroke="currentColor" stroke-width="1.00" stroke-linecap="butt" stroke-linejoin="miter">
	<path stroke='black'  d='M80.2,314.8 L89.2,314.8  '/>	<g transform="translate(71.9,318.7)" stroke="none" fill="black" font-family="Helvetica" font-size="12.00"  text-anchor="end">
		<text><tspan font-family="Helvetica" > 800</tspan></text>
	</g>
</g>
<g fill="none" color="black" stroke="currentColor" stroke-width="1.00" stroke-linecap="butt" stroke-linejoin="miter">
	<path stroke='black'  d='M80.2,227.9 L89.2,227.9  '/>	<g transform="translate(71.9,231.8)" stroke="none" fill="black" font-family="Helvetica" font-size="12.00"  text-anchor="end">
		<text><tspan font-family="Helvetica" > 1000</tspan></text>
	</g>
</g>
<g fill="none" color="black" stroke="currentColor" stroke-width="1.00" stroke-linecap="butt" stroke-linejoin="miter">
	<path stroke='black'  d='M80.2,141.0 L89.2,141.0  '/>	<g transform="translate(71.9,144.9)" stroke="none" fill="black" font-family="Helvetica" font-size="12.00"  text-anchor="end">
		<text><tspan font-family="Helvetica" > 1200</tspan></text>
	</g>
</g>
<g fill="none" color="black" stroke="currentColor" stroke-width="1.00" stroke-linecap="butt" stroke-linejoin="miter">
	<path stroke='black'  d='M80.2,54.1 L89.2,54.1  '/>	<g transform="translate(71.9,58.0)" stroke="none" fill="black" font-family="Helvetica" font-size="12.00"  text-anchor="end">
		<text><tspan font-family="Helvetica" > 1400</tspan></text>
	</g>
</g>
<g fill="none" color="black" stroke="currentColor" stroke-width="1.00" stroke-linecap="butt" stroke-linejoin="miter">
	<path stroke='black'  d='M105.7,662.4 L105.7,653.4  '/>	<g transform="translate(105.7,684.3)" stroke="none" fill="black" font-family="Helvetica" font-size="12.00"  text-anchor="middle">
		<text><tspan font-family="Helvetica" >-0.8</tspan></text>
	</g>
</g>
<g fill="none" color="black" stroke="currentColor" stroke-width="1.00" stroke-linecap="butt" stroke-linejoin="miter">
	<path stroke='black'  d='M244.0,662.4 L244.0,653.4  '/>	<g transform="translate(244.0,684.3)" stroke="none" fill="black" font-family="Helvetica" font-size="12.00"  text-anchor="middle">
		<text><tspan font-family="Helvetica" >-0.78</tspan></text>
	</g>
</g>
<g fill="none" color="black" stroke="currentColor" stroke-width="1.00" stroke-linecap="butt" stroke-linejoin="miter">
	<path stroke='black'  d='M382.4,662.4 L382.4,653.4  '/>	<g transform="translate(382.4,684.3)" stroke="none" fill="black" font-family="Helvetica" font-size="12.00"  text-anchor="middle">
		<text><tspan font-family="Helvetica" >-0.76</tspan></text>
	</g>
</g>
<g fill="none" color="black" stroke="currentColor" stroke-width="1.00" stroke-linecap="butt" stroke-linejoin="miter">
	<path stroke='black'  d='M520.7,662.4 L520.7,653.4  '/>	<g transform="translate(520.7,684.3)" stroke="none" fill="black" font-family="Helvetica" font-size="12.00"  text-anchor="middle">
		<text><tspan font-family="Helvetica" >-0.74</tspan></text>
	</g>
</g>
<g fill="none" color="black" stroke="currentColor" stroke-width="1.00" stroke-linecap="butt" stroke-linejoin="miter">
	<path stroke='black'  d='M659.1,662.4 L659.1,653.4  '/>	<g transform="translate(659.1,684.3)" stroke="none" fill="black" font-family="Helvetica" font-size="12.00"  text-anchor="middle">
		<text><tspan font-family="Helvetica" >-0.72</tspan></text>
	</g>
</g>
<g fill="none" color="black" stroke="currentColor" stroke-width="1.00" stroke-linecap="butt" stroke-linejoin="miter">
	<path stroke='black'  d='M797.4,662.4 L797.4,653.4  '/>	<g transform="translate(797.4,684.3)" stroke="none" fill="black" font-family="Helvetica" font-size="12.00"  text-anchor="middle">
		<text><tspan font-family="Helvetica" >-0.7</tspan></text>
	</g>
</g>
<g fill="none" color="black" stroke="currentColor" stroke-width="1.00" stroke-linecap="butt" stroke-linejoin="miter">
	<path stroke='black'  d='M935.8,662.4 L935.8,653.4  '/>	<g transform="translate(935.8,684.3)" stroke="none" fill="black" font-family="Helvetica" font-size="12.00"  text-anchor="middle">
		<text><tspan font-family="Helvetica" >-0.68</tspan></text>
	</g>
</g>
<g fill="none" color="black" stroke="currentColor" stroke-width="1.00" stroke-linecap="butt" stroke-linejoin="miter">
</g>
<g fill="none" color="black" stroke="currentColor" stroke-width="1.00" stroke-linecap="butt" stroke-linejoin="miter">
	<path stroke='black'  d='M80.2,54.1 L80.2,662.4 L1013.6,662.4 L1013.6,54.1 L80.2,54.1 Z  '/></g>
<g fill="none" color="black" stroke="currentColor" stroke-width="1.00" stroke-linecap="butt" stroke-linejoin="miter">
	<g transform="translate(17.0,358.3) rotate(270)" stroke="none" fill="black" font-family="Helvetica" font-size="12.00"  text-anchor="middle">
		<text><tspan font-family="Helvetica" >Density (a.u.)</tspan></text>
	</g>
</g>
<g fill="none" color="black" stroke="currentColor" stroke-width="1.00" stroke-linecap="butt" stroke-linejoin="miter">
	<g transform="translate(546.9,711.3)" stroke="none" fill="black" font-family="Helvetica" font-size="12.00"  text-anchor="middle">
		<text><tspan font-family="Helvetica" >Relative change (%)</tspan></text>
	</g>
</g>
<g fill="none" color="black" stroke="currentColor" stroke-width="1.00" stroke-linecap="butt" stroke-linejoin="miter">
	<g transform="translate(546.9,31.0)" stroke="none" fill="black" font-family="Helvetica" font-size="12.00"  text-anchor="middle">
		<text><tspan font-family="Helvetica" >dfs arena ghostcell list init no_drop: median</tspan></text>
	</g>
</g>
	<g id="gnuplot_plot_1" ><title>Bootstrap distribution</title>
<g fill="none" color="white" stroke="black" stroke-width="2.00" stroke-linecap="butt" stroke-linejoin="miter">
</g>
<g fill="none" color="black" stroke="currentColor" stroke-width="2.00" stroke-linecap="butt" stroke-linejoin="miter">
	<g transform="translate(1089.0,67.0)" stroke="none" fill="black" font-family="Helvetica" font-size="12.00"  text-anchor="start">
		<text><tspan font-family="Helvetica" >Bootstrap distribution</tspan></text>
	</g>
</g>
<g fill="none" color="black" stroke="currentColor" stroke-width="2.00" stroke-linecap="butt" stroke-linejoin="miter">
	<path stroke='rgb( 31, 120, 180)'  d='M1038.5,63.1 L1080.7,63.1 M80.2,619.6 L82.1,617.8 L83.9,615.9 L85.8,614.1 L87.7,612.4 L89.6,610.7
		L91.4,609.1 L93.3,607.6 L95.2,606.1 L97.0,604.7 L98.9,603.4 L100.8,602.2 L102.6,601.0 L104.5,599.9
		L106.4,598.9 L108.3,597.8 L110.1,596.8 L112.0,595.8 L113.9,594.8 L115.7,593.8 L117.6,592.7 L119.5,591.7
		L121.4,590.5 L123.2,589.4 L125.1,588.1 L127.0,586.8 L128.8,585.5 L130.7,584.1 L132.6,582.5 L134.4,581.0
		L136.3,579.3 L138.2,577.6 L140.1,575.8 L141.9,573.9 L143.8,572.0 L145.7,570.0 L147.5,568.0 L149.4,565.9
		L151.3,563.8 L153.2,561.6 L155.0,559.5 L156.9,557.3 L158.8,555.2 L160.6,553.1 L162.5,550.9 L164.4,548.9
		L166.2,546.9 L168.1,544.9 L170.0,543.0 L171.9,541.2 L173.7,539.4 L175.6,537.8 L177.5,536.2 L179.3,534.8
		L181.2,533.4 L183.1,532.1 L185.0,530.9 L186.8,529.7 L188.7,528.7 L190.6,527.6 L192.4,526.6 L194.3,525.6
		L196.2,524.7 L198.0,523.7 L199.9,522.7 L201.8,521.6 L203.7,520.5 L205.5,519.4 L207.4,518.1 L209.3,516.8
		L211.1,515.4 L213.0,513.8 L214.9,512.2 L216.7,510.4 L218.6,508.6 L220.5,506.6 L222.4,504.5 L224.2,502.4
		L226.1,500.1 L228.0,497.8 L229.8,495.4 L231.7,492.9 L233.6,490.4 L235.5,487.9 L237.3,485.3 L239.2,482.8
		L241.1,480.2 L242.9,477.6 L244.8,475.1 L246.7,472.7 L248.5,470.2 L250.4,467.8 L252.3,465.5 L254.2,463.3
		L256.0,461.1 L257.9,458.9 L259.8,456.9 L261.6,454.8 L263.5,452.9 L265.4,450.9 L267.3,449.1 L269.1,447.2
		L271.0,445.4 L272.9,443.6 L274.7,441.9 L276.6,440.2 L278.5,438.5 L280.3,436.8 L282.2,435.1 L284.1,433.5
		L286.0,431.9 L287.8,430.3 L289.7,428.8 L291.6,427.3 L293.4,425.9 L295.3,424.5 L297.2,423.2 L299.1,421.9
		L300.9,420.6 L302.8,419.4 L304.7,418.2 L306.5,416.9 L308.4,415.7 L310.3,414.3 L312.1,412.9 L314.0,411.4
		L315.9,409.7 L317.8,407.9 L319.6,405.8 L321.5,403.5 L323.4,400.8 L325.2,397.9 L327.1,394.7 L329.0,391.1
		L330.9,387.2 L332.7,382.8 L334.6,378.2 L336.5,373.1 L338.3,367.7 L340.2,362.0 L342.1,356.0 L343.9,349.8
		L345.8,343.3 L347.7,336.6 L349.6,329.8 L351.4,322.9 L353.3,316.0 L355.2,309.1 L357.0,302.4 L358.9,295.7
		L360.8,289.3 L362.7,283.0 L364.5,277.1 L366.4,271.5 L368.3,266.1 L370.1,261.2 L372.0,256.6 L373.9,252.3
		L375.7,248.4 L377.6,244.8 L379.5,241.5 L381.4,238.5 L383.2,235.7 L385.1,233.2 L387.0,230.8 L388.8,228.5
		L390.7,226.3 L392.6,224.2 L394.5,222.1 L396.3,220.0 L398.2,217.8 L400.1,215.6 L401.9,213.2 L403.8,210.8
		L405.7,208.2 L407.5,205.6 L409.4,202.8 L411.3,199.9 L413.2,196.8 L415.0,193.7 L416.9,190.4 L418.8,187.0
		L420.6,183.6 L422.5,180.1 L424.4,176.5 L426.3,172.8 L428.1,169.2 L430.0,165.5 L431.9,161.7 L433.7,158.0
		L435.6,154.3 L437.5,150.6 L439.3,146.9 L441.2,143.3 L443.1,139.7 L445.0,136.2 L446.8,132.7 L448.7,129.4
		L450.6,126.1 L452.4,123.0 L454.3,119.9 L456.2,117.0 L458.0,114.3 L459.9,111.6 L461.8,109.2 L463.7,106.9
		L465.5,104.8 L467.4,103.0 L469.3,101.3 L471.1,99.8 L473.0,98.6 L474.9,97.6 L476.8,96.8 L478.6,96.3
		L480.5,96.0 L482.4,96.0 L484.2,96.2 L486.1,96.6 L488.0,97.2 L489.8,98.1 L491.7,99.1 L493.6,100.2
		L495.5,101.5 L497.3,102.9 L499.2,104.3 L501.1,105.8 L502.9,107.2 L504.8,108.5 L506.7,109.7 L508.6,110.8
		L510.4,111.6 L512.3,112.3 L514.2,112.6 L516.0,112.6 L517.9,112.3 L519.8,111.6 L521.6,110.6 L523.5,109.2
		L525.4,107.3 L527.3,105.2 L529.1,102.7 L531.0,99.8 L532.9,96.7 L534.7,93.3 L536.6,89.8 L538.5,86.1
		L540.4,82.4 L542.2,78.7 L544.1,75.1 L546.0,71.7 L547.8,68.5 L549.7,65.6 L551.6,63.0 L553.4,61.0
		L555.3,59.4 L557.2,58.4 L559.1,57.9 L560.9,58.1 L562.8,58.9 L564.7,60.3 L566.5,62.2 L568.4,64.8
		L570.3,67.8 L572.2,71.4 L574.0,75.3 L575.9,79.6 L577.8,84.2 L579.6,89.0 L581.5,93.9 L583.4,98.9
		L585.2,103.9 L587.1,108.9 L589.0,113.7 L590.9,118.4 L592.7,122.9 L594.6,127.2 L596.5,131.3 L598.3,135.1
		L600.2,138.7 L602.1,142.1 L604.0,145.3 L605.8,148.2 L607.7,151.0 L609.6,153.6 L611.4,156.0 L613.3,158.3
		L615.2,160.5 L617.0,162.5 L618.9,164.5 L620.8,166.3 L622.7,168.1 L624.5,169.8 L626.4,171.4 L628.3,172.9
		L630.1,174.4 L632.0,175.7 L633.9,177.0 L635.8,178.2 L637.6,179.3 L639.5,180.4 L641.4,181.4 L643.2,182.3
		L645.1,183.3 L647.0,184.2 L648.8,185.2 L650.7,186.3 L652.6,187.4 L654.5,188.7 L656.3,190.0 L658.2,191.6
		L660.1,193.3 L661.9,195.3 L663.8,197.5 L665.7,199.9 L667.5,202.6 L669.4,205.6 L671.3,208.8 L673.2,212.3
		L675.0,216.0 L676.9,219.9 L678.8,224.1 L680.6,228.4 L682.5,232.9 L684.4,237.4 L686.3,242.0 L688.1,246.7
		L690.0,251.3 L691.9,255.8 L693.7,260.3 L695.6,264.5 L697.5,268.6 L699.3,272.4 L701.2,275.9 L703.1,279.1
		L705.0,282.0 L706.8,284.5 L708.7,286.6 L710.6,288.3 L712.4,289.6 L714.3,290.4 L716.2,290.9 L718.1,291.0
		L719.9,290.8 L721.8,290.2 L723.7,289.2 L725.5,288.0 L727.4,286.6 L729.3,284.9 L731.1,283.1 L733.0,281.2
		L734.9,279.3 L736.8,277.3 L738.6,275.4 L740.5,273.6 L742.4,272.0 L744.2,270.5 L746.1,269.3 L748.0,268.4
		L749.9,267.7 L751.7,267.3 L753.6,267.3 L755.5,267.5 L757.3,268.1 L759.2,268.9 L761.1,270.0 L762.9,271.3
		L764.8,272.8 L766.7,274.4 L768.6,276.2 L770.4,278.0 L772.3,279.9 L774.2,281.8 L776.0,283.7 L777.9,285.5
		L779.8,287.3 L781.7,289.0 L783.5,290.6 L785.4,292.1 L787.3,293.5 L789.1,294.8 L791.0,296.1 L792.9,297.3
		L794.7,298.5 L796.6,299.6 L798.5,300.7 L800.4,301.9 L802.2,303.1 L804.1,304.3 L806.0,305.6 L807.8,306.9
		L809.7,308.3 L811.6,309.8 L813.5,311.4 L815.3,313.0 L817.2,314.7 L819.1,316.6 L820.9,318.5 L822.8,320.5
		L824.7,322.6 L826.5,324.7 L828.4,327.0 L830.3,329.3 L832.2,331.8 L834.0,334.3 L835.9,336.9 L837.8,339.5
		L839.6,342.3 L841.5,345.2 L843.4,348.1 L845.3,351.1 L847.1,354.2 L849.0,357.4 L850.9,360.7 L852.7,364.1
		L854.6,367.6 L856.5,371.1 L858.3,374.8 L860.2,378.6 L862.1,382.5 L864.0,386.5 L865.8,390.6 L867.7,394.8
		L869.6,399.2 L871.4,403.7 L873.3,408.3 L875.2,413.1 L877.1,417.9 L878.9,422.9 L880.8,428.1 L882.7,433.3
		L884.5,438.7 L886.4,444.1 L888.3,449.6 L890.1,455.1 L892.0,460.7 L893.9,466.3 L895.8,471.8 L897.6,477.4
		L899.5,482.8 L901.4,488.2 L903.2,493.4 L905.1,498.5 L907.0,503.4 L908.8,508.2 L910.7,512.8 L912.6,517.2
		L914.5,521.3 L916.3,525.3 L918.2,529.1 L920.1,532.7 L921.9,536.0 L923.8,539.2 L925.7,542.2 L927.6,545.0
		L929.4,547.6 L931.3,550.1 L933.2,552.5 L935.0,554.7 L936.9,556.9 L938.8,558.9 L940.6,560.8 L942.5,562.6
		L944.4,564.4 L946.3,566.1 L948.1,567.8 L950.0,569.4 L951.9,570.9 L953.7,572.5 L955.6,574.0 L957.5,575.5
		L959.4,577.0 L961.2,578.5 L963.1,580.0 L965.0,581.6 L966.8,583.1 L968.7,584.7 L970.6,586.3 L972.4,588.0
		L974.3,589.7 L976.2,591.4 L978.1,593.2 L979.9,595.0 L981.8,596.8 L983.7,598.7 L985.5,600.6 L987.4,602.5
		L989.3,604.5 L991.2,606.4 L993.0,608.4 L994.9,610.3 L996.8,612.3 L998.6,614.2 L1000.5,616.1 L1002.4,618.0
		L1004.2,619.9 L1006.1,621.7 L1008.0,623.5 L1009.9,625.2 L1011.7,626.9 L1013.6,628.5  '/></g>
	</g>
	<g id="gnuplot_plot_2" ><title>Confidence interval</title>
<g fill="none" color="white" stroke="rgb( 31, 120, 180)" stroke-width="1.00" stroke-linecap="butt" stroke-linejoin="miter">
</g>
<g fill="none" color="black" stroke="currentColor" stroke-width="1.00" stroke-linecap="butt" stroke-linejoin="miter">
	<g transform="translate(1089.0,85.0)" stroke="none" fill="black" font-family="Helvetica" font-size="12.00"  text-anchor="start">
		<text><tspan font-family="Helvetica" >Confidence interval</tspan></text>
	</g>
</g>
<g fill="none" color="black" stroke="currentColor" stroke-width="1.00" stroke-linecap="butt" stroke-linejoin="miter">
	<g stroke='none' shape-rendering='crispEdges'>
		<polygon fill = 'rgb( 31, 120, 180)' fill-opacity = '0.250000' points = '1038.5,85.6 1080.7,85.6 1080.7,76.6 1038.5,76.6 '/>
		<polygon fill = 'rgb( 31, 120, 180)' fill-opacity = '0.250000' points = '166.2,546.9 166.2,662.4 168.1,662.4 168.1,544.9 '/>
		<polygon fill = 'rgb( 31, 120, 180)' fill-opacity = '0.250000' points = '168.1,544.9 168.1,662.4 170.0,662.4 170.0,543.0 '/>
		<polygon fill = 'rgb( 31, 120, 180)' fill-opacity = '0.250000' points = '170.0,543.0 170.0,662.4 171.9,662.4 171.9,541.2 '/>
		<polygon fill = 'rgb( 31, 120, 180)' fill-opacity = '0.250000' points = '171.9,541.2 171.9,662.4 173.7,662.4 173.7,539.4 '/>
		<polygon fill = 'rgb( 31, 120, 180)' fill-opacity = '0.250000' points = '173.7,539.4 173.7,662.4 175.6,662.4 175.6,537.8 '/>
		<polygon fill = 'rgb( 31, 120, 180)' fill-opacity = '0.250000' points = '175.6,537.8 175.6,662.4 177.5,662.4 177.5,536.2 '/>
		<polygon fill = 'rgb( 31, 120, 180)' fill-opacity = '0.250000' points = '177.5,536.2 177.5,662.4 179.3,662.4 179.3,534.8 '/>
		<polygon fill = 'rgb( 31, 120, 180)' fill-opacity = '0.250000' points = '179.3,534.8 179.3,662.4 181.2,662.4 181.2,533.4 '/>
		<polygon fill = 'rgb( 31, 120, 180)' fill-opacity = '0.250000' points = '181.2,533.4 181.2,662.4 183.1,662.4 183.1,532.1 '/>
		<polygon fill = 'rgb( 31, 120, 180)' fill-opacity = '0.250000' points = '183.1,532.1 183.1,662.4 185.0,662.4 185.0,530.9 '/>
		<polygon fill = 'rgb( 31, 120, 180)' fill-opacity = '0.250000' points = '185.0,530.9 185.0,662.4 186.8,662.4 186.8,529.7 '/>
		<polygon fill = 'rgb( 31, 120, 180)' fill-opacity = '0.250000' points = '186.8,529.7 186.8,662.4 188.7,662.4 188.7,528.7 '/>
		<polygon fill = 'rgb( 31, 120, 180)' fill-opacity = '0.250000' points = '188.7,528.7 188.7,662.4 190.6,662.4 190.6,527.6 '/>
		<polygon fill = 'rgb( 31, 120, 180)' fill-opacity = '0.250000' points = '190.6,527.6 190.6,662.4 192.4,662.4 192.4,526.6 '/>
		<polygon fill = 'rgb( 31, 120, 180)' fill-opacity = '0.250000' points = '192.4,526.6 192.4,662.4 194.3,662.4 194.3,525.6 '/>
		<polygon fill = 'rgb( 31, 120, 180)' fill-opacity = '0.250000' points = '194.3,525.6 194.3,662.4 196.2,662.4 196.2,524.7 '/>
		<polygon fill = 'rgb( 31, 120, 180)' fill-opacity = '0.250000' points = '196.2,524.7 196.2,662.4 198.0,662.4 198.0,523.7 '/>
		<polygon fill = 'rgb( 31, 120, 180)' fill-opacity = '0.250000' points = '198.0,523.7 198.0,662.4 199.9,662.4 199.9,522.7 '/>
		<polygon fill = 'rgb( 31, 120, 180)' fill-opacity = '0.250000' points = '199.9,522.7 199.9,662.4 201.8,662.4 201.8,521.6 '/>
		<polygon fill = 'rgb( 31, 120, 180)' fill-opacity = '0.250000' points = '201.8,521.6 201.8,662.4 203.7,662.4 203.7,520.5 '/>
		<polygon fill = 'rgb( 31, 120, 180)' fill-opacity = '0.250000' points = '203.7,520.5 203.7,662.4 205.5,662.4 205.5,519.4 '/>
		<polygon fill = 'rgb( 31, 120, 180)' fill-opacity = '0.250000' points = '205.5,519.4 205.5,662.4 207.4,662.4 207.4,518.1 '/>
		<polygon fill = 'rgb( 31, 120, 180)' fill-opacity = '0.250000' points = '207.4,518.1 207.4,662.4 209.3,662.4 209.3,516.8 '/>
		<polygon fill = 'rgb( 31, 120, 180)' fill-opacity = '0.250000' points = '209.3,516.8 209.3,662.4 211.1,662.4 211.1,515.4 '/>
		<polygon fill = 'rgb( 31, 120, 180)' fill-opacity = '0.250000' points = '211.1,515.4 211.1,662.4 213.0,662.4 213.0,513.8 '/>
		<polygon fill = 'rgb( 31, 120, 180)' fill-opacity = '0.250000' points = '213.0,513.8 213.0,662.4 214.9,662.4 214.9,512.2 '/>
		<polygon fill = 'rgb( 31, 120, 180)' fill-opacity = '0.250000' points = '214.9,512.2 214.9,662.4 216.7,662.4 216.7,510.4 '/>
		<polygon fill = 'rgb( 31, 120, 180)' fill-opacity = '0.250000' points = '216.7,510.4 216.7,662.4 218.6,662.4 218.6,508.6 '/>
		<polygon fill = 'rgb( 31, 120, 180)' fill-opacity = '0.250000' points = '218.6,508.6 218.6,662.4 220.5,662.4 220.5,506.6 '/>
		<polygon fill = 'rgb( 31, 120, 180)' fill-opacity = '0.250000' points = '220.5,506.6 220.5,662.4 222.4,662.4 222.4,504.5 '/>
		<polygon fill = 'rgb( 31, 120, 180)' fill-opacity = '0.250000' points = '222.4,504.5 222.4,662.4 224.2,662.4 224.2,502.4 '/>
		<polygon fill = 'rgb( 31, 120, 180)' fill-opacity = '0.250000' points = '224.2,502.4 224.2,662.4 226.1,662.4 226.1,500.1 '/>
		<polygon fill = 'rgb( 31, 120, 180)' fill-opacity = '0.250000' points = '226.1,500.1 226.1,662.4 228.0,662.4 228.0,497.8 '/>
		<polygon fill = 'rgb( 31, 120, 180)' fill-opacity = '0.250000' points = '228.0,497.8 228.0,662.4 229.8,662.4 229.8,495.4 '/>
		<polygon fill = 'rgb( 31, 120, 180)' fill-opacity = '0.250000' points = '229.8,495.4 229.8,662.4 231.7,662.4 231.7,492.9 '/>
		<polygon fill = 'rgb( 31, 120, 180)' fill-opacity = '0.250000' points = '231.7,492.9 231.7,662.4 233.6,662.4 233.6,490.4 '/>
		<polygon fill = 'rgb( 31, 120, 180)' fill-opacity = '0.250000' points = '233.6,490.4 233.6,662.4 235.5,662.4 235.5,487.9 '/>
		<polygon fill = 'rgb( 31, 120, 180)' fill-opacity = '0.250000' points = '235.5,487.9 235.5,662.4 237.3,662.4 237.3,485.3 '/>
		<polygon fill = 'rgb( 31, 120, 180)' fill-opacity = '0.250000' points = '237.3,485.3 237.3,662.4 239.2,662.4 239.2,482.8 '/>
		<polygon fill = 'rgb( 31, 120, 180)' fill-opacity = '0.250000' points = '239.2,482.8 239.2,662.4 241.1,662.4 241.1,480.2 '/>
		<polygon fill = 'rgb( 31, 120, 180)' fill-opacity = '0.250000' points = '241.1,480.2 241.1,662.4 242.9,662.4 242.9,477.6 '/>
		<polygon fill = 'rgb( 31, 120, 180)' fill-opacity = '0.250000' points = '242.9,477.6 242.9,662.4 244.8,662.4 244.8,475.1 '/>
		<polygon fill = 'rgb( 31, 120, 180)' fill-opacity = '0.250000' points = '244.8,475.1 244.8,662.4 246.7,662.4 246.7,472.7 '/>
		<polygon fill = 'rgb( 31, 120, 180)' fill-opacity = '0.250000' points = '246.7,472.7 246.7,662.4 248.5,662.4 248.5,470.2 '/>
		<polygon fill = 'rgb( 31, 120, 180)' fill-opacity = '0.250000' points = '248.5,470.2 248.5,662.4 250.4,662.4 250.4,467.8 '/>
		<polygon fill = 'rgb( 31, 120, 180)' fill-opacity = '0.250000' points = '250.4,467.8 250.4,662.4 252.3,662.4 252.3,465.5 '/>
		<polygon fill = 'rgb( 31, 120, 180)' fill-opacity = '0.250000' points = '252.3,465.5 252.3,662.4 254.2,662.4 254.2,463.3 '/>
		<polygon fill = 'rgb( 31, 120, 180)' fill-opacity = '0.250000' points = '254.2,463.3 254.2,662.4 256.0,662.4 256.0,461.1 '/>
		<polygon fill = 'rgb( 31, 120, 180)' fill-opacity = '0.250000' points = '256.0,461.1 256.0,662.4 257.9,662.4 257.9,458.9 '/>
		<polygon fill = 'rgb( 31, 120, 180)' fill-opacity = '0.250000' points = '257.9,458.9 257.9,662.4 259.8,662.4 259.8,456.9 '/>
		<polygon fill = 'rgb( 31, 120, 180)' fill-opacity = '0.250000' points = '259.8,456.9 259.8,662.4 261.6,662.4 261.6,454.8 '/>
		<polygon fill = 'rgb( 31, 120, 180)' fill-opacity = '0.250000' points = '261.6,454.8 261.6,662.4 263.5,662.4 263.5,452.9 '/>
		<polygon fill = 'rgb( 31, 120, 180)' fill-opacity = '0.250000' points = '263.5,452.9 263.5,662.4 265.4,662.4 265.4,450.9 '/>
		<polygon fill = 'rgb( 31, 120, 180)' fill-opacity = '0.250000' points = '265.4,450.9 265.4,662.4 267.3,662.4 267.3,449.1 '/>
		<polygon fill = 'rgb( 31, 120, 180)' fill-opacity = '0.250000' points = '267.3,449.1 267.3,662.4 269.1,662.4 269.1,447.2 '/>
		<polygon fill = 'rgb( 31, 120, 180)' fill-opacity = '0.250000' points = '269.1,447.2 269.1,662.4 271.0,662.4 271.0,445.4 '/>
		<polygon fill = 'rgb( 31, 120, 180)' fill-opacity = '0.250000' points = '271.0,445.4 271.0,662.4 272.9,662.4 272.9,443.6 '/>
		<polygon fill = 'rgb( 31, 120, 180)' fill-opacity = '0.250000' points = '272.9,443.6 272.9,662.4 274.7,662.4 274.7,441.9 '/>
		<polygon fill = 'rgb( 31, 120, 180)' fill-opacity = '0.250000' points = '274.7,441.9 274.7,662.4 276.6,662.4 276.6,440.2 '/>
		<polygon fill = 'rgb( 31, 120, 180)' fill-opacity = '0.250000' points = '276.6,440.2 276.6,662.4 278.5,662.4 278.5,438.5 '/>
		<polygon fill = 'rgb( 31, 120, 180)' fill-opacity = '0.250000' points = '278.5,438.5 278.5,662.4 280.3,662.4 280.3,436.8 '/>
		<polygon fill = 'rgb( 31, 120, 180)' fill-opacity = '0.250000' points = '280.3,436.8 280.3,662.4 282.2,662.4 282.2,435.1 '/>
		<polygon fill = 'rgb( 31, 120, 180)' fill-opacity = '0.250000' points = '282.2,435.1 282.2,662.4 284.1,662.4 284.1,433.5 '/>
		<polygon fill = 'rgb( 31, 120, 180)' fill-opacity = '0.250000' points = '284.1,433.5 284.1,662.4 286.0,662.4 286.0,431.9 '/>
		<polygon fill = 'rgb( 31, 120, 180)' fill-opacity = '0.250000' points = '286.0,431.9 286.0,662.4 287.8,662.4 287.8,430.3 '/>
		<polygon fill = 'rgb( 31, 120, 180)' fill-opacity = '0.250000' points = '287.8,430.3 287.8,662.4 289.7,662.4 289.7,428.8 '/>
		<polygon fill = 'rgb( 31, 120, 180)' fill-opacity = '0.250000' points = '289.7,428.8 289.7,662.4 291.6,662.4 291.6,427.3 '/>
		<polygon fill = 'rgb( 31, 120, 180)' fill-opacity = '0.250000' points = '291.6,427.3 291.6,662.4 293.4,662.4 293.4,425.9 '/>
		<polygon fill = 'rgb( 31, 120, 180)' fill-opacity = '0.250000' points = '293.4,425.9 293.4,662.4 295.3,662.4 295.3,424.5 '/>
		<polygon fill = 'rgb( 31, 120, 180)' fill-opacity = '0.250000' points = '295.3,424.5 295.3,662.4 297.2,662.4 297.2,423.2 '/>
		<polygon fill = 'rgb( 31, 120, 180)' fill-opacity = '0.250000' points = '297.2,423.2 297.2,662.4 299.1,662.4 299.1,421.9 '/>
		<polygon fill = 'rgb( 31, 120, 180)' fill-opacity = '0.250000' points = '299.1,421.9 299.1,662.4 300.9,662.4 300.9,420.6 '/>
		<polygon fill = 'rgb( 31, 120, 180)' fill-opacity = '0.250000' points = '300.9,420.6 300.9,662.4 302.8,662.4 302.8,419.4 '/>
		<polygon fill = 'rgb( 31, 120, 180)' fill-opacity = '0.250000' points = '302.8,419.4 302.8,662.4 304.7,662.4 304.7,418.2 '/>
		<polygon fill = 'rgb( 31, 120, 180)' fill-opacity = '0.250000' points = '304.7,418.2 304.7,662.4 306.5,662.4 306.5,416.9 '/>
		<polygon fill = 'rgb( 31, 120, 180)' fill-opacity = '0.250000' points = '306.5,416.9 306.5,662.4 308.4,662.4 308.4,415.7 '/>
		<polygon fill = 'rgb( 31, 120, 180)' fill-opacity = '0.250000' points = '308.4,415.7 308.4,662.4 310.3,662.4 310.3,414.3 '/>
		<polygon fill = 'rgb( 31, 120, 180)' fill-opacity = '0.250000' points = '310.3,414.3 310.3,662.4 312.1,662.4 312.1,412.9 '/>
		<polygon fill = 'rgb( 31, 120, 180)' fill-opacity = '0.250000' points = '312.1,412.9 312.1,662.4 314.0,662.4 314.0,411.4 '/>
		<polygon fill = 'rgb( 31, 120, 180)' fill-opacity = '0.250000' points = '314.0,411.4 314.0,662.4 315.9,662.4 315.9,409.7 '/>
		<polygon fill = 'rgb( 31, 120, 180)' fill-opacity = '0.250000' points = '315.9,409.7 315.9,662.4 317.8,662.4 317.8,407.9 '/>
		<polygon fill = 'rgb( 31, 120, 180)' fill-opacity = '0.250000' points = '317.8,407.9 317.8,662.4 319.6,662.4 319.6,405.8 '/>
		<polygon fill = 'rgb( 31, 120, 180)' fill-opacity = '0.250000' points = '319.6,405.8 319.6,662.4 321.5,662.4 321.5,403.5 '/>
		<polygon fill = 'rgb( 31, 120, 180)' fill-opacity = '0.250000' points = '321.5,403.5 321.5,662.4 323.4,662.4 323.4,400.8 '/>
		<polygon fill = 'rgb( 31, 120, 180)' fill-opacity = '0.250000' points = '323.4,400.8 323.4,662.4 325.2,662.4 325.2,397.9 '/>
		<polygon fill = 'rgb( 31, 120, 180)' fill-opacity = '0.250000' points = '325.2,397.9 325.2,662.4 327.1,662.4 327.1,394.7 '/>
		<polygon fill = 'rgb( 31, 120, 180)' fill-opacity = '0.250000' points = '327.1,394.7 327.1,662.4 329.0,662.4 329.0,391.1 '/>
		<polygon fill = 'rgb( 31, 120, 180)' fill-opacity = '0.250000' points = '329.0,391.1 329.0,662.4 330.9,662.4 330.9,387.2 '/>
		<polygon fill = 'rgb( 31, 120, 180)' fill-opacity = '0.250000' points = '330.9,387.2 330.9,662.4 332.7,662.4 332.7,382.8 '/>
		<polygon fill = 'rgb( 31, 120, 180)' fill-opacity = '0.250000' points = '332.7,382.8 332.7,662.4 334.6,662.4 334.6,378.2 '/>
		<polygon fill = 'rgb( 31, 120, 180)' fill-opacity = '0.250000' points = '334.6,378.2 334.6,662.4 336.5,662.4 336.5,373.1 '/>
		<polygon fill = 'rgb( 31, 120, 180)' fill-opacity = '0.250000' points = '336.5,373.1 336.5,662.4 338.3,662.4 338.3,367.7 '/>
		<polygon fill = 'rgb( 31, 120, 180)' fill-opacity = '0.250000' points = '338.3,367.7 338.3,662.4 340.2,662.4 340.2,362.0 '/>
		<polygon fill = 'rgb( 31, 120, 180)' fill-opacity = '0.250000' points = '340.2,362.0 340.2,662.4 342.1,662.4 342.1,356.0 '/>
		<polygon fill = 'rgb( 31, 120, 180)' fill-opacity = '0.250000' points = '342.1,356.0 342.1,662.4 343.9,662.4 343.9,349.8 '/>
		<polygon fill = 'rgb( 31, 120, 180)' fill-opacity = '0.250000' points = '343.9,349.8 343.9,662.4 345.8,662.4 345.8,343.3 '/>
		<polygon fill = 'rgb( 31, 120, 180)' fill-opacity = '0.250000' points = '345.8,343.3 345.8,662.4 347.7,662.4 347.7,336.6 '/>
		<polygon fill = 'rgb( 31, 120, 180)' fill-opacity = '0.250000' points = '347.7,336.6 347.7,662.4 349.6,662.4 349.6,329.8 '/>
		<polygon fill = 'rgb( 31, 120, 180)' fill-opacity = '0.250000' points = '349.6,329.8 349.6,662.4 351.4,662.4 351.4,322.9 '/>
		<polygon fill = 'rgb( 31, 120, 180)' fill-opacity = '0.250000' points = '351.4,322.9 351.4,662.4 353.3,662.4 353.3,316.0 '/>
		<polygon fill = 'rgb( 31, 120, 180)' fill-opacity = '0.250000' points = '353.3,316.0 353.3,662.4 355.2,662.4 355.2,309.1 '/>
		<polygon fill = 'rgb( 31, 120, 180)' fill-opacity = '0.250000' points = '355.2,309.1 355.2,662.4 357.0,662.4 357.0,302.4 '/>
		<polygon fill = 'rgb( 31, 120, 180)' fill-opacity = '0.250000' points = '357.0,302.4 357.0,662.4 358.9,662.4 358.9,295.7 '/>
		<polygon fill = 'rgb( 31, 120, 180)' fill-opacity = '0.250000' points = '358.9,295.7 358.9,662.4 360.8,662.4 360.8,289.3 '/>
		<polygon fill = 'rgb( 31, 120, 180)' fill-opacity = '0.250000' points = '360.8,289.3 360.8,662.4 362.7,662.4 362.7,283.0 '/>
		<polygon fill = 'rgb( 31, 120, 180)' fill-opacity = '0.250000' points = '362.7,283.0 362.7,662.4 364.5,662.4 364.5,277.1 '/>
		<polygon fill = 'rgb( 31, 120, 180)' fill-opacity = '0.250000' points = '364.5,277.1 364.5,662.4 366.4,662.4 366.4,271.5 '/>
		<polygon fill = 'rgb( 31, 120, 180)' fill-opacity = '0.250000' points = '366.4,271.5 366.4,662.4 368.3,662.4 368.3,266.1 '/>
		<polygon fill = 'rgb( 31, 120, 180)' fill-opacity = '0.250000' points = '368.3,266.1 368.3,662.4 370.1,662.4 370.1,261.2 '/>
		<polygon fill = 'rgb( 31, 120, 180)' fill-opacity = '0.250000' points = '370.1,261.2 370.1,662.4 372.0,662.4 372.0,256.6 '/>
		<polygon fill = 'rgb( 31, 120, 180)' fill-opacity = '0.250000' points = '372.0,256.6 372.0,662.4 373.9,662.4 373.9,252.3 '/>
		<polygon fill = 'rgb( 31, 120, 180)' fill-opacity = '0.250000' points = '373.9,252.3 373.9,662.4 375.7,662.4 375.7,248.4 '/>
		<polygon fill = 'rgb( 31, 120, 180)' fill-opacity = '0.250000' points = '375.7,248.4 375.7,662.4 377.6,662.4 377.6,244.8 '/>
		<polygon fill = 'rgb( 31, 120, 180)' fill-opacity = '0.250000' points = '377.6,244.8 377.6,662.4 379.5,662.4 379.5,241.5 '/>
		<polygon fill = 'rgb( 31, 120, 180)' fill-opacity = '0.250000' points = '379.5,241.5 379.5,662.4 381.4,662.4 381.4,238.5 '/>
		<polygon fill = 'rgb( 31, 120, 180)' fill-opacity = '0.250000' points = '381.4,238.5 381.4,662.4 383.2,662.4 383.2,235.7 '/>
		<polygon fill = 'rgb( 31, 120, 180)' fill-opacity = '0.250000' points = '383.2,235.7 383.2,662.4 385.1,662.4 385.1,233.2 '/>
		<polygon fill = 'rgb( 31, 120, 180)' fill-opacity = '0.250000' points = '385.1,233.2 385.1,662.4 387.0,662.4 387.0,230.8 '/>
		<polygon fill = 'rgb( 31, 120, 180)' fill-opacity = '0.250000' points = '387.0,230.8 387.0,662.4 388.8,662.4 388.8,228.5 '/>
		<polygon fill = 'rgb( 31, 120, 180)' fill-opacity = '0.250000' points = '388.8,228.5 388.8,662.4 390.7,662.4 390.7,226.3 '/>
		<polygon fill = 'rgb( 31, 120, 180)' fill-opacity = '0.250000' points = '390.7,226.3 390.7,662.4 392.6,662.4 392.6,224.2 '/>
		<polygon fill = 'rgb( 31, 120, 180)' fill-opacity = '0.250000' points = '392.6,224.2 392.6,662.4 394.5,662.4 394.5,222.1 '/>
		<polygon fill = 'rgb( 31, 120, 180)' fill-opacity = '0.250000' points = '394.5,222.1 394.5,662.4 396.3,662.4 396.3,220.0 '/>
		<polygon fill = 'rgb( 31, 120, 180)' fill-opacity = '0.250000' points = '396.3,220.0 396.3,662.4 398.2,662.4 398.2,217.8 '/>
		<polygon fill = 'rgb( 31, 120, 180)' fill-opacity = '0.250000' points = '398.2,217.8 398.2,662.4 400.1,662.4 400.1,215.6 '/>
		<polygon fill = 'rgb( 31, 120, 180)' fill-opacity = '0.250000' points = '400.1,215.6 400.1,662.4 401.9,662.4 401.9,213.2 '/>
		<polygon fill = 'rgb( 31, 120, 180)' fill-opacity = '0.250000' points = '401.9,213.2 401.9,662.4 403.8,662.4 403.8,210.8 '/>
		<polygon fill = 'rgb( 31, 120, 180)' fill-opacity = '0.250000' points = '403.8,210.8 403.8,662.4 405.7,662.4 405.7,208.2 '/>
		<polygon fill = 'rgb( 31, 120, 180)' fill-opacity = '0.250000' points = '405.7,208.2 405.7,662.4 407.5,662.4 407.5,205.6 '/>
		<polygon fill = 'rgb( 31, 120, 180)' fill-opacity = '0.250000' points = '407.5,205.6 407.5,662.4 409.4,662.4 409.4,202.8 '/>
		<polygon fill = 'rgb( 31, 120, 180)' fill-opacity = '0.250000' points = '409.4,202.8 409.4,662.4 411.3,662.4 411.3,199.9 '/>
		<polygon fill = 'rgb( 31, 120, 180)' fill-opacity = '0.250000' points = '411.3,199.9 411.3,662.4 413.2,662.4 413.2,196.8 '/>
		<polygon fill = 'rgb( 31, 120, 180)' fill-opacity = '0.250000' points = '413.2,196.8 413.2,662.4 415.0,662.4 415.0,193.7 '/>
		<polygon fill = 'rgb( 31, 120, 180)' fill-opacity = '0.250000' points = '415.0,193.7 415.0,662.4 416.9,662.4 416.9,190.4 '/>
		<polygon fill = 'rgb( 31, 120, 180)' fill-opacity = '0.250000' points = '416.9,190.4 416.9,662.4 418.8,662.4 418.8,187.0 '/>
		<polygon fill = 'rgb( 31, 120, 180)' fill-opacity = '0.250000' points = '418.8,187.0 418.8,662.4 420.6,662.4 420.6,183.6 '/>
		<polygon fill = 'rgb( 31, 120, 180)' fill-opacity = '0.250000' points = '420.6,183.6 420.6,662.4 422.5,662.4 422.5,180.1 '/>
		<polygon fill = 'rgb( 31, 120, 180)' fill-opacity = '0.250000' points = '422.5,180.1 422.5,662.4 424.4,662.4 424.4,176.5 '/>
		<polygon fill = 'rgb( 31, 120, 180)' fill-opacity = '0.250000' points = '424.4,176.5 424.4,662.4 426.3,662.4 426.3,172.8 '/>
		<polygon fill = 'rgb( 31, 120, 180)' fill-opacity = '0.250000' points = '426.3,172.8 426.3,662.4 428.1,662.4 428.1,169.2 '/>
		<polygon fill = 'rgb( 31, 120, 180)' fill-opacity = '0.250000' points = '428.1,169.2 428.1,662.4 430.0,662.4 430.0,165.5 '/>
		<polygon fill = 'rgb( 31, 120, 180)' fill-opacity = '0.250000' points = '430.0,165.5 430.0,662.4 431.9,662.4 431.9,161.7 '/>
		<polygon fill = 'rgb( 31, 120, 180)' fill-opacity = '0.250000' points = '431.9,161.7 431.9,662.4 433.7,662.4 433.7,158.0 '/>
		<polygon fill = 'rgb( 31, 120, 180)' fill-opacity = '0.250000' points = '433.7,158.0 433.7,662.4 435.6,662.4 435.6,154.3 '/>
		<polygon fill = 'rgb( 31, 120, 180)' fill-opacity = '0.250000' points = '435.6,154.3 435.6,662.4 437.5,662.4 437.5,150.6 '/>
		<polygon fill = 'rgb( 31, 120, 180)' fill-opacity = '0.250000' points = '437.5,150.6 437.5,662.4 439.3,662.4 439.3,146.9 '/>
		<polygon fill = 'rgb( 31, 120, 180)' fill-opacity = '0.250000' points = '439.3,146.9 439.3,662.4 441.2,662.4 441.2,143.3 '/>
		<polygon fill = 'rgb( 31, 120, 180)' fill-opacity = '0.250000' points = '441.2,143.3 441.2,662.4 443.1,662.4 443.1,139.7 '/>
		<polygon fill = 'rgb( 31, 120, 180)' fill-opacity = '0.250000' points = '443.1,139.7 443.1,662.4 445.0,662.4 445.0,136.2 '/>
		<polygon fill = 'rgb( 31, 120, 180)' fill-opacity = '0.250000' points = '445.0,136.2 445.0,662.4 446.8,662.4 446.8,132.7 '/>
		<polygon fill = 'rgb( 31, 120, 180)' fill-opacity = '0.250000' points = '446.8,132.7 446.8,662.4 448.7,662.4 448.7,129.4 '/>
		<polygon fill = 'rgb( 31, 120, 180)' fill-opacity = '0.250000' points = '448.7,129.4 448.7,662.4 450.6,662.4 450.6,126.1 '/>
		<polygon fill = 'rgb( 31, 120, 180)' fill-opacity = '0.250000' points = '450.6,126.1 450.6,662.4 452.4,662.4 452.4,123.0 '/>
		<polygon fill = 'rgb( 31, 120, 180)' fill-opacity = '0.250000' points = '452.4,123.0 452.4,662.4 454.3,662.4 454.3,119.9 '/>
		<polygon fill = 'rgb( 31, 120, 180)' fill-opacity = '0.250000' points = '454.3,119.9 454.3,662.4 456.2,662.4 456.2,117.0 '/>
		<polygon fill = 'rgb( 31, 120, 180)' fill-opacity = '0.250000' points = '456.2,117.0 456.2,662.4 458.0,662.4 458.0,114.3 '/>
		<polygon fill = 'rgb( 31, 120, 180)' fill-opacity = '0.250000' points = '458.0,114.3 458.0,662.4 459.9,662.4 459.9,111.6 '/>
		<polygon fill = 'rgb( 31, 120, 180)' fill-opacity = '0.250000' points = '459.9,111.6 459.9,662.4 461.8,662.4 461.8,109.2 '/>
		<polygon fill = 'rgb( 31, 120, 180)' fill-opacity = '0.250000' points = '461.8,109.2 461.8,662.4 463.7,662.4 463.7,106.9 '/>
		<polygon fill = 'rgb( 31, 120, 180)' fill-opacity = '0.250000' points = '463.7,106.9 463.7,662.4 465.5,662.4 465.5,104.8 '/>
		<polygon fill = 'rgb( 31, 120, 180)' fill-opacity = '0.250000' points = '465.5,104.8 465.5,662.4 467.4,662.4 467.4,103.0 '/>
		<polygon fill = 'rgb( 31, 120, 180)' fill-opacity = '0.250000' points = '467.4,103.0 467.4,662.4 469.3,662.4 469.3,101.3 '/>
		<polygon fill = 'rgb( 31, 120, 180)' fill-opacity = '0.250000' points = '469.3,101.3 469.3,662.4 471.1,662.4 471.1,99.8 '/>
		<polygon fill = 'rgb( 31, 120, 180)' fill-opacity = '0.250000' points = '471.1,99.8 471.1,662.4 473.0,662.4 473.0,98.6 '/>
		<polygon fill = 'rgb( 31, 120, 180)' fill-opacity = '0.250000' points = '473.0,98.6 473.0,662.4 474.9,662.4 474.9,97.6 '/>
		<polygon fill = 'rgb( 31, 120, 180)' fill-opacity = '0.250000' points = '474.9,97.6 474.9,662.4 476.8,662.4 476.8,96.8 '/>
		<polygon fill = 'rgb( 31, 120, 180)' fill-opacity = '0.250000' points = '476.8,96.8 476.8,662.4 478.6,662.4 478.6,96.3 '/>
		<polygon fill = 'rgb( 31, 120, 180)' fill-opacity = '0.250000' points = '478.6,96.3 478.6,662.4 480.5,662.4 480.5,96.0 '/>
		<polygon fill = 'rgb( 31, 120, 180)' fill-opacity = '0.250000' points = '480.5,96.0 480.5,662.4 482.4,662.4 482.4,96.0 '/>
		<polygon fill = 'rgb( 31, 120, 180)' fill-opacity = '0.250000' points = '482.4,96.0 482.4,662.4 484.2,662.4 484.2,96.2 '/>
		<polygon fill = 'rgb( 31, 120, 180)' fill-opacity = '0.250000' points = '484.2,96.2 484.2,662.4 486.1,662.4 486.1,96.6 '/>
		<polygon fill = 'rgb( 31, 120, 180)' fill-opacity = '0.250000' points = '486.1,96.6 486.1,662.4 488.0,662.4 488.0,97.2 '/>
		<polygon fill = 'rgb( 31, 120, 180)' fill-opacity = '0.250000' points = '488.0,97.2 488.0,662.4 489.8,662.4 489.8,98.1 '/>
		<polygon fill = 'rgb( 31, 120, 180)' fill-opacity = '0.250000' points = '489.8,98.1 489.8,662.4 491.7,662.4 491.7,99.1 '/>
		<polygon fill = 'rgb( 31, 120, 180)' fill-opacity = '0.250000' points = '491.7,99.1 491.7,662.4 493.6,662.4 493.6,100.2 '/>
		<polygon fill = 'rgb( 31, 120, 180)' fill-opacity = '0.250000' points = '493.6,100.2 493.6,662.4 495.5,662.4 495.5,101.5 '/>
		<polygon fill = 'rgb( 31, 120, 180)' fill-opacity = '0.250000' points = '495.5,101.5 495.5,662.4 497.3,662.4 497.3,102.9 '/>
		<polygon fill = 'rgb( 31, 120, 180)' fill-opacity = '0.250000' points = '497.3,102.9 497.3,662.4 499.2,662.4 499.2,104.3 '/>
		<polygon fill = 'rgb( 31, 120, 180)' fill-opacity = '0.250000' points = '499.2,104.3 499.2,662.4 501.1,662.4 501.1,105.8 '/>
		<polygon fill = 'rgb( 31, 120, 180)' fill-opacity = '0.250000' points = '501.1,105.8 501.1,662.4 502.9,662.4 502.9,107.2 '/>
		<polygon fill = 'rgb( 31, 120, 180)' fill-opacity = '0.250000' points = '502.9,107.2 502.9,662.4 504.8,662.4 504.8,108.5 '/>
		<polygon fill = 'rgb( 31, 120, 180)' fill-opacity = '0.250000' points = '504.8,108.5 504.8,662.4 506.7,662.4 506.7,109.7 '/>
		<polygon fill = 'rgb( 31, 120, 180)' fill-opacity = '0.250000' points = '506.7,109.7 506.7,662.4 508.6,662.4 508.6,110.8 '/>
		<polygon fill = 'rgb( 31, 120, 180)' fill-opacity = '0.250000' points = '508.6,110.8 508.6,662.4 510.4,662.4 510.4,111.6 '/>
		<polygon fill = 'rgb( 31, 120, 180)' fill-opacity = '0.250000' points = '510.4,111.6 510.4,662.4 512.3,662.4 512.3,112.3 '/>
		<polygon fill = 'rgb( 31, 120, 180)' fill-opacity = '0.250000' points = '512.3,112.3 512.3,662.4 514.2,662.4 514.2,112.6 '/>
		<polygon fill = 'rgb( 31, 120, 180)' fill-opacity = '0.250000' points = '514.2,112.6 514.2,662.4 516.0,662.4 516.0,112.6 '/>
		<polygon fill = 'rgb( 31, 120, 180)' fill-opacity = '0.250000' points = '516.0,112.6 516.0,662.4 517.9,662.4 517.9,112.3 '/>
		<polygon fill = 'rgb( 31, 120, 180)' fill-opacity = '0.250000' points = '517.9,112.3 517.9,662.4 519.8,662.4 519.8,111.6 '/>
		<polygon fill = 'rgb( 31, 120, 180)' fill-opacity = '0.250000' points = '519.8,111.6 519.8,662.4 521.6,662.4 521.6,110.6 '/>
		<polygon fill = 'rgb( 31, 120, 180)' fill-opacity = '0.250000' points = '521.6,110.6 521.6,662.4 523.5,662.4 523.5,109.2 '/>
		<polygon fill = 'rgb( 31, 120, 180)' fill-opacity = '0.250000' points = '523.5,109.2 523.5,662.4 525.4,662.4 525.4,107.3 '/>
		<polygon fill = 'rgb( 31, 120, 180)' fill-opacity = '0.250000' points = '525.4,107.3 525.4,662.4 527.3,662.4 527.3,105.2 '/>
		<polygon fill = 'rgb( 31, 120, 180)' fill-opacity = '0.250000' points = '527.3,105.2 527.3,662.4 529.1,662.4 529.1,102.7 '/>
		<polygon fill = 'rgb( 31, 120, 180)' fill-opacity = '0.250000' points = '529.1,102.7 529.1,662.4 531.0,662.4 531.0,99.8 '/>
		<polygon fill = 'rgb( 31, 120, 180)' fill-opacity = '0.250000' points = '531.0,99.8 531.0,662.4 532.9,662.4 532.9,96.7 '/>
		<polygon fill = 'rgb( 31, 120, 180)' fill-opacity = '0.250000' points = '532.9,96.7 532.9,662.4 534.7,662.4 534.7,93.3 '/>
		<polygon fill = 'rgb( 31, 120, 180)' fill-opacity = '0.250000' points = '534.7,93.3 534.7,662.4 536.6,662.4 536.6,89.8 '/>
		<polygon fill = 'rgb( 31, 120, 180)' fill-opacity = '0.250000' points = '536.6,89.8 536.6,662.4 538.5,662.4 538.5,86.1 '/>
		<polygon fill = 'rgb( 31, 120, 180)' fill-opacity = '0.250000' points = '538.5,86.1 538.5,662.4 540.4,662.4 540.4,82.4 '/>
		<polygon fill = 'rgb( 31, 120, 180)' fill-opacity = '0.250000' points = '540.4,82.4 540.4,662.4 542.2,662.4 542.2,78.7 '/>
		<polygon fill = 'rgb( 31, 120, 180)' fill-opacity = '0.250000' points = '542.2,78.7 542.2,662.4 544.1,662.4 544.1,75.1 '/>
		<polygon fill = 'rgb( 31, 120, 180)' fill-opacity = '0.250000' points = '544.1,75.1 544.1,662.4 546.0,662.4 546.0,71.7 '/>
		<polygon fill = 'rgb( 31, 120, 180)' fill-opacity = '0.250000' points = '546.0,71.7 546.0,662.4 547.8,662.4 547.8,68.5 '/>
		<polygon fill = 'rgb( 31, 120, 180)' fill-opacity = '0.250000' points = '547.8,68.5 547.8,662.4 549.7,662.4 549.7,65.6 '/>
		<polygon fill = 'rgb( 31, 120, 180)' fill-opacity = '0.250000' points = '549.7,65.6 549.7,662.4 551.6,662.4 551.6,63.0 '/>
		<polygon fill = 'rgb( 31, 120, 180)' fill-opacity = '0.250000' points = '551.6,63.0 551.6,662.4 553.4,662.4 553.4,61.0 '/>
		<polygon fill = 'rgb( 31, 120, 180)' fill-opacity = '0.250000' points = '553.4,61.0 553.4,662.4 555.3,662.4 555.3,59.4 '/>
		<polygon fill = 'rgb( 31, 120, 180)' fill-opacity = '0.250000' points = '555.3,59.4 555.3,662.4 557.2,662.4 557.2,58.4 '/>
		<polygon fill = 'rgb( 31, 120, 180)' fill-opacity = '0.250000' points = '557.2,58.4 557.2,662.4 559.1,662.4 559.1,57.9 '/>
		<polygon fill = 'rgb( 31, 120, 180)' fill-opacity = '0.250000' points = '559.1,57.9 559.1,662.4 560.9,662.4 560.9,58.1 '/>
		<polygon fill = 'rgb( 31, 120, 180)' fill-opacity = '0.250000' points = '560.9,58.1 560.9,662.4 562.8,662.4 562.8,58.9 '/>
		<polygon fill = 'rgb( 31, 120, 180)' fill-opacity = '0.250000' points = '562.8,58.9 562.8,662.4 564.7,662.4 564.7,60.3 '/>
		<polygon fill = 'rgb( 31, 120, 180)' fill-opacity = '0.250000' points = '564.7,60.3 564.7,662.4 566.5,662.4 566.5,62.2 '/>
		<polygon fill = 'rgb( 31, 120, 180)' fill-opacity = '0.250000' points = '566.5,62.2 566.5,662.4 568.4,662.4 568.4,64.8 '/>
		<polygon fill = 'rgb( 31, 120, 180)' fill-opacity = '0.250000' points = '568.4,64.8 568.4,662.4 570.3,662.4 570.3,67.8 '/>
		<polygon fill = 'rgb( 31, 120, 180)' fill-opacity = '0.250000' points = '570.3,67.8 570.3,662.4 572.2,662.4 572.2,71.4 '/>
		<polygon fill = 'rgb( 31, 120, 180)' fill-opacity = '0.250000' points = '572.2,71.4 572.2,662.4 574.0,662.4 574.0,75.3 '/>
		<polygon fill = 'rgb( 31, 120, 180)' fill-opacity = '0.250000' points = '574.0,75.3 574.0,662.4 575.9,662.4 575.9,79.6 '/>
		<polygon fill = 'rgb( 31, 120, 180)' fill-opacity = '0.250000' points = '575.9,79.6 575.9,662.4 577.8,662.4 577.8,84.2 '/>
		<polygon fill = 'rgb( 31, 120, 180)' fill-opacity = '0.250000' points = '577.8,84.2 577.8,662.4 579.6,662.4 579.6,89.0 '/>
		<polygon fill = 'rgb( 31, 120, 180)' fill-opacity = '0.250000' points = '579.6,89.0 579.6,662.4 581.5,662.4 581.5,93.9 '/>
		<polygon fill = 'rgb( 31, 120, 180)' fill-opacity = '0.250000' points = '581.5,93.9 581.5,662.4 583.4,662.4 583.4,98.9 '/>
		<polygon fill = 'rgb( 31, 120, 180)' fill-opacity = '0.250000' points = '583.4,98.9 583.4,662.4 585.2,662.4 585.2,103.9 '/>
		<polygon fill = 'rgb( 31, 120, 180)' fill-opacity = '0.250000' points = '585.2,103.9 585.2,662.4 587.1,662.4 587.1,108.9 '/>
		<polygon fill = 'rgb( 31, 120, 180)' fill-opacity = '0.250000' points = '587.1,108.9 587.1,662.4 589.0,662.4 589.0,113.7 '/>
		<polygon fill = 'rgb( 31, 120, 180)' fill-opacity = '0.250000' points = '589.0,113.7 589.0,662.4 590.9,662.4 590.9,118.4 '/>
		<polygon fill = 'rgb( 31, 120, 180)' fill-opacity = '0.250000' points = '590.9,118.4 590.9,662.4 592.7,662.4 592.7,122.9 '/>
		<polygon fill = 'rgb( 31, 120, 180)' fill-opacity = '0.250000' points = '592.7,122.9 592.7,662.4 594.6,662.4 594.6,127.2 '/>
		<polygon fill = 'rgb( 31, 120, 180)' fill-opacity = '0.250000' points = '594.6,127.2 594.6,662.4 596.5,662.4 596.5,131.3 '/>
		<polygon fill = 'rgb( 31, 120, 180)' fill-opacity = '0.250000' points = '596.5,131.3 596.5,662.4 598.3,662.4 598.3,135.1 '/>
		<polygon fill = 'rgb( 31, 120, 180)' fill-opacity = '0.250000' points = '598.3,135.1 598.3,662.4 600.2,662.4 600.2,138.7 '/>
		<polygon fill = 'rgb( 31, 120, 180)' fill-opacity = '0.250000' points = '600.2,138.7 600.2,662.4 602.1,662.4 602.1,142.1 '/>
		<polygon fill = 'rgb( 31, 120, 180)' fill-opacity = '0.250000' points = '602.1,142.1 602.1,662.4 604.0,662.4 604.0,145.3 '/>
		<polygon fill = 'rgb( 31, 120, 180)' fill-opacity = '0.250000' points = '604.0,145.3 604.0,662.4 605.8,662.4 605.8,148.2 '/>
		<polygon fill = 'rgb( 31, 120, 180)' fill-opacity = '0.250000' points = '605.8,148.2 605.8,662.4 607.7,662.4 607.7,151.0 '/>
		<polygon fill = 'rgb( 31, 120, 180)' fill-opacity = '0.250000' points = '607.7,151.0 607.7,662.4 609.6,662.4 609.6,153.6 '/>
		<polygon fill = 'rgb( 31, 120, 180)' fill-opacity = '0.250000' points = '609.6,153.6 609.6,662.4 611.4,662.4 611.4,156.0 '/>
		<polygon fill = 'rgb( 31, 120, 180)' fill-opacity = '0.250000' points = '611.4,156.0 611.4,662.4 613.3,662.4 613.3,158.3 '/>
		<polygon fill = 'rgb( 31, 120, 180)' fill-opacity = '0.250000' points = '613.3,158.3 613.3,662.4 615.2,662.4 615.2,160.5 '/>
		<polygon fill = 'rgb( 31, 120, 180)' fill-opacity = '0.250000' points = '615.2,160.5 615.2,662.4 617.0,662.4 617.0,162.5 '/>
		<polygon fill = 'rgb( 31, 120, 180)' fill-opacity = '0.250000' points = '617.0,162.5 617.0,662.4 618.9,662.4 618.9,164.5 '/>
		<polygon fill = 'rgb( 31, 120, 180)' fill-opacity = '0.250000' points = '618.9,164.5 618.9,662.4 620.8,662.4 620.8,166.3 '/>
		<polygon fill = 'rgb( 31, 120, 180)' fill-opacity = '0.250000' points = '620.8,166.3 620.8,662.4 622.7,662.4 622.7,168.1 '/>
		<polygon fill = 'rgb( 31, 120, 180)' fill-opacity = '0.250000' points = '622.7,168.1 622.7,662.4 624.5,662.4 624.5,169.8 '/>
		<polygon fill = 'rgb( 31, 120, 180)' fill-opacity = '0.250000' points = '624.5,169.8 624.5,662.4 626.4,662.4 626.4,171.4 '/>
		<polygon fill = 'rgb( 31, 120, 180)' fill-opacity = '0.250000' points = '626.4,171.4 626.4,662.4 628.3,662.4 628.3,172.9 '/>
		<polygon fill = 'rgb( 31, 120, 180)' fill-opacity = '0.250000' points = '628.3,172.9 628.3,662.4 630.1,662.4 630.1,174.4 '/>
		<polygon fill = 'rgb( 31, 120, 180)' fill-opacity = '0.250000' points = '630.1,174.4 630.1,662.4 632.0,662.4 632.0,175.7 '/>
		<polygon fill = 'rgb( 31, 120, 180)' fill-opacity = '0.250000' points = '632.0,175.7 632.0,662.4 633.9,662.4 633.9,177.0 '/>
		<polygon fill = 'rgb( 31, 120, 180)' fill-opacity = '0.250000' points = '633.9,177.0 633.9,662.4 635.8,662.4 635.8,178.2 '/>
		<polygon fill = 'rgb( 31, 120, 180)' fill-opacity = '0.250000' points = '635.8,178.2 635.8,662.4 637.6,662.4 637.6,179.3 '/>
		<polygon fill = 'rgb( 31, 120, 180)' fill-opacity = '0.250000' points = '637.6,179.3 637.6,662.4 639.5,662.4 639.5,180.4 '/>
		<polygon fill = 'rgb( 31, 120, 180)' fill-opacity = '0.250000' points = '639.5,180.4 639.5,662.4 641.4,662.4 641.4,181.4 '/>
		<polygon fill = 'rgb( 31, 120, 180)' fill-opacity = '0.250000' points = '641.4,181.4 641.4,662.4 643.2,662.4 643.2,182.3 '/>
		<polygon fill = 'rgb( 31, 120, 180)' fill-opacity = '0.250000' points = '643.2,182.3 643.2,662.4 645.1,662.4 645.1,183.3 '/>
		<polygon fill = 'rgb( 31, 120, 180)' fill-opacity = '0.250000' points = '645.1,183.3 645.1,662.4 647.0,662.4 647.0,184.2 '/>
		<polygon fill = 'rgb( 31, 120, 180)' fill-opacity = '0.250000' points = '647.0,184.2 647.0,662.4 648.8,662.4 648.8,185.2 '/>
		<polygon fill = 'rgb( 31, 120, 180)' fill-opacity = '0.250000' points = '648.8,185.2 648.8,662.4 650.7,662.4 650.7,186.3 '/>
		<polygon fill = 'rgb( 31, 120, 180)' fill-opacity = '0.250000' points = '650.7,186.3 650.7,662.4 652.6,662.4 652.6,187.4 '/>
		<polygon fill = 'rgb( 31, 120, 180)' fill-opacity = '0.250000' points = '652.6,187.4 652.6,662.4 654.5,662.4 654.5,188.7 '/>
		<polygon fill = 'rgb( 31, 120, 180)' fill-opacity = '0.250000' points = '654.5,188.7 654.5,662.4 656.3,662.4 656.3,190.0 '/>
		<polygon fill = 'rgb( 31, 120, 180)' fill-opacity = '0.250000' points = '656.3,190.0 656.3,662.4 658.2,662.4 658.2,191.6 '/>
		<polygon fill = 'rgb( 31, 120, 180)' fill-opacity = '0.250000' points = '658.2,191.6 658.2,662.4 660.1,662.4 660.1,193.3 '/>
		<polygon fill = 'rgb( 31, 120, 180)' fill-opacity = '0.250000' points = '660.1,193.3 660.1,662.4 661.9,662.4 661.9,195.3 '/>
		<polygon fill = 'rgb( 31, 120, 180)' fill-opacity = '0.250000' points = '661.9,195.3 661.9,662.4 663.8,662.4 663.8,197.5 '/>
		<polygon fill = 'rgb( 31, 120, 180)' fill-opacity = '0.250000' points = '663.8,197.5 663.8,662.4 665.7,662.4 665.7,199.9 '/>
		<polygon fill = 'rgb( 31, 120, 180)' fill-opacity = '0.250000' points = '665.7,199.9 665.7,662.4 667.5,662.4 667.5,202.6 '/>
		<polygon fill = 'rgb( 31, 120, 180)' fill-opacity = '0.250000' points = '667.5,202.6 667.5,662.4 669.4,662.4 669.4,205.6 '/>
		<polygon fill = 'rgb( 31, 120, 180)' fill-opacity = '0.250000' points = '669.4,205.6 669.4,662.4 671.3,662.4 671.3,208.8 '/>
		<polygon fill = 'rgb( 31, 120, 180)' fill-opacity = '0.250000' points = '671.3,208.8 671.3,662.4 673.2,662.4 673.2,212.3 '/>
		<polygon fill = 'rgb( 31, 120, 180)' fill-opacity = '0.250000' points = '673.2,212.3 673.2,662.4 675.0,662.4 675.0,216.0 '/>
		<polygon fill = 'rgb( 31, 120, 180)' fill-opacity = '0.250000' points = '675.0,216.0 675.0,662.4 676.9,662.4 676.9,219.9 '/>
		<polygon fill = 'rgb( 31, 120, 180)' fill-opacity = '0.250000' points = '676.9,219.9 676.9,662.4 678.8,662.4 678.8,224.1 '/>
		<polygon fill = 'rgb( 31, 120, 180)' fill-opacity = '0.250000' points = '678.8,224.1 678.8,662.4 680.6,662.4 680.6,228.4 '/>
		<polygon fill = 'rgb( 31, 120, 180)' fill-opacity = '0.250000' points = '680.6,228.4 680.6,662.4 682.5,662.4 682.5,232.9 '/>
		<polygon fill = 'rgb( 31, 120, 180)' fill-opacity = '0.250000' points = '682.5,232.9 682.5,662.4 684.4,662.4 684.4,237.4 '/>
		<polygon fill = 'rgb( 31, 120, 180)' fill-opacity = '0.250000' points = '684.4,237.4 684.4,662.4 686.3,662.4 686.3,242.0 '/>
		<polygon fill = 'rgb( 31, 120, 180)' fill-opacity = '0.250000' points = '686.3,242.0 686.3,662.4 688.1,662.4 688.1,246.7 '/>
		<polygon fill = 'rgb( 31, 120, 180)' fill-opacity = '0.250000' points = '688.1,246.7 688.1,662.4 690.0,662.4 690.0,251.3 '/>
		<polygon fill = 'rgb( 31, 120, 180)' fill-opacity = '0.250000' points = '690.0,251.3 690.0,662.4 691.9,662.4 691.9,255.8 '/>
		<polygon fill = 'rgb( 31, 120, 180)' fill-opacity = '0.250000' points = '691.9,255.8 691.9,662.4 693.7,662.4 693.7,260.3 '/>
		<polygon fill = 'rgb( 31, 120, 180)' fill-opacity = '0.250000' points = '693.7,260.3 693.7,662.4 695.6,662.4 695.6,264.5 '/>
		<polygon fill = 'rgb( 31, 120, 180)' fill-opacity = '0.250000' points = '695.6,264.5 695.6,662.4 697.5,662.4 697.5,268.6 '/>
		<polygon fill = 'rgb( 31, 120, 180)' fill-opacity = '0.250000' points = '697.5,268.6 697.5,662.4 699.3,662.4 699.3,272.4 '/>
		<polygon fill = 'rgb( 31, 120, 180)' fill-opacity = '0.250000' points = '699.3,272.4 699.3,662.4 701.2,662.4 701.2,275.9 '/>
		<polygon fill = 'rgb( 31, 120, 180)' fill-opacity = '0.250000' points = '701.2,275.9 701.2,662.4 703.1,662.4 703.1,279.1 '/>
		<polygon fill = 'rgb( 31, 120, 180)' fill-opacity = '0.250000' points = '703.1,279.1 703.1,662.4 705.0,662.4 705.0,282.0 '/>
		<polygon fill = 'rgb( 31, 120, 180)' fill-opacity = '0.250000' points = '705.0,282.0 705.0,662.4 706.8,662.4 706.8,284.5 '/>
		<polygon fill = 'rgb( 31, 120, 180)' fill-opacity = '0.250000' points = '706.8,284.5 706.8,662.4 708.7,662.4 708.7,286.6 '/>
		<polygon fill = 'rgb( 31, 120, 180)' fill-opacity = '0.250000' points = '708.7,286.6 708.7,662.4 710.6,662.4 710.6,288.3 '/>
		<polygon fill = 'rgb( 31, 120, 180)' fill-opacity = '0.250000' points = '710.6,288.3 710.6,662.4 712.4,662.4 712.4,289.6 '/>
		<polygon fill = 'rgb( 31, 120, 180)' fill-opacity = '0.250000' points = '712.4,289.6 712.4,662.4 714.3,662.4 714.3,290.4 '/>
		<polygon fill = 'rgb( 31, 120, 180)' fill-opacity = '0.250000' points = '714.3,290.4 714.3,662.4 716.2,662.4 716.2,290.9 '/>
		<polygon fill = 'rgb( 31, 120, 180)' fill-opacity = '0.250000' points = '716.2,290.9 716.2,662.4 718.1,662.4 718.1,291.0 '/>
		<polygon fill = 'rgb( 31, 120, 180)' fill-opacity = '0.250000' points = '718.1,291.0 718.1,662.4 719.9,662.4 719.9,290.8 '/>
		<polygon fill = 'rgb( 31, 120, 180)' fill-opacity = '0.250000' points = '719.9,290.8 719.9,662.4 721.8,662.4 721.8,290.2 '/>
		<polygon fill = 'rgb( 31, 120, 180)' fill-opacity = '0.250000' points = '721.8,290.2 721.8,662.4 723.7,662.4 723.7,289.2 '/>
		<polygon fill = 'rgb( 31, 120, 180)' fill-opacity = '0.250000' points = '723.7,289.2 723.7,662.4 725.5,662.4 725.5,288.0 '/>
		<polygon fill = 'rgb( 31, 120, 180)' fill-opacity = '0.250000' points = '725.5,288.0 725.5,662.4 727.4,662.4 727.4,286.6 '/>
		<polygon fill = 'rgb( 31, 120, 180)' fill-opacity = '0.250000' points = '727.4,286.6 727.4,662.4 729.3,662.4 729.3,284.9 '/>
		<polygon fill = 'rgb( 31, 120, 180)' fill-opacity = '0.250000' points = '729.3,284.9 729.3,662.4 731.1,662.4 731.1,283.1 '/>
		<polygon fill = 'rgb( 31, 120, 180)' fill-opacity = '0.250000' points = '731.1,283.1 731.1,662.4 733.0,662.4 733.0,281.2 '/>
		<polygon fill = 'rgb( 31, 120, 180)' fill-opacity = '0.250000' points = '733.0,281.2 733.0,662.4 734.9,662.4 734.9,279.3 '/>
		<polygon fill = 'rgb( 31, 120, 180)' fill-opacity = '0.250000' points = '734.9,279.3 734.9,662.4 736.8,662.4 736.8,277.3 '/>
		<polygon fill = 'rgb( 31, 120, 180)' fill-opacity = '0.250000' points = '736.8,277.3 736.8,662.4 738.6,662.4 738.6,275.4 '/>
		<polygon fill = 'rgb( 31, 120, 180)' fill-opacity = '0.250000' points = '738.6,275.4 738.6,662.4 740.5,662.4 740.5,273.6 '/>
		<polygon fill = 'rgb( 31, 120, 180)' fill-opacity = '0.250000' points = '740.5,273.6 740.5,662.4 742.4,662.4 742.4,272.0 '/>
		<polygon fill = 'rgb( 31, 120, 180)' fill-opacity = '0.250000' points = '742.4,272.0 742.4,662.4 744.2,662.4 744.2,270.5 '/>
		<polygon fill = 'rgb( 31, 120, 180)' fill-opacity = '0.250000' points = '744.2,270.5 744.2,662.4 746.1,662.4 746.1,269.3 '/>
		<polygon fill = 'rgb( 31, 120, 180)' fill-opacity = '0.250000' points = '746.1,269.3 746.1,662.4 748.0,662.4 748.0,268.4 '/>
		<polygon fill = 'rgb( 31, 120, 180)' fill-opacity = '0.250000' points = '748.0,268.4 748.0,662.4 749.9,662.4 749.9,267.7 '/>
		<polygon fill = 'rgb( 31, 120, 180)' fill-opacity = '0.250000' points = '749.9,267.7 749.9,662.4 751.7,662.4 751.7,267.3 '/>
		<polygon fill = 'rgb( 31, 120, 180)' fill-opacity = '0.250000' points = '751.7,267.3 751.7,662.4 753.6,662.4 753.6,267.3 '/>
		<polygon fill = 'rgb( 31, 120, 180)' fill-opacity = '0.250000' points = '753.6,267.3 753.6,662.4 755.5,662.4 755.5,267.5 '/>
		<polygon fill = 'rgb( 31, 120, 180)' fill-opacity = '0.250000' points = '755.5,267.5 755.5,662.4 757.3,662.4 757.3,268.1 '/>
		<polygon fill = 'rgb( 31, 120, 180)' fill-opacity = '0.250000' points = '757.3,268.1 757.3,662.4 759.2,662.4 759.2,268.9 '/>
		<polygon fill = 'rgb( 31, 120, 180)' fill-opacity = '0.250000' points = '759.2,268.9 759.2,662.4 761.1,662.4 761.1,270.0 '/>
		<polygon fill = 'rgb( 31, 120, 180)' fill-opacity = '0.250000' points = '761.1,270.0 761.1,662.4 762.9,662.4 762.9,271.3 '/>
		<polygon fill = 'rgb( 31, 120, 180)' fill-opacity = '0.250000' points = '762.9,271.3 762.9,662.4 764.8,662.4 764.8,272.8 '/>
		<polygon fill = 'rgb( 31, 120, 180)' fill-opacity = '0.250000' points = '764.8,272.8 764.8,662.4 766.7,662.4 766.7,274.4 '/>
		<polygon fill = 'rgb( 31, 120, 180)' fill-opacity = '0.250000' points = '766.7,274.4 766.7,662.4 768.6,662.4 768.6,276.2 '/>
		<polygon fill = 'rgb( 31, 120, 180)' fill-opacity = '0.250000' points = '768.6,276.2 768.6,662.4 770.4,662.4 770.4,278.0 '/>
		<polygon fill = 'rgb( 31, 120, 180)' fill-opacity = '0.250000' points = '770.4,278.0 770.4,662.4 772.3,662.4 772.3,279.9 '/>
		<polygon fill = 'rgb( 31, 120, 180)' fill-opacity = '0.250000' points = '772.3,279.9 772.3,662.4 774.2,662.4 774.2,281.8 '/>
		<polygon fill = 'rgb( 31, 120, 180)' fill-opacity = '0.250000' points = '774.2,281.8 774.2,662.4 776.0,662.4 776.0,283.7 '/>
		<polygon fill = 'rgb( 31, 120, 180)' fill-opacity = '0.250000' points = '776.0,283.7 776.0,662.4 777.9,662.4 777.9,285.5 '/>
		<polygon fill = 'rgb( 31, 120, 180)' fill-opacity = '0.250000' points = '777.9,285.5 777.9,662.4 779.8,662.4 779.8,287.3 '/>
		<polygon fill = 'rgb( 31, 120, 180)' fill-opacity = '0.250000' points = '779.8,287.3 779.8,662.4 781.7,662.4 781.7,289.0 '/>
		<polygon fill = 'rgb( 31, 120, 180)' fill-opacity = '0.250000' points = '781.7,289.0 781.7,662.4 783.5,662.4 783.5,290.6 '/>
		<polygon fill = 'rgb( 31, 120, 180)' fill-opacity = '0.250000' points = '783.5,290.6 783.5,662.4 785.4,662.4 785.4,292.1 '/>
		<polygon fill = 'rgb( 31, 120, 180)' fill-opacity = '0.250000' points = '785.4,292.1 785.4,662.4 787.3,662.4 787.3,293.5 '/>
		<polygon fill = 'rgb( 31, 120, 180)' fill-opacity = '0.250000' points = '787.3,293.5 787.3,662.4 789.1,662.4 789.1,294.8 '/>
		<polygon fill = 'rgb( 31, 120, 180)' fill-opacity = '0.250000' points = '789.1,294.8 789.1,662.4 791.0,662.4 791.0,296.1 '/>
		<polygon fill = 'rgb( 31, 120, 180)' fill-opacity = '0.250000' points = '791.0,296.1 791.0,662.4 792.9,662.4 792.9,297.3 '/>
		<polygon fill = 'rgb( 31, 120, 180)' fill-opacity = '0.250000' points = '792.9,297.3 792.9,662.4 794.7,662.4 794.7,298.5 '/>
		<polygon fill = 'rgb( 31, 120, 180)' fill-opacity = '0.250000' points = '794.7,298.5 794.7,662.4 796.6,662.4 796.6,299.6 '/>
		<polygon fill = 'rgb( 31, 120, 180)' fill-opacity = '0.250000' points = '796.6,299.6 796.6,662.4 798.5,662.4 798.5,300.7 '/>
		<polygon fill = 'rgb( 31, 120, 180)' fill-opacity = '0.250000' points = '798.5,300.7 798.5,662.4 800.4,662.4 800.4,301.9 '/>
		<polygon fill = 'rgb( 31, 120, 180)' fill-opacity = '0.250000' points = '800.4,301.9 800.4,662.4 802.2,662.4 802.2,303.1 '/>
		<polygon fill = 'rgb( 31, 120, 180)' fill-opacity = '0.250000' points = '802.2,303.1 802.2,662.4 804.1,662.4 804.1,304.3 '/>
		<polygon fill = 'rgb( 31, 120, 180)' fill-opacity = '0.250000' points = '804.1,304.3 804.1,662.4 806.0,662.4 806.0,305.6 '/>
		<polygon fill = 'rgb( 31, 120, 180)' fill-opacity = '0.250000' points = '806.0,305.6 806.0,662.4 807.8,662.4 807.8,306.9 '/>
		<polygon fill = 'rgb( 31, 120, 180)' fill-opacity = '0.250000' points = '807.8,306.9 807.8,662.4 809.7,662.4 809.7,308.3 '/>
		<polygon fill = 'rgb( 31, 120, 180)' fill-opacity = '0.250000' points = '809.7,308.3 809.7,662.4 811.6,662.4 811.6,309.8 '/>
		<polygon fill = 'rgb( 31, 120, 180)' fill-opacity = '0.250000' points = '811.6,309.8 811.6,662.4 813.5,662.4 813.5,311.4 '/>
		<polygon fill = 'rgb( 31, 120, 180)' fill-opacity = '0.250000' points = '813.5,311.4 813.5,662.4 815.3,662.4 815.3,313.0 '/>
		<polygon fill = 'rgb( 31, 120, 180)' fill-opacity = '0.250000' points = '815.3,313.0 815.3,662.4 817.2,662.4 817.2,314.7 '/>
		<polygon fill = 'rgb( 31, 120, 180)' fill-opacity = '0.250000' points = '817.2,314.7 817.2,662.4 819.1,662.4 819.1,316.6 '/>
		<polygon fill = 'rgb( 31, 120, 180)' fill-opacity = '0.250000' points = '819.1,316.6 819.1,662.4 820.9,662.4 820.9,318.5 '/>
		<polygon fill = 'rgb( 31, 120, 180)' fill-opacity = '0.250000' points = '820.9,318.5 820.9,662.4 822.8,662.4 822.8,320.5 '/>
		<polygon fill = 'rgb( 31, 120, 180)' fill-opacity = '0.250000' points = '822.8,320.5 822.8,662.4 824.7,662.4 824.7,322.6 '/>
		<polygon fill = 'rgb( 31, 120, 180)' fill-opacity = '0.250000' points = '824.7,322.6 824.7,662.4 826.5,662.4 826.5,324.7 '/>
		<polygon fill = 'rgb( 31, 120, 180)' fill-opacity = '0.250000' points = '826.5,324.7 826.5,662.4 828.4,662.4 828.4,327.0 '/>
		<polygon fill = 'rgb( 31, 120, 180)' fill-opacity = '0.250000' points = '828.4,327.0 828.4,662.4 830.3,662.4 830.3,329.3 '/>
		<polygon fill = 'rgb( 31, 120, 180)' fill-opacity = '0.250000' points = '830.3,329.3 830.3,662.4 832.2,662.4 832.2,331.8 '/>
		<polygon fill = 'rgb( 31, 120, 180)' fill-opacity = '0.250000' points = '832.2,331.8 832.2,662.4 834.0,662.4 834.0,334.3 '/>
		<polygon fill = 'rgb( 31, 120, 180)' fill-opacity = '0.250000' points = '834.0,334.3 834.0,662.4 835.9,662.4 835.9,336.9 '/>
		<polygon fill = 'rgb( 31, 120, 180)' fill-opacity = '0.250000' points = '835.9,336.9 835.9,662.4 837.8,662.4 837.8,339.5 '/>
		<polygon fill = 'rgb( 31, 120, 180)' fill-opacity = '0.250000' points = '837.8,339.5 837.8,662.4 839.6,662.4 839.6,342.3 '/>
		<polygon fill = 'rgb( 31, 120, 180)' fill-opacity = '0.250000' points = '839.6,342.3 839.6,662.4 841.5,662.4 841.5,345.2 '/>
		<polygon fill = 'rgb( 31, 120, 180)' fill-opacity = '0.250000' points = '841.5,345.2 841.5,662.4 843.4,662.4 843.4,348.1 '/>
		<polygon fill = 'rgb( 31, 120, 180)' fill-opacity = '0.250000' points = '843.4,348.1 843.4,662.4 845.3,662.4 845.3,351.1 '/>
		<polygon fill = 'rgb( 31, 120, 180)' fill-opacity = '0.250000' points = '845.3,351.1 845.3,662.4 847.1,662.4 847.1,354.2 '/>
		<polygon fill = 'rgb( 31, 120, 180)' fill-opacity = '0.250000' points = '847.1,354.2 847.1,662.4 849.0,662.4 849.0,357.4 '/>
		<polygon fill = 'rgb( 31, 120, 180)' fill-opacity = '0.250000' points = '849.0,357.4 849.0,662.4 850.9,662.4 850.9,360.7 '/>
		<polygon fill = 'rgb( 31, 120, 180)' fill-opacity = '0.250000' points = '850.9,360.7 850.9,662.4 852.7,662.4 852.7,364.1 '/>
		<polygon fill = 'rgb( 31, 120, 180)' fill-opacity = '0.250000' points = '852.7,364.1 852.7,662.4 854.6,662.4 854.6,367.6 '/>
		<polygon fill = 'rgb( 31, 120, 180)' fill-opacity = '0.250000' points = '854.6,367.6 854.6,662.4 856.5,662.4 856.5,371.1 '/>
		<polygon fill = 'rgb( 31, 120, 180)' fill-opacity = '0.250000' points = '856.5,371.1 856.5,662.4 858.3,662.4 858.3,374.8 '/>
		<polygon fill = 'rgb( 31, 120, 180)' fill-opacity = '0.250000' points = '858.3,374.8 858.3,662.4 860.2,662.4 860.2,378.6 '/>
		<polygon fill = 'rgb( 31, 120, 180)' fill-opacity = '0.250000' points = '860.2,378.6 860.2,662.4 862.1,662.4 862.1,382.5 '/>
		<polygon fill = 'rgb( 31, 120, 180)' fill-opacity = '0.250000' points = '862.1,382.5 862.1,662.4 864.0,662.4 864.0,386.5 '/>
		<polygon fill = 'rgb( 31, 120, 180)' fill-opacity = '0.250000' points = '864.0,386.5 864.0,662.4 865.8,662.4 865.8,390.6 '/>
		<polygon fill = 'rgb( 31, 120, 180)' fill-opacity = '0.250000' points = '865.8,390.6 865.8,662.4 867.7,662.4 867.7,394.8 '/>
		<polygon fill = 'rgb( 31, 120, 180)' fill-opacity = '0.250000' points = '867.7,394.8 867.7,662.4 869.6,662.4 869.6,399.2 '/>
		<polygon fill = 'rgb( 31, 120, 180)' fill-opacity = '0.250000' points = '869.6,399.2 869.6,662.4 871.4,662.4 871.4,403.7 '/>
		<polygon fill = 'rgb( 31, 120, 180)' fill-opacity = '0.250000' points = '871.4,403.7 871.4,662.4 873.3,662.4 873.3,408.3 '/>
		<polygon fill = 'rgb( 31, 120, 180)' fill-opacity = '0.250000' points = '873.3,408.3 873.3,662.4 875.2,662.4 875.2,413.1 '/>
		<polygon fill = 'rgb( 31, 120, 180)' fill-opacity = '0.250000' points = '875.2,413.1 875.2,662.4 877.1,662.4 877.1,417.9 '/>
		<polygon fill = 'rgb( 31, 120, 180)' fill-opacity = '0.250000' points = '877.1,417.9 877.1,662.4 878.9,662.4 878.9,422.9 '/>
		<polygon fill = 'rgb( 31, 120, 180)' fill-opacity = '0.250000' points = '878.9,422.9 878.9,662.4 880.8,662.4 880.8,428.1 '/>
		<polygon fill = 'rgb( 31, 120, 180)' fill-opacity = '0.250000' points = '880.8,428.1 880.8,662.4 882.7,662.4 882.7,433.3 '/>
		<polygon fill = 'rgb( 31, 120, 180)' fill-opacity = '0.250000' points = '882.7,433.3 882.7,662.4 884.5,662.4 884.5,438.7 '/>
		<polygon fill = 'rgb( 31, 120, 180)' fill-opacity = '0.250000' points = '884.5,438.7 884.5,662.4 886.4,662.4 886.4,444.1 '/>
		<polygon fill = 'rgb( 31, 120, 180)' fill-opacity = '0.250000' points = '886.4,444.1 886.4,662.4 888.3,662.4 888.3,449.6 '/>
		<polygon fill = 'rgb( 31, 120, 180)' fill-opacity = '0.250000' points = '888.3,449.6 888.3,662.4 890.1,662.4 890.1,455.1 '/>
		<polygon fill = 'rgb( 31, 120, 180)' fill-opacity = '0.250000' points = '890.1,455.1 890.1,662.4 892.0,662.4 892.0,460.7 '/>
		<polygon fill = 'rgb( 31, 120, 180)' fill-opacity = '0.250000' points = '892.0,460.7 892.0,662.4 893.9,662.4 893.9,466.3 '/>
		<polygon fill = 'rgb( 31, 120, 180)' fill-opacity = '0.250000' points = '893.9,466.3 893.9,662.4 895.8,662.4 895.8,471.8 '/>
		<polygon fill = 'rgb( 31, 120, 180)' fill-opacity = '0.250000' points = '895.8,471.8 895.8,662.4 897.6,662.4 897.6,477.4 '/>
		<polygon fill = 'rgb( 31, 120, 180)' fill-opacity = '0.250000' points = '897.6,477.4 897.6,662.4 899.5,662.4 899.5,482.8 '/>
		<polygon fill = 'rgb( 31, 120, 180)' fill-opacity = '0.250000' points = '899.5,482.8 899.5,662.4 901.4,662.4 901.4,488.2 '/>
		<polygon fill = 'rgb( 31, 120, 180)' fill-opacity = '0.250000' points = '901.4,488.2 901.4,662.4 903.2,662.4 903.2,493.4 '/>
		<polygon fill = 'rgb( 31, 120, 180)' fill-opacity = '0.250000' points = '903.2,493.4 903.2,662.4 905.1,662.4 905.1,498.5 '/>
		<polygon fill = 'rgb( 31, 120, 180)' fill-opacity = '0.250000' points = '905.1,498.5 905.1,662.4 907.0,662.4 907.0,503.4 '/>
		<polygon fill = 'rgb( 31, 120, 180)' fill-opacity = '0.250000' points = '907.0,503.4 907.0,662.4 908.8,662.4 908.8,508.2 '/>
		<polygon fill = 'rgb( 31, 120, 180)' fill-opacity = '0.250000' points = '908.8,508.2 908.8,662.4 910.7,662.4 910.7,512.8 '/>
		<polygon fill = 'rgb( 31, 120, 180)' fill-opacity = '0.250000' points = '910.7,512.8 910.7,662.4 912.6,662.4 912.6,517.2 '/>
		<polygon fill = 'rgb( 31, 120, 180)' fill-opacity = '0.250000' points = '912.6,517.2 912.6,662.4 914.5,662.4 914.5,521.3 '/>
		<polygon fill = 'rgb( 31, 120, 180)' fill-opacity = '0.250000' points = '914.5,521.3 914.5,662.4 916.3,662.4 916.3,525.3 '/>
		<polygon fill = 'rgb( 31, 120, 180)' fill-opacity = '0.250000' points = '916.3,525.3 916.3,662.4 918.2,662.4 918.2,529.1 '/>
		<polygon fill = 'rgb( 31, 120, 180)' fill-opacity = '0.250000' points = '918.2,529.1 918.2,662.4 920.1,662.4 920.1,532.7 '/>
		<polygon fill = 'rgb( 31, 120, 180)' fill-opacity = '0.250000' points = '920.1,532.7 920.1,662.4 921.9,662.4 921.9,536.0 '/>
		<polygon fill = 'rgb( 31, 120, 180)' fill-opacity = '0.250000' points = '921.9,536.0 921.9,662.4 923.8,662.4 923.8,539.2 '/>
		<polygon fill = 'rgb( 31, 120, 180)' fill-opacity = '0.250000' points = '923.8,539.2 923.8,662.4 925.7,662.4 925.7,542.2 '/>
	</g>
</g>
	</g>
	<g id="gnuplot_plot_3" ><title>Point estimate</title>
<g fill="none" color="white" stroke="rgb( 31, 120, 180)" stroke-width="2.00" stroke-linecap="butt" stroke-linejoin="miter">
</g>
<g fill="none" color="black" stroke="currentColor" stroke-width="2.00" stroke-linecap="butt" stroke-linejoin="miter">
	<g transform="translate(1089.0,103.0)" stroke="none" fill="black" font-family="Helvetica" font-size="12.00"  text-anchor="start">
		<text><tspan font-family="Helvetica" >Point estimate</tspan></text>
	</g>
</g>
<g fill="none" color="black" stroke="currentColor" stroke-width="2.00" stroke-linecap="butt" stroke-linejoin="miter">
	<path stroke='rgb( 31, 120, 180)'  d='M1038.5,99.1 L1080.7,99.1 M565.1,662.4 L565.1,60.8  '/></g>
	</g>
	<g id="gnuplot_plot_4" ><title>Noise threshold</title>
<g fill="none" color="white" stroke="rgb( 31, 120, 180)" stroke-width="1.00" stroke-linecap="butt" stroke-linejoin="miter">
</g>
<g fill="none" color="black" stroke="currentColor" stroke-width="1.00" stroke-linecap="butt" stroke-linejoin="miter">
	<g transform="translate(1089.0,121.0)" stroke="none" fill="black" font-family="Helvetica" font-size="12.00"  text-anchor="start">
		<text><tspan font-family="Helvetica" >Noise threshold</tspan></text>
	</g>
</g>
<g fill="none" color="black" stroke="currentColor" stroke-width="1.00" stroke-linecap="butt" stroke-linejoin="miter">
	<g stroke='none' shape-rendering='crispEdges'>
		<polygon fill = 'rgb(227,  26,  28)' fill-opacity = '0.100000' points = '1038.5,121.6 1080.7,121.6 1080.7,112.6 1038.5,112.6 '/>
		<polygon fill = 'rgb(227,  26,  28)' fill-opacity = '0.100000' points = '80.2,54.1 80.2,662.4 1013.6,662.4 1013.6,54.1 '/>
	</g>
</g>
	</g>
<g fill="none" color="white" stroke="rgb(227,  26,  28)" stroke-width="2.00" stroke-linecap="butt" stroke-linejoin="miter">
</g>
<g fill="none" color="black" stroke="currentColor" stroke-width="2.00" stroke-linecap="butt" stroke-linejoin="miter">
</g>
<g fill="none" color="black" stroke="black" stroke-width="1.00" stroke-linecap="butt" stroke-linejoin="miter">
</g>
<g fill="none" color="black" stroke="currentColor" stroke-width="1.00" stroke-linecap="butt" stroke-linejoin="miter">
	<path stroke='black'  d='M80.2,54.1 L80.2,662.4 L1013.6,662.4 L1013.6,54.1 L80.2,54.1 Z  '/></g>
<g fill="none" color="black" stroke="currentColor" stroke-width="1.00" stroke-linecap="butt" stroke-linejoin="miter">
</g>
</g>
</svg>

