<?xml version="1.0" encoding="utf-8"  standalone="no"?>
<!DOCTYPE svg PUBLIC "-//W3C//DTD SVG 1.1//EN"
 "http://www.w3.org/Graphics/SVG/1.1/DTD/svg11.dtd">
<svg 
 viewBox="0 0 1280 720"
 xmlns="http://www.w3.org/2000/svg"
 xmlns:xlink="http://www.w3.org/1999/xlink"
>

<title>Gnuplot</title>
<desc>Produced by GNUPLOT 5.0 patchlevel 5 </desc>

<g id="gnuplot_canvas">

<rect x="0" y="0" width="1280" height="720" fill="none"/>
<defs>

	<circle id='gpDot' r='0.5' stroke-width='0.5'/>
	<path id='gpPt0' stroke-width='0.222' stroke='currentColor' d='M-1,0 h2 M0,-1 v2'/>
	<path id='gpPt1' stroke-width='0.222' stroke='currentColor' d='M-1,-1 L1,1 M1,-1 L-1,1'/>
	<path id='gpPt2' stroke-width='0.222' stroke='currentColor' d='M-1,0 L1,0 M0,-1 L0,1 M-1,-1 L1,1 M-1,1 L1,-1'/>
	<rect id='gpPt3' stroke-width='0.222' stroke='currentColor' x='-1' y='-1' width='2' height='2'/>
	<rect id='gpPt4' stroke-width='0.222' stroke='currentColor' fill='currentColor' x='-1' y='-1' width='2' height='2'/>
	<circle id='gpPt5' stroke-width='0.222' stroke='currentColor' cx='0' cy='0' r='1'/>
	<use xlink:href='#gpPt5' id='gpPt6' fill='currentColor' stroke='none'/>
	<path id='gpPt7' stroke-width='0.222' stroke='currentColor' d='M0,-1.33 L-1.33,0.67 L1.33,0.67 z'/>
	<use xlink:href='#gpPt7' id='gpPt8' fill='currentColor' stroke='none'/>
	<use xlink:href='#gpPt7' id='gpPt9' stroke='currentColor' transform='rotate(180)'/>
	<use xlink:href='#gpPt9' id='gpPt10' fill='currentColor' stroke='none'/>
	<use xlink:href='#gpPt3' id='gpPt11' stroke='currentColor' transform='rotate(45)'/>
	<use xlink:href='#gpPt11' id='gpPt12' fill='currentColor' stroke='none'/>
	<path id='gpPt13' stroke-width='0.222' stroke='currentColor' d='M0,1.330 L1.265,0.411 L0.782,-1.067 L-0.782,-1.076 L-1.265,0.411 z'/>
	<use xlink:href='#gpPt13' id='gpPt14' fill='currentColor' stroke='none'/>
	<filter id='textbox' filterUnits='objectBoundingBox' x='0' y='0' height='1' width='1'>
	  <feFlood flood-color='white' flood-opacity='1' result='bgnd'/>
	  <feComposite in='SourceGraphic' in2='bgnd' operator='atop'/>
	</filter>
	<filter id='greybox' filterUnits='objectBoundingBox' x='0' y='0' height='1' width='1'>
	  <feFlood flood-color='lightgrey' flood-opacity='1' result='grey'/>
	  <feComposite in='SourceGraphic' in2='grey' operator='atop'/>
	</filter>
</defs>
<g fill="none" color="white" stroke="currentColor" stroke-width="1.00" stroke-linecap="butt" stroke-linejoin="miter">
</g>
<g fill="none" color="black" stroke="currentColor" stroke-width="1.00" stroke-linecap="butt" stroke-linejoin="miter">
	<path stroke='black'  d='M63.6,662.4 L72.6,662.4  '/>	<g transform="translate(55.3,666.3)" stroke="none" fill="black" font-family="Helvetica" font-size="12.00"  text-anchor="end">
		<text><tspan font-family="Helvetica" > 0</tspan></text>
	</g>
</g>
<g fill="none" color="black" stroke="currentColor" stroke-width="1.00" stroke-linecap="butt" stroke-linejoin="miter">
	<path stroke='black'  d='M63.6,594.8 L72.6,594.8  '/>	<g transform="translate(55.3,598.7)" stroke="none" fill="black" font-family="Helvetica" font-size="12.00"  text-anchor="end">
		<text><tspan font-family="Helvetica" > 10</tspan></text>
	</g>
</g>
<g fill="none" color="black" stroke="currentColor" stroke-width="1.00" stroke-linecap="butt" stroke-linejoin="miter">
	<path stroke='black'  d='M63.6,527.2 L72.6,527.2  '/>	<g transform="translate(55.3,531.1)" stroke="none" fill="black" font-family="Helvetica" font-size="12.00"  text-anchor="end">
		<text><tspan font-family="Helvetica" > 20</tspan></text>
	</g>
</g>
<g fill="none" color="black" stroke="currentColor" stroke-width="1.00" stroke-linecap="butt" stroke-linejoin="miter">
	<path stroke='black'  d='M63.6,459.6 L72.6,459.6  '/>	<g transform="translate(55.3,463.5)" stroke="none" fill="black" font-family="Helvetica" font-size="12.00"  text-anchor="end">
		<text><tspan font-family="Helvetica" > 30</tspan></text>
	</g>
</g>
<g fill="none" color="black" stroke="currentColor" stroke-width="1.00" stroke-linecap="butt" stroke-linejoin="miter">
	<path stroke='black'  d='M63.6,392.0 L72.6,392.0  '/>	<g transform="translate(55.3,395.9)" stroke="none" fill="black" font-family="Helvetica" font-size="12.00"  text-anchor="end">
		<text><tspan font-family="Helvetica" > 40</tspan></text>
	</g>
</g>
<g fill="none" color="black" stroke="currentColor" stroke-width="1.00" stroke-linecap="butt" stroke-linejoin="miter">
	<path stroke='black'  d='M63.6,324.5 L72.6,324.5  '/>	<g transform="translate(55.3,328.4)" stroke="none" fill="black" font-family="Helvetica" font-size="12.00"  text-anchor="end">
		<text><tspan font-family="Helvetica" > 50</tspan></text>
	</g>
</g>
<g fill="none" color="black" stroke="currentColor" stroke-width="1.00" stroke-linecap="butt" stroke-linejoin="miter">
	<path stroke='black'  d='M63.6,256.9 L72.6,256.9  '/>	<g transform="translate(55.3,260.8)" stroke="none" fill="black" font-family="Helvetica" font-size="12.00"  text-anchor="end">
		<text><tspan font-family="Helvetica" > 60</tspan></text>
	</g>
</g>
<g fill="none" color="black" stroke="currentColor" stroke-width="1.00" stroke-linecap="butt" stroke-linejoin="miter">
	<path stroke='black'  d='M63.6,189.3 L72.6,189.3  '/>	<g transform="translate(55.3,193.2)" stroke="none" fill="black" font-family="Helvetica" font-size="12.00"  text-anchor="end">
		<text><tspan font-family="Helvetica" > 70</tspan></text>
	</g>
</g>
<g fill="none" color="black" stroke="currentColor" stroke-width="1.00" stroke-linecap="butt" stroke-linejoin="miter">
	<path stroke='black'  d='M63.6,121.7 L72.6,121.7  '/>	<g transform="translate(55.3,125.6)" stroke="none" fill="black" font-family="Helvetica" font-size="12.00"  text-anchor="end">
		<text><tspan font-family="Helvetica" > 80</tspan></text>
	</g>
</g>
<g fill="none" color="black" stroke="currentColor" stroke-width="1.00" stroke-linecap="butt" stroke-linejoin="miter">
	<path stroke='black'  d='M63.6,54.1 L72.6,54.1  '/>	<g transform="translate(55.3,58.0)" stroke="none" fill="black" font-family="Helvetica" font-size="12.00"  text-anchor="end">
		<text><tspan font-family="Helvetica" > 90</tspan></text>
	</g>
</g>
<g fill="none" color="black" stroke="currentColor" stroke-width="1.00" stroke-linecap="butt" stroke-linejoin="miter">
	<path stroke='black'  d='M100.6,662.4 L100.6,653.4  '/>	<g transform="translate(100.6,684.3)" stroke="none" fill="black" font-family="Helvetica" font-size="12.00"  text-anchor="middle">
		<text><tspan font-family="Helvetica" > 13.69</tspan></text>
	</g>
</g>
<g fill="none" color="black" stroke="currentColor" stroke-width="1.00" stroke-linecap="butt" stroke-linejoin="miter">
	<path stroke='black'  d='M300.1,662.4 L300.1,653.4  '/>	<g transform="translate(300.1,684.3)" stroke="none" fill="black" font-family="Helvetica" font-size="12.00"  text-anchor="middle">
		<text><tspan font-family="Helvetica" > 13.695</tspan></text>
	</g>
</g>
<g fill="none" color="black" stroke="currentColor" stroke-width="1.00" stroke-linecap="butt" stroke-linejoin="miter">
	<path stroke='black'  d='M499.6,662.4 L499.6,653.4  '/>	<g transform="translate(499.6,684.3)" stroke="none" fill="black" font-family="Helvetica" font-size="12.00"  text-anchor="middle">
		<text><tspan font-family="Helvetica" > 13.7</tspan></text>
	</g>
</g>
<g fill="none" color="black" stroke="currentColor" stroke-width="1.00" stroke-linecap="butt" stroke-linejoin="miter">
	<path stroke='black'  d='M699.1,662.4 L699.1,653.4  '/>	<g transform="translate(699.1,684.3)" stroke="none" fill="black" font-family="Helvetica" font-size="12.00"  text-anchor="middle">
		<text><tspan font-family="Helvetica" > 13.705</tspan></text>
	</g>
</g>
<g fill="none" color="black" stroke="currentColor" stroke-width="1.00" stroke-linecap="butt" stroke-linejoin="miter">
	<path stroke='black'  d='M898.6,662.4 L898.6,653.4  '/>	<g transform="translate(898.6,684.3)" stroke="none" fill="black" font-family="Helvetica" font-size="12.00"  text-anchor="middle">
		<text><tspan font-family="Helvetica" > 13.71</tspan></text>
	</g>
</g>
<g fill="none" color="black" stroke="currentColor" stroke-width="1.00" stroke-linecap="butt" stroke-linejoin="miter">
</g>
<g fill="none" color="black" stroke="currentColor" stroke-width="1.00" stroke-linecap="butt" stroke-linejoin="miter">
	<path stroke='black'  d='M63.6,54.1 L63.6,662.4 L1013.6,662.4 L1013.6,54.1 L63.6,54.1 Z  '/></g>
<g fill="none" color="black" stroke="currentColor" stroke-width="1.00" stroke-linecap="butt" stroke-linejoin="miter">
	<g transform="translate(17.0,358.3) rotate(270)" stroke="none" fill="black" font-family="Helvetica" font-size="12.00"  text-anchor="middle">
		<text><tspan font-family="Helvetica" >Density (a.u.)</tspan></text>
	</g>
</g>
<g fill="none" color="black" stroke="currentColor" stroke-width="1.00" stroke-linecap="butt" stroke-linejoin="miter">
	<g transform="translate(538.6,711.3)" stroke="none" fill="black" font-family="Helvetica" font-size="12.00"  text-anchor="middle">
		<text><tspan font-family="Helvetica" >Average time (ms)</tspan></text>
	</g>
</g>
<g fill="none" color="black" stroke="currentColor" stroke-width="1.00" stroke-linecap="butt" stroke-linejoin="miter">
	<g transform="translate(538.6,31.0)" stroke="none" fill="black" font-family="Helvetica" font-size="12.00"  text-anchor="middle">
		<text><tspan font-family="Helvetica" >dlist arena rwlock init: mean</tspan></text>
	</g>
</g>
	<g id="gnuplot_plot_1" ><title>Bootstrap distribution</title>
<g fill="none" color="white" stroke="black" stroke-width="2.00" stroke-linecap="butt" stroke-linejoin="miter">
</g>
<g fill="none" color="black" stroke="currentColor" stroke-width="2.00" stroke-linecap="butt" stroke-linejoin="miter">
	<g transform="translate(1089.0,67.0)" stroke="none" fill="black" font-family="Helvetica" font-size="12.00"  text-anchor="start">
		<text><tspan font-family="Helvetica" >Bootstrap distribution</tspan></text>
	</g>
</g>
<g fill="none" color="black" stroke="currentColor" stroke-width="2.00" stroke-linecap="butt" stroke-linejoin="miter">
	<path stroke='rgb( 31, 120, 180)'  d='M1038.5,63.1 L1080.7,63.1 M63.6,633.2 L65.5,632.2 L67.4,631.0 L69.3,629.9 L71.2,628.7 L73.1,627.5
		L75.0,626.3 L76.9,625.0 L78.8,623.6 L80.7,622.2 L82.6,620.8 L84.5,619.3 L86.4,617.8 L88.3,616.2
		L90.3,614.6 L92.2,613.0 L94.1,611.3 L96.0,609.6 L97.9,607.8 L99.8,605.9 L101.7,604.1 L103.6,602.2
		L105.5,600.2 L107.4,598.2 L109.3,596.2 L111.2,594.1 L113.1,592.0 L115.0,589.9 L116.9,587.7 L118.8,585.5
		L120.7,583.2 L122.6,581.0 L124.5,578.7 L126.4,576.3 L128.3,574.0 L130.2,571.6 L132.1,569.2 L134.0,566.8
		L135.9,564.4 L137.8,561.9 L139.8,559.5 L141.7,557.0 L143.6,554.5 L145.5,552.0 L147.4,549.5 L149.3,546.9
		L151.2,544.4 L153.1,541.8 L155.0,539.2 L156.9,536.6 L158.8,534.0 L160.7,531.4 L162.6,528.7 L164.5,526.1
		L166.4,523.4 L168.3,520.6 L170.2,517.8 L172.1,515.0 L174.0,512.1 L175.9,509.2 L177.8,506.2 L179.7,503.2
		L181.6,500.1 L183.5,497.0 L185.4,493.8 L187.3,490.5 L189.3,487.2 L191.2,483.8 L193.1,480.3 L195.0,476.8
		L196.9,473.2 L198.8,469.6 L200.7,466.0 L202.6,462.3 L204.5,458.6 L206.4,454.8 L208.3,451.1 L210.2,447.3
		L212.1,443.5 L214.0,439.8 L215.9,436.0 L217.8,432.2 L219.7,428.5 L221.6,424.7 L223.5,421.0 L225.4,417.3
		L227.3,413.6 L229.2,409.9 L231.1,406.2 L233.0,402.5 L234.9,398.9 L236.8,395.2 L238.8,391.5 L240.7,387.8
		L242.6,384.0 L244.5,380.3 L246.4,376.5 L248.3,372.7 L250.2,368.9 L252.1,365.1 L254.0,361.2 L255.9,357.3
		L257.8,353.4 L259.7,349.4 L261.6,345.5 L263.5,341.6 L265.4,337.6 L267.3,333.7 L269.2,329.7 L271.1,325.8
		L273.0,322.0 L274.9,318.1 L276.8,314.3 L278.7,310.6 L280.6,306.9 L282.5,303.2 L284.4,299.6 L286.3,296.1
		L288.2,292.6 L290.2,289.2 L292.1,285.8 L294.0,282.4 L295.9,279.1 L297.8,275.8 L299.7,272.5 L301.6,269.3
		L303.5,266.1 L305.4,262.9 L307.3,259.6 L309.2,256.4 L311.1,253.2 L313.0,250.0 L314.9,246.8 L316.8,243.5
		L318.7,240.3 L320.6,237.0 L322.5,233.8 L324.4,230.5 L326.3,227.3 L328.2,224.1 L330.1,220.9 L332.0,217.7
		L333.9,214.6 L335.8,211.5 L337.7,208.5 L339.7,205.6 L341.6,202.7 L343.5,199.9 L345.4,197.1 L347.3,194.5
		L349.2,191.9 L351.1,189.4 L353.0,186.9 L354.9,184.5 L356.8,182.2 L358.7,179.9 L360.6,177.6 L362.5,175.4
		L364.4,173.2 L366.3,171.0 L368.2,168.8 L370.1,166.7 L372.0,164.5 L373.9,162.4 L375.8,160.3 L377.7,158.1
		L379.6,156.0 L381.5,153.9 L383.4,151.8 L385.3,149.7 L387.2,147.6 L389.2,145.6 L391.1,143.6 L393.0,141.6
		L394.9,139.8 L396.8,137.9 L398.7,136.2 L400.6,134.5 L402.5,132.8 L404.4,131.3 L406.3,129.9 L408.2,128.5
		L410.1,127.3 L412.0,126.1 L413.9,125.0 L415.8,124.1 L417.7,123.3 L419.6,122.5 L421.5,121.9 L423.4,121.4
		L425.3,120.9 L427.2,120.6 L429.1,120.4 L431.0,120.3 L432.9,120.3 L434.8,120.4 L436.7,120.5 L438.7,120.8
		L440.6,121.1 L442.5,121.5 L444.4,121.9 L446.3,122.3 L448.2,122.8 L450.1,123.4 L452.0,123.9 L453.9,124.4
		L455.8,125.0 L457.7,125.5 L459.6,126.0 L461.5,126.5 L463.4,127.0 L465.3,127.4 L467.2,127.8 L469.1,128.1
		L471.0,128.4 L472.9,128.6 L474.8,128.9 L476.7,129.0 L478.6,129.2 L480.5,129.3 L482.4,129.4 L484.3,129.5
		L486.2,129.6 L488.1,129.7 L490.1,129.9 L492.0,130.1 L493.9,130.3 L495.8,130.6 L497.7,130.9 L499.6,131.4
		L501.5,131.9 L503.4,132.5 L505.3,133.2 L507.2,134.1 L509.1,135.0 L511.0,136.1 L512.9,137.3 L514.8,138.6
		L516.7,140.0 L518.6,141.6 L520.5,143.3 L522.4,145.1 L524.3,147.1 L526.2,149.1 L528.1,151.2 L530.0,153.5
		L531.9,155.8 L533.8,158.2 L535.7,160.7 L537.6,163.2 L539.6,165.8 L541.5,168.4 L543.4,171.0 L545.3,173.6
		L547.2,176.2 L549.1,178.8 L551.0,181.3 L552.9,183.7 L554.8,186.2 L556.7,188.5 L558.6,190.8 L560.5,193.0
		L562.4,195.1 L564.3,197.2 L566.2,199.2 L568.1,201.2 L570.0,203.1 L571.9,204.9 L573.8,206.8 L575.7,208.7
		L577.6,210.5 L579.5,212.4 L581.4,214.3 L583.3,216.3 L585.2,218.3 L587.1,220.3 L589.1,222.5 L591.0,224.7
		L592.9,227.0 L594.8,229.4 L596.7,231.8 L598.6,234.3 L600.5,236.9 L602.4,239.6 L604.3,242.3 L606.2,245.1
		L608.1,247.9 L610.0,250.7 L611.9,253.6 L613.8,256.5 L615.7,259.4 L617.6,262.3 L619.5,265.2 L621.4,268.1
		L623.3,271.0 L625.2,273.9 L627.1,276.7 L629.0,279.5 L630.9,282.3 L632.8,285.0 L634.7,287.8 L636.6,290.4
		L638.5,293.1 L640.5,295.7 L642.4,298.3 L644.3,300.9 L646.2,303.5 L648.1,306.1 L650.0,308.6 L651.9,311.2
		L653.8,313.8 L655.7,316.4 L657.6,319.0 L659.5,321.7 L661.4,324.4 L663.3,327.1 L665.2,329.9 L667.1,332.7
		L669.0,335.5 L670.9,338.4 L672.8,341.3 L674.7,344.2 L676.6,347.1 L678.5,350.1 L680.4,353.1 L682.3,356.1
		L684.2,359.1 L686.1,362.1 L688.0,365.0 L690.0,368.0 L691.9,371.0 L693.8,373.9 L695.7,376.9 L697.6,379.8
		L699.5,382.6 L701.4,385.5 L703.3,388.3 L705.2,391.1 L707.1,393.9 L709.0,396.6 L710.9,399.4 L712.8,402.1
		L714.7,404.8 L716.6,407.5 L718.5,410.1 L720.4,412.8 L722.3,415.4 L724.2,418.0 L726.1,420.6 L728.0,423.2
		L729.9,425.8 L731.8,428.3 L733.7,430.8 L735.6,433.3 L737.5,435.8 L739.5,438.2 L741.4,440.5 L743.3,442.9
		L745.2,445.2 L747.1,447.4 L749.0,449.6 L750.9,451.8 L752.8,453.9 L754.7,456.0 L756.6,458.0 L758.5,460.0
		L760.4,462.0 L762.3,464.0 L764.2,465.9 L766.1,467.9 L768.0,469.8 L769.9,471.7 L771.8,473.6 L773.7,475.6
		L775.6,477.5 L777.5,479.5 L779.4,481.5 L781.3,483.5 L783.2,485.6 L785.1,487.6 L787.0,489.7 L789.0,491.8
		L790.9,493.9 L792.8,496.0 L794.7,498.2 L796.6,500.3 L798.5,502.5 L800.4,504.6 L802.3,506.8 L804.2,508.9
		L806.1,511.0 L808.0,513.1 L809.9,515.2 L811.8,517.2 L813.7,519.2 L815.6,521.2 L817.5,523.2 L819.4,525.1
		L821.3,526.9 L823.2,528.8 L825.1,530.5 L827.0,532.3 L828.9,534.0 L830.8,535.7 L832.7,537.3 L834.6,538.9
		L836.5,540.4 L838.4,541.9 L840.4,543.4 L842.3,544.9 L844.2,546.3 L846.1,547.7 L848.0,549.1 L849.9,550.5
		L851.8,551.8 L853.7,553.2 L855.6,554.5 L857.5,555.8 L859.4,557.1 L861.3,558.4 L863.2,559.6 L865.1,560.9
		L867.0,562.2 L868.9,563.5 L870.8,564.7 L872.7,566.0 L874.6,567.2 L876.5,568.5 L878.4,569.7 L880.3,571.0
		L882.2,572.2 L884.1,573.4 L886.0,574.6 L887.9,575.8 L889.9,577.0 L891.8,578.1 L893.7,579.3 L895.6,580.4
		L897.5,581.5 L899.4,582.6 L901.3,583.7 L903.2,584.7 L905.1,585.8 L907.0,586.8 L908.9,587.9 L910.8,588.9
		L912.7,590.0 L914.6,591.0 L916.5,592.0 L918.4,593.1 L920.3,594.1 L922.2,595.1 L924.1,596.2 L926.0,597.2
		L927.9,598.2 L929.8,599.3 L931.7,600.3 L933.6,601.4 L935.5,602.4 L937.4,603.5 L939.4,604.5 L941.3,605.5
		L943.2,606.6 L945.1,607.6 L947.0,608.6 L948.9,609.6 L950.8,610.6 L952.7,611.6 L954.6,612.5 L956.5,613.4
		L958.4,614.3 L960.3,615.2 L962.2,616.1 L964.1,617.0 L966.0,617.8 L967.9,618.6 L969.8,619.4 L971.7,620.1
		L973.6,620.9 L975.5,621.6 L977.4,622.3 L979.3,623.0 L981.2,623.7 L983.1,624.4 L985.0,625.0 L986.9,625.7
		L988.9,626.3 L990.8,626.9 L992.7,627.5 L994.6,628.1 L996.5,628.7 L998.4,629.3 L1000.3,629.8 L1002.2,630.3
		L1004.1,630.9 L1006.0,631.4 L1007.9,631.9 L1009.8,632.3 L1011.7,632.8 L1013.6,633.2  '/></g>
	</g>
	<g id="gnuplot_plot_2" ><title>Confidence interval</title>
<g fill="none" color="white" stroke="rgb( 31, 120, 180)" stroke-width="1.00" stroke-linecap="butt" stroke-linejoin="miter">
</g>
<g fill="none" color="black" stroke="currentColor" stroke-width="1.00" stroke-linecap="butt" stroke-linejoin="miter">
	<g transform="translate(1089.0,85.0)" stroke="none" fill="black" font-family="Helvetica" font-size="12.00"  text-anchor="start">
		<text><tspan font-family="Helvetica" >Confidence interval</tspan></text>
	</g>
</g>
<g fill="none" color="black" stroke="currentColor" stroke-width="1.00" stroke-linecap="butt" stroke-linejoin="miter">
	<g stroke='none' shape-rendering='crispEdges'>
		<polygon fill = 'rgb( 31, 120, 180)' fill-opacity = '0.250000' points = '1038.5,85.6 1080.7,85.6 1080.7,76.6 1038.5,76.6 '/>
		<polygon fill = 'rgb( 31, 120, 180)' fill-opacity = '0.250000' points = '151.2,544.4 151.2,662.4 153.1,662.4 153.1,541.8 '/>
		<polygon fill = 'rgb( 31, 120, 180)' fill-opacity = '0.250000' points = '153.1,541.8 153.1,662.4 155.0,662.4 155.0,539.2 '/>
		<polygon fill = 'rgb( 31, 120, 180)' fill-opacity = '0.250000' points = '155.0,539.2 155.0,662.4 156.9,662.4 156.9,536.6 '/>
		<polygon fill = 'rgb( 31, 120, 180)' fill-opacity = '0.250000' points = '156.9,536.6 156.9,662.4 158.8,662.4 158.8,534.0 '/>
		<polygon fill = 'rgb( 31, 120, 180)' fill-opacity = '0.250000' points = '158.8,534.0 158.8,662.4 160.7,662.4 160.7,531.4 '/>
		<polygon fill = 'rgb( 31, 120, 180)' fill-opacity = '0.250000' points = '160.7,531.4 160.7,662.4 162.6,662.4 162.6,528.7 '/>
		<polygon fill = 'rgb( 31, 120, 180)' fill-opacity = '0.250000' points = '162.6,528.7 162.6,662.4 164.5,662.4 164.5,526.1 '/>
		<polygon fill = 'rgb( 31, 120, 180)' fill-opacity = '0.250000' points = '164.5,526.1 164.5,662.4 166.4,662.4 166.4,523.4 '/>
		<polygon fill = 'rgb( 31, 120, 180)' fill-opacity = '0.250000' points = '166.4,523.4 166.4,662.4 168.3,662.4 168.3,520.6 '/>
		<polygon fill = 'rgb( 31, 120, 180)' fill-opacity = '0.250000' points = '168.3,520.6 168.3,662.4 170.2,662.4 170.2,517.8 '/>
		<polygon fill = 'rgb( 31, 120, 180)' fill-opacity = '0.250000' points = '170.2,517.8 170.2,662.4 172.1,662.4 172.1,515.0 '/>
		<polygon fill = 'rgb( 31, 120, 180)' fill-opacity = '0.250000' points = '172.1,515.0 172.1,662.4 174.0,662.4 174.0,512.1 '/>
		<polygon fill = 'rgb( 31, 120, 180)' fill-opacity = '0.250000' points = '174.0,512.1 174.0,662.4 175.9,662.4 175.9,509.2 '/>
		<polygon fill = 'rgb( 31, 120, 180)' fill-opacity = '0.250000' points = '175.9,509.2 175.9,662.4 177.8,662.4 177.8,506.2 '/>
		<polygon fill = 'rgb( 31, 120, 180)' fill-opacity = '0.250000' points = '177.8,506.2 177.8,662.4 179.7,662.4 179.7,503.2 '/>
		<polygon fill = 'rgb( 31, 120, 180)' fill-opacity = '0.250000' points = '179.7,503.2 179.7,662.4 181.6,662.4 181.6,500.1 '/>
		<polygon fill = 'rgb( 31, 120, 180)' fill-opacity = '0.250000' points = '181.6,500.1 181.6,662.4 183.5,662.4 183.5,497.0 '/>
		<polygon fill = 'rgb( 31, 120, 180)' fill-opacity = '0.250000' points = '183.5,497.0 183.5,662.4 185.4,662.4 185.4,493.8 '/>
		<polygon fill = 'rgb( 31, 120, 180)' fill-opacity = '0.250000' points = '185.4,493.8 185.4,662.4 187.3,662.4 187.3,490.5 '/>
		<polygon fill = 'rgb( 31, 120, 180)' fill-opacity = '0.250000' points = '187.3,490.5 187.3,662.4 189.3,662.4 189.3,487.2 '/>
		<polygon fill = 'rgb( 31, 120, 180)' fill-opacity = '0.250000' points = '189.3,487.2 189.3,662.4 191.2,662.4 191.2,483.8 '/>
		<polygon fill = 'rgb( 31, 120, 180)' fill-opacity = '0.250000' points = '191.2,483.8 191.2,662.4 193.1,662.4 193.1,480.3 '/>
		<polygon fill = 'rgb( 31, 120, 180)' fill-opacity = '0.250000' points = '193.1,480.3 193.1,662.4 195.0,662.4 195.0,476.8 '/>
		<polygon fill = 'rgb( 31, 120, 180)' fill-opacity = '0.250000' points = '195.0,476.8 195.0,662.4 196.9,662.4 196.9,473.2 '/>
		<polygon fill = 'rgb( 31, 120, 180)' fill-opacity = '0.250000' points = '196.9,473.2 196.9,662.4 198.8,662.4 198.8,469.6 '/>
		<polygon fill = 'rgb( 31, 120, 180)' fill-opacity = '0.250000' points = '198.8,469.6 198.8,662.4 200.7,662.4 200.7,466.0 '/>
		<polygon fill = 'rgb( 31, 120, 180)' fill-opacity = '0.250000' points = '200.7,466.0 200.7,662.4 202.6,662.4 202.6,462.3 '/>
		<polygon fill = 'rgb( 31, 120, 180)' fill-opacity = '0.250000' points = '202.6,462.3 202.6,662.4 204.5,662.4 204.5,458.6 '/>
		<polygon fill = 'rgb( 31, 120, 180)' fill-opacity = '0.250000' points = '204.5,458.6 204.5,662.4 206.4,662.4 206.4,454.8 '/>
		<polygon fill = 'rgb( 31, 120, 180)' fill-opacity = '0.250000' points = '206.4,454.8 206.4,662.4 208.3,662.4 208.3,451.1 '/>
		<polygon fill = 'rgb( 31, 120, 180)' fill-opacity = '0.250000' points = '208.3,451.1 208.3,662.4 210.2,662.4 210.2,447.3 '/>
		<polygon fill = 'rgb( 31, 120, 180)' fill-opacity = '0.250000' points = '210.2,447.3 210.2,662.4 212.1,662.4 212.1,443.5 '/>
		<polygon fill = 'rgb( 31, 120, 180)' fill-opacity = '0.250000' points = '212.1,443.5 212.1,662.4 214.0,662.4 214.0,439.8 '/>
		<polygon fill = 'rgb( 31, 120, 180)' fill-opacity = '0.250000' points = '214.0,439.8 214.0,662.4 215.9,662.4 215.9,436.0 '/>
		<polygon fill = 'rgb( 31, 120, 180)' fill-opacity = '0.250000' points = '215.9,436.0 215.9,662.4 217.8,662.4 217.8,432.2 '/>
		<polygon fill = 'rgb( 31, 120, 180)' fill-opacity = '0.250000' points = '217.8,432.2 217.8,662.4 219.7,662.4 219.7,428.5 '/>
		<polygon fill = 'rgb( 31, 120, 180)' fill-opacity = '0.250000' points = '219.7,428.5 219.7,662.4 221.6,662.4 221.6,424.7 '/>
		<polygon fill = 'rgb( 31, 120, 180)' fill-opacity = '0.250000' points = '221.6,424.7 221.6,662.4 223.5,662.4 223.5,421.0 '/>
		<polygon fill = 'rgb( 31, 120, 180)' fill-opacity = '0.250000' points = '223.5,421.0 223.5,662.4 225.4,662.4 225.4,417.3 '/>
		<polygon fill = 'rgb( 31, 120, 180)' fill-opacity = '0.250000' points = '225.4,417.3 225.4,662.4 227.3,662.4 227.3,413.6 '/>
		<polygon fill = 'rgb( 31, 120, 180)' fill-opacity = '0.250000' points = '227.3,413.6 227.3,662.4 229.2,662.4 229.2,409.9 '/>
		<polygon fill = 'rgb( 31, 120, 180)' fill-opacity = '0.250000' points = '229.2,409.9 229.2,662.4 231.1,662.4 231.1,406.2 '/>
		<polygon fill = 'rgb( 31, 120, 180)' fill-opacity = '0.250000' points = '231.1,406.2 231.1,662.4 233.0,662.4 233.0,402.5 '/>
		<polygon fill = 'rgb( 31, 120, 180)' fill-opacity = '0.250000' points = '233.0,402.5 233.0,662.4 234.9,662.4 234.9,398.9 '/>
		<polygon fill = 'rgb( 31, 120, 180)' fill-opacity = '0.250000' points = '234.9,398.9 234.9,662.4 236.8,662.4 236.8,395.2 '/>
		<polygon fill = 'rgb( 31, 120, 180)' fill-opacity = '0.250000' points = '236.8,395.2 236.8,662.4 238.8,662.4 238.8,391.5 '/>
		<polygon fill = 'rgb( 31, 120, 180)' fill-opacity = '0.250000' points = '238.8,391.5 238.8,662.4 240.7,662.4 240.7,387.8 '/>
		<polygon fill = 'rgb( 31, 120, 180)' fill-opacity = '0.250000' points = '240.7,387.8 240.7,662.4 242.6,662.4 242.6,384.0 '/>
		<polygon fill = 'rgb( 31, 120, 180)' fill-opacity = '0.250000' points = '242.6,384.0 242.6,662.4 244.5,662.4 244.5,380.3 '/>
		<polygon fill = 'rgb( 31, 120, 180)' fill-opacity = '0.250000' points = '244.5,380.3 244.5,662.4 246.4,662.4 246.4,376.5 '/>
		<polygon fill = 'rgb( 31, 120, 180)' fill-opacity = '0.250000' points = '246.4,376.5 246.4,662.4 248.3,662.4 248.3,372.7 '/>
		<polygon fill = 'rgb( 31, 120, 180)' fill-opacity = '0.250000' points = '248.3,372.7 248.3,662.4 250.2,662.4 250.2,368.9 '/>
		<polygon fill = 'rgb( 31, 120, 180)' fill-opacity = '0.250000' points = '250.2,368.9 250.2,662.4 252.1,662.4 252.1,365.1 '/>
		<polygon fill = 'rgb( 31, 120, 180)' fill-opacity = '0.250000' points = '252.1,365.1 252.1,662.4 254.0,662.4 254.0,361.2 '/>
		<polygon fill = 'rgb( 31, 120, 180)' fill-opacity = '0.250000' points = '254.0,361.2 254.0,662.4 255.9,662.4 255.9,357.3 '/>
		<polygon fill = 'rgb( 31, 120, 180)' fill-opacity = '0.250000' points = '255.9,357.3 255.9,662.4 257.8,662.4 257.8,353.4 '/>
		<polygon fill = 'rgb( 31, 120, 180)' fill-opacity = '0.250000' points = '257.8,353.4 257.8,662.4 259.7,662.4 259.7,349.4 '/>
		<polygon fill = 'rgb( 31, 120, 180)' fill-opacity = '0.250000' points = '259.7,349.4 259.7,662.4 261.6,662.4 261.6,345.5 '/>
		<polygon fill = 'rgb( 31, 120, 180)' fill-opacity = '0.250000' points = '261.6,345.5 261.6,662.4 263.5,662.4 263.5,341.6 '/>
		<polygon fill = 'rgb( 31, 120, 180)' fill-opacity = '0.250000' points = '263.5,341.6 263.5,662.4 265.4,662.4 265.4,337.6 '/>
		<polygon fill = 'rgb( 31, 120, 180)' fill-opacity = '0.250000' points = '265.4,337.6 265.4,662.4 267.3,662.4 267.3,333.7 '/>
		<polygon fill = 'rgb( 31, 120, 180)' fill-opacity = '0.250000' points = '267.3,333.7 267.3,662.4 269.2,662.4 269.2,329.7 '/>
		<polygon fill = 'rgb( 31, 120, 180)' fill-opacity = '0.250000' points = '269.2,329.7 269.2,662.4 271.1,662.4 271.1,325.8 '/>
		<polygon fill = 'rgb( 31, 120, 180)' fill-opacity = '0.250000' points = '271.1,325.8 271.1,662.4 273.0,662.4 273.0,322.0 '/>
		<polygon fill = 'rgb( 31, 120, 180)' fill-opacity = '0.250000' points = '273.0,322.0 273.0,662.4 274.9,662.4 274.9,318.1 '/>
		<polygon fill = 'rgb( 31, 120, 180)' fill-opacity = '0.250000' points = '274.9,318.1 274.9,662.4 276.8,662.4 276.8,314.3 '/>
		<polygon fill = 'rgb( 31, 120, 180)' fill-opacity = '0.250000' points = '276.8,314.3 276.8,662.4 278.7,662.4 278.7,310.6 '/>
		<polygon fill = 'rgb( 31, 120, 180)' fill-opacity = '0.250000' points = '278.7,310.6 278.7,662.4 280.6,662.4 280.6,306.9 '/>
		<polygon fill = 'rgb( 31, 120, 180)' fill-opacity = '0.250000' points = '280.6,306.9 280.6,662.4 282.5,662.4 282.5,303.2 '/>
		<polygon fill = 'rgb( 31, 120, 180)' fill-opacity = '0.250000' points = '282.5,303.2 282.5,662.4 284.4,662.4 284.4,299.6 '/>
		<polygon fill = 'rgb( 31, 120, 180)' fill-opacity = '0.250000' points = '284.4,299.6 284.4,662.4 286.3,662.4 286.3,296.1 '/>
		<polygon fill = 'rgb( 31, 120, 180)' fill-opacity = '0.250000' points = '286.3,296.1 286.3,662.4 288.2,662.4 288.2,292.6 '/>
		<polygon fill = 'rgb( 31, 120, 180)' fill-opacity = '0.250000' points = '288.2,292.6 288.2,662.4 290.2,662.4 290.2,289.2 '/>
		<polygon fill = 'rgb( 31, 120, 180)' fill-opacity = '0.250000' points = '290.2,289.2 290.2,662.4 292.1,662.4 292.1,285.8 '/>
		<polygon fill = 'rgb( 31, 120, 180)' fill-opacity = '0.250000' points = '292.1,285.8 292.1,662.4 294.0,662.4 294.0,282.4 '/>
		<polygon fill = 'rgb( 31, 120, 180)' fill-opacity = '0.250000' points = '294.0,282.4 294.0,662.4 295.9,662.4 295.9,279.1 '/>
		<polygon fill = 'rgb( 31, 120, 180)' fill-opacity = '0.250000' points = '295.9,279.1 295.9,662.4 297.8,662.4 297.8,275.8 '/>
		<polygon fill = 'rgb( 31, 120, 180)' fill-opacity = '0.250000' points = '297.8,275.8 297.8,662.4 299.7,662.4 299.7,272.5 '/>
		<polygon fill = 'rgb( 31, 120, 180)' fill-opacity = '0.250000' points = '299.7,272.5 299.7,662.4 301.6,662.4 301.6,269.3 '/>
		<polygon fill = 'rgb( 31, 120, 180)' fill-opacity = '0.250000' points = '301.6,269.3 301.6,662.4 303.5,662.4 303.5,266.1 '/>
		<polygon fill = 'rgb( 31, 120, 180)' fill-opacity = '0.250000' points = '303.5,266.1 303.5,662.4 305.4,662.4 305.4,262.9 '/>
		<polygon fill = 'rgb( 31, 120, 180)' fill-opacity = '0.250000' points = '305.4,262.9 305.4,662.4 307.3,662.4 307.3,259.6 '/>
		<polygon fill = 'rgb( 31, 120, 180)' fill-opacity = '0.250000' points = '307.3,259.6 307.3,662.4 309.2,662.4 309.2,256.4 '/>
		<polygon fill = 'rgb( 31, 120, 180)' fill-opacity = '0.250000' points = '309.2,256.4 309.2,662.4 311.1,662.4 311.1,253.2 '/>
		<polygon fill = 'rgb( 31, 120, 180)' fill-opacity = '0.250000' points = '311.1,253.2 311.1,662.4 313.0,662.4 313.0,250.0 '/>
		<polygon fill = 'rgb( 31, 120, 180)' fill-opacity = '0.250000' points = '313.0,250.0 313.0,662.4 314.9,662.4 314.9,246.8 '/>
		<polygon fill = 'rgb( 31, 120, 180)' fill-opacity = '0.250000' points = '314.9,246.8 314.9,662.4 316.8,662.4 316.8,243.5 '/>
		<polygon fill = 'rgb( 31, 120, 180)' fill-opacity = '0.250000' points = '316.8,243.5 316.8,662.4 318.7,662.4 318.7,240.3 '/>
		<polygon fill = 'rgb( 31, 120, 180)' fill-opacity = '0.250000' points = '318.7,240.3 318.7,662.4 320.6,662.4 320.6,237.0 '/>
		<polygon fill = 'rgb( 31, 120, 180)' fill-opacity = '0.250000' points = '320.6,237.0 320.6,662.4 322.5,662.4 322.5,233.8 '/>
		<polygon fill = 'rgb( 31, 120, 180)' fill-opacity = '0.250000' points = '322.5,233.8 322.5,662.4 324.4,662.4 324.4,230.5 '/>
		<polygon fill = 'rgb( 31, 120, 180)' fill-opacity = '0.250000' points = '324.4,230.5 324.4,662.4 326.3,662.4 326.3,227.3 '/>
		<polygon fill = 'rgb( 31, 120, 180)' fill-opacity = '0.250000' points = '326.3,227.3 326.3,662.4 328.2,662.4 328.2,224.1 '/>
		<polygon fill = 'rgb( 31, 120, 180)' fill-opacity = '0.250000' points = '328.2,224.1 328.2,662.4 330.1,662.4 330.1,220.9 '/>
		<polygon fill = 'rgb( 31, 120, 180)' fill-opacity = '0.250000' points = '330.1,220.9 330.1,662.4 332.0,662.4 332.0,217.7 '/>
		<polygon fill = 'rgb( 31, 120, 180)' fill-opacity = '0.250000' points = '332.0,217.7 332.0,662.4 333.9,662.4 333.9,214.6 '/>
		<polygon fill = 'rgb( 31, 120, 180)' fill-opacity = '0.250000' points = '333.9,214.6 333.9,662.4 335.8,662.4 335.8,211.5 '/>
		<polygon fill = 'rgb( 31, 120, 180)' fill-opacity = '0.250000' points = '335.8,211.5 335.8,662.4 337.7,662.4 337.7,208.5 '/>
		<polygon fill = 'rgb( 31, 120, 180)' fill-opacity = '0.250000' points = '337.7,208.5 337.7,662.4 339.7,662.4 339.7,205.6 '/>
		<polygon fill = 'rgb( 31, 120, 180)' fill-opacity = '0.250000' points = '339.7,205.6 339.7,662.4 341.6,662.4 341.6,202.7 '/>
		<polygon fill = 'rgb( 31, 120, 180)' fill-opacity = '0.250000' points = '341.6,202.7 341.6,662.4 343.5,662.4 343.5,199.9 '/>
		<polygon fill = 'rgb( 31, 120, 180)' fill-opacity = '0.250000' points = '343.5,199.9 343.5,662.4 345.4,662.4 345.4,197.1 '/>
		<polygon fill = 'rgb( 31, 120, 180)' fill-opacity = '0.250000' points = '345.4,197.1 345.4,662.4 347.3,662.4 347.3,194.5 '/>
		<polygon fill = 'rgb( 31, 120, 180)' fill-opacity = '0.250000' points = '347.3,194.5 347.3,662.4 349.2,662.4 349.2,191.9 '/>
		<polygon fill = 'rgb( 31, 120, 180)' fill-opacity = '0.250000' points = '349.2,191.9 349.2,662.4 351.1,662.4 351.1,189.4 '/>
		<polygon fill = 'rgb( 31, 120, 180)' fill-opacity = '0.250000' points = '351.1,189.4 351.1,662.4 353.0,662.4 353.0,186.9 '/>
		<polygon fill = 'rgb( 31, 120, 180)' fill-opacity = '0.250000' points = '353.0,186.9 353.0,662.4 354.9,662.4 354.9,184.5 '/>
		<polygon fill = 'rgb( 31, 120, 180)' fill-opacity = '0.250000' points = '354.9,184.5 354.9,662.4 356.8,662.4 356.8,182.2 '/>
		<polygon fill = 'rgb( 31, 120, 180)' fill-opacity = '0.250000' points = '356.8,182.2 356.8,662.4 358.7,662.4 358.7,179.9 '/>
		<polygon fill = 'rgb( 31, 120, 180)' fill-opacity = '0.250000' points = '358.7,179.9 358.7,662.4 360.6,662.4 360.6,177.6 '/>
		<polygon fill = 'rgb( 31, 120, 180)' fill-opacity = '0.250000' points = '360.6,177.6 360.6,662.4 362.5,662.4 362.5,175.4 '/>
		<polygon fill = 'rgb( 31, 120, 180)' fill-opacity = '0.250000' points = '362.5,175.4 362.5,662.4 364.4,662.4 364.4,173.2 '/>
		<polygon fill = 'rgb( 31, 120, 180)' fill-opacity = '0.250000' points = '364.4,173.2 364.4,662.4 366.3,662.4 366.3,171.0 '/>
		<polygon fill = 'rgb( 31, 120, 180)' fill-opacity = '0.250000' points = '366.3,171.0 366.3,662.4 368.2,662.4 368.2,168.8 '/>
		<polygon fill = 'rgb( 31, 120, 180)' fill-opacity = '0.250000' points = '368.2,168.8 368.2,662.4 370.1,662.4 370.1,166.7 '/>
		<polygon fill = 'rgb( 31, 120, 180)' fill-opacity = '0.250000' points = '370.1,166.7 370.1,662.4 372.0,662.4 372.0,164.5 '/>
		<polygon fill = 'rgb( 31, 120, 180)' fill-opacity = '0.250000' points = '372.0,164.5 372.0,662.4 373.9,662.4 373.9,162.4 '/>
		<polygon fill = 'rgb( 31, 120, 180)' fill-opacity = '0.250000' points = '373.9,162.4 373.9,662.4 375.8,662.4 375.8,160.3 '/>
		<polygon fill = 'rgb( 31, 120, 180)' fill-opacity = '0.250000' points = '375.8,160.3 375.8,662.4 377.7,662.4 377.7,158.1 '/>
		<polygon fill = 'rgb( 31, 120, 180)' fill-opacity = '0.250000' points = '377.7,158.1 377.7,662.4 379.6,662.4 379.6,156.0 '/>
		<polygon fill = 'rgb( 31, 120, 180)' fill-opacity = '0.250000' points = '379.6,156.0 379.6,662.4 381.5,662.4 381.5,153.9 '/>
		<polygon fill = 'rgb( 31, 120, 180)' fill-opacity = '0.250000' points = '381.5,153.9 381.5,662.4 383.4,662.4 383.4,151.8 '/>
		<polygon fill = 'rgb( 31, 120, 180)' fill-opacity = '0.250000' points = '383.4,151.8 383.4,662.4 385.3,662.4 385.3,149.7 '/>
		<polygon fill = 'rgb( 31, 120, 180)' fill-opacity = '0.250000' points = '385.3,149.7 385.3,662.4 387.2,662.4 387.2,147.6 '/>
		<polygon fill = 'rgb( 31, 120, 180)' fill-opacity = '0.250000' points = '387.2,147.6 387.2,662.4 389.2,662.4 389.2,145.6 '/>
		<polygon fill = 'rgb( 31, 120, 180)' fill-opacity = '0.250000' points = '389.2,145.6 389.2,662.4 391.1,662.4 391.1,143.6 '/>
		<polygon fill = 'rgb( 31, 120, 180)' fill-opacity = '0.250000' points = '391.1,143.6 391.1,662.4 393.0,662.4 393.0,141.6 '/>
		<polygon fill = 'rgb( 31, 120, 180)' fill-opacity = '0.250000' points = '393.0,141.6 393.0,662.4 394.9,662.4 394.9,139.8 '/>
		<polygon fill = 'rgb( 31, 120, 180)' fill-opacity = '0.250000' points = '394.9,139.8 394.9,662.4 396.8,662.4 396.8,137.9 '/>
		<polygon fill = 'rgb( 31, 120, 180)' fill-opacity = '0.250000' points = '396.8,137.9 396.8,662.4 398.7,662.4 398.7,136.2 '/>
		<polygon fill = 'rgb( 31, 120, 180)' fill-opacity = '0.250000' points = '398.7,136.2 398.7,662.4 400.6,662.4 400.6,134.5 '/>
		<polygon fill = 'rgb( 31, 120, 180)' fill-opacity = '0.250000' points = '400.6,134.5 400.6,662.4 402.5,662.4 402.5,132.8 '/>
		<polygon fill = 'rgb( 31, 120, 180)' fill-opacity = '0.250000' points = '402.5,132.8 402.5,662.4 404.4,662.4 404.4,131.3 '/>
		<polygon fill = 'rgb( 31, 120, 180)' fill-opacity = '0.250000' points = '404.4,131.3 404.4,662.4 406.3,662.4 406.3,129.9 '/>
		<polygon fill = 'rgb( 31, 120, 180)' fill-opacity = '0.250000' points = '406.3,129.9 406.3,662.4 408.2,662.4 408.2,128.5 '/>
		<polygon fill = 'rgb( 31, 120, 180)' fill-opacity = '0.250000' points = '408.2,128.5 408.2,662.4 410.1,662.4 410.1,127.3 '/>
		<polygon fill = 'rgb( 31, 120, 180)' fill-opacity = '0.250000' points = '410.1,127.3 410.1,662.4 412.0,662.4 412.0,126.1 '/>
		<polygon fill = 'rgb( 31, 120, 180)' fill-opacity = '0.250000' points = '412.0,126.1 412.0,662.4 413.9,662.4 413.9,125.0 '/>
		<polygon fill = 'rgb( 31, 120, 180)' fill-opacity = '0.250000' points = '413.9,125.0 413.9,662.4 415.8,662.4 415.8,124.1 '/>
		<polygon fill = 'rgb( 31, 120, 180)' fill-opacity = '0.250000' points = '415.8,124.1 415.8,662.4 417.7,662.4 417.7,123.3 '/>
		<polygon fill = 'rgb( 31, 120, 180)' fill-opacity = '0.250000' points = '417.7,123.3 417.7,662.4 419.6,662.4 419.6,122.5 '/>
		<polygon fill = 'rgb( 31, 120, 180)' fill-opacity = '0.250000' points = '419.6,122.5 419.6,662.4 421.5,662.4 421.5,121.9 '/>
		<polygon fill = 'rgb( 31, 120, 180)' fill-opacity = '0.250000' points = '421.5,121.9 421.5,662.4 423.4,662.4 423.4,121.4 '/>
		<polygon fill = 'rgb( 31, 120, 180)' fill-opacity = '0.250000' points = '423.4,121.4 423.4,662.4 425.3,662.4 425.3,120.9 '/>
		<polygon fill = 'rgb( 31, 120, 180)' fill-opacity = '0.250000' points = '425.3,120.9 425.3,662.4 427.2,662.4 427.2,120.6 '/>
		<polygon fill = 'rgb( 31, 120, 180)' fill-opacity = '0.250000' points = '427.2,120.6 427.2,662.4 429.1,662.4 429.1,120.4 '/>
		<polygon fill = 'rgb( 31, 120, 180)' fill-opacity = '0.250000' points = '429.1,120.4 429.1,662.4 431.0,662.4 431.0,120.3 '/>
		<polygon fill = 'rgb( 31, 120, 180)' fill-opacity = '0.250000' points = '431.0,120.3 431.0,662.4 432.9,662.4 432.9,120.3 '/>
		<polygon fill = 'rgb( 31, 120, 180)' fill-opacity = '0.250000' points = '432.9,120.3 432.9,662.4 434.8,662.4 434.8,120.4 '/>
		<polygon fill = 'rgb( 31, 120, 180)' fill-opacity = '0.250000' points = '434.8,120.4 434.8,662.4 436.7,662.4 436.7,120.5 '/>
		<polygon fill = 'rgb( 31, 120, 180)' fill-opacity = '0.250000' points = '436.7,120.5 436.7,662.4 438.7,662.4 438.7,120.8 '/>
		<polygon fill = 'rgb( 31, 120, 180)' fill-opacity = '0.250000' points = '438.7,120.8 438.7,662.4 440.6,662.4 440.6,121.1 '/>
		<polygon fill = 'rgb( 31, 120, 180)' fill-opacity = '0.250000' points = '440.6,121.1 440.6,662.4 442.5,662.4 442.5,121.5 '/>
		<polygon fill = 'rgb( 31, 120, 180)' fill-opacity = '0.250000' points = '442.5,121.5 442.5,662.4 444.4,662.4 444.4,121.9 '/>
		<polygon fill = 'rgb( 31, 120, 180)' fill-opacity = '0.250000' points = '444.4,121.9 444.4,662.4 446.3,662.4 446.3,122.3 '/>
		<polygon fill = 'rgb( 31, 120, 180)' fill-opacity = '0.250000' points = '446.3,122.3 446.3,662.4 448.2,662.4 448.2,122.8 '/>
		<polygon fill = 'rgb( 31, 120, 180)' fill-opacity = '0.250000' points = '448.2,122.8 448.2,662.4 450.1,662.4 450.1,123.4 '/>
		<polygon fill = 'rgb( 31, 120, 180)' fill-opacity = '0.250000' points = '450.1,123.4 450.1,662.4 452.0,662.4 452.0,123.9 '/>
		<polygon fill = 'rgb( 31, 120, 180)' fill-opacity = '0.250000' points = '452.0,123.9 452.0,662.4 453.9,662.4 453.9,124.4 '/>
		<polygon fill = 'rgb( 31, 120, 180)' fill-opacity = '0.250000' points = '453.9,124.4 453.9,662.4 455.8,662.4 455.8,125.0 '/>
		<polygon fill = 'rgb( 31, 120, 180)' fill-opacity = '0.250000' points = '455.8,125.0 455.8,662.4 457.7,662.4 457.7,125.5 '/>
		<polygon fill = 'rgb( 31, 120, 180)' fill-opacity = '0.250000' points = '457.7,125.5 457.7,662.4 459.6,662.4 459.6,126.0 '/>
		<polygon fill = 'rgb( 31, 120, 180)' fill-opacity = '0.250000' points = '459.6,126.0 459.6,662.4 461.5,662.4 461.5,126.5 '/>
		<polygon fill = 'rgb( 31, 120, 180)' fill-opacity = '0.250000' points = '461.5,126.5 461.5,662.4 463.4,662.4 463.4,127.0 '/>
		<polygon fill = 'rgb( 31, 120, 180)' fill-opacity = '0.250000' points = '463.4,127.0 463.4,662.4 465.3,662.4 465.3,127.4 '/>
		<polygon fill = 'rgb( 31, 120, 180)' fill-opacity = '0.250000' points = '465.3,127.4 465.3,662.4 467.2,662.4 467.2,127.8 '/>
		<polygon fill = 'rgb( 31, 120, 180)' fill-opacity = '0.250000' points = '467.2,127.8 467.2,662.4 469.1,662.4 469.1,128.1 '/>
		<polygon fill = 'rgb( 31, 120, 180)' fill-opacity = '0.250000' points = '469.1,128.1 469.1,662.4 471.0,662.4 471.0,128.4 '/>
		<polygon fill = 'rgb( 31, 120, 180)' fill-opacity = '0.250000' points = '471.0,128.4 471.0,662.4 472.9,662.4 472.9,128.6 '/>
		<polygon fill = 'rgb( 31, 120, 180)' fill-opacity = '0.250000' points = '472.9,128.6 472.9,662.4 474.8,662.4 474.8,128.9 '/>
		<polygon fill = 'rgb( 31, 120, 180)' fill-opacity = '0.250000' points = '474.8,128.9 474.8,662.4 476.7,662.4 476.7,129.0 '/>
		<polygon fill = 'rgb( 31, 120, 180)' fill-opacity = '0.250000' points = '476.7,129.0 476.7,662.4 478.6,662.4 478.6,129.2 '/>
		<polygon fill = 'rgb( 31, 120, 180)' fill-opacity = '0.250000' points = '478.6,129.2 478.6,662.4 480.5,662.4 480.5,129.3 '/>
		<polygon fill = 'rgb( 31, 120, 180)' fill-opacity = '0.250000' points = '480.5,129.3 480.5,662.4 482.4,662.4 482.4,129.4 '/>
		<polygon fill = 'rgb( 31, 120, 180)' fill-opacity = '0.250000' points = '482.4,129.4 482.4,662.4 484.3,662.4 484.3,129.5 '/>
		<polygon fill = 'rgb( 31, 120, 180)' fill-opacity = '0.250000' points = '484.3,129.5 484.3,662.4 486.2,662.4 486.2,129.6 '/>
		<polygon fill = 'rgb( 31, 120, 180)' fill-opacity = '0.250000' points = '486.2,129.6 486.2,662.4 488.1,662.4 488.1,129.7 '/>
		<polygon fill = 'rgb( 31, 120, 180)' fill-opacity = '0.250000' points = '488.1,129.7 488.1,662.4 490.1,662.4 490.1,129.9 '/>
		<polygon fill = 'rgb( 31, 120, 180)' fill-opacity = '0.250000' points = '490.1,129.9 490.1,662.4 492.0,662.4 492.0,130.1 '/>
		<polygon fill = 'rgb( 31, 120, 180)' fill-opacity = '0.250000' points = '492.0,130.1 492.0,662.4 493.9,662.4 493.9,130.3 '/>
		<polygon fill = 'rgb( 31, 120, 180)' fill-opacity = '0.250000' points = '493.9,130.3 493.9,662.4 495.8,662.4 495.8,130.6 '/>
		<polygon fill = 'rgb( 31, 120, 180)' fill-opacity = '0.250000' points = '495.8,130.6 495.8,662.4 497.7,662.4 497.7,130.9 '/>
		<polygon fill = 'rgb( 31, 120, 180)' fill-opacity = '0.250000' points = '497.7,130.9 497.7,662.4 499.6,662.4 499.6,131.4 '/>
		<polygon fill = 'rgb( 31, 120, 180)' fill-opacity = '0.250000' points = '499.6,131.4 499.6,662.4 501.5,662.4 501.5,131.9 '/>
		<polygon fill = 'rgb( 31, 120, 180)' fill-opacity = '0.250000' points = '501.5,131.9 501.5,662.4 503.4,662.4 503.4,132.5 '/>
		<polygon fill = 'rgb( 31, 120, 180)' fill-opacity = '0.250000' points = '503.4,132.5 503.4,662.4 505.3,662.4 505.3,133.2 '/>
		<polygon fill = 'rgb( 31, 120, 180)' fill-opacity = '0.250000' points = '505.3,133.2 505.3,662.4 507.2,662.4 507.2,134.1 '/>
		<polygon fill = 'rgb( 31, 120, 180)' fill-opacity = '0.250000' points = '507.2,134.1 507.2,662.4 509.1,662.4 509.1,135.0 '/>
		<polygon fill = 'rgb( 31, 120, 180)' fill-opacity = '0.250000' points = '509.1,135.0 509.1,662.4 511.0,662.4 511.0,136.1 '/>
		<polygon fill = 'rgb( 31, 120, 180)' fill-opacity = '0.250000' points = '511.0,136.1 511.0,662.4 512.9,662.4 512.9,137.3 '/>
		<polygon fill = 'rgb( 31, 120, 180)' fill-opacity = '0.250000' points = '512.9,137.3 512.9,662.4 514.8,662.4 514.8,138.6 '/>
		<polygon fill = 'rgb( 31, 120, 180)' fill-opacity = '0.250000' points = '514.8,138.6 514.8,662.4 516.7,662.4 516.7,140.0 '/>
		<polygon fill = 'rgb( 31, 120, 180)' fill-opacity = '0.250000' points = '516.7,140.0 516.7,662.4 518.6,662.4 518.6,141.6 '/>
		<polygon fill = 'rgb( 31, 120, 180)' fill-opacity = '0.250000' points = '518.6,141.6 518.6,662.4 520.5,662.4 520.5,143.3 '/>
		<polygon fill = 'rgb( 31, 120, 180)' fill-opacity = '0.250000' points = '520.5,143.3 520.5,662.4 522.4,662.4 522.4,145.1 '/>
		<polygon fill = 'rgb( 31, 120, 180)' fill-opacity = '0.250000' points = '522.4,145.1 522.4,662.4 524.3,662.4 524.3,147.1 '/>
		<polygon fill = 'rgb( 31, 120, 180)' fill-opacity = '0.250000' points = '524.3,147.1 524.3,662.4 526.2,662.4 526.2,149.1 '/>
		<polygon fill = 'rgb( 31, 120, 180)' fill-opacity = '0.250000' points = '526.2,149.1 526.2,662.4 528.1,662.4 528.1,151.2 '/>
		<polygon fill = 'rgb( 31, 120, 180)' fill-opacity = '0.250000' points = '528.1,151.2 528.1,662.4 530.0,662.4 530.0,153.5 '/>
		<polygon fill = 'rgb( 31, 120, 180)' fill-opacity = '0.250000' points = '530.0,153.5 530.0,662.4 531.9,662.4 531.9,155.8 '/>
		<polygon fill = 'rgb( 31, 120, 180)' fill-opacity = '0.250000' points = '531.9,155.8 531.9,662.4 533.8,662.4 533.8,158.2 '/>
		<polygon fill = 'rgb( 31, 120, 180)' fill-opacity = '0.250000' points = '533.8,158.2 533.8,662.4 535.7,662.4 535.7,160.7 '/>
		<polygon fill = 'rgb( 31, 120, 180)' fill-opacity = '0.250000' points = '535.7,160.7 535.7,662.4 537.6,662.4 537.6,163.2 '/>
		<polygon fill = 'rgb( 31, 120, 180)' fill-opacity = '0.250000' points = '537.6,163.2 537.6,662.4 539.6,662.4 539.6,165.8 '/>
		<polygon fill = 'rgb( 31, 120, 180)' fill-opacity = '0.250000' points = '539.6,165.8 539.6,662.4 541.5,662.4 541.5,168.4 '/>
		<polygon fill = 'rgb( 31, 120, 180)' fill-opacity = '0.250000' points = '541.5,168.4 541.5,662.4 543.4,662.4 543.4,171.0 '/>
		<polygon fill = 'rgb( 31, 120, 180)' fill-opacity = '0.250000' points = '543.4,171.0 543.4,662.4 545.3,662.4 545.3,173.6 '/>
		<polygon fill = 'rgb( 31, 120, 180)' fill-opacity = '0.250000' points = '545.3,173.6 545.3,662.4 547.2,662.4 547.2,176.2 '/>
		<polygon fill = 'rgb( 31, 120, 180)' fill-opacity = '0.250000' points = '547.2,176.2 547.2,662.4 549.1,662.4 549.1,178.8 '/>
		<polygon fill = 'rgb( 31, 120, 180)' fill-opacity = '0.250000' points = '549.1,178.8 549.1,662.4 551.0,662.4 551.0,181.3 '/>
		<polygon fill = 'rgb( 31, 120, 180)' fill-opacity = '0.250000' points = '551.0,181.3 551.0,662.4 552.9,662.4 552.9,183.7 '/>
		<polygon fill = 'rgb( 31, 120, 180)' fill-opacity = '0.250000' points = '552.9,183.7 552.9,662.4 554.8,662.4 554.8,186.2 '/>
		<polygon fill = 'rgb( 31, 120, 180)' fill-opacity = '0.250000' points = '554.8,186.2 554.8,662.4 556.7,662.4 556.7,188.5 '/>
		<polygon fill = 'rgb( 31, 120, 180)' fill-opacity = '0.250000' points = '556.7,188.5 556.7,662.4 558.6,662.4 558.6,190.8 '/>
		<polygon fill = 'rgb( 31, 120, 180)' fill-opacity = '0.250000' points = '558.6,190.8 558.6,662.4 560.5,662.4 560.5,193.0 '/>
		<polygon fill = 'rgb( 31, 120, 180)' fill-opacity = '0.250000' points = '560.5,193.0 560.5,662.4 562.4,662.4 562.4,195.1 '/>
		<polygon fill = 'rgb( 31, 120, 180)' fill-opacity = '0.250000' points = '562.4,195.1 562.4,662.4 564.3,662.4 564.3,197.2 '/>
		<polygon fill = 'rgb( 31, 120, 180)' fill-opacity = '0.250000' points = '564.3,197.2 564.3,662.4 566.2,662.4 566.2,199.2 '/>
		<polygon fill = 'rgb( 31, 120, 180)' fill-opacity = '0.250000' points = '566.2,199.2 566.2,662.4 568.1,662.4 568.1,201.2 '/>
		<polygon fill = 'rgb( 31, 120, 180)' fill-opacity = '0.250000' points = '568.1,201.2 568.1,662.4 570.0,662.4 570.0,203.1 '/>
		<polygon fill = 'rgb( 31, 120, 180)' fill-opacity = '0.250000' points = '570.0,203.1 570.0,662.4 571.9,662.4 571.9,204.9 '/>
		<polygon fill = 'rgb( 31, 120, 180)' fill-opacity = '0.250000' points = '571.9,204.9 571.9,662.4 573.8,662.4 573.8,206.8 '/>
		<polygon fill = 'rgb( 31, 120, 180)' fill-opacity = '0.250000' points = '573.8,206.8 573.8,662.4 575.7,662.4 575.7,208.7 '/>
		<polygon fill = 'rgb( 31, 120, 180)' fill-opacity = '0.250000' points = '575.7,208.7 575.7,662.4 577.6,662.4 577.6,210.5 '/>
		<polygon fill = 'rgb( 31, 120, 180)' fill-opacity = '0.250000' points = '577.6,210.5 577.6,662.4 579.5,662.4 579.5,212.4 '/>
		<polygon fill = 'rgb( 31, 120, 180)' fill-opacity = '0.250000' points = '579.5,212.4 579.5,662.4 581.4,662.4 581.4,214.3 '/>
		<polygon fill = 'rgb( 31, 120, 180)' fill-opacity = '0.250000' points = '581.4,214.3 581.4,662.4 583.3,662.4 583.3,216.3 '/>
		<polygon fill = 'rgb( 31, 120, 180)' fill-opacity = '0.250000' points = '583.3,216.3 583.3,662.4 585.2,662.4 585.2,218.3 '/>
		<polygon fill = 'rgb( 31, 120, 180)' fill-opacity = '0.250000' points = '585.2,218.3 585.2,662.4 587.1,662.4 587.1,220.3 '/>
		<polygon fill = 'rgb( 31, 120, 180)' fill-opacity = '0.250000' points = '587.1,220.3 587.1,662.4 589.1,662.4 589.1,222.5 '/>
		<polygon fill = 'rgb( 31, 120, 180)' fill-opacity = '0.250000' points = '589.1,222.5 589.1,662.4 591.0,662.4 591.0,224.7 '/>
		<polygon fill = 'rgb( 31, 120, 180)' fill-opacity = '0.250000' points = '591.0,224.7 591.0,662.4 592.9,662.4 592.9,227.0 '/>
		<polygon fill = 'rgb( 31, 120, 180)' fill-opacity = '0.250000' points = '592.9,227.0 592.9,662.4 594.8,662.4 594.8,229.4 '/>
		<polygon fill = 'rgb( 31, 120, 180)' fill-opacity = '0.250000' points = '594.8,229.4 594.8,662.4 596.7,662.4 596.7,231.8 '/>
		<polygon fill = 'rgb( 31, 120, 180)' fill-opacity = '0.250000' points = '596.7,231.8 596.7,662.4 598.6,662.4 598.6,234.3 '/>
		<polygon fill = 'rgb( 31, 120, 180)' fill-opacity = '0.250000' points = '598.6,234.3 598.6,662.4 600.5,662.4 600.5,236.9 '/>
		<polygon fill = 'rgb( 31, 120, 180)' fill-opacity = '0.250000' points = '600.5,236.9 600.5,662.4 602.4,662.4 602.4,239.6 '/>
		<polygon fill = 'rgb( 31, 120, 180)' fill-opacity = '0.250000' points = '602.4,239.6 602.4,662.4 604.3,662.4 604.3,242.3 '/>
		<polygon fill = 'rgb( 31, 120, 180)' fill-opacity = '0.250000' points = '604.3,242.3 604.3,662.4 606.2,662.4 606.2,245.1 '/>
		<polygon fill = 'rgb( 31, 120, 180)' fill-opacity = '0.250000' points = '606.2,245.1 606.2,662.4 608.1,662.4 608.1,247.9 '/>
		<polygon fill = 'rgb( 31, 120, 180)' fill-opacity = '0.250000' points = '608.1,247.9 608.1,662.4 610.0,662.4 610.0,250.7 '/>
		<polygon fill = 'rgb( 31, 120, 180)' fill-opacity = '0.250000' points = '610.0,250.7 610.0,662.4 611.9,662.4 611.9,253.6 '/>
		<polygon fill = 'rgb( 31, 120, 180)' fill-opacity = '0.250000' points = '611.9,253.6 611.9,662.4 613.8,662.4 613.8,256.5 '/>
		<polygon fill = 'rgb( 31, 120, 180)' fill-opacity = '0.250000' points = '613.8,256.5 613.8,662.4 615.7,662.4 615.7,259.4 '/>
		<polygon fill = 'rgb( 31, 120, 180)' fill-opacity = '0.250000' points = '615.7,259.4 615.7,662.4 617.6,662.4 617.6,262.3 '/>
		<polygon fill = 'rgb( 31, 120, 180)' fill-opacity = '0.250000' points = '617.6,262.3 617.6,662.4 619.5,662.4 619.5,265.2 '/>
		<polygon fill = 'rgb( 31, 120, 180)' fill-opacity = '0.250000' points = '619.5,265.2 619.5,662.4 621.4,662.4 621.4,268.1 '/>
		<polygon fill = 'rgb( 31, 120, 180)' fill-opacity = '0.250000' points = '621.4,268.1 621.4,662.4 623.3,662.4 623.3,271.0 '/>
		<polygon fill = 'rgb( 31, 120, 180)' fill-opacity = '0.250000' points = '623.3,271.0 623.3,662.4 625.2,662.4 625.2,273.9 '/>
		<polygon fill = 'rgb( 31, 120, 180)' fill-opacity = '0.250000' points = '625.2,273.9 625.2,662.4 627.1,662.4 627.1,276.7 '/>
		<polygon fill = 'rgb( 31, 120, 180)' fill-opacity = '0.250000' points = '627.1,276.7 627.1,662.4 629.0,662.4 629.0,279.5 '/>
		<polygon fill = 'rgb( 31, 120, 180)' fill-opacity = '0.250000' points = '629.0,279.5 629.0,662.4 630.9,662.4 630.9,282.3 '/>
		<polygon fill = 'rgb( 31, 120, 180)' fill-opacity = '0.250000' points = '630.9,282.3 630.9,662.4 632.8,662.4 632.8,285.0 '/>
		<polygon fill = 'rgb( 31, 120, 180)' fill-opacity = '0.250000' points = '632.8,285.0 632.8,662.4 634.7,662.4 634.7,287.8 '/>
		<polygon fill = 'rgb( 31, 120, 180)' fill-opacity = '0.250000' points = '634.7,287.8 634.7,662.4 636.6,662.4 636.6,290.4 '/>
		<polygon fill = 'rgb( 31, 120, 180)' fill-opacity = '0.250000' points = '636.6,290.4 636.6,662.4 638.5,662.4 638.5,293.1 '/>
		<polygon fill = 'rgb( 31, 120, 180)' fill-opacity = '0.250000' points = '638.5,293.1 638.5,662.4 640.5,662.4 640.5,295.7 '/>
		<polygon fill = 'rgb( 31, 120, 180)' fill-opacity = '0.250000' points = '640.5,295.7 640.5,662.4 642.4,662.4 642.4,298.3 '/>
		<polygon fill = 'rgb( 31, 120, 180)' fill-opacity = '0.250000' points = '642.4,298.3 642.4,662.4 644.3,662.4 644.3,300.9 '/>
		<polygon fill = 'rgb( 31, 120, 180)' fill-opacity = '0.250000' points = '644.3,300.9 644.3,662.4 646.2,662.4 646.2,303.5 '/>
		<polygon fill = 'rgb( 31, 120, 180)' fill-opacity = '0.250000' points = '646.2,303.5 646.2,662.4 648.1,662.4 648.1,306.1 '/>
		<polygon fill = 'rgb( 31, 120, 180)' fill-opacity = '0.250000' points = '648.1,306.1 648.1,662.4 650.0,662.4 650.0,308.6 '/>
		<polygon fill = 'rgb( 31, 120, 180)' fill-opacity = '0.250000' points = '650.0,308.6 650.0,662.4 651.9,662.4 651.9,311.2 '/>
		<polygon fill = 'rgb( 31, 120, 180)' fill-opacity = '0.250000' points = '651.9,311.2 651.9,662.4 653.8,662.4 653.8,313.8 '/>
		<polygon fill = 'rgb( 31, 120, 180)' fill-opacity = '0.250000' points = '653.8,313.8 653.8,662.4 655.7,662.4 655.7,316.4 '/>
		<polygon fill = 'rgb( 31, 120, 180)' fill-opacity = '0.250000' points = '655.7,316.4 655.7,662.4 657.6,662.4 657.6,319.0 '/>
		<polygon fill = 'rgb( 31, 120, 180)' fill-opacity = '0.250000' points = '657.6,319.0 657.6,662.4 659.5,662.4 659.5,321.7 '/>
		<polygon fill = 'rgb( 31, 120, 180)' fill-opacity = '0.250000' points = '659.5,321.7 659.5,662.4 661.4,662.4 661.4,324.4 '/>
		<polygon fill = 'rgb( 31, 120, 180)' fill-opacity = '0.250000' points = '661.4,324.4 661.4,662.4 663.3,662.4 663.3,327.1 '/>
		<polygon fill = 'rgb( 31, 120, 180)' fill-opacity = '0.250000' points = '663.3,327.1 663.3,662.4 665.2,662.4 665.2,329.9 '/>
		<polygon fill = 'rgb( 31, 120, 180)' fill-opacity = '0.250000' points = '665.2,329.9 665.2,662.4 667.1,662.4 667.1,332.7 '/>
		<polygon fill = 'rgb( 31, 120, 180)' fill-opacity = '0.250000' points = '667.1,332.7 667.1,662.4 669.0,662.4 669.0,335.5 '/>
		<polygon fill = 'rgb( 31, 120, 180)' fill-opacity = '0.250000' points = '669.0,335.5 669.0,662.4 670.9,662.4 670.9,338.4 '/>
		<polygon fill = 'rgb( 31, 120, 180)' fill-opacity = '0.250000' points = '670.9,338.4 670.9,662.4 672.8,662.4 672.8,341.3 '/>
		<polygon fill = 'rgb( 31, 120, 180)' fill-opacity = '0.250000' points = '672.8,341.3 672.8,662.4 674.7,662.4 674.7,344.2 '/>
		<polygon fill = 'rgb( 31, 120, 180)' fill-opacity = '0.250000' points = '674.7,344.2 674.7,662.4 676.6,662.4 676.6,347.1 '/>
		<polygon fill = 'rgb( 31, 120, 180)' fill-opacity = '0.250000' points = '676.6,347.1 676.6,662.4 678.5,662.4 678.5,350.1 '/>
		<polygon fill = 'rgb( 31, 120, 180)' fill-opacity = '0.250000' points = '678.5,350.1 678.5,662.4 680.4,662.4 680.4,353.1 '/>
		<polygon fill = 'rgb( 31, 120, 180)' fill-opacity = '0.250000' points = '680.4,353.1 680.4,662.4 682.3,662.4 682.3,356.1 '/>
		<polygon fill = 'rgb( 31, 120, 180)' fill-opacity = '0.250000' points = '682.3,356.1 682.3,662.4 684.2,662.4 684.2,359.1 '/>
		<polygon fill = 'rgb( 31, 120, 180)' fill-opacity = '0.250000' points = '684.2,359.1 684.2,662.4 686.1,662.4 686.1,362.1 '/>
		<polygon fill = 'rgb( 31, 120, 180)' fill-opacity = '0.250000' points = '686.1,362.1 686.1,662.4 688.0,662.4 688.0,365.0 '/>
		<polygon fill = 'rgb( 31, 120, 180)' fill-opacity = '0.250000' points = '688.0,365.0 688.0,662.4 690.0,662.4 690.0,368.0 '/>
		<polygon fill = 'rgb( 31, 120, 180)' fill-opacity = '0.250000' points = '690.0,368.0 690.0,662.4 691.9,662.4 691.9,371.0 '/>
		<polygon fill = 'rgb( 31, 120, 180)' fill-opacity = '0.250000' points = '691.9,371.0 691.9,662.4 693.8,662.4 693.8,373.9 '/>
		<polygon fill = 'rgb( 31, 120, 180)' fill-opacity = '0.250000' points = '693.8,373.9 693.8,662.4 695.7,662.4 695.7,376.9 '/>
		<polygon fill = 'rgb( 31, 120, 180)' fill-opacity = '0.250000' points = '695.7,376.9 695.7,662.4 697.6,662.4 697.6,379.8 '/>
		<polygon fill = 'rgb( 31, 120, 180)' fill-opacity = '0.250000' points = '697.6,379.8 697.6,662.4 699.5,662.4 699.5,382.6 '/>
		<polygon fill = 'rgb( 31, 120, 180)' fill-opacity = '0.250000' points = '699.5,382.6 699.5,662.4 701.4,662.4 701.4,385.5 '/>
		<polygon fill = 'rgb( 31, 120, 180)' fill-opacity = '0.250000' points = '701.4,385.5 701.4,662.4 703.3,662.4 703.3,388.3 '/>
		<polygon fill = 'rgb( 31, 120, 180)' fill-opacity = '0.250000' points = '703.3,388.3 703.3,662.4 705.2,662.4 705.2,391.1 '/>
		<polygon fill = 'rgb( 31, 120, 180)' fill-opacity = '0.250000' points = '705.2,391.1 705.2,662.4 707.1,662.4 707.1,393.9 '/>
		<polygon fill = 'rgb( 31, 120, 180)' fill-opacity = '0.250000' points = '707.1,393.9 707.1,662.4 709.0,662.4 709.0,396.6 '/>
		<polygon fill = 'rgb( 31, 120, 180)' fill-opacity = '0.250000' points = '709.0,396.6 709.0,662.4 710.9,662.4 710.9,399.4 '/>
		<polygon fill = 'rgb( 31, 120, 180)' fill-opacity = '0.250000' points = '710.9,399.4 710.9,662.4 712.8,662.4 712.8,402.1 '/>
		<polygon fill = 'rgb( 31, 120, 180)' fill-opacity = '0.250000' points = '712.8,402.1 712.8,662.4 714.7,662.4 714.7,404.8 '/>
		<polygon fill = 'rgb( 31, 120, 180)' fill-opacity = '0.250000' points = '714.7,404.8 714.7,662.4 716.6,662.4 716.6,407.5 '/>
		<polygon fill = 'rgb( 31, 120, 180)' fill-opacity = '0.250000' points = '716.6,407.5 716.6,662.4 718.5,662.4 718.5,410.1 '/>
		<polygon fill = 'rgb( 31, 120, 180)' fill-opacity = '0.250000' points = '718.5,410.1 718.5,662.4 720.4,662.4 720.4,412.8 '/>
		<polygon fill = 'rgb( 31, 120, 180)' fill-opacity = '0.250000' points = '720.4,412.8 720.4,662.4 722.3,662.4 722.3,415.4 '/>
		<polygon fill = 'rgb( 31, 120, 180)' fill-opacity = '0.250000' points = '722.3,415.4 722.3,662.4 724.2,662.4 724.2,418.0 '/>
		<polygon fill = 'rgb( 31, 120, 180)' fill-opacity = '0.250000' points = '724.2,418.0 724.2,662.4 726.1,662.4 726.1,420.6 '/>
		<polygon fill = 'rgb( 31, 120, 180)' fill-opacity = '0.250000' points = '726.1,420.6 726.1,662.4 728.0,662.4 728.0,423.2 '/>
		<polygon fill = 'rgb( 31, 120, 180)' fill-opacity = '0.250000' points = '728.0,423.2 728.0,662.4 729.9,662.4 729.9,425.8 '/>
		<polygon fill = 'rgb( 31, 120, 180)' fill-opacity = '0.250000' points = '729.9,425.8 729.9,662.4 731.8,662.4 731.8,428.3 '/>
		<polygon fill = 'rgb( 31, 120, 180)' fill-opacity = '0.250000' points = '731.8,428.3 731.8,662.4 733.7,662.4 733.7,430.8 '/>
		<polygon fill = 'rgb( 31, 120, 180)' fill-opacity = '0.250000' points = '733.7,430.8 733.7,662.4 735.6,662.4 735.6,433.3 '/>
		<polygon fill = 'rgb( 31, 120, 180)' fill-opacity = '0.250000' points = '735.6,433.3 735.6,662.4 737.5,662.4 737.5,435.8 '/>
		<polygon fill = 'rgb( 31, 120, 180)' fill-opacity = '0.250000' points = '737.5,435.8 737.5,662.4 739.5,662.4 739.5,438.2 '/>
		<polygon fill = 'rgb( 31, 120, 180)' fill-opacity = '0.250000' points = '739.5,438.2 739.5,662.4 741.4,662.4 741.4,440.5 '/>
		<polygon fill = 'rgb( 31, 120, 180)' fill-opacity = '0.250000' points = '741.4,440.5 741.4,662.4 743.3,662.4 743.3,442.9 '/>
		<polygon fill = 'rgb( 31, 120, 180)' fill-opacity = '0.250000' points = '743.3,442.9 743.3,662.4 745.2,662.4 745.2,445.2 '/>
		<polygon fill = 'rgb( 31, 120, 180)' fill-opacity = '0.250000' points = '745.2,445.2 745.2,662.4 747.1,662.4 747.1,447.4 '/>
		<polygon fill = 'rgb( 31, 120, 180)' fill-opacity = '0.250000' points = '747.1,447.4 747.1,662.4 749.0,662.4 749.0,449.6 '/>
		<polygon fill = 'rgb( 31, 120, 180)' fill-opacity = '0.250000' points = '749.0,449.6 749.0,662.4 750.9,662.4 750.9,451.8 '/>
		<polygon fill = 'rgb( 31, 120, 180)' fill-opacity = '0.250000' points = '750.9,451.8 750.9,662.4 752.8,662.4 752.8,453.9 '/>
		<polygon fill = 'rgb( 31, 120, 180)' fill-opacity = '0.250000' points = '752.8,453.9 752.8,662.4 754.7,662.4 754.7,456.0 '/>
		<polygon fill = 'rgb( 31, 120, 180)' fill-opacity = '0.250000' points = '754.7,456.0 754.7,662.4 756.6,662.4 756.6,458.0 '/>
		<polygon fill = 'rgb( 31, 120, 180)' fill-opacity = '0.250000' points = '756.6,458.0 756.6,662.4 758.5,662.4 758.5,460.0 '/>
		<polygon fill = 'rgb( 31, 120, 180)' fill-opacity = '0.250000' points = '758.5,460.0 758.5,662.4 760.4,662.4 760.4,462.0 '/>
		<polygon fill = 'rgb( 31, 120, 180)' fill-opacity = '0.250000' points = '760.4,462.0 760.4,662.4 762.3,662.4 762.3,464.0 '/>
		<polygon fill = 'rgb( 31, 120, 180)' fill-opacity = '0.250000' points = '762.3,464.0 762.3,662.4 764.2,662.4 764.2,465.9 '/>
		<polygon fill = 'rgb( 31, 120, 180)' fill-opacity = '0.250000' points = '764.2,465.9 764.2,662.4 766.1,662.4 766.1,467.9 '/>
		<polygon fill = 'rgb( 31, 120, 180)' fill-opacity = '0.250000' points = '766.1,467.9 766.1,662.4 768.0,662.4 768.0,469.8 '/>
		<polygon fill = 'rgb( 31, 120, 180)' fill-opacity = '0.250000' points = '768.0,469.8 768.0,662.4 769.9,662.4 769.9,471.7 '/>
		<polygon fill = 'rgb( 31, 120, 180)' fill-opacity = '0.250000' points = '769.9,471.7 769.9,662.4 771.8,662.4 771.8,473.6 '/>
		<polygon fill = 'rgb( 31, 120, 180)' fill-opacity = '0.250000' points = '771.8,473.6 771.8,662.4 773.7,662.4 773.7,475.6 '/>
		<polygon fill = 'rgb( 31, 120, 180)' fill-opacity = '0.250000' points = '773.7,475.6 773.7,662.4 775.6,662.4 775.6,477.5 '/>
		<polygon fill = 'rgb( 31, 120, 180)' fill-opacity = '0.250000' points = '775.6,477.5 775.6,662.4 777.5,662.4 777.5,479.5 '/>
		<polygon fill = 'rgb( 31, 120, 180)' fill-opacity = '0.250000' points = '777.5,479.5 777.5,662.4 779.4,662.4 779.4,481.5 '/>
		<polygon fill = 'rgb( 31, 120, 180)' fill-opacity = '0.250000' points = '779.4,481.5 779.4,662.4 781.3,662.4 781.3,483.5 '/>
		<polygon fill = 'rgb( 31, 120, 180)' fill-opacity = '0.250000' points = '781.3,483.5 781.3,662.4 783.2,662.4 783.2,485.6 '/>
		<polygon fill = 'rgb( 31, 120, 180)' fill-opacity = '0.250000' points = '783.2,485.6 783.2,662.4 785.1,662.4 785.1,487.6 '/>
		<polygon fill = 'rgb( 31, 120, 180)' fill-opacity = '0.250000' points = '785.1,487.6 785.1,662.4 787.0,662.4 787.0,489.7 '/>
		<polygon fill = 'rgb( 31, 120, 180)' fill-opacity = '0.250000' points = '787.0,489.7 787.0,662.4 789.0,662.4 789.0,491.8 '/>
		<polygon fill = 'rgb( 31, 120, 180)' fill-opacity = '0.250000' points = '789.0,491.8 789.0,662.4 790.9,662.4 790.9,493.9 '/>
		<polygon fill = 'rgb( 31, 120, 180)' fill-opacity = '0.250000' points = '790.9,493.9 790.9,662.4 792.8,662.4 792.8,496.0 '/>
		<polygon fill = 'rgb( 31, 120, 180)' fill-opacity = '0.250000' points = '792.8,496.0 792.8,662.4 794.7,662.4 794.7,498.2 '/>
		<polygon fill = 'rgb( 31, 120, 180)' fill-opacity = '0.250000' points = '794.7,498.2 794.7,662.4 796.6,662.4 796.6,500.3 '/>
		<polygon fill = 'rgb( 31, 120, 180)' fill-opacity = '0.250000' points = '796.6,500.3 796.6,662.4 798.5,662.4 798.5,502.5 '/>
		<polygon fill = 'rgb( 31, 120, 180)' fill-opacity = '0.250000' points = '798.5,502.5 798.5,662.4 800.4,662.4 800.4,504.6 '/>
		<polygon fill = 'rgb( 31, 120, 180)' fill-opacity = '0.250000' points = '800.4,504.6 800.4,662.4 802.3,662.4 802.3,506.8 '/>
		<polygon fill = 'rgb( 31, 120, 180)' fill-opacity = '0.250000' points = '802.3,506.8 802.3,662.4 804.2,662.4 804.2,508.9 '/>
		<polygon fill = 'rgb( 31, 120, 180)' fill-opacity = '0.250000' points = '804.2,508.9 804.2,662.4 806.1,662.4 806.1,511.0 '/>
		<polygon fill = 'rgb( 31, 120, 180)' fill-opacity = '0.250000' points = '806.1,511.0 806.1,662.4 808.0,662.4 808.0,513.1 '/>
		<polygon fill = 'rgb( 31, 120, 180)' fill-opacity = '0.250000' points = '808.0,513.1 808.0,662.4 809.9,662.4 809.9,515.2 '/>
		<polygon fill = 'rgb( 31, 120, 180)' fill-opacity = '0.250000' points = '809.9,515.2 809.9,662.4 811.8,662.4 811.8,517.2 '/>
		<polygon fill = 'rgb( 31, 120, 180)' fill-opacity = '0.250000' points = '811.8,517.2 811.8,662.4 813.7,662.4 813.7,519.2 '/>
		<polygon fill = 'rgb( 31, 120, 180)' fill-opacity = '0.250000' points = '813.7,519.2 813.7,662.4 815.6,662.4 815.6,521.2 '/>
		<polygon fill = 'rgb( 31, 120, 180)' fill-opacity = '0.250000' points = '815.6,521.2 815.6,662.4 817.5,662.4 817.5,523.2 '/>
		<polygon fill = 'rgb( 31, 120, 180)' fill-opacity = '0.250000' points = '817.5,523.2 817.5,662.4 819.4,662.4 819.4,525.1 '/>
		<polygon fill = 'rgb( 31, 120, 180)' fill-opacity = '0.250000' points = '819.4,525.1 819.4,662.4 821.3,662.4 821.3,526.9 '/>
		<polygon fill = 'rgb( 31, 120, 180)' fill-opacity = '0.250000' points = '821.3,526.9 821.3,662.4 823.2,662.4 823.2,528.8 '/>
		<polygon fill = 'rgb( 31, 120, 180)' fill-opacity = '0.250000' points = '823.2,528.8 823.2,662.4 825.1,662.4 825.1,530.5 '/>
		<polygon fill = 'rgb( 31, 120, 180)' fill-opacity = '0.250000' points = '825.1,530.5 825.1,662.4 827.0,662.4 827.0,532.3 '/>
		<polygon fill = 'rgb( 31, 120, 180)' fill-opacity = '0.250000' points = '827.0,532.3 827.0,662.4 828.9,662.4 828.9,534.0 '/>
		<polygon fill = 'rgb( 31, 120, 180)' fill-opacity = '0.250000' points = '828.9,534.0 828.9,662.4 830.8,662.4 830.8,535.7 '/>
		<polygon fill = 'rgb( 31, 120, 180)' fill-opacity = '0.250000' points = '830.8,535.7 830.8,662.4 832.7,662.4 832.7,537.3 '/>
		<polygon fill = 'rgb( 31, 120, 180)' fill-opacity = '0.250000' points = '832.7,537.3 832.7,662.4 834.6,662.4 834.6,538.9 '/>
		<polygon fill = 'rgb( 31, 120, 180)' fill-opacity = '0.250000' points = '834.6,538.9 834.6,662.4 836.5,662.4 836.5,540.4 '/>
		<polygon fill = 'rgb( 31, 120, 180)' fill-opacity = '0.250000' points = '836.5,540.4 836.5,662.4 838.4,662.4 838.4,541.9 '/>
		<polygon fill = 'rgb( 31, 120, 180)' fill-opacity = '0.250000' points = '838.4,541.9 838.4,662.4 840.4,662.4 840.4,543.4 '/>
		<polygon fill = 'rgb( 31, 120, 180)' fill-opacity = '0.250000' points = '840.4,543.4 840.4,662.4 842.3,662.4 842.3,544.9 '/>
		<polygon fill = 'rgb( 31, 120, 180)' fill-opacity = '0.250000' points = '842.3,544.9 842.3,662.4 844.2,662.4 844.2,546.3 '/>
		<polygon fill = 'rgb( 31, 120, 180)' fill-opacity = '0.250000' points = '844.2,546.3 844.2,662.4 846.1,662.4 846.1,547.7 '/>
		<polygon fill = 'rgb( 31, 120, 180)' fill-opacity = '0.250000' points = '846.1,547.7 846.1,662.4 848.0,662.4 848.0,549.1 '/>
		<polygon fill = 'rgb( 31, 120, 180)' fill-opacity = '0.250000' points = '848.0,549.1 848.0,662.4 849.9,662.4 849.9,550.5 '/>
		<polygon fill = 'rgb( 31, 120, 180)' fill-opacity = '0.250000' points = '849.9,550.5 849.9,662.4 851.8,662.4 851.8,551.8 '/>
		<polygon fill = 'rgb( 31, 120, 180)' fill-opacity = '0.250000' points = '851.8,551.8 851.8,662.4 853.7,662.4 853.7,553.2 '/>
		<polygon fill = 'rgb( 31, 120, 180)' fill-opacity = '0.250000' points = '853.7,553.2 853.7,662.4 855.6,662.4 855.6,554.5 '/>
		<polygon fill = 'rgb( 31, 120, 180)' fill-opacity = '0.250000' points = '855.6,554.5 855.6,662.4 857.5,662.4 857.5,555.8 '/>
		<polygon fill = 'rgb( 31, 120, 180)' fill-opacity = '0.250000' points = '857.5,555.8 857.5,662.4 859.4,662.4 859.4,557.1 '/>
		<polygon fill = 'rgb( 31, 120, 180)' fill-opacity = '0.250000' points = '859.4,557.1 859.4,662.4 861.3,662.4 861.3,558.4 '/>
		<polygon fill = 'rgb( 31, 120, 180)' fill-opacity = '0.250000' points = '861.3,558.4 861.3,662.4 863.2,662.4 863.2,559.6 '/>
		<polygon fill = 'rgb( 31, 120, 180)' fill-opacity = '0.250000' points = '863.2,559.6 863.2,662.4 865.1,662.4 865.1,560.9 '/>
		<polygon fill = 'rgb( 31, 120, 180)' fill-opacity = '0.250000' points = '865.1,560.9 865.1,662.4 867.0,662.4 867.0,562.2 '/>
		<polygon fill = 'rgb( 31, 120, 180)' fill-opacity = '0.250000' points = '867.0,562.2 867.0,662.4 868.9,662.4 868.9,563.5 '/>
		<polygon fill = 'rgb( 31, 120, 180)' fill-opacity = '0.250000' points = '868.9,563.5 868.9,662.4 870.8,662.4 870.8,564.7 '/>
		<polygon fill = 'rgb( 31, 120, 180)' fill-opacity = '0.250000' points = '870.8,564.7 870.8,662.4 872.7,662.4 872.7,566.0 '/>
		<polygon fill = 'rgb( 31, 120, 180)' fill-opacity = '0.250000' points = '872.7,566.0 872.7,662.4 874.6,662.4 874.6,567.2 '/>
		<polygon fill = 'rgb( 31, 120, 180)' fill-opacity = '0.250000' points = '874.6,567.2 874.6,662.4 876.5,662.4 876.5,568.5 '/>
		<polygon fill = 'rgb( 31, 120, 180)' fill-opacity = '0.250000' points = '876.5,568.5 876.5,662.4 878.4,662.4 878.4,569.7 '/>
		<polygon fill = 'rgb( 31, 120, 180)' fill-opacity = '0.250000' points = '878.4,569.7 878.4,662.4 880.3,662.4 880.3,571.0 '/>
		<polygon fill = 'rgb( 31, 120, 180)' fill-opacity = '0.250000' points = '880.3,571.0 880.3,662.4 882.2,662.4 882.2,572.2 '/>
		<polygon fill = 'rgb( 31, 120, 180)' fill-opacity = '0.250000' points = '882.2,572.2 882.2,662.4 884.1,662.4 884.1,573.4 '/>
		<polygon fill = 'rgb( 31, 120, 180)' fill-opacity = '0.250000' points = '884.1,573.4 884.1,662.4 886.0,662.4 886.0,574.6 '/>
		<polygon fill = 'rgb( 31, 120, 180)' fill-opacity = '0.250000' points = '886.0,574.6 886.0,662.4 887.9,662.4 887.9,575.8 '/>
		<polygon fill = 'rgb( 31, 120, 180)' fill-opacity = '0.250000' points = '887.9,575.8 887.9,662.4 889.9,662.4 889.9,577.0 '/>
		<polygon fill = 'rgb( 31, 120, 180)' fill-opacity = '0.250000' points = '889.9,577.0 889.9,662.4 891.8,662.4 891.8,578.1 '/>
		<polygon fill = 'rgb( 31, 120, 180)' fill-opacity = '0.250000' points = '891.8,578.1 891.8,662.4 893.7,662.4 893.7,579.3 '/>
		<polygon fill = 'rgb( 31, 120, 180)' fill-opacity = '0.250000' points = '893.7,579.3 893.7,662.4 895.6,662.4 895.6,580.4 '/>
		<polygon fill = 'rgb( 31, 120, 180)' fill-opacity = '0.250000' points = '895.6,580.4 895.6,662.4 897.5,662.4 897.5,581.5 '/>
		<polygon fill = 'rgb( 31, 120, 180)' fill-opacity = '0.250000' points = '897.5,581.5 897.5,662.4 899.4,662.4 899.4,582.6 '/>
		<polygon fill = 'rgb( 31, 120, 180)' fill-opacity = '0.250000' points = '899.4,582.6 899.4,662.4 901.3,662.4 901.3,583.7 '/>
		<polygon fill = 'rgb( 31, 120, 180)' fill-opacity = '0.250000' points = '901.3,583.7 901.3,662.4 903.2,662.4 903.2,584.7 '/>
		<polygon fill = 'rgb( 31, 120, 180)' fill-opacity = '0.250000' points = '903.2,584.7 903.2,662.4 905.1,662.4 905.1,585.8 '/>
		<polygon fill = 'rgb( 31, 120, 180)' fill-opacity = '0.250000' points = '905.1,585.8 905.1,662.4 907.0,662.4 907.0,586.8 '/>
		<polygon fill = 'rgb( 31, 120, 180)' fill-opacity = '0.250000' points = '907.0,586.8 907.0,662.4 908.9,662.4 908.9,587.9 '/>
		<polygon fill = 'rgb( 31, 120, 180)' fill-opacity = '0.250000' points = '908.9,587.9 908.9,662.4 910.8,662.4 910.8,588.9 '/>
		<polygon fill = 'rgb( 31, 120, 180)' fill-opacity = '0.250000' points = '910.8,588.9 910.8,662.4 912.7,662.4 912.7,590.0 '/>
		<polygon fill = 'rgb( 31, 120, 180)' fill-opacity = '0.250000' points = '912.7,590.0 912.7,662.4 914.6,662.4 914.6,591.0 '/>
		<polygon fill = 'rgb( 31, 120, 180)' fill-opacity = '0.250000' points = '914.6,591.0 914.6,662.4 916.5,662.4 916.5,592.0 '/>
		<polygon fill = 'rgb( 31, 120, 180)' fill-opacity = '0.250000' points = '916.5,592.0 916.5,662.4 918.4,662.4 918.4,593.1 '/>
		<polygon fill = 'rgb( 31, 120, 180)' fill-opacity = '0.250000' points = '918.4,593.1 918.4,662.4 920.3,662.4 920.3,594.1 '/>
		<polygon fill = 'rgb( 31, 120, 180)' fill-opacity = '0.250000' points = '920.3,594.1 920.3,662.4 922.2,662.4 922.2,595.1 '/>
		<polygon fill = 'rgb( 31, 120, 180)' fill-opacity = '0.250000' points = '922.2,595.1 922.2,662.4 924.1,662.4 924.1,596.2 '/>
	</g>
</g>
	</g>
	<g id="gnuplot_plot_3" ><title>Point estimate</title>
<g fill="none" color="white" stroke="rgb( 31, 120, 180)" stroke-width="2.00" stroke-linecap="butt" stroke-linejoin="miter">
</g>
<g fill="none" color="black" stroke="currentColor" stroke-width="2.00" stroke-linecap="butt" stroke-linejoin="miter">
	<g transform="translate(1089.0,103.0)" stroke="none" fill="black" font-family="Helvetica" font-size="12.00"  text-anchor="start">
		<text><tspan font-family="Helvetica" >Point estimate</tspan></text>
	</g>
</g>
<g fill="none" color="black" stroke="currentColor" stroke-width="2.00" stroke-linecap="butt" stroke-linejoin="miter">
	<path stroke='rgb( 31, 120, 180)'  d='M1038.5,99.1 L1080.7,99.1 M496.9,662.4 L496.9,130.8  '/></g>
	</g>
<g fill="none" color="black" stroke="currentColor" stroke-width="2.00" stroke-linecap="butt" stroke-linejoin="miter">
</g>
<g fill="none" color="black" stroke="black" stroke-width="1.00" stroke-linecap="butt" stroke-linejoin="miter">
</g>
<g fill="none" color="black" stroke="currentColor" stroke-width="1.00" stroke-linecap="butt" stroke-linejoin="miter">
	<path stroke='black'  d='M63.6,54.1 L63.6,662.4 L1013.6,662.4 L1013.6,54.1 L63.6,54.1 Z  '/></g>
<g fill="none" color="black" stroke="currentColor" stroke-width="1.00" stroke-linecap="butt" stroke-linejoin="miter">
</g>
</g>
</svg>

