<?xml version="1.0" encoding="utf-8"  standalone="no"?>
<!DOCTYPE svg PUBLIC "-//W3C//DTD SVG 1.1//EN"
 "http://www.w3.org/Graphics/SVG/1.1/DTD/svg11.dtd">
<svg 
 viewBox="0 0 450 300"
 xmlns="http://www.w3.org/2000/svg"
 xmlns:xlink="http://www.w3.org/1999/xlink"
>

<title>Gnuplot</title>
<desc>Produced by GNUPLOT 5.0 patchlevel 5 </desc>

<g id="gnuplot_canvas">

<rect x="0" y="0" width="450" height="300" fill="none"/>
<defs>

	<circle id='gpDot' r='0.5' stroke-width='0.5'/>
	<path id='gpPt0' stroke-width='0.222' stroke='currentColor' d='M-1,0 h2 M0,-1 v2'/>
	<path id='gpPt1' stroke-width='0.222' stroke='currentColor' d='M-1,-1 L1,1 M1,-1 L-1,1'/>
	<path id='gpPt2' stroke-width='0.222' stroke='currentColor' d='M-1,0 L1,0 M0,-1 L0,1 M-1,-1 L1,1 M-1,1 L1,-1'/>
	<rect id='gpPt3' stroke-width='0.222' stroke='currentColor' x='-1' y='-1' width='2' height='2'/>
	<rect id='gpPt4' stroke-width='0.222' stroke='currentColor' fill='currentColor' x='-1' y='-1' width='2' height='2'/>
	<circle id='gpPt5' stroke-width='0.222' stroke='currentColor' cx='0' cy='0' r='1'/>
	<use xlink:href='#gpPt5' id='gpPt6' fill='currentColor' stroke='none'/>
	<path id='gpPt7' stroke-width='0.222' stroke='currentColor' d='M0,-1.33 L-1.33,0.67 L1.33,0.67 z'/>
	<use xlink:href='#gpPt7' id='gpPt8' fill='currentColor' stroke='none'/>
	<use xlink:href='#gpPt7' id='gpPt9' stroke='currentColor' transform='rotate(180)'/>
	<use xlink:href='#gpPt9' id='gpPt10' fill='currentColor' stroke='none'/>
	<use xlink:href='#gpPt3' id='gpPt11' stroke='currentColor' transform='rotate(45)'/>
	<use xlink:href='#gpPt11' id='gpPt12' fill='currentColor' stroke='none'/>
	<path id='gpPt13' stroke-width='0.222' stroke='currentColor' d='M0,1.330 L1.265,0.411 L0.782,-1.067 L-0.782,-1.076 L-1.265,0.411 z'/>
	<use xlink:href='#gpPt13' id='gpPt14' fill='currentColor' stroke='none'/>
	<filter id='textbox' filterUnits='objectBoundingBox' x='0' y='0' height='1' width='1'>
	  <feFlood flood-color='white' flood-opacity='1' result='bgnd'/>
	  <feComposite in='SourceGraphic' in2='bgnd' operator='atop'/>
	</filter>
	<filter id='greybox' filterUnits='objectBoundingBox' x='0' y='0' height='1' width='1'>
	  <feFlood flood-color='lightgrey' flood-opacity='1' result='grey'/>
	  <feComposite in='SourceGraphic' in2='grey' operator='atop'/>
	</filter>
</defs>
<g fill="none" color="white" stroke="currentColor" stroke-width="1.00" stroke-linecap="butt" stroke-linejoin="miter">
</g>
<g fill="none" color="black" stroke="currentColor" stroke-width="1.00" stroke-linecap="butt" stroke-linejoin="miter">
	<path stroke='black'  d='M63.6,242.4 L72.6,242.4  '/>	<g transform="translate(55.3,246.3)" stroke="none" fill="black" font-family="Helvetica" font-size="12.00"  text-anchor="end">
		<text><tspan font-family="Helvetica" > 0</tspan></text>
	</g>
</g>
<g fill="none" color="black" stroke="currentColor" stroke-width="1.00" stroke-linecap="butt" stroke-linejoin="miter">
	<path stroke='black'  d='M63.6,211.5 L72.6,211.5  '/>	<g transform="translate(55.3,215.4)" stroke="none" fill="black" font-family="Helvetica" font-size="12.00"  text-anchor="end">
		<text><tspan font-family="Helvetica" > 2</tspan></text>
	</g>
</g>
<g fill="none" color="black" stroke="currentColor" stroke-width="1.00" stroke-linecap="butt" stroke-linejoin="miter">
	<path stroke='black'  d='M63.6,180.6 L72.6,180.6  '/>	<g transform="translate(55.3,184.5)" stroke="none" fill="black" font-family="Helvetica" font-size="12.00"  text-anchor="end">
		<text><tspan font-family="Helvetica" > 4</tspan></text>
	</g>
</g>
<g fill="none" color="black" stroke="currentColor" stroke-width="1.00" stroke-linecap="butt" stroke-linejoin="miter">
	<path stroke='black'  d='M63.6,149.7 L72.6,149.7  '/>	<g transform="translate(55.3,153.6)" stroke="none" fill="black" font-family="Helvetica" font-size="12.00"  text-anchor="end">
		<text><tspan font-family="Helvetica" > 6</tspan></text>
	</g>
</g>
<g fill="none" color="black" stroke="currentColor" stroke-width="1.00" stroke-linecap="butt" stroke-linejoin="miter">
	<path stroke='black'  d='M63.6,118.8 L72.6,118.8  '/>	<g transform="translate(55.3,122.7)" stroke="none" fill="black" font-family="Helvetica" font-size="12.00"  text-anchor="end">
		<text><tspan font-family="Helvetica" > 8</tspan></text>
	</g>
</g>
<g fill="none" color="black" stroke="currentColor" stroke-width="1.00" stroke-linecap="butt" stroke-linejoin="miter">
	<path stroke='black'  d='M63.6,87.8 L72.6,87.8  '/>	<g transform="translate(55.3,91.7)" stroke="none" fill="black" font-family="Helvetica" font-size="12.00"  text-anchor="end">
		<text><tspan font-family="Helvetica" > 10</tspan></text>
	</g>
</g>
<g fill="none" color="black" stroke="currentColor" stroke-width="1.00" stroke-linecap="butt" stroke-linejoin="miter">
	<path stroke='black'  d='M63.6,56.9 L72.6,56.9  '/>	<g transform="translate(55.3,60.8)" stroke="none" fill="black" font-family="Helvetica" font-size="12.00"  text-anchor="end">
		<text><tspan font-family="Helvetica" > 12</tspan></text>
	</g>
</g>
<g fill="none" color="black" stroke="currentColor" stroke-width="1.00" stroke-linecap="butt" stroke-linejoin="miter">
	<path stroke='black'  d='M63.6,26.0 L72.6,26.0  '/>	<g transform="translate(55.3,29.9)" stroke="none" fill="black" font-family="Helvetica" font-size="12.00"  text-anchor="end">
		<text><tspan font-family="Helvetica" > 14</tspan></text>
	</g>
</g>
<g fill="none" color="black" stroke="currentColor" stroke-width="1.00" stroke-linecap="butt" stroke-linejoin="miter">
	<path stroke='black'  d='M79.9,242.4 L79.9,233.4  '/>	<g transform="translate(79.9,264.3)" stroke="none" fill="black" font-family="Helvetica" font-size="12.00"  text-anchor="middle">
		<text><tspan font-family="Helvetica" > 13.6</tspan></text>
	</g>
</g>
<g fill="none" color="black" stroke="currentColor" stroke-width="1.00" stroke-linecap="butt" stroke-linejoin="miter">
	<path stroke='black'  d='M148.3,242.4 L148.3,233.4  '/>	<g transform="translate(148.3,264.3)" stroke="none" fill="black" font-family="Helvetica" font-size="12.00"  text-anchor="middle">
		<text><tspan font-family="Helvetica" > 13.7</tspan></text>
	</g>
</g>
<g fill="none" color="black" stroke="currentColor" stroke-width="1.00" stroke-linecap="butt" stroke-linejoin="miter">
	<path stroke='black'  d='M216.8,242.4 L216.8,233.4  '/>	<g transform="translate(216.8,264.3)" stroke="none" fill="black" font-family="Helvetica" font-size="12.00"  text-anchor="middle">
		<text><tspan font-family="Helvetica" > 13.8</tspan></text>
	</g>
</g>
<g fill="none" color="black" stroke="currentColor" stroke-width="1.00" stroke-linecap="butt" stroke-linejoin="miter">
	<path stroke='black'  d='M285.2,242.4 L285.2,233.4  '/>	<g transform="translate(285.2,264.3)" stroke="none" fill="black" font-family="Helvetica" font-size="12.00"  text-anchor="middle">
		<text><tspan font-family="Helvetica" > 13.9</tspan></text>
	</g>
</g>
<g fill="none" color="black" stroke="currentColor" stroke-width="1.00" stroke-linecap="butt" stroke-linejoin="miter">
	<path stroke='black'  d='M353.6,242.4 L353.6,233.4  '/>	<g transform="translate(353.6,264.3)" stroke="none" fill="black" font-family="Helvetica" font-size="12.00"  text-anchor="middle">
		<text><tspan font-family="Helvetica" > 14</tspan></text>
	</g>
</g>
<g fill="none" color="black" stroke="currentColor" stroke-width="1.00" stroke-linecap="butt" stroke-linejoin="miter">
	<path stroke='black'  d='M422.0,242.4 L422.0,233.4  '/>	<g transform="translate(422.0,264.3)" stroke="none" fill="black" font-family="Helvetica" font-size="12.00"  text-anchor="middle">
		<text><tspan font-family="Helvetica" > 14.1</tspan></text>
	</g>
</g>
<g fill="none" color="black" stroke="currentColor" stroke-width="1.00" stroke-linecap="butt" stroke-linejoin="miter">
</g>
<g fill="none" color="black" stroke="currentColor" stroke-width="1.00" stroke-linecap="butt" stroke-linejoin="miter">
	<path stroke='black'  d='M63.6,16.7 L63.6,242.4 L425.0,242.4 L425.0,16.7 L63.6,16.7 Z  '/></g>
<g fill="none" color="black" stroke="currentColor" stroke-width="1.00" stroke-linecap="butt" stroke-linejoin="miter">
	<g transform="translate(17.0,129.6) rotate(270)" stroke="none" fill="black" font-family="Helvetica" font-size="12.00"  text-anchor="middle">
		<text><tspan font-family="Helvetica" >Density (a.u.)</tspan></text>
	</g>
</g>
<g fill="none" color="black" stroke="currentColor" stroke-width="1.00" stroke-linecap="butt" stroke-linejoin="miter">
	<g transform="translate(244.3,291.3)" stroke="none" fill="black" font-family="Helvetica" font-size="12.00"  text-anchor="middle">
		<text><tspan font-family="Helvetica" >Average time (ms)</tspan></text>
	</g>
</g>
<g fill="none" color="black" stroke="currentColor" stroke-width="1.00" stroke-linecap="butt" stroke-linejoin="miter">
</g>
	<g id="gnuplot_plot_1" ><title>PDF</title>
<g fill="none" color="black" stroke="currentColor" stroke-width="1.00" stroke-linecap="butt" stroke-linejoin="miter">
	<g stroke='none' shape-rendering='crispEdges'>
		<polygon fill = 'rgb( 31, 120, 180)' fill-opacity = '0.250000' points = '63.6,242.3 63.6,242.4 64.3,242.4 64.3,242.3 '/>
		<polygon fill = 'rgb( 31, 120, 180)' fill-opacity = '0.250000' points = '64.3,242.3 64.3,242.4 65.0,242.4 65.0,242.3 '/>
		<polygon fill = 'rgb( 31, 120, 180)' fill-opacity = '0.250000' points = '65.0,242.3 65.0,242.4 65.8,242.4 65.8,242.3 '/>
		<polygon fill = 'rgb( 31, 120, 180)' fill-opacity = '0.250000' points = '65.8,242.3 65.8,242.4 66.5,242.4 66.5,242.3 '/>
		<polygon fill = 'rgb( 31, 120, 180)' fill-opacity = '0.250000' points = '66.5,242.3 66.5,242.4 67.2,242.4 67.2,242.3 '/>
		<polygon fill = 'rgb( 31, 120, 180)' fill-opacity = '0.250000' points = '67.2,242.3 67.2,242.4 67.9,242.4 67.9,242.2 '/>
		<polygon fill = 'rgb( 31, 120, 180)' fill-opacity = '0.250000' points = '67.9,242.2 67.9,242.4 68.7,242.4 68.7,242.2 '/>
		<polygon fill = 'rgb( 31, 120, 180)' fill-opacity = '0.250000' points = '68.7,242.2 68.7,242.4 69.4,242.4 69.4,242.2 '/>
		<polygon fill = 'rgb( 31, 120, 180)' fill-opacity = '0.250000' points = '69.4,242.2 69.4,242.4 70.1,242.4 70.1,242.1 '/>
		<polygon fill = 'rgb( 31, 120, 180)' fill-opacity = '0.250000' points = '70.1,242.1 70.1,242.4 70.8,242.4 70.8,242.1 '/>
		<polygon fill = 'rgb( 31, 120, 180)' fill-opacity = '0.250000' points = '70.8,242.1 70.8,242.4 71.6,242.4 71.6,242.1 '/>
		<polygon fill = 'rgb( 31, 120, 180)' fill-opacity = '0.250000' points = '71.6,242.1 71.6,242.4 72.3,242.4 72.3,242.0 '/>
		<polygon fill = 'rgb( 31, 120, 180)' fill-opacity = '0.250000' points = '72.3,242.0 72.3,242.4 73.0,242.4 73.0,242.0 '/>
		<polygon fill = 'rgb( 31, 120, 180)' fill-opacity = '0.250000' points = '73.0,242.0 73.0,242.4 73.7,242.4 73.7,241.9 '/>
		<polygon fill = 'rgb( 31, 120, 180)' fill-opacity = '0.250000' points = '73.7,241.9 73.7,242.4 74.5,242.4 74.5,241.8 '/>
		<polygon fill = 'rgb( 31, 120, 180)' fill-opacity = '0.250000' points = '74.5,241.8 74.5,242.4 75.2,242.4 75.2,241.7 '/>
		<polygon fill = 'rgb( 31, 120, 180)' fill-opacity = '0.250000' points = '75.2,241.7 75.2,242.4 75.9,242.4 75.9,241.7 '/>
		<polygon fill = 'rgb( 31, 120, 180)' fill-opacity = '0.250000' points = '75.9,241.7 75.9,242.4 76.6,242.4 76.6,241.6 '/>
		<polygon fill = 'rgb( 31, 120, 180)' fill-opacity = '0.250000' points = '76.6,241.6 76.6,242.4 77.4,242.4 77.4,241.4 '/>
		<polygon fill = 'rgb( 31, 120, 180)' fill-opacity = '0.250000' points = '77.4,241.4 77.4,242.4 78.1,242.4 78.1,241.3 '/>
		<polygon fill = 'rgb( 31, 120, 180)' fill-opacity = '0.250000' points = '78.1,241.3 78.1,242.4 78.8,242.4 78.8,241.2 '/>
		<polygon fill = 'rgb( 31, 120, 180)' fill-opacity = '0.250000' points = '78.8,241.2 78.8,242.4 79.5,242.4 79.5,241.0 '/>
		<polygon fill = 'rgb( 31, 120, 180)' fill-opacity = '0.250000' points = '79.5,241.0 79.5,242.4 80.3,242.4 80.3,240.9 '/>
		<polygon fill = 'rgb( 31, 120, 180)' fill-opacity = '0.250000' points = '80.3,240.9 80.3,242.4 81.0,242.4 81.0,240.7 '/>
		<polygon fill = 'rgb( 31, 120, 180)' fill-opacity = '0.250000' points = '81.0,240.7 81.0,242.4 81.7,242.4 81.7,240.4 '/>
		<polygon fill = 'rgb( 31, 120, 180)' fill-opacity = '0.250000' points = '81.7,240.4 81.7,242.4 82.4,242.4 82.4,240.2 '/>
		<polygon fill = 'rgb( 31, 120, 180)' fill-opacity = '0.250000' points = '82.4,240.2 82.4,242.4 83.2,242.4 83.2,240.0 '/>
		<polygon fill = 'rgb( 31, 120, 180)' fill-opacity = '0.250000' points = '83.2,240.0 83.2,242.4 83.9,242.4 83.9,239.7 '/>
		<polygon fill = 'rgb( 31, 120, 180)' fill-opacity = '0.250000' points = '83.9,239.7 83.9,242.4 84.6,242.4 84.6,239.4 '/>
		<polygon fill = 'rgb( 31, 120, 180)' fill-opacity = '0.250000' points = '84.6,239.4 84.6,242.4 85.3,242.4 85.3,239.0 '/>
		<polygon fill = 'rgb( 31, 120, 180)' fill-opacity = '0.250000' points = '85.3,239.0 85.3,242.4 86.1,242.4 86.1,238.6 '/>
		<polygon fill = 'rgb( 31, 120, 180)' fill-opacity = '0.250000' points = '86.1,238.6 86.1,242.4 86.8,242.4 86.8,238.2 '/>
		<polygon fill = 'rgb( 31, 120, 180)' fill-opacity = '0.250000' points = '86.8,238.2 86.8,242.4 87.5,242.4 87.5,237.8 '/>
		<polygon fill = 'rgb( 31, 120, 180)' fill-opacity = '0.250000' points = '87.5,237.8 87.5,242.4 88.2,242.4 88.2,237.3 '/>
		<polygon fill = 'rgb( 31, 120, 180)' fill-opacity = '0.250000' points = '88.2,237.3 88.2,242.4 88.9,242.4 88.9,236.8 '/>
		<polygon fill = 'rgb( 31, 120, 180)' fill-opacity = '0.250000' points = '88.9,236.8 88.9,242.4 89.7,242.4 89.7,236.2 '/>
		<polygon fill = 'rgb( 31, 120, 180)' fill-opacity = '0.250000' points = '89.7,236.2 89.7,242.4 90.4,242.4 90.4,235.5 '/>
		<polygon fill = 'rgb( 31, 120, 180)' fill-opacity = '0.250000' points = '90.4,235.5 90.4,242.4 91.1,242.4 91.1,234.9 '/>
		<polygon fill = 'rgb( 31, 120, 180)' fill-opacity = '0.250000' points = '91.1,234.9 91.1,242.4 91.8,242.4 91.8,234.1 '/>
		<polygon fill = 'rgb( 31, 120, 180)' fill-opacity = '0.250000' points = '91.8,234.1 91.8,242.4 92.6,242.4 92.6,233.3 '/>
		<polygon fill = 'rgb( 31, 120, 180)' fill-opacity = '0.250000' points = '92.6,233.3 92.6,242.4 93.3,242.4 93.3,232.4 '/>
		<polygon fill = 'rgb( 31, 120, 180)' fill-opacity = '0.250000' points = '93.3,232.4 93.3,242.4 94.0,242.4 94.0,231.5 '/>
		<polygon fill = 'rgb( 31, 120, 180)' fill-opacity = '0.250000' points = '94.0,231.5 94.0,242.4 94.7,242.4 94.7,230.5 '/>
		<polygon fill = 'rgb( 31, 120, 180)' fill-opacity = '0.250000' points = '94.7,230.5 94.7,242.4 95.5,242.4 95.5,229.3 '/>
		<polygon fill = 'rgb( 31, 120, 180)' fill-opacity = '0.250000' points = '95.5,229.3 95.5,242.4 96.2,242.4 96.2,228.2 '/>
		<polygon fill = 'rgb( 31, 120, 180)' fill-opacity = '0.250000' points = '96.2,228.2 96.2,242.4 96.9,242.4 96.9,226.9 '/>
		<polygon fill = 'rgb( 31, 120, 180)' fill-opacity = '0.250000' points = '96.9,226.9 96.9,242.4 97.6,242.4 97.6,225.5 '/>
		<polygon fill = 'rgb( 31, 120, 180)' fill-opacity = '0.250000' points = '97.6,225.5 97.6,242.4 98.4,242.4 98.4,224.0 '/>
		<polygon fill = 'rgb( 31, 120, 180)' fill-opacity = '0.250000' points = '98.4,224.0 98.4,242.4 99.1,242.4 99.1,222.4 '/>
		<polygon fill = 'rgb( 31, 120, 180)' fill-opacity = '0.250000' points = '99.1,222.4 99.1,242.4 99.8,242.4 99.8,220.8 '/>
		<polygon fill = 'rgb( 31, 120, 180)' fill-opacity = '0.250000' points = '99.8,220.8 99.8,242.4 100.5,242.4 100.5,219.0 '/>
		<polygon fill = 'rgb( 31, 120, 180)' fill-opacity = '0.250000' points = '100.5,219.0 100.5,242.4 101.3,242.4 101.3,217.0 '/>
		<polygon fill = 'rgb( 31, 120, 180)' fill-opacity = '0.250000' points = '101.3,217.0 101.3,242.4 102.0,242.4 102.0,215.0 '/>
		<polygon fill = 'rgb( 31, 120, 180)' fill-opacity = '0.250000' points = '102.0,215.0 102.0,242.4 102.7,242.4 102.7,212.8 '/>
		<polygon fill = 'rgb( 31, 120, 180)' fill-opacity = '0.250000' points = '102.7,212.8 102.7,242.4 103.4,242.4 103.4,210.5 '/>
		<polygon fill = 'rgb( 31, 120, 180)' fill-opacity = '0.250000' points = '103.4,210.5 103.4,242.4 104.2,242.4 104.2,208.0 '/>
		<polygon fill = 'rgb( 31, 120, 180)' fill-opacity = '0.250000' points = '104.2,208.0 104.2,242.4 104.9,242.4 104.9,205.4 '/>
		<polygon fill = 'rgb( 31, 120, 180)' fill-opacity = '0.250000' points = '104.9,205.4 104.9,242.4 105.6,242.4 105.6,202.7 '/>
		<polygon fill = 'rgb( 31, 120, 180)' fill-opacity = '0.250000' points = '105.6,202.7 105.6,242.4 106.3,242.4 106.3,199.8 '/>
		<polygon fill = 'rgb( 31, 120, 180)' fill-opacity = '0.250000' points = '106.3,199.8 106.3,242.4 107.1,242.4 107.1,196.8 '/>
		<polygon fill = 'rgb( 31, 120, 180)' fill-opacity = '0.250000' points = '107.1,196.8 107.1,242.4 107.8,242.4 107.8,193.6 '/>
		<polygon fill = 'rgb( 31, 120, 180)' fill-opacity = '0.250000' points = '107.8,193.6 107.8,242.4 108.5,242.4 108.5,190.2 '/>
		<polygon fill = 'rgb( 31, 120, 180)' fill-opacity = '0.250000' points = '108.5,190.2 108.5,242.4 109.2,242.4 109.2,186.7 '/>
		<polygon fill = 'rgb( 31, 120, 180)' fill-opacity = '0.250000' points = '109.2,186.7 109.2,242.4 110.0,242.4 110.0,183.0 '/>
		<polygon fill = 'rgb( 31, 120, 180)' fill-opacity = '0.250000' points = '110.0,183.0 110.0,242.4 110.7,242.4 110.7,179.2 '/>
		<polygon fill = 'rgb( 31, 120, 180)' fill-opacity = '0.250000' points = '110.7,179.2 110.7,242.4 111.4,242.4 111.4,175.2 '/>
		<polygon fill = 'rgb( 31, 120, 180)' fill-opacity = '0.250000' points = '111.4,175.2 111.4,242.4 112.1,242.4 112.1,171.1 '/>
		<polygon fill = 'rgb( 31, 120, 180)' fill-opacity = '0.250000' points = '112.1,171.1 112.1,242.4 112.8,242.4 112.8,166.8 '/>
		<polygon fill = 'rgb( 31, 120, 180)' fill-opacity = '0.250000' points = '112.8,166.8 112.8,242.4 113.6,242.4 113.6,162.3 '/>
		<polygon fill = 'rgb( 31, 120, 180)' fill-opacity = '0.250000' points = '113.6,162.3 113.6,242.4 114.3,242.4 114.3,157.8 '/>
		<polygon fill = 'rgb( 31, 120, 180)' fill-opacity = '0.250000' points = '114.3,157.8 114.3,242.4 115.0,242.4 115.0,153.1 '/>
		<polygon fill = 'rgb( 31, 120, 180)' fill-opacity = '0.250000' points = '115.0,153.1 115.0,242.4 115.7,242.4 115.7,148.2 '/>
		<polygon fill = 'rgb( 31, 120, 180)' fill-opacity = '0.250000' points = '115.7,148.2 115.7,242.4 116.5,242.4 116.5,143.3 '/>
		<polygon fill = 'rgb( 31, 120, 180)' fill-opacity = '0.250000' points = '116.5,143.3 116.5,242.4 117.2,242.4 117.2,138.2 '/>
		<polygon fill = 'rgb( 31, 120, 180)' fill-opacity = '0.250000' points = '117.2,138.2 117.2,242.4 117.9,242.4 117.9,133.1 '/>
		<polygon fill = 'rgb( 31, 120, 180)' fill-opacity = '0.250000' points = '117.9,133.1 117.9,242.4 118.6,242.4 118.6,127.9 '/>
		<polygon fill = 'rgb( 31, 120, 180)' fill-opacity = '0.250000' points = '118.6,127.9 118.6,242.4 119.4,242.4 119.4,122.6 '/>
		<polygon fill = 'rgb( 31, 120, 180)' fill-opacity = '0.250000' points = '119.4,122.6 119.4,242.4 120.1,242.4 120.1,117.2 '/>
		<polygon fill = 'rgb( 31, 120, 180)' fill-opacity = '0.250000' points = '120.1,117.2 120.1,242.4 120.8,242.4 120.8,111.8 '/>
		<polygon fill = 'rgb( 31, 120, 180)' fill-opacity = '0.250000' points = '120.8,111.8 120.8,242.4 121.5,242.4 121.5,106.4 '/>
		<polygon fill = 'rgb( 31, 120, 180)' fill-opacity = '0.250000' points = '121.5,106.4 121.5,242.4 122.3,242.4 122.3,101.0 '/>
		<polygon fill = 'rgb( 31, 120, 180)' fill-opacity = '0.250000' points = '122.3,101.0 122.3,242.4 123.0,242.4 123.0,95.6 '/>
		<polygon fill = 'rgb( 31, 120, 180)' fill-opacity = '0.250000' points = '123.0,95.6 123.0,242.4 123.7,242.4 123.7,90.2 '/>
		<polygon fill = 'rgb( 31, 120, 180)' fill-opacity = '0.250000' points = '123.7,90.2 123.7,242.4 124.4,242.4 124.4,84.9 '/>
		<polygon fill = 'rgb( 31, 120, 180)' fill-opacity = '0.250000' points = '124.4,84.9 124.4,242.4 125.2,242.4 125.2,79.6 '/>
		<polygon fill = 'rgb( 31, 120, 180)' fill-opacity = '0.250000' points = '125.2,79.6 125.2,242.4 125.9,242.4 125.9,74.5 '/>
		<polygon fill = 'rgb( 31, 120, 180)' fill-opacity = '0.250000' points = '125.9,74.5 125.9,242.4 126.6,242.4 126.6,69.4 '/>
		<polygon fill = 'rgb( 31, 120, 180)' fill-opacity = '0.250000' points = '126.6,69.4 126.6,242.4 127.3,242.4 127.3,64.5 '/>
		<polygon fill = 'rgb( 31, 120, 180)' fill-opacity = '0.250000' points = '127.3,64.5 127.3,242.4 128.1,242.4 128.1,59.7 '/>
		<polygon fill = 'rgb( 31, 120, 180)' fill-opacity = '0.250000' points = '128.1,59.7 128.1,242.4 128.8,242.4 128.8,55.1 '/>
		<polygon fill = 'rgb( 31, 120, 180)' fill-opacity = '0.250000' points = '128.8,55.1 128.8,242.4 129.5,242.4 129.5,50.7 '/>
		<polygon fill = 'rgb( 31, 120, 180)' fill-opacity = '0.250000' points = '129.5,50.7 129.5,242.4 130.2,242.4 130.2,46.4 '/>
		<polygon fill = 'rgb( 31, 120, 180)' fill-opacity = '0.250000' points = '130.2,46.4 130.2,242.4 131.0,242.4 131.0,42.4 '/>
		<polygon fill = 'rgb( 31, 120, 180)' fill-opacity = '0.250000' points = '131.0,42.4 131.0,242.4 131.7,242.4 131.7,38.7 '/>
		<polygon fill = 'rgb( 31, 120, 180)' fill-opacity = '0.250000' points = '131.7,38.7 131.7,242.4 132.4,242.4 132.4,35.2 '/>
		<polygon fill = 'rgb( 31, 120, 180)' fill-opacity = '0.250000' points = '132.4,35.2 132.4,242.4 133.1,242.4 133.1,31.9 '/>
		<polygon fill = 'rgb( 31, 120, 180)' fill-opacity = '0.250000' points = '133.1,31.9 133.1,242.4 133.9,242.4 133.9,29.0 '/>
		<polygon fill = 'rgb( 31, 120, 180)' fill-opacity = '0.250000' points = '133.9,29.0 133.9,242.4 134.6,242.4 134.6,26.3 '/>
		<polygon fill = 'rgb( 31, 120, 180)' fill-opacity = '0.250000' points = '134.6,26.3 134.6,242.4 135.3,242.4 135.3,24.0 '/>
		<polygon fill = 'rgb( 31, 120, 180)' fill-opacity = '0.250000' points = '135.3,24.0 135.3,242.4 136.0,242.4 136.0,21.9 '/>
		<polygon fill = 'rgb( 31, 120, 180)' fill-opacity = '0.250000' points = '136.0,21.9 136.0,242.4 136.7,242.4 136.7,20.2 '/>
		<polygon fill = 'rgb( 31, 120, 180)' fill-opacity = '0.250000' points = '136.7,20.2 136.7,242.4 137.5,242.4 137.5,18.8 '/>
		<polygon fill = 'rgb( 31, 120, 180)' fill-opacity = '0.250000' points = '137.5,18.8 137.5,242.4 138.2,242.4 138.2,17.8 '/>
		<polygon fill = 'rgb( 31, 120, 180)' fill-opacity = '0.250000' points = '138.2,17.8 138.2,242.4 138.9,242.4 138.9,17.1 '/>
		<polygon fill = 'rgb( 31, 120, 180)' fill-opacity = '0.250000' points = '138.9,17.1 138.9,242.4 139.6,242.4 139.6,16.7 '/>
		<polygon fill = 'rgb( 31, 120, 180)' fill-opacity = '0.250000' points = '139.6,16.7 139.6,242.4 140.4,242.4 140.4,16.7 '/>
		<polygon fill = 'rgb( 31, 120, 180)' fill-opacity = '0.250000' points = '140.4,16.7 140.4,242.4 141.1,242.4 141.1,17.0 '/>
		<polygon fill = 'rgb( 31, 120, 180)' fill-opacity = '0.250000' points = '141.1,17.0 141.1,242.4 141.8,242.4 141.8,17.6 '/>
		<polygon fill = 'rgb( 31, 120, 180)' fill-opacity = '0.250000' points = '141.8,17.6 141.8,242.4 142.5,242.4 142.5,18.6 '/>
		<polygon fill = 'rgb( 31, 120, 180)' fill-opacity = '0.250000' points = '142.5,18.6 142.5,242.4 143.3,242.4 143.3,19.9 '/>
		<polygon fill = 'rgb( 31, 120, 180)' fill-opacity = '0.250000' points = '143.3,19.9 143.3,242.4 144.0,242.4 144.0,21.5 '/>
		<polygon fill = 'rgb( 31, 120, 180)' fill-opacity = '0.250000' points = '144.0,21.5 144.0,242.4 144.7,242.4 144.7,23.4 '/>
		<polygon fill = 'rgb( 31, 120, 180)' fill-opacity = '0.250000' points = '144.7,23.4 144.7,242.4 145.4,242.4 145.4,25.6 '/>
		<polygon fill = 'rgb( 31, 120, 180)' fill-opacity = '0.250000' points = '145.4,25.6 145.4,242.4 146.2,242.4 146.2,28.1 '/>
		<polygon fill = 'rgb( 31, 120, 180)' fill-opacity = '0.250000' points = '146.2,28.1 146.2,242.4 146.9,242.4 146.9,30.8 '/>
		<polygon fill = 'rgb( 31, 120, 180)' fill-opacity = '0.250000' points = '146.9,30.8 146.9,242.4 147.6,242.4 147.6,33.8 '/>
		<polygon fill = 'rgb( 31, 120, 180)' fill-opacity = '0.250000' points = '147.6,33.8 147.6,242.4 148.3,242.4 148.3,37.0 '/>
		<polygon fill = 'rgb( 31, 120, 180)' fill-opacity = '0.250000' points = '148.3,37.0 148.3,242.4 149.1,242.4 149.1,40.5 '/>
		<polygon fill = 'rgb( 31, 120, 180)' fill-opacity = '0.250000' points = '149.1,40.5 149.1,242.4 149.8,242.4 149.8,44.1 '/>
		<polygon fill = 'rgb( 31, 120, 180)' fill-opacity = '0.250000' points = '149.8,44.1 149.8,242.4 150.5,242.4 150.5,48.0 '/>
		<polygon fill = 'rgb( 31, 120, 180)' fill-opacity = '0.250000' points = '150.5,48.0 150.5,242.4 151.2,242.4 151.2,52.0 '/>
		<polygon fill = 'rgb( 31, 120, 180)' fill-opacity = '0.250000' points = '151.2,52.0 151.2,242.4 152.0,242.4 152.0,56.1 '/>
		<polygon fill = 'rgb( 31, 120, 180)' fill-opacity = '0.250000' points = '152.0,56.1 152.0,242.4 152.7,242.4 152.7,60.4 '/>
		<polygon fill = 'rgb( 31, 120, 180)' fill-opacity = '0.250000' points = '152.7,60.4 152.7,242.4 153.4,242.4 153.4,64.9 '/>
		<polygon fill = 'rgb( 31, 120, 180)' fill-opacity = '0.250000' points = '153.4,64.9 153.4,242.4 154.1,242.4 154.1,69.4 '/>
		<polygon fill = 'rgb( 31, 120, 180)' fill-opacity = '0.250000' points = '154.1,69.4 154.1,242.4 154.9,242.4 154.9,74.0 '/>
		<polygon fill = 'rgb( 31, 120, 180)' fill-opacity = '0.250000' points = '154.9,74.0 154.9,242.4 155.6,242.4 155.6,78.6 '/>
		<polygon fill = 'rgb( 31, 120, 180)' fill-opacity = '0.250000' points = '155.6,78.6 155.6,242.4 156.3,242.4 156.3,83.3 '/>
		<polygon fill = 'rgb( 31, 120, 180)' fill-opacity = '0.250000' points = '156.3,83.3 156.3,242.4 157.0,242.4 157.0,88.1 '/>
		<polygon fill = 'rgb( 31, 120, 180)' fill-opacity = '0.250000' points = '157.0,88.1 157.0,242.4 157.8,242.4 157.8,92.8 '/>
		<polygon fill = 'rgb( 31, 120, 180)' fill-opacity = '0.250000' points = '157.8,92.8 157.8,242.4 158.5,242.4 158.5,97.6 '/>
		<polygon fill = 'rgb( 31, 120, 180)' fill-opacity = '0.250000' points = '158.5,97.6 158.5,242.4 159.2,242.4 159.2,102.3 '/>
		<polygon fill = 'rgb( 31, 120, 180)' fill-opacity = '0.250000' points = '159.2,102.3 159.2,242.4 159.9,242.4 159.9,107.0 '/>
		<polygon fill = 'rgb( 31, 120, 180)' fill-opacity = '0.250000' points = '159.9,107.0 159.9,242.4 160.6,242.4 160.6,111.7 '/>
		<polygon fill = 'rgb( 31, 120, 180)' fill-opacity = '0.250000' points = '160.6,111.7 160.6,242.4 161.4,242.4 161.4,116.3 '/>
		<polygon fill = 'rgb( 31, 120, 180)' fill-opacity = '0.250000' points = '161.4,116.3 161.4,242.4 162.1,242.4 162.1,120.9 '/>
		<polygon fill = 'rgb( 31, 120, 180)' fill-opacity = '0.250000' points = '162.1,120.9 162.1,242.4 162.8,242.4 162.8,125.4 '/>
		<polygon fill = 'rgb( 31, 120, 180)' fill-opacity = '0.250000' points = '162.8,125.4 162.8,242.4 163.5,242.4 163.5,129.8 '/>
		<polygon fill = 'rgb( 31, 120, 180)' fill-opacity = '0.250000' points = '163.5,129.8 163.5,242.4 164.3,242.4 164.3,134.1 '/>
		<polygon fill = 'rgb( 31, 120, 180)' fill-opacity = '0.250000' points = '164.3,134.1 164.3,242.4 165.0,242.4 165.0,138.4 '/>
		<polygon fill = 'rgb( 31, 120, 180)' fill-opacity = '0.250000' points = '165.0,138.4 165.0,242.4 165.7,242.4 165.7,142.5 '/>
		<polygon fill = 'rgb( 31, 120, 180)' fill-opacity = '0.250000' points = '165.7,142.5 165.7,242.4 166.4,242.4 166.4,146.5 '/>
		<polygon fill = 'rgb( 31, 120, 180)' fill-opacity = '0.250000' points = '166.4,146.5 166.4,242.4 167.2,242.4 167.2,150.5 '/>
		<polygon fill = 'rgb( 31, 120, 180)' fill-opacity = '0.250000' points = '167.2,150.5 167.2,242.4 167.9,242.4 167.9,154.3 '/>
		<polygon fill = 'rgb( 31, 120, 180)' fill-opacity = '0.250000' points = '167.9,154.3 167.9,242.4 168.6,242.4 168.6,158.0 '/>
		<polygon fill = 'rgb( 31, 120, 180)' fill-opacity = '0.250000' points = '168.6,158.0 168.6,242.4 169.3,242.4 169.3,161.6 '/>
		<polygon fill = 'rgb( 31, 120, 180)' fill-opacity = '0.250000' points = '169.3,161.6 169.3,242.4 170.1,242.4 170.1,165.0 '/>
		<polygon fill = 'rgb( 31, 120, 180)' fill-opacity = '0.250000' points = '170.1,165.0 170.1,242.4 170.8,242.4 170.8,168.4 '/>
		<polygon fill = 'rgb( 31, 120, 180)' fill-opacity = '0.250000' points = '170.8,168.4 170.8,242.4 171.5,242.4 171.5,171.6 '/>
		<polygon fill = 'rgb( 31, 120, 180)' fill-opacity = '0.250000' points = '171.5,171.6 171.5,242.4 172.2,242.4 172.2,174.7 '/>
		<polygon fill = 'rgb( 31, 120, 180)' fill-opacity = '0.250000' points = '172.2,174.7 172.2,242.4 173.0,242.4 173.0,177.7 '/>
		<polygon fill = 'rgb( 31, 120, 180)' fill-opacity = '0.250000' points = '173.0,177.7 173.0,242.4 173.7,242.4 173.7,180.6 '/>
		<polygon fill = 'rgb( 31, 120, 180)' fill-opacity = '0.250000' points = '173.7,180.6 173.7,242.4 174.4,242.4 174.4,183.4 '/>
		<polygon fill = 'rgb( 31, 120, 180)' fill-opacity = '0.250000' points = '174.4,183.4 174.4,242.4 175.1,242.4 175.1,186.0 '/>
		<polygon fill = 'rgb( 31, 120, 180)' fill-opacity = '0.250000' points = '175.1,186.0 175.1,242.4 175.9,242.4 175.9,188.6 '/>
		<polygon fill = 'rgb( 31, 120, 180)' fill-opacity = '0.250000' points = '175.9,188.6 175.9,242.4 176.6,242.4 176.6,191.0 '/>
		<polygon fill = 'rgb( 31, 120, 180)' fill-opacity = '0.250000' points = '176.6,191.0 176.6,242.4 177.3,242.4 177.3,193.4 '/>
		<polygon fill = 'rgb( 31, 120, 180)' fill-opacity = '0.250000' points = '177.3,193.4 177.3,242.4 178.0,242.4 178.0,195.6 '/>
		<polygon fill = 'rgb( 31, 120, 180)' fill-opacity = '0.250000' points = '178.0,195.6 178.0,242.4 178.8,242.4 178.8,197.8 '/>
		<polygon fill = 'rgb( 31, 120, 180)' fill-opacity = '0.250000' points = '178.8,197.8 178.8,242.4 179.5,242.4 179.5,199.9 '/>
		<polygon fill = 'rgb( 31, 120, 180)' fill-opacity = '0.250000' points = '179.5,199.9 179.5,242.4 180.2,242.4 180.2,201.9 '/>
		<polygon fill = 'rgb( 31, 120, 180)' fill-opacity = '0.250000' points = '180.2,201.9 180.2,242.4 180.9,242.4 180.9,203.8 '/>
		<polygon fill = 'rgb( 31, 120, 180)' fill-opacity = '0.250000' points = '180.9,203.8 180.9,242.4 181.7,242.4 181.7,205.6 '/>
		<polygon fill = 'rgb( 31, 120, 180)' fill-opacity = '0.250000' points = '181.7,205.6 181.7,242.4 182.4,242.4 182.4,207.3 '/>
		<polygon fill = 'rgb( 31, 120, 180)' fill-opacity = '0.250000' points = '182.4,207.3 182.4,242.4 183.1,242.4 183.1,209.0 '/>
		<polygon fill = 'rgb( 31, 120, 180)' fill-opacity = '0.250000' points = '183.1,209.0 183.1,242.4 183.8,242.4 183.8,210.6 '/>
		<polygon fill = 'rgb( 31, 120, 180)' fill-opacity = '0.250000' points = '183.8,210.6 183.8,242.4 184.5,242.4 184.5,212.1 '/>
		<polygon fill = 'rgb( 31, 120, 180)' fill-opacity = '0.250000' points = '184.5,212.1 184.5,242.4 185.3,242.4 185.3,213.6 '/>
		<polygon fill = 'rgb( 31, 120, 180)' fill-opacity = '0.250000' points = '185.3,213.6 185.3,242.4 186.0,242.4 186.0,215.0 '/>
		<polygon fill = 'rgb( 31, 120, 180)' fill-opacity = '0.250000' points = '186.0,215.0 186.0,242.4 186.7,242.4 186.7,216.4 '/>
		<polygon fill = 'rgb( 31, 120, 180)' fill-opacity = '0.250000' points = '186.7,216.4 186.7,242.4 187.4,242.4 187.4,217.7 '/>
		<polygon fill = 'rgb( 31, 120, 180)' fill-opacity = '0.250000' points = '187.4,217.7 187.4,242.4 188.2,242.4 188.2,218.9 '/>
		<polygon fill = 'rgb( 31, 120, 180)' fill-opacity = '0.250000' points = '188.2,218.9 188.2,242.4 188.9,242.4 188.9,220.1 '/>
		<polygon fill = 'rgb( 31, 120, 180)' fill-opacity = '0.250000' points = '188.9,220.1 188.9,242.4 189.6,242.4 189.6,221.2 '/>
		<polygon fill = 'rgb( 31, 120, 180)' fill-opacity = '0.250000' points = '189.6,221.2 189.6,242.4 190.3,242.4 190.3,222.3 '/>
		<polygon fill = 'rgb( 31, 120, 180)' fill-opacity = '0.250000' points = '190.3,222.3 190.3,242.4 191.1,242.4 191.1,223.3 '/>
		<polygon fill = 'rgb( 31, 120, 180)' fill-opacity = '0.250000' points = '191.1,223.3 191.1,242.4 191.8,242.4 191.8,224.3 '/>
		<polygon fill = 'rgb( 31, 120, 180)' fill-opacity = '0.250000' points = '191.8,224.3 191.8,242.4 192.5,242.4 192.5,225.2 '/>
		<polygon fill = 'rgb( 31, 120, 180)' fill-opacity = '0.250000' points = '192.5,225.2 192.5,242.4 193.2,242.4 193.2,226.1 '/>
		<polygon fill = 'rgb( 31, 120, 180)' fill-opacity = '0.250000' points = '193.2,226.1 193.2,242.4 194.0,242.4 194.0,227.0 '/>
		<polygon fill = 'rgb( 31, 120, 180)' fill-opacity = '0.250000' points = '194.0,227.0 194.0,242.4 194.7,242.4 194.7,227.8 '/>
		<polygon fill = 'rgb( 31, 120, 180)' fill-opacity = '0.250000' points = '194.7,227.8 194.7,242.4 195.4,242.4 195.4,228.5 '/>
		<polygon fill = 'rgb( 31, 120, 180)' fill-opacity = '0.250000' points = '195.4,228.5 195.4,242.4 196.1,242.4 196.1,229.3 '/>
		<polygon fill = 'rgb( 31, 120, 180)' fill-opacity = '0.250000' points = '196.1,229.3 196.1,242.4 196.9,242.4 196.9,229.9 '/>
		<polygon fill = 'rgb( 31, 120, 180)' fill-opacity = '0.250000' points = '196.9,229.9 196.9,242.4 197.6,242.4 197.6,230.6 '/>
		<polygon fill = 'rgb( 31, 120, 180)' fill-opacity = '0.250000' points = '197.6,230.6 197.6,242.4 198.3,242.4 198.3,231.2 '/>
		<polygon fill = 'rgb( 31, 120, 180)' fill-opacity = '0.250000' points = '198.3,231.2 198.3,242.4 199.0,242.4 199.0,231.8 '/>
		<polygon fill = 'rgb( 31, 120, 180)' fill-opacity = '0.250000' points = '199.0,231.8 199.0,242.4 199.8,242.4 199.8,232.3 '/>
		<polygon fill = 'rgb( 31, 120, 180)' fill-opacity = '0.250000' points = '199.8,232.3 199.8,242.4 200.5,242.4 200.5,232.8 '/>
		<polygon fill = 'rgb( 31, 120, 180)' fill-opacity = '0.250000' points = '200.5,232.8 200.5,242.4 201.2,242.4 201.2,233.3 '/>
		<polygon fill = 'rgb( 31, 120, 180)' fill-opacity = '0.250000' points = '201.2,233.3 201.2,242.4 201.9,242.4 201.9,233.7 '/>
		<polygon fill = 'rgb( 31, 120, 180)' fill-opacity = '0.250000' points = '201.9,233.7 201.9,242.4 202.7,242.4 202.7,234.1 '/>
		<polygon fill = 'rgb( 31, 120, 180)' fill-opacity = '0.250000' points = '202.7,234.1 202.7,242.4 203.4,242.4 203.4,234.5 '/>
		<polygon fill = 'rgb( 31, 120, 180)' fill-opacity = '0.250000' points = '203.4,234.5 203.4,242.4 204.1,242.4 204.1,234.8 '/>
		<polygon fill = 'rgb( 31, 120, 180)' fill-opacity = '0.250000' points = '204.1,234.8 204.1,242.4 204.8,242.4 204.8,235.1 '/>
		<polygon fill = 'rgb( 31, 120, 180)' fill-opacity = '0.250000' points = '204.8,235.1 204.8,242.4 205.6,242.4 205.6,235.4 '/>
		<polygon fill = 'rgb( 31, 120, 180)' fill-opacity = '0.250000' points = '205.6,235.4 205.6,242.4 206.3,242.4 206.3,235.7 '/>
		<polygon fill = 'rgb( 31, 120, 180)' fill-opacity = '0.250000' points = '206.3,235.7 206.3,242.4 207.0,242.4 207.0,235.9 '/>
		<polygon fill = 'rgb( 31, 120, 180)' fill-opacity = '0.250000' points = '207.0,235.9 207.0,242.4 207.7,242.4 207.7,236.1 '/>
		<polygon fill = 'rgb( 31, 120, 180)' fill-opacity = '0.250000' points = '207.7,236.1 207.7,242.4 208.4,242.4 208.4,236.3 '/>
		<polygon fill = 'rgb( 31, 120, 180)' fill-opacity = '0.250000' points = '208.4,236.3 208.4,242.4 209.2,242.4 209.2,236.5 '/>
		<polygon fill = 'rgb( 31, 120, 180)' fill-opacity = '0.250000' points = '209.2,236.5 209.2,242.4 209.9,242.4 209.9,236.7 '/>
		<polygon fill = 'rgb( 31, 120, 180)' fill-opacity = '0.250000' points = '209.9,236.7 209.9,242.4 210.6,242.4 210.6,236.8 '/>
		<polygon fill = 'rgb( 31, 120, 180)' fill-opacity = '0.250000' points = '210.6,236.8 210.6,242.4 211.3,242.4 211.3,237.0 '/>
		<polygon fill = 'rgb( 31, 120, 180)' fill-opacity = '0.250000' points = '211.3,237.0 211.3,242.4 212.1,242.4 212.1,237.1 '/>
		<polygon fill = 'rgb( 31, 120, 180)' fill-opacity = '0.250000' points = '212.1,237.1 212.1,242.4 212.8,242.4 212.8,237.2 '/>
		<polygon fill = 'rgb( 31, 120, 180)' fill-opacity = '0.250000' points = '212.8,237.2 212.8,242.4 213.5,242.4 213.5,237.3 '/>
		<polygon fill = 'rgb( 31, 120, 180)' fill-opacity = '0.250000' points = '213.5,237.3 213.5,242.4 214.2,242.4 214.2,237.4 '/>
		<polygon fill = 'rgb( 31, 120, 180)' fill-opacity = '0.250000' points = '214.2,237.4 214.2,242.4 215.0,242.4 215.0,237.4 '/>
		<polygon fill = 'rgb( 31, 120, 180)' fill-opacity = '0.250000' points = '215.0,237.4 215.0,242.4 215.7,242.4 215.7,237.5 '/>
		<polygon fill = 'rgb( 31, 120, 180)' fill-opacity = '0.250000' points = '215.7,237.5 215.7,242.4 216.4,242.4 216.4,237.6 '/>
		<polygon fill = 'rgb( 31, 120, 180)' fill-opacity = '0.250000' points = '216.4,237.6 216.4,242.4 217.1,242.4 217.1,237.6 '/>
		<polygon fill = 'rgb( 31, 120, 180)' fill-opacity = '0.250000' points = '217.1,237.6 217.1,242.4 217.9,242.4 217.9,237.7 '/>
		<polygon fill = 'rgb( 31, 120, 180)' fill-opacity = '0.250000' points = '217.9,237.7 217.9,242.4 218.6,242.4 218.6,237.7 '/>
		<polygon fill = 'rgb( 31, 120, 180)' fill-opacity = '0.250000' points = '218.6,237.7 218.6,242.4 219.3,242.4 219.3,237.7 '/>
		<polygon fill = 'rgb( 31, 120, 180)' fill-opacity = '0.250000' points = '219.3,237.7 219.3,242.4 220.0,242.4 220.0,237.8 '/>
		<polygon fill = 'rgb( 31, 120, 180)' fill-opacity = '0.250000' points = '220.0,237.8 220.0,242.4 220.8,242.4 220.8,237.8 '/>
		<polygon fill = 'rgb( 31, 120, 180)' fill-opacity = '0.250000' points = '220.8,237.8 220.8,242.4 221.5,242.4 221.5,237.8 '/>
		<polygon fill = 'rgb( 31, 120, 180)' fill-opacity = '0.250000' points = '221.5,237.8 221.5,242.4 222.2,242.4 222.2,237.9 '/>
		<polygon fill = 'rgb( 31, 120, 180)' fill-opacity = '0.250000' points = '222.2,237.9 222.2,242.4 222.9,242.4 222.9,237.9 '/>
		<polygon fill = 'rgb( 31, 120, 180)' fill-opacity = '0.250000' points = '222.9,237.9 222.9,242.4 223.7,242.4 223.7,237.9 '/>
		<polygon fill = 'rgb( 31, 120, 180)' fill-opacity = '0.250000' points = '223.7,237.9 223.7,242.4 224.4,242.4 224.4,237.9 '/>
		<polygon fill = 'rgb( 31, 120, 180)' fill-opacity = '0.250000' points = '224.4,237.9 224.4,242.4 225.1,242.4 225.1,237.9 '/>
		<polygon fill = 'rgb( 31, 120, 180)' fill-opacity = '0.250000' points = '225.1,237.9 225.1,242.4 225.8,242.4 225.8,237.9 '/>
		<polygon fill = 'rgb( 31, 120, 180)' fill-opacity = '0.250000' points = '225.8,237.9 225.8,242.4 226.6,242.4 226.6,238.0 '/>
		<polygon fill = 'rgb( 31, 120, 180)' fill-opacity = '0.250000' points = '226.6,238.0 226.6,242.4 227.3,242.4 227.3,238.0 '/>
		<polygon fill = 'rgb( 31, 120, 180)' fill-opacity = '0.250000' points = '227.3,238.0 227.3,242.4 228.0,242.4 228.0,238.0 '/>
		<polygon fill = 'rgb( 31, 120, 180)' fill-opacity = '0.250000' points = '228.0,238.0 228.0,242.4 228.7,242.4 228.7,238.0 '/>
		<polygon fill = 'rgb( 31, 120, 180)' fill-opacity = '0.250000' points = '228.7,238.0 228.7,242.4 229.5,242.4 229.5,238.0 '/>
		<polygon fill = 'rgb( 31, 120, 180)' fill-opacity = '0.250000' points = '229.5,238.0 229.5,242.4 230.2,242.4 230.2,238.0 '/>
		<polygon fill = 'rgb( 31, 120, 180)' fill-opacity = '0.250000' points = '230.2,238.0 230.2,242.4 230.9,242.4 230.9,238.0 '/>
		<polygon fill = 'rgb( 31, 120, 180)' fill-opacity = '0.250000' points = '230.9,238.0 230.9,242.4 231.6,242.4 231.6,238.1 '/>
		<polygon fill = 'rgb( 31, 120, 180)' fill-opacity = '0.250000' points = '231.6,238.1 231.6,242.4 232.3,242.4 232.3,238.1 '/>
		<polygon fill = 'rgb( 31, 120, 180)' fill-opacity = '0.250000' points = '232.3,238.1 232.3,242.4 233.1,242.4 233.1,238.1 '/>
		<polygon fill = 'rgb( 31, 120, 180)' fill-opacity = '0.250000' points = '233.1,238.1 233.1,242.4 233.8,242.4 233.8,238.1 '/>
		<polygon fill = 'rgb( 31, 120, 180)' fill-opacity = '0.250000' points = '233.8,238.1 233.8,242.4 234.5,242.4 234.5,238.1 '/>
		<polygon fill = 'rgb( 31, 120, 180)' fill-opacity = '0.250000' points = '234.5,238.1 234.5,242.4 235.2,242.4 235.2,238.2 '/>
		<polygon fill = 'rgb( 31, 120, 180)' fill-opacity = '0.250000' points = '235.2,238.2 235.2,242.4 236.0,242.4 236.0,238.2 '/>
		<polygon fill = 'rgb( 31, 120, 180)' fill-opacity = '0.250000' points = '236.0,238.2 236.0,242.4 236.7,242.4 236.7,238.2 '/>
		<polygon fill = 'rgb( 31, 120, 180)' fill-opacity = '0.250000' points = '236.7,238.2 236.7,242.4 237.4,242.4 237.4,238.3 '/>
		<polygon fill = 'rgb( 31, 120, 180)' fill-opacity = '0.250000' points = '237.4,238.3 237.4,242.4 238.1,242.4 238.1,238.3 '/>
		<polygon fill = 'rgb( 31, 120, 180)' fill-opacity = '0.250000' points = '238.1,238.3 238.1,242.4 238.9,242.4 238.9,238.3 '/>
		<polygon fill = 'rgb( 31, 120, 180)' fill-opacity = '0.250000' points = '238.9,238.3 238.9,242.4 239.6,242.4 239.6,238.4 '/>
		<polygon fill = 'rgb( 31, 120, 180)' fill-opacity = '0.250000' points = '239.6,238.4 239.6,242.4 240.3,242.4 240.3,238.4 '/>
		<polygon fill = 'rgb( 31, 120, 180)' fill-opacity = '0.250000' points = '240.3,238.4 240.3,242.4 241.0,242.4 241.0,238.5 '/>
		<polygon fill = 'rgb( 31, 120, 180)' fill-opacity = '0.250000' points = '241.0,238.5 241.0,242.4 241.8,242.4 241.8,238.5 '/>
		<polygon fill = 'rgb( 31, 120, 180)' fill-opacity = '0.250000' points = '241.8,238.5 241.8,242.4 242.5,242.4 242.5,238.6 '/>
		<polygon fill = 'rgb( 31, 120, 180)' fill-opacity = '0.250000' points = '242.5,238.6 242.5,242.4 243.2,242.4 243.2,238.7 '/>
		<polygon fill = 'rgb( 31, 120, 180)' fill-opacity = '0.250000' points = '243.2,238.7 243.2,242.4 243.9,242.4 243.9,238.7 '/>
		<polygon fill = 'rgb( 31, 120, 180)' fill-opacity = '0.250000' points = '243.9,238.7 243.9,242.4 244.7,242.4 244.7,238.8 '/>
		<polygon fill = 'rgb( 31, 120, 180)' fill-opacity = '0.250000' points = '244.7,238.8 244.7,242.4 245.4,242.4 245.4,238.9 '/>
		<polygon fill = 'rgb( 31, 120, 180)' fill-opacity = '0.250000' points = '245.4,238.9 245.4,242.4 246.1,242.4 246.1,238.9 '/>
		<polygon fill = 'rgb( 31, 120, 180)' fill-opacity = '0.250000' points = '246.1,238.9 246.1,242.4 246.8,242.4 246.8,239.0 '/>
		<polygon fill = 'rgb( 31, 120, 180)' fill-opacity = '0.250000' points = '246.8,239.0 246.8,242.4 247.6,242.4 247.6,239.1 '/>
		<polygon fill = 'rgb( 31, 120, 180)' fill-opacity = '0.250000' points = '247.6,239.1 247.6,242.4 248.3,242.4 248.3,239.2 '/>
		<polygon fill = 'rgb( 31, 120, 180)' fill-opacity = '0.250000' points = '248.3,239.2 248.3,242.4 249.0,242.4 249.0,239.3 '/>
		<polygon fill = 'rgb( 31, 120, 180)' fill-opacity = '0.250000' points = '249.0,239.3 249.0,242.4 249.7,242.4 249.7,239.4 '/>
		<polygon fill = 'rgb( 31, 120, 180)' fill-opacity = '0.250000' points = '249.7,239.4 249.7,242.4 250.5,242.4 250.5,239.5 '/>
		<polygon fill = 'rgb( 31, 120, 180)' fill-opacity = '0.250000' points = '250.5,239.5 250.5,242.4 251.2,242.4 251.2,239.6 '/>
		<polygon fill = 'rgb( 31, 120, 180)' fill-opacity = '0.250000' points = '251.2,239.6 251.2,242.4 251.9,242.4 251.9,239.7 '/>
		<polygon fill = 'rgb( 31, 120, 180)' fill-opacity = '0.250000' points = '251.9,239.7 251.9,242.4 252.6,242.4 252.6,239.8 '/>
		<polygon fill = 'rgb( 31, 120, 180)' fill-opacity = '0.250000' points = '252.6,239.8 252.6,242.4 253.4,242.4 253.4,239.9 '/>
		<polygon fill = 'rgb( 31, 120, 180)' fill-opacity = '0.250000' points = '253.4,239.9 253.4,242.4 254.1,242.4 254.1,240.0 '/>
		<polygon fill = 'rgb( 31, 120, 180)' fill-opacity = '0.250000' points = '254.1,240.0 254.1,242.4 254.8,242.4 254.8,240.1 '/>
		<polygon fill = 'rgb( 31, 120, 180)' fill-opacity = '0.250000' points = '254.8,240.1 254.8,242.4 255.5,242.4 255.5,240.2 '/>
		<polygon fill = 'rgb( 31, 120, 180)' fill-opacity = '0.250000' points = '255.5,240.2 255.5,242.4 256.3,242.4 256.3,240.4 '/>
		<polygon fill = 'rgb( 31, 120, 180)' fill-opacity = '0.250000' points = '256.3,240.4 256.3,242.4 257.0,242.4 257.0,240.5 '/>
		<polygon fill = 'rgb( 31, 120, 180)' fill-opacity = '0.250000' points = '257.0,240.5 257.0,242.4 257.7,242.4 257.7,240.6 '/>
		<polygon fill = 'rgb( 31, 120, 180)' fill-opacity = '0.250000' points = '257.7,240.6 257.7,242.4 258.4,242.4 258.4,240.7 '/>
		<polygon fill = 'rgb( 31, 120, 180)' fill-opacity = '0.250000' points = '258.4,240.7 258.4,242.4 259.1,242.4 259.1,240.8 '/>
		<polygon fill = 'rgb( 31, 120, 180)' fill-opacity = '0.250000' points = '259.1,240.8 259.1,242.4 259.9,242.4 259.9,240.9 '/>
		<polygon fill = 'rgb( 31, 120, 180)' fill-opacity = '0.250000' points = '259.9,240.9 259.9,242.4 260.6,242.4 260.6,240.9 '/>
		<polygon fill = 'rgb( 31, 120, 180)' fill-opacity = '0.250000' points = '260.6,240.9 260.6,242.4 261.3,242.4 261.3,241.0 '/>
		<polygon fill = 'rgb( 31, 120, 180)' fill-opacity = '0.250000' points = '261.3,241.0 261.3,242.4 262.0,242.4 262.0,241.1 '/>
		<polygon fill = 'rgb( 31, 120, 180)' fill-opacity = '0.250000' points = '262.0,241.1 262.0,242.4 262.8,242.4 262.8,241.2 '/>
		<polygon fill = 'rgb( 31, 120, 180)' fill-opacity = '0.250000' points = '262.8,241.2 262.8,242.4 263.5,242.4 263.5,241.3 '/>
		<polygon fill = 'rgb( 31, 120, 180)' fill-opacity = '0.250000' points = '263.5,241.3 263.5,242.4 264.2,242.4 264.2,241.4 '/>
		<polygon fill = 'rgb( 31, 120, 180)' fill-opacity = '0.250000' points = '264.2,241.4 264.2,242.4 264.9,242.4 264.9,241.4 '/>
		<polygon fill = 'rgb( 31, 120, 180)' fill-opacity = '0.250000' points = '264.9,241.4 264.9,242.4 265.7,242.4 265.7,241.5 '/>
		<polygon fill = 'rgb( 31, 120, 180)' fill-opacity = '0.250000' points = '265.7,241.5 265.7,242.4 266.4,242.4 266.4,241.6 '/>
		<polygon fill = 'rgb( 31, 120, 180)' fill-opacity = '0.250000' points = '266.4,241.6 266.4,242.4 267.1,242.4 267.1,241.6 '/>
		<polygon fill = 'rgb( 31, 120, 180)' fill-opacity = '0.250000' points = '267.1,241.6 267.1,242.4 267.8,242.4 267.8,241.7 '/>
		<polygon fill = 'rgb( 31, 120, 180)' fill-opacity = '0.250000' points = '267.8,241.7 267.8,242.4 268.6,242.4 268.6,241.7 '/>
		<polygon fill = 'rgb( 31, 120, 180)' fill-opacity = '0.250000' points = '268.6,241.7 268.6,242.4 269.3,242.4 269.3,241.8 '/>
		<polygon fill = 'rgb( 31, 120, 180)' fill-opacity = '0.250000' points = '269.3,241.8 269.3,242.4 270.0,242.4 270.0,241.8 '/>
		<polygon fill = 'rgb( 31, 120, 180)' fill-opacity = '0.250000' points = '270.0,241.8 270.0,242.4 270.7,242.4 270.7,241.8 '/>
		<polygon fill = 'rgb( 31, 120, 180)' fill-opacity = '0.250000' points = '270.7,241.8 270.7,242.4 271.5,242.4 271.5,241.8 '/>
		<polygon fill = 'rgb( 31, 120, 180)' fill-opacity = '0.250000' points = '271.5,241.8 271.5,242.4 272.2,242.4 272.2,241.9 '/>
		<polygon fill = 'rgb( 31, 120, 180)' fill-opacity = '0.250000' points = '272.2,241.9 272.2,242.4 272.9,242.4 272.9,241.9 '/>
		<polygon fill = 'rgb( 31, 120, 180)' fill-opacity = '0.250000' points = '272.9,241.9 272.9,242.4 273.6,242.4 273.6,241.9 '/>
		<polygon fill = 'rgb( 31, 120, 180)' fill-opacity = '0.250000' points = '273.6,241.9 273.6,242.4 274.4,242.4 274.4,241.9 '/>
		<polygon fill = 'rgb( 31, 120, 180)' fill-opacity = '0.250000' points = '274.4,241.9 274.4,242.4 275.1,242.4 275.1,241.9 '/>
		<polygon fill = 'rgb( 31, 120, 180)' fill-opacity = '0.250000' points = '275.1,241.9 275.1,242.4 275.8,242.4 275.8,241.9 '/>
		<polygon fill = 'rgb( 31, 120, 180)' fill-opacity = '0.250000' points = '275.8,241.9 275.8,242.4 276.5,242.4 276.5,241.9 '/>
		<polygon fill = 'rgb( 31, 120, 180)' fill-opacity = '0.250000' points = '276.5,241.9 276.5,242.4 277.3,242.4 277.3,241.9 '/>
		<polygon fill = 'rgb( 31, 120, 180)' fill-opacity = '0.250000' points = '277.3,241.9 277.3,242.4 278.0,242.4 278.0,241.8 '/>
		<polygon fill = 'rgb( 31, 120, 180)' fill-opacity = '0.250000' points = '278.0,241.8 278.0,242.4 278.7,242.4 278.7,241.8 '/>
		<polygon fill = 'rgb( 31, 120, 180)' fill-opacity = '0.250000' points = '278.7,241.8 278.7,242.4 279.4,242.4 279.4,241.8 '/>
		<polygon fill = 'rgb( 31, 120, 180)' fill-opacity = '0.250000' points = '279.4,241.8 279.4,242.4 280.2,242.4 280.2,241.8 '/>
		<polygon fill = 'rgb( 31, 120, 180)' fill-opacity = '0.250000' points = '280.2,241.8 280.2,242.4 280.9,242.4 280.9,241.7 '/>
		<polygon fill = 'rgb( 31, 120, 180)' fill-opacity = '0.250000' points = '280.9,241.7 280.9,242.4 281.6,242.4 281.6,241.7 '/>
		<polygon fill = 'rgb( 31, 120, 180)' fill-opacity = '0.250000' points = '281.6,241.7 281.6,242.4 282.3,242.4 282.3,241.6 '/>
		<polygon fill = 'rgb( 31, 120, 180)' fill-opacity = '0.250000' points = '282.3,241.6 282.3,242.4 283.0,242.4 283.0,241.6 '/>
		<polygon fill = 'rgb( 31, 120, 180)' fill-opacity = '0.250000' points = '283.0,241.6 283.0,242.4 283.8,242.4 283.8,241.5 '/>
		<polygon fill = 'rgb( 31, 120, 180)' fill-opacity = '0.250000' points = '283.8,241.5 283.8,242.4 284.5,242.4 284.5,241.4 '/>
		<polygon fill = 'rgb( 31, 120, 180)' fill-opacity = '0.250000' points = '284.5,241.4 284.5,242.4 285.2,242.4 285.2,241.4 '/>
		<polygon fill = 'rgb( 31, 120, 180)' fill-opacity = '0.250000' points = '285.2,241.4 285.2,242.4 285.9,242.4 285.9,241.3 '/>
		<polygon fill = 'rgb( 31, 120, 180)' fill-opacity = '0.250000' points = '285.9,241.3 285.9,242.4 286.7,242.4 286.7,241.2 '/>
		<polygon fill = 'rgb( 31, 120, 180)' fill-opacity = '0.250000' points = '286.7,241.2 286.7,242.4 287.4,242.4 287.4,241.1 '/>
		<polygon fill = 'rgb( 31, 120, 180)' fill-opacity = '0.250000' points = '287.4,241.1 287.4,242.4 288.1,242.4 288.1,241.1 '/>
		<polygon fill = 'rgb( 31, 120, 180)' fill-opacity = '0.250000' points = '288.1,241.1 288.1,242.4 288.8,242.4 288.8,241.0 '/>
		<polygon fill = 'rgb( 31, 120, 180)' fill-opacity = '0.250000' points = '288.8,241.0 288.8,242.4 289.6,242.4 289.6,240.9 '/>
		<polygon fill = 'rgb( 31, 120, 180)' fill-opacity = '0.250000' points = '289.6,240.9 289.6,242.4 290.3,242.4 290.3,240.8 '/>
		<polygon fill = 'rgb( 31, 120, 180)' fill-opacity = '0.250000' points = '290.3,240.8 290.3,242.4 291.0,242.4 291.0,240.7 '/>
		<polygon fill = 'rgb( 31, 120, 180)' fill-opacity = '0.250000' points = '291.0,240.7 291.0,242.4 291.7,242.4 291.7,240.6 '/>
		<polygon fill = 'rgb( 31, 120, 180)' fill-opacity = '0.250000' points = '291.7,240.6 291.7,242.4 292.5,242.4 292.5,240.5 '/>
		<polygon fill = 'rgb( 31, 120, 180)' fill-opacity = '0.250000' points = '292.5,240.5 292.5,242.4 293.2,242.4 293.2,240.4 '/>
		<polygon fill = 'rgb( 31, 120, 180)' fill-opacity = '0.250000' points = '293.2,240.4 293.2,242.4 293.9,242.4 293.9,240.3 '/>
		<polygon fill = 'rgb( 31, 120, 180)' fill-opacity = '0.250000' points = '293.9,240.3 293.9,242.4 294.6,242.4 294.6,240.2 '/>
		<polygon fill = 'rgb( 31, 120, 180)' fill-opacity = '0.250000' points = '294.6,240.2 294.6,242.4 295.4,242.4 295.4,240.1 '/>
		<polygon fill = 'rgb( 31, 120, 180)' fill-opacity = '0.250000' points = '295.4,240.1 295.4,242.4 296.1,242.4 296.1,240.0 '/>
		<polygon fill = 'rgb( 31, 120, 180)' fill-opacity = '0.250000' points = '296.1,240.0 296.1,242.4 296.8,242.4 296.8,240.0 '/>
		<polygon fill = 'rgb( 31, 120, 180)' fill-opacity = '0.250000' points = '296.8,240.0 296.8,242.4 297.5,242.4 297.5,239.9 '/>
		<polygon fill = 'rgb( 31, 120, 180)' fill-opacity = '0.250000' points = '297.5,239.9 297.5,242.4 298.3,242.4 298.3,239.8 '/>
		<polygon fill = 'rgb( 31, 120, 180)' fill-opacity = '0.250000' points = '298.3,239.8 298.3,242.4 299.0,242.4 299.0,239.7 '/>
		<polygon fill = 'rgb( 31, 120, 180)' fill-opacity = '0.250000' points = '299.0,239.7 299.0,242.4 299.7,242.4 299.7,239.6 '/>
		<polygon fill = 'rgb( 31, 120, 180)' fill-opacity = '0.250000' points = '299.7,239.6 299.7,242.4 300.4,242.4 300.4,239.6 '/>
		<polygon fill = 'rgb( 31, 120, 180)' fill-opacity = '0.250000' points = '300.4,239.6 300.4,242.4 301.2,242.4 301.2,239.5 '/>
		<polygon fill = 'rgb( 31, 120, 180)' fill-opacity = '0.250000' points = '301.2,239.5 301.2,242.4 301.9,242.4 301.9,239.4 '/>
		<polygon fill = 'rgb( 31, 120, 180)' fill-opacity = '0.250000' points = '301.9,239.4 301.9,242.4 302.6,242.4 302.6,239.4 '/>
		<polygon fill = 'rgb( 31, 120, 180)' fill-opacity = '0.250000' points = '302.6,239.4 302.6,242.4 303.3,242.4 303.3,239.3 '/>
		<polygon fill = 'rgb( 31, 120, 180)' fill-opacity = '0.250000' points = '303.3,239.3 303.3,242.4 304.1,242.4 304.1,239.3 '/>
		<polygon fill = 'rgb( 31, 120, 180)' fill-opacity = '0.250000' points = '304.1,239.3 304.1,242.4 304.8,242.4 304.8,239.3 '/>
		<polygon fill = 'rgb( 31, 120, 180)' fill-opacity = '0.250000' points = '304.8,239.3 304.8,242.4 305.5,242.4 305.5,239.2 '/>
		<polygon fill = 'rgb( 31, 120, 180)' fill-opacity = '0.250000' points = '305.5,239.2 305.5,242.4 306.2,242.4 306.2,239.2 '/>
		<polygon fill = 'rgb( 31, 120, 180)' fill-opacity = '0.250000' points = '306.2,239.2 306.2,242.4 306.9,242.4 306.9,239.2 '/>
		<polygon fill = 'rgb( 31, 120, 180)' fill-opacity = '0.250000' points = '306.9,239.2 306.9,242.4 307.7,242.4 307.7,239.2 '/>
		<polygon fill = 'rgb( 31, 120, 180)' fill-opacity = '0.250000' points = '307.7,239.2 307.7,242.4 308.4,242.4 308.4,239.2 '/>
		<polygon fill = 'rgb( 31, 120, 180)' fill-opacity = '0.250000' points = '308.4,239.2 308.4,242.4 309.1,242.4 309.1,239.2 '/>
		<polygon fill = 'rgb( 31, 120, 180)' fill-opacity = '0.250000' points = '309.1,239.2 309.1,242.4 309.8,242.4 309.8,239.2 '/>
		<polygon fill = 'rgb( 31, 120, 180)' fill-opacity = '0.250000' points = '309.8,239.2 309.8,242.4 310.6,242.4 310.6,239.3 '/>
		<polygon fill = 'rgb( 31, 120, 180)' fill-opacity = '0.250000' points = '310.6,239.3 310.6,242.4 311.3,242.4 311.3,239.3 '/>
		<polygon fill = 'rgb( 31, 120, 180)' fill-opacity = '0.250000' points = '311.3,239.3 311.3,242.4 312.0,242.4 312.0,239.4 '/>
		<polygon fill = 'rgb( 31, 120, 180)' fill-opacity = '0.250000' points = '312.0,239.4 312.0,242.4 312.7,242.4 312.7,239.4 '/>
		<polygon fill = 'rgb( 31, 120, 180)' fill-opacity = '0.250000' points = '312.7,239.4 312.7,242.4 313.5,242.4 313.5,239.5 '/>
		<polygon fill = 'rgb( 31, 120, 180)' fill-opacity = '0.250000' points = '313.5,239.5 313.5,242.4 314.2,242.4 314.2,239.5 '/>
		<polygon fill = 'rgb( 31, 120, 180)' fill-opacity = '0.250000' points = '314.2,239.5 314.2,242.4 314.9,242.4 314.9,239.6 '/>
		<polygon fill = 'rgb( 31, 120, 180)' fill-opacity = '0.250000' points = '314.9,239.6 314.9,242.4 315.6,242.4 315.6,239.7 '/>
		<polygon fill = 'rgb( 31, 120, 180)' fill-opacity = '0.250000' points = '315.6,239.7 315.6,242.4 316.4,242.4 316.4,239.8 '/>
		<polygon fill = 'rgb( 31, 120, 180)' fill-opacity = '0.250000' points = '316.4,239.8 316.4,242.4 317.1,242.4 317.1,239.8 '/>
		<polygon fill = 'rgb( 31, 120, 180)' fill-opacity = '0.250000' points = '317.1,239.8 317.1,242.4 317.8,242.4 317.8,239.9 '/>
		<polygon fill = 'rgb( 31, 120, 180)' fill-opacity = '0.250000' points = '317.8,239.9 317.8,242.4 318.5,242.4 318.5,240.0 '/>
		<polygon fill = 'rgb( 31, 120, 180)' fill-opacity = '0.250000' points = '318.5,240.0 318.5,242.4 319.3,242.4 319.3,240.1 '/>
		<polygon fill = 'rgb( 31, 120, 180)' fill-opacity = '0.250000' points = '319.3,240.1 319.3,242.4 320.0,242.4 320.0,240.2 '/>
		<polygon fill = 'rgb( 31, 120, 180)' fill-opacity = '0.250000' points = '320.0,240.2 320.0,242.4 320.7,242.4 320.7,240.3 '/>
		<polygon fill = 'rgb( 31, 120, 180)' fill-opacity = '0.250000' points = '320.7,240.3 320.7,242.4 321.4,242.4 321.4,240.4 '/>
		<polygon fill = 'rgb( 31, 120, 180)' fill-opacity = '0.250000' points = '321.4,240.4 321.4,242.4 322.2,242.4 322.2,240.5 '/>
		<polygon fill = 'rgb( 31, 120, 180)' fill-opacity = '0.250000' points = '322.2,240.5 322.2,242.4 322.9,242.4 322.9,240.6 '/>
		<polygon fill = 'rgb( 31, 120, 180)' fill-opacity = '0.250000' points = '322.9,240.6 322.9,242.4 323.6,242.4 323.6,240.7 '/>
		<polygon fill = 'rgb( 31, 120, 180)' fill-opacity = '0.250000' points = '323.6,240.7 323.6,242.4 324.3,242.4 324.3,240.8 '/>
		<polygon fill = 'rgb( 31, 120, 180)' fill-opacity = '0.250000' points = '324.3,240.8 324.3,242.4 325.1,242.4 325.1,240.9 '/>
		<polygon fill = 'rgb( 31, 120, 180)' fill-opacity = '0.250000' points = '325.1,240.9 325.1,242.4 325.8,242.4 325.8,241.0 '/>
		<polygon fill = 'rgb( 31, 120, 180)' fill-opacity = '0.250000' points = '325.8,241.0 325.8,242.4 326.5,242.4 326.5,241.0 '/>
		<polygon fill = 'rgb( 31, 120, 180)' fill-opacity = '0.250000' points = '326.5,241.0 326.5,242.4 327.2,242.4 327.2,241.1 '/>
		<polygon fill = 'rgb( 31, 120, 180)' fill-opacity = '0.250000' points = '327.2,241.1 327.2,242.4 328.0,242.4 328.0,241.2 '/>
		<polygon fill = 'rgb( 31, 120, 180)' fill-opacity = '0.250000' points = '328.0,241.2 328.0,242.4 328.7,242.4 328.7,241.3 '/>
		<polygon fill = 'rgb( 31, 120, 180)' fill-opacity = '0.250000' points = '328.7,241.3 328.7,242.4 329.4,242.4 329.4,241.4 '/>
		<polygon fill = 'rgb( 31, 120, 180)' fill-opacity = '0.250000' points = '329.4,241.4 329.4,242.4 330.1,242.4 330.1,241.5 '/>
		<polygon fill = 'rgb( 31, 120, 180)' fill-opacity = '0.250000' points = '330.1,241.5 330.1,242.4 330.8,242.4 330.8,241.5 '/>
		<polygon fill = 'rgb( 31, 120, 180)' fill-opacity = '0.250000' points = '330.8,241.5 330.8,242.4 331.6,242.4 331.6,241.6 '/>
		<polygon fill = 'rgb( 31, 120, 180)' fill-opacity = '0.250000' points = '331.6,241.6 331.6,242.4 332.3,242.4 332.3,241.7 '/>
		<polygon fill = 'rgb( 31, 120, 180)' fill-opacity = '0.250000' points = '332.3,241.7 332.3,242.4 333.0,242.4 333.0,241.7 '/>
		<polygon fill = 'rgb( 31, 120, 180)' fill-opacity = '0.250000' points = '333.0,241.7 333.0,242.4 333.7,242.4 333.7,241.8 '/>
		<polygon fill = 'rgb( 31, 120, 180)' fill-opacity = '0.250000' points = '333.7,241.8 333.7,242.4 334.5,242.4 334.5,241.8 '/>
		<polygon fill = 'rgb( 31, 120, 180)' fill-opacity = '0.250000' points = '334.5,241.8 334.5,242.4 335.2,242.4 335.2,241.9 '/>
		<polygon fill = 'rgb( 31, 120, 180)' fill-opacity = '0.250000' points = '335.2,241.9 335.2,242.4 335.9,242.4 335.9,241.9 '/>
		<polygon fill = 'rgb( 31, 120, 180)' fill-opacity = '0.250000' points = '335.9,241.9 335.9,242.4 336.6,242.4 336.6,242.0 '/>
		<polygon fill = 'rgb( 31, 120, 180)' fill-opacity = '0.250000' points = '336.6,242.0 336.6,242.4 337.4,242.4 337.4,242.0 '/>
		<polygon fill = 'rgb( 31, 120, 180)' fill-opacity = '0.250000' points = '337.4,242.0 337.4,242.4 338.1,242.4 338.1,242.0 '/>
		<polygon fill = 'rgb( 31, 120, 180)' fill-opacity = '0.250000' points = '338.1,242.0 338.1,242.4 338.8,242.4 338.8,242.0 '/>
		<polygon fill = 'rgb( 31, 120, 180)' fill-opacity = '0.250000' points = '338.8,242.0 338.8,242.4 339.5,242.4 339.5,242.1 '/>
		<polygon fill = 'rgb( 31, 120, 180)' fill-opacity = '0.250000' points = '339.5,242.1 339.5,242.4 340.3,242.4 340.3,242.1 '/>
		<polygon fill = 'rgb( 31, 120, 180)' fill-opacity = '0.250000' points = '340.3,242.1 340.3,242.4 341.0,242.4 341.0,242.1 '/>
		<polygon fill = 'rgb( 31, 120, 180)' fill-opacity = '0.250000' points = '341.0,242.1 341.0,242.4 341.7,242.4 341.7,242.1 '/>
		<polygon fill = 'rgb( 31, 120, 180)' fill-opacity = '0.250000' points = '341.7,242.1 341.7,242.4 342.4,242.4 342.4,242.1 '/>
		<polygon fill = 'rgb( 31, 120, 180)' fill-opacity = '0.250000' points = '342.4,242.1 342.4,242.4 343.2,242.4 343.2,242.1 '/>
		<polygon fill = 'rgb( 31, 120, 180)' fill-opacity = '0.250000' points = '343.2,242.1 343.2,242.4 343.9,242.4 343.9,242.2 '/>
		<polygon fill = 'rgb( 31, 120, 180)' fill-opacity = '0.250000' points = '343.9,242.2 343.9,242.4 344.6,242.4 344.6,242.2 '/>
		<polygon fill = 'rgb( 31, 120, 180)' fill-opacity = '0.250000' points = '344.6,242.2 344.6,242.4 345.3,242.4 345.3,242.2 '/>
		<polygon fill = 'rgb( 31, 120, 180)' fill-opacity = '0.250000' points = '345.3,242.2 345.3,242.4 346.1,242.4 346.1,242.1 '/>
		<polygon fill = 'rgb( 31, 120, 180)' fill-opacity = '0.250000' points = '346.1,242.1 346.1,242.4 346.8,242.4 346.8,242.1 '/>
		<polygon fill = 'rgb( 31, 120, 180)' fill-opacity = '0.250000' points = '346.8,242.1 346.8,242.4 347.5,242.4 347.5,242.1 '/>
		<polygon fill = 'rgb( 31, 120, 180)' fill-opacity = '0.250000' points = '347.5,242.1 347.5,242.4 348.2,242.4 348.2,242.1 '/>
		<polygon fill = 'rgb( 31, 120, 180)' fill-opacity = '0.250000' points = '348.2,242.1 348.2,242.4 349.0,242.4 349.0,242.1 '/>
		<polygon fill = 'rgb( 31, 120, 180)' fill-opacity = '0.250000' points = '349.0,242.1 349.0,242.4 349.7,242.4 349.7,242.1 '/>
		<polygon fill = 'rgb( 31, 120, 180)' fill-opacity = '0.250000' points = '349.7,242.1 349.7,242.4 350.4,242.4 350.4,242.0 '/>
		<polygon fill = 'rgb( 31, 120, 180)' fill-opacity = '0.250000' points = '350.4,242.0 350.4,242.4 351.1,242.4 351.1,242.0 '/>
		<polygon fill = 'rgb( 31, 120, 180)' fill-opacity = '0.250000' points = '351.1,242.0 351.1,242.4 351.9,242.4 351.9,242.0 '/>
		<polygon fill = 'rgb( 31, 120, 180)' fill-opacity = '0.250000' points = '351.9,242.0 351.9,242.4 352.6,242.4 352.6,241.9 '/>
		<polygon fill = 'rgb( 31, 120, 180)' fill-opacity = '0.250000' points = '352.6,241.9 352.6,242.4 353.3,242.4 353.3,241.9 '/>
		<polygon fill = 'rgb( 31, 120, 180)' fill-opacity = '0.250000' points = '353.3,241.9 353.3,242.4 354.0,242.4 354.0,241.8 '/>
		<polygon fill = 'rgb( 31, 120, 180)' fill-opacity = '0.250000' points = '354.0,241.8 354.0,242.4 354.7,242.4 354.7,241.8 '/>
		<polygon fill = 'rgb( 31, 120, 180)' fill-opacity = '0.250000' points = '354.7,241.8 354.7,242.4 355.5,242.4 355.5,241.7 '/>
		<polygon fill = 'rgb( 31, 120, 180)' fill-opacity = '0.250000' points = '355.5,241.7 355.5,242.4 356.2,242.4 356.2,241.7 '/>
		<polygon fill = 'rgb( 31, 120, 180)' fill-opacity = '0.250000' points = '356.2,241.7 356.2,242.4 356.9,242.4 356.9,241.6 '/>
		<polygon fill = 'rgb( 31, 120, 180)' fill-opacity = '0.250000' points = '356.9,241.6 356.9,242.4 357.6,242.4 357.6,241.6 '/>
		<polygon fill = 'rgb( 31, 120, 180)' fill-opacity = '0.250000' points = '357.6,241.6 357.6,242.4 358.4,242.4 358.4,241.5 '/>
		<polygon fill = 'rgb( 31, 120, 180)' fill-opacity = '0.250000' points = '358.4,241.5 358.4,242.4 359.1,242.4 359.1,241.4 '/>
		<polygon fill = 'rgb( 31, 120, 180)' fill-opacity = '0.250000' points = '359.1,241.4 359.1,242.4 359.8,242.4 359.8,241.3 '/>
		<polygon fill = 'rgb( 31, 120, 180)' fill-opacity = '0.250000' points = '359.8,241.3 359.8,242.4 360.5,242.4 360.5,241.3 '/>
		<polygon fill = 'rgb( 31, 120, 180)' fill-opacity = '0.250000' points = '360.5,241.3 360.5,242.4 361.3,242.4 361.3,241.2 '/>
		<polygon fill = 'rgb( 31, 120, 180)' fill-opacity = '0.250000' points = '361.3,241.2 361.3,242.4 362.0,242.4 362.0,241.1 '/>
		<polygon fill = 'rgb( 31, 120, 180)' fill-opacity = '0.250000' points = '362.0,241.1 362.0,242.4 362.7,242.4 362.7,241.0 '/>
		<polygon fill = 'rgb( 31, 120, 180)' fill-opacity = '0.250000' points = '362.7,241.0 362.7,242.4 363.4,242.4 363.4,240.9 '/>
		<polygon fill = 'rgb( 31, 120, 180)' fill-opacity = '0.250000' points = '363.4,240.9 363.4,242.4 364.2,242.4 364.2,240.8 '/>
		<polygon fill = 'rgb( 31, 120, 180)' fill-opacity = '0.250000' points = '364.2,240.8 364.2,242.4 364.9,242.4 364.9,240.7 '/>
		<polygon fill = 'rgb( 31, 120, 180)' fill-opacity = '0.250000' points = '364.9,240.7 364.9,242.4 365.6,242.4 365.6,240.6 '/>
		<polygon fill = 'rgb( 31, 120, 180)' fill-opacity = '0.250000' points = '365.6,240.6 365.6,242.4 366.3,242.4 366.3,240.5 '/>
		<polygon fill = 'rgb( 31, 120, 180)' fill-opacity = '0.250000' points = '366.3,240.5 366.3,242.4 367.1,242.4 367.1,240.4 '/>
		<polygon fill = 'rgb( 31, 120, 180)' fill-opacity = '0.250000' points = '367.1,240.4 367.1,242.4 367.8,242.4 367.8,240.3 '/>
		<polygon fill = 'rgb( 31, 120, 180)' fill-opacity = '0.250000' points = '367.8,240.3 367.8,242.4 368.5,242.4 368.5,240.3 '/>
		<polygon fill = 'rgb( 31, 120, 180)' fill-opacity = '0.250000' points = '368.5,240.3 368.5,242.4 369.2,242.4 369.2,240.2 '/>
		<polygon fill = 'rgb( 31, 120, 180)' fill-opacity = '0.250000' points = '369.2,240.2 369.2,242.4 370.0,242.4 370.0,240.1 '/>
		<polygon fill = 'rgb( 31, 120, 180)' fill-opacity = '0.250000' points = '370.0,240.1 370.0,242.4 370.7,242.4 370.7,240.0 '/>
		<polygon fill = 'rgb( 31, 120, 180)' fill-opacity = '0.250000' points = '370.7,240.0 370.7,242.4 371.4,242.4 371.4,239.9 '/>
		<polygon fill = 'rgb( 31, 120, 180)' fill-opacity = '0.250000' points = '371.4,239.9 371.4,242.4 372.1,242.4 372.1,239.8 '/>
		<polygon fill = 'rgb( 31, 120, 180)' fill-opacity = '0.250000' points = '372.1,239.8 372.1,242.4 372.9,242.4 372.9,239.7 '/>
		<polygon fill = 'rgb( 31, 120, 180)' fill-opacity = '0.250000' points = '372.9,239.7 372.9,242.4 373.6,242.4 373.6,239.6 '/>
		<polygon fill = 'rgb( 31, 120, 180)' fill-opacity = '0.250000' points = '373.6,239.6 373.6,242.4 374.3,242.4 374.3,239.6 '/>
		<polygon fill = 'rgb( 31, 120, 180)' fill-opacity = '0.250000' points = '374.3,239.6 374.3,242.4 375.0,242.4 375.0,239.5 '/>
		<polygon fill = 'rgb( 31, 120, 180)' fill-opacity = '0.250000' points = '375.0,239.5 375.0,242.4 375.8,242.4 375.8,239.4 '/>
		<polygon fill = 'rgb( 31, 120, 180)' fill-opacity = '0.250000' points = '375.8,239.4 375.8,242.4 376.5,242.4 376.5,239.4 '/>
		<polygon fill = 'rgb( 31, 120, 180)' fill-opacity = '0.250000' points = '376.5,239.4 376.5,242.4 377.2,242.4 377.2,239.3 '/>
		<polygon fill = 'rgb( 31, 120, 180)' fill-opacity = '0.250000' points = '377.2,239.3 377.2,242.4 377.9,242.4 377.9,239.3 '/>
		<polygon fill = 'rgb( 31, 120, 180)' fill-opacity = '0.250000' points = '377.9,239.3 377.9,242.4 378.6,242.4 378.6,239.3 '/>
		<polygon fill = 'rgb( 31, 120, 180)' fill-opacity = '0.250000' points = '378.6,239.3 378.6,242.4 379.4,242.4 379.4,239.2 '/>
		<polygon fill = 'rgb( 31, 120, 180)' fill-opacity = '0.250000' points = '379.4,239.2 379.4,242.4 380.1,242.4 380.1,239.2 '/>
		<polygon fill = 'rgb( 31, 120, 180)' fill-opacity = '0.250000' points = '380.1,239.2 380.1,242.4 380.8,242.4 380.8,239.2 '/>
		<polygon fill = 'rgb( 31, 120, 180)' fill-opacity = '0.250000' points = '380.8,239.2 380.8,242.4 381.5,242.4 381.5,239.2 '/>
		<polygon fill = 'rgb( 31, 120, 180)' fill-opacity = '0.250000' points = '381.5,239.2 381.5,242.4 382.3,242.4 382.3,239.2 '/>
		<polygon fill = 'rgb( 31, 120, 180)' fill-opacity = '0.250000' points = '382.3,239.2 382.3,242.4 383.0,242.4 383.0,239.2 '/>
		<polygon fill = 'rgb( 31, 120, 180)' fill-opacity = '0.250000' points = '383.0,239.2 383.0,242.4 383.7,242.4 383.7,239.2 '/>
		<polygon fill = 'rgb( 31, 120, 180)' fill-opacity = '0.250000' points = '383.7,239.2 383.7,242.4 384.4,242.4 384.4,239.3 '/>
		<polygon fill = 'rgb( 31, 120, 180)' fill-opacity = '0.250000' points = '384.4,239.3 384.4,242.4 385.2,242.4 385.2,239.3 '/>
		<polygon fill = 'rgb( 31, 120, 180)' fill-opacity = '0.250000' points = '385.2,239.3 385.2,242.4 385.9,242.4 385.9,239.3 '/>
		<polygon fill = 'rgb( 31, 120, 180)' fill-opacity = '0.250000' points = '385.9,239.3 385.9,242.4 386.6,242.4 386.6,239.4 '/>
		<polygon fill = 'rgb( 31, 120, 180)' fill-opacity = '0.250000' points = '386.6,239.4 386.6,242.4 387.3,242.4 387.3,239.5 '/>
		<polygon fill = 'rgb( 31, 120, 180)' fill-opacity = '0.250000' points = '387.3,239.5 387.3,242.4 388.1,242.4 388.1,239.5 '/>
		<polygon fill = 'rgb( 31, 120, 180)' fill-opacity = '0.250000' points = '388.1,239.5 388.1,242.4 388.8,242.4 388.8,239.6 '/>
		<polygon fill = 'rgb( 31, 120, 180)' fill-opacity = '0.250000' points = '388.8,239.6 388.8,242.4 389.5,242.4 389.5,239.7 '/>
		<polygon fill = 'rgb( 31, 120, 180)' fill-opacity = '0.250000' points = '389.5,239.7 389.5,242.4 390.2,242.4 390.2,239.7 '/>
		<polygon fill = 'rgb( 31, 120, 180)' fill-opacity = '0.250000' points = '390.2,239.7 390.2,242.4 391.0,242.4 391.0,239.8 '/>
		<polygon fill = 'rgb( 31, 120, 180)' fill-opacity = '0.250000' points = '391.0,239.8 391.0,242.4 391.7,242.4 391.7,239.9 '/>
		<polygon fill = 'rgb( 31, 120, 180)' fill-opacity = '0.250000' points = '391.7,239.9 391.7,242.4 392.4,242.4 392.4,240.0 '/>
		<polygon fill = 'rgb( 31, 120, 180)' fill-opacity = '0.250000' points = '392.4,240.0 392.4,242.4 393.1,242.4 393.1,240.1 '/>
		<polygon fill = 'rgb( 31, 120, 180)' fill-opacity = '0.250000' points = '393.1,240.1 393.1,242.4 393.9,242.4 393.9,240.2 '/>
		<polygon fill = 'rgb( 31, 120, 180)' fill-opacity = '0.250000' points = '393.9,240.2 393.9,242.4 394.6,242.4 394.6,240.3 '/>
		<polygon fill = 'rgb( 31, 120, 180)' fill-opacity = '0.250000' points = '394.6,240.3 394.6,242.4 395.3,242.4 395.3,240.4 '/>
		<polygon fill = 'rgb( 31, 120, 180)' fill-opacity = '0.250000' points = '395.3,240.4 395.3,242.4 396.0,242.4 396.0,240.5 '/>
		<polygon fill = 'rgb( 31, 120, 180)' fill-opacity = '0.250000' points = '396.0,240.5 396.0,242.4 396.8,242.4 396.8,240.6 '/>
		<polygon fill = 'rgb( 31, 120, 180)' fill-opacity = '0.250000' points = '396.8,240.6 396.8,242.4 397.5,242.4 397.5,240.7 '/>
		<polygon fill = 'rgb( 31, 120, 180)' fill-opacity = '0.250000' points = '397.5,240.7 397.5,242.4 398.2,242.4 398.2,240.8 '/>
		<polygon fill = 'rgb( 31, 120, 180)' fill-opacity = '0.250000' points = '398.2,240.8 398.2,242.4 398.9,242.4 398.9,240.8 '/>
		<polygon fill = 'rgb( 31, 120, 180)' fill-opacity = '0.250000' points = '398.9,240.8 398.9,242.4 399.7,242.4 399.7,240.9 '/>
		<polygon fill = 'rgb( 31, 120, 180)' fill-opacity = '0.250000' points = '399.7,240.9 399.7,242.4 400.4,242.4 400.4,241.0 '/>
		<polygon fill = 'rgb( 31, 120, 180)' fill-opacity = '0.250000' points = '400.4,241.0 400.4,242.4 401.1,242.4 401.1,241.1 '/>
		<polygon fill = 'rgb( 31, 120, 180)' fill-opacity = '0.250000' points = '401.1,241.1 401.1,242.4 401.8,242.4 401.8,241.2 '/>
		<polygon fill = 'rgb( 31, 120, 180)' fill-opacity = '0.250000' points = '401.8,241.2 401.8,242.4 402.5,242.4 402.5,241.3 '/>
		<polygon fill = 'rgb( 31, 120, 180)' fill-opacity = '0.250000' points = '402.5,241.3 402.5,242.4 403.3,242.4 403.3,241.4 '/>
		<polygon fill = 'rgb( 31, 120, 180)' fill-opacity = '0.250000' points = '403.3,241.4 403.3,242.4 404.0,242.4 404.0,241.4 '/>
		<polygon fill = 'rgb( 31, 120, 180)' fill-opacity = '0.250000' points = '404.0,241.4 404.0,242.4 404.7,242.4 404.7,241.5 '/>
		<polygon fill = 'rgb( 31, 120, 180)' fill-opacity = '0.250000' points = '404.7,241.5 404.7,242.4 405.4,242.4 405.4,241.6 '/>
		<polygon fill = 'rgb( 31, 120, 180)' fill-opacity = '0.250000' points = '405.4,241.6 405.4,242.4 406.2,242.4 406.2,241.6 '/>
		<polygon fill = 'rgb( 31, 120, 180)' fill-opacity = '0.250000' points = '406.2,241.6 406.2,242.4 406.9,242.4 406.9,241.7 '/>
		<polygon fill = 'rgb( 31, 120, 180)' fill-opacity = '0.250000' points = '406.9,241.7 406.9,242.4 407.6,242.4 407.6,241.8 '/>
		<polygon fill = 'rgb( 31, 120, 180)' fill-opacity = '0.250000' points = '407.6,241.8 407.6,242.4 408.3,242.4 408.3,241.8 '/>
		<polygon fill = 'rgb( 31, 120, 180)' fill-opacity = '0.250000' points = '408.3,241.8 408.3,242.4 409.1,242.4 409.1,241.9 '/>
		<polygon fill = 'rgb( 31, 120, 180)' fill-opacity = '0.250000' points = '409.1,241.9 409.1,242.4 409.8,242.4 409.8,241.9 '/>
		<polygon fill = 'rgb( 31, 120, 180)' fill-opacity = '0.250000' points = '409.8,241.9 409.8,242.4 410.5,242.4 410.5,242.0 '/>
		<polygon fill = 'rgb( 31, 120, 180)' fill-opacity = '0.250000' points = '410.5,242.0 410.5,242.4 411.2,242.4 411.2,242.0 '/>
		<polygon fill = 'rgb( 31, 120, 180)' fill-opacity = '0.250000' points = '411.2,242.0 411.2,242.4 412.0,242.4 412.0,242.0 '/>
		<polygon fill = 'rgb( 31, 120, 180)' fill-opacity = '0.250000' points = '412.0,242.0 412.0,242.4 412.7,242.4 412.7,242.1 '/>
		<polygon fill = 'rgb( 31, 120, 180)' fill-opacity = '0.250000' points = '412.7,242.1 412.7,242.4 413.4,242.4 413.4,242.1 '/>
		<polygon fill = 'rgb( 31, 120, 180)' fill-opacity = '0.250000' points = '413.4,242.1 413.4,242.4 414.1,242.4 414.1,242.1 '/>
		<polygon fill = 'rgb( 31, 120, 180)' fill-opacity = '0.250000' points = '414.1,242.1 414.1,242.4 414.9,242.4 414.9,242.2 '/>
		<polygon fill = 'rgb( 31, 120, 180)' fill-opacity = '0.250000' points = '414.9,242.2 414.9,242.4 415.6,242.4 415.6,242.2 '/>
		<polygon fill = 'rgb( 31, 120, 180)' fill-opacity = '0.250000' points = '415.6,242.2 415.6,242.4 416.3,242.4 416.3,242.2 '/>
		<polygon fill = 'rgb( 31, 120, 180)' fill-opacity = '0.250000' points = '416.3,242.2 416.3,242.4 417.0,242.4 417.0,242.2 '/>
		<polygon fill = 'rgb( 31, 120, 180)' fill-opacity = '0.250000' points = '417.0,242.2 417.0,242.4 417.8,242.4 417.8,242.3 '/>
		<polygon fill = 'rgb( 31, 120, 180)' fill-opacity = '0.250000' points = '417.8,242.3 417.8,242.4 418.5,242.4 418.5,242.3 '/>
		<polygon fill = 'rgb( 31, 120, 180)' fill-opacity = '0.250000' points = '418.5,242.3 418.5,242.4 419.2,242.4 419.2,242.3 '/>
		<polygon fill = 'rgb( 31, 120, 180)' fill-opacity = '0.250000' points = '419.2,242.3 419.2,242.4 419.9,242.4 419.9,242.3 '/>
		<polygon fill = 'rgb( 31, 120, 180)' fill-opacity = '0.250000' points = '419.9,242.3 419.9,242.4 420.7,242.4 420.7,242.3 '/>
		<polygon fill = 'rgb( 31, 120, 180)' fill-opacity = '0.250000' points = '420.7,242.3 420.7,242.4 421.4,242.4 421.4,242.3 '/>
		<polygon fill = 'rgb( 31, 120, 180)' fill-opacity = '0.250000' points = '421.4,242.3 421.4,242.4 422.1,242.4 422.1,242.3 '/>
		<polygon fill = 'rgb( 31, 120, 180)' fill-opacity = '0.250000' points = '422.1,242.3 422.1,242.4 422.8,242.4 422.8,242.3 '/>
		<polygon fill = 'rgb( 31, 120, 180)' fill-opacity = '0.250000' points = '422.8,242.3 422.8,242.4 423.6,242.4 423.6,242.4 '/>
		<polygon fill = 'rgb( 31, 120, 180)' fill-opacity = '0.250000' points = '423.6,242.4 423.6,242.4 424.3,242.4 424.3,242.4 '/>
		<polygon fill = 'rgb( 31, 120, 180)' fill-opacity = '0.250000' points = '424.3,242.4 424.3,242.4 425.0,242.4 425.0,242.4 '/>
	</g>
</g>
	</g>
	<g id="gnuplot_plot_2" ><title>Mean</title>
<g fill="none" color="white" stroke="rgb( 31, 120, 180)" stroke-width="2.00" stroke-linecap="butt" stroke-linejoin="miter">
</g>
<g fill="none" color="black" stroke="currentColor" stroke-width="2.00" stroke-linecap="butt" stroke-linejoin="miter">
	<path stroke='rgb( 31, 120, 180)'  d='M148.3,242.4 L148.3,55.5  '/></g>
	</g>
<g fill="none" color="black" stroke="currentColor" stroke-width="2.00" stroke-linecap="butt" stroke-linejoin="miter">
</g>
<g fill="none" color="black" stroke="black" stroke-width="1.00" stroke-linecap="butt" stroke-linejoin="miter">
</g>
<g fill="none" color="black" stroke="currentColor" stroke-width="1.00" stroke-linecap="butt" stroke-linejoin="miter">
	<path stroke='black'  d='M63.6,16.7 L63.6,242.4 L425.0,242.4 L425.0,16.7 L63.6,16.7 Z  '/></g>
<g fill="none" color="black" stroke="currentColor" stroke-width="1.00" stroke-linecap="butt" stroke-linejoin="miter">
</g>
</g>
</svg>

