<?xml version="1.0" encoding="utf-8"  standalone="no"?>
<!DOCTYPE svg PUBLIC "-//W3C//DTD SVG 1.1//EN"
 "http://www.w3.org/Graphics/SVG/1.1/DTD/svg11.dtd">
<svg 
 viewBox="0 0 1280 720"
 xmlns="http://www.w3.org/2000/svg"
 xmlns:xlink="http://www.w3.org/1999/xlink"
>

<title>Gnuplot</title>
<desc>Produced by GNUPLOT 5.0 patchlevel 5 </desc>

<g id="gnuplot_canvas">

<rect x="0" y="0" width="1280" height="720" fill="none"/>
<defs>

	<circle id='gpDot' r='0.5' stroke-width='0.5'/>
	<path id='gpPt0' stroke-width='0.222' stroke='currentColor' d='M-1,0 h2 M0,-1 v2'/>
	<path id='gpPt1' stroke-width='0.222' stroke='currentColor' d='M-1,-1 L1,1 M1,-1 L-1,1'/>
	<path id='gpPt2' stroke-width='0.222' stroke='currentColor' d='M-1,0 L1,0 M0,-1 L0,1 M-1,-1 L1,1 M-1,1 L1,-1'/>
	<rect id='gpPt3' stroke-width='0.222' stroke='currentColor' x='-1' y='-1' width='2' height='2'/>
	<rect id='gpPt4' stroke-width='0.222' stroke='currentColor' fill='currentColor' x='-1' y='-1' width='2' height='2'/>
	<circle id='gpPt5' stroke-width='0.222' stroke='currentColor' cx='0' cy='0' r='1'/>
	<use xlink:href='#gpPt5' id='gpPt6' fill='currentColor' stroke='none'/>
	<path id='gpPt7' stroke-width='0.222' stroke='currentColor' d='M0,-1.33 L-1.33,0.67 L1.33,0.67 z'/>
	<use xlink:href='#gpPt7' id='gpPt8' fill='currentColor' stroke='none'/>
	<use xlink:href='#gpPt7' id='gpPt9' stroke='currentColor' transform='rotate(180)'/>
	<use xlink:href='#gpPt9' id='gpPt10' fill='currentColor' stroke='none'/>
	<use xlink:href='#gpPt3' id='gpPt11' stroke='currentColor' transform='rotate(45)'/>
	<use xlink:href='#gpPt11' id='gpPt12' fill='currentColor' stroke='none'/>
	<path id='gpPt13' stroke-width='0.222' stroke='currentColor' d='M0,1.330 L1.265,0.411 L0.782,-1.067 L-0.782,-1.076 L-1.265,0.411 z'/>
	<use xlink:href='#gpPt13' id='gpPt14' fill='currentColor' stroke='none'/>
	<filter id='textbox' filterUnits='objectBoundingBox' x='0' y='0' height='1' width='1'>
	  <feFlood flood-color='white' flood-opacity='1' result='bgnd'/>
	  <feComposite in='SourceGraphic' in2='bgnd' operator='atop'/>
	</filter>
	<filter id='greybox' filterUnits='objectBoundingBox' x='0' y='0' height='1' width='1'>
	  <feFlood flood-color='lightgrey' flood-opacity='1' result='grey'/>
	  <feComposite in='SourceGraphic' in2='grey' operator='atop'/>
	</filter>
</defs>
<g fill="none" color="white" stroke="currentColor" stroke-width="1.00" stroke-linecap="butt" stroke-linejoin="miter">
</g>
<g fill="none" color="black" stroke="currentColor" stroke-width="1.00" stroke-linecap="butt" stroke-linejoin="miter">
	<path stroke='black'  d='M88.5,662.4 L97.5,662.4  '/>	<g transform="translate(80.2,666.3)" stroke="none" fill="black" font-family="Helvetica" font-size="12.00"  text-anchor="end">
		<text><tspan font-family="Helvetica" > 0</tspan></text>
	</g>
</g>
<g fill="none" color="black" stroke="currentColor" stroke-width="1.00" stroke-linecap="butt" stroke-linejoin="miter">
	<path stroke='black'  d='M88.5,601.6 L97.5,601.6  '/>	<g transform="translate(80.2,605.5)" stroke="none" fill="black" font-family="Helvetica" font-size="12.00"  text-anchor="end">
		<text><tspan font-family="Helvetica" > 0.005</tspan></text>
	</g>
</g>
<g fill="none" color="black" stroke="currentColor" stroke-width="1.00" stroke-linecap="butt" stroke-linejoin="miter">
	<path stroke='black'  d='M88.5,540.7 L97.5,540.7  '/>	<g transform="translate(80.2,544.6)" stroke="none" fill="black" font-family="Helvetica" font-size="12.00"  text-anchor="end">
		<text><tspan font-family="Helvetica" > 0.01</tspan></text>
	</g>
</g>
<g fill="none" color="black" stroke="currentColor" stroke-width="1.00" stroke-linecap="butt" stroke-linejoin="miter">
	<path stroke='black'  d='M88.5,479.9 L97.5,479.9  '/>	<g transform="translate(80.2,483.8)" stroke="none" fill="black" font-family="Helvetica" font-size="12.00"  text-anchor="end">
		<text><tspan font-family="Helvetica" > 0.015</tspan></text>
	</g>
</g>
<g fill="none" color="black" stroke="currentColor" stroke-width="1.00" stroke-linecap="butt" stroke-linejoin="miter">
	<path stroke='black'  d='M88.5,419.1 L97.5,419.1  '/>	<g transform="translate(80.2,423.0)" stroke="none" fill="black" font-family="Helvetica" font-size="12.00"  text-anchor="end">
		<text><tspan font-family="Helvetica" > 0.02</tspan></text>
	</g>
</g>
<g fill="none" color="black" stroke="currentColor" stroke-width="1.00" stroke-linecap="butt" stroke-linejoin="miter">
	<path stroke='black'  d='M88.5,358.2 L97.5,358.2  '/>	<g transform="translate(80.2,362.1)" stroke="none" fill="black" font-family="Helvetica" font-size="12.00"  text-anchor="end">
		<text><tspan font-family="Helvetica" > 0.025</tspan></text>
	</g>
</g>
<g fill="none" color="black" stroke="currentColor" stroke-width="1.00" stroke-linecap="butt" stroke-linejoin="miter">
	<path stroke='black'  d='M88.5,297.4 L97.5,297.4  '/>	<g transform="translate(80.2,301.3)" stroke="none" fill="black" font-family="Helvetica" font-size="12.00"  text-anchor="end">
		<text><tspan font-family="Helvetica" > 0.03</tspan></text>
	</g>
</g>
<g fill="none" color="black" stroke="currentColor" stroke-width="1.00" stroke-linecap="butt" stroke-linejoin="miter">
	<path stroke='black'  d='M88.5,236.6 L97.5,236.6  '/>	<g transform="translate(80.2,240.5)" stroke="none" fill="black" font-family="Helvetica" font-size="12.00"  text-anchor="end">
		<text><tspan font-family="Helvetica" > 0.035</tspan></text>
	</g>
</g>
<g fill="none" color="black" stroke="currentColor" stroke-width="1.00" stroke-linecap="butt" stroke-linejoin="miter">
	<path stroke='black'  d='M88.5,175.8 L97.5,175.8  '/>	<g transform="translate(80.2,179.7)" stroke="none" fill="black" font-family="Helvetica" font-size="12.00"  text-anchor="end">
		<text><tspan font-family="Helvetica" > 0.04</tspan></text>
	</g>
</g>
<g fill="none" color="black" stroke="currentColor" stroke-width="1.00" stroke-linecap="butt" stroke-linejoin="miter">
	<path stroke='black'  d='M88.5,114.9 L97.5,114.9  '/>	<g transform="translate(80.2,118.8)" stroke="none" fill="black" font-family="Helvetica" font-size="12.00"  text-anchor="end">
		<text><tspan font-family="Helvetica" > 0.045</tspan></text>
	</g>
</g>
<g fill="none" color="black" stroke="currentColor" stroke-width="1.00" stroke-linecap="butt" stroke-linejoin="miter">
	<path stroke='black'  d='M88.5,54.1 L97.5,54.1  '/>	<g transform="translate(80.2,58.0)" stroke="none" fill="black" font-family="Helvetica" font-size="12.00"  text-anchor="end">
		<text><tspan font-family="Helvetica" > 0.05</tspan></text>
	</g>
</g>
<g fill="none" color="black" stroke="currentColor" stroke-width="1.00" stroke-linecap="butt" stroke-linejoin="miter">
	<path stroke='black'  d='M154.0,662.4 L154.0,653.4  '/>	<g transform="translate(154.0,684.3)" stroke="none" fill="black" font-family="Helvetica" font-size="12.00"  text-anchor="middle">
		<text><tspan font-family="Helvetica" > 60</tspan></text>
	</g>
</g>
<g fill="none" color="black" stroke="currentColor" stroke-width="1.00" stroke-linecap="butt" stroke-linejoin="miter">
	<path stroke='black'  d='M265.5,662.4 L265.5,653.4  '/>	<g transform="translate(265.5,684.3)" stroke="none" fill="black" font-family="Helvetica" font-size="12.00"  text-anchor="middle">
		<text><tspan font-family="Helvetica" > 65</tspan></text>
	</g>
</g>
<g fill="none" color="black" stroke="currentColor" stroke-width="1.00" stroke-linecap="butt" stroke-linejoin="miter">
	<path stroke='black'  d='M377.0,662.4 L377.0,653.4  '/>	<g transform="translate(377.0,684.3)" stroke="none" fill="black" font-family="Helvetica" font-size="12.00"  text-anchor="middle">
		<text><tspan font-family="Helvetica" > 70</tspan></text>
	</g>
</g>
<g fill="none" color="black" stroke="currentColor" stroke-width="1.00" stroke-linecap="butt" stroke-linejoin="miter">
	<path stroke='black'  d='M488.5,662.4 L488.5,653.4  '/>	<g transform="translate(488.5,684.3)" stroke="none" fill="black" font-family="Helvetica" font-size="12.00"  text-anchor="middle">
		<text><tspan font-family="Helvetica" > 75</tspan></text>
	</g>
</g>
<g fill="none" color="black" stroke="currentColor" stroke-width="1.00" stroke-linecap="butt" stroke-linejoin="miter">
	<path stroke='black'  d='M599.9,662.4 L599.9,653.4  '/>	<g transform="translate(599.9,684.3)" stroke="none" fill="black" font-family="Helvetica" font-size="12.00"  text-anchor="middle">
		<text><tspan font-family="Helvetica" > 80</tspan></text>
	</g>
</g>
<g fill="none" color="black" stroke="currentColor" stroke-width="1.00" stroke-linecap="butt" stroke-linejoin="miter">
	<path stroke='black'  d='M711.4,662.4 L711.4,653.4  '/>	<g transform="translate(711.4,684.3)" stroke="none" fill="black" font-family="Helvetica" font-size="12.00"  text-anchor="middle">
		<text><tspan font-family="Helvetica" > 85</tspan></text>
	</g>
</g>
<g fill="none" color="black" stroke="currentColor" stroke-width="1.00" stroke-linecap="butt" stroke-linejoin="miter">
	<path stroke='black'  d='M822.9,662.4 L822.9,653.4  '/>	<g transform="translate(822.9,684.3)" stroke="none" fill="black" font-family="Helvetica" font-size="12.00"  text-anchor="middle">
		<text><tspan font-family="Helvetica" > 90</tspan></text>
	</g>
</g>
<g fill="none" color="black" stroke="currentColor" stroke-width="1.00" stroke-linecap="butt" stroke-linejoin="miter">
	<path stroke='black'  d='M934.4,662.4 L934.4,653.4  '/>	<g transform="translate(934.4,684.3)" stroke="none" fill="black" font-family="Helvetica" font-size="12.00"  text-anchor="middle">
		<text><tspan font-family="Helvetica" > 95</tspan></text>
	</g>
</g>
<g fill="none" color="black" stroke="currentColor" stroke-width="1.00" stroke-linecap="butt" stroke-linejoin="miter">
</g>
<g fill="none" color="black" stroke="currentColor" stroke-width="1.00" stroke-linecap="butt" stroke-linejoin="miter">
	<path stroke='black'  d='M88.5,54.1 L88.5,662.4 L1013.6,662.4 L1013.6,54.1 L88.5,54.1 Z  '/></g>
<g fill="none" color="black" stroke="currentColor" stroke-width="1.00" stroke-linecap="butt" stroke-linejoin="miter">
	<g transform="translate(17.0,358.3) rotate(270)" stroke="none" fill="black" font-family="Helvetica" font-size="12.00"  text-anchor="middle">
		<text><tspan font-family="Helvetica" >Density (a.u.)</tspan></text>
	</g>
</g>
<g fill="none" color="black" stroke="currentColor" stroke-width="1.00" stroke-linecap="butt" stroke-linejoin="miter">
	<g transform="translate(551.0,711.3)" stroke="none" fill="black" font-family="Helvetica" font-size="12.00"  text-anchor="middle">
		<text><tspan font-family="Helvetica" >Average time (us)</tspan></text>
	</g>
</g>
<g fill="none" color="black" stroke="currentColor" stroke-width="1.00" stroke-linecap="butt" stroke-linejoin="miter">
	<g transform="translate(551.0,31.0)" stroke="none" fill="black" font-family="Helvetica" font-size="12.00"  text-anchor="middle">
		<text><tspan font-family="Helvetica" >dfs arena mutex immut: SD</tspan></text>
	</g>
</g>
	<g id="gnuplot_plot_1" ><title>Bootstrap distribution</title>
<g fill="none" color="white" stroke="black" stroke-width="2.00" stroke-linecap="butt" stroke-linejoin="miter">
</g>
<g fill="none" color="black" stroke="currentColor" stroke-width="2.00" stroke-linecap="butt" stroke-linejoin="miter">
	<g transform="translate(1089.0,67.0)" stroke="none" fill="black" font-family="Helvetica" font-size="12.00"  text-anchor="start">
		<text><tspan font-family="Helvetica" >Bootstrap distribution</tspan></text>
	</g>
</g>
<g fill="none" color="black" stroke="currentColor" stroke-width="2.00" stroke-linecap="butt" stroke-linejoin="miter">
	<path stroke='rgb( 31, 120, 180)'  d='M1038.5,63.1 L1080.7,63.1 M88.5,631.0 L90.4,630.4 L92.2,629.8 L94.1,629.1 L95.9,628.5 L97.8,627.8
		L99.6,627.1 L101.5,626.4 L103.3,625.6 L105.2,624.8 L107.0,624.0 L108.9,623.2 L110.7,622.3 L112.6,621.4
		L114.5,620.5 L116.3,619.5 L118.2,618.6 L120.0,617.6 L121.9,616.6 L123.7,615.5 L125.6,614.5 L127.4,613.4
		L129.3,612.3 L131.1,611.2 L133.0,610.1 L134.8,609.0 L136.7,607.9 L138.6,606.8 L140.4,605.6 L142.3,604.5
		L144.1,603.4 L146.0,602.2 L147.8,601.1 L149.7,600.0 L151.5,598.8 L153.4,597.7 L155.2,596.5 L157.1,595.4
		L158.9,594.3 L160.8,593.1 L162.7,592.0 L164.5,590.8 L166.4,589.7 L168.2,588.5 L170.1,587.4 L171.9,586.2
		L173.8,585.1 L175.6,583.9 L177.5,582.7 L179.3,581.5 L181.2,580.2 L183.0,579.0 L184.9,577.7 L186.8,576.4
		L188.6,575.1 L190.5,573.7 L192.3,572.3 L194.2,570.8 L196.0,569.3 L197.9,567.8 L199.7,566.2 L201.6,564.6
		L203.4,562.9 L205.3,561.2 L207.2,559.4 L209.0,557.6 L210.9,555.8 L212.7,553.9 L214.6,551.9 L216.4,550.0
		L218.3,548.0 L220.1,546.0 L222.0,544.0 L223.8,541.9 L225.7,539.9 L227.5,537.8 L229.4,535.8 L231.3,533.7
		L233.1,531.6 L235.0,529.5 L236.8,527.4 L238.7,525.4 L240.5,523.3 L242.4,521.2 L244.2,519.2 L246.1,517.1
		L247.9,515.0 L249.8,512.9 L251.6,510.9 L253.5,508.8 L255.4,506.7 L257.2,504.6 L259.1,502.4 L260.9,500.3
		L262.8,498.1 L264.6,495.9 L266.5,493.7 L268.3,491.4 L270.2,489.1 L272.0,486.7 L273.9,484.3 L275.7,481.9
		L277.6,479.4 L279.5,476.8 L281.3,474.2 L283.2,471.5 L285.0,468.8 L286.9,466.1 L288.7,463.3 L290.6,460.4
		L292.4,457.6 L294.3,454.7 L296.1,451.8 L298.0,448.8 L299.8,445.9 L301.7,443.0 L303.6,440.1 L305.4,437.2
		L307.3,434.4 L309.1,431.5 L311.0,428.7 L312.8,425.9 L314.7,423.1 L316.5,420.4 L318.4,417.7 L320.2,415.0
		L322.1,412.4 L323.9,409.7 L325.8,407.0 L327.7,404.4 L329.5,401.7 L331.4,399.0 L333.2,396.3 L335.1,393.6
		L336.9,390.8 L338.8,388.0 L340.6,385.1 L342.5,382.2 L344.3,379.2 L346.2,376.2 L348.0,373.2 L349.9,370.1
		L351.8,367.0 L353.6,363.8 L355.5,360.6 L357.3,357.4 L359.2,354.1 L361.0,350.8 L362.9,347.6 L364.7,344.3
		L366.6,340.9 L368.4,337.6 L370.3,334.3 L372.1,331.0 L374.0,327.7 L375.9,324.5 L377.7,321.2 L379.6,317.9
		L381.4,314.7 L383.3,311.5 L385.1,308.3 L387.0,305.1 L388.8,302.0 L390.7,298.8 L392.5,295.7 L394.4,292.6
		L396.2,289.6 L398.1,286.5 L400.0,283.5 L401.8,280.5 L403.7,277.5 L405.5,274.6 L407.4,271.6 L409.2,268.7
		L411.1,265.8 L412.9,262.9 L414.8,260.1 L416.6,257.2 L418.5,254.4 L420.3,251.5 L422.2,248.7 L424.1,245.9
		L425.9,243.1 L427.8,240.3 L429.6,237.5 L431.5,234.7 L433.3,231.9 L435.2,229.2 L437.0,226.4 L438.9,223.6
		L440.7,220.9 L442.6,218.2 L444.5,215.5 L446.3,212.8 L448.2,210.1 L450.0,207.4 L451.9,204.8 L453.7,202.1
		L455.6,199.5 L457.4,196.9 L459.3,194.3 L461.1,191.8 L463.0,189.3 L464.8,186.8 L466.7,184.3 L468.6,181.8
		L470.4,179.4 L472.3,177.0 L474.1,174.7 L476.0,172.4 L477.8,170.1 L479.7,167.8 L481.5,165.6 L483.4,163.4
		L485.2,161.2 L487.1,159.0 L488.9,156.8 L490.8,154.7 L492.7,152.5 L494.5,150.4 L496.4,148.2 L498.2,146.1
		L500.1,143.9 L501.9,141.8 L503.8,139.6 L505.6,137.5 L507.5,135.3 L509.3,133.2 L511.2,131.1 L513.0,129.0
		L514.9,126.9 L516.8,124.9 L518.6,122.9 L520.5,121.0 L522.3,119.1 L524.2,117.3 L526.0,115.6 L527.9,114.0
		L529.7,112.4 L531.6,111.0 L533.4,109.6 L535.3,108.4 L537.1,107.2 L539.0,106.1 L540.9,105.1 L542.7,104.3
		L544.6,103.5 L546.4,102.8 L548.3,102.2 L550.1,101.7 L552.0,101.2 L553.8,100.9 L555.7,100.6 L557.5,100.3
		L559.4,100.2 L561.2,100.1 L563.1,100.0 L565.0,100.0 L566.8,100.1 L568.7,100.2 L570.5,100.4 L572.4,100.7
		L574.2,100.9 L576.1,101.3 L577.9,101.7 L579.8,102.1 L581.6,102.6 L583.5,103.1 L585.3,103.7 L587.2,104.3
		L589.1,105.0 L590.9,105.7 L592.8,106.4 L594.6,107.2 L596.5,108.0 L598.3,108.8 L600.2,109.6 L602.0,110.4
		L603.9,111.3 L605.7,112.2 L607.6,113.1 L609.4,114.0 L611.3,114.9 L613.2,115.9 L615.0,116.8 L616.9,117.8
		L618.7,118.9 L620.6,119.9 L622.4,121.0 L624.3,122.0 L626.1,123.2 L628.0,124.3 L629.8,125.5 L631.7,126.7
		L633.5,128.0 L635.4,129.3 L637.3,130.6 L639.1,132.0 L641.0,133.5 L642.8,135.0 L644.7,136.6 L646.5,138.3
		L648.4,140.0 L650.2,141.8 L652.1,143.6 L653.9,145.6 L655.8,147.6 L657.6,149.7 L659.5,151.9 L661.4,154.2
		L663.2,156.5 L665.1,158.9 L666.9,161.4 L668.8,164.0 L670.6,166.6 L672.5,169.2 L674.3,171.9 L676.2,174.7
		L678.0,177.5 L679.9,180.3 L681.8,183.1 L683.6,186.0 L685.5,188.8 L687.3,191.7 L689.2,194.7 L691.0,197.6
		L692.9,200.6 L694.7,203.6 L696.6,206.6 L698.4,209.6 L700.3,212.7 L702.1,215.8 L704.0,218.9 L705.9,222.1
		L707.7,225.3 L709.6,228.5 L711.4,231.8 L713.3,235.2 L715.1,238.5 L717.0,241.9 L718.8,245.4 L720.7,248.8
		L722.5,252.3 L724.4,255.8 L726.2,259.3 L728.1,262.9 L730.0,266.4 L731.8,269.9 L733.7,273.4 L735.5,277.0
		L737.4,280.4 L739.2,283.9 L741.1,287.4 L742.9,290.8 L744.8,294.2 L746.6,297.5 L748.5,300.8 L750.3,304.1
		L752.2,307.3 L754.1,310.5 L755.9,313.7 L757.8,316.8 L759.6,319.9 L761.5,323.0 L763.3,326.1 L765.2,329.1
		L767.0,332.1 L768.9,335.1 L770.7,338.1 L772.6,341.0 L774.4,344.0 L776.3,347.0 L778.2,350.0 L780.0,353.0
		L781.9,356.1 L783.7,359.1 L785.6,362.2 L787.4,365.3 L789.3,368.5 L791.1,371.6 L793.0,374.8 L794.8,378.0
		L796.7,381.3 L798.5,384.5 L800.4,387.8 L802.3,391.1 L804.1,394.4 L806.0,397.7 L807.8,401.0 L809.7,404.3
		L811.5,407.6 L813.4,410.9 L815.2,414.2 L817.1,417.5 L818.9,420.8 L820.8,424.0 L822.6,427.2 L824.5,430.4
		L826.4,433.6 L828.2,436.8 L830.1,439.9 L831.9,443.1 L833.8,446.2 L835.6,449.3 L837.5,452.3 L839.3,455.3
		L841.2,458.4 L843.0,461.3 L844.9,464.3 L846.7,467.2 L848.6,470.1 L850.5,473.0 L852.3,475.8 L854.2,478.6
		L856.0,481.4 L857.9,484.1 L859.7,486.8 L861.6,489.5 L863.4,492.1 L865.3,494.7 L867.1,497.3 L869.0,499.9
		L870.8,502.4 L872.7,504.9 L874.6,507.3 L876.4,509.8 L878.3,512.2 L880.1,514.6 L882.0,517.1 L883.8,519.5
		L885.7,521.9 L887.5,524.3 L889.4,526.7 L891.2,529.1 L893.1,531.5 L894.9,533.8 L896.8,536.2 L898.7,538.6
		L900.5,540.9 L902.4,543.2 L904.2,545.5 L906.1,547.8 L907.9,550.1 L909.8,552.3 L911.6,554.5 L913.5,556.6
		L915.3,558.7 L917.2,560.7 L919.1,562.7 L920.9,564.7 L922.8,566.6 L924.6,568.5 L926.5,570.4 L928.3,572.2
		L930.2,574.0 L932.0,575.7 L933.9,577.5 L935.7,579.2 L937.6,580.8 L939.4,582.5 L941.3,584.1 L943.2,585.7
		L945.0,587.3 L946.9,588.9 L948.7,590.5 L950.6,592.0 L952.4,593.6 L954.3,595.1 L956.1,596.6 L958.0,598.1
		L959.8,599.6 L961.7,601.0 L963.5,602.5 L965.4,603.9 L967.3,605.3 L969.1,606.7 L971.0,608.1 L972.8,609.4
		L974.7,610.8 L976.5,612.1 L978.4,613.3 L980.2,614.6 L982.1,615.8 L983.9,617.0 L985.8,618.1 L987.6,619.3
		L989.5,620.3 L991.4,621.4 L993.2,622.4 L995.1,623.3 L996.9,624.3 L998.8,625.2 L1000.6,626.0 L1002.5,626.8
		L1004.3,627.6 L1006.2,628.3 L1008.0,629.0 L1009.9,629.7 L1011.7,630.4 L1013.6,631.0  '/></g>
	</g>
	<g id="gnuplot_plot_2" ><title>Confidence interval</title>
<g fill="none" color="white" stroke="rgb( 31, 120, 180)" stroke-width="1.00" stroke-linecap="butt" stroke-linejoin="miter">
</g>
<g fill="none" color="black" stroke="currentColor" stroke-width="1.00" stroke-linecap="butt" stroke-linejoin="miter">
	<g transform="translate(1089.0,85.0)" stroke="none" fill="black" font-family="Helvetica" font-size="12.00"  text-anchor="start">
		<text><tspan font-family="Helvetica" >Confidence interval</tspan></text>
	</g>
</g>
<g fill="none" color="black" stroke="currentColor" stroke-width="1.00" stroke-linecap="butt" stroke-linejoin="miter">
	<g stroke='none' shape-rendering='crispEdges'>
		<polygon fill = 'rgb( 31, 120, 180)' fill-opacity = '0.250000' points = '1038.5,85.6 1080.7,85.6 1080.7,76.6 1038.5,76.6 '/>
		<polygon fill = 'rgb( 31, 120, 180)' fill-opacity = '0.250000' points = '173.8,585.1 173.8,662.4 175.6,662.4 175.6,583.9 '/>
		<polygon fill = 'rgb( 31, 120, 180)' fill-opacity = '0.250000' points = '175.6,583.9 175.6,662.4 177.5,662.4 177.5,582.7 '/>
		<polygon fill = 'rgb( 31, 120, 180)' fill-opacity = '0.250000' points = '177.5,582.7 177.5,662.4 179.3,662.4 179.3,581.5 '/>
		<polygon fill = 'rgb( 31, 120, 180)' fill-opacity = '0.250000' points = '179.3,581.5 179.3,662.4 181.2,662.4 181.2,580.2 '/>
		<polygon fill = 'rgb( 31, 120, 180)' fill-opacity = '0.250000' points = '181.2,580.2 181.2,662.4 183.0,662.4 183.0,579.0 '/>
		<polygon fill = 'rgb( 31, 120, 180)' fill-opacity = '0.250000' points = '183.0,579.0 183.0,662.4 184.9,662.4 184.9,577.7 '/>
		<polygon fill = 'rgb( 31, 120, 180)' fill-opacity = '0.250000' points = '184.9,577.7 184.9,662.4 186.8,662.4 186.8,576.4 '/>
		<polygon fill = 'rgb( 31, 120, 180)' fill-opacity = '0.250000' points = '186.8,576.4 186.8,662.4 188.6,662.4 188.6,575.1 '/>
		<polygon fill = 'rgb( 31, 120, 180)' fill-opacity = '0.250000' points = '188.6,575.1 188.6,662.4 190.5,662.4 190.5,573.7 '/>
		<polygon fill = 'rgb( 31, 120, 180)' fill-opacity = '0.250000' points = '190.5,573.7 190.5,662.4 192.3,662.4 192.3,572.3 '/>
		<polygon fill = 'rgb( 31, 120, 180)' fill-opacity = '0.250000' points = '192.3,572.3 192.3,662.4 194.2,662.4 194.2,570.8 '/>
		<polygon fill = 'rgb( 31, 120, 180)' fill-opacity = '0.250000' points = '194.2,570.8 194.2,662.4 196.0,662.4 196.0,569.3 '/>
		<polygon fill = 'rgb( 31, 120, 180)' fill-opacity = '0.250000' points = '196.0,569.3 196.0,662.4 197.9,662.4 197.9,567.8 '/>
		<polygon fill = 'rgb( 31, 120, 180)' fill-opacity = '0.250000' points = '197.9,567.8 197.9,662.4 199.7,662.4 199.7,566.2 '/>
		<polygon fill = 'rgb( 31, 120, 180)' fill-opacity = '0.250000' points = '199.7,566.2 199.7,662.4 201.6,662.4 201.6,564.6 '/>
		<polygon fill = 'rgb( 31, 120, 180)' fill-opacity = '0.250000' points = '201.6,564.6 201.6,662.4 203.4,662.4 203.4,562.9 '/>
		<polygon fill = 'rgb( 31, 120, 180)' fill-opacity = '0.250000' points = '203.4,562.9 203.4,662.4 205.3,662.4 205.3,561.2 '/>
		<polygon fill = 'rgb( 31, 120, 180)' fill-opacity = '0.250000' points = '205.3,561.2 205.3,662.4 207.2,662.4 207.2,559.4 '/>
		<polygon fill = 'rgb( 31, 120, 180)' fill-opacity = '0.250000' points = '207.2,559.4 207.2,662.4 209.0,662.4 209.0,557.6 '/>
		<polygon fill = 'rgb( 31, 120, 180)' fill-opacity = '0.250000' points = '209.0,557.6 209.0,662.4 210.9,662.4 210.9,555.8 '/>
		<polygon fill = 'rgb( 31, 120, 180)' fill-opacity = '0.250000' points = '210.9,555.8 210.9,662.4 212.7,662.4 212.7,553.9 '/>
		<polygon fill = 'rgb( 31, 120, 180)' fill-opacity = '0.250000' points = '212.7,553.9 212.7,662.4 214.6,662.4 214.6,551.9 '/>
		<polygon fill = 'rgb( 31, 120, 180)' fill-opacity = '0.250000' points = '214.6,551.9 214.6,662.4 216.4,662.4 216.4,550.0 '/>
		<polygon fill = 'rgb( 31, 120, 180)' fill-opacity = '0.250000' points = '216.4,550.0 216.4,662.4 218.3,662.4 218.3,548.0 '/>
		<polygon fill = 'rgb( 31, 120, 180)' fill-opacity = '0.250000' points = '218.3,548.0 218.3,662.4 220.1,662.4 220.1,546.0 '/>
		<polygon fill = 'rgb( 31, 120, 180)' fill-opacity = '0.250000' points = '220.1,546.0 220.1,662.4 222.0,662.4 222.0,544.0 '/>
		<polygon fill = 'rgb( 31, 120, 180)' fill-opacity = '0.250000' points = '222.0,544.0 222.0,662.4 223.8,662.4 223.8,541.9 '/>
		<polygon fill = 'rgb( 31, 120, 180)' fill-opacity = '0.250000' points = '223.8,541.9 223.8,662.4 225.7,662.4 225.7,539.9 '/>
		<polygon fill = 'rgb( 31, 120, 180)' fill-opacity = '0.250000' points = '225.7,539.9 225.7,662.4 227.5,662.4 227.5,537.8 '/>
		<polygon fill = 'rgb( 31, 120, 180)' fill-opacity = '0.250000' points = '227.5,537.8 227.5,662.4 229.4,662.4 229.4,535.8 '/>
		<polygon fill = 'rgb( 31, 120, 180)' fill-opacity = '0.250000' points = '229.4,535.8 229.4,662.4 231.3,662.4 231.3,533.7 '/>
		<polygon fill = 'rgb( 31, 120, 180)' fill-opacity = '0.250000' points = '231.3,533.7 231.3,662.4 233.1,662.4 233.1,531.6 '/>
		<polygon fill = 'rgb( 31, 120, 180)' fill-opacity = '0.250000' points = '233.1,531.6 233.1,662.4 235.0,662.4 235.0,529.5 '/>
		<polygon fill = 'rgb( 31, 120, 180)' fill-opacity = '0.250000' points = '235.0,529.5 235.0,662.4 236.8,662.4 236.8,527.4 '/>
		<polygon fill = 'rgb( 31, 120, 180)' fill-opacity = '0.250000' points = '236.8,527.4 236.8,662.4 238.7,662.4 238.7,525.4 '/>
		<polygon fill = 'rgb( 31, 120, 180)' fill-opacity = '0.250000' points = '238.7,525.4 238.7,662.4 240.5,662.4 240.5,523.3 '/>
		<polygon fill = 'rgb( 31, 120, 180)' fill-opacity = '0.250000' points = '240.5,523.3 240.5,662.4 242.4,662.4 242.4,521.2 '/>
		<polygon fill = 'rgb( 31, 120, 180)' fill-opacity = '0.250000' points = '242.4,521.2 242.4,662.4 244.2,662.4 244.2,519.2 '/>
		<polygon fill = 'rgb( 31, 120, 180)' fill-opacity = '0.250000' points = '244.2,519.2 244.2,662.4 246.1,662.4 246.1,517.1 '/>
		<polygon fill = 'rgb( 31, 120, 180)' fill-opacity = '0.250000' points = '246.1,517.1 246.1,662.4 247.9,662.4 247.9,515.0 '/>
		<polygon fill = 'rgb( 31, 120, 180)' fill-opacity = '0.250000' points = '247.9,515.0 247.9,662.4 249.8,662.4 249.8,512.9 '/>
		<polygon fill = 'rgb( 31, 120, 180)' fill-opacity = '0.250000' points = '249.8,512.9 249.8,662.4 251.6,662.4 251.6,510.9 '/>
		<polygon fill = 'rgb( 31, 120, 180)' fill-opacity = '0.250000' points = '251.6,510.9 251.6,662.4 253.5,662.4 253.5,508.8 '/>
		<polygon fill = 'rgb( 31, 120, 180)' fill-opacity = '0.250000' points = '253.5,508.8 253.5,662.4 255.4,662.4 255.4,506.7 '/>
		<polygon fill = 'rgb( 31, 120, 180)' fill-opacity = '0.250000' points = '255.4,506.7 255.4,662.4 257.2,662.4 257.2,504.6 '/>
		<polygon fill = 'rgb( 31, 120, 180)' fill-opacity = '0.250000' points = '257.2,504.6 257.2,662.4 259.1,662.4 259.1,502.4 '/>
		<polygon fill = 'rgb( 31, 120, 180)' fill-opacity = '0.250000' points = '259.1,502.4 259.1,662.4 260.9,662.4 260.9,500.3 '/>
		<polygon fill = 'rgb( 31, 120, 180)' fill-opacity = '0.250000' points = '260.9,500.3 260.9,662.4 262.8,662.4 262.8,498.1 '/>
		<polygon fill = 'rgb( 31, 120, 180)' fill-opacity = '0.250000' points = '262.8,498.1 262.8,662.4 264.6,662.4 264.6,495.9 '/>
		<polygon fill = 'rgb( 31, 120, 180)' fill-opacity = '0.250000' points = '264.6,495.9 264.6,662.4 266.5,662.4 266.5,493.7 '/>
		<polygon fill = 'rgb( 31, 120, 180)' fill-opacity = '0.250000' points = '266.5,493.7 266.5,662.4 268.3,662.4 268.3,491.4 '/>
		<polygon fill = 'rgb( 31, 120, 180)' fill-opacity = '0.250000' points = '268.3,491.4 268.3,662.4 270.2,662.4 270.2,489.1 '/>
		<polygon fill = 'rgb( 31, 120, 180)' fill-opacity = '0.250000' points = '270.2,489.1 270.2,662.4 272.0,662.4 272.0,486.7 '/>
		<polygon fill = 'rgb( 31, 120, 180)' fill-opacity = '0.250000' points = '272.0,486.7 272.0,662.4 273.9,662.4 273.9,484.3 '/>
		<polygon fill = 'rgb( 31, 120, 180)' fill-opacity = '0.250000' points = '273.9,484.3 273.9,662.4 275.7,662.4 275.7,481.9 '/>
		<polygon fill = 'rgb( 31, 120, 180)' fill-opacity = '0.250000' points = '275.7,481.9 275.7,662.4 277.6,662.4 277.6,479.4 '/>
		<polygon fill = 'rgb( 31, 120, 180)' fill-opacity = '0.250000' points = '277.6,479.4 277.6,662.4 279.5,662.4 279.5,476.8 '/>
		<polygon fill = 'rgb( 31, 120, 180)' fill-opacity = '0.250000' points = '279.5,476.8 279.5,662.4 281.3,662.4 281.3,474.2 '/>
		<polygon fill = 'rgb( 31, 120, 180)' fill-opacity = '0.250000' points = '281.3,474.2 281.3,662.4 283.2,662.4 283.2,471.5 '/>
		<polygon fill = 'rgb( 31, 120, 180)' fill-opacity = '0.250000' points = '283.2,471.5 283.2,662.4 285.0,662.4 285.0,468.8 '/>
		<polygon fill = 'rgb( 31, 120, 180)' fill-opacity = '0.250000' points = '285.0,468.8 285.0,662.4 286.9,662.4 286.9,466.1 '/>
		<polygon fill = 'rgb( 31, 120, 180)' fill-opacity = '0.250000' points = '286.9,466.1 286.9,662.4 288.7,662.4 288.7,463.3 '/>
		<polygon fill = 'rgb( 31, 120, 180)' fill-opacity = '0.250000' points = '288.7,463.3 288.7,662.4 290.6,662.4 290.6,460.4 '/>
		<polygon fill = 'rgb( 31, 120, 180)' fill-opacity = '0.250000' points = '290.6,460.4 290.6,662.4 292.4,662.4 292.4,457.6 '/>
		<polygon fill = 'rgb( 31, 120, 180)' fill-opacity = '0.250000' points = '292.4,457.6 292.4,662.4 294.3,662.4 294.3,454.7 '/>
		<polygon fill = 'rgb( 31, 120, 180)' fill-opacity = '0.250000' points = '294.3,454.7 294.3,662.4 296.1,662.4 296.1,451.8 '/>
		<polygon fill = 'rgb( 31, 120, 180)' fill-opacity = '0.250000' points = '296.1,451.8 296.1,662.4 298.0,662.4 298.0,448.8 '/>
		<polygon fill = 'rgb( 31, 120, 180)' fill-opacity = '0.250000' points = '298.0,448.8 298.0,662.4 299.8,662.4 299.8,445.9 '/>
		<polygon fill = 'rgb( 31, 120, 180)' fill-opacity = '0.250000' points = '299.8,445.9 299.8,662.4 301.7,662.4 301.7,443.0 '/>
		<polygon fill = 'rgb( 31, 120, 180)' fill-opacity = '0.250000' points = '301.7,443.0 301.7,662.4 303.6,662.4 303.6,440.1 '/>
		<polygon fill = 'rgb( 31, 120, 180)' fill-opacity = '0.250000' points = '303.6,440.1 303.6,662.4 305.4,662.4 305.4,437.2 '/>
		<polygon fill = 'rgb( 31, 120, 180)' fill-opacity = '0.250000' points = '305.4,437.2 305.4,662.4 307.3,662.4 307.3,434.4 '/>
		<polygon fill = 'rgb( 31, 120, 180)' fill-opacity = '0.250000' points = '307.3,434.4 307.3,662.4 309.1,662.4 309.1,431.5 '/>
		<polygon fill = 'rgb( 31, 120, 180)' fill-opacity = '0.250000' points = '309.1,431.5 309.1,662.4 311.0,662.4 311.0,428.7 '/>
		<polygon fill = 'rgb( 31, 120, 180)' fill-opacity = '0.250000' points = '311.0,428.7 311.0,662.4 312.8,662.4 312.8,425.9 '/>
		<polygon fill = 'rgb( 31, 120, 180)' fill-opacity = '0.250000' points = '312.8,425.9 312.8,662.4 314.7,662.4 314.7,423.1 '/>
		<polygon fill = 'rgb( 31, 120, 180)' fill-opacity = '0.250000' points = '314.7,423.1 314.7,662.4 316.5,662.4 316.5,420.4 '/>
		<polygon fill = 'rgb( 31, 120, 180)' fill-opacity = '0.250000' points = '316.5,420.4 316.5,662.4 318.4,662.4 318.4,417.7 '/>
		<polygon fill = 'rgb( 31, 120, 180)' fill-opacity = '0.250000' points = '318.4,417.7 318.4,662.4 320.2,662.4 320.2,415.0 '/>
		<polygon fill = 'rgb( 31, 120, 180)' fill-opacity = '0.250000' points = '320.2,415.0 320.2,662.4 322.1,662.4 322.1,412.4 '/>
		<polygon fill = 'rgb( 31, 120, 180)' fill-opacity = '0.250000' points = '322.1,412.4 322.1,662.4 323.9,662.4 323.9,409.7 '/>
		<polygon fill = 'rgb( 31, 120, 180)' fill-opacity = '0.250000' points = '323.9,409.7 323.9,662.4 325.8,662.4 325.8,407.0 '/>
		<polygon fill = 'rgb( 31, 120, 180)' fill-opacity = '0.250000' points = '325.8,407.0 325.8,662.4 327.7,662.4 327.7,404.4 '/>
		<polygon fill = 'rgb( 31, 120, 180)' fill-opacity = '0.250000' points = '327.7,404.4 327.7,662.4 329.5,662.4 329.5,401.7 '/>
		<polygon fill = 'rgb( 31, 120, 180)' fill-opacity = '0.250000' points = '329.5,401.7 329.5,662.4 331.4,662.4 331.4,399.0 '/>
		<polygon fill = 'rgb( 31, 120, 180)' fill-opacity = '0.250000' points = '331.4,399.0 331.4,662.4 333.2,662.4 333.2,396.3 '/>
		<polygon fill = 'rgb( 31, 120, 180)' fill-opacity = '0.250000' points = '333.2,396.3 333.2,662.4 335.1,662.4 335.1,393.6 '/>
		<polygon fill = 'rgb( 31, 120, 180)' fill-opacity = '0.250000' points = '335.1,393.6 335.1,662.4 336.9,662.4 336.9,390.8 '/>
		<polygon fill = 'rgb( 31, 120, 180)' fill-opacity = '0.250000' points = '336.9,390.8 336.9,662.4 338.8,662.4 338.8,388.0 '/>
		<polygon fill = 'rgb( 31, 120, 180)' fill-opacity = '0.250000' points = '338.8,388.0 338.8,662.4 340.6,662.4 340.6,385.1 '/>
		<polygon fill = 'rgb( 31, 120, 180)' fill-opacity = '0.250000' points = '340.6,385.1 340.6,662.4 342.5,662.4 342.5,382.2 '/>
		<polygon fill = 'rgb( 31, 120, 180)' fill-opacity = '0.250000' points = '342.5,382.2 342.5,662.4 344.3,662.4 344.3,379.2 '/>
		<polygon fill = 'rgb( 31, 120, 180)' fill-opacity = '0.250000' points = '344.3,379.2 344.3,662.4 346.2,662.4 346.2,376.2 '/>
		<polygon fill = 'rgb( 31, 120, 180)' fill-opacity = '0.250000' points = '346.2,376.2 346.2,662.4 348.0,662.4 348.0,373.2 '/>
		<polygon fill = 'rgb( 31, 120, 180)' fill-opacity = '0.250000' points = '348.0,373.2 348.0,662.4 349.9,662.4 349.9,370.1 '/>
		<polygon fill = 'rgb( 31, 120, 180)' fill-opacity = '0.250000' points = '349.9,370.1 349.9,662.4 351.8,662.4 351.8,367.0 '/>
		<polygon fill = 'rgb( 31, 120, 180)' fill-opacity = '0.250000' points = '351.8,367.0 351.8,662.4 353.6,662.4 353.6,363.8 '/>
		<polygon fill = 'rgb( 31, 120, 180)' fill-opacity = '0.250000' points = '353.6,363.8 353.6,662.4 355.5,662.4 355.5,360.6 '/>
		<polygon fill = 'rgb( 31, 120, 180)' fill-opacity = '0.250000' points = '355.5,360.6 355.5,662.4 357.3,662.4 357.3,357.4 '/>
		<polygon fill = 'rgb( 31, 120, 180)' fill-opacity = '0.250000' points = '357.3,357.4 357.3,662.4 359.2,662.4 359.2,354.1 '/>
		<polygon fill = 'rgb( 31, 120, 180)' fill-opacity = '0.250000' points = '359.2,354.1 359.2,662.4 361.0,662.4 361.0,350.8 '/>
		<polygon fill = 'rgb( 31, 120, 180)' fill-opacity = '0.250000' points = '361.0,350.8 361.0,662.4 362.9,662.4 362.9,347.6 '/>
		<polygon fill = 'rgb( 31, 120, 180)' fill-opacity = '0.250000' points = '362.9,347.6 362.9,662.4 364.7,662.4 364.7,344.3 '/>
		<polygon fill = 'rgb( 31, 120, 180)' fill-opacity = '0.250000' points = '364.7,344.3 364.7,662.4 366.6,662.4 366.6,340.9 '/>
		<polygon fill = 'rgb( 31, 120, 180)' fill-opacity = '0.250000' points = '366.6,340.9 366.6,662.4 368.4,662.4 368.4,337.6 '/>
		<polygon fill = 'rgb( 31, 120, 180)' fill-opacity = '0.250000' points = '368.4,337.6 368.4,662.4 370.3,662.4 370.3,334.3 '/>
		<polygon fill = 'rgb( 31, 120, 180)' fill-opacity = '0.250000' points = '370.3,334.3 370.3,662.4 372.1,662.4 372.1,331.0 '/>
		<polygon fill = 'rgb( 31, 120, 180)' fill-opacity = '0.250000' points = '372.1,331.0 372.1,662.4 374.0,662.4 374.0,327.7 '/>
		<polygon fill = 'rgb( 31, 120, 180)' fill-opacity = '0.250000' points = '374.0,327.7 374.0,662.4 375.9,662.4 375.9,324.5 '/>
		<polygon fill = 'rgb( 31, 120, 180)' fill-opacity = '0.250000' points = '375.9,324.5 375.9,662.4 377.7,662.4 377.7,321.2 '/>
		<polygon fill = 'rgb( 31, 120, 180)' fill-opacity = '0.250000' points = '377.7,321.2 377.7,662.4 379.6,662.4 379.6,317.9 '/>
		<polygon fill = 'rgb( 31, 120, 180)' fill-opacity = '0.250000' points = '379.6,317.9 379.6,662.4 381.4,662.4 381.4,314.7 '/>
		<polygon fill = 'rgb( 31, 120, 180)' fill-opacity = '0.250000' points = '381.4,314.7 381.4,662.4 383.3,662.4 383.3,311.5 '/>
		<polygon fill = 'rgb( 31, 120, 180)' fill-opacity = '0.250000' points = '383.3,311.5 383.3,662.4 385.1,662.4 385.1,308.3 '/>
		<polygon fill = 'rgb( 31, 120, 180)' fill-opacity = '0.250000' points = '385.1,308.3 385.1,662.4 387.0,662.4 387.0,305.1 '/>
		<polygon fill = 'rgb( 31, 120, 180)' fill-opacity = '0.250000' points = '387.0,305.1 387.0,662.4 388.8,662.4 388.8,302.0 '/>
		<polygon fill = 'rgb( 31, 120, 180)' fill-opacity = '0.250000' points = '388.8,302.0 388.8,662.4 390.7,662.4 390.7,298.8 '/>
		<polygon fill = 'rgb( 31, 120, 180)' fill-opacity = '0.250000' points = '390.7,298.8 390.7,662.4 392.5,662.4 392.5,295.7 '/>
		<polygon fill = 'rgb( 31, 120, 180)' fill-opacity = '0.250000' points = '392.5,295.7 392.5,662.4 394.4,662.4 394.4,292.6 '/>
		<polygon fill = 'rgb( 31, 120, 180)' fill-opacity = '0.250000' points = '394.4,292.6 394.4,662.4 396.2,662.4 396.2,289.6 '/>
		<polygon fill = 'rgb( 31, 120, 180)' fill-opacity = '0.250000' points = '396.2,289.6 396.2,662.4 398.1,662.4 398.1,286.5 '/>
		<polygon fill = 'rgb( 31, 120, 180)' fill-opacity = '0.250000' points = '398.1,286.5 398.1,662.4 400.0,662.4 400.0,283.5 '/>
		<polygon fill = 'rgb( 31, 120, 180)' fill-opacity = '0.250000' points = '400.0,283.5 400.0,662.4 401.8,662.4 401.8,280.5 '/>
		<polygon fill = 'rgb( 31, 120, 180)' fill-opacity = '0.250000' points = '401.8,280.5 401.8,662.4 403.7,662.4 403.7,277.5 '/>
		<polygon fill = 'rgb( 31, 120, 180)' fill-opacity = '0.250000' points = '403.7,277.5 403.7,662.4 405.5,662.4 405.5,274.6 '/>
		<polygon fill = 'rgb( 31, 120, 180)' fill-opacity = '0.250000' points = '405.5,274.6 405.5,662.4 407.4,662.4 407.4,271.6 '/>
		<polygon fill = 'rgb( 31, 120, 180)' fill-opacity = '0.250000' points = '407.4,271.6 407.4,662.4 409.2,662.4 409.2,268.7 '/>
		<polygon fill = 'rgb( 31, 120, 180)' fill-opacity = '0.250000' points = '409.2,268.7 409.2,662.4 411.1,662.4 411.1,265.8 '/>
		<polygon fill = 'rgb( 31, 120, 180)' fill-opacity = '0.250000' points = '411.1,265.8 411.1,662.4 412.9,662.4 412.9,262.9 '/>
		<polygon fill = 'rgb( 31, 120, 180)' fill-opacity = '0.250000' points = '412.9,262.9 412.9,662.4 414.8,662.4 414.8,260.1 '/>
		<polygon fill = 'rgb( 31, 120, 180)' fill-opacity = '0.250000' points = '414.8,260.1 414.8,662.4 416.6,662.4 416.6,257.2 '/>
		<polygon fill = 'rgb( 31, 120, 180)' fill-opacity = '0.250000' points = '416.6,257.2 416.6,662.4 418.5,662.4 418.5,254.4 '/>
		<polygon fill = 'rgb( 31, 120, 180)' fill-opacity = '0.250000' points = '418.5,254.4 418.5,662.4 420.3,662.4 420.3,251.5 '/>
		<polygon fill = 'rgb( 31, 120, 180)' fill-opacity = '0.250000' points = '420.3,251.5 420.3,662.4 422.2,662.4 422.2,248.7 '/>
		<polygon fill = 'rgb( 31, 120, 180)' fill-opacity = '0.250000' points = '422.2,248.7 422.2,662.4 424.1,662.4 424.1,245.9 '/>
		<polygon fill = 'rgb( 31, 120, 180)' fill-opacity = '0.250000' points = '424.1,245.9 424.1,662.4 425.9,662.4 425.9,243.1 '/>
		<polygon fill = 'rgb( 31, 120, 180)' fill-opacity = '0.250000' points = '425.9,243.1 425.9,662.4 427.8,662.4 427.8,240.3 '/>
		<polygon fill = 'rgb( 31, 120, 180)' fill-opacity = '0.250000' points = '427.8,240.3 427.8,662.4 429.6,662.4 429.6,237.5 '/>
		<polygon fill = 'rgb( 31, 120, 180)' fill-opacity = '0.250000' points = '429.6,237.5 429.6,662.4 431.5,662.4 431.5,234.7 '/>
		<polygon fill = 'rgb( 31, 120, 180)' fill-opacity = '0.250000' points = '431.5,234.7 431.5,662.4 433.3,662.4 433.3,231.9 '/>
		<polygon fill = 'rgb( 31, 120, 180)' fill-opacity = '0.250000' points = '433.3,231.9 433.3,662.4 435.2,662.4 435.2,229.2 '/>
		<polygon fill = 'rgb( 31, 120, 180)' fill-opacity = '0.250000' points = '435.2,229.2 435.2,662.4 437.0,662.4 437.0,226.4 '/>
		<polygon fill = 'rgb( 31, 120, 180)' fill-opacity = '0.250000' points = '437.0,226.4 437.0,662.4 438.9,662.4 438.9,223.6 '/>
		<polygon fill = 'rgb( 31, 120, 180)' fill-opacity = '0.250000' points = '438.9,223.6 438.9,662.4 440.7,662.4 440.7,220.9 '/>
		<polygon fill = 'rgb( 31, 120, 180)' fill-opacity = '0.250000' points = '440.7,220.9 440.7,662.4 442.6,662.4 442.6,218.2 '/>
		<polygon fill = 'rgb( 31, 120, 180)' fill-opacity = '0.250000' points = '442.6,218.2 442.6,662.4 444.5,662.4 444.5,215.5 '/>
		<polygon fill = 'rgb( 31, 120, 180)' fill-opacity = '0.250000' points = '444.5,215.5 444.5,662.4 446.3,662.4 446.3,212.8 '/>
		<polygon fill = 'rgb( 31, 120, 180)' fill-opacity = '0.250000' points = '446.3,212.8 446.3,662.4 448.2,662.4 448.2,210.1 '/>
		<polygon fill = 'rgb( 31, 120, 180)' fill-opacity = '0.250000' points = '448.2,210.1 448.2,662.4 450.0,662.4 450.0,207.4 '/>
		<polygon fill = 'rgb( 31, 120, 180)' fill-opacity = '0.250000' points = '450.0,207.4 450.0,662.4 451.9,662.4 451.9,204.8 '/>
		<polygon fill = 'rgb( 31, 120, 180)' fill-opacity = '0.250000' points = '451.9,204.8 451.9,662.4 453.7,662.4 453.7,202.1 '/>
		<polygon fill = 'rgb( 31, 120, 180)' fill-opacity = '0.250000' points = '453.7,202.1 453.7,662.4 455.6,662.4 455.6,199.5 '/>
		<polygon fill = 'rgb( 31, 120, 180)' fill-opacity = '0.250000' points = '455.6,199.5 455.6,662.4 457.4,662.4 457.4,196.9 '/>
		<polygon fill = 'rgb( 31, 120, 180)' fill-opacity = '0.250000' points = '457.4,196.9 457.4,662.4 459.3,662.4 459.3,194.3 '/>
		<polygon fill = 'rgb( 31, 120, 180)' fill-opacity = '0.250000' points = '459.3,194.3 459.3,662.4 461.1,662.4 461.1,191.8 '/>
		<polygon fill = 'rgb( 31, 120, 180)' fill-opacity = '0.250000' points = '461.1,191.8 461.1,662.4 463.0,662.4 463.0,189.3 '/>
		<polygon fill = 'rgb( 31, 120, 180)' fill-opacity = '0.250000' points = '463.0,189.3 463.0,662.4 464.8,662.4 464.8,186.8 '/>
		<polygon fill = 'rgb( 31, 120, 180)' fill-opacity = '0.250000' points = '464.8,186.8 464.8,662.4 466.7,662.4 466.7,184.3 '/>
		<polygon fill = 'rgb( 31, 120, 180)' fill-opacity = '0.250000' points = '466.7,184.3 466.7,662.4 468.6,662.4 468.6,181.8 '/>
		<polygon fill = 'rgb( 31, 120, 180)' fill-opacity = '0.250000' points = '468.6,181.8 468.6,662.4 470.4,662.4 470.4,179.4 '/>
		<polygon fill = 'rgb( 31, 120, 180)' fill-opacity = '0.250000' points = '470.4,179.4 470.4,662.4 472.3,662.4 472.3,177.0 '/>
		<polygon fill = 'rgb( 31, 120, 180)' fill-opacity = '0.250000' points = '472.3,177.0 472.3,662.4 474.1,662.4 474.1,174.7 '/>
		<polygon fill = 'rgb( 31, 120, 180)' fill-opacity = '0.250000' points = '474.1,174.7 474.1,662.4 476.0,662.4 476.0,172.4 '/>
		<polygon fill = 'rgb( 31, 120, 180)' fill-opacity = '0.250000' points = '476.0,172.4 476.0,662.4 477.8,662.4 477.8,170.1 '/>
		<polygon fill = 'rgb( 31, 120, 180)' fill-opacity = '0.250000' points = '477.8,170.1 477.8,662.4 479.7,662.4 479.7,167.8 '/>
		<polygon fill = 'rgb( 31, 120, 180)' fill-opacity = '0.250000' points = '479.7,167.8 479.7,662.4 481.5,662.4 481.5,165.6 '/>
		<polygon fill = 'rgb( 31, 120, 180)' fill-opacity = '0.250000' points = '481.5,165.6 481.5,662.4 483.4,662.4 483.4,163.4 '/>
		<polygon fill = 'rgb( 31, 120, 180)' fill-opacity = '0.250000' points = '483.4,163.4 483.4,662.4 485.2,662.4 485.2,161.2 '/>
		<polygon fill = 'rgb( 31, 120, 180)' fill-opacity = '0.250000' points = '485.2,161.2 485.2,662.4 487.1,662.4 487.1,159.0 '/>
		<polygon fill = 'rgb( 31, 120, 180)' fill-opacity = '0.250000' points = '487.1,159.0 487.1,662.4 488.9,662.4 488.9,156.8 '/>
		<polygon fill = 'rgb( 31, 120, 180)' fill-opacity = '0.250000' points = '488.9,156.8 488.9,662.4 490.8,662.4 490.8,154.7 '/>
		<polygon fill = 'rgb( 31, 120, 180)' fill-opacity = '0.250000' points = '490.8,154.7 490.8,662.4 492.7,662.4 492.7,152.5 '/>
		<polygon fill = 'rgb( 31, 120, 180)' fill-opacity = '0.250000' points = '492.7,152.5 492.7,662.4 494.5,662.4 494.5,150.4 '/>
		<polygon fill = 'rgb( 31, 120, 180)' fill-opacity = '0.250000' points = '494.5,150.4 494.5,662.4 496.4,662.4 496.4,148.2 '/>
		<polygon fill = 'rgb( 31, 120, 180)' fill-opacity = '0.250000' points = '496.4,148.2 496.4,662.4 498.2,662.4 498.2,146.1 '/>
		<polygon fill = 'rgb( 31, 120, 180)' fill-opacity = '0.250000' points = '498.2,146.1 498.2,662.4 500.1,662.4 500.1,143.9 '/>
		<polygon fill = 'rgb( 31, 120, 180)' fill-opacity = '0.250000' points = '500.1,143.9 500.1,662.4 501.9,662.4 501.9,141.8 '/>
		<polygon fill = 'rgb( 31, 120, 180)' fill-opacity = '0.250000' points = '501.9,141.8 501.9,662.4 503.8,662.4 503.8,139.6 '/>
		<polygon fill = 'rgb( 31, 120, 180)' fill-opacity = '0.250000' points = '503.8,139.6 503.8,662.4 505.6,662.4 505.6,137.5 '/>
		<polygon fill = 'rgb( 31, 120, 180)' fill-opacity = '0.250000' points = '505.6,137.5 505.6,662.4 507.5,662.4 507.5,135.3 '/>
		<polygon fill = 'rgb( 31, 120, 180)' fill-opacity = '0.250000' points = '507.5,135.3 507.5,662.4 509.3,662.4 509.3,133.2 '/>
		<polygon fill = 'rgb( 31, 120, 180)' fill-opacity = '0.250000' points = '509.3,133.2 509.3,662.4 511.2,662.4 511.2,131.1 '/>
		<polygon fill = 'rgb( 31, 120, 180)' fill-opacity = '0.250000' points = '511.2,131.1 511.2,662.4 513.0,662.4 513.0,129.0 '/>
		<polygon fill = 'rgb( 31, 120, 180)' fill-opacity = '0.250000' points = '513.0,129.0 513.0,662.4 514.9,662.4 514.9,126.9 '/>
		<polygon fill = 'rgb( 31, 120, 180)' fill-opacity = '0.250000' points = '514.9,126.9 514.9,662.4 516.8,662.4 516.8,124.9 '/>
		<polygon fill = 'rgb( 31, 120, 180)' fill-opacity = '0.250000' points = '516.8,124.9 516.8,662.4 518.6,662.4 518.6,122.9 '/>
		<polygon fill = 'rgb( 31, 120, 180)' fill-opacity = '0.250000' points = '518.6,122.9 518.6,662.4 520.5,662.4 520.5,121.0 '/>
		<polygon fill = 'rgb( 31, 120, 180)' fill-opacity = '0.250000' points = '520.5,121.0 520.5,662.4 522.3,662.4 522.3,119.1 '/>
		<polygon fill = 'rgb( 31, 120, 180)' fill-opacity = '0.250000' points = '522.3,119.1 522.3,662.4 524.2,662.4 524.2,117.3 '/>
		<polygon fill = 'rgb( 31, 120, 180)' fill-opacity = '0.250000' points = '524.2,117.3 524.2,662.4 526.0,662.4 526.0,115.6 '/>
		<polygon fill = 'rgb( 31, 120, 180)' fill-opacity = '0.250000' points = '526.0,115.6 526.0,662.4 527.9,662.4 527.9,114.0 '/>
		<polygon fill = 'rgb( 31, 120, 180)' fill-opacity = '0.250000' points = '527.9,114.0 527.9,662.4 529.7,662.4 529.7,112.4 '/>
		<polygon fill = 'rgb( 31, 120, 180)' fill-opacity = '0.250000' points = '529.7,112.4 529.7,662.4 531.6,662.4 531.6,111.0 '/>
		<polygon fill = 'rgb( 31, 120, 180)' fill-opacity = '0.250000' points = '531.6,111.0 531.6,662.4 533.4,662.4 533.4,109.6 '/>
		<polygon fill = 'rgb( 31, 120, 180)' fill-opacity = '0.250000' points = '533.4,109.6 533.4,662.4 535.3,662.4 535.3,108.4 '/>
		<polygon fill = 'rgb( 31, 120, 180)' fill-opacity = '0.250000' points = '535.3,108.4 535.3,662.4 537.1,662.4 537.1,107.2 '/>
		<polygon fill = 'rgb( 31, 120, 180)' fill-opacity = '0.250000' points = '537.1,107.2 537.1,662.4 539.0,662.4 539.0,106.1 '/>
		<polygon fill = 'rgb( 31, 120, 180)' fill-opacity = '0.250000' points = '539.0,106.1 539.0,662.4 540.9,662.4 540.9,105.1 '/>
		<polygon fill = 'rgb( 31, 120, 180)' fill-opacity = '0.250000' points = '540.9,105.1 540.9,662.4 542.7,662.4 542.7,104.3 '/>
		<polygon fill = 'rgb( 31, 120, 180)' fill-opacity = '0.250000' points = '542.7,104.3 542.7,662.4 544.6,662.4 544.6,103.5 '/>
		<polygon fill = 'rgb( 31, 120, 180)' fill-opacity = '0.250000' points = '544.6,103.5 544.6,662.4 546.4,662.4 546.4,102.8 '/>
		<polygon fill = 'rgb( 31, 120, 180)' fill-opacity = '0.250000' points = '546.4,102.8 546.4,662.4 548.3,662.4 548.3,102.2 '/>
		<polygon fill = 'rgb( 31, 120, 180)' fill-opacity = '0.250000' points = '548.3,102.2 548.3,662.4 550.1,662.4 550.1,101.7 '/>
		<polygon fill = 'rgb( 31, 120, 180)' fill-opacity = '0.250000' points = '550.1,101.7 550.1,662.4 552.0,662.4 552.0,101.2 '/>
		<polygon fill = 'rgb( 31, 120, 180)' fill-opacity = '0.250000' points = '552.0,101.2 552.0,662.4 553.8,662.4 553.8,100.9 '/>
		<polygon fill = 'rgb( 31, 120, 180)' fill-opacity = '0.250000' points = '553.8,100.9 553.8,662.4 555.7,662.4 555.7,100.6 '/>
		<polygon fill = 'rgb( 31, 120, 180)' fill-opacity = '0.250000' points = '555.7,100.6 555.7,662.4 557.5,662.4 557.5,100.3 '/>
		<polygon fill = 'rgb( 31, 120, 180)' fill-opacity = '0.250000' points = '557.5,100.3 557.5,662.4 559.4,662.4 559.4,100.2 '/>
		<polygon fill = 'rgb( 31, 120, 180)' fill-opacity = '0.250000' points = '559.4,100.2 559.4,662.4 561.2,662.4 561.2,100.1 '/>
		<polygon fill = 'rgb( 31, 120, 180)' fill-opacity = '0.250000' points = '561.2,100.1 561.2,662.4 563.1,662.4 563.1,100.0 '/>
		<polygon fill = 'rgb( 31, 120, 180)' fill-opacity = '0.250000' points = '563.1,100.0 563.1,662.4 565.0,662.4 565.0,100.0 '/>
		<polygon fill = 'rgb( 31, 120, 180)' fill-opacity = '0.250000' points = '565.0,100.0 565.0,662.4 566.8,662.4 566.8,100.1 '/>
		<polygon fill = 'rgb( 31, 120, 180)' fill-opacity = '0.250000' points = '566.8,100.1 566.8,662.4 568.7,662.4 568.7,100.2 '/>
		<polygon fill = 'rgb( 31, 120, 180)' fill-opacity = '0.250000' points = '568.7,100.2 568.7,662.4 570.5,662.4 570.5,100.4 '/>
		<polygon fill = 'rgb( 31, 120, 180)' fill-opacity = '0.250000' points = '570.5,100.4 570.5,662.4 572.4,662.4 572.4,100.7 '/>
		<polygon fill = 'rgb( 31, 120, 180)' fill-opacity = '0.250000' points = '572.4,100.7 572.4,662.4 574.2,662.4 574.2,100.9 '/>
		<polygon fill = 'rgb( 31, 120, 180)' fill-opacity = '0.250000' points = '574.2,100.9 574.2,662.4 576.1,662.4 576.1,101.3 '/>
		<polygon fill = 'rgb( 31, 120, 180)' fill-opacity = '0.250000' points = '576.1,101.3 576.1,662.4 577.9,662.4 577.9,101.7 '/>
		<polygon fill = 'rgb( 31, 120, 180)' fill-opacity = '0.250000' points = '577.9,101.7 577.9,662.4 579.8,662.4 579.8,102.1 '/>
		<polygon fill = 'rgb( 31, 120, 180)' fill-opacity = '0.250000' points = '579.8,102.1 579.8,662.4 581.6,662.4 581.6,102.6 '/>
		<polygon fill = 'rgb( 31, 120, 180)' fill-opacity = '0.250000' points = '581.6,102.6 581.6,662.4 583.5,662.4 583.5,103.1 '/>
		<polygon fill = 'rgb( 31, 120, 180)' fill-opacity = '0.250000' points = '583.5,103.1 583.5,662.4 585.3,662.4 585.3,103.7 '/>
		<polygon fill = 'rgb( 31, 120, 180)' fill-opacity = '0.250000' points = '585.3,103.7 585.3,662.4 587.2,662.4 587.2,104.3 '/>
		<polygon fill = 'rgb( 31, 120, 180)' fill-opacity = '0.250000' points = '587.2,104.3 587.2,662.4 589.1,662.4 589.1,105.0 '/>
		<polygon fill = 'rgb( 31, 120, 180)' fill-opacity = '0.250000' points = '589.1,105.0 589.1,662.4 590.9,662.4 590.9,105.7 '/>
		<polygon fill = 'rgb( 31, 120, 180)' fill-opacity = '0.250000' points = '590.9,105.7 590.9,662.4 592.8,662.4 592.8,106.4 '/>
		<polygon fill = 'rgb( 31, 120, 180)' fill-opacity = '0.250000' points = '592.8,106.4 592.8,662.4 594.6,662.4 594.6,107.2 '/>
		<polygon fill = 'rgb( 31, 120, 180)' fill-opacity = '0.250000' points = '594.6,107.2 594.6,662.4 596.5,662.4 596.5,108.0 '/>
		<polygon fill = 'rgb( 31, 120, 180)' fill-opacity = '0.250000' points = '596.5,108.0 596.5,662.4 598.3,662.4 598.3,108.8 '/>
		<polygon fill = 'rgb( 31, 120, 180)' fill-opacity = '0.250000' points = '598.3,108.8 598.3,662.4 600.2,662.4 600.2,109.6 '/>
		<polygon fill = 'rgb( 31, 120, 180)' fill-opacity = '0.250000' points = '600.2,109.6 600.2,662.4 602.0,662.4 602.0,110.4 '/>
		<polygon fill = 'rgb( 31, 120, 180)' fill-opacity = '0.250000' points = '602.0,110.4 602.0,662.4 603.9,662.4 603.9,111.3 '/>
		<polygon fill = 'rgb( 31, 120, 180)' fill-opacity = '0.250000' points = '603.9,111.3 603.9,662.4 605.7,662.4 605.7,112.2 '/>
		<polygon fill = 'rgb( 31, 120, 180)' fill-opacity = '0.250000' points = '605.7,112.2 605.7,662.4 607.6,662.4 607.6,113.1 '/>
		<polygon fill = 'rgb( 31, 120, 180)' fill-opacity = '0.250000' points = '607.6,113.1 607.6,662.4 609.4,662.4 609.4,114.0 '/>
		<polygon fill = 'rgb( 31, 120, 180)' fill-opacity = '0.250000' points = '609.4,114.0 609.4,662.4 611.3,662.4 611.3,114.9 '/>
		<polygon fill = 'rgb( 31, 120, 180)' fill-opacity = '0.250000' points = '611.3,114.9 611.3,662.4 613.2,662.4 613.2,115.9 '/>
		<polygon fill = 'rgb( 31, 120, 180)' fill-opacity = '0.250000' points = '613.2,115.9 613.2,662.4 615.0,662.4 615.0,116.8 '/>
		<polygon fill = 'rgb( 31, 120, 180)' fill-opacity = '0.250000' points = '615.0,116.8 615.0,662.4 616.9,662.4 616.9,117.8 '/>
		<polygon fill = 'rgb( 31, 120, 180)' fill-opacity = '0.250000' points = '616.9,117.8 616.9,662.4 618.7,662.4 618.7,118.9 '/>
		<polygon fill = 'rgb( 31, 120, 180)' fill-opacity = '0.250000' points = '618.7,118.9 618.7,662.4 620.6,662.4 620.6,119.9 '/>
		<polygon fill = 'rgb( 31, 120, 180)' fill-opacity = '0.250000' points = '620.6,119.9 620.6,662.4 622.4,662.4 622.4,121.0 '/>
		<polygon fill = 'rgb( 31, 120, 180)' fill-opacity = '0.250000' points = '622.4,121.0 622.4,662.4 624.3,662.4 624.3,122.0 '/>
		<polygon fill = 'rgb( 31, 120, 180)' fill-opacity = '0.250000' points = '624.3,122.0 624.3,662.4 626.1,662.4 626.1,123.2 '/>
		<polygon fill = 'rgb( 31, 120, 180)' fill-opacity = '0.250000' points = '626.1,123.2 626.1,662.4 628.0,662.4 628.0,124.3 '/>
		<polygon fill = 'rgb( 31, 120, 180)' fill-opacity = '0.250000' points = '628.0,124.3 628.0,662.4 629.8,662.4 629.8,125.5 '/>
		<polygon fill = 'rgb( 31, 120, 180)' fill-opacity = '0.250000' points = '629.8,125.5 629.8,662.4 631.7,662.4 631.7,126.7 '/>
		<polygon fill = 'rgb( 31, 120, 180)' fill-opacity = '0.250000' points = '631.7,126.7 631.7,662.4 633.5,662.4 633.5,128.0 '/>
		<polygon fill = 'rgb( 31, 120, 180)' fill-opacity = '0.250000' points = '633.5,128.0 633.5,662.4 635.4,662.4 635.4,129.3 '/>
		<polygon fill = 'rgb( 31, 120, 180)' fill-opacity = '0.250000' points = '635.4,129.3 635.4,662.4 637.3,662.4 637.3,130.6 '/>
		<polygon fill = 'rgb( 31, 120, 180)' fill-opacity = '0.250000' points = '637.3,130.6 637.3,662.4 639.1,662.4 639.1,132.0 '/>
		<polygon fill = 'rgb( 31, 120, 180)' fill-opacity = '0.250000' points = '639.1,132.0 639.1,662.4 641.0,662.4 641.0,133.5 '/>
		<polygon fill = 'rgb( 31, 120, 180)' fill-opacity = '0.250000' points = '641.0,133.5 641.0,662.4 642.8,662.4 642.8,135.0 '/>
		<polygon fill = 'rgb( 31, 120, 180)' fill-opacity = '0.250000' points = '642.8,135.0 642.8,662.4 644.7,662.4 644.7,136.6 '/>
		<polygon fill = 'rgb( 31, 120, 180)' fill-opacity = '0.250000' points = '644.7,136.6 644.7,662.4 646.5,662.4 646.5,138.3 '/>
		<polygon fill = 'rgb( 31, 120, 180)' fill-opacity = '0.250000' points = '646.5,138.3 646.5,662.4 648.4,662.4 648.4,140.0 '/>
		<polygon fill = 'rgb( 31, 120, 180)' fill-opacity = '0.250000' points = '648.4,140.0 648.4,662.4 650.2,662.4 650.2,141.8 '/>
		<polygon fill = 'rgb( 31, 120, 180)' fill-opacity = '0.250000' points = '650.2,141.8 650.2,662.4 652.1,662.4 652.1,143.6 '/>
		<polygon fill = 'rgb( 31, 120, 180)' fill-opacity = '0.250000' points = '652.1,143.6 652.1,662.4 653.9,662.4 653.9,145.6 '/>
		<polygon fill = 'rgb( 31, 120, 180)' fill-opacity = '0.250000' points = '653.9,145.6 653.9,662.4 655.8,662.4 655.8,147.6 '/>
		<polygon fill = 'rgb( 31, 120, 180)' fill-opacity = '0.250000' points = '655.8,147.6 655.8,662.4 657.6,662.4 657.6,149.7 '/>
		<polygon fill = 'rgb( 31, 120, 180)' fill-opacity = '0.250000' points = '657.6,149.7 657.6,662.4 659.5,662.4 659.5,151.9 '/>
		<polygon fill = 'rgb( 31, 120, 180)' fill-opacity = '0.250000' points = '659.5,151.9 659.5,662.4 661.4,662.4 661.4,154.2 '/>
		<polygon fill = 'rgb( 31, 120, 180)' fill-opacity = '0.250000' points = '661.4,154.2 661.4,662.4 663.2,662.4 663.2,156.5 '/>
		<polygon fill = 'rgb( 31, 120, 180)' fill-opacity = '0.250000' points = '663.2,156.5 663.2,662.4 665.1,662.4 665.1,158.9 '/>
		<polygon fill = 'rgb( 31, 120, 180)' fill-opacity = '0.250000' points = '665.1,158.9 665.1,662.4 666.9,662.4 666.9,161.4 '/>
		<polygon fill = 'rgb( 31, 120, 180)' fill-opacity = '0.250000' points = '666.9,161.4 666.9,662.4 668.8,662.4 668.8,164.0 '/>
		<polygon fill = 'rgb( 31, 120, 180)' fill-opacity = '0.250000' points = '668.8,164.0 668.8,662.4 670.6,662.4 670.6,166.6 '/>
		<polygon fill = 'rgb( 31, 120, 180)' fill-opacity = '0.250000' points = '670.6,166.6 670.6,662.4 672.5,662.4 672.5,169.2 '/>
		<polygon fill = 'rgb( 31, 120, 180)' fill-opacity = '0.250000' points = '672.5,169.2 672.5,662.4 674.3,662.4 674.3,171.9 '/>
		<polygon fill = 'rgb( 31, 120, 180)' fill-opacity = '0.250000' points = '674.3,171.9 674.3,662.4 676.2,662.4 676.2,174.7 '/>
		<polygon fill = 'rgb( 31, 120, 180)' fill-opacity = '0.250000' points = '676.2,174.7 676.2,662.4 678.0,662.4 678.0,177.5 '/>
		<polygon fill = 'rgb( 31, 120, 180)' fill-opacity = '0.250000' points = '678.0,177.5 678.0,662.4 679.9,662.4 679.9,180.3 '/>
		<polygon fill = 'rgb( 31, 120, 180)' fill-opacity = '0.250000' points = '679.9,180.3 679.9,662.4 681.8,662.4 681.8,183.1 '/>
		<polygon fill = 'rgb( 31, 120, 180)' fill-opacity = '0.250000' points = '681.8,183.1 681.8,662.4 683.6,662.4 683.6,186.0 '/>
		<polygon fill = 'rgb( 31, 120, 180)' fill-opacity = '0.250000' points = '683.6,186.0 683.6,662.4 685.5,662.4 685.5,188.8 '/>
		<polygon fill = 'rgb( 31, 120, 180)' fill-opacity = '0.250000' points = '685.5,188.8 685.5,662.4 687.3,662.4 687.3,191.7 '/>
		<polygon fill = 'rgb( 31, 120, 180)' fill-opacity = '0.250000' points = '687.3,191.7 687.3,662.4 689.2,662.4 689.2,194.7 '/>
		<polygon fill = 'rgb( 31, 120, 180)' fill-opacity = '0.250000' points = '689.2,194.7 689.2,662.4 691.0,662.4 691.0,197.6 '/>
		<polygon fill = 'rgb( 31, 120, 180)' fill-opacity = '0.250000' points = '691.0,197.6 691.0,662.4 692.9,662.4 692.9,200.6 '/>
		<polygon fill = 'rgb( 31, 120, 180)' fill-opacity = '0.250000' points = '692.9,200.6 692.9,662.4 694.7,662.4 694.7,203.6 '/>
		<polygon fill = 'rgb( 31, 120, 180)' fill-opacity = '0.250000' points = '694.7,203.6 694.7,662.4 696.6,662.4 696.6,206.6 '/>
		<polygon fill = 'rgb( 31, 120, 180)' fill-opacity = '0.250000' points = '696.6,206.6 696.6,662.4 698.4,662.4 698.4,209.6 '/>
		<polygon fill = 'rgb( 31, 120, 180)' fill-opacity = '0.250000' points = '698.4,209.6 698.4,662.4 700.3,662.4 700.3,212.7 '/>
		<polygon fill = 'rgb( 31, 120, 180)' fill-opacity = '0.250000' points = '700.3,212.7 700.3,662.4 702.1,662.4 702.1,215.8 '/>
		<polygon fill = 'rgb( 31, 120, 180)' fill-opacity = '0.250000' points = '702.1,215.8 702.1,662.4 704.0,662.4 704.0,218.9 '/>
		<polygon fill = 'rgb( 31, 120, 180)' fill-opacity = '0.250000' points = '704.0,218.9 704.0,662.4 705.9,662.4 705.9,222.1 '/>
		<polygon fill = 'rgb( 31, 120, 180)' fill-opacity = '0.250000' points = '705.9,222.1 705.9,662.4 707.7,662.4 707.7,225.3 '/>
		<polygon fill = 'rgb( 31, 120, 180)' fill-opacity = '0.250000' points = '707.7,225.3 707.7,662.4 709.6,662.4 709.6,228.5 '/>
		<polygon fill = 'rgb( 31, 120, 180)' fill-opacity = '0.250000' points = '709.6,228.5 709.6,662.4 711.4,662.4 711.4,231.8 '/>
		<polygon fill = 'rgb( 31, 120, 180)' fill-opacity = '0.250000' points = '711.4,231.8 711.4,662.4 713.3,662.4 713.3,235.2 '/>
		<polygon fill = 'rgb( 31, 120, 180)' fill-opacity = '0.250000' points = '713.3,235.2 713.3,662.4 715.1,662.4 715.1,238.5 '/>
		<polygon fill = 'rgb( 31, 120, 180)' fill-opacity = '0.250000' points = '715.1,238.5 715.1,662.4 717.0,662.4 717.0,241.9 '/>
		<polygon fill = 'rgb( 31, 120, 180)' fill-opacity = '0.250000' points = '717.0,241.9 717.0,662.4 718.8,662.4 718.8,245.4 '/>
		<polygon fill = 'rgb( 31, 120, 180)' fill-opacity = '0.250000' points = '718.8,245.4 718.8,662.4 720.7,662.4 720.7,248.8 '/>
		<polygon fill = 'rgb( 31, 120, 180)' fill-opacity = '0.250000' points = '720.7,248.8 720.7,662.4 722.5,662.4 722.5,252.3 '/>
		<polygon fill = 'rgb( 31, 120, 180)' fill-opacity = '0.250000' points = '722.5,252.3 722.5,662.4 724.4,662.4 724.4,255.8 '/>
		<polygon fill = 'rgb( 31, 120, 180)' fill-opacity = '0.250000' points = '724.4,255.8 724.4,662.4 726.2,662.4 726.2,259.3 '/>
		<polygon fill = 'rgb( 31, 120, 180)' fill-opacity = '0.250000' points = '726.2,259.3 726.2,662.4 728.1,662.4 728.1,262.9 '/>
		<polygon fill = 'rgb( 31, 120, 180)' fill-opacity = '0.250000' points = '728.1,262.9 728.1,662.4 730.0,662.4 730.0,266.4 '/>
		<polygon fill = 'rgb( 31, 120, 180)' fill-opacity = '0.250000' points = '730.0,266.4 730.0,662.4 731.8,662.4 731.8,269.9 '/>
		<polygon fill = 'rgb( 31, 120, 180)' fill-opacity = '0.250000' points = '731.8,269.9 731.8,662.4 733.7,662.4 733.7,273.4 '/>
		<polygon fill = 'rgb( 31, 120, 180)' fill-opacity = '0.250000' points = '733.7,273.4 733.7,662.4 735.5,662.4 735.5,277.0 '/>
		<polygon fill = 'rgb( 31, 120, 180)' fill-opacity = '0.250000' points = '735.5,277.0 735.5,662.4 737.4,662.4 737.4,280.4 '/>
		<polygon fill = 'rgb( 31, 120, 180)' fill-opacity = '0.250000' points = '737.4,280.4 737.4,662.4 739.2,662.4 739.2,283.9 '/>
		<polygon fill = 'rgb( 31, 120, 180)' fill-opacity = '0.250000' points = '739.2,283.9 739.2,662.4 741.1,662.4 741.1,287.4 '/>
		<polygon fill = 'rgb( 31, 120, 180)' fill-opacity = '0.250000' points = '741.1,287.4 741.1,662.4 742.9,662.4 742.9,290.8 '/>
		<polygon fill = 'rgb( 31, 120, 180)' fill-opacity = '0.250000' points = '742.9,290.8 742.9,662.4 744.8,662.4 744.8,294.2 '/>
		<polygon fill = 'rgb( 31, 120, 180)' fill-opacity = '0.250000' points = '744.8,294.2 744.8,662.4 746.6,662.4 746.6,297.5 '/>
		<polygon fill = 'rgb( 31, 120, 180)' fill-opacity = '0.250000' points = '746.6,297.5 746.6,662.4 748.5,662.4 748.5,300.8 '/>
		<polygon fill = 'rgb( 31, 120, 180)' fill-opacity = '0.250000' points = '748.5,300.8 748.5,662.4 750.3,662.4 750.3,304.1 '/>
		<polygon fill = 'rgb( 31, 120, 180)' fill-opacity = '0.250000' points = '750.3,304.1 750.3,662.4 752.2,662.4 752.2,307.3 '/>
		<polygon fill = 'rgb( 31, 120, 180)' fill-opacity = '0.250000' points = '752.2,307.3 752.2,662.4 754.1,662.4 754.1,310.5 '/>
		<polygon fill = 'rgb( 31, 120, 180)' fill-opacity = '0.250000' points = '754.1,310.5 754.1,662.4 755.9,662.4 755.9,313.7 '/>
		<polygon fill = 'rgb( 31, 120, 180)' fill-opacity = '0.250000' points = '755.9,313.7 755.9,662.4 757.8,662.4 757.8,316.8 '/>
		<polygon fill = 'rgb( 31, 120, 180)' fill-opacity = '0.250000' points = '757.8,316.8 757.8,662.4 759.6,662.4 759.6,319.9 '/>
		<polygon fill = 'rgb( 31, 120, 180)' fill-opacity = '0.250000' points = '759.6,319.9 759.6,662.4 761.5,662.4 761.5,323.0 '/>
		<polygon fill = 'rgb( 31, 120, 180)' fill-opacity = '0.250000' points = '761.5,323.0 761.5,662.4 763.3,662.4 763.3,326.1 '/>
		<polygon fill = 'rgb( 31, 120, 180)' fill-opacity = '0.250000' points = '763.3,326.1 763.3,662.4 765.2,662.4 765.2,329.1 '/>
		<polygon fill = 'rgb( 31, 120, 180)' fill-opacity = '0.250000' points = '765.2,329.1 765.2,662.4 767.0,662.4 767.0,332.1 '/>
		<polygon fill = 'rgb( 31, 120, 180)' fill-opacity = '0.250000' points = '767.0,332.1 767.0,662.4 768.9,662.4 768.9,335.1 '/>
		<polygon fill = 'rgb( 31, 120, 180)' fill-opacity = '0.250000' points = '768.9,335.1 768.9,662.4 770.7,662.4 770.7,338.1 '/>
		<polygon fill = 'rgb( 31, 120, 180)' fill-opacity = '0.250000' points = '770.7,338.1 770.7,662.4 772.6,662.4 772.6,341.0 '/>
		<polygon fill = 'rgb( 31, 120, 180)' fill-opacity = '0.250000' points = '772.6,341.0 772.6,662.4 774.4,662.4 774.4,344.0 '/>
		<polygon fill = 'rgb( 31, 120, 180)' fill-opacity = '0.250000' points = '774.4,344.0 774.4,662.4 776.3,662.4 776.3,347.0 '/>
		<polygon fill = 'rgb( 31, 120, 180)' fill-opacity = '0.250000' points = '776.3,347.0 776.3,662.4 778.2,662.4 778.2,350.0 '/>
		<polygon fill = 'rgb( 31, 120, 180)' fill-opacity = '0.250000' points = '778.2,350.0 778.2,662.4 780.0,662.4 780.0,353.0 '/>
		<polygon fill = 'rgb( 31, 120, 180)' fill-opacity = '0.250000' points = '780.0,353.0 780.0,662.4 781.9,662.4 781.9,356.1 '/>
		<polygon fill = 'rgb( 31, 120, 180)' fill-opacity = '0.250000' points = '781.9,356.1 781.9,662.4 783.7,662.4 783.7,359.1 '/>
		<polygon fill = 'rgb( 31, 120, 180)' fill-opacity = '0.250000' points = '783.7,359.1 783.7,662.4 785.6,662.4 785.6,362.2 '/>
		<polygon fill = 'rgb( 31, 120, 180)' fill-opacity = '0.250000' points = '785.6,362.2 785.6,662.4 787.4,662.4 787.4,365.3 '/>
		<polygon fill = 'rgb( 31, 120, 180)' fill-opacity = '0.250000' points = '787.4,365.3 787.4,662.4 789.3,662.4 789.3,368.5 '/>
		<polygon fill = 'rgb( 31, 120, 180)' fill-opacity = '0.250000' points = '789.3,368.5 789.3,662.4 791.1,662.4 791.1,371.6 '/>
		<polygon fill = 'rgb( 31, 120, 180)' fill-opacity = '0.250000' points = '791.1,371.6 791.1,662.4 793.0,662.4 793.0,374.8 '/>
		<polygon fill = 'rgb( 31, 120, 180)' fill-opacity = '0.250000' points = '793.0,374.8 793.0,662.4 794.8,662.4 794.8,378.0 '/>
		<polygon fill = 'rgb( 31, 120, 180)' fill-opacity = '0.250000' points = '794.8,378.0 794.8,662.4 796.7,662.4 796.7,381.3 '/>
		<polygon fill = 'rgb( 31, 120, 180)' fill-opacity = '0.250000' points = '796.7,381.3 796.7,662.4 798.5,662.4 798.5,384.5 '/>
		<polygon fill = 'rgb( 31, 120, 180)' fill-opacity = '0.250000' points = '798.5,384.5 798.5,662.4 800.4,662.4 800.4,387.8 '/>
		<polygon fill = 'rgb( 31, 120, 180)' fill-opacity = '0.250000' points = '800.4,387.8 800.4,662.4 802.3,662.4 802.3,391.1 '/>
		<polygon fill = 'rgb( 31, 120, 180)' fill-opacity = '0.250000' points = '802.3,391.1 802.3,662.4 804.1,662.4 804.1,394.4 '/>
		<polygon fill = 'rgb( 31, 120, 180)' fill-opacity = '0.250000' points = '804.1,394.4 804.1,662.4 806.0,662.4 806.0,397.7 '/>
		<polygon fill = 'rgb( 31, 120, 180)' fill-opacity = '0.250000' points = '806.0,397.7 806.0,662.4 807.8,662.4 807.8,401.0 '/>
		<polygon fill = 'rgb( 31, 120, 180)' fill-opacity = '0.250000' points = '807.8,401.0 807.8,662.4 809.7,662.4 809.7,404.3 '/>
		<polygon fill = 'rgb( 31, 120, 180)' fill-opacity = '0.250000' points = '809.7,404.3 809.7,662.4 811.5,662.4 811.5,407.6 '/>
		<polygon fill = 'rgb( 31, 120, 180)' fill-opacity = '0.250000' points = '811.5,407.6 811.5,662.4 813.4,662.4 813.4,410.9 '/>
		<polygon fill = 'rgb( 31, 120, 180)' fill-opacity = '0.250000' points = '813.4,410.9 813.4,662.4 815.2,662.4 815.2,414.2 '/>
		<polygon fill = 'rgb( 31, 120, 180)' fill-opacity = '0.250000' points = '815.2,414.2 815.2,662.4 817.1,662.4 817.1,417.5 '/>
		<polygon fill = 'rgb( 31, 120, 180)' fill-opacity = '0.250000' points = '817.1,417.5 817.1,662.4 818.9,662.4 818.9,420.8 '/>
		<polygon fill = 'rgb( 31, 120, 180)' fill-opacity = '0.250000' points = '818.9,420.8 818.9,662.4 820.8,662.4 820.8,424.0 '/>
		<polygon fill = 'rgb( 31, 120, 180)' fill-opacity = '0.250000' points = '820.8,424.0 820.8,662.4 822.6,662.4 822.6,427.2 '/>
		<polygon fill = 'rgb( 31, 120, 180)' fill-opacity = '0.250000' points = '822.6,427.2 822.6,662.4 824.5,662.4 824.5,430.4 '/>
		<polygon fill = 'rgb( 31, 120, 180)' fill-opacity = '0.250000' points = '824.5,430.4 824.5,662.4 826.4,662.4 826.4,433.6 '/>
		<polygon fill = 'rgb( 31, 120, 180)' fill-opacity = '0.250000' points = '826.4,433.6 826.4,662.4 828.2,662.4 828.2,436.8 '/>
		<polygon fill = 'rgb( 31, 120, 180)' fill-opacity = '0.250000' points = '828.2,436.8 828.2,662.4 830.1,662.4 830.1,439.9 '/>
		<polygon fill = 'rgb( 31, 120, 180)' fill-opacity = '0.250000' points = '830.1,439.9 830.1,662.4 831.9,662.4 831.9,443.1 '/>
		<polygon fill = 'rgb( 31, 120, 180)' fill-opacity = '0.250000' points = '831.9,443.1 831.9,662.4 833.8,662.4 833.8,446.2 '/>
		<polygon fill = 'rgb( 31, 120, 180)' fill-opacity = '0.250000' points = '833.8,446.2 833.8,662.4 835.6,662.4 835.6,449.3 '/>
		<polygon fill = 'rgb( 31, 120, 180)' fill-opacity = '0.250000' points = '835.6,449.3 835.6,662.4 837.5,662.4 837.5,452.3 '/>
		<polygon fill = 'rgb( 31, 120, 180)' fill-opacity = '0.250000' points = '837.5,452.3 837.5,662.4 839.3,662.4 839.3,455.3 '/>
		<polygon fill = 'rgb( 31, 120, 180)' fill-opacity = '0.250000' points = '839.3,455.3 839.3,662.4 841.2,662.4 841.2,458.4 '/>
		<polygon fill = 'rgb( 31, 120, 180)' fill-opacity = '0.250000' points = '841.2,458.4 841.2,662.4 843.0,662.4 843.0,461.3 '/>
		<polygon fill = 'rgb( 31, 120, 180)' fill-opacity = '0.250000' points = '843.0,461.3 843.0,662.4 844.9,662.4 844.9,464.3 '/>
		<polygon fill = 'rgb( 31, 120, 180)' fill-opacity = '0.250000' points = '844.9,464.3 844.9,662.4 846.7,662.4 846.7,467.2 '/>
		<polygon fill = 'rgb( 31, 120, 180)' fill-opacity = '0.250000' points = '846.7,467.2 846.7,662.4 848.6,662.4 848.6,470.1 '/>
		<polygon fill = 'rgb( 31, 120, 180)' fill-opacity = '0.250000' points = '848.6,470.1 848.6,662.4 850.5,662.4 850.5,473.0 '/>
		<polygon fill = 'rgb( 31, 120, 180)' fill-opacity = '0.250000' points = '850.5,473.0 850.5,662.4 852.3,662.4 852.3,475.8 '/>
		<polygon fill = 'rgb( 31, 120, 180)' fill-opacity = '0.250000' points = '852.3,475.8 852.3,662.4 854.2,662.4 854.2,478.6 '/>
		<polygon fill = 'rgb( 31, 120, 180)' fill-opacity = '0.250000' points = '854.2,478.6 854.2,662.4 856.0,662.4 856.0,481.4 '/>
		<polygon fill = 'rgb( 31, 120, 180)' fill-opacity = '0.250000' points = '856.0,481.4 856.0,662.4 857.9,662.4 857.9,484.1 '/>
		<polygon fill = 'rgb( 31, 120, 180)' fill-opacity = '0.250000' points = '857.9,484.1 857.9,662.4 859.7,662.4 859.7,486.8 '/>
		<polygon fill = 'rgb( 31, 120, 180)' fill-opacity = '0.250000' points = '859.7,486.8 859.7,662.4 861.6,662.4 861.6,489.5 '/>
		<polygon fill = 'rgb( 31, 120, 180)' fill-opacity = '0.250000' points = '861.6,489.5 861.6,662.4 863.4,662.4 863.4,492.1 '/>
		<polygon fill = 'rgb( 31, 120, 180)' fill-opacity = '0.250000' points = '863.4,492.1 863.4,662.4 865.3,662.4 865.3,494.7 '/>
		<polygon fill = 'rgb( 31, 120, 180)' fill-opacity = '0.250000' points = '865.3,494.7 865.3,662.4 867.1,662.4 867.1,497.3 '/>
		<polygon fill = 'rgb( 31, 120, 180)' fill-opacity = '0.250000' points = '867.1,497.3 867.1,662.4 869.0,662.4 869.0,499.9 '/>
		<polygon fill = 'rgb( 31, 120, 180)' fill-opacity = '0.250000' points = '869.0,499.9 869.0,662.4 870.8,662.4 870.8,502.4 '/>
		<polygon fill = 'rgb( 31, 120, 180)' fill-opacity = '0.250000' points = '870.8,502.4 870.8,662.4 872.7,662.4 872.7,504.9 '/>
		<polygon fill = 'rgb( 31, 120, 180)' fill-opacity = '0.250000' points = '872.7,504.9 872.7,662.4 874.6,662.4 874.6,507.3 '/>
		<polygon fill = 'rgb( 31, 120, 180)' fill-opacity = '0.250000' points = '874.6,507.3 874.6,662.4 876.4,662.4 876.4,509.8 '/>
		<polygon fill = 'rgb( 31, 120, 180)' fill-opacity = '0.250000' points = '876.4,509.8 876.4,662.4 878.3,662.4 878.3,512.2 '/>
		<polygon fill = 'rgb( 31, 120, 180)' fill-opacity = '0.250000' points = '878.3,512.2 878.3,662.4 880.1,662.4 880.1,514.6 '/>
		<polygon fill = 'rgb( 31, 120, 180)' fill-opacity = '0.250000' points = '880.1,514.6 880.1,662.4 882.0,662.4 882.0,517.1 '/>
		<polygon fill = 'rgb( 31, 120, 180)' fill-opacity = '0.250000' points = '882.0,517.1 882.0,662.4 883.8,662.4 883.8,519.5 '/>
		<polygon fill = 'rgb( 31, 120, 180)' fill-opacity = '0.250000' points = '883.8,519.5 883.8,662.4 885.7,662.4 885.7,521.9 '/>
		<polygon fill = 'rgb( 31, 120, 180)' fill-opacity = '0.250000' points = '885.7,521.9 885.7,662.4 887.5,662.4 887.5,524.3 '/>
		<polygon fill = 'rgb( 31, 120, 180)' fill-opacity = '0.250000' points = '887.5,524.3 887.5,662.4 889.4,662.4 889.4,526.7 '/>
		<polygon fill = 'rgb( 31, 120, 180)' fill-opacity = '0.250000' points = '889.4,526.7 889.4,662.4 891.2,662.4 891.2,529.1 '/>
		<polygon fill = 'rgb( 31, 120, 180)' fill-opacity = '0.250000' points = '891.2,529.1 891.2,662.4 893.1,662.4 893.1,531.5 '/>
		<polygon fill = 'rgb( 31, 120, 180)' fill-opacity = '0.250000' points = '893.1,531.5 893.1,662.4 894.9,662.4 894.9,533.8 '/>
		<polygon fill = 'rgb( 31, 120, 180)' fill-opacity = '0.250000' points = '894.9,533.8 894.9,662.4 896.8,662.4 896.8,536.2 '/>
		<polygon fill = 'rgb( 31, 120, 180)' fill-opacity = '0.250000' points = '896.8,536.2 896.8,662.4 898.7,662.4 898.7,538.6 '/>
		<polygon fill = 'rgb( 31, 120, 180)' fill-opacity = '0.250000' points = '898.7,538.6 898.7,662.4 900.5,662.4 900.5,540.9 '/>
		<polygon fill = 'rgb( 31, 120, 180)' fill-opacity = '0.250000' points = '900.5,540.9 900.5,662.4 902.4,662.4 902.4,543.2 '/>
		<polygon fill = 'rgb( 31, 120, 180)' fill-opacity = '0.250000' points = '902.4,543.2 902.4,662.4 904.2,662.4 904.2,545.5 '/>
		<polygon fill = 'rgb( 31, 120, 180)' fill-opacity = '0.250000' points = '904.2,545.5 904.2,662.4 906.1,662.4 906.1,547.8 '/>
		<polygon fill = 'rgb( 31, 120, 180)' fill-opacity = '0.250000' points = '906.1,547.8 906.1,662.4 907.9,662.4 907.9,550.1 '/>
		<polygon fill = 'rgb( 31, 120, 180)' fill-opacity = '0.250000' points = '907.9,550.1 907.9,662.4 909.8,662.4 909.8,552.3 '/>
		<polygon fill = 'rgb( 31, 120, 180)' fill-opacity = '0.250000' points = '909.8,552.3 909.8,662.4 911.6,662.4 911.6,554.5 '/>
		<polygon fill = 'rgb( 31, 120, 180)' fill-opacity = '0.250000' points = '911.6,554.5 911.6,662.4 913.5,662.4 913.5,556.6 '/>
		<polygon fill = 'rgb( 31, 120, 180)' fill-opacity = '0.250000' points = '913.5,556.6 913.5,662.4 915.3,662.4 915.3,558.7 '/>
		<polygon fill = 'rgb( 31, 120, 180)' fill-opacity = '0.250000' points = '915.3,558.7 915.3,662.4 917.2,662.4 917.2,560.7 '/>
		<polygon fill = 'rgb( 31, 120, 180)' fill-opacity = '0.250000' points = '917.2,560.7 917.2,662.4 919.1,662.4 919.1,562.7 '/>
		<polygon fill = 'rgb( 31, 120, 180)' fill-opacity = '0.250000' points = '919.1,562.7 919.1,662.4 920.9,662.4 920.9,564.7 '/>
		<polygon fill = 'rgb( 31, 120, 180)' fill-opacity = '0.250000' points = '920.9,564.7 920.9,662.4 922.8,662.4 922.8,566.6 '/>
		<polygon fill = 'rgb( 31, 120, 180)' fill-opacity = '0.250000' points = '922.8,566.6 922.8,662.4 924.6,662.4 924.6,568.5 '/>
		<polygon fill = 'rgb( 31, 120, 180)' fill-opacity = '0.250000' points = '924.6,568.5 924.6,662.4 926.5,662.4 926.5,570.4 '/>
	</g>
</g>
	</g>
	<g id="gnuplot_plot_3" ><title>Point estimate</title>
<g fill="none" color="white" stroke="rgb( 31, 120, 180)" stroke-width="2.00" stroke-linecap="butt" stroke-linejoin="miter">
</g>
<g fill="none" color="black" stroke="currentColor" stroke-width="2.00" stroke-linecap="butt" stroke-linejoin="miter">
	<g transform="translate(1089.0,103.0)" stroke="none" fill="black" font-family="Helvetica" font-size="12.00"  text-anchor="start">
		<text><tspan font-family="Helvetica" >Point estimate</tspan></text>
	</g>
</g>
<g fill="none" color="black" stroke="currentColor" stroke-width="2.00" stroke-linecap="butt" stroke-linejoin="miter">
	<path stroke='rgb( 31, 120, 180)'  d='M1038.5,99.1 L1080.7,99.1 M581.5,662.4 L581.5,102.6  '/></g>
	</g>
<g fill="none" color="black" stroke="currentColor" stroke-width="2.00" stroke-linecap="butt" stroke-linejoin="miter">
</g>
<g fill="none" color="black" stroke="black" stroke-width="1.00" stroke-linecap="butt" stroke-linejoin="miter">
</g>
<g fill="none" color="black" stroke="currentColor" stroke-width="1.00" stroke-linecap="butt" stroke-linejoin="miter">
	<path stroke='black'  d='M88.5,54.1 L88.5,662.4 L1013.6,662.4 L1013.6,54.1 L88.5,54.1 Z  '/></g>
<g fill="none" color="black" stroke="currentColor" stroke-width="1.00" stroke-linecap="butt" stroke-linejoin="miter">
</g>
</g>
</svg>

