<?xml version="1.0" encoding="utf-8"  standalone="no"?>
<!DOCTYPE svg PUBLIC "-//W3C//DTD SVG 1.1//EN"
 "http://www.w3.org/Graphics/SVG/1.1/DTD/svg11.dtd">
<svg 
 viewBox="0 0 1280 720"
 xmlns="http://www.w3.org/2000/svg"
 xmlns:xlink="http://www.w3.org/1999/xlink"
>

<title>Gnuplot</title>
<desc>Produced by GNUPLOT 5.0 patchlevel 5 </desc>

<g id="gnuplot_canvas">

<rect x="0" y="0" width="1280" height="720" fill="none"/>
<defs>

	<circle id='gpDot' r='0.5' stroke-width='0.5'/>
	<path id='gpPt0' stroke-width='0.222' stroke='currentColor' d='M-1,0 h2 M0,-1 v2'/>
	<path id='gpPt1' stroke-width='0.222' stroke='currentColor' d='M-1,-1 L1,1 M1,-1 L-1,1'/>
	<path id='gpPt2' stroke-width='0.222' stroke='currentColor' d='M-1,0 L1,0 M0,-1 L0,1 M-1,-1 L1,1 M-1,1 L1,-1'/>
	<rect id='gpPt3' stroke-width='0.222' stroke='currentColor' x='-1' y='-1' width='2' height='2'/>
	<rect id='gpPt4' stroke-width='0.222' stroke='currentColor' fill='currentColor' x='-1' y='-1' width='2' height='2'/>
	<circle id='gpPt5' stroke-width='0.222' stroke='currentColor' cx='0' cy='0' r='1'/>
	<use xlink:href='#gpPt5' id='gpPt6' fill='currentColor' stroke='none'/>
	<path id='gpPt7' stroke-width='0.222' stroke='currentColor' d='M0,-1.33 L-1.33,0.67 L1.33,0.67 z'/>
	<use xlink:href='#gpPt7' id='gpPt8' fill='currentColor' stroke='none'/>
	<use xlink:href='#gpPt7' id='gpPt9' stroke='currentColor' transform='rotate(180)'/>
	<use xlink:href='#gpPt9' id='gpPt10' fill='currentColor' stroke='none'/>
	<use xlink:href='#gpPt3' id='gpPt11' stroke='currentColor' transform='rotate(45)'/>
	<use xlink:href='#gpPt11' id='gpPt12' fill='currentColor' stroke='none'/>
	<path id='gpPt13' stroke-width='0.222' stroke='currentColor' d='M0,1.330 L1.265,0.411 L0.782,-1.067 L-0.782,-1.076 L-1.265,0.411 z'/>
	<use xlink:href='#gpPt13' id='gpPt14' fill='currentColor' stroke='none'/>
	<filter id='textbox' filterUnits='objectBoundingBox' x='0' y='0' height='1' width='1'>
	  <feFlood flood-color='white' flood-opacity='1' result='bgnd'/>
	  <feComposite in='SourceGraphic' in2='bgnd' operator='atop'/>
	</filter>
	<filter id='greybox' filterUnits='objectBoundingBox' x='0' y='0' height='1' width='1'>
	  <feFlood flood-color='lightgrey' flood-opacity='1' result='grey'/>
	  <feComposite in='SourceGraphic' in2='grey' operator='atop'/>
	</filter>
</defs>
<g fill="none" color="white" stroke="currentColor" stroke-width="1.00" stroke-linecap="butt" stroke-linejoin="miter">
</g>
<g fill="none" color="black" stroke="currentColor" stroke-width="1.00" stroke-linecap="butt" stroke-linejoin="miter">
	<path stroke='black'  d='M80.2,662.4 L89.2,662.4  '/>	<g transform="translate(71.9,666.3)" stroke="none" fill="black" font-family="Helvetica" font-size="12.00"  text-anchor="end">
		<text><tspan font-family="Helvetica" > 0</tspan></text>
	</g>
</g>
<g fill="none" color="black" stroke="currentColor" stroke-width="1.00" stroke-linecap="butt" stroke-linejoin="miter">
	<path stroke='black'  d='M80.2,594.8 L89.2,594.8  '/>	<g transform="translate(71.9,598.7)" stroke="none" fill="black" font-family="Helvetica" font-size="12.00"  text-anchor="end">
		<text><tspan font-family="Helvetica" > 200</tspan></text>
	</g>
</g>
<g fill="none" color="black" stroke="currentColor" stroke-width="1.00" stroke-linecap="butt" stroke-linejoin="miter">
	<path stroke='black'  d='M80.2,527.2 L89.2,527.2  '/>	<g transform="translate(71.9,531.1)" stroke="none" fill="black" font-family="Helvetica" font-size="12.00"  text-anchor="end">
		<text><tspan font-family="Helvetica" > 400</tspan></text>
	</g>
</g>
<g fill="none" color="black" stroke="currentColor" stroke-width="1.00" stroke-linecap="butt" stroke-linejoin="miter">
	<path stroke='black'  d='M80.2,459.6 L89.2,459.6  '/>	<g transform="translate(71.9,463.5)" stroke="none" fill="black" font-family="Helvetica" font-size="12.00"  text-anchor="end">
		<text><tspan font-family="Helvetica" > 600</tspan></text>
	</g>
</g>
<g fill="none" color="black" stroke="currentColor" stroke-width="1.00" stroke-linecap="butt" stroke-linejoin="miter">
	<path stroke='black'  d='M80.2,392.0 L89.2,392.0  '/>	<g transform="translate(71.9,395.9)" stroke="none" fill="black" font-family="Helvetica" font-size="12.00"  text-anchor="end">
		<text><tspan font-family="Helvetica" > 800</tspan></text>
	</g>
</g>
<g fill="none" color="black" stroke="currentColor" stroke-width="1.00" stroke-linecap="butt" stroke-linejoin="miter">
	<path stroke='black'  d='M80.2,324.5 L89.2,324.5  '/>	<g transform="translate(71.9,328.4)" stroke="none" fill="black" font-family="Helvetica" font-size="12.00"  text-anchor="end">
		<text><tspan font-family="Helvetica" > 1000</tspan></text>
	</g>
</g>
<g fill="none" color="black" stroke="currentColor" stroke-width="1.00" stroke-linecap="butt" stroke-linejoin="miter">
	<path stroke='black'  d='M80.2,256.9 L89.2,256.9  '/>	<g transform="translate(71.9,260.8)" stroke="none" fill="black" font-family="Helvetica" font-size="12.00"  text-anchor="end">
		<text><tspan font-family="Helvetica" > 1200</tspan></text>
	</g>
</g>
<g fill="none" color="black" stroke="currentColor" stroke-width="1.00" stroke-linecap="butt" stroke-linejoin="miter">
	<path stroke='black'  d='M80.2,189.3 L89.2,189.3  '/>	<g transform="translate(71.9,193.2)" stroke="none" fill="black" font-family="Helvetica" font-size="12.00"  text-anchor="end">
		<text><tspan font-family="Helvetica" > 1400</tspan></text>
	</g>
</g>
<g fill="none" color="black" stroke="currentColor" stroke-width="1.00" stroke-linecap="butt" stroke-linejoin="miter">
	<path stroke='black'  d='M80.2,121.7 L89.2,121.7  '/>	<g transform="translate(71.9,125.6)" stroke="none" fill="black" font-family="Helvetica" font-size="12.00"  text-anchor="end">
		<text><tspan font-family="Helvetica" > 1600</tspan></text>
	</g>
</g>
<g fill="none" color="black" stroke="currentColor" stroke-width="1.00" stroke-linecap="butt" stroke-linejoin="miter">
	<path stroke='black'  d='M80.2,54.1 L89.2,54.1  '/>	<g transform="translate(71.9,58.0)" stroke="none" fill="black" font-family="Helvetica" font-size="12.00"  text-anchor="end">
		<text><tspan font-family="Helvetica" > 1800</tspan></text>
	</g>
</g>
<g fill="none" color="black" stroke="currentColor" stroke-width="1.00" stroke-linecap="butt" stroke-linejoin="miter">
	<path stroke='black'  d='M181.2,662.4 L181.2,653.4  '/>	<g transform="translate(181.2,684.3)" stroke="none" fill="black" font-family="Helvetica" font-size="12.00"  text-anchor="middle">
		<text><tspan font-family="Helvetica" >-2.62</tspan></text>
	</g>
</g>
<g fill="none" color="black" stroke="currentColor" stroke-width="1.00" stroke-linecap="butt" stroke-linejoin="miter">
	<path stroke='black'  d='M320.4,662.4 L320.4,653.4  '/>	<g transform="translate(320.4,684.3)" stroke="none" fill="black" font-family="Helvetica" font-size="12.00"  text-anchor="middle">
		<text><tspan font-family="Helvetica" >-2.6</tspan></text>
	</g>
</g>
<g fill="none" color="black" stroke="currentColor" stroke-width="1.00" stroke-linecap="butt" stroke-linejoin="miter">
	<path stroke='black'  d='M459.6,662.4 L459.6,653.4  '/>	<g transform="translate(459.6,684.3)" stroke="none" fill="black" font-family="Helvetica" font-size="12.00"  text-anchor="middle">
		<text><tspan font-family="Helvetica" >-2.58</tspan></text>
	</g>
</g>
<g fill="none" color="black" stroke="currentColor" stroke-width="1.00" stroke-linecap="butt" stroke-linejoin="miter">
	<path stroke='black'  d='M598.8,662.4 L598.8,653.4  '/>	<g transform="translate(598.8,684.3)" stroke="none" fill="black" font-family="Helvetica" font-size="12.00"  text-anchor="middle">
		<text><tspan font-family="Helvetica" >-2.56</tspan></text>
	</g>
</g>
<g fill="none" color="black" stroke="currentColor" stroke-width="1.00" stroke-linecap="butt" stroke-linejoin="miter">
	<path stroke='black'  d='M738.0,662.4 L738.0,653.4  '/>	<g transform="translate(738.0,684.3)" stroke="none" fill="black" font-family="Helvetica" font-size="12.00"  text-anchor="middle">
		<text><tspan font-family="Helvetica" >-2.54</tspan></text>
	</g>
</g>
<g fill="none" color="black" stroke="currentColor" stroke-width="1.00" stroke-linecap="butt" stroke-linejoin="miter">
	<path stroke='black'  d='M877.2,662.4 L877.2,653.4  '/>	<g transform="translate(877.2,684.3)" stroke="none" fill="black" font-family="Helvetica" font-size="12.00"  text-anchor="middle">
		<text><tspan font-family="Helvetica" >-2.52</tspan></text>
	</g>
</g>
<g fill="none" color="black" stroke="currentColor" stroke-width="1.00" stroke-linecap="butt" stroke-linejoin="miter">
</g>
<g fill="none" color="black" stroke="currentColor" stroke-width="1.00" stroke-linecap="butt" stroke-linejoin="miter">
	<path stroke='black'  d='M80.2,54.1 L80.2,662.4 L1013.6,662.4 L1013.6,54.1 L80.2,54.1 Z  '/></g>
<g fill="none" color="black" stroke="currentColor" stroke-width="1.00" stroke-linecap="butt" stroke-linejoin="miter">
	<g transform="translate(17.0,358.3) rotate(270)" stroke="none" fill="black" font-family="Helvetica" font-size="12.00"  text-anchor="middle">
		<text><tspan font-family="Helvetica" >Density (a.u.)</tspan></text>
	</g>
</g>
<g fill="none" color="black" stroke="currentColor" stroke-width="1.00" stroke-linecap="butt" stroke-linejoin="miter">
	<g transform="translate(546.9,711.3)" stroke="none" fill="black" font-family="Helvetica" font-size="12.00"  text-anchor="middle">
		<text><tspan font-family="Helvetica" >Relative change (%)</tspan></text>
	</g>
</g>
<g fill="none" color="black" stroke="currentColor" stroke-width="1.00" stroke-linecap="butt" stroke-linejoin="miter">
	<g transform="translate(546.9,31.0)" stroke="none" fill="black" font-family="Helvetica" font-size="12.00"  text-anchor="middle">
		<text><tspan font-family="Helvetica" >dfs arena rwlock init: median</tspan></text>
	</g>
</g>
	<g id="gnuplot_plot_1" ><title>Bootstrap distribution</title>
<g fill="none" color="white" stroke="black" stroke-width="2.00" stroke-linecap="butt" stroke-linejoin="miter">
</g>
<g fill="none" color="black" stroke="currentColor" stroke-width="2.00" stroke-linecap="butt" stroke-linejoin="miter">
	<g transform="translate(1089.0,67.0)" stroke="none" fill="black" font-family="Helvetica" font-size="12.00"  text-anchor="start">
		<text><tspan font-family="Helvetica" >Bootstrap distribution</tspan></text>
	</g>
</g>
<g fill="none" color="black" stroke="currentColor" stroke-width="2.00" stroke-linecap="butt" stroke-linejoin="miter">
	<path stroke='rgb( 31, 120, 180)'  d='M1038.5,63.1 L1080.7,63.1 M80.2,633.6 L82.1,633.0 L83.9,632.5 L85.8,631.9 L87.7,631.4 L89.6,630.8
		L91.4,630.3 L93.3,629.7 L95.2,629.2 L97.0,628.6 L98.9,628.0 L100.8,627.5 L102.6,626.9 L104.5,626.3
		L106.4,625.7 L108.3,625.1 L110.1,624.5 L112.0,623.9 L113.9,623.3 L115.7,622.7 L117.6,622.2 L119.5,621.6
		L121.4,621.0 L123.2,620.5 L125.1,619.9 L127.0,619.4 L128.8,618.9 L130.7,618.3 L132.6,617.8 L134.4,617.3
		L136.3,616.7 L138.2,616.2 L140.1,615.6 L141.9,615.0 L143.8,614.4 L145.7,613.8 L147.5,613.1 L149.4,612.4
		L151.3,611.6 L153.2,610.9 L155.0,610.1 L156.9,609.2 L158.8,608.3 L160.6,607.5 L162.5,606.5 L164.4,605.6
		L166.2,604.6 L168.1,603.6 L170.0,602.6 L171.9,601.6 L173.7,600.5 L175.6,599.5 L177.5,598.4 L179.3,597.3
		L181.2,596.3 L183.1,595.2 L185.0,594.1 L186.8,593.0 L188.7,592.0 L190.6,590.9 L192.4,589.9 L194.3,588.9
		L196.2,587.9 L198.0,587.0 L199.9,586.1 L201.8,585.2 L203.7,584.3 L205.5,583.5 L207.4,582.7 L209.3,582.0
		L211.1,581.2 L213.0,580.6 L214.9,579.9 L216.7,579.3 L218.6,578.6 L220.5,578.0 L222.4,577.4 L224.2,576.7
		L226.1,576.1 L228.0,575.4 L229.8,574.7 L231.7,573.9 L233.6,573.1 L235.5,572.2 L237.3,571.3 L239.2,570.3
		L241.1,569.3 L242.9,568.1 L244.8,567.0 L246.7,565.7 L248.5,564.4 L250.4,563.0 L252.3,561.5 L254.2,560.0
		L256.0,558.4 L257.9,556.8 L259.8,555.1 L261.6,553.4 L263.5,551.6 L265.4,549.7 L267.3,547.8 L269.1,545.9
		L271.0,543.9 L272.9,541.8 L274.7,539.7 L276.6,537.6 L278.5,535.4 L280.3,533.2 L282.2,531.0 L284.1,528.7
		L286.0,526.5 L287.8,524.2 L289.7,521.8 L291.6,519.5 L293.4,517.2 L295.3,514.8 L297.2,512.5 L299.1,510.2
		L300.9,507.8 L302.8,505.5 L304.7,503.2 L306.5,500.9 L308.4,498.6 L310.3,496.4 L312.1,494.1 L314.0,491.8
		L315.9,489.6 L317.8,487.3 L319.6,485.0 L321.5,482.8 L323.4,480.5 L325.2,478.2 L327.1,475.8 L329.0,473.5
		L330.9,471.1 L332.7,468.8 L334.6,466.4 L336.5,464.0 L338.3,461.6 L340.2,459.1 L342.1,456.7 L343.9,454.3
		L345.8,451.9 L347.7,449.4 L349.6,447.0 L351.4,444.7 L353.3,442.3 L355.2,439.9 L357.0,437.6 L358.9,435.2
		L360.8,432.9 L362.7,430.6 L364.5,428.3 L366.4,425.9 L368.3,423.6 L370.1,421.2 L372.0,418.9 L373.9,416.5
		L375.7,414.0 L377.6,411.6 L379.5,409.1 L381.4,406.7 L383.2,404.2 L385.1,401.7 L387.0,399.2 L388.8,396.7
		L390.7,394.2 L392.6,391.8 L394.5,389.4 L396.3,387.0 L398.2,384.6 L400.1,382.3 L401.9,380.1 L403.8,377.9
		L405.7,375.7 L407.5,373.6 L409.4,371.5 L411.3,369.5 L413.2,367.6 L415.0,365.6 L416.9,363.7 L418.8,361.9
		L420.6,360.0 L422.5,358.2 L424.4,356.4 L426.3,354.6 L428.1,352.8 L430.0,351.0 L431.9,349.2 L433.7,347.4
		L435.6,345.5 L437.5,343.6 L439.3,341.7 L441.2,339.8 L443.1,337.8 L445.0,335.7 L446.8,333.6 L448.7,331.5
		L450.6,329.2 L452.4,327.0 L454.3,324.6 L456.2,322.2 L458.0,319.7 L459.9,317.1 L461.8,314.5 L463.7,311.8
		L465.5,309.1 L467.4,306.3 L469.3,303.5 L471.1,300.7 L473.0,297.8 L474.9,295.0 L476.8,292.1 L478.6,289.2
		L480.5,286.4 L482.4,283.5 L484.2,280.6 L486.1,277.7 L488.0,274.9 L489.8,271.9 L491.7,269.0 L493.6,266.1
		L495.5,263.1 L497.3,260.0 L499.2,256.9 L501.1,253.7 L502.9,250.5 L504.8,247.2 L506.7,243.9 L508.6,240.4
		L510.4,237.0 L512.3,233.4 L514.2,229.8 L516.0,226.2 L517.9,222.5 L519.8,218.9 L521.6,215.2 L523.5,211.5
		L525.4,207.8 L527.3,204.1 L529.1,200.4 L531.0,196.7 L532.9,193.1 L534.7,189.4 L536.6,185.8 L538.5,182.2
		L540.4,178.6 L542.2,175.0 L544.1,171.4 L546.0,167.8 L547.8,164.2 L549.7,160.6 L551.6,157.0 L553.4,153.5
		L555.3,149.9 L557.2,146.4 L559.1,143.0 L560.9,139.6 L562.8,136.2 L564.7,132.9 L566.5,129.8 L568.4,126.7
		L570.3,123.8 L572.2,120.9 L574.0,118.3 L575.9,115.8 L577.8,113.4 L579.6,111.2 L581.5,109.2 L583.4,107.3
		L585.2,105.7 L587.1,104.2 L589.0,102.8 L590.9,101.6 L592.7,100.6 L594.6,99.7 L596.5,99.0 L598.3,98.4
		L600.2,98.0 L602.1,97.7 L604.0,97.6 L605.8,97.6 L607.7,97.8 L609.6,98.2 L611.4,98.7 L613.3,99.5
		L615.2,100.4 L617.0,101.6 L618.9,102.9 L620.8,104.5 L622.7,106.2 L624.5,108.2 L626.4,110.4 L628.3,112.9
		L630.1,115.5 L632.0,118.3 L633.9,121.3 L635.8,124.5 L637.6,127.9 L639.5,131.4 L641.4,135.1 L643.2,138.9
		L645.1,142.9 L647.0,147.0 L648.8,151.1 L650.7,155.4 L652.6,159.8 L654.5,164.2 L656.3,168.6 L658.2,173.1
		L660.1,177.6 L661.9,182.1 L663.8,186.5 L665.7,191.0 L667.5,195.4 L669.4,199.7 L671.3,204.0 L673.2,208.2
		L675.0,212.3 L676.9,216.3 L678.8,220.3 L680.6,224.1 L682.5,227.9 L684.4,231.6 L686.3,235.3 L688.1,238.9
		L690.0,242.5 L691.9,246.0 L693.7,249.6 L695.6,253.2 L697.5,256.7 L699.3,260.4 L701.2,264.0 L703.1,267.7
		L705.0,271.5 L706.8,275.3 L708.7,279.2 L710.6,283.0 L712.4,286.9 L714.3,290.8 L716.2,294.7 L718.1,298.6
		L719.9,302.4 L721.8,306.2 L723.7,309.9 L725.5,313.5 L727.4,317.0 L729.3,320.4 L731.1,323.6 L733.0,326.8
		L734.9,329.8 L736.8,332.7 L738.6,335.5 L740.5,338.1 L742.4,340.7 L744.2,343.2 L746.1,345.7 L748.0,348.1
		L749.9,350.4 L751.7,352.7 L753.6,355.0 L755.5,357.2 L757.3,359.5 L759.2,361.7 L761.1,363.9 L762.9,366.2
		L764.8,368.4 L766.7,370.7 L768.6,373.0 L770.4,375.3 L772.3,377.6 L774.2,379.9 L776.0,382.2 L777.9,384.6
		L779.8,387.0 L781.7,389.4 L783.5,391.8 L785.4,394.2 L787.3,396.6 L789.1,399.0 L791.0,401.5 L792.9,403.9
		L794.7,406.4 L796.6,408.8 L798.5,411.2 L800.4,413.6 L802.2,416.0 L804.1,418.4 L806.0,420.7 L807.8,423.0
		L809.7,425.3 L811.6,427.5 L813.5,429.7 L815.3,431.8 L817.2,433.9 L819.1,436.0 L820.9,438.0 L822.8,440.0
		L824.7,441.9 L826.5,443.8 L828.4,445.7 L830.3,447.6 L832.2,449.4 L834.0,451.3 L835.9,453.1 L837.8,454.9
		L839.6,456.8 L841.5,458.6 L843.4,460.4 L845.3,462.2 L847.1,464.0 L849.0,465.8 L850.9,467.6 L852.7,469.4
		L854.6,471.2 L856.5,473.0 L858.3,474.8 L860.2,476.5 L862.1,478.3 L864.0,480.1 L865.8,481.9 L867.7,483.7
		L869.6,485.4 L871.4,487.2 L873.3,489.0 L875.2,490.8 L877.1,492.6 L878.9,494.3 L880.8,496.1 L882.7,497.9
		L884.5,499.7 L886.4,501.5 L888.3,503.2 L890.1,505.0 L892.0,506.8 L893.9,508.6 L895.8,510.4 L897.6,512.2
		L899.5,513.9 L901.4,515.7 L903.2,517.5 L905.1,519.3 L907.0,521.1 L908.8,523.0 L910.7,524.8 L912.6,526.7
		L914.5,528.5 L916.3,530.4 L918.2,532.4 L920.1,534.3 L921.9,536.3 L923.8,538.4 L925.7,540.5 L927.6,542.6
		L929.4,544.8 L931.3,547.0 L933.2,549.2 L935.0,551.5 L936.9,553.8 L938.8,556.2 L940.6,558.6 L942.5,561.0
		L944.4,563.5 L946.3,565.9 L948.1,568.4 L950.0,570.9 L951.9,573.4 L953.7,575.9 L955.6,578.5 L957.5,581.0
		L959.4,583.5 L961.2,585.9 L963.1,588.4 L965.0,590.9 L966.8,593.3 L968.7,595.7 L970.6,598.0 L972.4,600.4
		L974.3,602.7 L976.2,604.9 L978.1,607.1 L979.9,609.3 L981.8,611.5 L983.7,613.6 L985.5,615.6 L987.4,617.6
		L989.3,619.6 L991.2,621.5 L993.0,623.4 L994.9,625.2 L996.8,627.0 L998.6,628.8 L1000.5,630.5 L1002.4,632.1
		L1004.2,633.7 L1006.1,635.3 L1008.0,636.8 L1009.9,638.3 L1011.7,639.7 L1013.6,641.1  '/></g>
	</g>
	<g id="gnuplot_plot_2" ><title>Confidence interval</title>
<g fill="none" color="white" stroke="rgb( 31, 120, 180)" stroke-width="1.00" stroke-linecap="butt" stroke-linejoin="miter">
</g>
<g fill="none" color="black" stroke="currentColor" stroke-width="1.00" stroke-linecap="butt" stroke-linejoin="miter">
	<g transform="translate(1089.0,85.0)" stroke="none" fill="black" font-family="Helvetica" font-size="12.00"  text-anchor="start">
		<text><tspan font-family="Helvetica" >Confidence interval</tspan></text>
	</g>
</g>
<g fill="none" color="black" stroke="currentColor" stroke-width="1.00" stroke-linecap="butt" stroke-linejoin="miter">
	<g stroke='none' shape-rendering='crispEdges'>
		<polygon fill = 'rgb( 31, 120, 180)' fill-opacity = '0.250000' points = '1038.5,85.6 1080.7,85.6 1080.7,76.6 1038.5,76.6 '/>
		<polygon fill = 'rgb( 31, 120, 180)' fill-opacity = '0.250000' points = '166.2,604.6 166.2,662.4 168.1,662.4 168.1,603.6 '/>
		<polygon fill = 'rgb( 31, 120, 180)' fill-opacity = '0.250000' points = '168.1,603.6 168.1,662.4 170.0,662.4 170.0,602.6 '/>
		<polygon fill = 'rgb( 31, 120, 180)' fill-opacity = '0.250000' points = '170.0,602.6 170.0,662.4 171.9,662.4 171.9,601.6 '/>
		<polygon fill = 'rgb( 31, 120, 180)' fill-opacity = '0.250000' points = '171.9,601.6 171.9,662.4 173.7,662.4 173.7,600.5 '/>
		<polygon fill = 'rgb( 31, 120, 180)' fill-opacity = '0.250000' points = '173.7,600.5 173.7,662.4 175.6,662.4 175.6,599.5 '/>
		<polygon fill = 'rgb( 31, 120, 180)' fill-opacity = '0.250000' points = '175.6,599.5 175.6,662.4 177.5,662.4 177.5,598.4 '/>
		<polygon fill = 'rgb( 31, 120, 180)' fill-opacity = '0.250000' points = '177.5,598.4 177.5,662.4 179.3,662.4 179.3,597.3 '/>
		<polygon fill = 'rgb( 31, 120, 180)' fill-opacity = '0.250000' points = '179.3,597.3 179.3,662.4 181.2,662.4 181.2,596.3 '/>
		<polygon fill = 'rgb( 31, 120, 180)' fill-opacity = '0.250000' points = '181.2,596.3 181.2,662.4 183.1,662.4 183.1,595.2 '/>
		<polygon fill = 'rgb( 31, 120, 180)' fill-opacity = '0.250000' points = '183.1,595.2 183.1,662.4 185.0,662.4 185.0,594.1 '/>
		<polygon fill = 'rgb( 31, 120, 180)' fill-opacity = '0.250000' points = '185.0,594.1 185.0,662.4 186.8,662.4 186.8,593.0 '/>
		<polygon fill = 'rgb( 31, 120, 180)' fill-opacity = '0.250000' points = '186.8,593.0 186.8,662.4 188.7,662.4 188.7,592.0 '/>
		<polygon fill = 'rgb( 31, 120, 180)' fill-opacity = '0.250000' points = '188.7,592.0 188.7,662.4 190.6,662.4 190.6,590.9 '/>
		<polygon fill = 'rgb( 31, 120, 180)' fill-opacity = '0.250000' points = '190.6,590.9 190.6,662.4 192.4,662.4 192.4,589.9 '/>
		<polygon fill = 'rgb( 31, 120, 180)' fill-opacity = '0.250000' points = '192.4,589.9 192.4,662.4 194.3,662.4 194.3,588.9 '/>
		<polygon fill = 'rgb( 31, 120, 180)' fill-opacity = '0.250000' points = '194.3,588.9 194.3,662.4 196.2,662.4 196.2,587.9 '/>
		<polygon fill = 'rgb( 31, 120, 180)' fill-opacity = '0.250000' points = '196.2,587.9 196.2,662.4 198.0,662.4 198.0,587.0 '/>
		<polygon fill = 'rgb( 31, 120, 180)' fill-opacity = '0.250000' points = '198.0,587.0 198.0,662.4 199.9,662.4 199.9,586.1 '/>
		<polygon fill = 'rgb( 31, 120, 180)' fill-opacity = '0.250000' points = '199.9,586.1 199.9,662.4 201.8,662.4 201.8,585.2 '/>
		<polygon fill = 'rgb( 31, 120, 180)' fill-opacity = '0.250000' points = '201.8,585.2 201.8,662.4 203.7,662.4 203.7,584.3 '/>
		<polygon fill = 'rgb( 31, 120, 180)' fill-opacity = '0.250000' points = '203.7,584.3 203.7,662.4 205.5,662.4 205.5,583.5 '/>
		<polygon fill = 'rgb( 31, 120, 180)' fill-opacity = '0.250000' points = '205.5,583.5 205.5,662.4 207.4,662.4 207.4,582.7 '/>
		<polygon fill = 'rgb( 31, 120, 180)' fill-opacity = '0.250000' points = '207.4,582.7 207.4,662.4 209.3,662.4 209.3,582.0 '/>
		<polygon fill = 'rgb( 31, 120, 180)' fill-opacity = '0.250000' points = '209.3,582.0 209.3,662.4 211.1,662.4 211.1,581.2 '/>
		<polygon fill = 'rgb( 31, 120, 180)' fill-opacity = '0.250000' points = '211.1,581.2 211.1,662.4 213.0,662.4 213.0,580.6 '/>
		<polygon fill = 'rgb( 31, 120, 180)' fill-opacity = '0.250000' points = '213.0,580.6 213.0,662.4 214.9,662.4 214.9,579.9 '/>
		<polygon fill = 'rgb( 31, 120, 180)' fill-opacity = '0.250000' points = '214.9,579.9 214.9,662.4 216.7,662.4 216.7,579.3 '/>
		<polygon fill = 'rgb( 31, 120, 180)' fill-opacity = '0.250000' points = '216.7,579.3 216.7,662.4 218.6,662.4 218.6,578.6 '/>
		<polygon fill = 'rgb( 31, 120, 180)' fill-opacity = '0.250000' points = '218.6,578.6 218.6,662.4 220.5,662.4 220.5,578.0 '/>
		<polygon fill = 'rgb( 31, 120, 180)' fill-opacity = '0.250000' points = '220.5,578.0 220.5,662.4 222.4,662.4 222.4,577.4 '/>
		<polygon fill = 'rgb( 31, 120, 180)' fill-opacity = '0.250000' points = '222.4,577.4 222.4,662.4 224.2,662.4 224.2,576.7 '/>
		<polygon fill = 'rgb( 31, 120, 180)' fill-opacity = '0.250000' points = '224.2,576.7 224.2,662.4 226.1,662.4 226.1,576.1 '/>
		<polygon fill = 'rgb( 31, 120, 180)' fill-opacity = '0.250000' points = '226.1,576.1 226.1,662.4 228.0,662.4 228.0,575.4 '/>
		<polygon fill = 'rgb( 31, 120, 180)' fill-opacity = '0.250000' points = '228.0,575.4 228.0,662.4 229.8,662.4 229.8,574.7 '/>
		<polygon fill = 'rgb( 31, 120, 180)' fill-opacity = '0.250000' points = '229.8,574.7 229.8,662.4 231.7,662.4 231.7,573.9 '/>
		<polygon fill = 'rgb( 31, 120, 180)' fill-opacity = '0.250000' points = '231.7,573.9 231.7,662.4 233.6,662.4 233.6,573.1 '/>
		<polygon fill = 'rgb( 31, 120, 180)' fill-opacity = '0.250000' points = '233.6,573.1 233.6,662.4 235.5,662.4 235.5,572.2 '/>
		<polygon fill = 'rgb( 31, 120, 180)' fill-opacity = '0.250000' points = '235.5,572.2 235.5,662.4 237.3,662.4 237.3,571.3 '/>
		<polygon fill = 'rgb( 31, 120, 180)' fill-opacity = '0.250000' points = '237.3,571.3 237.3,662.4 239.2,662.4 239.2,570.3 '/>
		<polygon fill = 'rgb( 31, 120, 180)' fill-opacity = '0.250000' points = '239.2,570.3 239.2,662.4 241.1,662.4 241.1,569.3 '/>
		<polygon fill = 'rgb( 31, 120, 180)' fill-opacity = '0.250000' points = '241.1,569.3 241.1,662.4 242.9,662.4 242.9,568.1 '/>
		<polygon fill = 'rgb( 31, 120, 180)' fill-opacity = '0.250000' points = '242.9,568.1 242.9,662.4 244.8,662.4 244.8,567.0 '/>
		<polygon fill = 'rgb( 31, 120, 180)' fill-opacity = '0.250000' points = '244.8,567.0 244.8,662.4 246.7,662.4 246.7,565.7 '/>
		<polygon fill = 'rgb( 31, 120, 180)' fill-opacity = '0.250000' points = '246.7,565.7 246.7,662.4 248.5,662.4 248.5,564.4 '/>
		<polygon fill = 'rgb( 31, 120, 180)' fill-opacity = '0.250000' points = '248.5,564.4 248.5,662.4 250.4,662.4 250.4,563.0 '/>
		<polygon fill = 'rgb( 31, 120, 180)' fill-opacity = '0.250000' points = '250.4,563.0 250.4,662.4 252.3,662.4 252.3,561.5 '/>
		<polygon fill = 'rgb( 31, 120, 180)' fill-opacity = '0.250000' points = '252.3,561.5 252.3,662.4 254.2,662.4 254.2,560.0 '/>
		<polygon fill = 'rgb( 31, 120, 180)' fill-opacity = '0.250000' points = '254.2,560.0 254.2,662.4 256.0,662.4 256.0,558.4 '/>
		<polygon fill = 'rgb( 31, 120, 180)' fill-opacity = '0.250000' points = '256.0,558.4 256.0,662.4 257.9,662.4 257.9,556.8 '/>
		<polygon fill = 'rgb( 31, 120, 180)' fill-opacity = '0.250000' points = '257.9,556.8 257.9,662.4 259.8,662.4 259.8,555.1 '/>
		<polygon fill = 'rgb( 31, 120, 180)' fill-opacity = '0.250000' points = '259.8,555.1 259.8,662.4 261.6,662.4 261.6,553.4 '/>
		<polygon fill = 'rgb( 31, 120, 180)' fill-opacity = '0.250000' points = '261.6,553.4 261.6,662.4 263.5,662.4 263.5,551.6 '/>
		<polygon fill = 'rgb( 31, 120, 180)' fill-opacity = '0.250000' points = '263.5,551.6 263.5,662.4 265.4,662.4 265.4,549.7 '/>
		<polygon fill = 'rgb( 31, 120, 180)' fill-opacity = '0.250000' points = '265.4,549.7 265.4,662.4 267.3,662.4 267.3,547.8 '/>
		<polygon fill = 'rgb( 31, 120, 180)' fill-opacity = '0.250000' points = '267.3,547.8 267.3,662.4 269.1,662.4 269.1,545.9 '/>
		<polygon fill = 'rgb( 31, 120, 180)' fill-opacity = '0.250000' points = '269.1,545.9 269.1,662.4 271.0,662.4 271.0,543.9 '/>
		<polygon fill = 'rgb( 31, 120, 180)' fill-opacity = '0.250000' points = '271.0,543.9 271.0,662.4 272.9,662.4 272.9,541.8 '/>
		<polygon fill = 'rgb( 31, 120, 180)' fill-opacity = '0.250000' points = '272.9,541.8 272.9,662.4 274.7,662.4 274.7,539.7 '/>
		<polygon fill = 'rgb( 31, 120, 180)' fill-opacity = '0.250000' points = '274.7,539.7 274.7,662.4 276.6,662.4 276.6,537.6 '/>
		<polygon fill = 'rgb( 31, 120, 180)' fill-opacity = '0.250000' points = '276.6,537.6 276.6,662.4 278.5,662.4 278.5,535.4 '/>
		<polygon fill = 'rgb( 31, 120, 180)' fill-opacity = '0.250000' points = '278.5,535.4 278.5,662.4 280.3,662.4 280.3,533.2 '/>
		<polygon fill = 'rgb( 31, 120, 180)' fill-opacity = '0.250000' points = '280.3,533.2 280.3,662.4 282.2,662.4 282.2,531.0 '/>
		<polygon fill = 'rgb( 31, 120, 180)' fill-opacity = '0.250000' points = '282.2,531.0 282.2,662.4 284.1,662.4 284.1,528.7 '/>
		<polygon fill = 'rgb( 31, 120, 180)' fill-opacity = '0.250000' points = '284.1,528.7 284.1,662.4 286.0,662.4 286.0,526.5 '/>
		<polygon fill = 'rgb( 31, 120, 180)' fill-opacity = '0.250000' points = '286.0,526.5 286.0,662.4 287.8,662.4 287.8,524.2 '/>
		<polygon fill = 'rgb( 31, 120, 180)' fill-opacity = '0.250000' points = '287.8,524.2 287.8,662.4 289.7,662.4 289.7,521.8 '/>
		<polygon fill = 'rgb( 31, 120, 180)' fill-opacity = '0.250000' points = '289.7,521.8 289.7,662.4 291.6,662.4 291.6,519.5 '/>
		<polygon fill = 'rgb( 31, 120, 180)' fill-opacity = '0.250000' points = '291.6,519.5 291.6,662.4 293.4,662.4 293.4,517.2 '/>
		<polygon fill = 'rgb( 31, 120, 180)' fill-opacity = '0.250000' points = '293.4,517.2 293.4,662.4 295.3,662.4 295.3,514.8 '/>
		<polygon fill = 'rgb( 31, 120, 180)' fill-opacity = '0.250000' points = '295.3,514.8 295.3,662.4 297.2,662.4 297.2,512.5 '/>
		<polygon fill = 'rgb( 31, 120, 180)' fill-opacity = '0.250000' points = '297.2,512.5 297.2,662.4 299.1,662.4 299.1,510.2 '/>
		<polygon fill = 'rgb( 31, 120, 180)' fill-opacity = '0.250000' points = '299.1,510.2 299.1,662.4 300.9,662.4 300.9,507.8 '/>
		<polygon fill = 'rgb( 31, 120, 180)' fill-opacity = '0.250000' points = '300.9,507.8 300.9,662.4 302.8,662.4 302.8,505.5 '/>
		<polygon fill = 'rgb( 31, 120, 180)' fill-opacity = '0.250000' points = '302.8,505.5 302.8,662.4 304.7,662.4 304.7,503.2 '/>
		<polygon fill = 'rgb( 31, 120, 180)' fill-opacity = '0.250000' points = '304.7,503.2 304.7,662.4 306.5,662.4 306.5,500.9 '/>
		<polygon fill = 'rgb( 31, 120, 180)' fill-opacity = '0.250000' points = '306.5,500.9 306.5,662.4 308.4,662.4 308.4,498.6 '/>
		<polygon fill = 'rgb( 31, 120, 180)' fill-opacity = '0.250000' points = '308.4,498.6 308.4,662.4 310.3,662.4 310.3,496.4 '/>
		<polygon fill = 'rgb( 31, 120, 180)' fill-opacity = '0.250000' points = '310.3,496.4 310.3,662.4 312.1,662.4 312.1,494.1 '/>
		<polygon fill = 'rgb( 31, 120, 180)' fill-opacity = '0.250000' points = '312.1,494.1 312.1,662.4 314.0,662.4 314.0,491.8 '/>
		<polygon fill = 'rgb( 31, 120, 180)' fill-opacity = '0.250000' points = '314.0,491.8 314.0,662.4 315.9,662.4 315.9,489.6 '/>
		<polygon fill = 'rgb( 31, 120, 180)' fill-opacity = '0.250000' points = '315.9,489.6 315.9,662.4 317.8,662.4 317.8,487.3 '/>
		<polygon fill = 'rgb( 31, 120, 180)' fill-opacity = '0.250000' points = '317.8,487.3 317.8,662.4 319.6,662.4 319.6,485.0 '/>
		<polygon fill = 'rgb( 31, 120, 180)' fill-opacity = '0.250000' points = '319.6,485.0 319.6,662.4 321.5,662.4 321.5,482.8 '/>
		<polygon fill = 'rgb( 31, 120, 180)' fill-opacity = '0.250000' points = '321.5,482.8 321.5,662.4 323.4,662.4 323.4,480.5 '/>
		<polygon fill = 'rgb( 31, 120, 180)' fill-opacity = '0.250000' points = '323.4,480.5 323.4,662.4 325.2,662.4 325.2,478.2 '/>
		<polygon fill = 'rgb( 31, 120, 180)' fill-opacity = '0.250000' points = '325.2,478.2 325.2,662.4 327.1,662.4 327.1,475.8 '/>
		<polygon fill = 'rgb( 31, 120, 180)' fill-opacity = '0.250000' points = '327.1,475.8 327.1,662.4 329.0,662.4 329.0,473.5 '/>
		<polygon fill = 'rgb( 31, 120, 180)' fill-opacity = '0.250000' points = '329.0,473.5 329.0,662.4 330.9,662.4 330.9,471.1 '/>
		<polygon fill = 'rgb( 31, 120, 180)' fill-opacity = '0.250000' points = '330.9,471.1 330.9,662.4 332.7,662.4 332.7,468.8 '/>
		<polygon fill = 'rgb( 31, 120, 180)' fill-opacity = '0.250000' points = '332.7,468.8 332.7,662.4 334.6,662.4 334.6,466.4 '/>
		<polygon fill = 'rgb( 31, 120, 180)' fill-opacity = '0.250000' points = '334.6,466.4 334.6,662.4 336.5,662.4 336.5,464.0 '/>
		<polygon fill = 'rgb( 31, 120, 180)' fill-opacity = '0.250000' points = '336.5,464.0 336.5,662.4 338.3,662.4 338.3,461.6 '/>
		<polygon fill = 'rgb( 31, 120, 180)' fill-opacity = '0.250000' points = '338.3,461.6 338.3,662.4 340.2,662.4 340.2,459.1 '/>
		<polygon fill = 'rgb( 31, 120, 180)' fill-opacity = '0.250000' points = '340.2,459.1 340.2,662.4 342.1,662.4 342.1,456.7 '/>
		<polygon fill = 'rgb( 31, 120, 180)' fill-opacity = '0.250000' points = '342.1,456.7 342.1,662.4 343.9,662.4 343.9,454.3 '/>
		<polygon fill = 'rgb( 31, 120, 180)' fill-opacity = '0.250000' points = '343.9,454.3 343.9,662.4 345.8,662.4 345.8,451.9 '/>
		<polygon fill = 'rgb( 31, 120, 180)' fill-opacity = '0.250000' points = '345.8,451.9 345.8,662.4 347.7,662.4 347.7,449.4 '/>
		<polygon fill = 'rgb( 31, 120, 180)' fill-opacity = '0.250000' points = '347.7,449.4 347.7,662.4 349.6,662.4 349.6,447.0 '/>
		<polygon fill = 'rgb( 31, 120, 180)' fill-opacity = '0.250000' points = '349.6,447.0 349.6,662.4 351.4,662.4 351.4,444.7 '/>
		<polygon fill = 'rgb( 31, 120, 180)' fill-opacity = '0.250000' points = '351.4,444.7 351.4,662.4 353.3,662.4 353.3,442.3 '/>
		<polygon fill = 'rgb( 31, 120, 180)' fill-opacity = '0.250000' points = '353.3,442.3 353.3,662.4 355.2,662.4 355.2,439.9 '/>
		<polygon fill = 'rgb( 31, 120, 180)' fill-opacity = '0.250000' points = '355.2,439.9 355.2,662.4 357.0,662.4 357.0,437.6 '/>
		<polygon fill = 'rgb( 31, 120, 180)' fill-opacity = '0.250000' points = '357.0,437.6 357.0,662.4 358.9,662.4 358.9,435.2 '/>
		<polygon fill = 'rgb( 31, 120, 180)' fill-opacity = '0.250000' points = '358.9,435.2 358.9,662.4 360.8,662.4 360.8,432.9 '/>
		<polygon fill = 'rgb( 31, 120, 180)' fill-opacity = '0.250000' points = '360.8,432.9 360.8,662.4 362.7,662.4 362.7,430.6 '/>
		<polygon fill = 'rgb( 31, 120, 180)' fill-opacity = '0.250000' points = '362.7,430.6 362.7,662.4 364.5,662.4 364.5,428.3 '/>
		<polygon fill = 'rgb( 31, 120, 180)' fill-opacity = '0.250000' points = '364.5,428.3 364.5,662.4 366.4,662.4 366.4,425.9 '/>
		<polygon fill = 'rgb( 31, 120, 180)' fill-opacity = '0.250000' points = '366.4,425.9 366.4,662.4 368.3,662.4 368.3,423.6 '/>
		<polygon fill = 'rgb( 31, 120, 180)' fill-opacity = '0.250000' points = '368.3,423.6 368.3,662.4 370.1,662.4 370.1,421.2 '/>
		<polygon fill = 'rgb( 31, 120, 180)' fill-opacity = '0.250000' points = '370.1,421.2 370.1,662.4 372.0,662.4 372.0,418.9 '/>
		<polygon fill = 'rgb( 31, 120, 180)' fill-opacity = '0.250000' points = '372.0,418.9 372.0,662.4 373.9,662.4 373.9,416.5 '/>
		<polygon fill = 'rgb( 31, 120, 180)' fill-opacity = '0.250000' points = '373.9,416.5 373.9,662.4 375.7,662.4 375.7,414.0 '/>
		<polygon fill = 'rgb( 31, 120, 180)' fill-opacity = '0.250000' points = '375.7,414.0 375.7,662.4 377.6,662.4 377.6,411.6 '/>
		<polygon fill = 'rgb( 31, 120, 180)' fill-opacity = '0.250000' points = '377.6,411.6 377.6,662.4 379.5,662.4 379.5,409.1 '/>
		<polygon fill = 'rgb( 31, 120, 180)' fill-opacity = '0.250000' points = '379.5,409.1 379.5,662.4 381.4,662.4 381.4,406.7 '/>
		<polygon fill = 'rgb( 31, 120, 180)' fill-opacity = '0.250000' points = '381.4,406.7 381.4,662.4 383.2,662.4 383.2,404.2 '/>
		<polygon fill = 'rgb( 31, 120, 180)' fill-opacity = '0.250000' points = '383.2,404.2 383.2,662.4 385.1,662.4 385.1,401.7 '/>
		<polygon fill = 'rgb( 31, 120, 180)' fill-opacity = '0.250000' points = '385.1,401.7 385.1,662.4 387.0,662.4 387.0,399.2 '/>
		<polygon fill = 'rgb( 31, 120, 180)' fill-opacity = '0.250000' points = '387.0,399.2 387.0,662.4 388.8,662.4 388.8,396.7 '/>
		<polygon fill = 'rgb( 31, 120, 180)' fill-opacity = '0.250000' points = '388.8,396.7 388.8,662.4 390.7,662.4 390.7,394.2 '/>
		<polygon fill = 'rgb( 31, 120, 180)' fill-opacity = '0.250000' points = '390.7,394.2 390.7,662.4 392.6,662.4 392.6,391.8 '/>
		<polygon fill = 'rgb( 31, 120, 180)' fill-opacity = '0.250000' points = '392.6,391.8 392.6,662.4 394.5,662.4 394.5,389.4 '/>
		<polygon fill = 'rgb( 31, 120, 180)' fill-opacity = '0.250000' points = '394.5,389.4 394.5,662.4 396.3,662.4 396.3,387.0 '/>
		<polygon fill = 'rgb( 31, 120, 180)' fill-opacity = '0.250000' points = '396.3,387.0 396.3,662.4 398.2,662.4 398.2,384.6 '/>
		<polygon fill = 'rgb( 31, 120, 180)' fill-opacity = '0.250000' points = '398.2,384.6 398.2,662.4 400.1,662.4 400.1,382.3 '/>
		<polygon fill = 'rgb( 31, 120, 180)' fill-opacity = '0.250000' points = '400.1,382.3 400.1,662.4 401.9,662.4 401.9,380.1 '/>
		<polygon fill = 'rgb( 31, 120, 180)' fill-opacity = '0.250000' points = '401.9,380.1 401.9,662.4 403.8,662.4 403.8,377.9 '/>
		<polygon fill = 'rgb( 31, 120, 180)' fill-opacity = '0.250000' points = '403.8,377.9 403.8,662.4 405.7,662.4 405.7,375.7 '/>
		<polygon fill = 'rgb( 31, 120, 180)' fill-opacity = '0.250000' points = '405.7,375.7 405.7,662.4 407.5,662.4 407.5,373.6 '/>
		<polygon fill = 'rgb( 31, 120, 180)' fill-opacity = '0.250000' points = '407.5,373.6 407.5,662.4 409.4,662.4 409.4,371.5 '/>
		<polygon fill = 'rgb( 31, 120, 180)' fill-opacity = '0.250000' points = '409.4,371.5 409.4,662.4 411.3,662.4 411.3,369.5 '/>
		<polygon fill = 'rgb( 31, 120, 180)' fill-opacity = '0.250000' points = '411.3,369.5 411.3,662.4 413.2,662.4 413.2,367.6 '/>
		<polygon fill = 'rgb( 31, 120, 180)' fill-opacity = '0.250000' points = '413.2,367.6 413.2,662.4 415.0,662.4 415.0,365.6 '/>
		<polygon fill = 'rgb( 31, 120, 180)' fill-opacity = '0.250000' points = '415.0,365.6 415.0,662.4 416.9,662.4 416.9,363.7 '/>
		<polygon fill = 'rgb( 31, 120, 180)' fill-opacity = '0.250000' points = '416.9,363.7 416.9,662.4 418.8,662.4 418.8,361.9 '/>
		<polygon fill = 'rgb( 31, 120, 180)' fill-opacity = '0.250000' points = '418.8,361.9 418.8,662.4 420.6,662.4 420.6,360.0 '/>
		<polygon fill = 'rgb( 31, 120, 180)' fill-opacity = '0.250000' points = '420.6,360.0 420.6,662.4 422.5,662.4 422.5,358.2 '/>
		<polygon fill = 'rgb( 31, 120, 180)' fill-opacity = '0.250000' points = '422.5,358.2 422.5,662.4 424.4,662.4 424.4,356.4 '/>
		<polygon fill = 'rgb( 31, 120, 180)' fill-opacity = '0.250000' points = '424.4,356.4 424.4,662.4 426.3,662.4 426.3,354.6 '/>
		<polygon fill = 'rgb( 31, 120, 180)' fill-opacity = '0.250000' points = '426.3,354.6 426.3,662.4 428.1,662.4 428.1,352.8 '/>
		<polygon fill = 'rgb( 31, 120, 180)' fill-opacity = '0.250000' points = '428.1,352.8 428.1,662.4 430.0,662.4 430.0,351.0 '/>
		<polygon fill = 'rgb( 31, 120, 180)' fill-opacity = '0.250000' points = '430.0,351.0 430.0,662.4 431.9,662.4 431.9,349.2 '/>
		<polygon fill = 'rgb( 31, 120, 180)' fill-opacity = '0.250000' points = '431.9,349.2 431.9,662.4 433.7,662.4 433.7,347.4 '/>
		<polygon fill = 'rgb( 31, 120, 180)' fill-opacity = '0.250000' points = '433.7,347.4 433.7,662.4 435.6,662.4 435.6,345.5 '/>
		<polygon fill = 'rgb( 31, 120, 180)' fill-opacity = '0.250000' points = '435.6,345.5 435.6,662.4 437.5,662.4 437.5,343.6 '/>
		<polygon fill = 'rgb( 31, 120, 180)' fill-opacity = '0.250000' points = '437.5,343.6 437.5,662.4 439.3,662.4 439.3,341.7 '/>
		<polygon fill = 'rgb( 31, 120, 180)' fill-opacity = '0.250000' points = '439.3,341.7 439.3,662.4 441.2,662.4 441.2,339.8 '/>
		<polygon fill = 'rgb( 31, 120, 180)' fill-opacity = '0.250000' points = '441.2,339.8 441.2,662.4 443.1,662.4 443.1,337.8 '/>
		<polygon fill = 'rgb( 31, 120, 180)' fill-opacity = '0.250000' points = '443.1,337.8 443.1,662.4 445.0,662.4 445.0,335.7 '/>
		<polygon fill = 'rgb( 31, 120, 180)' fill-opacity = '0.250000' points = '445.0,335.7 445.0,662.4 446.8,662.4 446.8,333.6 '/>
		<polygon fill = 'rgb( 31, 120, 180)' fill-opacity = '0.250000' points = '446.8,333.6 446.8,662.4 448.7,662.4 448.7,331.5 '/>
		<polygon fill = 'rgb( 31, 120, 180)' fill-opacity = '0.250000' points = '448.7,331.5 448.7,662.4 450.6,662.4 450.6,329.2 '/>
		<polygon fill = 'rgb( 31, 120, 180)' fill-opacity = '0.250000' points = '450.6,329.2 450.6,662.4 452.4,662.4 452.4,327.0 '/>
		<polygon fill = 'rgb( 31, 120, 180)' fill-opacity = '0.250000' points = '452.4,327.0 452.4,662.4 454.3,662.4 454.3,324.6 '/>
		<polygon fill = 'rgb( 31, 120, 180)' fill-opacity = '0.250000' points = '454.3,324.6 454.3,662.4 456.2,662.4 456.2,322.2 '/>
		<polygon fill = 'rgb( 31, 120, 180)' fill-opacity = '0.250000' points = '456.2,322.2 456.2,662.4 458.0,662.4 458.0,319.7 '/>
		<polygon fill = 'rgb( 31, 120, 180)' fill-opacity = '0.250000' points = '458.0,319.7 458.0,662.4 459.9,662.4 459.9,317.1 '/>
		<polygon fill = 'rgb( 31, 120, 180)' fill-opacity = '0.250000' points = '459.9,317.1 459.9,662.4 461.8,662.4 461.8,314.5 '/>
		<polygon fill = 'rgb( 31, 120, 180)' fill-opacity = '0.250000' points = '461.8,314.5 461.8,662.4 463.7,662.4 463.7,311.8 '/>
		<polygon fill = 'rgb( 31, 120, 180)' fill-opacity = '0.250000' points = '463.7,311.8 463.7,662.4 465.5,662.4 465.5,309.1 '/>
		<polygon fill = 'rgb( 31, 120, 180)' fill-opacity = '0.250000' points = '465.5,309.1 465.5,662.4 467.4,662.4 467.4,306.3 '/>
		<polygon fill = 'rgb( 31, 120, 180)' fill-opacity = '0.250000' points = '467.4,306.3 467.4,662.4 469.3,662.4 469.3,303.5 '/>
		<polygon fill = 'rgb( 31, 120, 180)' fill-opacity = '0.250000' points = '469.3,303.5 469.3,662.4 471.1,662.4 471.1,300.7 '/>
		<polygon fill = 'rgb( 31, 120, 180)' fill-opacity = '0.250000' points = '471.1,300.7 471.1,662.4 473.0,662.4 473.0,297.8 '/>
		<polygon fill = 'rgb( 31, 120, 180)' fill-opacity = '0.250000' points = '473.0,297.8 473.0,662.4 474.9,662.4 474.9,295.0 '/>
		<polygon fill = 'rgb( 31, 120, 180)' fill-opacity = '0.250000' points = '474.9,295.0 474.9,662.4 476.8,662.4 476.8,292.1 '/>
		<polygon fill = 'rgb( 31, 120, 180)' fill-opacity = '0.250000' points = '476.8,292.1 476.8,662.4 478.6,662.4 478.6,289.2 '/>
		<polygon fill = 'rgb( 31, 120, 180)' fill-opacity = '0.250000' points = '478.6,289.2 478.6,662.4 480.5,662.4 480.5,286.4 '/>
		<polygon fill = 'rgb( 31, 120, 180)' fill-opacity = '0.250000' points = '480.5,286.4 480.5,662.4 482.4,662.4 482.4,283.5 '/>
		<polygon fill = 'rgb( 31, 120, 180)' fill-opacity = '0.250000' points = '482.4,283.5 482.4,662.4 484.2,662.4 484.2,280.6 '/>
		<polygon fill = 'rgb( 31, 120, 180)' fill-opacity = '0.250000' points = '484.2,280.6 484.2,662.4 486.1,662.4 486.1,277.7 '/>
		<polygon fill = 'rgb( 31, 120, 180)' fill-opacity = '0.250000' points = '486.1,277.7 486.1,662.4 488.0,662.4 488.0,274.9 '/>
		<polygon fill = 'rgb( 31, 120, 180)' fill-opacity = '0.250000' points = '488.0,274.9 488.0,662.4 489.8,662.4 489.8,271.9 '/>
		<polygon fill = 'rgb( 31, 120, 180)' fill-opacity = '0.250000' points = '489.8,271.9 489.8,662.4 491.7,662.4 491.7,269.0 '/>
		<polygon fill = 'rgb( 31, 120, 180)' fill-opacity = '0.250000' points = '491.7,269.0 491.7,662.4 493.6,662.4 493.6,266.1 '/>
		<polygon fill = 'rgb( 31, 120, 180)' fill-opacity = '0.250000' points = '493.6,266.1 493.6,662.4 495.5,662.4 495.5,263.1 '/>
		<polygon fill = 'rgb( 31, 120, 180)' fill-opacity = '0.250000' points = '495.5,263.1 495.5,662.4 497.3,662.4 497.3,260.0 '/>
		<polygon fill = 'rgb( 31, 120, 180)' fill-opacity = '0.250000' points = '497.3,260.0 497.3,662.4 499.2,662.4 499.2,256.9 '/>
		<polygon fill = 'rgb( 31, 120, 180)' fill-opacity = '0.250000' points = '499.2,256.9 499.2,662.4 501.1,662.4 501.1,253.7 '/>
		<polygon fill = 'rgb( 31, 120, 180)' fill-opacity = '0.250000' points = '501.1,253.7 501.1,662.4 502.9,662.4 502.9,250.5 '/>
		<polygon fill = 'rgb( 31, 120, 180)' fill-opacity = '0.250000' points = '502.9,250.5 502.9,662.4 504.8,662.4 504.8,247.2 '/>
		<polygon fill = 'rgb( 31, 120, 180)' fill-opacity = '0.250000' points = '504.8,247.2 504.8,662.4 506.7,662.4 506.7,243.9 '/>
		<polygon fill = 'rgb( 31, 120, 180)' fill-opacity = '0.250000' points = '506.7,243.9 506.7,662.4 508.6,662.4 508.6,240.4 '/>
		<polygon fill = 'rgb( 31, 120, 180)' fill-opacity = '0.250000' points = '508.6,240.4 508.6,662.4 510.4,662.4 510.4,237.0 '/>
		<polygon fill = 'rgb( 31, 120, 180)' fill-opacity = '0.250000' points = '510.4,237.0 510.4,662.4 512.3,662.4 512.3,233.4 '/>
		<polygon fill = 'rgb( 31, 120, 180)' fill-opacity = '0.250000' points = '512.3,233.4 512.3,662.4 514.2,662.4 514.2,229.8 '/>
		<polygon fill = 'rgb( 31, 120, 180)' fill-opacity = '0.250000' points = '514.2,229.8 514.2,662.4 516.0,662.4 516.0,226.2 '/>
		<polygon fill = 'rgb( 31, 120, 180)' fill-opacity = '0.250000' points = '516.0,226.2 516.0,662.4 517.9,662.4 517.9,222.5 '/>
		<polygon fill = 'rgb( 31, 120, 180)' fill-opacity = '0.250000' points = '517.9,222.5 517.9,662.4 519.8,662.4 519.8,218.9 '/>
		<polygon fill = 'rgb( 31, 120, 180)' fill-opacity = '0.250000' points = '519.8,218.9 519.8,662.4 521.6,662.4 521.6,215.2 '/>
		<polygon fill = 'rgb( 31, 120, 180)' fill-opacity = '0.250000' points = '521.6,215.2 521.6,662.4 523.5,662.4 523.5,211.5 '/>
		<polygon fill = 'rgb( 31, 120, 180)' fill-opacity = '0.250000' points = '523.5,211.5 523.5,662.4 525.4,662.4 525.4,207.8 '/>
		<polygon fill = 'rgb( 31, 120, 180)' fill-opacity = '0.250000' points = '525.4,207.8 525.4,662.4 527.3,662.4 527.3,204.1 '/>
		<polygon fill = 'rgb( 31, 120, 180)' fill-opacity = '0.250000' points = '527.3,204.1 527.3,662.4 529.1,662.4 529.1,200.4 '/>
		<polygon fill = 'rgb( 31, 120, 180)' fill-opacity = '0.250000' points = '529.1,200.4 529.1,662.4 531.0,662.4 531.0,196.7 '/>
		<polygon fill = 'rgb( 31, 120, 180)' fill-opacity = '0.250000' points = '531.0,196.7 531.0,662.4 532.9,662.4 532.9,193.1 '/>
		<polygon fill = 'rgb( 31, 120, 180)' fill-opacity = '0.250000' points = '532.9,193.1 532.9,662.4 534.7,662.4 534.7,189.4 '/>
		<polygon fill = 'rgb( 31, 120, 180)' fill-opacity = '0.250000' points = '534.7,189.4 534.7,662.4 536.6,662.4 536.6,185.8 '/>
		<polygon fill = 'rgb( 31, 120, 180)' fill-opacity = '0.250000' points = '536.6,185.8 536.6,662.4 538.5,662.4 538.5,182.2 '/>
		<polygon fill = 'rgb( 31, 120, 180)' fill-opacity = '0.250000' points = '538.5,182.2 538.5,662.4 540.4,662.4 540.4,178.6 '/>
		<polygon fill = 'rgb( 31, 120, 180)' fill-opacity = '0.250000' points = '540.4,178.6 540.4,662.4 542.2,662.4 542.2,175.0 '/>
		<polygon fill = 'rgb( 31, 120, 180)' fill-opacity = '0.250000' points = '542.2,175.0 542.2,662.4 544.1,662.4 544.1,171.4 '/>
		<polygon fill = 'rgb( 31, 120, 180)' fill-opacity = '0.250000' points = '544.1,171.4 544.1,662.4 546.0,662.4 546.0,167.8 '/>
		<polygon fill = 'rgb( 31, 120, 180)' fill-opacity = '0.250000' points = '546.0,167.8 546.0,662.4 547.8,662.4 547.8,164.2 '/>
		<polygon fill = 'rgb( 31, 120, 180)' fill-opacity = '0.250000' points = '547.8,164.2 547.8,662.4 549.7,662.4 549.7,160.6 '/>
		<polygon fill = 'rgb( 31, 120, 180)' fill-opacity = '0.250000' points = '549.7,160.6 549.7,662.4 551.6,662.4 551.6,157.0 '/>
		<polygon fill = 'rgb( 31, 120, 180)' fill-opacity = '0.250000' points = '551.6,157.0 551.6,662.4 553.4,662.4 553.4,153.5 '/>
		<polygon fill = 'rgb( 31, 120, 180)' fill-opacity = '0.250000' points = '553.4,153.5 553.4,662.4 555.3,662.4 555.3,149.9 '/>
		<polygon fill = 'rgb( 31, 120, 180)' fill-opacity = '0.250000' points = '555.3,149.9 555.3,662.4 557.2,662.4 557.2,146.4 '/>
		<polygon fill = 'rgb( 31, 120, 180)' fill-opacity = '0.250000' points = '557.2,146.4 557.2,662.4 559.1,662.4 559.1,143.0 '/>
		<polygon fill = 'rgb( 31, 120, 180)' fill-opacity = '0.250000' points = '559.1,143.0 559.1,662.4 560.9,662.4 560.9,139.6 '/>
		<polygon fill = 'rgb( 31, 120, 180)' fill-opacity = '0.250000' points = '560.9,139.6 560.9,662.4 562.8,662.4 562.8,136.2 '/>
		<polygon fill = 'rgb( 31, 120, 180)' fill-opacity = '0.250000' points = '562.8,136.2 562.8,662.4 564.7,662.4 564.7,132.9 '/>
		<polygon fill = 'rgb( 31, 120, 180)' fill-opacity = '0.250000' points = '564.7,132.9 564.7,662.4 566.5,662.4 566.5,129.8 '/>
		<polygon fill = 'rgb( 31, 120, 180)' fill-opacity = '0.250000' points = '566.5,129.8 566.5,662.4 568.4,662.4 568.4,126.7 '/>
		<polygon fill = 'rgb( 31, 120, 180)' fill-opacity = '0.250000' points = '568.4,126.7 568.4,662.4 570.3,662.4 570.3,123.8 '/>
		<polygon fill = 'rgb( 31, 120, 180)' fill-opacity = '0.250000' points = '570.3,123.8 570.3,662.4 572.2,662.4 572.2,120.9 '/>
		<polygon fill = 'rgb( 31, 120, 180)' fill-opacity = '0.250000' points = '572.2,120.9 572.2,662.4 574.0,662.4 574.0,118.3 '/>
		<polygon fill = 'rgb( 31, 120, 180)' fill-opacity = '0.250000' points = '574.0,118.3 574.0,662.4 575.9,662.4 575.9,115.8 '/>
		<polygon fill = 'rgb( 31, 120, 180)' fill-opacity = '0.250000' points = '575.9,115.8 575.9,662.4 577.8,662.4 577.8,113.4 '/>
		<polygon fill = 'rgb( 31, 120, 180)' fill-opacity = '0.250000' points = '577.8,113.4 577.8,662.4 579.6,662.4 579.6,111.2 '/>
		<polygon fill = 'rgb( 31, 120, 180)' fill-opacity = '0.250000' points = '579.6,111.2 579.6,662.4 581.5,662.4 581.5,109.2 '/>
		<polygon fill = 'rgb( 31, 120, 180)' fill-opacity = '0.250000' points = '581.5,109.2 581.5,662.4 583.4,662.4 583.4,107.3 '/>
		<polygon fill = 'rgb( 31, 120, 180)' fill-opacity = '0.250000' points = '583.4,107.3 583.4,662.4 585.2,662.4 585.2,105.7 '/>
		<polygon fill = 'rgb( 31, 120, 180)' fill-opacity = '0.250000' points = '585.2,105.7 585.2,662.4 587.1,662.4 587.1,104.2 '/>
		<polygon fill = 'rgb( 31, 120, 180)' fill-opacity = '0.250000' points = '587.1,104.2 587.1,662.4 589.0,662.4 589.0,102.8 '/>
		<polygon fill = 'rgb( 31, 120, 180)' fill-opacity = '0.250000' points = '589.0,102.8 589.0,662.4 590.9,662.4 590.9,101.6 '/>
		<polygon fill = 'rgb( 31, 120, 180)' fill-opacity = '0.250000' points = '590.9,101.6 590.9,662.4 592.7,662.4 592.7,100.6 '/>
		<polygon fill = 'rgb( 31, 120, 180)' fill-opacity = '0.250000' points = '592.7,100.6 592.7,662.4 594.6,662.4 594.6,99.7 '/>
		<polygon fill = 'rgb( 31, 120, 180)' fill-opacity = '0.250000' points = '594.6,99.7 594.6,662.4 596.5,662.4 596.5,99.0 '/>
		<polygon fill = 'rgb( 31, 120, 180)' fill-opacity = '0.250000' points = '596.5,99.0 596.5,662.4 598.3,662.4 598.3,98.4 '/>
		<polygon fill = 'rgb( 31, 120, 180)' fill-opacity = '0.250000' points = '598.3,98.4 598.3,662.4 600.2,662.4 600.2,98.0 '/>
		<polygon fill = 'rgb( 31, 120, 180)' fill-opacity = '0.250000' points = '600.2,98.0 600.2,662.4 602.1,662.4 602.1,97.7 '/>
		<polygon fill = 'rgb( 31, 120, 180)' fill-opacity = '0.250000' points = '602.1,97.7 602.1,662.4 604.0,662.4 604.0,97.6 '/>
		<polygon fill = 'rgb( 31, 120, 180)' fill-opacity = '0.250000' points = '604.0,97.6 604.0,662.4 605.8,662.4 605.8,97.6 '/>
		<polygon fill = 'rgb( 31, 120, 180)' fill-opacity = '0.250000' points = '605.8,97.6 605.8,662.4 607.7,662.4 607.7,97.8 '/>
		<polygon fill = 'rgb( 31, 120, 180)' fill-opacity = '0.250000' points = '607.7,97.8 607.7,662.4 609.6,662.4 609.6,98.2 '/>
		<polygon fill = 'rgb( 31, 120, 180)' fill-opacity = '0.250000' points = '609.6,98.2 609.6,662.4 611.4,662.4 611.4,98.7 '/>
		<polygon fill = 'rgb( 31, 120, 180)' fill-opacity = '0.250000' points = '611.4,98.7 611.4,662.4 613.3,662.4 613.3,99.5 '/>
		<polygon fill = 'rgb( 31, 120, 180)' fill-opacity = '0.250000' points = '613.3,99.5 613.3,662.4 615.2,662.4 615.2,100.4 '/>
		<polygon fill = 'rgb( 31, 120, 180)' fill-opacity = '0.250000' points = '615.2,100.4 615.2,662.4 617.0,662.4 617.0,101.6 '/>
		<polygon fill = 'rgb( 31, 120, 180)' fill-opacity = '0.250000' points = '617.0,101.6 617.0,662.4 618.9,662.4 618.9,102.9 '/>
		<polygon fill = 'rgb( 31, 120, 180)' fill-opacity = '0.250000' points = '618.9,102.9 618.9,662.4 620.8,662.4 620.8,104.5 '/>
		<polygon fill = 'rgb( 31, 120, 180)' fill-opacity = '0.250000' points = '620.8,104.5 620.8,662.4 622.7,662.4 622.7,106.2 '/>
		<polygon fill = 'rgb( 31, 120, 180)' fill-opacity = '0.250000' points = '622.7,106.2 622.7,662.4 624.5,662.4 624.5,108.2 '/>
		<polygon fill = 'rgb( 31, 120, 180)' fill-opacity = '0.250000' points = '624.5,108.2 624.5,662.4 626.4,662.4 626.4,110.4 '/>
		<polygon fill = 'rgb( 31, 120, 180)' fill-opacity = '0.250000' points = '626.4,110.4 626.4,662.4 628.3,662.4 628.3,112.9 '/>
		<polygon fill = 'rgb( 31, 120, 180)' fill-opacity = '0.250000' points = '628.3,112.9 628.3,662.4 630.1,662.4 630.1,115.5 '/>
		<polygon fill = 'rgb( 31, 120, 180)' fill-opacity = '0.250000' points = '630.1,115.5 630.1,662.4 632.0,662.4 632.0,118.3 '/>
		<polygon fill = 'rgb( 31, 120, 180)' fill-opacity = '0.250000' points = '632.0,118.3 632.0,662.4 633.9,662.4 633.9,121.3 '/>
		<polygon fill = 'rgb( 31, 120, 180)' fill-opacity = '0.250000' points = '633.9,121.3 633.9,662.4 635.8,662.4 635.8,124.5 '/>
		<polygon fill = 'rgb( 31, 120, 180)' fill-opacity = '0.250000' points = '635.8,124.5 635.8,662.4 637.6,662.4 637.6,127.9 '/>
		<polygon fill = 'rgb( 31, 120, 180)' fill-opacity = '0.250000' points = '637.6,127.9 637.6,662.4 639.5,662.4 639.5,131.4 '/>
		<polygon fill = 'rgb( 31, 120, 180)' fill-opacity = '0.250000' points = '639.5,131.4 639.5,662.4 641.4,662.4 641.4,135.1 '/>
		<polygon fill = 'rgb( 31, 120, 180)' fill-opacity = '0.250000' points = '641.4,135.1 641.4,662.4 643.2,662.4 643.2,138.9 '/>
		<polygon fill = 'rgb( 31, 120, 180)' fill-opacity = '0.250000' points = '643.2,138.9 643.2,662.4 645.1,662.4 645.1,142.9 '/>
		<polygon fill = 'rgb( 31, 120, 180)' fill-opacity = '0.250000' points = '645.1,142.9 645.1,662.4 647.0,662.4 647.0,147.0 '/>
		<polygon fill = 'rgb( 31, 120, 180)' fill-opacity = '0.250000' points = '647.0,147.0 647.0,662.4 648.8,662.4 648.8,151.1 '/>
		<polygon fill = 'rgb( 31, 120, 180)' fill-opacity = '0.250000' points = '648.8,151.1 648.8,662.4 650.7,662.4 650.7,155.4 '/>
		<polygon fill = 'rgb( 31, 120, 180)' fill-opacity = '0.250000' points = '650.7,155.4 650.7,662.4 652.6,662.4 652.6,159.8 '/>
		<polygon fill = 'rgb( 31, 120, 180)' fill-opacity = '0.250000' points = '652.6,159.8 652.6,662.4 654.5,662.4 654.5,164.2 '/>
		<polygon fill = 'rgb( 31, 120, 180)' fill-opacity = '0.250000' points = '654.5,164.2 654.5,662.4 656.3,662.4 656.3,168.6 '/>
		<polygon fill = 'rgb( 31, 120, 180)' fill-opacity = '0.250000' points = '656.3,168.6 656.3,662.4 658.2,662.4 658.2,173.1 '/>
		<polygon fill = 'rgb( 31, 120, 180)' fill-opacity = '0.250000' points = '658.2,173.1 658.2,662.4 660.1,662.4 660.1,177.6 '/>
		<polygon fill = 'rgb( 31, 120, 180)' fill-opacity = '0.250000' points = '660.1,177.6 660.1,662.4 661.9,662.4 661.9,182.1 '/>
		<polygon fill = 'rgb( 31, 120, 180)' fill-opacity = '0.250000' points = '661.9,182.1 661.9,662.4 663.8,662.4 663.8,186.5 '/>
		<polygon fill = 'rgb( 31, 120, 180)' fill-opacity = '0.250000' points = '663.8,186.5 663.8,662.4 665.7,662.4 665.7,191.0 '/>
		<polygon fill = 'rgb( 31, 120, 180)' fill-opacity = '0.250000' points = '665.7,191.0 665.7,662.4 667.5,662.4 667.5,195.4 '/>
		<polygon fill = 'rgb( 31, 120, 180)' fill-opacity = '0.250000' points = '667.5,195.4 667.5,662.4 669.4,662.4 669.4,199.7 '/>
		<polygon fill = 'rgb( 31, 120, 180)' fill-opacity = '0.250000' points = '669.4,199.7 669.4,662.4 671.3,662.4 671.3,204.0 '/>
		<polygon fill = 'rgb( 31, 120, 180)' fill-opacity = '0.250000' points = '671.3,204.0 671.3,662.4 673.2,662.4 673.2,208.2 '/>
		<polygon fill = 'rgb( 31, 120, 180)' fill-opacity = '0.250000' points = '673.2,208.2 673.2,662.4 675.0,662.4 675.0,212.3 '/>
		<polygon fill = 'rgb( 31, 120, 180)' fill-opacity = '0.250000' points = '675.0,212.3 675.0,662.4 676.9,662.4 676.9,216.3 '/>
		<polygon fill = 'rgb( 31, 120, 180)' fill-opacity = '0.250000' points = '676.9,216.3 676.9,662.4 678.8,662.4 678.8,220.3 '/>
		<polygon fill = 'rgb( 31, 120, 180)' fill-opacity = '0.250000' points = '678.8,220.3 678.8,662.4 680.6,662.4 680.6,224.1 '/>
		<polygon fill = 'rgb( 31, 120, 180)' fill-opacity = '0.250000' points = '680.6,224.1 680.6,662.4 682.5,662.4 682.5,227.9 '/>
		<polygon fill = 'rgb( 31, 120, 180)' fill-opacity = '0.250000' points = '682.5,227.9 682.5,662.4 684.4,662.4 684.4,231.6 '/>
		<polygon fill = 'rgb( 31, 120, 180)' fill-opacity = '0.250000' points = '684.4,231.6 684.4,662.4 686.3,662.4 686.3,235.3 '/>
		<polygon fill = 'rgb( 31, 120, 180)' fill-opacity = '0.250000' points = '686.3,235.3 686.3,662.4 688.1,662.4 688.1,238.9 '/>
		<polygon fill = 'rgb( 31, 120, 180)' fill-opacity = '0.250000' points = '688.1,238.9 688.1,662.4 690.0,662.4 690.0,242.5 '/>
		<polygon fill = 'rgb( 31, 120, 180)' fill-opacity = '0.250000' points = '690.0,242.5 690.0,662.4 691.9,662.4 691.9,246.0 '/>
		<polygon fill = 'rgb( 31, 120, 180)' fill-opacity = '0.250000' points = '691.9,246.0 691.9,662.4 693.7,662.4 693.7,249.6 '/>
		<polygon fill = 'rgb( 31, 120, 180)' fill-opacity = '0.250000' points = '693.7,249.6 693.7,662.4 695.6,662.4 695.6,253.2 '/>
		<polygon fill = 'rgb( 31, 120, 180)' fill-opacity = '0.250000' points = '695.6,253.2 695.6,662.4 697.5,662.4 697.5,256.7 '/>
		<polygon fill = 'rgb( 31, 120, 180)' fill-opacity = '0.250000' points = '697.5,256.7 697.5,662.4 699.3,662.4 699.3,260.4 '/>
		<polygon fill = 'rgb( 31, 120, 180)' fill-opacity = '0.250000' points = '699.3,260.4 699.3,662.4 701.2,662.4 701.2,264.0 '/>
		<polygon fill = 'rgb( 31, 120, 180)' fill-opacity = '0.250000' points = '701.2,264.0 701.2,662.4 703.1,662.4 703.1,267.7 '/>
		<polygon fill = 'rgb( 31, 120, 180)' fill-opacity = '0.250000' points = '703.1,267.7 703.1,662.4 705.0,662.4 705.0,271.5 '/>
		<polygon fill = 'rgb( 31, 120, 180)' fill-opacity = '0.250000' points = '705.0,271.5 705.0,662.4 706.8,662.4 706.8,275.3 '/>
		<polygon fill = 'rgb( 31, 120, 180)' fill-opacity = '0.250000' points = '706.8,275.3 706.8,662.4 708.7,662.4 708.7,279.2 '/>
		<polygon fill = 'rgb( 31, 120, 180)' fill-opacity = '0.250000' points = '708.7,279.2 708.7,662.4 710.6,662.4 710.6,283.0 '/>
		<polygon fill = 'rgb( 31, 120, 180)' fill-opacity = '0.250000' points = '710.6,283.0 710.6,662.4 712.4,662.4 712.4,286.9 '/>
		<polygon fill = 'rgb( 31, 120, 180)' fill-opacity = '0.250000' points = '712.4,286.9 712.4,662.4 714.3,662.4 714.3,290.8 '/>
		<polygon fill = 'rgb( 31, 120, 180)' fill-opacity = '0.250000' points = '714.3,290.8 714.3,662.4 716.2,662.4 716.2,294.7 '/>
		<polygon fill = 'rgb( 31, 120, 180)' fill-opacity = '0.250000' points = '716.2,294.7 716.2,662.4 718.1,662.4 718.1,298.6 '/>
		<polygon fill = 'rgb( 31, 120, 180)' fill-opacity = '0.250000' points = '718.1,298.6 718.1,662.4 719.9,662.4 719.9,302.4 '/>
		<polygon fill = 'rgb( 31, 120, 180)' fill-opacity = '0.250000' points = '719.9,302.4 719.9,662.4 721.8,662.4 721.8,306.2 '/>
		<polygon fill = 'rgb( 31, 120, 180)' fill-opacity = '0.250000' points = '721.8,306.2 721.8,662.4 723.7,662.4 723.7,309.9 '/>
		<polygon fill = 'rgb( 31, 120, 180)' fill-opacity = '0.250000' points = '723.7,309.9 723.7,662.4 725.5,662.4 725.5,313.5 '/>
		<polygon fill = 'rgb( 31, 120, 180)' fill-opacity = '0.250000' points = '725.5,313.5 725.5,662.4 727.4,662.4 727.4,317.0 '/>
		<polygon fill = 'rgb( 31, 120, 180)' fill-opacity = '0.250000' points = '727.4,317.0 727.4,662.4 729.3,662.4 729.3,320.4 '/>
		<polygon fill = 'rgb( 31, 120, 180)' fill-opacity = '0.250000' points = '729.3,320.4 729.3,662.4 731.1,662.4 731.1,323.6 '/>
		<polygon fill = 'rgb( 31, 120, 180)' fill-opacity = '0.250000' points = '731.1,323.6 731.1,662.4 733.0,662.4 733.0,326.8 '/>
		<polygon fill = 'rgb( 31, 120, 180)' fill-opacity = '0.250000' points = '733.0,326.8 733.0,662.4 734.9,662.4 734.9,329.8 '/>
		<polygon fill = 'rgb( 31, 120, 180)' fill-opacity = '0.250000' points = '734.9,329.8 734.9,662.4 736.8,662.4 736.8,332.7 '/>
		<polygon fill = 'rgb( 31, 120, 180)' fill-opacity = '0.250000' points = '736.8,332.7 736.8,662.4 738.6,662.4 738.6,335.5 '/>
		<polygon fill = 'rgb( 31, 120, 180)' fill-opacity = '0.250000' points = '738.6,335.5 738.6,662.4 740.5,662.4 740.5,338.1 '/>
		<polygon fill = 'rgb( 31, 120, 180)' fill-opacity = '0.250000' points = '740.5,338.1 740.5,662.4 742.4,662.4 742.4,340.7 '/>
		<polygon fill = 'rgb( 31, 120, 180)' fill-opacity = '0.250000' points = '742.4,340.7 742.4,662.4 744.2,662.4 744.2,343.2 '/>
		<polygon fill = 'rgb( 31, 120, 180)' fill-opacity = '0.250000' points = '744.2,343.2 744.2,662.4 746.1,662.4 746.1,345.7 '/>
		<polygon fill = 'rgb( 31, 120, 180)' fill-opacity = '0.250000' points = '746.1,345.7 746.1,662.4 748.0,662.4 748.0,348.1 '/>
		<polygon fill = 'rgb( 31, 120, 180)' fill-opacity = '0.250000' points = '748.0,348.1 748.0,662.4 749.9,662.4 749.9,350.4 '/>
		<polygon fill = 'rgb( 31, 120, 180)' fill-opacity = '0.250000' points = '749.9,350.4 749.9,662.4 751.7,662.4 751.7,352.7 '/>
		<polygon fill = 'rgb( 31, 120, 180)' fill-opacity = '0.250000' points = '751.7,352.7 751.7,662.4 753.6,662.4 753.6,355.0 '/>
		<polygon fill = 'rgb( 31, 120, 180)' fill-opacity = '0.250000' points = '753.6,355.0 753.6,662.4 755.5,662.4 755.5,357.2 '/>
		<polygon fill = 'rgb( 31, 120, 180)' fill-opacity = '0.250000' points = '755.5,357.2 755.5,662.4 757.3,662.4 757.3,359.5 '/>
		<polygon fill = 'rgb( 31, 120, 180)' fill-opacity = '0.250000' points = '757.3,359.5 757.3,662.4 759.2,662.4 759.2,361.7 '/>
		<polygon fill = 'rgb( 31, 120, 180)' fill-opacity = '0.250000' points = '759.2,361.7 759.2,662.4 761.1,662.4 761.1,363.9 '/>
		<polygon fill = 'rgb( 31, 120, 180)' fill-opacity = '0.250000' points = '761.1,363.9 761.1,662.4 762.9,662.4 762.9,366.2 '/>
		<polygon fill = 'rgb( 31, 120, 180)' fill-opacity = '0.250000' points = '762.9,366.2 762.9,662.4 764.8,662.4 764.8,368.4 '/>
		<polygon fill = 'rgb( 31, 120, 180)' fill-opacity = '0.250000' points = '764.8,368.4 764.8,662.4 766.7,662.4 766.7,370.7 '/>
		<polygon fill = 'rgb( 31, 120, 180)' fill-opacity = '0.250000' points = '766.7,370.7 766.7,662.4 768.6,662.4 768.6,373.0 '/>
		<polygon fill = 'rgb( 31, 120, 180)' fill-opacity = '0.250000' points = '768.6,373.0 768.6,662.4 770.4,662.4 770.4,375.3 '/>
		<polygon fill = 'rgb( 31, 120, 180)' fill-opacity = '0.250000' points = '770.4,375.3 770.4,662.4 772.3,662.4 772.3,377.6 '/>
		<polygon fill = 'rgb( 31, 120, 180)' fill-opacity = '0.250000' points = '772.3,377.6 772.3,662.4 774.2,662.4 774.2,379.9 '/>
		<polygon fill = 'rgb( 31, 120, 180)' fill-opacity = '0.250000' points = '774.2,379.9 774.2,662.4 776.0,662.4 776.0,382.2 '/>
		<polygon fill = 'rgb( 31, 120, 180)' fill-opacity = '0.250000' points = '776.0,382.2 776.0,662.4 777.9,662.4 777.9,384.6 '/>
		<polygon fill = 'rgb( 31, 120, 180)' fill-opacity = '0.250000' points = '777.9,384.6 777.9,662.4 779.8,662.4 779.8,387.0 '/>
		<polygon fill = 'rgb( 31, 120, 180)' fill-opacity = '0.250000' points = '779.8,387.0 779.8,662.4 781.7,662.4 781.7,389.4 '/>
		<polygon fill = 'rgb( 31, 120, 180)' fill-opacity = '0.250000' points = '781.7,389.4 781.7,662.4 783.5,662.4 783.5,391.8 '/>
		<polygon fill = 'rgb( 31, 120, 180)' fill-opacity = '0.250000' points = '783.5,391.8 783.5,662.4 785.4,662.4 785.4,394.2 '/>
		<polygon fill = 'rgb( 31, 120, 180)' fill-opacity = '0.250000' points = '785.4,394.2 785.4,662.4 787.3,662.4 787.3,396.6 '/>
		<polygon fill = 'rgb( 31, 120, 180)' fill-opacity = '0.250000' points = '787.3,396.6 787.3,662.4 789.1,662.4 789.1,399.0 '/>
		<polygon fill = 'rgb( 31, 120, 180)' fill-opacity = '0.250000' points = '789.1,399.0 789.1,662.4 791.0,662.4 791.0,401.5 '/>
		<polygon fill = 'rgb( 31, 120, 180)' fill-opacity = '0.250000' points = '791.0,401.5 791.0,662.4 792.9,662.4 792.9,403.9 '/>
		<polygon fill = 'rgb( 31, 120, 180)' fill-opacity = '0.250000' points = '792.9,403.9 792.9,662.4 794.7,662.4 794.7,406.4 '/>
		<polygon fill = 'rgb( 31, 120, 180)' fill-opacity = '0.250000' points = '794.7,406.4 794.7,662.4 796.6,662.4 796.6,408.8 '/>
		<polygon fill = 'rgb( 31, 120, 180)' fill-opacity = '0.250000' points = '796.6,408.8 796.6,662.4 798.5,662.4 798.5,411.2 '/>
		<polygon fill = 'rgb( 31, 120, 180)' fill-opacity = '0.250000' points = '798.5,411.2 798.5,662.4 800.4,662.4 800.4,413.6 '/>
		<polygon fill = 'rgb( 31, 120, 180)' fill-opacity = '0.250000' points = '800.4,413.6 800.4,662.4 802.2,662.4 802.2,416.0 '/>
		<polygon fill = 'rgb( 31, 120, 180)' fill-opacity = '0.250000' points = '802.2,416.0 802.2,662.4 804.1,662.4 804.1,418.4 '/>
		<polygon fill = 'rgb( 31, 120, 180)' fill-opacity = '0.250000' points = '804.1,418.4 804.1,662.4 806.0,662.4 806.0,420.7 '/>
		<polygon fill = 'rgb( 31, 120, 180)' fill-opacity = '0.250000' points = '806.0,420.7 806.0,662.4 807.8,662.4 807.8,423.0 '/>
		<polygon fill = 'rgb( 31, 120, 180)' fill-opacity = '0.250000' points = '807.8,423.0 807.8,662.4 809.7,662.4 809.7,425.3 '/>
		<polygon fill = 'rgb( 31, 120, 180)' fill-opacity = '0.250000' points = '809.7,425.3 809.7,662.4 811.6,662.4 811.6,427.5 '/>
		<polygon fill = 'rgb( 31, 120, 180)' fill-opacity = '0.250000' points = '811.6,427.5 811.6,662.4 813.5,662.4 813.5,429.7 '/>
		<polygon fill = 'rgb( 31, 120, 180)' fill-opacity = '0.250000' points = '813.5,429.7 813.5,662.4 815.3,662.4 815.3,431.8 '/>
		<polygon fill = 'rgb( 31, 120, 180)' fill-opacity = '0.250000' points = '815.3,431.8 815.3,662.4 817.2,662.4 817.2,433.9 '/>
		<polygon fill = 'rgb( 31, 120, 180)' fill-opacity = '0.250000' points = '817.2,433.9 817.2,662.4 819.1,662.4 819.1,436.0 '/>
		<polygon fill = 'rgb( 31, 120, 180)' fill-opacity = '0.250000' points = '819.1,436.0 819.1,662.4 820.9,662.4 820.9,438.0 '/>
		<polygon fill = 'rgb( 31, 120, 180)' fill-opacity = '0.250000' points = '820.9,438.0 820.9,662.4 822.8,662.4 822.8,440.0 '/>
		<polygon fill = 'rgb( 31, 120, 180)' fill-opacity = '0.250000' points = '822.8,440.0 822.8,662.4 824.7,662.4 824.7,441.9 '/>
		<polygon fill = 'rgb( 31, 120, 180)' fill-opacity = '0.250000' points = '824.7,441.9 824.7,662.4 826.5,662.4 826.5,443.8 '/>
		<polygon fill = 'rgb( 31, 120, 180)' fill-opacity = '0.250000' points = '826.5,443.8 826.5,662.4 828.4,662.4 828.4,445.7 '/>
		<polygon fill = 'rgb( 31, 120, 180)' fill-opacity = '0.250000' points = '828.4,445.7 828.4,662.4 830.3,662.4 830.3,447.6 '/>
		<polygon fill = 'rgb( 31, 120, 180)' fill-opacity = '0.250000' points = '830.3,447.6 830.3,662.4 832.2,662.4 832.2,449.4 '/>
		<polygon fill = 'rgb( 31, 120, 180)' fill-opacity = '0.250000' points = '832.2,449.4 832.2,662.4 834.0,662.4 834.0,451.3 '/>
		<polygon fill = 'rgb( 31, 120, 180)' fill-opacity = '0.250000' points = '834.0,451.3 834.0,662.4 835.9,662.4 835.9,453.1 '/>
		<polygon fill = 'rgb( 31, 120, 180)' fill-opacity = '0.250000' points = '835.9,453.1 835.9,662.4 837.8,662.4 837.8,454.9 '/>
		<polygon fill = 'rgb( 31, 120, 180)' fill-opacity = '0.250000' points = '837.8,454.9 837.8,662.4 839.6,662.4 839.6,456.8 '/>
		<polygon fill = 'rgb( 31, 120, 180)' fill-opacity = '0.250000' points = '839.6,456.8 839.6,662.4 841.5,662.4 841.5,458.6 '/>
		<polygon fill = 'rgb( 31, 120, 180)' fill-opacity = '0.250000' points = '841.5,458.6 841.5,662.4 843.4,662.4 843.4,460.4 '/>
		<polygon fill = 'rgb( 31, 120, 180)' fill-opacity = '0.250000' points = '843.4,460.4 843.4,662.4 845.3,662.4 845.3,462.2 '/>
		<polygon fill = 'rgb( 31, 120, 180)' fill-opacity = '0.250000' points = '845.3,462.2 845.3,662.4 847.1,662.4 847.1,464.0 '/>
		<polygon fill = 'rgb( 31, 120, 180)' fill-opacity = '0.250000' points = '847.1,464.0 847.1,662.4 849.0,662.4 849.0,465.8 '/>
		<polygon fill = 'rgb( 31, 120, 180)' fill-opacity = '0.250000' points = '849.0,465.8 849.0,662.4 850.9,662.4 850.9,467.6 '/>
		<polygon fill = 'rgb( 31, 120, 180)' fill-opacity = '0.250000' points = '850.9,467.6 850.9,662.4 852.7,662.4 852.7,469.4 '/>
		<polygon fill = 'rgb( 31, 120, 180)' fill-opacity = '0.250000' points = '852.7,469.4 852.7,662.4 854.6,662.4 854.6,471.2 '/>
		<polygon fill = 'rgb( 31, 120, 180)' fill-opacity = '0.250000' points = '854.6,471.2 854.6,662.4 856.5,662.4 856.5,473.0 '/>
		<polygon fill = 'rgb( 31, 120, 180)' fill-opacity = '0.250000' points = '856.5,473.0 856.5,662.4 858.3,662.4 858.3,474.8 '/>
		<polygon fill = 'rgb( 31, 120, 180)' fill-opacity = '0.250000' points = '858.3,474.8 858.3,662.4 860.2,662.4 860.2,476.5 '/>
		<polygon fill = 'rgb( 31, 120, 180)' fill-opacity = '0.250000' points = '860.2,476.5 860.2,662.4 862.1,662.4 862.1,478.3 '/>
		<polygon fill = 'rgb( 31, 120, 180)' fill-opacity = '0.250000' points = '862.1,478.3 862.1,662.4 864.0,662.4 864.0,480.1 '/>
		<polygon fill = 'rgb( 31, 120, 180)' fill-opacity = '0.250000' points = '864.0,480.1 864.0,662.4 865.8,662.4 865.8,481.9 '/>
		<polygon fill = 'rgb( 31, 120, 180)' fill-opacity = '0.250000' points = '865.8,481.9 865.8,662.4 867.7,662.4 867.7,483.7 '/>
		<polygon fill = 'rgb( 31, 120, 180)' fill-opacity = '0.250000' points = '867.7,483.7 867.7,662.4 869.6,662.4 869.6,485.4 '/>
		<polygon fill = 'rgb( 31, 120, 180)' fill-opacity = '0.250000' points = '869.6,485.4 869.6,662.4 871.4,662.4 871.4,487.2 '/>
		<polygon fill = 'rgb( 31, 120, 180)' fill-opacity = '0.250000' points = '871.4,487.2 871.4,662.4 873.3,662.4 873.3,489.0 '/>
		<polygon fill = 'rgb( 31, 120, 180)' fill-opacity = '0.250000' points = '873.3,489.0 873.3,662.4 875.2,662.4 875.2,490.8 '/>
		<polygon fill = 'rgb( 31, 120, 180)' fill-opacity = '0.250000' points = '875.2,490.8 875.2,662.4 877.1,662.4 877.1,492.6 '/>
		<polygon fill = 'rgb( 31, 120, 180)' fill-opacity = '0.250000' points = '877.1,492.6 877.1,662.4 878.9,662.4 878.9,494.3 '/>
		<polygon fill = 'rgb( 31, 120, 180)' fill-opacity = '0.250000' points = '878.9,494.3 878.9,662.4 880.8,662.4 880.8,496.1 '/>
		<polygon fill = 'rgb( 31, 120, 180)' fill-opacity = '0.250000' points = '880.8,496.1 880.8,662.4 882.7,662.4 882.7,497.9 '/>
		<polygon fill = 'rgb( 31, 120, 180)' fill-opacity = '0.250000' points = '882.7,497.9 882.7,662.4 884.5,662.4 884.5,499.7 '/>
		<polygon fill = 'rgb( 31, 120, 180)' fill-opacity = '0.250000' points = '884.5,499.7 884.5,662.4 886.4,662.4 886.4,501.5 '/>
		<polygon fill = 'rgb( 31, 120, 180)' fill-opacity = '0.250000' points = '886.4,501.5 886.4,662.4 888.3,662.4 888.3,503.2 '/>
		<polygon fill = 'rgb( 31, 120, 180)' fill-opacity = '0.250000' points = '888.3,503.2 888.3,662.4 890.1,662.4 890.1,505.0 '/>
		<polygon fill = 'rgb( 31, 120, 180)' fill-opacity = '0.250000' points = '890.1,505.0 890.1,662.4 892.0,662.4 892.0,506.8 '/>
		<polygon fill = 'rgb( 31, 120, 180)' fill-opacity = '0.250000' points = '892.0,506.8 892.0,662.4 893.9,662.4 893.9,508.6 '/>
		<polygon fill = 'rgb( 31, 120, 180)' fill-opacity = '0.250000' points = '893.9,508.6 893.9,662.4 895.8,662.4 895.8,510.4 '/>
		<polygon fill = 'rgb( 31, 120, 180)' fill-opacity = '0.250000' points = '895.8,510.4 895.8,662.4 897.6,662.4 897.6,512.2 '/>
		<polygon fill = 'rgb( 31, 120, 180)' fill-opacity = '0.250000' points = '897.6,512.2 897.6,662.4 899.5,662.4 899.5,513.9 '/>
		<polygon fill = 'rgb( 31, 120, 180)' fill-opacity = '0.250000' points = '899.5,513.9 899.5,662.4 901.4,662.4 901.4,515.7 '/>
		<polygon fill = 'rgb( 31, 120, 180)' fill-opacity = '0.250000' points = '901.4,515.7 901.4,662.4 903.2,662.4 903.2,517.5 '/>
		<polygon fill = 'rgb( 31, 120, 180)' fill-opacity = '0.250000' points = '903.2,517.5 903.2,662.4 905.1,662.4 905.1,519.3 '/>
		<polygon fill = 'rgb( 31, 120, 180)' fill-opacity = '0.250000' points = '905.1,519.3 905.1,662.4 907.0,662.4 907.0,521.1 '/>
		<polygon fill = 'rgb( 31, 120, 180)' fill-opacity = '0.250000' points = '907.0,521.1 907.0,662.4 908.8,662.4 908.8,523.0 '/>
		<polygon fill = 'rgb( 31, 120, 180)' fill-opacity = '0.250000' points = '908.8,523.0 908.8,662.4 910.7,662.4 910.7,524.8 '/>
		<polygon fill = 'rgb( 31, 120, 180)' fill-opacity = '0.250000' points = '910.7,524.8 910.7,662.4 912.6,662.4 912.6,526.7 '/>
		<polygon fill = 'rgb( 31, 120, 180)' fill-opacity = '0.250000' points = '912.6,526.7 912.6,662.4 914.5,662.4 914.5,528.5 '/>
		<polygon fill = 'rgb( 31, 120, 180)' fill-opacity = '0.250000' points = '914.5,528.5 914.5,662.4 916.3,662.4 916.3,530.4 '/>
		<polygon fill = 'rgb( 31, 120, 180)' fill-opacity = '0.250000' points = '916.3,530.4 916.3,662.4 918.2,662.4 918.2,532.4 '/>
		<polygon fill = 'rgb( 31, 120, 180)' fill-opacity = '0.250000' points = '918.2,532.4 918.2,662.4 920.1,662.4 920.1,534.3 '/>
		<polygon fill = 'rgb( 31, 120, 180)' fill-opacity = '0.250000' points = '920.1,534.3 920.1,662.4 921.9,662.4 921.9,536.3 '/>
		<polygon fill = 'rgb( 31, 120, 180)' fill-opacity = '0.250000' points = '921.9,536.3 921.9,662.4 923.8,662.4 923.8,538.4 '/>
		<polygon fill = 'rgb( 31, 120, 180)' fill-opacity = '0.250000' points = '923.8,538.4 923.8,662.4 925.7,662.4 925.7,540.5 '/>
	</g>
</g>
	</g>
	<g id="gnuplot_plot_3" ><title>Point estimate</title>
<g fill="none" color="white" stroke="rgb( 31, 120, 180)" stroke-width="2.00" stroke-linecap="butt" stroke-linejoin="miter">
</g>
<g fill="none" color="black" stroke="currentColor" stroke-width="2.00" stroke-linecap="butt" stroke-linejoin="miter">
	<g transform="translate(1089.0,103.0)" stroke="none" fill="black" font-family="Helvetica" font-size="12.00"  text-anchor="start">
		<text><tspan font-family="Helvetica" >Point estimate</tspan></text>
	</g>
</g>
<g fill="none" color="black" stroke="currentColor" stroke-width="2.00" stroke-linecap="butt" stroke-linejoin="miter">
	<path stroke='rgb( 31, 120, 180)'  d='M1038.5,99.1 L1080.7,99.1 M598.4,662.4 L598.4,98.4  '/></g>
	</g>
	<g id="gnuplot_plot_4" ><title>Noise threshold</title>
<g fill="none" color="white" stroke="rgb( 31, 120, 180)" stroke-width="1.00" stroke-linecap="butt" stroke-linejoin="miter">
</g>
<g fill="none" color="black" stroke="currentColor" stroke-width="1.00" stroke-linecap="butt" stroke-linejoin="miter">
	<g transform="translate(1089.0,121.0)" stroke="none" fill="black" font-family="Helvetica" font-size="12.00"  text-anchor="start">
		<text><tspan font-family="Helvetica" >Noise threshold</tspan></text>
	</g>
</g>
<g fill="none" color="black" stroke="currentColor" stroke-width="1.00" stroke-linecap="butt" stroke-linejoin="miter">
	<g stroke='none' shape-rendering='crispEdges'>
		<polygon fill = 'rgb(227,  26,  28)' fill-opacity = '0.100000' points = '1038.5,121.6 1080.7,121.6 1080.7,112.6 1038.5,112.6 '/>
		<polygon fill = 'rgb(227,  26,  28)' fill-opacity = '0.100000' points = '546.9,54.1 546.9,662.4 546.9,662.4 546.9,54.1 '/>
	</g>
</g>
	</g>
<g fill="none" color="white" stroke="rgb(227,  26,  28)" stroke-width="2.00" stroke-linecap="butt" stroke-linejoin="miter">
</g>
<g fill="none" color="black" stroke="currentColor" stroke-width="2.00" stroke-linecap="butt" stroke-linejoin="miter">
</g>
<g fill="none" color="black" stroke="black" stroke-width="1.00" stroke-linecap="butt" stroke-linejoin="miter">
</g>
<g fill="none" color="black" stroke="currentColor" stroke-width="1.00" stroke-linecap="butt" stroke-linejoin="miter">
	<path stroke='black'  d='M80.2,54.1 L80.2,662.4 L1013.6,662.4 L1013.6,54.1 L80.2,54.1 Z  '/></g>
<g fill="none" color="black" stroke="currentColor" stroke-width="1.00" stroke-linecap="butt" stroke-linejoin="miter">
</g>
</g>
</svg>

