group,function,value,throughput_num,throughput_type,sample_measured_value,unit,iteration_count
dfs arena ghostcell vec mut,,,,,1512995.0,ns,1
dfs arena ghostcell vec mut,,,,,2703333.0,ns,2
dfs arena ghostcell vec mut,,,,,3955984.0,ns,3
dfs arena ghostcell vec mut,,,,,5165093.0,ns,4
dfs arena ghostcell vec mut,,,,,6332194.0,ns,5
dfs arena ghostcell vec mut,,,,,7539817.0,ns,6
dfs arena ghostcell vec mut,,,,,8535458.0,ns,7
dfs arena ghostcell vec mut,,,,,9863997.0,ns,8
dfs arena ghostcell vec mut,,,,,11052791.0,ns,9
dfs arena ghostcell vec mut,,,,,12016336.0,ns,10
dfs arena ghostcell vec mut,,,,,13120490.0,ns,11
dfs arena ghostcell vec mut,,,,,14660370.0,ns,12
dfs arena ghostcell vec mut,,,,,15926399.0,ns,13
dfs arena ghostcell vec mut,,,,,17006959.0,ns,14
dfs arena ghostcell vec mut,,,,,18155563.0,ns,15
dfs arena ghostcell vec mut,,,,,19404276.0,ns,16
dfs arena ghostcell vec mut,,,,,20021576.0,ns,17
dfs arena ghostcell vec mut,,,,,21274330.0,ns,18
dfs arena ghostcell vec mut,,,,,22835879.0,ns,19
dfs arena ghostcell vec mut,,,,,23919561.0,ns,20
dfs arena ghostcell vec mut,,,,,25004312.0,ns,21
dfs arena ghostcell vec mut,,,,,26238606.0,ns,22
dfs arena ghostcell vec mut,,,,,27030445.0,ns,23
dfs arena ghostcell vec mut,,,,,28572411.0,ns,24
dfs arena ghostcell vec mut,,,,,29272517.0,ns,25
dfs arena ghostcell vec mut,,,,,31014586.0,ns,26
dfs arena ghostcell vec mut,,,,,32124191.0,ns,27
dfs arena ghostcell vec mut,,,,,32637936.0,ns,28
dfs arena ghostcell vec mut,,,,,34196548.0,ns,29
dfs arena ghostcell vec mut,,,,,35681230.0,ns,30
dfs arena ghostcell vec mut,,,,,36639049.0,ns,31
dfs arena ghostcell vec mut,,,,,37951194.0,ns,32
dfs arena ghostcell vec mut,,,,,38733515.0,ns,33
dfs arena ghostcell vec mut,,,,,39915499.0,ns,34
dfs arena ghostcell vec mut,,,,,40811157.0,ns,35
dfs arena ghostcell vec mut,,,,,42197058.0,ns,36
dfs arena ghostcell vec mut,,,,,43162691.0,ns,37
dfs arena ghostcell vec mut,,,,,44024316.0,ns,38
dfs arena ghostcell vec mut,,,,,46392454.0,ns,39
dfs arena ghostcell vec mut,,,,,47511348.0,ns,40
dfs arena ghostcell vec mut,,,,,48451985.0,ns,41
dfs arena ghostcell vec mut,,,,,52809352.0,ns,42
dfs arena ghostcell vec mut,,,,,50304515.0,ns,43
dfs arena ghostcell vec mut,,,,,52041617.0,ns,44
dfs arena ghostcell vec mut,,,,,53103039.0,ns,45
dfs arena ghostcell vec mut,,,,,54213554.0,ns,46
dfs arena ghostcell vec mut,,,,,55860726.0,ns,47
dfs arena ghostcell vec mut,,,,,56263933.0,ns,48
dfs arena ghostcell vec mut,,,,,57472241.0,ns,49
dfs arena ghostcell vec mut,,,,,59444538.0,ns,50
dfs arena ghostcell vec mut,,,,,59378837.0,ns,51
dfs arena ghostcell vec mut,,,,,61253237.0,ns,52
dfs arena ghostcell vec mut,,,,,62512903.0,ns,53
dfs arena ghostcell vec mut,,,,,62415256.0,ns,54
dfs arena ghostcell vec mut,,,,,64649430.0,ns,55
dfs arena ghostcell vec mut,,,,,65605849.0,ns,56
dfs arena ghostcell vec mut,,,,,70377871.0,ns,57
dfs arena ghostcell vec mut,,,,,68812163.0,ns,58
dfs arena ghostcell vec mut,,,,,68477399.0,ns,59
dfs arena ghostcell vec mut,,,,,69266560.0,ns,60
dfs arena ghostcell vec mut,,,,,72172680.0,ns,61
dfs arena ghostcell vec mut,,,,,72920025.0,ns,62
dfs arena ghostcell vec mut,,,,,74190553.0,ns,63
dfs arena ghostcell vec mut,,,,,75071022.0,ns,64
dfs arena ghostcell vec mut,,,,,77118367.0,ns,65
dfs arena ghostcell vec mut,,,,,77486341.0,ns,66
dfs arena ghostcell vec mut,,,,,78943537.0,ns,67
dfs arena ghostcell vec mut,,,,,79050369.0,ns,68
dfs arena ghostcell vec mut,,,,,84047130.0,ns,69
dfs arena ghostcell vec mut,,,,,80680766.0,ns,70
dfs arena ghostcell vec mut,,,,,82751364.0,ns,71
dfs arena ghostcell vec mut,,,,,82675892.0,ns,72
dfs arena ghostcell vec mut,,,,,84554089.0,ns,73
dfs arena ghostcell vec mut,,,,,86973333.0,ns,74
dfs arena ghostcell vec mut,,,,,87425162.0,ns,75
dfs arena ghostcell vec mut,,,,,90448875.0,ns,76
dfs arena ghostcell vec mut,,,,,89340102.0,ns,77
dfs arena ghostcell vec mut,,,,,91121475.0,ns,78
dfs arena ghostcell vec mut,,,,,92099508.0,ns,79
dfs arena ghostcell vec mut,,,,,96574741.0,ns,80
dfs arena ghostcell vec mut,,,,,93497060.0,ns,81
dfs arena ghostcell vec mut,,,,,95727099.0,ns,82
dfs arena ghostcell vec mut,,,,,96663298.0,ns,83
dfs arena ghostcell vec mut,,,,,98605220.0,ns,84
dfs arena ghostcell vec mut,,,,,98495868.0,ns,85
dfs arena ghostcell vec mut,,,,,101538875.0,ns,86
dfs arena ghostcell vec mut,,,,,101355375.0,ns,87
dfs arena ghostcell vec mut,,,,,103632221.0,ns,88
dfs arena ghostcell vec mut,,,,,108288347.0,ns,89
dfs arena ghostcell vec mut,,,,,104644497.0,ns,90
dfs arena ghostcell vec mut,,,,,106193952.0,ns,91
dfs arena ghostcell vec mut,,,,,106379546.0,ns,92
dfs arena ghostcell vec mut,,,,,109748525.0,ns,93
dfs arena ghostcell vec mut,,,,,110815013.0,ns,94
dfs arena ghostcell vec mut,,,,,110348522.0,ns,95
dfs arena ghostcell vec mut,,,,,111097198.0,ns,96
dfs arena ghostcell vec mut,,,,,113906659.0,ns,97
dfs arena ghostcell vec mut,,,,,113807185.0,ns,98
dfs arena ghostcell vec mut,,,,,116000979.0,ns,99
dfs arena ghostcell vec mut,,,,,116451450.0,ns,100
