<?xml version="1.0" encoding="utf-8"  standalone="no"?>
<!DOCTYPE svg PUBLIC "-//W3C//DTD SVG 1.1//EN"
 "http://www.w3.org/Graphics/SVG/1.1/DTD/svg11.dtd">
<svg 
 viewBox="0 0 1280 720"
 xmlns="http://www.w3.org/2000/svg"
 xmlns:xlink="http://www.w3.org/1999/xlink"
>

<title>Gnuplot</title>
<desc>Produced by GNUPLOT 5.0 patchlevel 5 </desc>

<g id="gnuplot_canvas">

<rect x="0" y="0" width="1280" height="720" fill="none"/>
<defs>

	<circle id='gpDot' r='0.5' stroke-width='0.5'/>
	<path id='gpPt0' stroke-width='0.222' stroke='currentColor' d='M-1,0 h2 M0,-1 v2'/>
	<path id='gpPt1' stroke-width='0.222' stroke='currentColor' d='M-1,-1 L1,1 M1,-1 L-1,1'/>
	<path id='gpPt2' stroke-width='0.222' stroke='currentColor' d='M-1,0 L1,0 M0,-1 L0,1 M-1,-1 L1,1 M-1,1 L1,-1'/>
	<rect id='gpPt3' stroke-width='0.222' stroke='currentColor' x='-1' y='-1' width='2' height='2'/>
	<rect id='gpPt4' stroke-width='0.222' stroke='currentColor' fill='currentColor' x='-1' y='-1' width='2' height='2'/>
	<circle id='gpPt5' stroke-width='0.222' stroke='currentColor' cx='0' cy='0' r='1'/>
	<use xlink:href='#gpPt5' id='gpPt6' fill='currentColor' stroke='none'/>
	<path id='gpPt7' stroke-width='0.222' stroke='currentColor' d='M0,-1.33 L-1.33,0.67 L1.33,0.67 z'/>
	<use xlink:href='#gpPt7' id='gpPt8' fill='currentColor' stroke='none'/>
	<use xlink:href='#gpPt7' id='gpPt9' stroke='currentColor' transform='rotate(180)'/>
	<use xlink:href='#gpPt9' id='gpPt10' fill='currentColor' stroke='none'/>
	<use xlink:href='#gpPt3' id='gpPt11' stroke='currentColor' transform='rotate(45)'/>
	<use xlink:href='#gpPt11' id='gpPt12' fill='currentColor' stroke='none'/>
	<path id='gpPt13' stroke-width='0.222' stroke='currentColor' d='M0,1.330 L1.265,0.411 L0.782,-1.067 L-0.782,-1.076 L-1.265,0.411 z'/>
	<use xlink:href='#gpPt13' id='gpPt14' fill='currentColor' stroke='none'/>
	<filter id='textbox' filterUnits='objectBoundingBox' x='0' y='0' height='1' width='1'>
	  <feFlood flood-color='white' flood-opacity='1' result='bgnd'/>
	  <feComposite in='SourceGraphic' in2='bgnd' operator='atop'/>
	</filter>
	<filter id='greybox' filterUnits='objectBoundingBox' x='0' y='0' height='1' width='1'>
	  <feFlood flood-color='lightgrey' flood-opacity='1' result='grey'/>
	  <feComposite in='SourceGraphic' in2='grey' operator='atop'/>
	</filter>
</defs>
<g fill="none" color="white" stroke="currentColor" stroke-width="1.00" stroke-linecap="butt" stroke-linejoin="miter">
</g>
<g fill="none" color="black" stroke="currentColor" stroke-width="1.00" stroke-linecap="butt" stroke-linejoin="miter">
	<path stroke='black'  d='M71.9,662.4 L80.9,662.4  '/>	<g transform="translate(63.6,666.3)" stroke="none" fill="black" font-family="Helvetica" font-size="12.00"  text-anchor="end">
		<text><tspan font-family="Helvetica" > 0</tspan></text>
	</g>
</g>
<g fill="none" color="black" stroke="currentColor" stroke-width="1.00" stroke-linecap="butt" stroke-linejoin="miter">
	<path stroke='black'  d='M71.9,575.5 L80.9,575.5  '/>	<g transform="translate(63.6,579.4)" stroke="none" fill="black" font-family="Helvetica" font-size="12.00"  text-anchor="end">
		<text><tspan font-family="Helvetica" > 50</tspan></text>
	</g>
</g>
<g fill="none" color="black" stroke="currentColor" stroke-width="1.00" stroke-linecap="butt" stroke-linejoin="miter">
	<path stroke='black'  d='M71.9,488.6 L80.9,488.6  '/>	<g transform="translate(63.6,492.5)" stroke="none" fill="black" font-family="Helvetica" font-size="12.00"  text-anchor="end">
		<text><tspan font-family="Helvetica" > 100</tspan></text>
	</g>
</g>
<g fill="none" color="black" stroke="currentColor" stroke-width="1.00" stroke-linecap="butt" stroke-linejoin="miter">
	<path stroke='black'  d='M71.9,401.7 L80.9,401.7  '/>	<g transform="translate(63.6,405.6)" stroke="none" fill="black" font-family="Helvetica" font-size="12.00"  text-anchor="end">
		<text><tspan font-family="Helvetica" > 150</tspan></text>
	</g>
</g>
<g fill="none" color="black" stroke="currentColor" stroke-width="1.00" stroke-linecap="butt" stroke-linejoin="miter">
	<path stroke='black'  d='M71.9,314.8 L80.9,314.8  '/>	<g transform="translate(63.6,318.7)" stroke="none" fill="black" font-family="Helvetica" font-size="12.00"  text-anchor="end">
		<text><tspan font-family="Helvetica" > 200</tspan></text>
	</g>
</g>
<g fill="none" color="black" stroke="currentColor" stroke-width="1.00" stroke-linecap="butt" stroke-linejoin="miter">
	<path stroke='black'  d='M71.9,227.9 L80.9,227.9  '/>	<g transform="translate(63.6,231.8)" stroke="none" fill="black" font-family="Helvetica" font-size="12.00"  text-anchor="end">
		<text><tspan font-family="Helvetica" > 250</tspan></text>
	</g>
</g>
<g fill="none" color="black" stroke="currentColor" stroke-width="1.00" stroke-linecap="butt" stroke-linejoin="miter">
	<path stroke='black'  d='M71.9,141.0 L80.9,141.0  '/>	<g transform="translate(63.6,144.9)" stroke="none" fill="black" font-family="Helvetica" font-size="12.00"  text-anchor="end">
		<text><tspan font-family="Helvetica" > 300</tspan></text>
	</g>
</g>
<g fill="none" color="black" stroke="currentColor" stroke-width="1.00" stroke-linecap="butt" stroke-linejoin="miter">
	<path stroke='black'  d='M71.9,54.1 L80.9,54.1  '/>	<g transform="translate(63.6,58.0)" stroke="none" fill="black" font-family="Helvetica" font-size="12.00"  text-anchor="end">
		<text><tspan font-family="Helvetica" > 350</tspan></text>
	</g>
</g>
<g fill="none" color="black" stroke="currentColor" stroke-width="1.00" stroke-linecap="butt" stroke-linejoin="miter">
	<path stroke='black'  d='M156.5,662.4 L156.5,653.4  '/>	<g transform="translate(156.5,684.3)" stroke="none" fill="black" font-family="Helvetica" font-size="12.00"  text-anchor="middle">
		<text><tspan font-family="Helvetica" > 1.732</tspan></text>
	</g>
</g>
<g fill="none" color="black" stroke="currentColor" stroke-width="1.00" stroke-linecap="butt" stroke-linejoin="miter">
	<path stroke='black'  d='M324.0,662.4 L324.0,653.4  '/>	<g transform="translate(324.0,684.3)" stroke="none" fill="black" font-family="Helvetica" font-size="12.00"  text-anchor="middle">
		<text><tspan font-family="Helvetica" > 1.733</tspan></text>
	</g>
</g>
<g fill="none" color="black" stroke="currentColor" stroke-width="1.00" stroke-linecap="butt" stroke-linejoin="miter">
	<path stroke='black'  d='M491.4,662.4 L491.4,653.4  '/>	<g transform="translate(491.4,684.3)" stroke="none" fill="black" font-family="Helvetica" font-size="12.00"  text-anchor="middle">
		<text><tspan font-family="Helvetica" > 1.734</tspan></text>
	</g>
</g>
<g fill="none" color="black" stroke="currentColor" stroke-width="1.00" stroke-linecap="butt" stroke-linejoin="miter">
	<path stroke='black'  d='M658.9,662.4 L658.9,653.4  '/>	<g transform="translate(658.9,684.3)" stroke="none" fill="black" font-family="Helvetica" font-size="12.00"  text-anchor="middle">
		<text><tspan font-family="Helvetica" > 1.735</tspan></text>
	</g>
</g>
<g fill="none" color="black" stroke="currentColor" stroke-width="1.00" stroke-linecap="butt" stroke-linejoin="miter">
	<path stroke='black'  d='M826.3,662.4 L826.3,653.4  '/>	<g transform="translate(826.3,684.3)" stroke="none" fill="black" font-family="Helvetica" font-size="12.00"  text-anchor="middle">
		<text><tspan font-family="Helvetica" > 1.736</tspan></text>
	</g>
</g>
<g fill="none" color="black" stroke="currentColor" stroke-width="1.00" stroke-linecap="butt" stroke-linejoin="miter">
	<path stroke='black'  d='M993.8,662.4 L993.8,653.4  '/>	<g transform="translate(993.8,684.3)" stroke="none" fill="black" font-family="Helvetica" font-size="12.00"  text-anchor="middle">
		<text><tspan font-family="Helvetica" > 1.737</tspan></text>
	</g>
</g>
<g fill="none" color="black" stroke="currentColor" stroke-width="1.00" stroke-linecap="butt" stroke-linejoin="miter">
</g>
<g fill="none" color="black" stroke="currentColor" stroke-width="1.00" stroke-linecap="butt" stroke-linejoin="miter">
	<path stroke='black'  d='M71.9,54.1 L71.9,662.4 L1013.6,662.4 L1013.6,54.1 L71.9,54.1 Z  '/></g>
<g fill="none" color="black" stroke="currentColor" stroke-width="1.00" stroke-linecap="butt" stroke-linejoin="miter">
	<g transform="translate(17.0,358.3) rotate(270)" stroke="none" fill="black" font-family="Helvetica" font-size="12.00"  text-anchor="middle">
		<text><tspan font-family="Helvetica" >Density (a.u.)</tspan></text>
	</g>
</g>
<g fill="none" color="black" stroke="currentColor" stroke-width="1.00" stroke-linecap="butt" stroke-linejoin="miter">
	<g transform="translate(542.7,711.3)" stroke="none" fill="black" font-family="Helvetica" font-size="12.00"  text-anchor="middle">
		<text><tspan font-family="Helvetica" >Average time (ms)</tspan></text>
	</g>
</g>
<g fill="none" color="black" stroke="currentColor" stroke-width="1.00" stroke-linecap="butt" stroke-linejoin="miter">
	<g transform="translate(542.7,31.0)" stroke="none" fill="black" font-family="Helvetica" font-size="12.00"  text-anchor="middle">
		<text><tspan font-family="Helvetica" >dfs petgraph par immut (×4): slope</tspan></text>
	</g>
</g>
	<g id="gnuplot_plot_1" ><title>Bootstrap distribution</title>
<g fill="none" color="white" stroke="black" stroke-width="2.00" stroke-linecap="butt" stroke-linejoin="miter">
</g>
<g fill="none" color="black" stroke="currentColor" stroke-width="2.00" stroke-linecap="butt" stroke-linejoin="miter">
	<g transform="translate(1089.0,67.0)" stroke="none" fill="black" font-family="Helvetica" font-size="12.00"  text-anchor="start">
		<text><tspan font-family="Helvetica" >Bootstrap distribution</tspan></text>
	</g>
</g>
<g fill="none" color="black" stroke="currentColor" stroke-width="2.00" stroke-linecap="butt" stroke-linejoin="miter">
	<path stroke='rgb( 31, 120, 180)'  d='M1038.5,63.1 L1080.7,63.1 M71.9,626.6 L73.8,625.4 L75.7,624.3 L77.6,623.1 L79.4,621.9 L81.3,620.7
		L83.2,619.5 L85.1,618.3 L87.0,617.1 L88.9,615.9 L90.8,614.6 L92.7,613.4 L94.5,612.1 L96.4,610.8
		L98.3,609.5 L100.2,608.2 L102.1,606.9 L104.0,605.5 L105.9,604.1 L107.8,602.7 L109.6,601.2 L111.5,599.7
		L113.4,598.2 L115.3,596.6 L117.2,595.0 L119.1,593.4 L121.0,591.7 L122.9,589.9 L124.7,588.1 L126.6,586.3
		L128.5,584.4 L130.4,582.4 L132.3,580.4 L134.2,578.3 L136.1,576.2 L138.0,574.1 L139.8,571.8 L141.7,569.6
		L143.6,567.3 L145.5,564.9 L147.4,562.5 L149.3,560.0 L151.2,557.5 L153.0,554.9 L154.9,552.4 L156.8,549.7
		L158.7,547.1 L160.6,544.4 L162.5,541.7 L164.4,538.9 L166.3,536.2 L168.1,533.4 L170.0,530.6 L171.9,527.8
		L173.8,525.0 L175.7,522.1 L177.6,519.3 L179.5,516.4 L181.4,513.5 L183.2,510.7 L185.1,507.8 L187.0,504.8
		L188.9,501.9 L190.8,498.9 L192.7,496.0 L194.6,493.0 L196.5,489.9 L198.3,486.9 L200.2,483.8 L202.1,480.6
		L204.0,477.4 L205.9,474.2 L207.8,470.9 L209.7,467.6 L211.6,464.2 L213.4,460.8 L215.3,457.3 L217.2,453.8
		L219.1,450.2 L221.0,446.6 L222.9,442.9 L224.8,439.2 L226.6,435.5 L228.5,431.7 L230.4,427.9 L232.3,424.0
		L234.2,420.2 L236.1,416.3 L238.0,412.4 L239.9,408.4 L241.7,404.5 L243.6,400.5 L245.5,396.6 L247.4,392.6
		L249.3,388.6 L251.2,384.6 L253.1,380.6 L255.0,376.6 L256.8,372.6 L258.7,368.5 L260.6,364.5 L262.5,360.5
		L264.4,356.5 L266.3,352.6 L268.2,348.6 L270.1,344.7 L271.9,340.8 L273.8,336.9 L275.7,333.0 L277.6,329.2
		L279.5,325.5 L281.4,321.7 L283.3,318.1 L285.2,314.4 L287.0,310.8 L288.9,307.2 L290.8,303.7 L292.7,300.2
		L294.6,296.8 L296.5,293.3 L298.4,289.9 L300.2,286.5 L302.1,283.1 L304.0,279.7 L305.9,276.3 L307.8,272.9
		L309.7,269.5 L311.6,266.0 L313.5,262.6 L315.3,259.1 L317.2,255.7 L319.1,252.2 L321.0,248.7 L322.9,245.2
		L324.8,241.7 L326.7,238.3 L328.6,234.8 L330.4,231.4 L332.3,227.9 L334.2,224.6 L336.1,221.3 L338.0,218.0
		L339.9,214.8 L341.8,211.6 L343.7,208.5 L345.5,205.4 L347.4,202.5 L349.3,199.6 L351.2,196.7 L353.1,193.9
		L355.0,191.2 L356.9,188.5 L358.8,185.8 L360.6,183.2 L362.5,180.6 L364.4,178.1 L366.3,175.6 L368.2,173.1
		L370.1,170.6 L372.0,168.1 L373.8,165.7 L375.7,163.2 L377.6,160.8 L379.5,158.3 L381.4,155.9 L383.3,153.5
		L385.2,151.1 L387.1,148.7 L388.9,146.3 L390.8,143.9 L392.7,141.6 L394.6,139.2 L396.5,136.9 L398.4,134.6
		L400.3,132.4 L402.2,130.2 L404.0,128.0 L405.9,125.9 L407.8,123.9 L409.7,121.9 L411.6,119.9 L413.5,118.0
		L415.4,116.2 L417.3,114.5 L419.1,112.8 L421.0,111.2 L422.9,109.6 L424.8,108.1 L426.7,106.7 L428.6,105.3
		L430.5,104.0 L432.4,102.7 L434.2,101.5 L436.1,100.2 L438.0,99.1 L439.9,97.9 L441.8,96.7 L443.7,95.6
		L445.6,94.4 L447.4,93.3 L449.3,92.1 L451.2,90.9 L453.1,89.8 L455.0,88.6 L456.9,87.5 L458.8,86.4
		L460.7,85.3 L462.5,84.2 L464.4,83.2 L466.3,82.3 L468.2,81.4 L470.1,80.6 L472.0,79.9 L473.9,79.3
		L475.8,78.9 L477.6,78.5 L479.5,78.2 L481.4,78.0 L483.3,78.0 L485.2,78.0 L487.1,78.2 L489.0,78.4
		L490.9,78.7 L492.7,79.1 L494.6,79.5 L496.5,80.0 L498.4,80.5 L500.3,81.1 L502.2,81.7 L504.1,82.3
		L506.0,82.9 L507.8,83.6 L509.7,84.3 L511.6,85.0 L513.5,85.7 L515.4,86.4 L517.3,87.2 L519.2,88.0
		L521.0,88.9 L522.9,89.8 L524.8,90.7 L526.7,91.7 L528.6,92.8 L530.5,93.9 L532.4,95.1 L534.3,96.3
		L536.1,97.6 L538.0,99.0 L539.9,100.4 L541.8,101.9 L543.7,103.4 L545.6,104.9 L547.5,106.6 L549.4,108.2
		L551.2,109.9 L553.1,111.6 L555.0,113.4 L556.9,115.2 L558.8,117.0 L560.7,118.9 L562.6,120.7 L564.5,122.6
		L566.3,124.6 L568.2,126.5 L570.1,128.5 L572.0,130.5 L573.9,132.5 L575.8,134.6 L577.7,136.7 L579.5,138.8
		L581.4,141.0 L583.3,143.2 L585.2,145.5 L587.1,147.8 L589.0,150.2 L590.9,152.5 L592.8,155.0 L594.6,157.5
		L596.5,160.0 L598.4,162.5 L600.3,165.1 L602.2,167.7 L604.1,170.4 L606.0,173.0 L607.9,175.7 L609.7,178.4
		L611.6,181.2 L613.5,183.9 L615.4,186.6 L617.3,189.4 L619.2,192.1 L621.1,194.9 L623.0,197.6 L624.8,200.4
		L626.7,203.2 L628.6,205.9 L630.5,208.7 L632.4,211.5 L634.3,214.3 L636.2,217.1 L638.1,219.9 L639.9,222.8
		L641.8,225.7 L643.7,228.6 L645.6,231.5 L647.5,234.5 L649.4,237.4 L651.3,240.4 L653.1,243.4 L655.0,246.5
		L656.9,249.5 L658.8,252.5 L660.7,255.6 L662.6,258.6 L664.5,261.6 L666.4,264.6 L668.2,267.6 L670.1,270.6
		L672.0,273.5 L673.9,276.5 L675.8,279.4 L677.7,282.3 L679.6,285.1 L681.5,288.0 L683.3,290.9 L685.2,293.7
		L687.1,296.6 L689.0,299.5 L690.9,302.4 L692.8,305.3 L694.7,308.3 L696.6,311.3 L698.4,314.3 L700.3,317.3
		L702.2,320.4 L704.1,323.5 L706.0,326.7 L707.9,329.9 L709.8,333.1 L711.7,336.4 L713.5,339.7 L715.4,343.0
		L717.3,346.3 L719.2,349.7 L721.1,353.0 L723.0,356.4 L724.9,359.7 L726.7,363.0 L728.6,366.4 L730.5,369.7
		L732.4,373.0 L734.3,376.3 L736.2,379.6 L738.1,382.8 L740.0,386.0 L741.8,389.2 L743.7,392.4 L745.6,395.6
		L747.5,398.7 L749.4,401.8 L751.3,404.9 L753.2,407.9 L755.1,411.0 L756.9,414.0 L758.8,416.9 L760.7,419.9
		L762.6,422.8 L764.5,425.7 L766.4,428.5 L768.3,431.3 L770.2,434.1 L772.0,436.9 L773.9,439.6 L775.8,442.2
		L777.7,444.8 L779.6,447.4 L781.5,449.9 L783.4,452.3 L785.3,454.7 L787.1,457.1 L789.0,459.4 L790.9,461.6
		L792.8,463.8 L794.7,466.0 L796.6,468.1 L798.5,470.2 L800.3,472.2 L802.2,474.2 L804.1,476.1 L806.0,478.0
		L807.9,479.9 L809.8,481.8 L811.7,483.7 L813.6,485.5 L815.4,487.3 L817.3,489.2 L819.2,491.0 L821.1,492.8
		L823.0,494.7 L824.9,496.5 L826.8,498.4 L828.7,500.3 L830.5,502.2 L832.4,504.1 L834.3,506.0 L836.2,508.0
		L838.1,510.0 L840.0,512.0 L841.9,514.0 L843.8,516.1 L845.6,518.1 L847.5,520.2 L849.4,522.3 L851.3,524.3
		L853.2,526.4 L855.1,528.5 L857.0,530.6 L858.9,532.6 L860.7,534.7 L862.6,536.7 L864.5,538.7 L866.4,540.7
		L868.3,542.6 L870.2,544.5 L872.1,546.4 L873.9,548.3 L875.8,550.1 L877.7,551.9 L879.6,553.7 L881.5,555.5
		L883.4,557.2 L885.3,558.9 L887.2,560.5 L889.0,562.1 L890.9,563.7 L892.8,565.3 L894.7,566.9 L896.6,568.4
		L898.5,569.9 L900.4,571.3 L902.3,572.7 L904.1,574.1 L906.0,575.5 L907.9,576.8 L909.8,578.1 L911.7,579.4
		L913.6,580.6 L915.5,581.8 L917.4,583.0 L919.2,584.2 L921.1,585.4 L923.0,586.5 L924.9,587.6 L926.8,588.7
		L928.7,589.8 L930.6,590.9 L932.5,592.0 L934.3,593.1 L936.2,594.2 L938.1,595.3 L940.0,596.4 L941.9,597.5
		L943.8,598.6 L945.7,599.7 L947.5,600.7 L949.4,601.8 L951.3,602.8 L953.2,603.8 L955.1,604.8 L957.0,605.7
		L958.9,606.7 L960.8,607.6 L962.6,608.4 L964.5,609.3 L966.4,610.1 L968.3,610.9 L970.2,611.7 L972.1,612.4
		L974.0,613.2 L975.9,613.9 L977.7,614.7 L979.6,615.4 L981.5,616.1 L983.4,616.8 L985.3,617.6 L987.2,618.3
		L989.1,619.0 L991.0,619.8 L992.8,620.6 L994.7,621.4 L996.6,622.1 L998.5,622.9 L1000.4,623.7 L1002.3,624.5
		L1004.2,625.4 L1006.1,626.2 L1007.9,627.0 L1009.8,627.8 L1011.7,628.6 L1013.6,629.3  '/></g>
	</g>
	<g id="gnuplot_plot_2" ><title>Confidence interval</title>
<g fill="none" color="white" stroke="rgb( 31, 120, 180)" stroke-width="1.00" stroke-linecap="butt" stroke-linejoin="miter">
</g>
<g fill="none" color="black" stroke="currentColor" stroke-width="1.00" stroke-linecap="butt" stroke-linejoin="miter">
	<g transform="translate(1089.0,85.0)" stroke="none" fill="black" font-family="Helvetica" font-size="12.00"  text-anchor="start">
		<text><tspan font-family="Helvetica" >Confidence interval</tspan></text>
	</g>
</g>
<g fill="none" color="black" stroke="currentColor" stroke-width="1.00" stroke-linecap="butt" stroke-linejoin="miter">
	<g stroke='none' shape-rendering='crispEdges'>
		<polygon fill = 'rgb( 31, 120, 180)' fill-opacity = '0.250000' points = '1038.5,85.6 1080.7,85.6 1080.7,76.6 1038.5,76.6 '/>
		<polygon fill = 'rgb( 31, 120, 180)' fill-opacity = '0.250000' points = '158.7,547.1 158.7,662.4 160.6,662.4 160.6,544.4 '/>
		<polygon fill = 'rgb( 31, 120, 180)' fill-opacity = '0.250000' points = '160.6,544.4 160.6,662.4 162.5,662.4 162.5,541.7 '/>
		<polygon fill = 'rgb( 31, 120, 180)' fill-opacity = '0.250000' points = '162.5,541.7 162.5,662.4 164.4,662.4 164.4,538.9 '/>
		<polygon fill = 'rgb( 31, 120, 180)' fill-opacity = '0.250000' points = '164.4,538.9 164.4,662.4 166.3,662.4 166.3,536.2 '/>
		<polygon fill = 'rgb( 31, 120, 180)' fill-opacity = '0.250000' points = '166.3,536.2 166.3,662.4 168.1,662.4 168.1,533.4 '/>
		<polygon fill = 'rgb( 31, 120, 180)' fill-opacity = '0.250000' points = '168.1,533.4 168.1,662.4 170.0,662.4 170.0,530.6 '/>
		<polygon fill = 'rgb( 31, 120, 180)' fill-opacity = '0.250000' points = '170.0,530.6 170.0,662.4 171.9,662.4 171.9,527.8 '/>
		<polygon fill = 'rgb( 31, 120, 180)' fill-opacity = '0.250000' points = '171.9,527.8 171.9,662.4 173.8,662.4 173.8,525.0 '/>
		<polygon fill = 'rgb( 31, 120, 180)' fill-opacity = '0.250000' points = '173.8,525.0 173.8,662.4 175.7,662.4 175.7,522.1 '/>
		<polygon fill = 'rgb( 31, 120, 180)' fill-opacity = '0.250000' points = '175.7,522.1 175.7,662.4 177.6,662.4 177.6,519.3 '/>
		<polygon fill = 'rgb( 31, 120, 180)' fill-opacity = '0.250000' points = '177.6,519.3 177.6,662.4 179.5,662.4 179.5,516.4 '/>
		<polygon fill = 'rgb( 31, 120, 180)' fill-opacity = '0.250000' points = '179.5,516.4 179.5,662.4 181.4,662.4 181.4,513.5 '/>
		<polygon fill = 'rgb( 31, 120, 180)' fill-opacity = '0.250000' points = '181.4,513.5 181.4,662.4 183.2,662.4 183.2,510.7 '/>
		<polygon fill = 'rgb( 31, 120, 180)' fill-opacity = '0.250000' points = '183.2,510.7 183.2,662.4 185.1,662.4 185.1,507.8 '/>
		<polygon fill = 'rgb( 31, 120, 180)' fill-opacity = '0.250000' points = '185.1,507.8 185.1,662.4 187.0,662.4 187.0,504.8 '/>
		<polygon fill = 'rgb( 31, 120, 180)' fill-opacity = '0.250000' points = '187.0,504.8 187.0,662.4 188.9,662.4 188.9,501.9 '/>
		<polygon fill = 'rgb( 31, 120, 180)' fill-opacity = '0.250000' points = '188.9,501.9 188.9,662.4 190.8,662.4 190.8,498.9 '/>
		<polygon fill = 'rgb( 31, 120, 180)' fill-opacity = '0.250000' points = '190.8,498.9 190.8,662.4 192.7,662.4 192.7,496.0 '/>
		<polygon fill = 'rgb( 31, 120, 180)' fill-opacity = '0.250000' points = '192.7,496.0 192.7,662.4 194.6,662.4 194.6,493.0 '/>
		<polygon fill = 'rgb( 31, 120, 180)' fill-opacity = '0.250000' points = '194.6,493.0 194.6,662.4 196.5,662.4 196.5,489.9 '/>
		<polygon fill = 'rgb( 31, 120, 180)' fill-opacity = '0.250000' points = '196.5,489.9 196.5,662.4 198.3,662.4 198.3,486.9 '/>
		<polygon fill = 'rgb( 31, 120, 180)' fill-opacity = '0.250000' points = '198.3,486.9 198.3,662.4 200.2,662.4 200.2,483.8 '/>
		<polygon fill = 'rgb( 31, 120, 180)' fill-opacity = '0.250000' points = '200.2,483.8 200.2,662.4 202.1,662.4 202.1,480.6 '/>
		<polygon fill = 'rgb( 31, 120, 180)' fill-opacity = '0.250000' points = '202.1,480.6 202.1,662.4 204.0,662.4 204.0,477.4 '/>
		<polygon fill = 'rgb( 31, 120, 180)' fill-opacity = '0.250000' points = '204.0,477.4 204.0,662.4 205.9,662.4 205.9,474.2 '/>
		<polygon fill = 'rgb( 31, 120, 180)' fill-opacity = '0.250000' points = '205.9,474.2 205.9,662.4 207.8,662.4 207.8,470.9 '/>
		<polygon fill = 'rgb( 31, 120, 180)' fill-opacity = '0.250000' points = '207.8,470.9 207.8,662.4 209.7,662.4 209.7,467.6 '/>
		<polygon fill = 'rgb( 31, 120, 180)' fill-opacity = '0.250000' points = '209.7,467.6 209.7,662.4 211.6,662.4 211.6,464.2 '/>
		<polygon fill = 'rgb( 31, 120, 180)' fill-opacity = '0.250000' points = '211.6,464.2 211.6,662.4 213.4,662.4 213.4,460.8 '/>
		<polygon fill = 'rgb( 31, 120, 180)' fill-opacity = '0.250000' points = '213.4,460.8 213.4,662.4 215.3,662.4 215.3,457.3 '/>
		<polygon fill = 'rgb( 31, 120, 180)' fill-opacity = '0.250000' points = '215.3,457.3 215.3,662.4 217.2,662.4 217.2,453.8 '/>
		<polygon fill = 'rgb( 31, 120, 180)' fill-opacity = '0.250000' points = '217.2,453.8 217.2,662.4 219.1,662.4 219.1,450.2 '/>
		<polygon fill = 'rgb( 31, 120, 180)' fill-opacity = '0.250000' points = '219.1,450.2 219.1,662.4 221.0,662.4 221.0,446.6 '/>
		<polygon fill = 'rgb( 31, 120, 180)' fill-opacity = '0.250000' points = '221.0,446.6 221.0,662.4 222.9,662.4 222.9,442.9 '/>
		<polygon fill = 'rgb( 31, 120, 180)' fill-opacity = '0.250000' points = '222.9,442.9 222.9,662.4 224.8,662.4 224.8,439.2 '/>
		<polygon fill = 'rgb( 31, 120, 180)' fill-opacity = '0.250000' points = '224.8,439.2 224.8,662.4 226.6,662.4 226.6,435.5 '/>
		<polygon fill = 'rgb( 31, 120, 180)' fill-opacity = '0.250000' points = '226.6,435.5 226.6,662.4 228.5,662.4 228.5,431.7 '/>
		<polygon fill = 'rgb( 31, 120, 180)' fill-opacity = '0.250000' points = '228.5,431.7 228.5,662.4 230.4,662.4 230.4,427.9 '/>
		<polygon fill = 'rgb( 31, 120, 180)' fill-opacity = '0.250000' points = '230.4,427.9 230.4,662.4 232.3,662.4 232.3,424.0 '/>
		<polygon fill = 'rgb( 31, 120, 180)' fill-opacity = '0.250000' points = '232.3,424.0 232.3,662.4 234.2,662.4 234.2,420.2 '/>
		<polygon fill = 'rgb( 31, 120, 180)' fill-opacity = '0.250000' points = '234.2,420.2 234.2,662.4 236.1,662.4 236.1,416.3 '/>
		<polygon fill = 'rgb( 31, 120, 180)' fill-opacity = '0.250000' points = '236.1,416.3 236.1,662.4 238.0,662.4 238.0,412.4 '/>
		<polygon fill = 'rgb( 31, 120, 180)' fill-opacity = '0.250000' points = '238.0,412.4 238.0,662.4 239.9,662.4 239.9,408.4 '/>
		<polygon fill = 'rgb( 31, 120, 180)' fill-opacity = '0.250000' points = '239.9,408.4 239.9,662.4 241.7,662.4 241.7,404.5 '/>
		<polygon fill = 'rgb( 31, 120, 180)' fill-opacity = '0.250000' points = '241.7,404.5 241.7,662.4 243.6,662.4 243.6,400.5 '/>
		<polygon fill = 'rgb( 31, 120, 180)' fill-opacity = '0.250000' points = '243.6,400.5 243.6,662.4 245.5,662.4 245.5,396.6 '/>
		<polygon fill = 'rgb( 31, 120, 180)' fill-opacity = '0.250000' points = '245.5,396.6 245.5,662.4 247.4,662.4 247.4,392.6 '/>
		<polygon fill = 'rgb( 31, 120, 180)' fill-opacity = '0.250000' points = '247.4,392.6 247.4,662.4 249.3,662.4 249.3,388.6 '/>
		<polygon fill = 'rgb( 31, 120, 180)' fill-opacity = '0.250000' points = '249.3,388.6 249.3,662.4 251.2,662.4 251.2,384.6 '/>
		<polygon fill = 'rgb( 31, 120, 180)' fill-opacity = '0.250000' points = '251.2,384.6 251.2,662.4 253.1,662.4 253.1,380.6 '/>
		<polygon fill = 'rgb( 31, 120, 180)' fill-opacity = '0.250000' points = '253.1,380.6 253.1,662.4 255.0,662.4 255.0,376.6 '/>
		<polygon fill = 'rgb( 31, 120, 180)' fill-opacity = '0.250000' points = '255.0,376.6 255.0,662.4 256.8,662.4 256.8,372.6 '/>
		<polygon fill = 'rgb( 31, 120, 180)' fill-opacity = '0.250000' points = '256.8,372.6 256.8,662.4 258.7,662.4 258.7,368.5 '/>
		<polygon fill = 'rgb( 31, 120, 180)' fill-opacity = '0.250000' points = '258.7,368.5 258.7,662.4 260.6,662.4 260.6,364.5 '/>
		<polygon fill = 'rgb( 31, 120, 180)' fill-opacity = '0.250000' points = '260.6,364.5 260.6,662.4 262.5,662.4 262.5,360.5 '/>
		<polygon fill = 'rgb( 31, 120, 180)' fill-opacity = '0.250000' points = '262.5,360.5 262.5,662.4 264.4,662.4 264.4,356.5 '/>
		<polygon fill = 'rgb( 31, 120, 180)' fill-opacity = '0.250000' points = '264.4,356.5 264.4,662.4 266.3,662.4 266.3,352.6 '/>
		<polygon fill = 'rgb( 31, 120, 180)' fill-opacity = '0.250000' points = '266.3,352.6 266.3,662.4 268.2,662.4 268.2,348.6 '/>
		<polygon fill = 'rgb( 31, 120, 180)' fill-opacity = '0.250000' points = '268.2,348.6 268.2,662.4 270.1,662.4 270.1,344.7 '/>
		<polygon fill = 'rgb( 31, 120, 180)' fill-opacity = '0.250000' points = '270.1,344.7 270.1,662.4 271.9,662.4 271.9,340.8 '/>
		<polygon fill = 'rgb( 31, 120, 180)' fill-opacity = '0.250000' points = '271.9,340.8 271.9,662.4 273.8,662.4 273.8,336.9 '/>
		<polygon fill = 'rgb( 31, 120, 180)' fill-opacity = '0.250000' points = '273.8,336.9 273.8,662.4 275.7,662.4 275.7,333.0 '/>
		<polygon fill = 'rgb( 31, 120, 180)' fill-opacity = '0.250000' points = '275.7,333.0 275.7,662.4 277.6,662.4 277.6,329.2 '/>
		<polygon fill = 'rgb( 31, 120, 180)' fill-opacity = '0.250000' points = '277.6,329.2 277.6,662.4 279.5,662.4 279.5,325.5 '/>
		<polygon fill = 'rgb( 31, 120, 180)' fill-opacity = '0.250000' points = '279.5,325.5 279.5,662.4 281.4,662.4 281.4,321.7 '/>
		<polygon fill = 'rgb( 31, 120, 180)' fill-opacity = '0.250000' points = '281.4,321.7 281.4,662.4 283.3,662.4 283.3,318.1 '/>
		<polygon fill = 'rgb( 31, 120, 180)' fill-opacity = '0.250000' points = '283.3,318.1 283.3,662.4 285.2,662.4 285.2,314.4 '/>
		<polygon fill = 'rgb( 31, 120, 180)' fill-opacity = '0.250000' points = '285.2,314.4 285.2,662.4 287.0,662.4 287.0,310.8 '/>
		<polygon fill = 'rgb( 31, 120, 180)' fill-opacity = '0.250000' points = '287.0,310.8 287.0,662.4 288.9,662.4 288.9,307.2 '/>
		<polygon fill = 'rgb( 31, 120, 180)' fill-opacity = '0.250000' points = '288.9,307.2 288.9,662.4 290.8,662.4 290.8,303.7 '/>
		<polygon fill = 'rgb( 31, 120, 180)' fill-opacity = '0.250000' points = '290.8,303.7 290.8,662.4 292.7,662.4 292.7,300.2 '/>
		<polygon fill = 'rgb( 31, 120, 180)' fill-opacity = '0.250000' points = '292.7,300.2 292.7,662.4 294.6,662.4 294.6,296.8 '/>
		<polygon fill = 'rgb( 31, 120, 180)' fill-opacity = '0.250000' points = '294.6,296.8 294.6,662.4 296.5,662.4 296.5,293.3 '/>
		<polygon fill = 'rgb( 31, 120, 180)' fill-opacity = '0.250000' points = '296.5,293.3 296.5,662.4 298.4,662.4 298.4,289.9 '/>
		<polygon fill = 'rgb( 31, 120, 180)' fill-opacity = '0.250000' points = '298.4,289.9 298.4,662.4 300.2,662.4 300.2,286.5 '/>
		<polygon fill = 'rgb( 31, 120, 180)' fill-opacity = '0.250000' points = '300.2,286.5 300.2,662.4 302.1,662.4 302.1,283.1 '/>
		<polygon fill = 'rgb( 31, 120, 180)' fill-opacity = '0.250000' points = '302.1,283.1 302.1,662.4 304.0,662.4 304.0,279.7 '/>
		<polygon fill = 'rgb( 31, 120, 180)' fill-opacity = '0.250000' points = '304.0,279.7 304.0,662.4 305.9,662.4 305.9,276.3 '/>
		<polygon fill = 'rgb( 31, 120, 180)' fill-opacity = '0.250000' points = '305.9,276.3 305.9,662.4 307.8,662.4 307.8,272.9 '/>
		<polygon fill = 'rgb( 31, 120, 180)' fill-opacity = '0.250000' points = '307.8,272.9 307.8,662.4 309.7,662.4 309.7,269.5 '/>
		<polygon fill = 'rgb( 31, 120, 180)' fill-opacity = '0.250000' points = '309.7,269.5 309.7,662.4 311.6,662.4 311.6,266.0 '/>
		<polygon fill = 'rgb( 31, 120, 180)' fill-opacity = '0.250000' points = '311.6,266.0 311.6,662.4 313.5,662.4 313.5,262.6 '/>
		<polygon fill = 'rgb( 31, 120, 180)' fill-opacity = '0.250000' points = '313.5,262.6 313.5,662.4 315.3,662.4 315.3,259.1 '/>
		<polygon fill = 'rgb( 31, 120, 180)' fill-opacity = '0.250000' points = '315.3,259.1 315.3,662.4 317.2,662.4 317.2,255.7 '/>
		<polygon fill = 'rgb( 31, 120, 180)' fill-opacity = '0.250000' points = '317.2,255.7 317.2,662.4 319.1,662.4 319.1,252.2 '/>
		<polygon fill = 'rgb( 31, 120, 180)' fill-opacity = '0.250000' points = '319.1,252.2 319.1,662.4 321.0,662.4 321.0,248.7 '/>
		<polygon fill = 'rgb( 31, 120, 180)' fill-opacity = '0.250000' points = '321.0,248.7 321.0,662.4 322.9,662.4 322.9,245.2 '/>
		<polygon fill = 'rgb( 31, 120, 180)' fill-opacity = '0.250000' points = '322.9,245.2 322.9,662.4 324.8,662.4 324.8,241.7 '/>
		<polygon fill = 'rgb( 31, 120, 180)' fill-opacity = '0.250000' points = '324.8,241.7 324.8,662.4 326.7,662.4 326.7,238.3 '/>
		<polygon fill = 'rgb( 31, 120, 180)' fill-opacity = '0.250000' points = '326.7,238.3 326.7,662.4 328.6,662.4 328.6,234.8 '/>
		<polygon fill = 'rgb( 31, 120, 180)' fill-opacity = '0.250000' points = '328.6,234.8 328.6,662.4 330.4,662.4 330.4,231.4 '/>
		<polygon fill = 'rgb( 31, 120, 180)' fill-opacity = '0.250000' points = '330.4,231.4 330.4,662.4 332.3,662.4 332.3,227.9 '/>
		<polygon fill = 'rgb( 31, 120, 180)' fill-opacity = '0.250000' points = '332.3,227.9 332.3,662.4 334.2,662.4 334.2,224.6 '/>
		<polygon fill = 'rgb( 31, 120, 180)' fill-opacity = '0.250000' points = '334.2,224.6 334.2,662.4 336.1,662.4 336.1,221.3 '/>
		<polygon fill = 'rgb( 31, 120, 180)' fill-opacity = '0.250000' points = '336.1,221.3 336.1,662.4 338.0,662.4 338.0,218.0 '/>
		<polygon fill = 'rgb( 31, 120, 180)' fill-opacity = '0.250000' points = '338.0,218.0 338.0,662.4 339.9,662.4 339.9,214.8 '/>
		<polygon fill = 'rgb( 31, 120, 180)' fill-opacity = '0.250000' points = '339.9,214.8 339.9,662.4 341.8,662.4 341.8,211.6 '/>
		<polygon fill = 'rgb( 31, 120, 180)' fill-opacity = '0.250000' points = '341.8,211.6 341.8,662.4 343.7,662.4 343.7,208.5 '/>
		<polygon fill = 'rgb( 31, 120, 180)' fill-opacity = '0.250000' points = '343.7,208.5 343.7,662.4 345.5,662.4 345.5,205.4 '/>
		<polygon fill = 'rgb( 31, 120, 180)' fill-opacity = '0.250000' points = '345.5,205.4 345.5,662.4 347.4,662.4 347.4,202.5 '/>
		<polygon fill = 'rgb( 31, 120, 180)' fill-opacity = '0.250000' points = '347.4,202.5 347.4,662.4 349.3,662.4 349.3,199.6 '/>
		<polygon fill = 'rgb( 31, 120, 180)' fill-opacity = '0.250000' points = '349.3,199.6 349.3,662.4 351.2,662.4 351.2,196.7 '/>
		<polygon fill = 'rgb( 31, 120, 180)' fill-opacity = '0.250000' points = '351.2,196.7 351.2,662.4 353.1,662.4 353.1,193.9 '/>
		<polygon fill = 'rgb( 31, 120, 180)' fill-opacity = '0.250000' points = '353.1,193.9 353.1,662.4 355.0,662.4 355.0,191.2 '/>
		<polygon fill = 'rgb( 31, 120, 180)' fill-opacity = '0.250000' points = '355.0,191.2 355.0,662.4 356.9,662.4 356.9,188.5 '/>
		<polygon fill = 'rgb( 31, 120, 180)' fill-opacity = '0.250000' points = '356.9,188.5 356.9,662.4 358.8,662.4 358.8,185.8 '/>
		<polygon fill = 'rgb( 31, 120, 180)' fill-opacity = '0.250000' points = '358.8,185.8 358.8,662.4 360.6,662.4 360.6,183.2 '/>
		<polygon fill = 'rgb( 31, 120, 180)' fill-opacity = '0.250000' points = '360.6,183.2 360.6,662.4 362.5,662.4 362.5,180.6 '/>
		<polygon fill = 'rgb( 31, 120, 180)' fill-opacity = '0.250000' points = '362.5,180.6 362.5,662.4 364.4,662.4 364.4,178.1 '/>
		<polygon fill = 'rgb( 31, 120, 180)' fill-opacity = '0.250000' points = '364.4,178.1 364.4,662.4 366.3,662.4 366.3,175.6 '/>
		<polygon fill = 'rgb( 31, 120, 180)' fill-opacity = '0.250000' points = '366.3,175.6 366.3,662.4 368.2,662.4 368.2,173.1 '/>
		<polygon fill = 'rgb( 31, 120, 180)' fill-opacity = '0.250000' points = '368.2,173.1 368.2,662.4 370.1,662.4 370.1,170.6 '/>
		<polygon fill = 'rgb( 31, 120, 180)' fill-opacity = '0.250000' points = '370.1,170.6 370.1,662.4 372.0,662.4 372.0,168.1 '/>
		<polygon fill = 'rgb( 31, 120, 180)' fill-opacity = '0.250000' points = '372.0,168.1 372.0,662.4 373.8,662.4 373.8,165.7 '/>
		<polygon fill = 'rgb( 31, 120, 180)' fill-opacity = '0.250000' points = '373.8,165.7 373.8,662.4 375.7,662.4 375.7,163.2 '/>
		<polygon fill = 'rgb( 31, 120, 180)' fill-opacity = '0.250000' points = '375.7,163.2 375.7,662.4 377.6,662.4 377.6,160.8 '/>
		<polygon fill = 'rgb( 31, 120, 180)' fill-opacity = '0.250000' points = '377.6,160.8 377.6,662.4 379.5,662.4 379.5,158.3 '/>
		<polygon fill = 'rgb( 31, 120, 180)' fill-opacity = '0.250000' points = '379.5,158.3 379.5,662.4 381.4,662.4 381.4,155.9 '/>
		<polygon fill = 'rgb( 31, 120, 180)' fill-opacity = '0.250000' points = '381.4,155.9 381.4,662.4 383.3,662.4 383.3,153.5 '/>
		<polygon fill = 'rgb( 31, 120, 180)' fill-opacity = '0.250000' points = '383.3,153.5 383.3,662.4 385.2,662.4 385.2,151.1 '/>
		<polygon fill = 'rgb( 31, 120, 180)' fill-opacity = '0.250000' points = '385.2,151.1 385.2,662.4 387.1,662.4 387.1,148.7 '/>
		<polygon fill = 'rgb( 31, 120, 180)' fill-opacity = '0.250000' points = '387.1,148.7 387.1,662.4 388.9,662.4 388.9,146.3 '/>
		<polygon fill = 'rgb( 31, 120, 180)' fill-opacity = '0.250000' points = '388.9,146.3 388.9,662.4 390.8,662.4 390.8,143.9 '/>
		<polygon fill = 'rgb( 31, 120, 180)' fill-opacity = '0.250000' points = '390.8,143.9 390.8,662.4 392.7,662.4 392.7,141.6 '/>
		<polygon fill = 'rgb( 31, 120, 180)' fill-opacity = '0.250000' points = '392.7,141.6 392.7,662.4 394.6,662.4 394.6,139.2 '/>
		<polygon fill = 'rgb( 31, 120, 180)' fill-opacity = '0.250000' points = '394.6,139.2 394.6,662.4 396.5,662.4 396.5,136.9 '/>
		<polygon fill = 'rgb( 31, 120, 180)' fill-opacity = '0.250000' points = '396.5,136.9 396.5,662.4 398.4,662.4 398.4,134.6 '/>
		<polygon fill = 'rgb( 31, 120, 180)' fill-opacity = '0.250000' points = '398.4,134.6 398.4,662.4 400.3,662.4 400.3,132.4 '/>
		<polygon fill = 'rgb( 31, 120, 180)' fill-opacity = '0.250000' points = '400.3,132.4 400.3,662.4 402.2,662.4 402.2,130.2 '/>
		<polygon fill = 'rgb( 31, 120, 180)' fill-opacity = '0.250000' points = '402.2,130.2 402.2,662.4 404.0,662.4 404.0,128.0 '/>
		<polygon fill = 'rgb( 31, 120, 180)' fill-opacity = '0.250000' points = '404.0,128.0 404.0,662.4 405.9,662.4 405.9,125.9 '/>
		<polygon fill = 'rgb( 31, 120, 180)' fill-opacity = '0.250000' points = '405.9,125.9 405.9,662.4 407.8,662.4 407.8,123.9 '/>
		<polygon fill = 'rgb( 31, 120, 180)' fill-opacity = '0.250000' points = '407.8,123.9 407.8,662.4 409.7,662.4 409.7,121.9 '/>
		<polygon fill = 'rgb( 31, 120, 180)' fill-opacity = '0.250000' points = '409.7,121.9 409.7,662.4 411.6,662.4 411.6,119.9 '/>
		<polygon fill = 'rgb( 31, 120, 180)' fill-opacity = '0.250000' points = '411.6,119.9 411.6,662.4 413.5,662.4 413.5,118.0 '/>
		<polygon fill = 'rgb( 31, 120, 180)' fill-opacity = '0.250000' points = '413.5,118.0 413.5,662.4 415.4,662.4 415.4,116.2 '/>
		<polygon fill = 'rgb( 31, 120, 180)' fill-opacity = '0.250000' points = '415.4,116.2 415.4,662.4 417.3,662.4 417.3,114.5 '/>
		<polygon fill = 'rgb( 31, 120, 180)' fill-opacity = '0.250000' points = '417.3,114.5 417.3,662.4 419.1,662.4 419.1,112.8 '/>
		<polygon fill = 'rgb( 31, 120, 180)' fill-opacity = '0.250000' points = '419.1,112.8 419.1,662.4 421.0,662.4 421.0,111.2 '/>
		<polygon fill = 'rgb( 31, 120, 180)' fill-opacity = '0.250000' points = '421.0,111.2 421.0,662.4 422.9,662.4 422.9,109.6 '/>
		<polygon fill = 'rgb( 31, 120, 180)' fill-opacity = '0.250000' points = '422.9,109.6 422.9,662.4 424.8,662.4 424.8,108.1 '/>
		<polygon fill = 'rgb( 31, 120, 180)' fill-opacity = '0.250000' points = '424.8,108.1 424.8,662.4 426.7,662.4 426.7,106.7 '/>
		<polygon fill = 'rgb( 31, 120, 180)' fill-opacity = '0.250000' points = '426.7,106.7 426.7,662.4 428.6,662.4 428.6,105.3 '/>
		<polygon fill = 'rgb( 31, 120, 180)' fill-opacity = '0.250000' points = '428.6,105.3 428.6,662.4 430.5,662.4 430.5,104.0 '/>
		<polygon fill = 'rgb( 31, 120, 180)' fill-opacity = '0.250000' points = '430.5,104.0 430.5,662.4 432.4,662.4 432.4,102.7 '/>
		<polygon fill = 'rgb( 31, 120, 180)' fill-opacity = '0.250000' points = '432.4,102.7 432.4,662.4 434.2,662.4 434.2,101.5 '/>
		<polygon fill = 'rgb( 31, 120, 180)' fill-opacity = '0.250000' points = '434.2,101.5 434.2,662.4 436.1,662.4 436.1,100.2 '/>
		<polygon fill = 'rgb( 31, 120, 180)' fill-opacity = '0.250000' points = '436.1,100.2 436.1,662.4 438.0,662.4 438.0,99.1 '/>
		<polygon fill = 'rgb( 31, 120, 180)' fill-opacity = '0.250000' points = '438.0,99.1 438.0,662.4 439.9,662.4 439.9,97.9 '/>
		<polygon fill = 'rgb( 31, 120, 180)' fill-opacity = '0.250000' points = '439.9,97.9 439.9,662.4 441.8,662.4 441.8,96.7 '/>
		<polygon fill = 'rgb( 31, 120, 180)' fill-opacity = '0.250000' points = '441.8,96.7 441.8,662.4 443.7,662.4 443.7,95.6 '/>
		<polygon fill = 'rgb( 31, 120, 180)' fill-opacity = '0.250000' points = '443.7,95.6 443.7,662.4 445.6,662.4 445.6,94.4 '/>
		<polygon fill = 'rgb( 31, 120, 180)' fill-opacity = '0.250000' points = '445.6,94.4 445.6,662.4 447.4,662.4 447.4,93.3 '/>
		<polygon fill = 'rgb( 31, 120, 180)' fill-opacity = '0.250000' points = '447.4,93.3 447.4,662.4 449.3,662.4 449.3,92.1 '/>
		<polygon fill = 'rgb( 31, 120, 180)' fill-opacity = '0.250000' points = '449.3,92.1 449.3,662.4 451.2,662.4 451.2,90.9 '/>
		<polygon fill = 'rgb( 31, 120, 180)' fill-opacity = '0.250000' points = '451.2,90.9 451.2,662.4 453.1,662.4 453.1,89.8 '/>
		<polygon fill = 'rgb( 31, 120, 180)' fill-opacity = '0.250000' points = '453.1,89.8 453.1,662.4 455.0,662.4 455.0,88.6 '/>
		<polygon fill = 'rgb( 31, 120, 180)' fill-opacity = '0.250000' points = '455.0,88.6 455.0,662.4 456.9,662.4 456.9,87.5 '/>
		<polygon fill = 'rgb( 31, 120, 180)' fill-opacity = '0.250000' points = '456.9,87.5 456.9,662.4 458.8,662.4 458.8,86.4 '/>
		<polygon fill = 'rgb( 31, 120, 180)' fill-opacity = '0.250000' points = '458.8,86.4 458.8,662.4 460.7,662.4 460.7,85.3 '/>
		<polygon fill = 'rgb( 31, 120, 180)' fill-opacity = '0.250000' points = '460.7,85.3 460.7,662.4 462.5,662.4 462.5,84.2 '/>
		<polygon fill = 'rgb( 31, 120, 180)' fill-opacity = '0.250000' points = '462.5,84.2 462.5,662.4 464.4,662.4 464.4,83.2 '/>
		<polygon fill = 'rgb( 31, 120, 180)' fill-opacity = '0.250000' points = '464.4,83.2 464.4,662.4 466.3,662.4 466.3,82.3 '/>
		<polygon fill = 'rgb( 31, 120, 180)' fill-opacity = '0.250000' points = '466.3,82.3 466.3,662.4 468.2,662.4 468.2,81.4 '/>
		<polygon fill = 'rgb( 31, 120, 180)' fill-opacity = '0.250000' points = '468.2,81.4 468.2,662.4 470.1,662.4 470.1,80.6 '/>
		<polygon fill = 'rgb( 31, 120, 180)' fill-opacity = '0.250000' points = '470.1,80.6 470.1,662.4 472.0,662.4 472.0,79.9 '/>
		<polygon fill = 'rgb( 31, 120, 180)' fill-opacity = '0.250000' points = '472.0,79.9 472.0,662.4 473.9,662.4 473.9,79.3 '/>
		<polygon fill = 'rgb( 31, 120, 180)' fill-opacity = '0.250000' points = '473.9,79.3 473.9,662.4 475.8,662.4 475.8,78.9 '/>
		<polygon fill = 'rgb( 31, 120, 180)' fill-opacity = '0.250000' points = '475.8,78.9 475.8,662.4 477.6,662.4 477.6,78.5 '/>
		<polygon fill = 'rgb( 31, 120, 180)' fill-opacity = '0.250000' points = '477.6,78.5 477.6,662.4 479.5,662.4 479.5,78.2 '/>
		<polygon fill = 'rgb( 31, 120, 180)' fill-opacity = '0.250000' points = '479.5,78.2 479.5,662.4 481.4,662.4 481.4,78.0 '/>
		<polygon fill = 'rgb( 31, 120, 180)' fill-opacity = '0.250000' points = '481.4,78.0 481.4,662.4 483.3,662.4 483.3,78.0 '/>
		<polygon fill = 'rgb( 31, 120, 180)' fill-opacity = '0.250000' points = '483.3,78.0 483.3,662.4 485.2,662.4 485.2,78.0 '/>
		<polygon fill = 'rgb( 31, 120, 180)' fill-opacity = '0.250000' points = '485.2,78.0 485.2,662.4 487.1,662.4 487.1,78.2 '/>
		<polygon fill = 'rgb( 31, 120, 180)' fill-opacity = '0.250000' points = '487.1,78.2 487.1,662.4 489.0,662.4 489.0,78.4 '/>
		<polygon fill = 'rgb( 31, 120, 180)' fill-opacity = '0.250000' points = '489.0,78.4 489.0,662.4 490.9,662.4 490.9,78.7 '/>
		<polygon fill = 'rgb( 31, 120, 180)' fill-opacity = '0.250000' points = '490.9,78.7 490.9,662.4 492.7,662.4 492.7,79.1 '/>
		<polygon fill = 'rgb( 31, 120, 180)' fill-opacity = '0.250000' points = '492.7,79.1 492.7,662.4 494.6,662.4 494.6,79.5 '/>
		<polygon fill = 'rgb( 31, 120, 180)' fill-opacity = '0.250000' points = '494.6,79.5 494.6,662.4 496.5,662.4 496.5,80.0 '/>
		<polygon fill = 'rgb( 31, 120, 180)' fill-opacity = '0.250000' points = '496.5,80.0 496.5,662.4 498.4,662.4 498.4,80.5 '/>
		<polygon fill = 'rgb( 31, 120, 180)' fill-opacity = '0.250000' points = '498.4,80.5 498.4,662.4 500.3,662.4 500.3,81.1 '/>
		<polygon fill = 'rgb( 31, 120, 180)' fill-opacity = '0.250000' points = '500.3,81.1 500.3,662.4 502.2,662.4 502.2,81.7 '/>
		<polygon fill = 'rgb( 31, 120, 180)' fill-opacity = '0.250000' points = '502.2,81.7 502.2,662.4 504.1,662.4 504.1,82.3 '/>
		<polygon fill = 'rgb( 31, 120, 180)' fill-opacity = '0.250000' points = '504.1,82.3 504.1,662.4 506.0,662.4 506.0,82.9 '/>
		<polygon fill = 'rgb( 31, 120, 180)' fill-opacity = '0.250000' points = '506.0,82.9 506.0,662.4 507.8,662.4 507.8,83.6 '/>
		<polygon fill = 'rgb( 31, 120, 180)' fill-opacity = '0.250000' points = '507.8,83.6 507.8,662.4 509.7,662.4 509.7,84.3 '/>
		<polygon fill = 'rgb( 31, 120, 180)' fill-opacity = '0.250000' points = '509.7,84.3 509.7,662.4 511.6,662.4 511.6,85.0 '/>
		<polygon fill = 'rgb( 31, 120, 180)' fill-opacity = '0.250000' points = '511.6,85.0 511.6,662.4 513.5,662.4 513.5,85.7 '/>
		<polygon fill = 'rgb( 31, 120, 180)' fill-opacity = '0.250000' points = '513.5,85.7 513.5,662.4 515.4,662.4 515.4,86.4 '/>
		<polygon fill = 'rgb( 31, 120, 180)' fill-opacity = '0.250000' points = '515.4,86.4 515.4,662.4 517.3,662.4 517.3,87.2 '/>
		<polygon fill = 'rgb( 31, 120, 180)' fill-opacity = '0.250000' points = '517.3,87.2 517.3,662.4 519.2,662.4 519.2,88.0 '/>
		<polygon fill = 'rgb( 31, 120, 180)' fill-opacity = '0.250000' points = '519.2,88.0 519.2,662.4 521.0,662.4 521.0,88.9 '/>
		<polygon fill = 'rgb( 31, 120, 180)' fill-opacity = '0.250000' points = '521.0,88.9 521.0,662.4 522.9,662.4 522.9,89.8 '/>
		<polygon fill = 'rgb( 31, 120, 180)' fill-opacity = '0.250000' points = '522.9,89.8 522.9,662.4 524.8,662.4 524.8,90.7 '/>
		<polygon fill = 'rgb( 31, 120, 180)' fill-opacity = '0.250000' points = '524.8,90.7 524.8,662.4 526.7,662.4 526.7,91.7 '/>
		<polygon fill = 'rgb( 31, 120, 180)' fill-opacity = '0.250000' points = '526.7,91.7 526.7,662.4 528.6,662.4 528.6,92.8 '/>
		<polygon fill = 'rgb( 31, 120, 180)' fill-opacity = '0.250000' points = '528.6,92.8 528.6,662.4 530.5,662.4 530.5,93.9 '/>
		<polygon fill = 'rgb( 31, 120, 180)' fill-opacity = '0.250000' points = '530.5,93.9 530.5,662.4 532.4,662.4 532.4,95.1 '/>
		<polygon fill = 'rgb( 31, 120, 180)' fill-opacity = '0.250000' points = '532.4,95.1 532.4,662.4 534.3,662.4 534.3,96.3 '/>
		<polygon fill = 'rgb( 31, 120, 180)' fill-opacity = '0.250000' points = '534.3,96.3 534.3,662.4 536.1,662.4 536.1,97.6 '/>
		<polygon fill = 'rgb( 31, 120, 180)' fill-opacity = '0.250000' points = '536.1,97.6 536.1,662.4 538.0,662.4 538.0,99.0 '/>
		<polygon fill = 'rgb( 31, 120, 180)' fill-opacity = '0.250000' points = '538.0,99.0 538.0,662.4 539.9,662.4 539.9,100.4 '/>
		<polygon fill = 'rgb( 31, 120, 180)' fill-opacity = '0.250000' points = '539.9,100.4 539.9,662.4 541.8,662.4 541.8,101.9 '/>
		<polygon fill = 'rgb( 31, 120, 180)' fill-opacity = '0.250000' points = '541.8,101.9 541.8,662.4 543.7,662.4 543.7,103.4 '/>
		<polygon fill = 'rgb( 31, 120, 180)' fill-opacity = '0.250000' points = '543.7,103.4 543.7,662.4 545.6,662.4 545.6,104.9 '/>
		<polygon fill = 'rgb( 31, 120, 180)' fill-opacity = '0.250000' points = '545.6,104.9 545.6,662.4 547.5,662.4 547.5,106.6 '/>
		<polygon fill = 'rgb( 31, 120, 180)' fill-opacity = '0.250000' points = '547.5,106.6 547.5,662.4 549.4,662.4 549.4,108.2 '/>
		<polygon fill = 'rgb( 31, 120, 180)' fill-opacity = '0.250000' points = '549.4,108.2 549.4,662.4 551.2,662.4 551.2,109.9 '/>
		<polygon fill = 'rgb( 31, 120, 180)' fill-opacity = '0.250000' points = '551.2,109.9 551.2,662.4 553.1,662.4 553.1,111.6 '/>
		<polygon fill = 'rgb( 31, 120, 180)' fill-opacity = '0.250000' points = '553.1,111.6 553.1,662.4 555.0,662.4 555.0,113.4 '/>
		<polygon fill = 'rgb( 31, 120, 180)' fill-opacity = '0.250000' points = '555.0,113.4 555.0,662.4 556.9,662.4 556.9,115.2 '/>
		<polygon fill = 'rgb( 31, 120, 180)' fill-opacity = '0.250000' points = '556.9,115.2 556.9,662.4 558.8,662.4 558.8,117.0 '/>
		<polygon fill = 'rgb( 31, 120, 180)' fill-opacity = '0.250000' points = '558.8,117.0 558.8,662.4 560.7,662.4 560.7,118.9 '/>
		<polygon fill = 'rgb( 31, 120, 180)' fill-opacity = '0.250000' points = '560.7,118.9 560.7,662.4 562.6,662.4 562.6,120.7 '/>
		<polygon fill = 'rgb( 31, 120, 180)' fill-opacity = '0.250000' points = '562.6,120.7 562.6,662.4 564.5,662.4 564.5,122.6 '/>
		<polygon fill = 'rgb( 31, 120, 180)' fill-opacity = '0.250000' points = '564.5,122.6 564.5,662.4 566.3,662.4 566.3,124.6 '/>
		<polygon fill = 'rgb( 31, 120, 180)' fill-opacity = '0.250000' points = '566.3,124.6 566.3,662.4 568.2,662.4 568.2,126.5 '/>
		<polygon fill = 'rgb( 31, 120, 180)' fill-opacity = '0.250000' points = '568.2,126.5 568.2,662.4 570.1,662.4 570.1,128.5 '/>
		<polygon fill = 'rgb( 31, 120, 180)' fill-opacity = '0.250000' points = '570.1,128.5 570.1,662.4 572.0,662.4 572.0,130.5 '/>
		<polygon fill = 'rgb( 31, 120, 180)' fill-opacity = '0.250000' points = '572.0,130.5 572.0,662.4 573.9,662.4 573.9,132.5 '/>
		<polygon fill = 'rgb( 31, 120, 180)' fill-opacity = '0.250000' points = '573.9,132.5 573.9,662.4 575.8,662.4 575.8,134.6 '/>
		<polygon fill = 'rgb( 31, 120, 180)' fill-opacity = '0.250000' points = '575.8,134.6 575.8,662.4 577.7,662.4 577.7,136.7 '/>
		<polygon fill = 'rgb( 31, 120, 180)' fill-opacity = '0.250000' points = '577.7,136.7 577.7,662.4 579.5,662.4 579.5,138.8 '/>
		<polygon fill = 'rgb( 31, 120, 180)' fill-opacity = '0.250000' points = '579.5,138.8 579.5,662.4 581.4,662.4 581.4,141.0 '/>
		<polygon fill = 'rgb( 31, 120, 180)' fill-opacity = '0.250000' points = '581.4,141.0 581.4,662.4 583.3,662.4 583.3,143.2 '/>
		<polygon fill = 'rgb( 31, 120, 180)' fill-opacity = '0.250000' points = '583.3,143.2 583.3,662.4 585.2,662.4 585.2,145.5 '/>
		<polygon fill = 'rgb( 31, 120, 180)' fill-opacity = '0.250000' points = '585.2,145.5 585.2,662.4 587.1,662.4 587.1,147.8 '/>
		<polygon fill = 'rgb( 31, 120, 180)' fill-opacity = '0.250000' points = '587.1,147.8 587.1,662.4 589.0,662.4 589.0,150.2 '/>
		<polygon fill = 'rgb( 31, 120, 180)' fill-opacity = '0.250000' points = '589.0,150.2 589.0,662.4 590.9,662.4 590.9,152.5 '/>
		<polygon fill = 'rgb( 31, 120, 180)' fill-opacity = '0.250000' points = '590.9,152.5 590.9,662.4 592.8,662.4 592.8,155.0 '/>
		<polygon fill = 'rgb( 31, 120, 180)' fill-opacity = '0.250000' points = '592.8,155.0 592.8,662.4 594.6,662.4 594.6,157.5 '/>
		<polygon fill = 'rgb( 31, 120, 180)' fill-opacity = '0.250000' points = '594.6,157.5 594.6,662.4 596.5,662.4 596.5,160.0 '/>
		<polygon fill = 'rgb( 31, 120, 180)' fill-opacity = '0.250000' points = '596.5,160.0 596.5,662.4 598.4,662.4 598.4,162.5 '/>
		<polygon fill = 'rgb( 31, 120, 180)' fill-opacity = '0.250000' points = '598.4,162.5 598.4,662.4 600.3,662.4 600.3,165.1 '/>
		<polygon fill = 'rgb( 31, 120, 180)' fill-opacity = '0.250000' points = '600.3,165.1 600.3,662.4 602.2,662.4 602.2,167.7 '/>
		<polygon fill = 'rgb( 31, 120, 180)' fill-opacity = '0.250000' points = '602.2,167.7 602.2,662.4 604.1,662.4 604.1,170.4 '/>
		<polygon fill = 'rgb( 31, 120, 180)' fill-opacity = '0.250000' points = '604.1,170.4 604.1,662.4 606.0,662.4 606.0,173.0 '/>
		<polygon fill = 'rgb( 31, 120, 180)' fill-opacity = '0.250000' points = '606.0,173.0 606.0,662.4 607.9,662.4 607.9,175.7 '/>
		<polygon fill = 'rgb( 31, 120, 180)' fill-opacity = '0.250000' points = '607.9,175.7 607.9,662.4 609.7,662.4 609.7,178.4 '/>
		<polygon fill = 'rgb( 31, 120, 180)' fill-opacity = '0.250000' points = '609.7,178.4 609.7,662.4 611.6,662.4 611.6,181.2 '/>
		<polygon fill = 'rgb( 31, 120, 180)' fill-opacity = '0.250000' points = '611.6,181.2 611.6,662.4 613.5,662.4 613.5,183.9 '/>
		<polygon fill = 'rgb( 31, 120, 180)' fill-opacity = '0.250000' points = '613.5,183.9 613.5,662.4 615.4,662.4 615.4,186.6 '/>
		<polygon fill = 'rgb( 31, 120, 180)' fill-opacity = '0.250000' points = '615.4,186.6 615.4,662.4 617.3,662.4 617.3,189.4 '/>
		<polygon fill = 'rgb( 31, 120, 180)' fill-opacity = '0.250000' points = '617.3,189.4 617.3,662.4 619.2,662.4 619.2,192.1 '/>
		<polygon fill = 'rgb( 31, 120, 180)' fill-opacity = '0.250000' points = '619.2,192.1 619.2,662.4 621.1,662.4 621.1,194.9 '/>
		<polygon fill = 'rgb( 31, 120, 180)' fill-opacity = '0.250000' points = '621.1,194.9 621.1,662.4 623.0,662.4 623.0,197.6 '/>
		<polygon fill = 'rgb( 31, 120, 180)' fill-opacity = '0.250000' points = '623.0,197.6 623.0,662.4 624.8,662.4 624.8,200.4 '/>
		<polygon fill = 'rgb( 31, 120, 180)' fill-opacity = '0.250000' points = '624.8,200.4 624.8,662.4 626.7,662.4 626.7,203.2 '/>
		<polygon fill = 'rgb( 31, 120, 180)' fill-opacity = '0.250000' points = '626.7,203.2 626.7,662.4 628.6,662.4 628.6,205.9 '/>
		<polygon fill = 'rgb( 31, 120, 180)' fill-opacity = '0.250000' points = '628.6,205.9 628.6,662.4 630.5,662.4 630.5,208.7 '/>
		<polygon fill = 'rgb( 31, 120, 180)' fill-opacity = '0.250000' points = '630.5,208.7 630.5,662.4 632.4,662.4 632.4,211.5 '/>
		<polygon fill = 'rgb( 31, 120, 180)' fill-opacity = '0.250000' points = '632.4,211.5 632.4,662.4 634.3,662.4 634.3,214.3 '/>
		<polygon fill = 'rgb( 31, 120, 180)' fill-opacity = '0.250000' points = '634.3,214.3 634.3,662.4 636.2,662.4 636.2,217.1 '/>
		<polygon fill = 'rgb( 31, 120, 180)' fill-opacity = '0.250000' points = '636.2,217.1 636.2,662.4 638.1,662.4 638.1,219.9 '/>
		<polygon fill = 'rgb( 31, 120, 180)' fill-opacity = '0.250000' points = '638.1,219.9 638.1,662.4 639.9,662.4 639.9,222.8 '/>
		<polygon fill = 'rgb( 31, 120, 180)' fill-opacity = '0.250000' points = '639.9,222.8 639.9,662.4 641.8,662.4 641.8,225.7 '/>
		<polygon fill = 'rgb( 31, 120, 180)' fill-opacity = '0.250000' points = '641.8,225.7 641.8,662.4 643.7,662.4 643.7,228.6 '/>
		<polygon fill = 'rgb( 31, 120, 180)' fill-opacity = '0.250000' points = '643.7,228.6 643.7,662.4 645.6,662.4 645.6,231.5 '/>
		<polygon fill = 'rgb( 31, 120, 180)' fill-opacity = '0.250000' points = '645.6,231.5 645.6,662.4 647.5,662.4 647.5,234.5 '/>
		<polygon fill = 'rgb( 31, 120, 180)' fill-opacity = '0.250000' points = '647.5,234.5 647.5,662.4 649.4,662.4 649.4,237.4 '/>
		<polygon fill = 'rgb( 31, 120, 180)' fill-opacity = '0.250000' points = '649.4,237.4 649.4,662.4 651.3,662.4 651.3,240.4 '/>
		<polygon fill = 'rgb( 31, 120, 180)' fill-opacity = '0.250000' points = '651.3,240.4 651.3,662.4 653.1,662.4 653.1,243.4 '/>
		<polygon fill = 'rgb( 31, 120, 180)' fill-opacity = '0.250000' points = '653.1,243.4 653.1,662.4 655.0,662.4 655.0,246.5 '/>
		<polygon fill = 'rgb( 31, 120, 180)' fill-opacity = '0.250000' points = '655.0,246.5 655.0,662.4 656.9,662.4 656.9,249.5 '/>
		<polygon fill = 'rgb( 31, 120, 180)' fill-opacity = '0.250000' points = '656.9,249.5 656.9,662.4 658.8,662.4 658.8,252.5 '/>
		<polygon fill = 'rgb( 31, 120, 180)' fill-opacity = '0.250000' points = '658.8,252.5 658.8,662.4 660.7,662.4 660.7,255.6 '/>
		<polygon fill = 'rgb( 31, 120, 180)' fill-opacity = '0.250000' points = '660.7,255.6 660.7,662.4 662.6,662.4 662.6,258.6 '/>
		<polygon fill = 'rgb( 31, 120, 180)' fill-opacity = '0.250000' points = '662.6,258.6 662.6,662.4 664.5,662.4 664.5,261.6 '/>
		<polygon fill = 'rgb( 31, 120, 180)' fill-opacity = '0.250000' points = '664.5,261.6 664.5,662.4 666.4,662.4 666.4,264.6 '/>
		<polygon fill = 'rgb( 31, 120, 180)' fill-opacity = '0.250000' points = '666.4,264.6 666.4,662.4 668.2,662.4 668.2,267.6 '/>
		<polygon fill = 'rgb( 31, 120, 180)' fill-opacity = '0.250000' points = '668.2,267.6 668.2,662.4 670.1,662.4 670.1,270.6 '/>
		<polygon fill = 'rgb( 31, 120, 180)' fill-opacity = '0.250000' points = '670.1,270.6 670.1,662.4 672.0,662.4 672.0,273.5 '/>
		<polygon fill = 'rgb( 31, 120, 180)' fill-opacity = '0.250000' points = '672.0,273.5 672.0,662.4 673.9,662.4 673.9,276.5 '/>
		<polygon fill = 'rgb( 31, 120, 180)' fill-opacity = '0.250000' points = '673.9,276.5 673.9,662.4 675.8,662.4 675.8,279.4 '/>
		<polygon fill = 'rgb( 31, 120, 180)' fill-opacity = '0.250000' points = '675.8,279.4 675.8,662.4 677.7,662.4 677.7,282.3 '/>
		<polygon fill = 'rgb( 31, 120, 180)' fill-opacity = '0.250000' points = '677.7,282.3 677.7,662.4 679.6,662.4 679.6,285.1 '/>
		<polygon fill = 'rgb( 31, 120, 180)' fill-opacity = '0.250000' points = '679.6,285.1 679.6,662.4 681.5,662.4 681.5,288.0 '/>
		<polygon fill = 'rgb( 31, 120, 180)' fill-opacity = '0.250000' points = '681.5,288.0 681.5,662.4 683.3,662.4 683.3,290.9 '/>
		<polygon fill = 'rgb( 31, 120, 180)' fill-opacity = '0.250000' points = '683.3,290.9 683.3,662.4 685.2,662.4 685.2,293.7 '/>
		<polygon fill = 'rgb( 31, 120, 180)' fill-opacity = '0.250000' points = '685.2,293.7 685.2,662.4 687.1,662.4 687.1,296.6 '/>
		<polygon fill = 'rgb( 31, 120, 180)' fill-opacity = '0.250000' points = '687.1,296.6 687.1,662.4 689.0,662.4 689.0,299.5 '/>
		<polygon fill = 'rgb( 31, 120, 180)' fill-opacity = '0.250000' points = '689.0,299.5 689.0,662.4 690.9,662.4 690.9,302.4 '/>
		<polygon fill = 'rgb( 31, 120, 180)' fill-opacity = '0.250000' points = '690.9,302.4 690.9,662.4 692.8,662.4 692.8,305.3 '/>
		<polygon fill = 'rgb( 31, 120, 180)' fill-opacity = '0.250000' points = '692.8,305.3 692.8,662.4 694.7,662.4 694.7,308.3 '/>
		<polygon fill = 'rgb( 31, 120, 180)' fill-opacity = '0.250000' points = '694.7,308.3 694.7,662.4 696.6,662.4 696.6,311.3 '/>
		<polygon fill = 'rgb( 31, 120, 180)' fill-opacity = '0.250000' points = '696.6,311.3 696.6,662.4 698.4,662.4 698.4,314.3 '/>
		<polygon fill = 'rgb( 31, 120, 180)' fill-opacity = '0.250000' points = '698.4,314.3 698.4,662.4 700.3,662.4 700.3,317.3 '/>
		<polygon fill = 'rgb( 31, 120, 180)' fill-opacity = '0.250000' points = '700.3,317.3 700.3,662.4 702.2,662.4 702.2,320.4 '/>
		<polygon fill = 'rgb( 31, 120, 180)' fill-opacity = '0.250000' points = '702.2,320.4 702.2,662.4 704.1,662.4 704.1,323.5 '/>
		<polygon fill = 'rgb( 31, 120, 180)' fill-opacity = '0.250000' points = '704.1,323.5 704.1,662.4 706.0,662.4 706.0,326.7 '/>
		<polygon fill = 'rgb( 31, 120, 180)' fill-opacity = '0.250000' points = '706.0,326.7 706.0,662.4 707.9,662.4 707.9,329.9 '/>
		<polygon fill = 'rgb( 31, 120, 180)' fill-opacity = '0.250000' points = '707.9,329.9 707.9,662.4 709.8,662.4 709.8,333.1 '/>
		<polygon fill = 'rgb( 31, 120, 180)' fill-opacity = '0.250000' points = '709.8,333.1 709.8,662.4 711.7,662.4 711.7,336.4 '/>
		<polygon fill = 'rgb( 31, 120, 180)' fill-opacity = '0.250000' points = '711.7,336.4 711.7,662.4 713.5,662.4 713.5,339.7 '/>
		<polygon fill = 'rgb( 31, 120, 180)' fill-opacity = '0.250000' points = '713.5,339.7 713.5,662.4 715.4,662.4 715.4,343.0 '/>
		<polygon fill = 'rgb( 31, 120, 180)' fill-opacity = '0.250000' points = '715.4,343.0 715.4,662.4 717.3,662.4 717.3,346.3 '/>
		<polygon fill = 'rgb( 31, 120, 180)' fill-opacity = '0.250000' points = '717.3,346.3 717.3,662.4 719.2,662.4 719.2,349.7 '/>
		<polygon fill = 'rgb( 31, 120, 180)' fill-opacity = '0.250000' points = '719.2,349.7 719.2,662.4 721.1,662.4 721.1,353.0 '/>
		<polygon fill = 'rgb( 31, 120, 180)' fill-opacity = '0.250000' points = '721.1,353.0 721.1,662.4 723.0,662.4 723.0,356.4 '/>
		<polygon fill = 'rgb( 31, 120, 180)' fill-opacity = '0.250000' points = '723.0,356.4 723.0,662.4 724.9,662.4 724.9,359.7 '/>
		<polygon fill = 'rgb( 31, 120, 180)' fill-opacity = '0.250000' points = '724.9,359.7 724.9,662.4 726.7,662.4 726.7,363.0 '/>
		<polygon fill = 'rgb( 31, 120, 180)' fill-opacity = '0.250000' points = '726.7,363.0 726.7,662.4 728.6,662.4 728.6,366.4 '/>
		<polygon fill = 'rgb( 31, 120, 180)' fill-opacity = '0.250000' points = '728.6,366.4 728.6,662.4 730.5,662.4 730.5,369.7 '/>
		<polygon fill = 'rgb( 31, 120, 180)' fill-opacity = '0.250000' points = '730.5,369.7 730.5,662.4 732.4,662.4 732.4,373.0 '/>
		<polygon fill = 'rgb( 31, 120, 180)' fill-opacity = '0.250000' points = '732.4,373.0 732.4,662.4 734.3,662.4 734.3,376.3 '/>
		<polygon fill = 'rgb( 31, 120, 180)' fill-opacity = '0.250000' points = '734.3,376.3 734.3,662.4 736.2,662.4 736.2,379.6 '/>
		<polygon fill = 'rgb( 31, 120, 180)' fill-opacity = '0.250000' points = '736.2,379.6 736.2,662.4 738.1,662.4 738.1,382.8 '/>
		<polygon fill = 'rgb( 31, 120, 180)' fill-opacity = '0.250000' points = '738.1,382.8 738.1,662.4 740.0,662.4 740.0,386.0 '/>
		<polygon fill = 'rgb( 31, 120, 180)' fill-opacity = '0.250000' points = '740.0,386.0 740.0,662.4 741.8,662.4 741.8,389.2 '/>
		<polygon fill = 'rgb( 31, 120, 180)' fill-opacity = '0.250000' points = '741.8,389.2 741.8,662.4 743.7,662.4 743.7,392.4 '/>
		<polygon fill = 'rgb( 31, 120, 180)' fill-opacity = '0.250000' points = '743.7,392.4 743.7,662.4 745.6,662.4 745.6,395.6 '/>
		<polygon fill = 'rgb( 31, 120, 180)' fill-opacity = '0.250000' points = '745.6,395.6 745.6,662.4 747.5,662.4 747.5,398.7 '/>
		<polygon fill = 'rgb( 31, 120, 180)' fill-opacity = '0.250000' points = '747.5,398.7 747.5,662.4 749.4,662.4 749.4,401.8 '/>
		<polygon fill = 'rgb( 31, 120, 180)' fill-opacity = '0.250000' points = '749.4,401.8 749.4,662.4 751.3,662.4 751.3,404.9 '/>
		<polygon fill = 'rgb( 31, 120, 180)' fill-opacity = '0.250000' points = '751.3,404.9 751.3,662.4 753.2,662.4 753.2,407.9 '/>
		<polygon fill = 'rgb( 31, 120, 180)' fill-opacity = '0.250000' points = '753.2,407.9 753.2,662.4 755.1,662.4 755.1,411.0 '/>
		<polygon fill = 'rgb( 31, 120, 180)' fill-opacity = '0.250000' points = '755.1,411.0 755.1,662.4 756.9,662.4 756.9,414.0 '/>
		<polygon fill = 'rgb( 31, 120, 180)' fill-opacity = '0.250000' points = '756.9,414.0 756.9,662.4 758.8,662.4 758.8,416.9 '/>
		<polygon fill = 'rgb( 31, 120, 180)' fill-opacity = '0.250000' points = '758.8,416.9 758.8,662.4 760.7,662.4 760.7,419.9 '/>
		<polygon fill = 'rgb( 31, 120, 180)' fill-opacity = '0.250000' points = '760.7,419.9 760.7,662.4 762.6,662.4 762.6,422.8 '/>
		<polygon fill = 'rgb( 31, 120, 180)' fill-opacity = '0.250000' points = '762.6,422.8 762.6,662.4 764.5,662.4 764.5,425.7 '/>
		<polygon fill = 'rgb( 31, 120, 180)' fill-opacity = '0.250000' points = '764.5,425.7 764.5,662.4 766.4,662.4 766.4,428.5 '/>
		<polygon fill = 'rgb( 31, 120, 180)' fill-opacity = '0.250000' points = '766.4,428.5 766.4,662.4 768.3,662.4 768.3,431.3 '/>
		<polygon fill = 'rgb( 31, 120, 180)' fill-opacity = '0.250000' points = '768.3,431.3 768.3,662.4 770.2,662.4 770.2,434.1 '/>
		<polygon fill = 'rgb( 31, 120, 180)' fill-opacity = '0.250000' points = '770.2,434.1 770.2,662.4 772.0,662.4 772.0,436.9 '/>
		<polygon fill = 'rgb( 31, 120, 180)' fill-opacity = '0.250000' points = '772.0,436.9 772.0,662.4 773.9,662.4 773.9,439.6 '/>
		<polygon fill = 'rgb( 31, 120, 180)' fill-opacity = '0.250000' points = '773.9,439.6 773.9,662.4 775.8,662.4 775.8,442.2 '/>
		<polygon fill = 'rgb( 31, 120, 180)' fill-opacity = '0.250000' points = '775.8,442.2 775.8,662.4 777.7,662.4 777.7,444.8 '/>
		<polygon fill = 'rgb( 31, 120, 180)' fill-opacity = '0.250000' points = '777.7,444.8 777.7,662.4 779.6,662.4 779.6,447.4 '/>
		<polygon fill = 'rgb( 31, 120, 180)' fill-opacity = '0.250000' points = '779.6,447.4 779.6,662.4 781.5,662.4 781.5,449.9 '/>
		<polygon fill = 'rgb( 31, 120, 180)' fill-opacity = '0.250000' points = '781.5,449.9 781.5,662.4 783.4,662.4 783.4,452.3 '/>
		<polygon fill = 'rgb( 31, 120, 180)' fill-opacity = '0.250000' points = '783.4,452.3 783.4,662.4 785.3,662.4 785.3,454.7 '/>
		<polygon fill = 'rgb( 31, 120, 180)' fill-opacity = '0.250000' points = '785.3,454.7 785.3,662.4 787.1,662.4 787.1,457.1 '/>
		<polygon fill = 'rgb( 31, 120, 180)' fill-opacity = '0.250000' points = '787.1,457.1 787.1,662.4 789.0,662.4 789.0,459.4 '/>
		<polygon fill = 'rgb( 31, 120, 180)' fill-opacity = '0.250000' points = '789.0,459.4 789.0,662.4 790.9,662.4 790.9,461.6 '/>
		<polygon fill = 'rgb( 31, 120, 180)' fill-opacity = '0.250000' points = '790.9,461.6 790.9,662.4 792.8,662.4 792.8,463.8 '/>
		<polygon fill = 'rgb( 31, 120, 180)' fill-opacity = '0.250000' points = '792.8,463.8 792.8,662.4 794.7,662.4 794.7,466.0 '/>
		<polygon fill = 'rgb( 31, 120, 180)' fill-opacity = '0.250000' points = '794.7,466.0 794.7,662.4 796.6,662.4 796.6,468.1 '/>
		<polygon fill = 'rgb( 31, 120, 180)' fill-opacity = '0.250000' points = '796.6,468.1 796.6,662.4 798.5,662.4 798.5,470.2 '/>
		<polygon fill = 'rgb( 31, 120, 180)' fill-opacity = '0.250000' points = '798.5,470.2 798.5,662.4 800.3,662.4 800.3,472.2 '/>
		<polygon fill = 'rgb( 31, 120, 180)' fill-opacity = '0.250000' points = '800.3,472.2 800.3,662.4 802.2,662.4 802.2,474.2 '/>
		<polygon fill = 'rgb( 31, 120, 180)' fill-opacity = '0.250000' points = '802.2,474.2 802.2,662.4 804.1,662.4 804.1,476.1 '/>
		<polygon fill = 'rgb( 31, 120, 180)' fill-opacity = '0.250000' points = '804.1,476.1 804.1,662.4 806.0,662.4 806.0,478.0 '/>
		<polygon fill = 'rgb( 31, 120, 180)' fill-opacity = '0.250000' points = '806.0,478.0 806.0,662.4 807.9,662.4 807.9,479.9 '/>
		<polygon fill = 'rgb( 31, 120, 180)' fill-opacity = '0.250000' points = '807.9,479.9 807.9,662.4 809.8,662.4 809.8,481.8 '/>
		<polygon fill = 'rgb( 31, 120, 180)' fill-opacity = '0.250000' points = '809.8,481.8 809.8,662.4 811.7,662.4 811.7,483.7 '/>
		<polygon fill = 'rgb( 31, 120, 180)' fill-opacity = '0.250000' points = '811.7,483.7 811.7,662.4 813.6,662.4 813.6,485.5 '/>
		<polygon fill = 'rgb( 31, 120, 180)' fill-opacity = '0.250000' points = '813.6,485.5 813.6,662.4 815.4,662.4 815.4,487.3 '/>
		<polygon fill = 'rgb( 31, 120, 180)' fill-opacity = '0.250000' points = '815.4,487.3 815.4,662.4 817.3,662.4 817.3,489.2 '/>
		<polygon fill = 'rgb( 31, 120, 180)' fill-opacity = '0.250000' points = '817.3,489.2 817.3,662.4 819.2,662.4 819.2,491.0 '/>
		<polygon fill = 'rgb( 31, 120, 180)' fill-opacity = '0.250000' points = '819.2,491.0 819.2,662.4 821.1,662.4 821.1,492.8 '/>
		<polygon fill = 'rgb( 31, 120, 180)' fill-opacity = '0.250000' points = '821.1,492.8 821.1,662.4 823.0,662.4 823.0,494.7 '/>
		<polygon fill = 'rgb( 31, 120, 180)' fill-opacity = '0.250000' points = '823.0,494.7 823.0,662.4 824.9,662.4 824.9,496.5 '/>
		<polygon fill = 'rgb( 31, 120, 180)' fill-opacity = '0.250000' points = '824.9,496.5 824.9,662.4 826.8,662.4 826.8,498.4 '/>
		<polygon fill = 'rgb( 31, 120, 180)' fill-opacity = '0.250000' points = '826.8,498.4 826.8,662.4 828.7,662.4 828.7,500.3 '/>
		<polygon fill = 'rgb( 31, 120, 180)' fill-opacity = '0.250000' points = '828.7,500.3 828.7,662.4 830.5,662.4 830.5,502.2 '/>
		<polygon fill = 'rgb( 31, 120, 180)' fill-opacity = '0.250000' points = '830.5,502.2 830.5,662.4 832.4,662.4 832.4,504.1 '/>
		<polygon fill = 'rgb( 31, 120, 180)' fill-opacity = '0.250000' points = '832.4,504.1 832.4,662.4 834.3,662.4 834.3,506.0 '/>
		<polygon fill = 'rgb( 31, 120, 180)' fill-opacity = '0.250000' points = '834.3,506.0 834.3,662.4 836.2,662.4 836.2,508.0 '/>
		<polygon fill = 'rgb( 31, 120, 180)' fill-opacity = '0.250000' points = '836.2,508.0 836.2,662.4 838.1,662.4 838.1,510.0 '/>
		<polygon fill = 'rgb( 31, 120, 180)' fill-opacity = '0.250000' points = '838.1,510.0 838.1,662.4 840.0,662.4 840.0,512.0 '/>
		<polygon fill = 'rgb( 31, 120, 180)' fill-opacity = '0.250000' points = '840.0,512.0 840.0,662.4 841.9,662.4 841.9,514.0 '/>
		<polygon fill = 'rgb( 31, 120, 180)' fill-opacity = '0.250000' points = '841.9,514.0 841.9,662.4 843.8,662.4 843.8,516.1 '/>
		<polygon fill = 'rgb( 31, 120, 180)' fill-opacity = '0.250000' points = '843.8,516.1 843.8,662.4 845.6,662.4 845.6,518.1 '/>
		<polygon fill = 'rgb( 31, 120, 180)' fill-opacity = '0.250000' points = '845.6,518.1 845.6,662.4 847.5,662.4 847.5,520.2 '/>
		<polygon fill = 'rgb( 31, 120, 180)' fill-opacity = '0.250000' points = '847.5,520.2 847.5,662.4 849.4,662.4 849.4,522.3 '/>
		<polygon fill = 'rgb( 31, 120, 180)' fill-opacity = '0.250000' points = '849.4,522.3 849.4,662.4 851.3,662.4 851.3,524.3 '/>
		<polygon fill = 'rgb( 31, 120, 180)' fill-opacity = '0.250000' points = '851.3,524.3 851.3,662.4 853.2,662.4 853.2,526.4 '/>
		<polygon fill = 'rgb( 31, 120, 180)' fill-opacity = '0.250000' points = '853.2,526.4 853.2,662.4 855.1,662.4 855.1,528.5 '/>
		<polygon fill = 'rgb( 31, 120, 180)' fill-opacity = '0.250000' points = '855.1,528.5 855.1,662.4 857.0,662.4 857.0,530.6 '/>
		<polygon fill = 'rgb( 31, 120, 180)' fill-opacity = '0.250000' points = '857.0,530.6 857.0,662.4 858.9,662.4 858.9,532.6 '/>
		<polygon fill = 'rgb( 31, 120, 180)' fill-opacity = '0.250000' points = '858.9,532.6 858.9,662.4 860.7,662.4 860.7,534.7 '/>
		<polygon fill = 'rgb( 31, 120, 180)' fill-opacity = '0.250000' points = '860.7,534.7 860.7,662.4 862.6,662.4 862.6,536.7 '/>
		<polygon fill = 'rgb( 31, 120, 180)' fill-opacity = '0.250000' points = '862.6,536.7 862.6,662.4 864.5,662.4 864.5,538.7 '/>
		<polygon fill = 'rgb( 31, 120, 180)' fill-opacity = '0.250000' points = '864.5,538.7 864.5,662.4 866.4,662.4 866.4,540.7 '/>
		<polygon fill = 'rgb( 31, 120, 180)' fill-opacity = '0.250000' points = '866.4,540.7 866.4,662.4 868.3,662.4 868.3,542.6 '/>
		<polygon fill = 'rgb( 31, 120, 180)' fill-opacity = '0.250000' points = '868.3,542.6 868.3,662.4 870.2,662.4 870.2,544.5 '/>
		<polygon fill = 'rgb( 31, 120, 180)' fill-opacity = '0.250000' points = '870.2,544.5 870.2,662.4 872.1,662.4 872.1,546.4 '/>
		<polygon fill = 'rgb( 31, 120, 180)' fill-opacity = '0.250000' points = '872.1,546.4 872.1,662.4 873.9,662.4 873.9,548.3 '/>
		<polygon fill = 'rgb( 31, 120, 180)' fill-opacity = '0.250000' points = '873.9,548.3 873.9,662.4 875.8,662.4 875.8,550.1 '/>
		<polygon fill = 'rgb( 31, 120, 180)' fill-opacity = '0.250000' points = '875.8,550.1 875.8,662.4 877.7,662.4 877.7,551.9 '/>
		<polygon fill = 'rgb( 31, 120, 180)' fill-opacity = '0.250000' points = '877.7,551.9 877.7,662.4 879.6,662.4 879.6,553.7 '/>
		<polygon fill = 'rgb( 31, 120, 180)' fill-opacity = '0.250000' points = '879.6,553.7 879.6,662.4 881.5,662.4 881.5,555.5 '/>
		<polygon fill = 'rgb( 31, 120, 180)' fill-opacity = '0.250000' points = '881.5,555.5 881.5,662.4 883.4,662.4 883.4,557.2 '/>
		<polygon fill = 'rgb( 31, 120, 180)' fill-opacity = '0.250000' points = '883.4,557.2 883.4,662.4 885.3,662.4 885.3,558.9 '/>
		<polygon fill = 'rgb( 31, 120, 180)' fill-opacity = '0.250000' points = '885.3,558.9 885.3,662.4 887.2,662.4 887.2,560.5 '/>
		<polygon fill = 'rgb( 31, 120, 180)' fill-opacity = '0.250000' points = '887.2,560.5 887.2,662.4 889.0,662.4 889.0,562.1 '/>
		<polygon fill = 'rgb( 31, 120, 180)' fill-opacity = '0.250000' points = '889.0,562.1 889.0,662.4 890.9,662.4 890.9,563.7 '/>
		<polygon fill = 'rgb( 31, 120, 180)' fill-opacity = '0.250000' points = '890.9,563.7 890.9,662.4 892.8,662.4 892.8,565.3 '/>
		<polygon fill = 'rgb( 31, 120, 180)' fill-opacity = '0.250000' points = '892.8,565.3 892.8,662.4 894.7,662.4 894.7,566.9 '/>
		<polygon fill = 'rgb( 31, 120, 180)' fill-opacity = '0.250000' points = '894.7,566.9 894.7,662.4 896.6,662.4 896.6,568.4 '/>
		<polygon fill = 'rgb( 31, 120, 180)' fill-opacity = '0.250000' points = '896.6,568.4 896.6,662.4 898.5,662.4 898.5,569.9 '/>
		<polygon fill = 'rgb( 31, 120, 180)' fill-opacity = '0.250000' points = '898.5,569.9 898.5,662.4 900.4,662.4 900.4,571.3 '/>
		<polygon fill = 'rgb( 31, 120, 180)' fill-opacity = '0.250000' points = '900.4,571.3 900.4,662.4 902.3,662.4 902.3,572.7 '/>
		<polygon fill = 'rgb( 31, 120, 180)' fill-opacity = '0.250000' points = '902.3,572.7 902.3,662.4 904.1,662.4 904.1,574.1 '/>
		<polygon fill = 'rgb( 31, 120, 180)' fill-opacity = '0.250000' points = '904.1,574.1 904.1,662.4 906.0,662.4 906.0,575.5 '/>
		<polygon fill = 'rgb( 31, 120, 180)' fill-opacity = '0.250000' points = '906.0,575.5 906.0,662.4 907.9,662.4 907.9,576.8 '/>
		<polygon fill = 'rgb( 31, 120, 180)' fill-opacity = '0.250000' points = '907.9,576.8 907.9,662.4 909.8,662.4 909.8,578.1 '/>
		<polygon fill = 'rgb( 31, 120, 180)' fill-opacity = '0.250000' points = '909.8,578.1 909.8,662.4 911.7,662.4 911.7,579.4 '/>
		<polygon fill = 'rgb( 31, 120, 180)' fill-opacity = '0.250000' points = '911.7,579.4 911.7,662.4 913.6,662.4 913.6,580.6 '/>
		<polygon fill = 'rgb( 31, 120, 180)' fill-opacity = '0.250000' points = '913.6,580.6 913.6,662.4 915.5,662.4 915.5,581.8 '/>
		<polygon fill = 'rgb( 31, 120, 180)' fill-opacity = '0.250000' points = '915.5,581.8 915.5,662.4 917.4,662.4 917.4,583.0 '/>
		<polygon fill = 'rgb( 31, 120, 180)' fill-opacity = '0.250000' points = '917.4,583.0 917.4,662.4 919.2,662.4 919.2,584.2 '/>
		<polygon fill = 'rgb( 31, 120, 180)' fill-opacity = '0.250000' points = '919.2,584.2 919.2,662.4 921.1,662.4 921.1,585.4 '/>
		<polygon fill = 'rgb( 31, 120, 180)' fill-opacity = '0.250000' points = '921.1,585.4 921.1,662.4 923.0,662.4 923.0,586.5 '/>
		<polygon fill = 'rgb( 31, 120, 180)' fill-opacity = '0.250000' points = '923.0,586.5 923.0,662.4 924.9,662.4 924.9,587.6 '/>
	</g>
</g>
	</g>
	<g id="gnuplot_plot_3" ><title>Point estimate</title>
<g fill="none" color="white" stroke="rgb( 31, 120, 180)" stroke-width="2.00" stroke-linecap="butt" stroke-linejoin="miter">
</g>
<g fill="none" color="black" stroke="currentColor" stroke-width="2.00" stroke-linecap="butt" stroke-linejoin="miter">
	<g transform="translate(1089.0,103.0)" stroke="none" fill="black" font-family="Helvetica" font-size="12.00"  text-anchor="start">
		<text><tspan font-family="Helvetica" >Point estimate</tspan></text>
	</g>
</g>
<g fill="none" color="black" stroke="currentColor" stroke-width="2.00" stroke-linecap="butt" stroke-linejoin="miter">
	<path stroke='rgb( 31, 120, 180)'  d='M1038.5,99.1 L1080.7,99.1 M511.3,662.4 L511.3,84.9  '/></g>
	</g>
<g fill="none" color="black" stroke="currentColor" stroke-width="2.00" stroke-linecap="butt" stroke-linejoin="miter">
</g>
<g fill="none" color="black" stroke="black" stroke-width="1.00" stroke-linecap="butt" stroke-linejoin="miter">
</g>
<g fill="none" color="black" stroke="currentColor" stroke-width="1.00" stroke-linecap="butt" stroke-linejoin="miter">
	<path stroke='black'  d='M71.9,54.1 L71.9,662.4 L1013.6,662.4 L1013.6,54.1 L71.9,54.1 Z  '/></g>
<g fill="none" color="black" stroke="currentColor" stroke-width="1.00" stroke-linecap="butt" stroke-linejoin="miter">
</g>
</g>
</svg>

