<?xml version="1.0" encoding="utf-8"  standalone="no"?>
<!DOCTYPE svg PUBLIC "-//W3C//DTD SVG 1.1//EN"
 "http://www.w3.org/Graphics/SVG/1.1/DTD/svg11.dtd">
<svg 
 viewBox="0 0 1280 720"
 xmlns="http://www.w3.org/2000/svg"
 xmlns:xlink="http://www.w3.org/1999/xlink"
>

<title>Gnuplot</title>
<desc>Produced by GNUPLOT 5.0 patchlevel 5 </desc>

<g id="gnuplot_canvas">

<rect x="0" y="0" width="1280" height="720" fill="none"/>
<defs>

	<circle id='gpDot' r='0.5' stroke-width='0.5'/>
	<path id='gpPt0' stroke-width='0.222' stroke='currentColor' d='M-1,0 h2 M0,-1 v2'/>
	<path id='gpPt1' stroke-width='0.222' stroke='currentColor' d='M-1,-1 L1,1 M1,-1 L-1,1'/>
	<path id='gpPt2' stroke-width='0.222' stroke='currentColor' d='M-1,0 L1,0 M0,-1 L0,1 M-1,-1 L1,1 M-1,1 L1,-1'/>
	<rect id='gpPt3' stroke-width='0.222' stroke='currentColor' x='-1' y='-1' width='2' height='2'/>
	<rect id='gpPt4' stroke-width='0.222' stroke='currentColor' fill='currentColor' x='-1' y='-1' width='2' height='2'/>
	<circle id='gpPt5' stroke-width='0.222' stroke='currentColor' cx='0' cy='0' r='1'/>
	<use xlink:href='#gpPt5' id='gpPt6' fill='currentColor' stroke='none'/>
	<path id='gpPt7' stroke-width='0.222' stroke='currentColor' d='M0,-1.33 L-1.33,0.67 L1.33,0.67 z'/>
	<use xlink:href='#gpPt7' id='gpPt8' fill='currentColor' stroke='none'/>
	<use xlink:href='#gpPt7' id='gpPt9' stroke='currentColor' transform='rotate(180)'/>
	<use xlink:href='#gpPt9' id='gpPt10' fill='currentColor' stroke='none'/>
	<use xlink:href='#gpPt3' id='gpPt11' stroke='currentColor' transform='rotate(45)'/>
	<use xlink:href='#gpPt11' id='gpPt12' fill='currentColor' stroke='none'/>
	<path id='gpPt13' stroke-width='0.222' stroke='currentColor' d='M0,1.330 L1.265,0.411 L0.782,-1.067 L-0.782,-1.076 L-1.265,0.411 z'/>
	<use xlink:href='#gpPt13' id='gpPt14' fill='currentColor' stroke='none'/>
	<filter id='textbox' filterUnits='objectBoundingBox' x='0' y='0' height='1' width='1'>
	  <feFlood flood-color='white' flood-opacity='1' result='bgnd'/>
	  <feComposite in='SourceGraphic' in2='bgnd' operator='atop'/>
	</filter>
	<filter id='greybox' filterUnits='objectBoundingBox' x='0' y='0' height='1' width='1'>
	  <feFlood flood-color='lightgrey' flood-opacity='1' result='grey'/>
	  <feComposite in='SourceGraphic' in2='grey' operator='atop'/>
	</filter>
</defs>
<g fill="none" color="white" stroke="currentColor" stroke-width="1.00" stroke-linecap="butt" stroke-linejoin="miter">
</g>
<g fill="none" color="black" stroke="currentColor" stroke-width="1.00" stroke-linecap="butt" stroke-linejoin="miter">
	<path stroke='black'  d='M71.9,662.4 L80.9,662.4  '/>	<g transform="translate(63.6,666.3)" stroke="none" fill="black" font-family="Helvetica" font-size="12.00"  text-anchor="end">
		<text><tspan font-family="Helvetica" > 0</tspan></text>
	</g>
</g>
<g fill="none" color="black" stroke="currentColor" stroke-width="1.00" stroke-linecap="butt" stroke-linejoin="miter">
	<path stroke='black'  d='M71.9,586.4 L80.9,586.4  '/>	<g transform="translate(63.6,590.3)" stroke="none" fill="black" font-family="Helvetica" font-size="12.00"  text-anchor="end">
		<text><tspan font-family="Helvetica" > 50</tspan></text>
	</g>
</g>
<g fill="none" color="black" stroke="currentColor" stroke-width="1.00" stroke-linecap="butt" stroke-linejoin="miter">
	<path stroke='black'  d='M71.9,510.3 L80.9,510.3  '/>	<g transform="translate(63.6,514.2)" stroke="none" fill="black" font-family="Helvetica" font-size="12.00"  text-anchor="end">
		<text><tspan font-family="Helvetica" > 100</tspan></text>
	</g>
</g>
<g fill="none" color="black" stroke="currentColor" stroke-width="1.00" stroke-linecap="butt" stroke-linejoin="miter">
	<path stroke='black'  d='M71.9,434.3 L80.9,434.3  '/>	<g transform="translate(63.6,438.2)" stroke="none" fill="black" font-family="Helvetica" font-size="12.00"  text-anchor="end">
		<text><tspan font-family="Helvetica" > 150</tspan></text>
	</g>
</g>
<g fill="none" color="black" stroke="currentColor" stroke-width="1.00" stroke-linecap="butt" stroke-linejoin="miter">
	<path stroke='black'  d='M71.9,358.2 L80.9,358.2  '/>	<g transform="translate(63.6,362.1)" stroke="none" fill="black" font-family="Helvetica" font-size="12.00"  text-anchor="end">
		<text><tspan font-family="Helvetica" > 200</tspan></text>
	</g>
</g>
<g fill="none" color="black" stroke="currentColor" stroke-width="1.00" stroke-linecap="butt" stroke-linejoin="miter">
	<path stroke='black'  d='M71.9,282.2 L80.9,282.2  '/>	<g transform="translate(63.6,286.1)" stroke="none" fill="black" font-family="Helvetica" font-size="12.00"  text-anchor="end">
		<text><tspan font-family="Helvetica" > 250</tspan></text>
	</g>
</g>
<g fill="none" color="black" stroke="currentColor" stroke-width="1.00" stroke-linecap="butt" stroke-linejoin="miter">
	<path stroke='black'  d='M71.9,206.2 L80.9,206.2  '/>	<g transform="translate(63.6,210.1)" stroke="none" fill="black" font-family="Helvetica" font-size="12.00"  text-anchor="end">
		<text><tspan font-family="Helvetica" > 300</tspan></text>
	</g>
</g>
<g fill="none" color="black" stroke="currentColor" stroke-width="1.00" stroke-linecap="butt" stroke-linejoin="miter">
	<path stroke='black'  d='M71.9,130.1 L80.9,130.1  '/>	<g transform="translate(63.6,134.0)" stroke="none" fill="black" font-family="Helvetica" font-size="12.00"  text-anchor="end">
		<text><tspan font-family="Helvetica" > 350</tspan></text>
	</g>
</g>
<g fill="none" color="black" stroke="currentColor" stroke-width="1.00" stroke-linecap="butt" stroke-linejoin="miter">
	<path stroke='black'  d='M71.9,54.1 L80.9,54.1  '/>	<g transform="translate(63.6,58.0)" stroke="none" fill="black" font-family="Helvetica" font-size="12.00"  text-anchor="end">
		<text><tspan font-family="Helvetica" > 400</tspan></text>
	</g>
</g>
<g fill="none" color="black" stroke="currentColor" stroke-width="1.00" stroke-linecap="butt" stroke-linejoin="miter">
	<path stroke='black'  d='M178.9,662.4 L178.9,653.4  '/>	<g transform="translate(178.9,684.3)" stroke="none" fill="black" font-family="Helvetica" font-size="12.00"  text-anchor="middle">
		<text><tspan font-family="Helvetica" >-0.2</tspan></text>
	</g>
</g>
<g fill="none" color="black" stroke="currentColor" stroke-width="1.00" stroke-linecap="butt" stroke-linejoin="miter">
	<path stroke='black'  d='M353.4,662.4 L353.4,653.4  '/>	<g transform="translate(353.4,684.3)" stroke="none" fill="black" font-family="Helvetica" font-size="12.00"  text-anchor="middle">
		<text><tspan font-family="Helvetica" >-0.1</tspan></text>
	</g>
</g>
<g fill="none" color="black" stroke="currentColor" stroke-width="1.00" stroke-linecap="butt" stroke-linejoin="miter">
	<path stroke='black'  d='M527.9,662.4 L527.9,653.4  '/>	<g transform="translate(527.9,684.3)" stroke="none" fill="black" font-family="Helvetica" font-size="12.00"  text-anchor="middle">
		<text><tspan font-family="Helvetica" > 0</tspan></text>
	</g>
</g>
<g fill="none" color="black" stroke="currentColor" stroke-width="1.00" stroke-linecap="butt" stroke-linejoin="miter">
	<path stroke='black'  d='M702.4,662.4 L702.4,653.4  '/>	<g transform="translate(702.4,684.3)" stroke="none" fill="black" font-family="Helvetica" font-size="12.00"  text-anchor="middle">
		<text><tspan font-family="Helvetica" > 0.1</tspan></text>
	</g>
</g>
<g fill="none" color="black" stroke="currentColor" stroke-width="1.00" stroke-linecap="butt" stroke-linejoin="miter">
	<path stroke='black'  d='M876.9,662.4 L876.9,653.4  '/>	<g transform="translate(876.9,684.3)" stroke="none" fill="black" font-family="Helvetica" font-size="12.00"  text-anchor="middle">
		<text><tspan font-family="Helvetica" > 0.2</tspan></text>
	</g>
</g>
<g fill="none" color="black" stroke="currentColor" stroke-width="1.00" stroke-linecap="butt" stroke-linejoin="miter">
</g>
<g fill="none" color="black" stroke="currentColor" stroke-width="1.00" stroke-linecap="butt" stroke-linejoin="miter">
	<path stroke='black'  d='M71.9,54.1 L71.9,662.4 L1013.6,662.4 L1013.6,54.1 L71.9,54.1 Z  '/></g>
<g fill="none" color="black" stroke="currentColor" stroke-width="1.00" stroke-linecap="butt" stroke-linejoin="miter">
	<g transform="translate(17.0,358.3) rotate(270)" stroke="none" fill="black" font-family="Helvetica" font-size="12.00"  text-anchor="middle">
		<text><tspan font-family="Helvetica" >Density (a.u.)</tspan></text>
	</g>
</g>
<g fill="none" color="black" stroke="currentColor" stroke-width="1.00" stroke-linecap="butt" stroke-linejoin="miter">
	<g transform="translate(542.7,711.3)" stroke="none" fill="black" font-family="Helvetica" font-size="12.00"  text-anchor="middle">
		<text><tspan font-family="Helvetica" >Relative change (%)</tspan></text>
	</g>
</g>
<g fill="none" color="black" stroke="currentColor" stroke-width="1.00" stroke-linecap="butt" stroke-linejoin="miter">
	<g transform="translate(542.7,31.0)" stroke="none" fill="black" font-family="Helvetica" font-size="12.00"  text-anchor="middle">
		<text><tspan font-family="Helvetica" >dlist arena atomic_cell par (×4): median</tspan></text>
	</g>
</g>
	<g id="gnuplot_plot_1" ><title>Bootstrap distribution</title>
<g fill="none" color="white" stroke="black" stroke-width="2.00" stroke-linecap="butt" stroke-linejoin="miter">
</g>
<g fill="none" color="black" stroke="currentColor" stroke-width="2.00" stroke-linecap="butt" stroke-linejoin="miter">
	<g transform="translate(1089.0,67.0)" stroke="none" fill="black" font-family="Helvetica" font-size="12.00"  text-anchor="start">
		<text><tspan font-family="Helvetica" >Bootstrap distribution</tspan></text>
	</g>
</g>
<g fill="none" color="black" stroke="currentColor" stroke-width="2.00" stroke-linecap="butt" stroke-linejoin="miter">
	<path stroke='rgb( 31, 120, 180)'  d='M1038.5,63.1 L1080.7,63.1 M71.9,640.2 L73.8,639.2 L75.7,638.3 L77.6,637.3 L79.4,636.2 L81.3,635.1
		L83.2,633.9 L85.1,632.7 L87.0,631.5 L88.9,630.1 L90.8,628.7 L92.7,627.2 L94.5,625.7 L96.4,624.0
		L98.3,622.3 L100.2,620.5 L102.1,618.6 L104.0,616.7 L105.9,614.6 L107.8,612.5 L109.6,610.3 L111.5,608.0
		L113.4,605.6 L115.3,603.2 L117.2,600.7 L119.1,598.2 L121.0,595.6 L122.9,592.9 L124.7,590.3 L126.6,587.6
		L128.5,584.8 L130.4,582.1 L132.3,579.4 L134.2,576.6 L136.1,573.9 L138.0,571.3 L139.8,568.6 L141.7,566.0
		L143.6,563.5 L145.5,561.0 L147.4,558.6 L149.3,556.3 L151.2,554.0 L153.0,551.8 L154.9,549.6 L156.8,547.5
		L158.7,545.5 L160.6,543.5 L162.5,541.6 L164.4,539.6 L166.3,537.7 L168.1,535.8 L170.0,534.0 L171.9,532.1
		L173.8,530.2 L175.7,528.3 L177.6,526.4 L179.5,524.5 L181.4,522.5 L183.2,520.6 L185.1,518.6 L187.0,516.6
		L188.9,514.7 L190.8,512.7 L192.7,510.8 L194.6,508.9 L196.5,507.1 L198.3,505.3 L200.2,503.6 L202.1,501.9
		L204.0,500.3 L205.9,498.7 L207.8,497.3 L209.7,495.8 L211.6,494.5 L213.4,493.2 L215.3,491.9 L217.2,490.7
		L219.1,489.6 L221.0,488.4 L222.9,487.3 L224.8,486.1 L226.6,485.0 L228.5,483.8 L230.4,482.6 L232.3,481.4
		L234.2,480.1 L236.1,478.8 L238.0,477.4 L239.9,476.0 L241.7,474.5 L243.6,473.0 L245.5,471.5 L247.4,469.9
		L249.3,468.4 L251.2,466.9 L253.1,465.4 L255.0,463.9 L256.8,462.6 L258.7,461.3 L260.6,460.2 L262.5,459.1
		L264.4,458.3 L266.3,457.5 L268.2,457.0 L270.1,456.5 L271.9,456.3 L273.8,456.2 L275.7,456.2 L277.6,456.4
		L279.5,456.7 L281.4,457.0 L283.3,457.4 L285.2,457.9 L287.0,458.4 L288.9,458.8 L290.8,459.3 L292.7,459.6
		L294.6,459.9 L296.5,460.2 L298.4,460.3 L300.2,460.3 L302.1,460.3 L304.0,460.1 L305.9,459.8 L307.8,459.5
		L309.7,459.1 L311.6,458.7 L313.5,458.3 L315.3,457.8 L317.2,457.3 L319.1,456.9 L321.0,456.5 L322.9,456.2
		L324.8,455.9 L326.7,455.6 L328.6,455.5 L330.4,455.4 L332.3,455.3 L334.2,455.3 L336.1,455.3 L338.0,455.4
		L339.9,455.4 L341.8,455.4 L343.7,455.4 L345.5,455.3 L347.4,455.2 L349.3,454.9 L351.2,454.5 L353.1,453.9
		L355.0,453.1 L356.9,452.2 L358.8,451.1 L360.6,449.7 L362.5,448.1 L364.4,446.2 L366.3,444.0 L368.2,441.6
		L370.1,438.9 L372.0,435.9 L373.8,432.6 L375.7,429.0 L377.6,425.1 L379.5,421.0 L381.4,416.7 L383.3,412.1
		L385.2,407.3 L387.1,402.3 L388.9,397.2 L390.8,392.0 L392.7,386.6 L394.6,381.3 L396.5,375.9 L398.4,370.6
		L400.3,365.3 L402.2,360.2 L404.0,355.1 L405.9,350.2 L407.8,345.5 L409.7,341.0 L411.6,336.7 L413.5,332.7
		L415.4,328.8 L417.3,325.3 L419.1,321.9 L421.0,318.8 L422.9,315.9 L424.8,313.2 L426.7,310.7 L428.6,308.4
		L430.5,306.2 L432.4,304.3 L434.2,302.5 L436.1,300.8 L438.0,299.2 L439.9,297.8 L441.8,296.5 L443.7,295.2
		L445.6,294.0 L447.4,292.9 L449.3,291.8 L451.2,290.8 L453.1,289.8 L455.0,288.8 L456.9,287.8 L458.8,286.8
		L460.7,285.7 L462.5,284.6 L464.4,283.4 L466.3,282.0 L468.2,280.5 L470.1,278.9 L472.0,277.1 L473.9,275.0
		L475.8,272.7 L477.6,270.1 L479.5,267.3 L481.4,264.1 L483.3,260.6 L485.2,256.9 L487.1,252.8 L489.0,248.4
		L490.9,243.7 L492.7,238.7 L494.6,233.5 L496.5,228.0 L498.4,222.4 L500.3,216.6 L502.2,210.7 L504.1,204.8
		L506.0,198.8 L507.8,193.0 L509.7,187.2 L511.6,181.6 L513.5,176.1 L515.4,171.0 L517.3,166.1 L519.2,161.5
		L521.0,157.3 L522.9,153.4 L524.8,149.9 L526.7,146.9 L528.6,144.2 L530.5,141.9 L532.4,140.0 L534.3,138.4
		L536.1,137.2 L538.0,136.3 L539.9,135.7 L541.8,135.3 L543.7,135.2 L545.6,135.2 L547.5,135.3 L549.4,135.5
		L551.2,135.9 L553.1,136.2 L555.0,136.6 L556.9,137.1 L558.8,137.5 L560.7,137.8 L562.6,138.2 L564.5,138.6
		L566.3,138.9 L568.2,139.2 L570.1,139.4 L572.0,139.7 L573.9,140.0 L575.8,140.2 L577.7,140.4 L579.5,140.7
		L581.4,140.9 L583.3,141.0 L585.2,141.2 L587.1,141.3 L589.0,141.3 L590.9,141.3 L592.8,141.1 L594.6,140.9
		L596.5,140.5 L598.4,140.0 L600.3,139.3 L602.2,138.4 L604.1,137.4 L606.0,136.1 L607.9,134.7 L609.7,133.1
		L611.6,131.3 L613.5,129.3 L615.4,127.2 L617.3,124.9 L619.2,122.5 L621.1,120.0 L623.0,117.5 L624.8,114.9
		L626.7,112.3 L628.6,109.8 L630.5,107.3 L632.4,104.8 L634.3,102.5 L636.2,100.4 L638.1,98.4 L639.9,96.6
		L641.8,95.1 L643.7,93.8 L645.6,92.7 L647.5,91.9 L649.4,91.4 L651.3,91.1 L653.1,91.2 L655.0,91.5
		L656.9,92.1 L658.8,93.1 L660.7,94.3 L662.6,95.7 L664.5,97.5 L666.4,99.5 L668.2,101.7 L670.1,104.2
		L672.0,106.9 L673.9,109.8 L675.8,113.0 L677.7,116.2 L679.6,119.7 L681.5,123.2 L683.3,126.9 L685.2,130.8
		L687.1,134.7 L689.0,138.6 L690.9,142.7 L692.8,146.8 L694.7,150.9 L696.6,155.1 L698.4,159.4 L700.3,163.7
		L702.2,168.0 L704.1,172.5 L706.0,176.9 L707.9,181.5 L709.8,186.1 L711.7,190.7 L713.5,195.5 L715.4,200.3
		L717.3,205.2 L719.2,210.2 L721.1,215.2 L723.0,220.2 L724.9,225.3 L726.7,230.3 L728.6,235.3 L730.5,240.3
		L732.4,245.2 L734.3,250.0 L736.2,254.6 L738.1,259.1 L740.0,263.3 L741.8,267.4 L743.7,271.3 L745.6,274.8
		L747.5,278.2 L749.4,281.2 L751.3,284.0 L753.2,286.6 L755.1,288.8 L756.9,290.9 L758.8,292.7 L760.7,294.3
		L762.6,295.7 L764.5,297.0 L766.4,298.1 L768.3,299.2 L770.2,300.3 L772.0,301.4 L773.9,302.5 L775.8,303.7
		L777.7,305.1 L779.6,306.7 L781.5,308.5 L783.4,310.5 L785.3,312.8 L787.1,315.4 L789.0,318.4 L790.9,321.7
		L792.8,325.4 L794.7,329.4 L796.6,333.7 L798.5,338.4 L800.3,343.4 L802.2,348.7 L804.1,354.2 L806.0,360.0
		L807.9,365.9 L809.8,372.0 L811.7,378.2 L813.6,384.4 L815.4,390.7 L817.3,397.0 L819.2,403.2 L821.1,409.4
		L823.0,415.5 L824.9,421.4 L826.8,427.3 L828.7,433.0 L830.5,438.5 L832.4,443.9 L834.3,449.1 L836.2,454.2
		L838.1,459.1 L840.0,463.9 L841.9,468.5 L843.8,473.0 L845.6,477.4 L847.5,481.6 L849.4,485.7 L851.3,489.7
		L853.2,493.6 L855.1,497.3 L857.0,501.0 L858.9,504.5 L860.7,507.9 L862.6,511.2 L864.5,514.3 L866.4,517.3
		L868.3,520.2 L870.2,522.9 L872.1,525.5 L873.9,528.0 L875.8,530.3 L877.7,532.4 L879.6,534.4 L881.5,536.3
		L883.4,538.0 L885.3,539.5 L887.2,540.9 L889.0,542.2 L890.9,543.3 L892.8,544.3 L894.7,545.2 L896.6,546.0
		L898.5,546.7 L900.4,547.3 L902.3,547.8 L904.1,548.3 L906.0,548.7 L907.9,549.2 L909.8,549.6 L911.7,550.1
		L913.6,550.6 L915.5,551.1 L917.4,551.8 L919.2,552.5 L921.1,553.4 L923.0,554.4 L924.9,555.5 L926.8,556.8
		L928.7,558.2 L930.6,559.8 L932.5,561.5 L934.3,563.4 L936.2,565.5 L938.1,567.6 L940.0,569.9 L941.9,572.3
		L943.8,574.8 L945.7,577.4 L947.5,580.0 L949.4,582.7 L951.3,585.3 L953.2,588.0 L955.1,590.6 L957.0,593.2
		L958.9,595.8 L960.8,598.3 L962.6,600.7 L964.5,603.1 L966.4,605.4 L968.3,607.5 L970.2,609.7 L972.1,611.7
		L974.0,613.6 L975.9,615.5 L977.7,617.3 L979.6,619.0 L981.5,620.6 L983.4,622.1 L985.3,623.6 L987.2,625.1
		L989.1,626.4 L991.0,627.8 L992.8,629.0 L994.7,630.2 L996.6,631.4 L998.5,632.5 L1000.4,633.6 L1002.3,634.6
		L1004.2,635.6 L1006.1,636.5 L1007.9,637.4 L1009.8,638.3 L1011.7,639.1 L1013.6,639.9  '/></g>
	</g>
	<g id="gnuplot_plot_2" ><title>Confidence interval</title>
<g fill="none" color="white" stroke="rgb( 31, 120, 180)" stroke-width="1.00" stroke-linecap="butt" stroke-linejoin="miter">
</g>
<g fill="none" color="black" stroke="currentColor" stroke-width="1.00" stroke-linecap="butt" stroke-linejoin="miter">
	<g transform="translate(1089.0,85.0)" stroke="none" fill="black" font-family="Helvetica" font-size="12.00"  text-anchor="start">
		<text><tspan font-family="Helvetica" >Confidence interval</tspan></text>
	</g>
</g>
<g fill="none" color="black" stroke="currentColor" stroke-width="1.00" stroke-linecap="butt" stroke-linejoin="miter">
	<g stroke='none' shape-rendering='crispEdges'>
		<polygon fill = 'rgb( 31, 120, 180)' fill-opacity = '0.250000' points = '1038.5,85.6 1080.7,85.6 1080.7,76.6 1038.5,76.6 '/>
		<polygon fill = 'rgb( 31, 120, 180)' fill-opacity = '0.250000' points = '158.7,545.5 158.7,662.4 160.6,662.4 160.6,543.5 '/>
		<polygon fill = 'rgb( 31, 120, 180)' fill-opacity = '0.250000' points = '160.6,543.5 160.6,662.4 162.5,662.4 162.5,541.6 '/>
		<polygon fill = 'rgb( 31, 120, 180)' fill-opacity = '0.250000' points = '162.5,541.6 162.5,662.4 164.4,662.4 164.4,539.6 '/>
		<polygon fill = 'rgb( 31, 120, 180)' fill-opacity = '0.250000' points = '164.4,539.6 164.4,662.4 166.3,662.4 166.3,537.7 '/>
		<polygon fill = 'rgb( 31, 120, 180)' fill-opacity = '0.250000' points = '166.3,537.7 166.3,662.4 168.1,662.4 168.1,535.8 '/>
		<polygon fill = 'rgb( 31, 120, 180)' fill-opacity = '0.250000' points = '168.1,535.8 168.1,662.4 170.0,662.4 170.0,534.0 '/>
		<polygon fill = 'rgb( 31, 120, 180)' fill-opacity = '0.250000' points = '170.0,534.0 170.0,662.4 171.9,662.4 171.9,532.1 '/>
		<polygon fill = 'rgb( 31, 120, 180)' fill-opacity = '0.250000' points = '171.9,532.1 171.9,662.4 173.8,662.4 173.8,530.2 '/>
		<polygon fill = 'rgb( 31, 120, 180)' fill-opacity = '0.250000' points = '173.8,530.2 173.8,662.4 175.7,662.4 175.7,528.3 '/>
		<polygon fill = 'rgb( 31, 120, 180)' fill-opacity = '0.250000' points = '175.7,528.3 175.7,662.4 177.6,662.4 177.6,526.4 '/>
		<polygon fill = 'rgb( 31, 120, 180)' fill-opacity = '0.250000' points = '177.6,526.4 177.6,662.4 179.5,662.4 179.5,524.5 '/>
		<polygon fill = 'rgb( 31, 120, 180)' fill-opacity = '0.250000' points = '179.5,524.5 179.5,662.4 181.4,662.4 181.4,522.5 '/>
		<polygon fill = 'rgb( 31, 120, 180)' fill-opacity = '0.250000' points = '181.4,522.5 181.4,662.4 183.2,662.4 183.2,520.6 '/>
		<polygon fill = 'rgb( 31, 120, 180)' fill-opacity = '0.250000' points = '183.2,520.6 183.2,662.4 185.1,662.4 185.1,518.6 '/>
		<polygon fill = 'rgb( 31, 120, 180)' fill-opacity = '0.250000' points = '185.1,518.6 185.1,662.4 187.0,662.4 187.0,516.6 '/>
		<polygon fill = 'rgb( 31, 120, 180)' fill-opacity = '0.250000' points = '187.0,516.6 187.0,662.4 188.9,662.4 188.9,514.7 '/>
		<polygon fill = 'rgb( 31, 120, 180)' fill-opacity = '0.250000' points = '188.9,514.7 188.9,662.4 190.8,662.4 190.8,512.7 '/>
		<polygon fill = 'rgb( 31, 120, 180)' fill-opacity = '0.250000' points = '190.8,512.7 190.8,662.4 192.7,662.4 192.7,510.8 '/>
		<polygon fill = 'rgb( 31, 120, 180)' fill-opacity = '0.250000' points = '192.7,510.8 192.7,662.4 194.6,662.4 194.6,508.9 '/>
		<polygon fill = 'rgb( 31, 120, 180)' fill-opacity = '0.250000' points = '194.6,508.9 194.6,662.4 196.5,662.4 196.5,507.1 '/>
		<polygon fill = 'rgb( 31, 120, 180)' fill-opacity = '0.250000' points = '196.5,507.1 196.5,662.4 198.3,662.4 198.3,505.3 '/>
		<polygon fill = 'rgb( 31, 120, 180)' fill-opacity = '0.250000' points = '198.3,505.3 198.3,662.4 200.2,662.4 200.2,503.6 '/>
		<polygon fill = 'rgb( 31, 120, 180)' fill-opacity = '0.250000' points = '200.2,503.6 200.2,662.4 202.1,662.4 202.1,501.9 '/>
		<polygon fill = 'rgb( 31, 120, 180)' fill-opacity = '0.250000' points = '202.1,501.9 202.1,662.4 204.0,662.4 204.0,500.3 '/>
		<polygon fill = 'rgb( 31, 120, 180)' fill-opacity = '0.250000' points = '204.0,500.3 204.0,662.4 205.9,662.4 205.9,498.7 '/>
		<polygon fill = 'rgb( 31, 120, 180)' fill-opacity = '0.250000' points = '205.9,498.7 205.9,662.4 207.8,662.4 207.8,497.3 '/>
		<polygon fill = 'rgb( 31, 120, 180)' fill-opacity = '0.250000' points = '207.8,497.3 207.8,662.4 209.7,662.4 209.7,495.8 '/>
		<polygon fill = 'rgb( 31, 120, 180)' fill-opacity = '0.250000' points = '209.7,495.8 209.7,662.4 211.6,662.4 211.6,494.5 '/>
		<polygon fill = 'rgb( 31, 120, 180)' fill-opacity = '0.250000' points = '211.6,494.5 211.6,662.4 213.4,662.4 213.4,493.2 '/>
		<polygon fill = 'rgb( 31, 120, 180)' fill-opacity = '0.250000' points = '213.4,493.2 213.4,662.4 215.3,662.4 215.3,491.9 '/>
		<polygon fill = 'rgb( 31, 120, 180)' fill-opacity = '0.250000' points = '215.3,491.9 215.3,662.4 217.2,662.4 217.2,490.7 '/>
		<polygon fill = 'rgb( 31, 120, 180)' fill-opacity = '0.250000' points = '217.2,490.7 217.2,662.4 219.1,662.4 219.1,489.6 '/>
		<polygon fill = 'rgb( 31, 120, 180)' fill-opacity = '0.250000' points = '219.1,489.6 219.1,662.4 221.0,662.4 221.0,488.4 '/>
		<polygon fill = 'rgb( 31, 120, 180)' fill-opacity = '0.250000' points = '221.0,488.4 221.0,662.4 222.9,662.4 222.9,487.3 '/>
		<polygon fill = 'rgb( 31, 120, 180)' fill-opacity = '0.250000' points = '222.9,487.3 222.9,662.4 224.8,662.4 224.8,486.1 '/>
		<polygon fill = 'rgb( 31, 120, 180)' fill-opacity = '0.250000' points = '224.8,486.1 224.8,662.4 226.6,662.4 226.6,485.0 '/>
		<polygon fill = 'rgb( 31, 120, 180)' fill-opacity = '0.250000' points = '226.6,485.0 226.6,662.4 228.5,662.4 228.5,483.8 '/>
		<polygon fill = 'rgb( 31, 120, 180)' fill-opacity = '0.250000' points = '228.5,483.8 228.5,662.4 230.4,662.4 230.4,482.6 '/>
		<polygon fill = 'rgb( 31, 120, 180)' fill-opacity = '0.250000' points = '230.4,482.6 230.4,662.4 232.3,662.4 232.3,481.4 '/>
		<polygon fill = 'rgb( 31, 120, 180)' fill-opacity = '0.250000' points = '232.3,481.4 232.3,662.4 234.2,662.4 234.2,480.1 '/>
		<polygon fill = 'rgb( 31, 120, 180)' fill-opacity = '0.250000' points = '234.2,480.1 234.2,662.4 236.1,662.4 236.1,478.8 '/>
		<polygon fill = 'rgb( 31, 120, 180)' fill-opacity = '0.250000' points = '236.1,478.8 236.1,662.4 238.0,662.4 238.0,477.4 '/>
		<polygon fill = 'rgb( 31, 120, 180)' fill-opacity = '0.250000' points = '238.0,477.4 238.0,662.4 239.9,662.4 239.9,476.0 '/>
		<polygon fill = 'rgb( 31, 120, 180)' fill-opacity = '0.250000' points = '239.9,476.0 239.9,662.4 241.7,662.4 241.7,474.5 '/>
		<polygon fill = 'rgb( 31, 120, 180)' fill-opacity = '0.250000' points = '241.7,474.5 241.7,662.4 243.6,662.4 243.6,473.0 '/>
		<polygon fill = 'rgb( 31, 120, 180)' fill-opacity = '0.250000' points = '243.6,473.0 243.6,662.4 245.5,662.4 245.5,471.5 '/>
		<polygon fill = 'rgb( 31, 120, 180)' fill-opacity = '0.250000' points = '245.5,471.5 245.5,662.4 247.4,662.4 247.4,469.9 '/>
		<polygon fill = 'rgb( 31, 120, 180)' fill-opacity = '0.250000' points = '247.4,469.9 247.4,662.4 249.3,662.4 249.3,468.4 '/>
		<polygon fill = 'rgb( 31, 120, 180)' fill-opacity = '0.250000' points = '249.3,468.4 249.3,662.4 251.2,662.4 251.2,466.9 '/>
		<polygon fill = 'rgb( 31, 120, 180)' fill-opacity = '0.250000' points = '251.2,466.9 251.2,662.4 253.1,662.4 253.1,465.4 '/>
		<polygon fill = 'rgb( 31, 120, 180)' fill-opacity = '0.250000' points = '253.1,465.4 253.1,662.4 255.0,662.4 255.0,463.9 '/>
		<polygon fill = 'rgb( 31, 120, 180)' fill-opacity = '0.250000' points = '255.0,463.9 255.0,662.4 256.8,662.4 256.8,462.6 '/>
		<polygon fill = 'rgb( 31, 120, 180)' fill-opacity = '0.250000' points = '256.8,462.6 256.8,662.4 258.7,662.4 258.7,461.3 '/>
		<polygon fill = 'rgb( 31, 120, 180)' fill-opacity = '0.250000' points = '258.7,461.3 258.7,662.4 260.6,662.4 260.6,460.2 '/>
		<polygon fill = 'rgb( 31, 120, 180)' fill-opacity = '0.250000' points = '260.6,460.2 260.6,662.4 262.5,662.4 262.5,459.1 '/>
		<polygon fill = 'rgb( 31, 120, 180)' fill-opacity = '0.250000' points = '262.5,459.1 262.5,662.4 264.4,662.4 264.4,458.3 '/>
		<polygon fill = 'rgb( 31, 120, 180)' fill-opacity = '0.250000' points = '264.4,458.3 264.4,662.4 266.3,662.4 266.3,457.5 '/>
		<polygon fill = 'rgb( 31, 120, 180)' fill-opacity = '0.250000' points = '266.3,457.5 266.3,662.4 268.2,662.4 268.2,457.0 '/>
		<polygon fill = 'rgb( 31, 120, 180)' fill-opacity = '0.250000' points = '268.2,457.0 268.2,662.4 270.1,662.4 270.1,456.5 '/>
		<polygon fill = 'rgb( 31, 120, 180)' fill-opacity = '0.250000' points = '270.1,456.5 270.1,662.4 271.9,662.4 271.9,456.3 '/>
		<polygon fill = 'rgb( 31, 120, 180)' fill-opacity = '0.250000' points = '271.9,456.3 271.9,662.4 273.8,662.4 273.8,456.2 '/>
		<polygon fill = 'rgb( 31, 120, 180)' fill-opacity = '0.250000' points = '273.8,456.2 273.8,662.4 275.7,662.4 275.7,456.2 '/>
		<polygon fill = 'rgb( 31, 120, 180)' fill-opacity = '0.250000' points = '275.7,456.2 275.7,662.4 277.6,662.4 277.6,456.4 '/>
		<polygon fill = 'rgb( 31, 120, 180)' fill-opacity = '0.250000' points = '277.6,456.4 277.6,662.4 279.5,662.4 279.5,456.7 '/>
		<polygon fill = 'rgb( 31, 120, 180)' fill-opacity = '0.250000' points = '279.5,456.7 279.5,662.4 281.4,662.4 281.4,457.0 '/>
		<polygon fill = 'rgb( 31, 120, 180)' fill-opacity = '0.250000' points = '281.4,457.0 281.4,662.4 283.3,662.4 283.3,457.4 '/>
		<polygon fill = 'rgb( 31, 120, 180)' fill-opacity = '0.250000' points = '283.3,457.4 283.3,662.4 285.2,662.4 285.2,457.9 '/>
		<polygon fill = 'rgb( 31, 120, 180)' fill-opacity = '0.250000' points = '285.2,457.9 285.2,662.4 287.0,662.4 287.0,458.4 '/>
		<polygon fill = 'rgb( 31, 120, 180)' fill-opacity = '0.250000' points = '287.0,458.4 287.0,662.4 288.9,662.4 288.9,458.8 '/>
		<polygon fill = 'rgb( 31, 120, 180)' fill-opacity = '0.250000' points = '288.9,458.8 288.9,662.4 290.8,662.4 290.8,459.3 '/>
		<polygon fill = 'rgb( 31, 120, 180)' fill-opacity = '0.250000' points = '290.8,459.3 290.8,662.4 292.7,662.4 292.7,459.6 '/>
		<polygon fill = 'rgb( 31, 120, 180)' fill-opacity = '0.250000' points = '292.7,459.6 292.7,662.4 294.6,662.4 294.6,459.9 '/>
		<polygon fill = 'rgb( 31, 120, 180)' fill-opacity = '0.250000' points = '294.6,459.9 294.6,662.4 296.5,662.4 296.5,460.2 '/>
		<polygon fill = 'rgb( 31, 120, 180)' fill-opacity = '0.250000' points = '296.5,460.2 296.5,662.4 298.4,662.4 298.4,460.3 '/>
		<polygon fill = 'rgb( 31, 120, 180)' fill-opacity = '0.250000' points = '298.4,460.3 298.4,662.4 300.2,662.4 300.2,460.3 '/>
		<polygon fill = 'rgb( 31, 120, 180)' fill-opacity = '0.250000' points = '300.2,460.3 300.2,662.4 302.1,662.4 302.1,460.3 '/>
		<polygon fill = 'rgb( 31, 120, 180)' fill-opacity = '0.250000' points = '302.1,460.3 302.1,662.4 304.0,662.4 304.0,460.1 '/>
		<polygon fill = 'rgb( 31, 120, 180)' fill-opacity = '0.250000' points = '304.0,460.1 304.0,662.4 305.9,662.4 305.9,459.8 '/>
		<polygon fill = 'rgb( 31, 120, 180)' fill-opacity = '0.250000' points = '305.9,459.8 305.9,662.4 307.8,662.4 307.8,459.5 '/>
		<polygon fill = 'rgb( 31, 120, 180)' fill-opacity = '0.250000' points = '307.8,459.5 307.8,662.4 309.7,662.4 309.7,459.1 '/>
		<polygon fill = 'rgb( 31, 120, 180)' fill-opacity = '0.250000' points = '309.7,459.1 309.7,662.4 311.6,662.4 311.6,458.7 '/>
		<polygon fill = 'rgb( 31, 120, 180)' fill-opacity = '0.250000' points = '311.6,458.7 311.6,662.4 313.5,662.4 313.5,458.3 '/>
		<polygon fill = 'rgb( 31, 120, 180)' fill-opacity = '0.250000' points = '313.5,458.3 313.5,662.4 315.3,662.4 315.3,457.8 '/>
		<polygon fill = 'rgb( 31, 120, 180)' fill-opacity = '0.250000' points = '315.3,457.8 315.3,662.4 317.2,662.4 317.2,457.3 '/>
		<polygon fill = 'rgb( 31, 120, 180)' fill-opacity = '0.250000' points = '317.2,457.3 317.2,662.4 319.1,662.4 319.1,456.9 '/>
		<polygon fill = 'rgb( 31, 120, 180)' fill-opacity = '0.250000' points = '319.1,456.9 319.1,662.4 321.0,662.4 321.0,456.5 '/>
		<polygon fill = 'rgb( 31, 120, 180)' fill-opacity = '0.250000' points = '321.0,456.5 321.0,662.4 322.9,662.4 322.9,456.2 '/>
		<polygon fill = 'rgb( 31, 120, 180)' fill-opacity = '0.250000' points = '322.9,456.2 322.9,662.4 324.8,662.4 324.8,455.9 '/>
		<polygon fill = 'rgb( 31, 120, 180)' fill-opacity = '0.250000' points = '324.8,455.9 324.8,662.4 326.7,662.4 326.7,455.6 '/>
		<polygon fill = 'rgb( 31, 120, 180)' fill-opacity = '0.250000' points = '326.7,455.6 326.7,662.4 328.6,662.4 328.6,455.5 '/>
		<polygon fill = 'rgb( 31, 120, 180)' fill-opacity = '0.250000' points = '328.6,455.5 328.6,662.4 330.4,662.4 330.4,455.4 '/>
		<polygon fill = 'rgb( 31, 120, 180)' fill-opacity = '0.250000' points = '330.4,455.4 330.4,662.4 332.3,662.4 332.3,455.3 '/>
		<polygon fill = 'rgb( 31, 120, 180)' fill-opacity = '0.250000' points = '332.3,455.3 332.3,662.4 334.2,662.4 334.2,455.3 '/>
		<polygon fill = 'rgb( 31, 120, 180)' fill-opacity = '0.250000' points = '334.2,455.3 334.2,662.4 336.1,662.4 336.1,455.3 '/>
		<polygon fill = 'rgb( 31, 120, 180)' fill-opacity = '0.250000' points = '336.1,455.3 336.1,662.4 338.0,662.4 338.0,455.4 '/>
		<polygon fill = 'rgb( 31, 120, 180)' fill-opacity = '0.250000' points = '338.0,455.4 338.0,662.4 339.9,662.4 339.9,455.4 '/>
		<polygon fill = 'rgb( 31, 120, 180)' fill-opacity = '0.250000' points = '339.9,455.4 339.9,662.4 341.8,662.4 341.8,455.4 '/>
		<polygon fill = 'rgb( 31, 120, 180)' fill-opacity = '0.250000' points = '341.8,455.4 341.8,662.4 343.7,662.4 343.7,455.4 '/>
		<polygon fill = 'rgb( 31, 120, 180)' fill-opacity = '0.250000' points = '343.7,455.4 343.7,662.4 345.5,662.4 345.5,455.3 '/>
		<polygon fill = 'rgb( 31, 120, 180)' fill-opacity = '0.250000' points = '345.5,455.3 345.5,662.4 347.4,662.4 347.4,455.2 '/>
		<polygon fill = 'rgb( 31, 120, 180)' fill-opacity = '0.250000' points = '347.4,455.2 347.4,662.4 349.3,662.4 349.3,454.9 '/>
		<polygon fill = 'rgb( 31, 120, 180)' fill-opacity = '0.250000' points = '349.3,454.9 349.3,662.4 351.2,662.4 351.2,454.5 '/>
		<polygon fill = 'rgb( 31, 120, 180)' fill-opacity = '0.250000' points = '351.2,454.5 351.2,662.4 353.1,662.4 353.1,453.9 '/>
		<polygon fill = 'rgb( 31, 120, 180)' fill-opacity = '0.250000' points = '353.1,453.9 353.1,662.4 355.0,662.4 355.0,453.1 '/>
		<polygon fill = 'rgb( 31, 120, 180)' fill-opacity = '0.250000' points = '355.0,453.1 355.0,662.4 356.9,662.4 356.9,452.2 '/>
		<polygon fill = 'rgb( 31, 120, 180)' fill-opacity = '0.250000' points = '356.9,452.2 356.9,662.4 358.8,662.4 358.8,451.1 '/>
		<polygon fill = 'rgb( 31, 120, 180)' fill-opacity = '0.250000' points = '358.8,451.1 358.8,662.4 360.6,662.4 360.6,449.7 '/>
		<polygon fill = 'rgb( 31, 120, 180)' fill-opacity = '0.250000' points = '360.6,449.7 360.6,662.4 362.5,662.4 362.5,448.1 '/>
		<polygon fill = 'rgb( 31, 120, 180)' fill-opacity = '0.250000' points = '362.5,448.1 362.5,662.4 364.4,662.4 364.4,446.2 '/>
		<polygon fill = 'rgb( 31, 120, 180)' fill-opacity = '0.250000' points = '364.4,446.2 364.4,662.4 366.3,662.4 366.3,444.0 '/>
		<polygon fill = 'rgb( 31, 120, 180)' fill-opacity = '0.250000' points = '366.3,444.0 366.3,662.4 368.2,662.4 368.2,441.6 '/>
		<polygon fill = 'rgb( 31, 120, 180)' fill-opacity = '0.250000' points = '368.2,441.6 368.2,662.4 370.1,662.4 370.1,438.9 '/>
		<polygon fill = 'rgb( 31, 120, 180)' fill-opacity = '0.250000' points = '370.1,438.9 370.1,662.4 372.0,662.4 372.0,435.9 '/>
		<polygon fill = 'rgb( 31, 120, 180)' fill-opacity = '0.250000' points = '372.0,435.9 372.0,662.4 373.8,662.4 373.8,432.6 '/>
		<polygon fill = 'rgb( 31, 120, 180)' fill-opacity = '0.250000' points = '373.8,432.6 373.8,662.4 375.7,662.4 375.7,429.0 '/>
		<polygon fill = 'rgb( 31, 120, 180)' fill-opacity = '0.250000' points = '375.7,429.0 375.7,662.4 377.6,662.4 377.6,425.1 '/>
		<polygon fill = 'rgb( 31, 120, 180)' fill-opacity = '0.250000' points = '377.6,425.1 377.6,662.4 379.5,662.4 379.5,421.0 '/>
		<polygon fill = 'rgb( 31, 120, 180)' fill-opacity = '0.250000' points = '379.5,421.0 379.5,662.4 381.4,662.4 381.4,416.7 '/>
		<polygon fill = 'rgb( 31, 120, 180)' fill-opacity = '0.250000' points = '381.4,416.7 381.4,662.4 383.3,662.4 383.3,412.1 '/>
		<polygon fill = 'rgb( 31, 120, 180)' fill-opacity = '0.250000' points = '383.3,412.1 383.3,662.4 385.2,662.4 385.2,407.3 '/>
		<polygon fill = 'rgb( 31, 120, 180)' fill-opacity = '0.250000' points = '385.2,407.3 385.2,662.4 387.1,662.4 387.1,402.3 '/>
		<polygon fill = 'rgb( 31, 120, 180)' fill-opacity = '0.250000' points = '387.1,402.3 387.1,662.4 388.9,662.4 388.9,397.2 '/>
		<polygon fill = 'rgb( 31, 120, 180)' fill-opacity = '0.250000' points = '388.9,397.2 388.9,662.4 390.8,662.4 390.8,392.0 '/>
		<polygon fill = 'rgb( 31, 120, 180)' fill-opacity = '0.250000' points = '390.8,392.0 390.8,662.4 392.7,662.4 392.7,386.6 '/>
		<polygon fill = 'rgb( 31, 120, 180)' fill-opacity = '0.250000' points = '392.7,386.6 392.7,662.4 394.6,662.4 394.6,381.3 '/>
		<polygon fill = 'rgb( 31, 120, 180)' fill-opacity = '0.250000' points = '394.6,381.3 394.6,662.4 396.5,662.4 396.5,375.9 '/>
		<polygon fill = 'rgb( 31, 120, 180)' fill-opacity = '0.250000' points = '396.5,375.9 396.5,662.4 398.4,662.4 398.4,370.6 '/>
		<polygon fill = 'rgb( 31, 120, 180)' fill-opacity = '0.250000' points = '398.4,370.6 398.4,662.4 400.3,662.4 400.3,365.3 '/>
		<polygon fill = 'rgb( 31, 120, 180)' fill-opacity = '0.250000' points = '400.3,365.3 400.3,662.4 402.2,662.4 402.2,360.2 '/>
		<polygon fill = 'rgb( 31, 120, 180)' fill-opacity = '0.250000' points = '402.2,360.2 402.2,662.4 404.0,662.4 404.0,355.1 '/>
		<polygon fill = 'rgb( 31, 120, 180)' fill-opacity = '0.250000' points = '404.0,355.1 404.0,662.4 405.9,662.4 405.9,350.2 '/>
		<polygon fill = 'rgb( 31, 120, 180)' fill-opacity = '0.250000' points = '405.9,350.2 405.9,662.4 407.8,662.4 407.8,345.5 '/>
		<polygon fill = 'rgb( 31, 120, 180)' fill-opacity = '0.250000' points = '407.8,345.5 407.8,662.4 409.7,662.4 409.7,341.0 '/>
		<polygon fill = 'rgb( 31, 120, 180)' fill-opacity = '0.250000' points = '409.7,341.0 409.7,662.4 411.6,662.4 411.6,336.7 '/>
		<polygon fill = 'rgb( 31, 120, 180)' fill-opacity = '0.250000' points = '411.6,336.7 411.6,662.4 413.5,662.4 413.5,332.7 '/>
		<polygon fill = 'rgb( 31, 120, 180)' fill-opacity = '0.250000' points = '413.5,332.7 413.5,662.4 415.4,662.4 415.4,328.8 '/>
		<polygon fill = 'rgb( 31, 120, 180)' fill-opacity = '0.250000' points = '415.4,328.8 415.4,662.4 417.3,662.4 417.3,325.3 '/>
		<polygon fill = 'rgb( 31, 120, 180)' fill-opacity = '0.250000' points = '417.3,325.3 417.3,662.4 419.1,662.4 419.1,321.9 '/>
		<polygon fill = 'rgb( 31, 120, 180)' fill-opacity = '0.250000' points = '419.1,321.9 419.1,662.4 421.0,662.4 421.0,318.8 '/>
		<polygon fill = 'rgb( 31, 120, 180)' fill-opacity = '0.250000' points = '421.0,318.8 421.0,662.4 422.9,662.4 422.9,315.9 '/>
		<polygon fill = 'rgb( 31, 120, 180)' fill-opacity = '0.250000' points = '422.9,315.9 422.9,662.4 424.8,662.4 424.8,313.2 '/>
		<polygon fill = 'rgb( 31, 120, 180)' fill-opacity = '0.250000' points = '424.8,313.2 424.8,662.4 426.7,662.4 426.7,310.7 '/>
		<polygon fill = 'rgb( 31, 120, 180)' fill-opacity = '0.250000' points = '426.7,310.7 426.7,662.4 428.6,662.4 428.6,308.4 '/>
		<polygon fill = 'rgb( 31, 120, 180)' fill-opacity = '0.250000' points = '428.6,308.4 428.6,662.4 430.5,662.4 430.5,306.2 '/>
		<polygon fill = 'rgb( 31, 120, 180)' fill-opacity = '0.250000' points = '430.5,306.2 430.5,662.4 432.4,662.4 432.4,304.3 '/>
		<polygon fill = 'rgb( 31, 120, 180)' fill-opacity = '0.250000' points = '432.4,304.3 432.4,662.4 434.2,662.4 434.2,302.5 '/>
		<polygon fill = 'rgb( 31, 120, 180)' fill-opacity = '0.250000' points = '434.2,302.5 434.2,662.4 436.1,662.4 436.1,300.8 '/>
		<polygon fill = 'rgb( 31, 120, 180)' fill-opacity = '0.250000' points = '436.1,300.8 436.1,662.4 438.0,662.4 438.0,299.2 '/>
		<polygon fill = 'rgb( 31, 120, 180)' fill-opacity = '0.250000' points = '438.0,299.2 438.0,662.4 439.9,662.4 439.9,297.8 '/>
		<polygon fill = 'rgb( 31, 120, 180)' fill-opacity = '0.250000' points = '439.9,297.8 439.9,662.4 441.8,662.4 441.8,296.5 '/>
		<polygon fill = 'rgb( 31, 120, 180)' fill-opacity = '0.250000' points = '441.8,296.5 441.8,662.4 443.7,662.4 443.7,295.2 '/>
		<polygon fill = 'rgb( 31, 120, 180)' fill-opacity = '0.250000' points = '443.7,295.2 443.7,662.4 445.6,662.4 445.6,294.0 '/>
		<polygon fill = 'rgb( 31, 120, 180)' fill-opacity = '0.250000' points = '445.6,294.0 445.6,662.4 447.4,662.4 447.4,292.9 '/>
		<polygon fill = 'rgb( 31, 120, 180)' fill-opacity = '0.250000' points = '447.4,292.9 447.4,662.4 449.3,662.4 449.3,291.8 '/>
		<polygon fill = 'rgb( 31, 120, 180)' fill-opacity = '0.250000' points = '449.3,291.8 449.3,662.4 451.2,662.4 451.2,290.8 '/>
		<polygon fill = 'rgb( 31, 120, 180)' fill-opacity = '0.250000' points = '451.2,290.8 451.2,662.4 453.1,662.4 453.1,289.8 '/>
		<polygon fill = 'rgb( 31, 120, 180)' fill-opacity = '0.250000' points = '453.1,289.8 453.1,662.4 455.0,662.4 455.0,288.8 '/>
		<polygon fill = 'rgb( 31, 120, 180)' fill-opacity = '0.250000' points = '455.0,288.8 455.0,662.4 456.9,662.4 456.9,287.8 '/>
		<polygon fill = 'rgb( 31, 120, 180)' fill-opacity = '0.250000' points = '456.9,287.8 456.9,662.4 458.8,662.4 458.8,286.8 '/>
		<polygon fill = 'rgb( 31, 120, 180)' fill-opacity = '0.250000' points = '458.8,286.8 458.8,662.4 460.7,662.4 460.7,285.7 '/>
		<polygon fill = 'rgb( 31, 120, 180)' fill-opacity = '0.250000' points = '460.7,285.7 460.7,662.4 462.5,662.4 462.5,284.6 '/>
		<polygon fill = 'rgb( 31, 120, 180)' fill-opacity = '0.250000' points = '462.5,284.6 462.5,662.4 464.4,662.4 464.4,283.4 '/>
		<polygon fill = 'rgb( 31, 120, 180)' fill-opacity = '0.250000' points = '464.4,283.4 464.4,662.4 466.3,662.4 466.3,282.0 '/>
		<polygon fill = 'rgb( 31, 120, 180)' fill-opacity = '0.250000' points = '466.3,282.0 466.3,662.4 468.2,662.4 468.2,280.5 '/>
		<polygon fill = 'rgb( 31, 120, 180)' fill-opacity = '0.250000' points = '468.2,280.5 468.2,662.4 470.1,662.4 470.1,278.9 '/>
		<polygon fill = 'rgb( 31, 120, 180)' fill-opacity = '0.250000' points = '470.1,278.9 470.1,662.4 472.0,662.4 472.0,277.1 '/>
		<polygon fill = 'rgb( 31, 120, 180)' fill-opacity = '0.250000' points = '472.0,277.1 472.0,662.4 473.9,662.4 473.9,275.0 '/>
		<polygon fill = 'rgb( 31, 120, 180)' fill-opacity = '0.250000' points = '473.9,275.0 473.9,662.4 475.8,662.4 475.8,272.7 '/>
		<polygon fill = 'rgb( 31, 120, 180)' fill-opacity = '0.250000' points = '475.8,272.7 475.8,662.4 477.6,662.4 477.6,270.1 '/>
		<polygon fill = 'rgb( 31, 120, 180)' fill-opacity = '0.250000' points = '477.6,270.1 477.6,662.4 479.5,662.4 479.5,267.3 '/>
		<polygon fill = 'rgb( 31, 120, 180)' fill-opacity = '0.250000' points = '479.5,267.3 479.5,662.4 481.4,662.4 481.4,264.1 '/>
		<polygon fill = 'rgb( 31, 120, 180)' fill-opacity = '0.250000' points = '481.4,264.1 481.4,662.4 483.3,662.4 483.3,260.6 '/>
		<polygon fill = 'rgb( 31, 120, 180)' fill-opacity = '0.250000' points = '483.3,260.6 483.3,662.4 485.2,662.4 485.2,256.9 '/>
		<polygon fill = 'rgb( 31, 120, 180)' fill-opacity = '0.250000' points = '485.2,256.9 485.2,662.4 487.1,662.4 487.1,252.8 '/>
		<polygon fill = 'rgb( 31, 120, 180)' fill-opacity = '0.250000' points = '487.1,252.8 487.1,662.4 489.0,662.4 489.0,248.4 '/>
		<polygon fill = 'rgb( 31, 120, 180)' fill-opacity = '0.250000' points = '489.0,248.4 489.0,662.4 490.9,662.4 490.9,243.7 '/>
		<polygon fill = 'rgb( 31, 120, 180)' fill-opacity = '0.250000' points = '490.9,243.7 490.9,662.4 492.7,662.4 492.7,238.7 '/>
		<polygon fill = 'rgb( 31, 120, 180)' fill-opacity = '0.250000' points = '492.7,238.7 492.7,662.4 494.6,662.4 494.6,233.5 '/>
		<polygon fill = 'rgb( 31, 120, 180)' fill-opacity = '0.250000' points = '494.6,233.5 494.6,662.4 496.5,662.4 496.5,228.0 '/>
		<polygon fill = 'rgb( 31, 120, 180)' fill-opacity = '0.250000' points = '496.5,228.0 496.5,662.4 498.4,662.4 498.4,222.4 '/>
		<polygon fill = 'rgb( 31, 120, 180)' fill-opacity = '0.250000' points = '498.4,222.4 498.4,662.4 500.3,662.4 500.3,216.6 '/>
		<polygon fill = 'rgb( 31, 120, 180)' fill-opacity = '0.250000' points = '500.3,216.6 500.3,662.4 502.2,662.4 502.2,210.7 '/>
		<polygon fill = 'rgb( 31, 120, 180)' fill-opacity = '0.250000' points = '502.2,210.7 502.2,662.4 504.1,662.4 504.1,204.8 '/>
		<polygon fill = 'rgb( 31, 120, 180)' fill-opacity = '0.250000' points = '504.1,204.8 504.1,662.4 506.0,662.4 506.0,198.8 '/>
		<polygon fill = 'rgb( 31, 120, 180)' fill-opacity = '0.250000' points = '506.0,198.8 506.0,662.4 507.8,662.4 507.8,193.0 '/>
		<polygon fill = 'rgb( 31, 120, 180)' fill-opacity = '0.250000' points = '507.8,193.0 507.8,662.4 509.7,662.4 509.7,187.2 '/>
		<polygon fill = 'rgb( 31, 120, 180)' fill-opacity = '0.250000' points = '509.7,187.2 509.7,662.4 511.6,662.4 511.6,181.6 '/>
		<polygon fill = 'rgb( 31, 120, 180)' fill-opacity = '0.250000' points = '511.6,181.6 511.6,662.4 513.5,662.4 513.5,176.1 '/>
		<polygon fill = 'rgb( 31, 120, 180)' fill-opacity = '0.250000' points = '513.5,176.1 513.5,662.4 515.4,662.4 515.4,171.0 '/>
		<polygon fill = 'rgb( 31, 120, 180)' fill-opacity = '0.250000' points = '515.4,171.0 515.4,662.4 517.3,662.4 517.3,166.1 '/>
		<polygon fill = 'rgb( 31, 120, 180)' fill-opacity = '0.250000' points = '517.3,166.1 517.3,662.4 519.2,662.4 519.2,161.5 '/>
		<polygon fill = 'rgb( 31, 120, 180)' fill-opacity = '0.250000' points = '519.2,161.5 519.2,662.4 521.0,662.4 521.0,157.3 '/>
		<polygon fill = 'rgb( 31, 120, 180)' fill-opacity = '0.250000' points = '521.0,157.3 521.0,662.4 522.9,662.4 522.9,153.4 '/>
		<polygon fill = 'rgb( 31, 120, 180)' fill-opacity = '0.250000' points = '522.9,153.4 522.9,662.4 524.8,662.4 524.8,149.9 '/>
		<polygon fill = 'rgb( 31, 120, 180)' fill-opacity = '0.250000' points = '524.8,149.9 524.8,662.4 526.7,662.4 526.7,146.9 '/>
		<polygon fill = 'rgb( 31, 120, 180)' fill-opacity = '0.250000' points = '526.7,146.9 526.7,662.4 528.6,662.4 528.6,144.2 '/>
		<polygon fill = 'rgb( 31, 120, 180)' fill-opacity = '0.250000' points = '528.6,144.2 528.6,662.4 530.5,662.4 530.5,141.9 '/>
		<polygon fill = 'rgb( 31, 120, 180)' fill-opacity = '0.250000' points = '530.5,141.9 530.5,662.4 532.4,662.4 532.4,140.0 '/>
		<polygon fill = 'rgb( 31, 120, 180)' fill-opacity = '0.250000' points = '532.4,140.0 532.4,662.4 534.3,662.4 534.3,138.4 '/>
		<polygon fill = 'rgb( 31, 120, 180)' fill-opacity = '0.250000' points = '534.3,138.4 534.3,662.4 536.1,662.4 536.1,137.2 '/>
		<polygon fill = 'rgb( 31, 120, 180)' fill-opacity = '0.250000' points = '536.1,137.2 536.1,662.4 538.0,662.4 538.0,136.3 '/>
		<polygon fill = 'rgb( 31, 120, 180)' fill-opacity = '0.250000' points = '538.0,136.3 538.0,662.4 539.9,662.4 539.9,135.7 '/>
		<polygon fill = 'rgb( 31, 120, 180)' fill-opacity = '0.250000' points = '539.9,135.7 539.9,662.4 541.8,662.4 541.8,135.3 '/>
		<polygon fill = 'rgb( 31, 120, 180)' fill-opacity = '0.250000' points = '541.8,135.3 541.8,662.4 543.7,662.4 543.7,135.2 '/>
		<polygon fill = 'rgb( 31, 120, 180)' fill-opacity = '0.250000' points = '543.7,135.2 543.7,662.4 545.6,662.4 545.6,135.2 '/>
		<polygon fill = 'rgb( 31, 120, 180)' fill-opacity = '0.250000' points = '545.6,135.2 545.6,662.4 547.5,662.4 547.5,135.3 '/>
		<polygon fill = 'rgb( 31, 120, 180)' fill-opacity = '0.250000' points = '547.5,135.3 547.5,662.4 549.4,662.4 549.4,135.5 '/>
		<polygon fill = 'rgb( 31, 120, 180)' fill-opacity = '0.250000' points = '549.4,135.5 549.4,662.4 551.2,662.4 551.2,135.9 '/>
		<polygon fill = 'rgb( 31, 120, 180)' fill-opacity = '0.250000' points = '551.2,135.9 551.2,662.4 553.1,662.4 553.1,136.2 '/>
		<polygon fill = 'rgb( 31, 120, 180)' fill-opacity = '0.250000' points = '553.1,136.2 553.1,662.4 555.0,662.4 555.0,136.6 '/>
		<polygon fill = 'rgb( 31, 120, 180)' fill-opacity = '0.250000' points = '555.0,136.6 555.0,662.4 556.9,662.4 556.9,137.1 '/>
		<polygon fill = 'rgb( 31, 120, 180)' fill-opacity = '0.250000' points = '556.9,137.1 556.9,662.4 558.8,662.4 558.8,137.5 '/>
		<polygon fill = 'rgb( 31, 120, 180)' fill-opacity = '0.250000' points = '558.8,137.5 558.8,662.4 560.7,662.4 560.7,137.8 '/>
		<polygon fill = 'rgb( 31, 120, 180)' fill-opacity = '0.250000' points = '560.7,137.8 560.7,662.4 562.6,662.4 562.6,138.2 '/>
		<polygon fill = 'rgb( 31, 120, 180)' fill-opacity = '0.250000' points = '562.6,138.2 562.6,662.4 564.5,662.4 564.5,138.6 '/>
		<polygon fill = 'rgb( 31, 120, 180)' fill-opacity = '0.250000' points = '564.5,138.6 564.5,662.4 566.3,662.4 566.3,138.9 '/>
		<polygon fill = 'rgb( 31, 120, 180)' fill-opacity = '0.250000' points = '566.3,138.9 566.3,662.4 568.2,662.4 568.2,139.2 '/>
		<polygon fill = 'rgb( 31, 120, 180)' fill-opacity = '0.250000' points = '568.2,139.2 568.2,662.4 570.1,662.4 570.1,139.4 '/>
		<polygon fill = 'rgb( 31, 120, 180)' fill-opacity = '0.250000' points = '570.1,139.4 570.1,662.4 572.0,662.4 572.0,139.7 '/>
		<polygon fill = 'rgb( 31, 120, 180)' fill-opacity = '0.250000' points = '572.0,139.7 572.0,662.4 573.9,662.4 573.9,140.0 '/>
		<polygon fill = 'rgb( 31, 120, 180)' fill-opacity = '0.250000' points = '573.9,140.0 573.9,662.4 575.8,662.4 575.8,140.2 '/>
		<polygon fill = 'rgb( 31, 120, 180)' fill-opacity = '0.250000' points = '575.8,140.2 575.8,662.4 577.7,662.4 577.7,140.4 '/>
		<polygon fill = 'rgb( 31, 120, 180)' fill-opacity = '0.250000' points = '577.7,140.4 577.7,662.4 579.5,662.4 579.5,140.7 '/>
		<polygon fill = 'rgb( 31, 120, 180)' fill-opacity = '0.250000' points = '579.5,140.7 579.5,662.4 581.4,662.4 581.4,140.9 '/>
		<polygon fill = 'rgb( 31, 120, 180)' fill-opacity = '0.250000' points = '581.4,140.9 581.4,662.4 583.3,662.4 583.3,141.0 '/>
		<polygon fill = 'rgb( 31, 120, 180)' fill-opacity = '0.250000' points = '583.3,141.0 583.3,662.4 585.2,662.4 585.2,141.2 '/>
		<polygon fill = 'rgb( 31, 120, 180)' fill-opacity = '0.250000' points = '585.2,141.2 585.2,662.4 587.1,662.4 587.1,141.3 '/>
		<polygon fill = 'rgb( 31, 120, 180)' fill-opacity = '0.250000' points = '587.1,141.3 587.1,662.4 589.0,662.4 589.0,141.3 '/>
		<polygon fill = 'rgb( 31, 120, 180)' fill-opacity = '0.250000' points = '589.0,141.3 589.0,662.4 590.9,662.4 590.9,141.3 '/>
		<polygon fill = 'rgb( 31, 120, 180)' fill-opacity = '0.250000' points = '590.9,141.3 590.9,662.4 592.8,662.4 592.8,141.1 '/>
		<polygon fill = 'rgb( 31, 120, 180)' fill-opacity = '0.250000' points = '592.8,141.1 592.8,662.4 594.6,662.4 594.6,140.9 '/>
		<polygon fill = 'rgb( 31, 120, 180)' fill-opacity = '0.250000' points = '594.6,140.9 594.6,662.4 596.5,662.4 596.5,140.5 '/>
		<polygon fill = 'rgb( 31, 120, 180)' fill-opacity = '0.250000' points = '596.5,140.5 596.5,662.4 598.4,662.4 598.4,140.0 '/>
		<polygon fill = 'rgb( 31, 120, 180)' fill-opacity = '0.250000' points = '598.4,140.0 598.4,662.4 600.3,662.4 600.3,139.3 '/>
		<polygon fill = 'rgb( 31, 120, 180)' fill-opacity = '0.250000' points = '600.3,139.3 600.3,662.4 602.2,662.4 602.2,138.4 '/>
		<polygon fill = 'rgb( 31, 120, 180)' fill-opacity = '0.250000' points = '602.2,138.4 602.2,662.4 604.1,662.4 604.1,137.4 '/>
		<polygon fill = 'rgb( 31, 120, 180)' fill-opacity = '0.250000' points = '604.1,137.4 604.1,662.4 606.0,662.4 606.0,136.1 '/>
		<polygon fill = 'rgb( 31, 120, 180)' fill-opacity = '0.250000' points = '606.0,136.1 606.0,662.4 607.9,662.4 607.9,134.7 '/>
		<polygon fill = 'rgb( 31, 120, 180)' fill-opacity = '0.250000' points = '607.9,134.7 607.9,662.4 609.7,662.4 609.7,133.1 '/>
		<polygon fill = 'rgb( 31, 120, 180)' fill-opacity = '0.250000' points = '609.7,133.1 609.7,662.4 611.6,662.4 611.6,131.3 '/>
		<polygon fill = 'rgb( 31, 120, 180)' fill-opacity = '0.250000' points = '611.6,131.3 611.6,662.4 613.5,662.4 613.5,129.3 '/>
		<polygon fill = 'rgb( 31, 120, 180)' fill-opacity = '0.250000' points = '613.5,129.3 613.5,662.4 615.4,662.4 615.4,127.2 '/>
		<polygon fill = 'rgb( 31, 120, 180)' fill-opacity = '0.250000' points = '615.4,127.2 615.4,662.4 617.3,662.4 617.3,124.9 '/>
		<polygon fill = 'rgb( 31, 120, 180)' fill-opacity = '0.250000' points = '617.3,124.9 617.3,662.4 619.2,662.4 619.2,122.5 '/>
		<polygon fill = 'rgb( 31, 120, 180)' fill-opacity = '0.250000' points = '619.2,122.5 619.2,662.4 621.1,662.4 621.1,120.0 '/>
		<polygon fill = 'rgb( 31, 120, 180)' fill-opacity = '0.250000' points = '621.1,120.0 621.1,662.4 623.0,662.4 623.0,117.5 '/>
		<polygon fill = 'rgb( 31, 120, 180)' fill-opacity = '0.250000' points = '623.0,117.5 623.0,662.4 624.8,662.4 624.8,114.9 '/>
		<polygon fill = 'rgb( 31, 120, 180)' fill-opacity = '0.250000' points = '624.8,114.9 624.8,662.4 626.7,662.4 626.7,112.3 '/>
		<polygon fill = 'rgb( 31, 120, 180)' fill-opacity = '0.250000' points = '626.7,112.3 626.7,662.4 628.6,662.4 628.6,109.8 '/>
		<polygon fill = 'rgb( 31, 120, 180)' fill-opacity = '0.250000' points = '628.6,109.8 628.6,662.4 630.5,662.4 630.5,107.3 '/>
		<polygon fill = 'rgb( 31, 120, 180)' fill-opacity = '0.250000' points = '630.5,107.3 630.5,662.4 632.4,662.4 632.4,104.8 '/>
		<polygon fill = 'rgb( 31, 120, 180)' fill-opacity = '0.250000' points = '632.4,104.8 632.4,662.4 634.3,662.4 634.3,102.5 '/>
		<polygon fill = 'rgb( 31, 120, 180)' fill-opacity = '0.250000' points = '634.3,102.5 634.3,662.4 636.2,662.4 636.2,100.4 '/>
		<polygon fill = 'rgb( 31, 120, 180)' fill-opacity = '0.250000' points = '636.2,100.4 636.2,662.4 638.1,662.4 638.1,98.4 '/>
		<polygon fill = 'rgb( 31, 120, 180)' fill-opacity = '0.250000' points = '638.1,98.4 638.1,662.4 639.9,662.4 639.9,96.6 '/>
		<polygon fill = 'rgb( 31, 120, 180)' fill-opacity = '0.250000' points = '639.9,96.6 639.9,662.4 641.8,662.4 641.8,95.1 '/>
		<polygon fill = 'rgb( 31, 120, 180)' fill-opacity = '0.250000' points = '641.8,95.1 641.8,662.4 643.7,662.4 643.7,93.8 '/>
		<polygon fill = 'rgb( 31, 120, 180)' fill-opacity = '0.250000' points = '643.7,93.8 643.7,662.4 645.6,662.4 645.6,92.7 '/>
		<polygon fill = 'rgb( 31, 120, 180)' fill-opacity = '0.250000' points = '645.6,92.7 645.6,662.4 647.5,662.4 647.5,91.9 '/>
		<polygon fill = 'rgb( 31, 120, 180)' fill-opacity = '0.250000' points = '647.5,91.9 647.5,662.4 649.4,662.4 649.4,91.4 '/>
		<polygon fill = 'rgb( 31, 120, 180)' fill-opacity = '0.250000' points = '649.4,91.4 649.4,662.4 651.3,662.4 651.3,91.1 '/>
		<polygon fill = 'rgb( 31, 120, 180)' fill-opacity = '0.250000' points = '651.3,91.1 651.3,662.4 653.1,662.4 653.1,91.2 '/>
		<polygon fill = 'rgb( 31, 120, 180)' fill-opacity = '0.250000' points = '653.1,91.2 653.1,662.4 655.0,662.4 655.0,91.5 '/>
		<polygon fill = 'rgb( 31, 120, 180)' fill-opacity = '0.250000' points = '655.0,91.5 655.0,662.4 656.9,662.4 656.9,92.1 '/>
		<polygon fill = 'rgb( 31, 120, 180)' fill-opacity = '0.250000' points = '656.9,92.1 656.9,662.4 658.8,662.4 658.8,93.1 '/>
		<polygon fill = 'rgb( 31, 120, 180)' fill-opacity = '0.250000' points = '658.8,93.1 658.8,662.4 660.7,662.4 660.7,94.3 '/>
		<polygon fill = 'rgb( 31, 120, 180)' fill-opacity = '0.250000' points = '660.7,94.3 660.7,662.4 662.6,662.4 662.6,95.7 '/>
		<polygon fill = 'rgb( 31, 120, 180)' fill-opacity = '0.250000' points = '662.6,95.7 662.6,662.4 664.5,662.4 664.5,97.5 '/>
		<polygon fill = 'rgb( 31, 120, 180)' fill-opacity = '0.250000' points = '664.5,97.5 664.5,662.4 666.4,662.4 666.4,99.5 '/>
		<polygon fill = 'rgb( 31, 120, 180)' fill-opacity = '0.250000' points = '666.4,99.5 666.4,662.4 668.2,662.4 668.2,101.7 '/>
		<polygon fill = 'rgb( 31, 120, 180)' fill-opacity = '0.250000' points = '668.2,101.7 668.2,662.4 670.1,662.4 670.1,104.2 '/>
		<polygon fill = 'rgb( 31, 120, 180)' fill-opacity = '0.250000' points = '670.1,104.2 670.1,662.4 672.0,662.4 672.0,106.9 '/>
		<polygon fill = 'rgb( 31, 120, 180)' fill-opacity = '0.250000' points = '672.0,106.9 672.0,662.4 673.9,662.4 673.9,109.8 '/>
		<polygon fill = 'rgb( 31, 120, 180)' fill-opacity = '0.250000' points = '673.9,109.8 673.9,662.4 675.8,662.4 675.8,113.0 '/>
		<polygon fill = 'rgb( 31, 120, 180)' fill-opacity = '0.250000' points = '675.8,113.0 675.8,662.4 677.7,662.4 677.7,116.2 '/>
		<polygon fill = 'rgb( 31, 120, 180)' fill-opacity = '0.250000' points = '677.7,116.2 677.7,662.4 679.6,662.4 679.6,119.7 '/>
		<polygon fill = 'rgb( 31, 120, 180)' fill-opacity = '0.250000' points = '679.6,119.7 679.6,662.4 681.5,662.4 681.5,123.2 '/>
		<polygon fill = 'rgb( 31, 120, 180)' fill-opacity = '0.250000' points = '681.5,123.2 681.5,662.4 683.3,662.4 683.3,126.9 '/>
		<polygon fill = 'rgb( 31, 120, 180)' fill-opacity = '0.250000' points = '683.3,126.9 683.3,662.4 685.2,662.4 685.2,130.8 '/>
		<polygon fill = 'rgb( 31, 120, 180)' fill-opacity = '0.250000' points = '685.2,130.8 685.2,662.4 687.1,662.4 687.1,134.7 '/>
		<polygon fill = 'rgb( 31, 120, 180)' fill-opacity = '0.250000' points = '687.1,134.7 687.1,662.4 689.0,662.4 689.0,138.6 '/>
		<polygon fill = 'rgb( 31, 120, 180)' fill-opacity = '0.250000' points = '689.0,138.6 689.0,662.4 690.9,662.4 690.9,142.7 '/>
		<polygon fill = 'rgb( 31, 120, 180)' fill-opacity = '0.250000' points = '690.9,142.7 690.9,662.4 692.8,662.4 692.8,146.8 '/>
		<polygon fill = 'rgb( 31, 120, 180)' fill-opacity = '0.250000' points = '692.8,146.8 692.8,662.4 694.7,662.4 694.7,150.9 '/>
		<polygon fill = 'rgb( 31, 120, 180)' fill-opacity = '0.250000' points = '694.7,150.9 694.7,662.4 696.6,662.4 696.6,155.1 '/>
		<polygon fill = 'rgb( 31, 120, 180)' fill-opacity = '0.250000' points = '696.6,155.1 696.6,662.4 698.4,662.4 698.4,159.4 '/>
		<polygon fill = 'rgb( 31, 120, 180)' fill-opacity = '0.250000' points = '698.4,159.4 698.4,662.4 700.3,662.4 700.3,163.7 '/>
		<polygon fill = 'rgb( 31, 120, 180)' fill-opacity = '0.250000' points = '700.3,163.7 700.3,662.4 702.2,662.4 702.2,168.0 '/>
		<polygon fill = 'rgb( 31, 120, 180)' fill-opacity = '0.250000' points = '702.2,168.0 702.2,662.4 704.1,662.4 704.1,172.5 '/>
		<polygon fill = 'rgb( 31, 120, 180)' fill-opacity = '0.250000' points = '704.1,172.5 704.1,662.4 706.0,662.4 706.0,176.9 '/>
		<polygon fill = 'rgb( 31, 120, 180)' fill-opacity = '0.250000' points = '706.0,176.9 706.0,662.4 707.9,662.4 707.9,181.5 '/>
		<polygon fill = 'rgb( 31, 120, 180)' fill-opacity = '0.250000' points = '707.9,181.5 707.9,662.4 709.8,662.4 709.8,186.1 '/>
		<polygon fill = 'rgb( 31, 120, 180)' fill-opacity = '0.250000' points = '709.8,186.1 709.8,662.4 711.7,662.4 711.7,190.7 '/>
		<polygon fill = 'rgb( 31, 120, 180)' fill-opacity = '0.250000' points = '711.7,190.7 711.7,662.4 713.5,662.4 713.5,195.5 '/>
		<polygon fill = 'rgb( 31, 120, 180)' fill-opacity = '0.250000' points = '713.5,195.5 713.5,662.4 715.4,662.4 715.4,200.3 '/>
		<polygon fill = 'rgb( 31, 120, 180)' fill-opacity = '0.250000' points = '715.4,200.3 715.4,662.4 717.3,662.4 717.3,205.2 '/>
		<polygon fill = 'rgb( 31, 120, 180)' fill-opacity = '0.250000' points = '717.3,205.2 717.3,662.4 719.2,662.4 719.2,210.2 '/>
		<polygon fill = 'rgb( 31, 120, 180)' fill-opacity = '0.250000' points = '719.2,210.2 719.2,662.4 721.1,662.4 721.1,215.2 '/>
		<polygon fill = 'rgb( 31, 120, 180)' fill-opacity = '0.250000' points = '721.1,215.2 721.1,662.4 723.0,662.4 723.0,220.2 '/>
		<polygon fill = 'rgb( 31, 120, 180)' fill-opacity = '0.250000' points = '723.0,220.2 723.0,662.4 724.9,662.4 724.9,225.3 '/>
		<polygon fill = 'rgb( 31, 120, 180)' fill-opacity = '0.250000' points = '724.9,225.3 724.9,662.4 726.7,662.4 726.7,230.3 '/>
		<polygon fill = 'rgb( 31, 120, 180)' fill-opacity = '0.250000' points = '726.7,230.3 726.7,662.4 728.6,662.4 728.6,235.3 '/>
		<polygon fill = 'rgb( 31, 120, 180)' fill-opacity = '0.250000' points = '728.6,235.3 728.6,662.4 730.5,662.4 730.5,240.3 '/>
		<polygon fill = 'rgb( 31, 120, 180)' fill-opacity = '0.250000' points = '730.5,240.3 730.5,662.4 732.4,662.4 732.4,245.2 '/>
		<polygon fill = 'rgb( 31, 120, 180)' fill-opacity = '0.250000' points = '732.4,245.2 732.4,662.4 734.3,662.4 734.3,250.0 '/>
		<polygon fill = 'rgb( 31, 120, 180)' fill-opacity = '0.250000' points = '734.3,250.0 734.3,662.4 736.2,662.4 736.2,254.6 '/>
		<polygon fill = 'rgb( 31, 120, 180)' fill-opacity = '0.250000' points = '736.2,254.6 736.2,662.4 738.1,662.4 738.1,259.1 '/>
		<polygon fill = 'rgb( 31, 120, 180)' fill-opacity = '0.250000' points = '738.1,259.1 738.1,662.4 740.0,662.4 740.0,263.3 '/>
		<polygon fill = 'rgb( 31, 120, 180)' fill-opacity = '0.250000' points = '740.0,263.3 740.0,662.4 741.8,662.4 741.8,267.4 '/>
		<polygon fill = 'rgb( 31, 120, 180)' fill-opacity = '0.250000' points = '741.8,267.4 741.8,662.4 743.7,662.4 743.7,271.3 '/>
		<polygon fill = 'rgb( 31, 120, 180)' fill-opacity = '0.250000' points = '743.7,271.3 743.7,662.4 745.6,662.4 745.6,274.8 '/>
		<polygon fill = 'rgb( 31, 120, 180)' fill-opacity = '0.250000' points = '745.6,274.8 745.6,662.4 747.5,662.4 747.5,278.2 '/>
		<polygon fill = 'rgb( 31, 120, 180)' fill-opacity = '0.250000' points = '747.5,278.2 747.5,662.4 749.4,662.4 749.4,281.2 '/>
		<polygon fill = 'rgb( 31, 120, 180)' fill-opacity = '0.250000' points = '749.4,281.2 749.4,662.4 751.3,662.4 751.3,284.0 '/>
		<polygon fill = 'rgb( 31, 120, 180)' fill-opacity = '0.250000' points = '751.3,284.0 751.3,662.4 753.2,662.4 753.2,286.6 '/>
		<polygon fill = 'rgb( 31, 120, 180)' fill-opacity = '0.250000' points = '753.2,286.6 753.2,662.4 755.1,662.4 755.1,288.8 '/>
		<polygon fill = 'rgb( 31, 120, 180)' fill-opacity = '0.250000' points = '755.1,288.8 755.1,662.4 756.9,662.4 756.9,290.9 '/>
		<polygon fill = 'rgb( 31, 120, 180)' fill-opacity = '0.250000' points = '756.9,290.9 756.9,662.4 758.8,662.4 758.8,292.7 '/>
		<polygon fill = 'rgb( 31, 120, 180)' fill-opacity = '0.250000' points = '758.8,292.7 758.8,662.4 760.7,662.4 760.7,294.3 '/>
		<polygon fill = 'rgb( 31, 120, 180)' fill-opacity = '0.250000' points = '760.7,294.3 760.7,662.4 762.6,662.4 762.6,295.7 '/>
		<polygon fill = 'rgb( 31, 120, 180)' fill-opacity = '0.250000' points = '762.6,295.7 762.6,662.4 764.5,662.4 764.5,297.0 '/>
		<polygon fill = 'rgb( 31, 120, 180)' fill-opacity = '0.250000' points = '764.5,297.0 764.5,662.4 766.4,662.4 766.4,298.1 '/>
		<polygon fill = 'rgb( 31, 120, 180)' fill-opacity = '0.250000' points = '766.4,298.1 766.4,662.4 768.3,662.4 768.3,299.2 '/>
		<polygon fill = 'rgb( 31, 120, 180)' fill-opacity = '0.250000' points = '768.3,299.2 768.3,662.4 770.2,662.4 770.2,300.3 '/>
		<polygon fill = 'rgb( 31, 120, 180)' fill-opacity = '0.250000' points = '770.2,300.3 770.2,662.4 772.0,662.4 772.0,301.4 '/>
		<polygon fill = 'rgb( 31, 120, 180)' fill-opacity = '0.250000' points = '772.0,301.4 772.0,662.4 773.9,662.4 773.9,302.5 '/>
		<polygon fill = 'rgb( 31, 120, 180)' fill-opacity = '0.250000' points = '773.9,302.5 773.9,662.4 775.8,662.4 775.8,303.7 '/>
		<polygon fill = 'rgb( 31, 120, 180)' fill-opacity = '0.250000' points = '775.8,303.7 775.8,662.4 777.7,662.4 777.7,305.1 '/>
		<polygon fill = 'rgb( 31, 120, 180)' fill-opacity = '0.250000' points = '777.7,305.1 777.7,662.4 779.6,662.4 779.6,306.7 '/>
		<polygon fill = 'rgb( 31, 120, 180)' fill-opacity = '0.250000' points = '779.6,306.7 779.6,662.4 781.5,662.4 781.5,308.5 '/>
		<polygon fill = 'rgb( 31, 120, 180)' fill-opacity = '0.250000' points = '781.5,308.5 781.5,662.4 783.4,662.4 783.4,310.5 '/>
		<polygon fill = 'rgb( 31, 120, 180)' fill-opacity = '0.250000' points = '783.4,310.5 783.4,662.4 785.3,662.4 785.3,312.8 '/>
		<polygon fill = 'rgb( 31, 120, 180)' fill-opacity = '0.250000' points = '785.3,312.8 785.3,662.4 787.1,662.4 787.1,315.4 '/>
		<polygon fill = 'rgb( 31, 120, 180)' fill-opacity = '0.250000' points = '787.1,315.4 787.1,662.4 789.0,662.4 789.0,318.4 '/>
		<polygon fill = 'rgb( 31, 120, 180)' fill-opacity = '0.250000' points = '789.0,318.4 789.0,662.4 790.9,662.4 790.9,321.7 '/>
		<polygon fill = 'rgb( 31, 120, 180)' fill-opacity = '0.250000' points = '790.9,321.7 790.9,662.4 792.8,662.4 792.8,325.4 '/>
		<polygon fill = 'rgb( 31, 120, 180)' fill-opacity = '0.250000' points = '792.8,325.4 792.8,662.4 794.7,662.4 794.7,329.4 '/>
		<polygon fill = 'rgb( 31, 120, 180)' fill-opacity = '0.250000' points = '794.7,329.4 794.7,662.4 796.6,662.4 796.6,333.7 '/>
		<polygon fill = 'rgb( 31, 120, 180)' fill-opacity = '0.250000' points = '796.6,333.7 796.6,662.4 798.5,662.4 798.5,338.4 '/>
		<polygon fill = 'rgb( 31, 120, 180)' fill-opacity = '0.250000' points = '798.5,338.4 798.5,662.4 800.3,662.4 800.3,343.4 '/>
		<polygon fill = 'rgb( 31, 120, 180)' fill-opacity = '0.250000' points = '800.3,343.4 800.3,662.4 802.2,662.4 802.2,348.7 '/>
		<polygon fill = 'rgb( 31, 120, 180)' fill-opacity = '0.250000' points = '802.2,348.7 802.2,662.4 804.1,662.4 804.1,354.2 '/>
		<polygon fill = 'rgb( 31, 120, 180)' fill-opacity = '0.250000' points = '804.1,354.2 804.1,662.4 806.0,662.4 806.0,360.0 '/>
		<polygon fill = 'rgb( 31, 120, 180)' fill-opacity = '0.250000' points = '806.0,360.0 806.0,662.4 807.9,662.4 807.9,365.9 '/>
		<polygon fill = 'rgb( 31, 120, 180)' fill-opacity = '0.250000' points = '807.9,365.9 807.9,662.4 809.8,662.4 809.8,372.0 '/>
		<polygon fill = 'rgb( 31, 120, 180)' fill-opacity = '0.250000' points = '809.8,372.0 809.8,662.4 811.7,662.4 811.7,378.2 '/>
		<polygon fill = 'rgb( 31, 120, 180)' fill-opacity = '0.250000' points = '811.7,378.2 811.7,662.4 813.6,662.4 813.6,384.4 '/>
		<polygon fill = 'rgb( 31, 120, 180)' fill-opacity = '0.250000' points = '813.6,384.4 813.6,662.4 815.4,662.4 815.4,390.7 '/>
		<polygon fill = 'rgb( 31, 120, 180)' fill-opacity = '0.250000' points = '815.4,390.7 815.4,662.4 817.3,662.4 817.3,397.0 '/>
		<polygon fill = 'rgb( 31, 120, 180)' fill-opacity = '0.250000' points = '817.3,397.0 817.3,662.4 819.2,662.4 819.2,403.2 '/>
		<polygon fill = 'rgb( 31, 120, 180)' fill-opacity = '0.250000' points = '819.2,403.2 819.2,662.4 821.1,662.4 821.1,409.4 '/>
		<polygon fill = 'rgb( 31, 120, 180)' fill-opacity = '0.250000' points = '821.1,409.4 821.1,662.4 823.0,662.4 823.0,415.5 '/>
		<polygon fill = 'rgb( 31, 120, 180)' fill-opacity = '0.250000' points = '823.0,415.5 823.0,662.4 824.9,662.4 824.9,421.4 '/>
		<polygon fill = 'rgb( 31, 120, 180)' fill-opacity = '0.250000' points = '824.9,421.4 824.9,662.4 826.8,662.4 826.8,427.3 '/>
		<polygon fill = 'rgb( 31, 120, 180)' fill-opacity = '0.250000' points = '826.8,427.3 826.8,662.4 828.7,662.4 828.7,433.0 '/>
		<polygon fill = 'rgb( 31, 120, 180)' fill-opacity = '0.250000' points = '828.7,433.0 828.7,662.4 830.5,662.4 830.5,438.5 '/>
		<polygon fill = 'rgb( 31, 120, 180)' fill-opacity = '0.250000' points = '830.5,438.5 830.5,662.4 832.4,662.4 832.4,443.9 '/>
		<polygon fill = 'rgb( 31, 120, 180)' fill-opacity = '0.250000' points = '832.4,443.9 832.4,662.4 834.3,662.4 834.3,449.1 '/>
		<polygon fill = 'rgb( 31, 120, 180)' fill-opacity = '0.250000' points = '834.3,449.1 834.3,662.4 836.2,662.4 836.2,454.2 '/>
		<polygon fill = 'rgb( 31, 120, 180)' fill-opacity = '0.250000' points = '836.2,454.2 836.2,662.4 838.1,662.4 838.1,459.1 '/>
		<polygon fill = 'rgb( 31, 120, 180)' fill-opacity = '0.250000' points = '838.1,459.1 838.1,662.4 840.0,662.4 840.0,463.9 '/>
		<polygon fill = 'rgb( 31, 120, 180)' fill-opacity = '0.250000' points = '840.0,463.9 840.0,662.4 841.9,662.4 841.9,468.5 '/>
		<polygon fill = 'rgb( 31, 120, 180)' fill-opacity = '0.250000' points = '841.9,468.5 841.9,662.4 843.8,662.4 843.8,473.0 '/>
		<polygon fill = 'rgb( 31, 120, 180)' fill-opacity = '0.250000' points = '843.8,473.0 843.8,662.4 845.6,662.4 845.6,477.4 '/>
		<polygon fill = 'rgb( 31, 120, 180)' fill-opacity = '0.250000' points = '845.6,477.4 845.6,662.4 847.5,662.4 847.5,481.6 '/>
		<polygon fill = 'rgb( 31, 120, 180)' fill-opacity = '0.250000' points = '847.5,481.6 847.5,662.4 849.4,662.4 849.4,485.7 '/>
		<polygon fill = 'rgb( 31, 120, 180)' fill-opacity = '0.250000' points = '849.4,485.7 849.4,662.4 851.3,662.4 851.3,489.7 '/>
		<polygon fill = 'rgb( 31, 120, 180)' fill-opacity = '0.250000' points = '851.3,489.7 851.3,662.4 853.2,662.4 853.2,493.6 '/>
		<polygon fill = 'rgb( 31, 120, 180)' fill-opacity = '0.250000' points = '853.2,493.6 853.2,662.4 855.1,662.4 855.1,497.3 '/>
		<polygon fill = 'rgb( 31, 120, 180)' fill-opacity = '0.250000' points = '855.1,497.3 855.1,662.4 857.0,662.4 857.0,501.0 '/>
		<polygon fill = 'rgb( 31, 120, 180)' fill-opacity = '0.250000' points = '857.0,501.0 857.0,662.4 858.9,662.4 858.9,504.5 '/>
		<polygon fill = 'rgb( 31, 120, 180)' fill-opacity = '0.250000' points = '858.9,504.5 858.9,662.4 860.7,662.4 860.7,507.9 '/>
		<polygon fill = 'rgb( 31, 120, 180)' fill-opacity = '0.250000' points = '860.7,507.9 860.7,662.4 862.6,662.4 862.6,511.2 '/>
		<polygon fill = 'rgb( 31, 120, 180)' fill-opacity = '0.250000' points = '862.6,511.2 862.6,662.4 864.5,662.4 864.5,514.3 '/>
		<polygon fill = 'rgb( 31, 120, 180)' fill-opacity = '0.250000' points = '864.5,514.3 864.5,662.4 866.4,662.4 866.4,517.3 '/>
		<polygon fill = 'rgb( 31, 120, 180)' fill-opacity = '0.250000' points = '866.4,517.3 866.4,662.4 868.3,662.4 868.3,520.2 '/>
		<polygon fill = 'rgb( 31, 120, 180)' fill-opacity = '0.250000' points = '868.3,520.2 868.3,662.4 870.2,662.4 870.2,522.9 '/>
		<polygon fill = 'rgb( 31, 120, 180)' fill-opacity = '0.250000' points = '870.2,522.9 870.2,662.4 872.1,662.4 872.1,525.5 '/>
		<polygon fill = 'rgb( 31, 120, 180)' fill-opacity = '0.250000' points = '872.1,525.5 872.1,662.4 873.9,662.4 873.9,528.0 '/>
		<polygon fill = 'rgb( 31, 120, 180)' fill-opacity = '0.250000' points = '873.9,528.0 873.9,662.4 875.8,662.4 875.8,530.3 '/>
		<polygon fill = 'rgb( 31, 120, 180)' fill-opacity = '0.250000' points = '875.8,530.3 875.8,662.4 877.7,662.4 877.7,532.4 '/>
		<polygon fill = 'rgb( 31, 120, 180)' fill-opacity = '0.250000' points = '877.7,532.4 877.7,662.4 879.6,662.4 879.6,534.4 '/>
		<polygon fill = 'rgb( 31, 120, 180)' fill-opacity = '0.250000' points = '879.6,534.4 879.6,662.4 881.5,662.4 881.5,536.3 '/>
		<polygon fill = 'rgb( 31, 120, 180)' fill-opacity = '0.250000' points = '881.5,536.3 881.5,662.4 883.4,662.4 883.4,538.0 '/>
		<polygon fill = 'rgb( 31, 120, 180)' fill-opacity = '0.250000' points = '883.4,538.0 883.4,662.4 885.3,662.4 885.3,539.5 '/>
		<polygon fill = 'rgb( 31, 120, 180)' fill-opacity = '0.250000' points = '885.3,539.5 885.3,662.4 887.2,662.4 887.2,540.9 '/>
		<polygon fill = 'rgb( 31, 120, 180)' fill-opacity = '0.250000' points = '887.2,540.9 887.2,662.4 889.0,662.4 889.0,542.2 '/>
		<polygon fill = 'rgb( 31, 120, 180)' fill-opacity = '0.250000' points = '889.0,542.2 889.0,662.4 890.9,662.4 890.9,543.3 '/>
		<polygon fill = 'rgb( 31, 120, 180)' fill-opacity = '0.250000' points = '890.9,543.3 890.9,662.4 892.8,662.4 892.8,544.3 '/>
		<polygon fill = 'rgb( 31, 120, 180)' fill-opacity = '0.250000' points = '892.8,544.3 892.8,662.4 894.7,662.4 894.7,545.2 '/>
		<polygon fill = 'rgb( 31, 120, 180)' fill-opacity = '0.250000' points = '894.7,545.2 894.7,662.4 896.6,662.4 896.6,546.0 '/>
		<polygon fill = 'rgb( 31, 120, 180)' fill-opacity = '0.250000' points = '896.6,546.0 896.6,662.4 898.5,662.4 898.5,546.7 '/>
		<polygon fill = 'rgb( 31, 120, 180)' fill-opacity = '0.250000' points = '898.5,546.7 898.5,662.4 900.4,662.4 900.4,547.3 '/>
		<polygon fill = 'rgb( 31, 120, 180)' fill-opacity = '0.250000' points = '900.4,547.3 900.4,662.4 902.3,662.4 902.3,547.8 '/>
		<polygon fill = 'rgb( 31, 120, 180)' fill-opacity = '0.250000' points = '902.3,547.8 902.3,662.4 904.1,662.4 904.1,548.3 '/>
		<polygon fill = 'rgb( 31, 120, 180)' fill-opacity = '0.250000' points = '904.1,548.3 904.1,662.4 906.0,662.4 906.0,548.7 '/>
		<polygon fill = 'rgb( 31, 120, 180)' fill-opacity = '0.250000' points = '906.0,548.7 906.0,662.4 907.9,662.4 907.9,549.2 '/>
		<polygon fill = 'rgb( 31, 120, 180)' fill-opacity = '0.250000' points = '907.9,549.2 907.9,662.4 909.8,662.4 909.8,549.6 '/>
		<polygon fill = 'rgb( 31, 120, 180)' fill-opacity = '0.250000' points = '909.8,549.6 909.8,662.4 911.7,662.4 911.7,550.1 '/>
		<polygon fill = 'rgb( 31, 120, 180)' fill-opacity = '0.250000' points = '911.7,550.1 911.7,662.4 913.6,662.4 913.6,550.6 '/>
		<polygon fill = 'rgb( 31, 120, 180)' fill-opacity = '0.250000' points = '913.6,550.6 913.6,662.4 915.5,662.4 915.5,551.1 '/>
		<polygon fill = 'rgb( 31, 120, 180)' fill-opacity = '0.250000' points = '915.5,551.1 915.5,662.4 917.4,662.4 917.4,551.8 '/>
		<polygon fill = 'rgb( 31, 120, 180)' fill-opacity = '0.250000' points = '917.4,551.8 917.4,662.4 919.2,662.4 919.2,552.5 '/>
		<polygon fill = 'rgb( 31, 120, 180)' fill-opacity = '0.250000' points = '919.2,552.5 919.2,662.4 921.1,662.4 921.1,553.4 '/>
		<polygon fill = 'rgb( 31, 120, 180)' fill-opacity = '0.250000' points = '921.1,553.4 921.1,662.4 923.0,662.4 923.0,554.4 '/>
		<polygon fill = 'rgb( 31, 120, 180)' fill-opacity = '0.250000' points = '923.0,554.4 923.0,662.4 924.9,662.4 924.9,555.5 '/>
	</g>
</g>
	</g>
	<g id="gnuplot_plot_3" ><title>Point estimate</title>
<g fill="none" color="white" stroke="rgb( 31, 120, 180)" stroke-width="2.00" stroke-linecap="butt" stroke-linejoin="miter">
</g>
<g fill="none" color="black" stroke="currentColor" stroke-width="2.00" stroke-linecap="butt" stroke-linejoin="miter">
	<g transform="translate(1089.0,103.0)" stroke="none" fill="black" font-family="Helvetica" font-size="12.00"  text-anchor="start">
		<text><tspan font-family="Helvetica" >Point estimate</tspan></text>
	</g>
</g>
<g fill="none" color="black" stroke="currentColor" stroke-width="2.00" stroke-linecap="butt" stroke-linejoin="miter">
	<path stroke='rgb( 31, 120, 180)'  d='M1038.5,99.1 L1080.7,99.1 M598.1,662.4 L598.1,140.1  '/></g>
	</g>
	<g id="gnuplot_plot_4" ><title>Noise threshold</title>
<g fill="none" color="white" stroke="rgb( 31, 120, 180)" stroke-width="1.00" stroke-linecap="butt" stroke-linejoin="miter">
</g>
<g fill="none" color="black" stroke="currentColor" stroke-width="1.00" stroke-linecap="butt" stroke-linejoin="miter">
	<g transform="translate(1089.0,121.0)" stroke="none" fill="black" font-family="Helvetica" font-size="12.00"  text-anchor="start">
		<text><tspan font-family="Helvetica" >Noise threshold</tspan></text>
	</g>
</g>
<g fill="none" color="black" stroke="currentColor" stroke-width="1.00" stroke-linecap="butt" stroke-linejoin="miter">
	<g stroke='none' shape-rendering='crispEdges'>
		<polygon fill = 'rgb(227,  26,  28)' fill-opacity = '0.100000' points = '1038.5,121.6 1080.7,121.6 1080.7,112.6 1038.5,112.6 '/>
		<polygon fill = 'rgb(227,  26,  28)' fill-opacity = '0.100000' points = '71.9,54.1 71.9,662.4 1013.6,662.4 1013.6,54.1 '/>
	</g>
</g>
	</g>
<g fill="none" color="white" stroke="rgb(227,  26,  28)" stroke-width="2.00" stroke-linecap="butt" stroke-linejoin="miter">
</g>
<g fill="none" color="black" stroke="currentColor" stroke-width="2.00" stroke-linecap="butt" stroke-linejoin="miter">
</g>
<g fill="none" color="black" stroke="black" stroke-width="1.00" stroke-linecap="butt" stroke-linejoin="miter">
</g>
<g fill="none" color="black" stroke="currentColor" stroke-width="1.00" stroke-linecap="butt" stroke-linejoin="miter">
	<path stroke='black'  d='M71.9,54.1 L71.9,662.4 L1013.6,662.4 L1013.6,54.1 L71.9,54.1 Z  '/></g>
<g fill="none" color="black" stroke="currentColor" stroke-width="1.00" stroke-linecap="butt" stroke-linejoin="miter">
</g>
</g>
</svg>

