<?xml version="1.0" encoding="utf-8"  standalone="no"?>
<!DOCTYPE svg PUBLIC "-//W3C//DTD SVG 1.1//EN"
 "http://www.w3.org/Graphics/SVG/1.1/DTD/svg11.dtd">
<svg 
 viewBox="0 0 1280 720"
 xmlns="http://www.w3.org/2000/svg"
 xmlns:xlink="http://www.w3.org/1999/xlink"
>

<title>Gnuplot</title>
<desc>Produced by GNUPLOT 5.0 patchlevel 5 </desc>

<g id="gnuplot_canvas">

<rect x="0" y="0" width="1280" height="720" fill="none"/>
<defs>

	<circle id='gpDot' r='0.5' stroke-width='0.5'/>
	<path id='gpPt0' stroke-width='0.222' stroke='currentColor' d='M-1,0 h2 M0,-1 v2'/>
	<path id='gpPt1' stroke-width='0.222' stroke='currentColor' d='M-1,-1 L1,1 M1,-1 L-1,1'/>
	<path id='gpPt2' stroke-width='0.222' stroke='currentColor' d='M-1,0 L1,0 M0,-1 L0,1 M-1,-1 L1,1 M-1,1 L1,-1'/>
	<rect id='gpPt3' stroke-width='0.222' stroke='currentColor' x='-1' y='-1' width='2' height='2'/>
	<rect id='gpPt4' stroke-width='0.222' stroke='currentColor' fill='currentColor' x='-1' y='-1' width='2' height='2'/>
	<circle id='gpPt5' stroke-width='0.222' stroke='currentColor' cx='0' cy='0' r='1'/>
	<use xlink:href='#gpPt5' id='gpPt6' fill='currentColor' stroke='none'/>
	<path id='gpPt7' stroke-width='0.222' stroke='currentColor' d='M0,-1.33 L-1.33,0.67 L1.33,0.67 z'/>
	<use xlink:href='#gpPt7' id='gpPt8' fill='currentColor' stroke='none'/>
	<use xlink:href='#gpPt7' id='gpPt9' stroke='currentColor' transform='rotate(180)'/>
	<use xlink:href='#gpPt9' id='gpPt10' fill='currentColor' stroke='none'/>
	<use xlink:href='#gpPt3' id='gpPt11' stroke='currentColor' transform='rotate(45)'/>
	<use xlink:href='#gpPt11' id='gpPt12' fill='currentColor' stroke='none'/>
	<path id='gpPt13' stroke-width='0.222' stroke='currentColor' d='M0,1.330 L1.265,0.411 L0.782,-1.067 L-0.782,-1.076 L-1.265,0.411 z'/>
	<use xlink:href='#gpPt13' id='gpPt14' fill='currentColor' stroke='none'/>
	<filter id='textbox' filterUnits='objectBoundingBox' x='0' y='0' height='1' width='1'>
	  <feFlood flood-color='white' flood-opacity='1' result='bgnd'/>
	  <feComposite in='SourceGraphic' in2='bgnd' operator='atop'/>
	</filter>
	<filter id='greybox' filterUnits='objectBoundingBox' x='0' y='0' height='1' width='1'>
	  <feFlood flood-color='lightgrey' flood-opacity='1' result='grey'/>
	  <feComposite in='SourceGraphic' in2='grey' operator='atop'/>
	</filter>
</defs>
<g fill="none" color="white" stroke="currentColor" stroke-width="1.00" stroke-linecap="butt" stroke-linejoin="miter">
</g>
<g fill="none" color="black" stroke="currentColor" stroke-width="1.00" stroke-linecap="butt" stroke-linejoin="miter">
	<path stroke='black'  d='M80.2,662.4 L89.2,662.4  '/>	<g transform="translate(71.9,666.3)" stroke="none" fill="black" font-family="Helvetica" font-size="12.00"  text-anchor="end">
		<text><tspan font-family="Helvetica" > 0</tspan></text>
	</g>
</g>
<g fill="none" color="black" stroke="currentColor" stroke-width="1.00" stroke-linecap="butt" stroke-linejoin="miter">
	<path stroke='black'  d='M80.2,540.7 L89.2,540.7  '/>	<g transform="translate(71.9,544.6)" stroke="none" fill="black" font-family="Helvetica" font-size="12.00"  text-anchor="end">
		<text><tspan font-family="Helvetica" > 500</tspan></text>
	</g>
</g>
<g fill="none" color="black" stroke="currentColor" stroke-width="1.00" stroke-linecap="butt" stroke-linejoin="miter">
	<path stroke='black'  d='M80.2,419.1 L89.2,419.1  '/>	<g transform="translate(71.9,423.0)" stroke="none" fill="black" font-family="Helvetica" font-size="12.00"  text-anchor="end">
		<text><tspan font-family="Helvetica" > 1000</tspan></text>
	</g>
</g>
<g fill="none" color="black" stroke="currentColor" stroke-width="1.00" stroke-linecap="butt" stroke-linejoin="miter">
	<path stroke='black'  d='M80.2,297.4 L89.2,297.4  '/>	<g transform="translate(71.9,301.3)" stroke="none" fill="black" font-family="Helvetica" font-size="12.00"  text-anchor="end">
		<text><tspan font-family="Helvetica" > 1500</tspan></text>
	</g>
</g>
<g fill="none" color="black" stroke="currentColor" stroke-width="1.00" stroke-linecap="butt" stroke-linejoin="miter">
	<path stroke='black'  d='M80.2,175.8 L89.2,175.8  '/>	<g transform="translate(71.9,179.7)" stroke="none" fill="black" font-family="Helvetica" font-size="12.00"  text-anchor="end">
		<text><tspan font-family="Helvetica" > 2000</tspan></text>
	</g>
</g>
<g fill="none" color="black" stroke="currentColor" stroke-width="1.00" stroke-linecap="butt" stroke-linejoin="miter">
	<path stroke='black'  d='M80.2,54.1 L89.2,54.1  '/>	<g transform="translate(71.9,58.0)" stroke="none" fill="black" font-family="Helvetica" font-size="12.00"  text-anchor="end">
		<text><tspan font-family="Helvetica" > 2500</tspan></text>
	</g>
</g>
<g fill="none" color="black" stroke="currentColor" stroke-width="1.00" stroke-linecap="butt" stroke-linejoin="miter">
	<path stroke='black'  d='M151.2,662.4 L151.2,653.4  '/>	<g transform="translate(151.2,684.3)" stroke="none" fill="black" font-family="Helvetica" font-size="12.00"  text-anchor="middle">
		<text><tspan font-family="Helvetica" >-0.15</tspan></text>
	</g>
</g>
<g fill="none" color="black" stroke="currentColor" stroke-width="1.00" stroke-linecap="butt" stroke-linejoin="miter">
	<path stroke='black'  d='M252.6,662.4 L252.6,653.4  '/>	<g transform="translate(252.6,684.3)" stroke="none" fill="black" font-family="Helvetica" font-size="12.00"  text-anchor="middle">
		<text><tspan font-family="Helvetica" >-0.14</tspan></text>
	</g>
</g>
<g fill="none" color="black" stroke="currentColor" stroke-width="1.00" stroke-linecap="butt" stroke-linejoin="miter">
	<path stroke='black'  d='M354.1,662.4 L354.1,653.4  '/>	<g transform="translate(354.1,684.3)" stroke="none" fill="black" font-family="Helvetica" font-size="12.00"  text-anchor="middle">
		<text><tspan font-family="Helvetica" >-0.13</tspan></text>
	</g>
</g>
<g fill="none" color="black" stroke="currentColor" stroke-width="1.00" stroke-linecap="butt" stroke-linejoin="miter">
	<path stroke='black'  d='M455.6,662.4 L455.6,653.4  '/>	<g transform="translate(455.6,684.3)" stroke="none" fill="black" font-family="Helvetica" font-size="12.00"  text-anchor="middle">
		<text><tspan font-family="Helvetica" >-0.12</tspan></text>
	</g>
</g>
<g fill="none" color="black" stroke="currentColor" stroke-width="1.00" stroke-linecap="butt" stroke-linejoin="miter">
	<path stroke='black'  d='M557.0,662.4 L557.0,653.4  '/>	<g transform="translate(557.0,684.3)" stroke="none" fill="black" font-family="Helvetica" font-size="12.00"  text-anchor="middle">
		<text><tspan font-family="Helvetica" >-0.11</tspan></text>
	</g>
</g>
<g fill="none" color="black" stroke="currentColor" stroke-width="1.00" stroke-linecap="butt" stroke-linejoin="miter">
	<path stroke='black'  d='M658.5,662.4 L658.5,653.4  '/>	<g transform="translate(658.5,684.3)" stroke="none" fill="black" font-family="Helvetica" font-size="12.00"  text-anchor="middle">
		<text><tspan font-family="Helvetica" >-0.1</tspan></text>
	</g>
</g>
<g fill="none" color="black" stroke="currentColor" stroke-width="1.00" stroke-linecap="butt" stroke-linejoin="miter">
	<path stroke='black'  d='M759.9,662.4 L759.9,653.4  '/>	<g transform="translate(759.9,684.3)" stroke="none" fill="black" font-family="Helvetica" font-size="12.00"  text-anchor="middle">
		<text><tspan font-family="Helvetica" >-0.09</tspan></text>
	</g>
</g>
<g fill="none" color="black" stroke="currentColor" stroke-width="1.00" stroke-linecap="butt" stroke-linejoin="miter">
	<path stroke='black'  d='M861.4,662.4 L861.4,653.4  '/>	<g transform="translate(861.4,684.3)" stroke="none" fill="black" font-family="Helvetica" font-size="12.00"  text-anchor="middle">
		<text><tspan font-family="Helvetica" >-0.08</tspan></text>
	</g>
</g>
<g fill="none" color="black" stroke="currentColor" stroke-width="1.00" stroke-linecap="butt" stroke-linejoin="miter">
	<path stroke='black'  d='M962.9,662.4 L962.9,653.4  '/>	<g transform="translate(962.9,684.3)" stroke="none" fill="black" font-family="Helvetica" font-size="12.00"  text-anchor="middle">
		<text><tspan font-family="Helvetica" >-0.07</tspan></text>
	</g>
</g>
<g fill="none" color="black" stroke="currentColor" stroke-width="1.00" stroke-linecap="butt" stroke-linejoin="miter">
</g>
<g fill="none" color="black" stroke="currentColor" stroke-width="1.00" stroke-linecap="butt" stroke-linejoin="miter">
	<path stroke='black'  d='M80.2,54.1 L80.2,662.4 L1013.6,662.4 L1013.6,54.1 L80.2,54.1 Z  '/></g>
<g fill="none" color="black" stroke="currentColor" stroke-width="1.00" stroke-linecap="butt" stroke-linejoin="miter">
	<g transform="translate(17.0,358.3) rotate(270)" stroke="none" fill="black" font-family="Helvetica" font-size="12.00"  text-anchor="middle">
		<text><tspan font-family="Helvetica" >Density (a.u.)</tspan></text>
	</g>
</g>
<g fill="none" color="black" stroke="currentColor" stroke-width="1.00" stroke-linecap="butt" stroke-linejoin="miter">
	<g transform="translate(546.9,711.3)" stroke="none" fill="black" font-family="Helvetica" font-size="12.00"  text-anchor="middle">
		<text><tspan font-family="Helvetica" >Relative change (%)</tspan></text>
	</g>
</g>
<g fill="none" color="black" stroke="currentColor" stroke-width="1.00" stroke-linecap="butt" stroke-linejoin="miter">
	<g transform="translate(546.9,31.0)" stroke="none" fill="black" font-family="Helvetica" font-size="12.00"  text-anchor="middle">
		<text><tspan font-family="Helvetica" >dlist arena ghostcell init no_drop: median</tspan></text>
	</g>
</g>
	<g id="gnuplot_plot_1" ><title>Bootstrap distribution</title>
<g fill="none" color="white" stroke="black" stroke-width="2.00" stroke-linecap="butt" stroke-linejoin="miter">
</g>
<g fill="none" color="black" stroke="currentColor" stroke-width="2.00" stroke-linecap="butt" stroke-linejoin="miter">
	<g transform="translate(1089.0,67.0)" stroke="none" fill="black" font-family="Helvetica" font-size="12.00"  text-anchor="start">
		<text><tspan font-family="Helvetica" >Bootstrap distribution</tspan></text>
	</g>
</g>
<g fill="none" color="black" stroke="currentColor" stroke-width="2.00" stroke-linecap="butt" stroke-linejoin="miter">
	<path stroke='rgb( 31, 120, 180)'  d='M1038.5,63.1 L1080.7,63.1 M80.2,626.4 L82.1,626.4 L83.9,626.6 L85.8,626.8 L87.7,627.1 L89.6,627.4
		L91.4,627.8 L93.3,628.3 L95.2,628.8 L97.0,629.4 L98.9,630.0 L100.8,630.6 L102.6,631.3 L104.5,631.9
		L106.4,632.6 L108.3,633.2 L110.1,633.8 L112.0,634.3 L113.9,634.8 L115.7,635.3 L117.6,635.7 L119.5,636.0
		L121.4,636.3 L123.2,636.6 L125.1,636.7 L127.0,636.8 L128.8,636.8 L130.7,636.8 L132.6,636.7 L134.4,636.5
		L136.3,636.3 L138.2,636.0 L140.1,635.6 L141.9,635.2 L143.8,634.7 L145.7,634.2 L147.5,633.6 L149.4,632.9
		L151.3,632.2 L153.2,631.4 L155.0,630.6 L156.9,629.7 L158.8,628.7 L160.6,627.8 L162.5,626.8 L164.4,625.7
		L166.2,624.7 L168.1,623.6 L170.0,622.6 L171.9,621.6 L173.7,620.6 L175.6,619.7 L177.5,618.8 L179.3,618.0
		L181.2,617.2 L183.1,616.5 L185.0,615.9 L186.8,615.4 L188.7,614.9 L190.6,614.4 L192.4,614.1 L194.3,613.7
		L196.2,613.4 L198.0,613.2 L199.9,612.9 L201.8,612.6 L203.7,612.3 L205.5,612.0 L207.4,611.6 L209.3,611.2
		L211.1,610.8 L213.0,610.2 L214.9,609.7 L216.7,609.0 L218.6,608.3 L220.5,607.5 L222.4,606.7 L224.2,605.8
		L226.1,604.9 L228.0,603.9 L229.8,602.8 L231.7,601.7 L233.6,600.6 L235.5,599.4 L237.3,598.1 L239.2,596.7
		L241.1,595.2 L242.9,593.7 L244.8,592.1 L246.7,590.3 L248.5,588.5 L250.4,586.6 L252.3,584.5 L254.2,582.4
		L256.0,580.1 L257.9,577.8 L259.8,575.4 L261.6,573.0 L263.5,570.5 L265.4,568.0 L267.3,565.6 L269.1,563.2
		L271.0,560.8 L272.9,558.6 L274.7,556.5 L276.6,554.5 L278.5,552.6 L280.3,550.9 L282.2,549.4 L284.1,548.1
		L286.0,546.9 L287.8,545.8 L289.7,544.9 L291.6,544.1 L293.4,543.4 L295.3,542.7 L297.2,542.1 L299.1,541.6
		L300.9,541.0 L302.8,540.4 L304.7,539.7 L306.5,539.0 L308.4,538.2 L310.3,537.3 L312.1,536.3 L314.0,535.2
		L315.9,533.9 L317.8,532.6 L319.6,531.1 L321.5,529.5 L323.4,527.8 L325.2,526.0 L327.1,524.0 L329.0,521.9
		L330.9,519.7 L332.7,517.4 L334.6,514.9 L336.5,512.2 L338.3,509.4 L340.2,506.4 L342.1,503.3 L343.9,500.0
		L345.8,496.4 L347.7,492.7 L349.6,488.8 L351.4,484.7 L353.3,480.5 L355.2,476.0 L357.0,471.4 L358.9,466.7
		L360.8,461.9 L362.7,457.0 L364.5,452.0 L366.4,447.0 L368.3,442.0 L370.1,437.0 L372.0,432.0 L373.9,427.0
		L375.7,422.1 L377.6,417.2 L379.5,412.3 L381.4,407.5 L383.2,402.7 L385.1,397.9 L387.0,393.1 L388.8,388.3
		L390.7,383.4 L392.6,378.4 L394.5,373.4 L396.3,368.2 L398.2,362.8 L400.1,357.3 L401.9,351.7 L403.8,345.9
		L405.7,340.0 L407.5,333.9 L409.4,327.6 L411.3,321.2 L413.2,314.7 L415.0,308.1 L416.9,301.3 L418.8,294.5
		L420.6,287.6 L422.5,280.7 L424.4,273.7 L426.3,266.6 L428.1,259.5 L430.0,252.4 L431.9,245.2 L433.7,238.1
		L435.6,230.8 L437.5,223.6 L439.3,216.4 L441.2,209.2 L443.1,202.0 L445.0,194.9 L446.8,187.9 L448.7,180.9
		L450.6,174.1 L452.4,167.5 L454.3,161.1 L456.2,155.0 L458.0,149.1 L459.9,143.5 L461.8,138.3 L463.7,133.4
		L465.5,128.9 L467.4,124.8 L469.3,121.2 L471.1,117.9 L473.0,115.0 L474.9,112.5 L476.8,110.4 L478.6,108.6
		L480.5,107.1 L482.4,105.9 L484.2,105.0 L486.1,104.3 L488.0,103.9 L489.8,103.6 L491.7,103.4 L493.6,103.4
		L495.5,103.5 L497.3,103.6 L499.2,103.9 L501.1,104.2 L502.9,104.6 L504.8,105.1 L506.7,105.7 L508.6,106.3
		L510.4,107.0 L512.3,107.9 L514.2,108.8 L516.0,109.9 L517.9,111.2 L519.8,112.6 L521.6,114.2 L523.5,116.0
		L525.4,118.1 L527.3,120.4 L529.1,123.0 L531.0,125.9 L532.9,129.1 L534.7,132.5 L536.6,136.3 L538.5,140.4
		L540.4,144.7 L542.2,149.4 L544.1,154.3 L546.0,159.5 L547.8,164.9 L549.7,170.5 L551.6,176.3 L553.4,182.2
		L555.3,188.3 L557.2,194.6 L559.1,200.9 L560.9,207.3 L562.8,213.8 L564.7,220.4 L566.5,227.0 L568.4,233.6
		L570.3,240.2 L572.2,246.9 L574.0,253.6 L575.9,260.2 L577.8,266.8 L579.6,273.3 L581.5,279.8 L583.4,286.1
		L585.2,292.3 L587.1,298.3 L589.0,304.0 L590.9,309.5 L592.7,314.8 L594.6,319.7 L596.5,324.2 L598.3,328.3
		L600.2,332.1 L602.1,335.4 L604.0,338.2 L605.8,340.6 L607.7,342.6 L609.6,344.1 L611.4,345.2 L613.3,345.9
		L615.2,346.2 L617.0,346.1 L618.9,345.7 L620.8,344.9 L622.7,343.9 L624.5,342.6 L626.4,341.1 L628.3,339.4
		L630.1,337.5 L632.0,335.5 L633.9,333.3 L635.8,331.1 L637.6,328.7 L639.5,326.3 L641.4,323.8 L643.2,321.3
		L645.1,318.8 L647.0,316.2 L648.8,313.7 L650.7,311.2 L652.6,308.7 L654.5,306.2 L656.3,303.8 L658.2,301.5
		L660.1,299.2 L661.9,297.0 L663.8,294.9 L665.7,292.8 L667.5,290.9 L669.4,289.0 L671.3,287.2 L673.2,285.4
		L675.0,283.7 L676.9,282.0 L678.8,280.4 L680.6,278.8 L682.5,277.1 L684.4,275.4 L686.3,273.7 L688.1,271.9
		L690.0,270.1 L691.9,268.1 L693.7,266.1 L695.6,263.9 L697.5,261.6 L699.3,259.3 L701.2,256.9 L703.1,254.3
		L705.0,251.8 L706.8,249.2 L708.7,246.7 L710.6,244.2 L712.4,241.9 L714.3,239.6 L716.2,237.5 L718.1,235.7
		L719.9,234.1 L721.8,232.7 L723.7,231.6 L725.5,230.9 L727.4,230.4 L729.3,230.3 L731.1,230.5 L733.0,231.1
		L734.9,231.9 L736.8,233.1 L738.6,234.5 L740.5,236.2 L742.4,238.1 L744.2,240.3 L746.1,242.8 L748.0,245.4
		L749.9,248.2 L751.7,251.2 L753.6,254.4 L755.5,257.8 L757.3,261.3 L759.2,265.0 L761.1,268.9 L762.9,272.9
		L764.8,277.0 L766.7,281.2 L768.6,285.5 L770.4,289.9 L772.3,294.4 L774.2,298.9 L776.0,303.3 L777.9,307.8
		L779.8,312.1 L781.7,316.4 L783.5,320.6 L785.4,324.6 L787.3,328.5 L789.1,332.2 L791.0,335.7 L792.9,339.0
		L794.7,342.1 L796.6,344.9 L798.5,347.6 L800.4,350.1 L802.2,352.3 L804.1,354.4 L806.0,356.3 L807.8,358.0
		L809.7,359.6 L811.6,361.0 L813.5,362.3 L815.3,363.4 L817.2,364.4 L819.1,365.2 L820.9,365.9 L822.8,366.5
		L824.7,367.0 L826.5,367.3 L828.4,367.4 L830.3,367.5 L832.2,367.4 L834.0,367.2 L835.9,367.0 L837.8,366.6
		L839.6,366.1 L841.5,365.6 L843.4,365.1 L845.3,364.5 L847.1,363.9 L849.0,363.2 L850.9,362.6 L852.7,362.0
		L854.6,361.4 L856.5,360.8 L858.3,360.3 L860.2,359.8 L862.1,359.4 L864.0,359.2 L865.8,359.0 L867.7,359.0
		L869.6,359.1 L871.4,359.3 L873.3,359.8 L875.2,360.4 L877.1,361.3 L878.9,362.4 L880.8,363.7 L882.7,365.3
		L884.5,367.2 L886.4,369.2 L888.3,371.6 L890.1,374.1 L892.0,376.9 L893.9,380.0 L895.8,383.2 L897.6,386.7
		L899.5,390.3 L901.4,394.2 L903.2,398.2 L905.1,402.4 L907.0,406.7 L908.8,411.3 L910.7,415.9 L912.6,420.8
		L914.5,425.8 L916.3,430.9 L918.2,436.3 L920.1,441.8 L921.9,447.4 L923.8,453.2 L925.7,459.2 L927.6,465.3
		L929.4,471.5 L931.3,477.9 L933.2,484.3 L935.0,490.8 L936.9,497.4 L938.8,503.9 L940.6,510.5 L942.5,517.0
		L944.4,523.5 L946.3,529.9 L948.1,536.2 L950.0,542.4 L951.9,548.4 L953.7,554.3 L955.6,560.0 L957.5,565.5
		L959.4,570.8 L961.2,575.9 L963.1,580.8 L965.0,585.5 L966.8,590.0 L968.7,594.3 L970.6,598.4 L972.4,602.3
		L974.3,606.1 L976.2,609.6 L978.1,612.9 L979.9,616.1 L981.8,619.1 L983.7,621.9 L985.5,624.5 L987.4,627.0
		L989.3,629.4 L991.2,631.5 L993.0,633.6 L994.9,635.5 L996.8,637.2 L998.6,638.8 L1000.5,640.3 L1002.4,641.7
		L1004.2,643.0 L1006.1,644.1 L1008.0,645.2 L1009.9,646.2 L1011.7,647.0 L1013.6,647.8  '/></g>
	</g>
	<g id="gnuplot_plot_2" ><title>Confidence interval</title>
<g fill="none" color="white" stroke="rgb( 31, 120, 180)" stroke-width="1.00" stroke-linecap="butt" stroke-linejoin="miter">
</g>
<g fill="none" color="black" stroke="currentColor" stroke-width="1.00" stroke-linecap="butt" stroke-linejoin="miter">
	<g transform="translate(1089.0,85.0)" stroke="none" fill="black" font-family="Helvetica" font-size="12.00"  text-anchor="start">
		<text><tspan font-family="Helvetica" >Confidence interval</tspan></text>
	</g>
</g>
<g fill="none" color="black" stroke="currentColor" stroke-width="1.00" stroke-linecap="butt" stroke-linejoin="miter">
	<g stroke='none' shape-rendering='crispEdges'>
		<polygon fill = 'rgb( 31, 120, 180)' fill-opacity = '0.250000' points = '1038.5,85.6 1080.7,85.6 1080.7,76.6 1038.5,76.6 '/>
		<polygon fill = 'rgb( 31, 120, 180)' fill-opacity = '0.250000' points = '166.2,624.7 166.2,662.4 168.1,662.4 168.1,623.6 '/>
		<polygon fill = 'rgb( 31, 120, 180)' fill-opacity = '0.250000' points = '168.1,623.6 168.1,662.4 170.0,662.4 170.0,622.6 '/>
		<polygon fill = 'rgb( 31, 120, 180)' fill-opacity = '0.250000' points = '170.0,622.6 170.0,662.4 171.9,662.4 171.9,621.6 '/>
		<polygon fill = 'rgb( 31, 120, 180)' fill-opacity = '0.250000' points = '171.9,621.6 171.9,662.4 173.7,662.4 173.7,620.6 '/>
		<polygon fill = 'rgb( 31, 120, 180)' fill-opacity = '0.250000' points = '173.7,620.6 173.7,662.4 175.6,662.4 175.6,619.7 '/>
		<polygon fill = 'rgb( 31, 120, 180)' fill-opacity = '0.250000' points = '175.6,619.7 175.6,662.4 177.5,662.4 177.5,618.8 '/>
		<polygon fill = 'rgb( 31, 120, 180)' fill-opacity = '0.250000' points = '177.5,618.8 177.5,662.4 179.3,662.4 179.3,618.0 '/>
		<polygon fill = 'rgb( 31, 120, 180)' fill-opacity = '0.250000' points = '179.3,618.0 179.3,662.4 181.2,662.4 181.2,617.2 '/>
		<polygon fill = 'rgb( 31, 120, 180)' fill-opacity = '0.250000' points = '181.2,617.2 181.2,662.4 183.1,662.4 183.1,616.5 '/>
		<polygon fill = 'rgb( 31, 120, 180)' fill-opacity = '0.250000' points = '183.1,616.5 183.1,662.4 185.0,662.4 185.0,615.9 '/>
		<polygon fill = 'rgb( 31, 120, 180)' fill-opacity = '0.250000' points = '185.0,615.9 185.0,662.4 186.8,662.4 186.8,615.4 '/>
		<polygon fill = 'rgb( 31, 120, 180)' fill-opacity = '0.250000' points = '186.8,615.4 186.8,662.4 188.7,662.4 188.7,614.9 '/>
		<polygon fill = 'rgb( 31, 120, 180)' fill-opacity = '0.250000' points = '188.7,614.9 188.7,662.4 190.6,662.4 190.6,614.4 '/>
		<polygon fill = 'rgb( 31, 120, 180)' fill-opacity = '0.250000' points = '190.6,614.4 190.6,662.4 192.4,662.4 192.4,614.1 '/>
		<polygon fill = 'rgb( 31, 120, 180)' fill-opacity = '0.250000' points = '192.4,614.1 192.4,662.4 194.3,662.4 194.3,613.7 '/>
		<polygon fill = 'rgb( 31, 120, 180)' fill-opacity = '0.250000' points = '194.3,613.7 194.3,662.4 196.2,662.4 196.2,613.4 '/>
		<polygon fill = 'rgb( 31, 120, 180)' fill-opacity = '0.250000' points = '196.2,613.4 196.2,662.4 198.0,662.4 198.0,613.2 '/>
		<polygon fill = 'rgb( 31, 120, 180)' fill-opacity = '0.250000' points = '198.0,613.2 198.0,662.4 199.9,662.4 199.9,612.9 '/>
		<polygon fill = 'rgb( 31, 120, 180)' fill-opacity = '0.250000' points = '199.9,612.9 199.9,662.4 201.8,662.4 201.8,612.6 '/>
		<polygon fill = 'rgb( 31, 120, 180)' fill-opacity = '0.250000' points = '201.8,612.6 201.8,662.4 203.7,662.4 203.7,612.3 '/>
		<polygon fill = 'rgb( 31, 120, 180)' fill-opacity = '0.250000' points = '203.7,612.3 203.7,662.4 205.5,662.4 205.5,612.0 '/>
		<polygon fill = 'rgb( 31, 120, 180)' fill-opacity = '0.250000' points = '205.5,612.0 205.5,662.4 207.4,662.4 207.4,611.6 '/>
		<polygon fill = 'rgb( 31, 120, 180)' fill-opacity = '0.250000' points = '207.4,611.6 207.4,662.4 209.3,662.4 209.3,611.2 '/>
		<polygon fill = 'rgb( 31, 120, 180)' fill-opacity = '0.250000' points = '209.3,611.2 209.3,662.4 211.1,662.4 211.1,610.8 '/>
		<polygon fill = 'rgb( 31, 120, 180)' fill-opacity = '0.250000' points = '211.1,610.8 211.1,662.4 213.0,662.4 213.0,610.2 '/>
		<polygon fill = 'rgb( 31, 120, 180)' fill-opacity = '0.250000' points = '213.0,610.2 213.0,662.4 214.9,662.4 214.9,609.7 '/>
		<polygon fill = 'rgb( 31, 120, 180)' fill-opacity = '0.250000' points = '214.9,609.7 214.9,662.4 216.7,662.4 216.7,609.0 '/>
		<polygon fill = 'rgb( 31, 120, 180)' fill-opacity = '0.250000' points = '216.7,609.0 216.7,662.4 218.6,662.4 218.6,608.3 '/>
		<polygon fill = 'rgb( 31, 120, 180)' fill-opacity = '0.250000' points = '218.6,608.3 218.6,662.4 220.5,662.4 220.5,607.5 '/>
		<polygon fill = 'rgb( 31, 120, 180)' fill-opacity = '0.250000' points = '220.5,607.5 220.5,662.4 222.4,662.4 222.4,606.7 '/>
		<polygon fill = 'rgb( 31, 120, 180)' fill-opacity = '0.250000' points = '222.4,606.7 222.4,662.4 224.2,662.4 224.2,605.8 '/>
		<polygon fill = 'rgb( 31, 120, 180)' fill-opacity = '0.250000' points = '224.2,605.8 224.2,662.4 226.1,662.4 226.1,604.9 '/>
		<polygon fill = 'rgb( 31, 120, 180)' fill-opacity = '0.250000' points = '226.1,604.9 226.1,662.4 228.0,662.4 228.0,603.9 '/>
		<polygon fill = 'rgb( 31, 120, 180)' fill-opacity = '0.250000' points = '228.0,603.9 228.0,662.4 229.8,662.4 229.8,602.8 '/>
		<polygon fill = 'rgb( 31, 120, 180)' fill-opacity = '0.250000' points = '229.8,602.8 229.8,662.4 231.7,662.4 231.7,601.7 '/>
		<polygon fill = 'rgb( 31, 120, 180)' fill-opacity = '0.250000' points = '231.7,601.7 231.7,662.4 233.6,662.4 233.6,600.6 '/>
		<polygon fill = 'rgb( 31, 120, 180)' fill-opacity = '0.250000' points = '233.6,600.6 233.6,662.4 235.5,662.4 235.5,599.4 '/>
		<polygon fill = 'rgb( 31, 120, 180)' fill-opacity = '0.250000' points = '235.5,599.4 235.5,662.4 237.3,662.4 237.3,598.1 '/>
		<polygon fill = 'rgb( 31, 120, 180)' fill-opacity = '0.250000' points = '237.3,598.1 237.3,662.4 239.2,662.4 239.2,596.7 '/>
		<polygon fill = 'rgb( 31, 120, 180)' fill-opacity = '0.250000' points = '239.2,596.7 239.2,662.4 241.1,662.4 241.1,595.2 '/>
		<polygon fill = 'rgb( 31, 120, 180)' fill-opacity = '0.250000' points = '241.1,595.2 241.1,662.4 242.9,662.4 242.9,593.7 '/>
		<polygon fill = 'rgb( 31, 120, 180)' fill-opacity = '0.250000' points = '242.9,593.7 242.9,662.4 244.8,662.4 244.8,592.1 '/>
		<polygon fill = 'rgb( 31, 120, 180)' fill-opacity = '0.250000' points = '244.8,592.1 244.8,662.4 246.7,662.4 246.7,590.3 '/>
		<polygon fill = 'rgb( 31, 120, 180)' fill-opacity = '0.250000' points = '246.7,590.3 246.7,662.4 248.5,662.4 248.5,588.5 '/>
		<polygon fill = 'rgb( 31, 120, 180)' fill-opacity = '0.250000' points = '248.5,588.5 248.5,662.4 250.4,662.4 250.4,586.6 '/>
		<polygon fill = 'rgb( 31, 120, 180)' fill-opacity = '0.250000' points = '250.4,586.6 250.4,662.4 252.3,662.4 252.3,584.5 '/>
		<polygon fill = 'rgb( 31, 120, 180)' fill-opacity = '0.250000' points = '252.3,584.5 252.3,662.4 254.2,662.4 254.2,582.4 '/>
		<polygon fill = 'rgb( 31, 120, 180)' fill-opacity = '0.250000' points = '254.2,582.4 254.2,662.4 256.0,662.4 256.0,580.1 '/>
		<polygon fill = 'rgb( 31, 120, 180)' fill-opacity = '0.250000' points = '256.0,580.1 256.0,662.4 257.9,662.4 257.9,577.8 '/>
		<polygon fill = 'rgb( 31, 120, 180)' fill-opacity = '0.250000' points = '257.9,577.8 257.9,662.4 259.8,662.4 259.8,575.4 '/>
		<polygon fill = 'rgb( 31, 120, 180)' fill-opacity = '0.250000' points = '259.8,575.4 259.8,662.4 261.6,662.4 261.6,573.0 '/>
		<polygon fill = 'rgb( 31, 120, 180)' fill-opacity = '0.250000' points = '261.6,573.0 261.6,662.4 263.5,662.4 263.5,570.5 '/>
		<polygon fill = 'rgb( 31, 120, 180)' fill-opacity = '0.250000' points = '263.5,570.5 263.5,662.4 265.4,662.4 265.4,568.0 '/>
		<polygon fill = 'rgb( 31, 120, 180)' fill-opacity = '0.250000' points = '265.4,568.0 265.4,662.4 267.3,662.4 267.3,565.6 '/>
		<polygon fill = 'rgb( 31, 120, 180)' fill-opacity = '0.250000' points = '267.3,565.6 267.3,662.4 269.1,662.4 269.1,563.2 '/>
		<polygon fill = 'rgb( 31, 120, 180)' fill-opacity = '0.250000' points = '269.1,563.2 269.1,662.4 271.0,662.4 271.0,560.8 '/>
		<polygon fill = 'rgb( 31, 120, 180)' fill-opacity = '0.250000' points = '271.0,560.8 271.0,662.4 272.9,662.4 272.9,558.6 '/>
		<polygon fill = 'rgb( 31, 120, 180)' fill-opacity = '0.250000' points = '272.9,558.6 272.9,662.4 274.7,662.4 274.7,556.5 '/>
		<polygon fill = 'rgb( 31, 120, 180)' fill-opacity = '0.250000' points = '274.7,556.5 274.7,662.4 276.6,662.4 276.6,554.5 '/>
		<polygon fill = 'rgb( 31, 120, 180)' fill-opacity = '0.250000' points = '276.6,554.5 276.6,662.4 278.5,662.4 278.5,552.6 '/>
		<polygon fill = 'rgb( 31, 120, 180)' fill-opacity = '0.250000' points = '278.5,552.6 278.5,662.4 280.3,662.4 280.3,550.9 '/>
		<polygon fill = 'rgb( 31, 120, 180)' fill-opacity = '0.250000' points = '280.3,550.9 280.3,662.4 282.2,662.4 282.2,549.4 '/>
		<polygon fill = 'rgb( 31, 120, 180)' fill-opacity = '0.250000' points = '282.2,549.4 282.2,662.4 284.1,662.4 284.1,548.1 '/>
		<polygon fill = 'rgb( 31, 120, 180)' fill-opacity = '0.250000' points = '284.1,548.1 284.1,662.4 286.0,662.4 286.0,546.9 '/>
		<polygon fill = 'rgb( 31, 120, 180)' fill-opacity = '0.250000' points = '286.0,546.9 286.0,662.4 287.8,662.4 287.8,545.8 '/>
		<polygon fill = 'rgb( 31, 120, 180)' fill-opacity = '0.250000' points = '287.8,545.8 287.8,662.4 289.7,662.4 289.7,544.9 '/>
		<polygon fill = 'rgb( 31, 120, 180)' fill-opacity = '0.250000' points = '289.7,544.9 289.7,662.4 291.6,662.4 291.6,544.1 '/>
		<polygon fill = 'rgb( 31, 120, 180)' fill-opacity = '0.250000' points = '291.6,544.1 291.6,662.4 293.4,662.4 293.4,543.4 '/>
		<polygon fill = 'rgb( 31, 120, 180)' fill-opacity = '0.250000' points = '293.4,543.4 293.4,662.4 295.3,662.4 295.3,542.7 '/>
		<polygon fill = 'rgb( 31, 120, 180)' fill-opacity = '0.250000' points = '295.3,542.7 295.3,662.4 297.2,662.4 297.2,542.1 '/>
		<polygon fill = 'rgb( 31, 120, 180)' fill-opacity = '0.250000' points = '297.2,542.1 297.2,662.4 299.1,662.4 299.1,541.6 '/>
		<polygon fill = 'rgb( 31, 120, 180)' fill-opacity = '0.250000' points = '299.1,541.6 299.1,662.4 300.9,662.4 300.9,541.0 '/>
		<polygon fill = 'rgb( 31, 120, 180)' fill-opacity = '0.250000' points = '300.9,541.0 300.9,662.4 302.8,662.4 302.8,540.4 '/>
		<polygon fill = 'rgb( 31, 120, 180)' fill-opacity = '0.250000' points = '302.8,540.4 302.8,662.4 304.7,662.4 304.7,539.7 '/>
		<polygon fill = 'rgb( 31, 120, 180)' fill-opacity = '0.250000' points = '304.7,539.7 304.7,662.4 306.5,662.4 306.5,539.0 '/>
		<polygon fill = 'rgb( 31, 120, 180)' fill-opacity = '0.250000' points = '306.5,539.0 306.5,662.4 308.4,662.4 308.4,538.2 '/>
		<polygon fill = 'rgb( 31, 120, 180)' fill-opacity = '0.250000' points = '308.4,538.2 308.4,662.4 310.3,662.4 310.3,537.3 '/>
		<polygon fill = 'rgb( 31, 120, 180)' fill-opacity = '0.250000' points = '310.3,537.3 310.3,662.4 312.1,662.4 312.1,536.3 '/>
		<polygon fill = 'rgb( 31, 120, 180)' fill-opacity = '0.250000' points = '312.1,536.3 312.1,662.4 314.0,662.4 314.0,535.2 '/>
		<polygon fill = 'rgb( 31, 120, 180)' fill-opacity = '0.250000' points = '314.0,535.2 314.0,662.4 315.9,662.4 315.9,533.9 '/>
		<polygon fill = 'rgb( 31, 120, 180)' fill-opacity = '0.250000' points = '315.9,533.9 315.9,662.4 317.8,662.4 317.8,532.6 '/>
		<polygon fill = 'rgb( 31, 120, 180)' fill-opacity = '0.250000' points = '317.8,532.6 317.8,662.4 319.6,662.4 319.6,531.1 '/>
		<polygon fill = 'rgb( 31, 120, 180)' fill-opacity = '0.250000' points = '319.6,531.1 319.6,662.4 321.5,662.4 321.5,529.5 '/>
		<polygon fill = 'rgb( 31, 120, 180)' fill-opacity = '0.250000' points = '321.5,529.5 321.5,662.4 323.4,662.4 323.4,527.8 '/>
		<polygon fill = 'rgb( 31, 120, 180)' fill-opacity = '0.250000' points = '323.4,527.8 323.4,662.4 325.2,662.4 325.2,526.0 '/>
		<polygon fill = 'rgb( 31, 120, 180)' fill-opacity = '0.250000' points = '325.2,526.0 325.2,662.4 327.1,662.4 327.1,524.0 '/>
		<polygon fill = 'rgb( 31, 120, 180)' fill-opacity = '0.250000' points = '327.1,524.0 327.1,662.4 329.0,662.4 329.0,521.9 '/>
		<polygon fill = 'rgb( 31, 120, 180)' fill-opacity = '0.250000' points = '329.0,521.9 329.0,662.4 330.9,662.4 330.9,519.7 '/>
		<polygon fill = 'rgb( 31, 120, 180)' fill-opacity = '0.250000' points = '330.9,519.7 330.9,662.4 332.7,662.4 332.7,517.4 '/>
		<polygon fill = 'rgb( 31, 120, 180)' fill-opacity = '0.250000' points = '332.7,517.4 332.7,662.4 334.6,662.4 334.6,514.9 '/>
		<polygon fill = 'rgb( 31, 120, 180)' fill-opacity = '0.250000' points = '334.6,514.9 334.6,662.4 336.5,662.4 336.5,512.2 '/>
		<polygon fill = 'rgb( 31, 120, 180)' fill-opacity = '0.250000' points = '336.5,512.2 336.5,662.4 338.3,662.4 338.3,509.4 '/>
		<polygon fill = 'rgb( 31, 120, 180)' fill-opacity = '0.250000' points = '338.3,509.4 338.3,662.4 340.2,662.4 340.2,506.4 '/>
		<polygon fill = 'rgb( 31, 120, 180)' fill-opacity = '0.250000' points = '340.2,506.4 340.2,662.4 342.1,662.4 342.1,503.3 '/>
		<polygon fill = 'rgb( 31, 120, 180)' fill-opacity = '0.250000' points = '342.1,503.3 342.1,662.4 343.9,662.4 343.9,500.0 '/>
		<polygon fill = 'rgb( 31, 120, 180)' fill-opacity = '0.250000' points = '343.9,500.0 343.9,662.4 345.8,662.4 345.8,496.4 '/>
		<polygon fill = 'rgb( 31, 120, 180)' fill-opacity = '0.250000' points = '345.8,496.4 345.8,662.4 347.7,662.4 347.7,492.7 '/>
		<polygon fill = 'rgb( 31, 120, 180)' fill-opacity = '0.250000' points = '347.7,492.7 347.7,662.4 349.6,662.4 349.6,488.8 '/>
		<polygon fill = 'rgb( 31, 120, 180)' fill-opacity = '0.250000' points = '349.6,488.8 349.6,662.4 351.4,662.4 351.4,484.7 '/>
		<polygon fill = 'rgb( 31, 120, 180)' fill-opacity = '0.250000' points = '351.4,484.7 351.4,662.4 353.3,662.4 353.3,480.5 '/>
		<polygon fill = 'rgb( 31, 120, 180)' fill-opacity = '0.250000' points = '353.3,480.5 353.3,662.4 355.2,662.4 355.2,476.0 '/>
		<polygon fill = 'rgb( 31, 120, 180)' fill-opacity = '0.250000' points = '355.2,476.0 355.2,662.4 357.0,662.4 357.0,471.4 '/>
		<polygon fill = 'rgb( 31, 120, 180)' fill-opacity = '0.250000' points = '357.0,471.4 357.0,662.4 358.9,662.4 358.9,466.7 '/>
		<polygon fill = 'rgb( 31, 120, 180)' fill-opacity = '0.250000' points = '358.9,466.7 358.9,662.4 360.8,662.4 360.8,461.9 '/>
		<polygon fill = 'rgb( 31, 120, 180)' fill-opacity = '0.250000' points = '360.8,461.9 360.8,662.4 362.7,662.4 362.7,457.0 '/>
		<polygon fill = 'rgb( 31, 120, 180)' fill-opacity = '0.250000' points = '362.7,457.0 362.7,662.4 364.5,662.4 364.5,452.0 '/>
		<polygon fill = 'rgb( 31, 120, 180)' fill-opacity = '0.250000' points = '364.5,452.0 364.5,662.4 366.4,662.4 366.4,447.0 '/>
		<polygon fill = 'rgb( 31, 120, 180)' fill-opacity = '0.250000' points = '366.4,447.0 366.4,662.4 368.3,662.4 368.3,442.0 '/>
		<polygon fill = 'rgb( 31, 120, 180)' fill-opacity = '0.250000' points = '368.3,442.0 368.3,662.4 370.1,662.4 370.1,437.0 '/>
		<polygon fill = 'rgb( 31, 120, 180)' fill-opacity = '0.250000' points = '370.1,437.0 370.1,662.4 372.0,662.4 372.0,432.0 '/>
		<polygon fill = 'rgb( 31, 120, 180)' fill-opacity = '0.250000' points = '372.0,432.0 372.0,662.4 373.9,662.4 373.9,427.0 '/>
		<polygon fill = 'rgb( 31, 120, 180)' fill-opacity = '0.250000' points = '373.9,427.0 373.9,662.4 375.7,662.4 375.7,422.1 '/>
		<polygon fill = 'rgb( 31, 120, 180)' fill-opacity = '0.250000' points = '375.7,422.1 375.7,662.4 377.6,662.4 377.6,417.2 '/>
		<polygon fill = 'rgb( 31, 120, 180)' fill-opacity = '0.250000' points = '377.6,417.2 377.6,662.4 379.5,662.4 379.5,412.3 '/>
		<polygon fill = 'rgb( 31, 120, 180)' fill-opacity = '0.250000' points = '379.5,412.3 379.5,662.4 381.4,662.4 381.4,407.5 '/>
		<polygon fill = 'rgb( 31, 120, 180)' fill-opacity = '0.250000' points = '381.4,407.5 381.4,662.4 383.2,662.4 383.2,402.7 '/>
		<polygon fill = 'rgb( 31, 120, 180)' fill-opacity = '0.250000' points = '383.2,402.7 383.2,662.4 385.1,662.4 385.1,397.9 '/>
		<polygon fill = 'rgb( 31, 120, 180)' fill-opacity = '0.250000' points = '385.1,397.9 385.1,662.4 387.0,662.4 387.0,393.1 '/>
		<polygon fill = 'rgb( 31, 120, 180)' fill-opacity = '0.250000' points = '387.0,393.1 387.0,662.4 388.8,662.4 388.8,388.3 '/>
		<polygon fill = 'rgb( 31, 120, 180)' fill-opacity = '0.250000' points = '388.8,388.3 388.8,662.4 390.7,662.4 390.7,383.4 '/>
		<polygon fill = 'rgb( 31, 120, 180)' fill-opacity = '0.250000' points = '390.7,383.4 390.7,662.4 392.6,662.4 392.6,378.4 '/>
		<polygon fill = 'rgb( 31, 120, 180)' fill-opacity = '0.250000' points = '392.6,378.4 392.6,662.4 394.5,662.4 394.5,373.4 '/>
		<polygon fill = 'rgb( 31, 120, 180)' fill-opacity = '0.250000' points = '394.5,373.4 394.5,662.4 396.3,662.4 396.3,368.2 '/>
		<polygon fill = 'rgb( 31, 120, 180)' fill-opacity = '0.250000' points = '396.3,368.2 396.3,662.4 398.2,662.4 398.2,362.8 '/>
		<polygon fill = 'rgb( 31, 120, 180)' fill-opacity = '0.250000' points = '398.2,362.8 398.2,662.4 400.1,662.4 400.1,357.3 '/>
		<polygon fill = 'rgb( 31, 120, 180)' fill-opacity = '0.250000' points = '400.1,357.3 400.1,662.4 401.9,662.4 401.9,351.7 '/>
		<polygon fill = 'rgb( 31, 120, 180)' fill-opacity = '0.250000' points = '401.9,351.7 401.9,662.4 403.8,662.4 403.8,345.9 '/>
		<polygon fill = 'rgb( 31, 120, 180)' fill-opacity = '0.250000' points = '403.8,345.9 403.8,662.4 405.7,662.4 405.7,340.0 '/>
		<polygon fill = 'rgb( 31, 120, 180)' fill-opacity = '0.250000' points = '405.7,340.0 405.7,662.4 407.5,662.4 407.5,333.9 '/>
		<polygon fill = 'rgb( 31, 120, 180)' fill-opacity = '0.250000' points = '407.5,333.9 407.5,662.4 409.4,662.4 409.4,327.6 '/>
		<polygon fill = 'rgb( 31, 120, 180)' fill-opacity = '0.250000' points = '409.4,327.6 409.4,662.4 411.3,662.4 411.3,321.2 '/>
		<polygon fill = 'rgb( 31, 120, 180)' fill-opacity = '0.250000' points = '411.3,321.2 411.3,662.4 413.2,662.4 413.2,314.7 '/>
		<polygon fill = 'rgb( 31, 120, 180)' fill-opacity = '0.250000' points = '413.2,314.7 413.2,662.4 415.0,662.4 415.0,308.1 '/>
		<polygon fill = 'rgb( 31, 120, 180)' fill-opacity = '0.250000' points = '415.0,308.1 415.0,662.4 416.9,662.4 416.9,301.3 '/>
		<polygon fill = 'rgb( 31, 120, 180)' fill-opacity = '0.250000' points = '416.9,301.3 416.9,662.4 418.8,662.4 418.8,294.5 '/>
		<polygon fill = 'rgb( 31, 120, 180)' fill-opacity = '0.250000' points = '418.8,294.5 418.8,662.4 420.6,662.4 420.6,287.6 '/>
		<polygon fill = 'rgb( 31, 120, 180)' fill-opacity = '0.250000' points = '420.6,287.6 420.6,662.4 422.5,662.4 422.5,280.7 '/>
		<polygon fill = 'rgb( 31, 120, 180)' fill-opacity = '0.250000' points = '422.5,280.7 422.5,662.4 424.4,662.4 424.4,273.7 '/>
		<polygon fill = 'rgb( 31, 120, 180)' fill-opacity = '0.250000' points = '424.4,273.7 424.4,662.4 426.3,662.4 426.3,266.6 '/>
		<polygon fill = 'rgb( 31, 120, 180)' fill-opacity = '0.250000' points = '426.3,266.6 426.3,662.4 428.1,662.4 428.1,259.5 '/>
		<polygon fill = 'rgb( 31, 120, 180)' fill-opacity = '0.250000' points = '428.1,259.5 428.1,662.4 430.0,662.4 430.0,252.4 '/>
		<polygon fill = 'rgb( 31, 120, 180)' fill-opacity = '0.250000' points = '430.0,252.4 430.0,662.4 431.9,662.4 431.9,245.2 '/>
		<polygon fill = 'rgb( 31, 120, 180)' fill-opacity = '0.250000' points = '431.9,245.2 431.9,662.4 433.7,662.4 433.7,238.1 '/>
		<polygon fill = 'rgb( 31, 120, 180)' fill-opacity = '0.250000' points = '433.7,238.1 433.7,662.4 435.6,662.4 435.6,230.8 '/>
		<polygon fill = 'rgb( 31, 120, 180)' fill-opacity = '0.250000' points = '435.6,230.8 435.6,662.4 437.5,662.4 437.5,223.6 '/>
		<polygon fill = 'rgb( 31, 120, 180)' fill-opacity = '0.250000' points = '437.5,223.6 437.5,662.4 439.3,662.4 439.3,216.4 '/>
		<polygon fill = 'rgb( 31, 120, 180)' fill-opacity = '0.250000' points = '439.3,216.4 439.3,662.4 441.2,662.4 441.2,209.2 '/>
		<polygon fill = 'rgb( 31, 120, 180)' fill-opacity = '0.250000' points = '441.2,209.2 441.2,662.4 443.1,662.4 443.1,202.0 '/>
		<polygon fill = 'rgb( 31, 120, 180)' fill-opacity = '0.250000' points = '443.1,202.0 443.1,662.4 445.0,662.4 445.0,194.9 '/>
		<polygon fill = 'rgb( 31, 120, 180)' fill-opacity = '0.250000' points = '445.0,194.9 445.0,662.4 446.8,662.4 446.8,187.9 '/>
		<polygon fill = 'rgb( 31, 120, 180)' fill-opacity = '0.250000' points = '446.8,187.9 446.8,662.4 448.7,662.4 448.7,180.9 '/>
		<polygon fill = 'rgb( 31, 120, 180)' fill-opacity = '0.250000' points = '448.7,180.9 448.7,662.4 450.6,662.4 450.6,174.1 '/>
		<polygon fill = 'rgb( 31, 120, 180)' fill-opacity = '0.250000' points = '450.6,174.1 450.6,662.4 452.4,662.4 452.4,167.5 '/>
		<polygon fill = 'rgb( 31, 120, 180)' fill-opacity = '0.250000' points = '452.4,167.5 452.4,662.4 454.3,662.4 454.3,161.1 '/>
		<polygon fill = 'rgb( 31, 120, 180)' fill-opacity = '0.250000' points = '454.3,161.1 454.3,662.4 456.2,662.4 456.2,155.0 '/>
		<polygon fill = 'rgb( 31, 120, 180)' fill-opacity = '0.250000' points = '456.2,155.0 456.2,662.4 458.0,662.4 458.0,149.1 '/>
		<polygon fill = 'rgb( 31, 120, 180)' fill-opacity = '0.250000' points = '458.0,149.1 458.0,662.4 459.9,662.4 459.9,143.5 '/>
		<polygon fill = 'rgb( 31, 120, 180)' fill-opacity = '0.250000' points = '459.9,143.5 459.9,662.4 461.8,662.4 461.8,138.3 '/>
		<polygon fill = 'rgb( 31, 120, 180)' fill-opacity = '0.250000' points = '461.8,138.3 461.8,662.4 463.7,662.4 463.7,133.4 '/>
		<polygon fill = 'rgb( 31, 120, 180)' fill-opacity = '0.250000' points = '463.7,133.4 463.7,662.4 465.5,662.4 465.5,128.9 '/>
		<polygon fill = 'rgb( 31, 120, 180)' fill-opacity = '0.250000' points = '465.5,128.9 465.5,662.4 467.4,662.4 467.4,124.8 '/>
		<polygon fill = 'rgb( 31, 120, 180)' fill-opacity = '0.250000' points = '467.4,124.8 467.4,662.4 469.3,662.4 469.3,121.2 '/>
		<polygon fill = 'rgb( 31, 120, 180)' fill-opacity = '0.250000' points = '469.3,121.2 469.3,662.4 471.1,662.4 471.1,117.9 '/>
		<polygon fill = 'rgb( 31, 120, 180)' fill-opacity = '0.250000' points = '471.1,117.9 471.1,662.4 473.0,662.4 473.0,115.0 '/>
		<polygon fill = 'rgb( 31, 120, 180)' fill-opacity = '0.250000' points = '473.0,115.0 473.0,662.4 474.9,662.4 474.9,112.5 '/>
		<polygon fill = 'rgb( 31, 120, 180)' fill-opacity = '0.250000' points = '474.9,112.5 474.9,662.4 476.8,662.4 476.8,110.4 '/>
		<polygon fill = 'rgb( 31, 120, 180)' fill-opacity = '0.250000' points = '476.8,110.4 476.8,662.4 478.6,662.4 478.6,108.6 '/>
		<polygon fill = 'rgb( 31, 120, 180)' fill-opacity = '0.250000' points = '478.6,108.6 478.6,662.4 480.5,662.4 480.5,107.1 '/>
		<polygon fill = 'rgb( 31, 120, 180)' fill-opacity = '0.250000' points = '480.5,107.1 480.5,662.4 482.4,662.4 482.4,105.9 '/>
		<polygon fill = 'rgb( 31, 120, 180)' fill-opacity = '0.250000' points = '482.4,105.9 482.4,662.4 484.2,662.4 484.2,105.0 '/>
		<polygon fill = 'rgb( 31, 120, 180)' fill-opacity = '0.250000' points = '484.2,105.0 484.2,662.4 486.1,662.4 486.1,104.3 '/>
		<polygon fill = 'rgb( 31, 120, 180)' fill-opacity = '0.250000' points = '486.1,104.3 486.1,662.4 488.0,662.4 488.0,103.9 '/>
		<polygon fill = 'rgb( 31, 120, 180)' fill-opacity = '0.250000' points = '488.0,103.9 488.0,662.4 489.8,662.4 489.8,103.6 '/>
		<polygon fill = 'rgb( 31, 120, 180)' fill-opacity = '0.250000' points = '489.8,103.6 489.8,662.4 491.7,662.4 491.7,103.4 '/>
		<polygon fill = 'rgb( 31, 120, 180)' fill-opacity = '0.250000' points = '491.7,103.4 491.7,662.4 493.6,662.4 493.6,103.4 '/>
		<polygon fill = 'rgb( 31, 120, 180)' fill-opacity = '0.250000' points = '493.6,103.4 493.6,662.4 495.5,662.4 495.5,103.5 '/>
		<polygon fill = 'rgb( 31, 120, 180)' fill-opacity = '0.250000' points = '495.5,103.5 495.5,662.4 497.3,662.4 497.3,103.6 '/>
		<polygon fill = 'rgb( 31, 120, 180)' fill-opacity = '0.250000' points = '497.3,103.6 497.3,662.4 499.2,662.4 499.2,103.9 '/>
		<polygon fill = 'rgb( 31, 120, 180)' fill-opacity = '0.250000' points = '499.2,103.9 499.2,662.4 501.1,662.4 501.1,104.2 '/>
		<polygon fill = 'rgb( 31, 120, 180)' fill-opacity = '0.250000' points = '501.1,104.2 501.1,662.4 502.9,662.4 502.9,104.6 '/>
		<polygon fill = 'rgb( 31, 120, 180)' fill-opacity = '0.250000' points = '502.9,104.6 502.9,662.4 504.8,662.4 504.8,105.1 '/>
		<polygon fill = 'rgb( 31, 120, 180)' fill-opacity = '0.250000' points = '504.8,105.1 504.8,662.4 506.7,662.4 506.7,105.7 '/>
		<polygon fill = 'rgb( 31, 120, 180)' fill-opacity = '0.250000' points = '506.7,105.7 506.7,662.4 508.6,662.4 508.6,106.3 '/>
		<polygon fill = 'rgb( 31, 120, 180)' fill-opacity = '0.250000' points = '508.6,106.3 508.6,662.4 510.4,662.4 510.4,107.0 '/>
		<polygon fill = 'rgb( 31, 120, 180)' fill-opacity = '0.250000' points = '510.4,107.0 510.4,662.4 512.3,662.4 512.3,107.9 '/>
		<polygon fill = 'rgb( 31, 120, 180)' fill-opacity = '0.250000' points = '512.3,107.9 512.3,662.4 514.2,662.4 514.2,108.8 '/>
		<polygon fill = 'rgb( 31, 120, 180)' fill-opacity = '0.250000' points = '514.2,108.8 514.2,662.4 516.0,662.4 516.0,109.9 '/>
		<polygon fill = 'rgb( 31, 120, 180)' fill-opacity = '0.250000' points = '516.0,109.9 516.0,662.4 517.9,662.4 517.9,111.2 '/>
		<polygon fill = 'rgb( 31, 120, 180)' fill-opacity = '0.250000' points = '517.9,111.2 517.9,662.4 519.8,662.4 519.8,112.6 '/>
		<polygon fill = 'rgb( 31, 120, 180)' fill-opacity = '0.250000' points = '519.8,112.6 519.8,662.4 521.6,662.4 521.6,114.2 '/>
		<polygon fill = 'rgb( 31, 120, 180)' fill-opacity = '0.250000' points = '521.6,114.2 521.6,662.4 523.5,662.4 523.5,116.0 '/>
		<polygon fill = 'rgb( 31, 120, 180)' fill-opacity = '0.250000' points = '523.5,116.0 523.5,662.4 525.4,662.4 525.4,118.1 '/>
		<polygon fill = 'rgb( 31, 120, 180)' fill-opacity = '0.250000' points = '525.4,118.1 525.4,662.4 527.3,662.4 527.3,120.4 '/>
		<polygon fill = 'rgb( 31, 120, 180)' fill-opacity = '0.250000' points = '527.3,120.4 527.3,662.4 529.1,662.4 529.1,123.0 '/>
		<polygon fill = 'rgb( 31, 120, 180)' fill-opacity = '0.250000' points = '529.1,123.0 529.1,662.4 531.0,662.4 531.0,125.9 '/>
		<polygon fill = 'rgb( 31, 120, 180)' fill-opacity = '0.250000' points = '531.0,125.9 531.0,662.4 532.9,662.4 532.9,129.1 '/>
		<polygon fill = 'rgb( 31, 120, 180)' fill-opacity = '0.250000' points = '532.9,129.1 532.9,662.4 534.7,662.4 534.7,132.5 '/>
		<polygon fill = 'rgb( 31, 120, 180)' fill-opacity = '0.250000' points = '534.7,132.5 534.7,662.4 536.6,662.4 536.6,136.3 '/>
		<polygon fill = 'rgb( 31, 120, 180)' fill-opacity = '0.250000' points = '536.6,136.3 536.6,662.4 538.5,662.4 538.5,140.4 '/>
		<polygon fill = 'rgb( 31, 120, 180)' fill-opacity = '0.250000' points = '538.5,140.4 538.5,662.4 540.4,662.4 540.4,144.7 '/>
		<polygon fill = 'rgb( 31, 120, 180)' fill-opacity = '0.250000' points = '540.4,144.7 540.4,662.4 542.2,662.4 542.2,149.4 '/>
		<polygon fill = 'rgb( 31, 120, 180)' fill-opacity = '0.250000' points = '542.2,149.4 542.2,662.4 544.1,662.4 544.1,154.3 '/>
		<polygon fill = 'rgb( 31, 120, 180)' fill-opacity = '0.250000' points = '544.1,154.3 544.1,662.4 546.0,662.4 546.0,159.5 '/>
		<polygon fill = 'rgb( 31, 120, 180)' fill-opacity = '0.250000' points = '546.0,159.5 546.0,662.4 547.8,662.4 547.8,164.9 '/>
		<polygon fill = 'rgb( 31, 120, 180)' fill-opacity = '0.250000' points = '547.8,164.9 547.8,662.4 549.7,662.4 549.7,170.5 '/>
		<polygon fill = 'rgb( 31, 120, 180)' fill-opacity = '0.250000' points = '549.7,170.5 549.7,662.4 551.6,662.4 551.6,176.3 '/>
		<polygon fill = 'rgb( 31, 120, 180)' fill-opacity = '0.250000' points = '551.6,176.3 551.6,662.4 553.4,662.4 553.4,182.2 '/>
		<polygon fill = 'rgb( 31, 120, 180)' fill-opacity = '0.250000' points = '553.4,182.2 553.4,662.4 555.3,662.4 555.3,188.3 '/>
		<polygon fill = 'rgb( 31, 120, 180)' fill-opacity = '0.250000' points = '555.3,188.3 555.3,662.4 557.2,662.4 557.2,194.6 '/>
		<polygon fill = 'rgb( 31, 120, 180)' fill-opacity = '0.250000' points = '557.2,194.6 557.2,662.4 559.1,662.4 559.1,200.9 '/>
		<polygon fill = 'rgb( 31, 120, 180)' fill-opacity = '0.250000' points = '559.1,200.9 559.1,662.4 560.9,662.4 560.9,207.3 '/>
		<polygon fill = 'rgb( 31, 120, 180)' fill-opacity = '0.250000' points = '560.9,207.3 560.9,662.4 562.8,662.4 562.8,213.8 '/>
		<polygon fill = 'rgb( 31, 120, 180)' fill-opacity = '0.250000' points = '562.8,213.8 562.8,662.4 564.7,662.4 564.7,220.4 '/>
		<polygon fill = 'rgb( 31, 120, 180)' fill-opacity = '0.250000' points = '564.7,220.4 564.7,662.4 566.5,662.4 566.5,227.0 '/>
		<polygon fill = 'rgb( 31, 120, 180)' fill-opacity = '0.250000' points = '566.5,227.0 566.5,662.4 568.4,662.4 568.4,233.6 '/>
		<polygon fill = 'rgb( 31, 120, 180)' fill-opacity = '0.250000' points = '568.4,233.6 568.4,662.4 570.3,662.4 570.3,240.2 '/>
		<polygon fill = 'rgb( 31, 120, 180)' fill-opacity = '0.250000' points = '570.3,240.2 570.3,662.4 572.2,662.4 572.2,246.9 '/>
		<polygon fill = 'rgb( 31, 120, 180)' fill-opacity = '0.250000' points = '572.2,246.9 572.2,662.4 574.0,662.4 574.0,253.6 '/>
		<polygon fill = 'rgb( 31, 120, 180)' fill-opacity = '0.250000' points = '574.0,253.6 574.0,662.4 575.9,662.4 575.9,260.2 '/>
		<polygon fill = 'rgb( 31, 120, 180)' fill-opacity = '0.250000' points = '575.9,260.2 575.9,662.4 577.8,662.4 577.8,266.8 '/>
		<polygon fill = 'rgb( 31, 120, 180)' fill-opacity = '0.250000' points = '577.8,266.8 577.8,662.4 579.6,662.4 579.6,273.3 '/>
		<polygon fill = 'rgb( 31, 120, 180)' fill-opacity = '0.250000' points = '579.6,273.3 579.6,662.4 581.5,662.4 581.5,279.8 '/>
		<polygon fill = 'rgb( 31, 120, 180)' fill-opacity = '0.250000' points = '581.5,279.8 581.5,662.4 583.4,662.4 583.4,286.1 '/>
		<polygon fill = 'rgb( 31, 120, 180)' fill-opacity = '0.250000' points = '583.4,286.1 583.4,662.4 585.2,662.4 585.2,292.3 '/>
		<polygon fill = 'rgb( 31, 120, 180)' fill-opacity = '0.250000' points = '585.2,292.3 585.2,662.4 587.1,662.4 587.1,298.3 '/>
		<polygon fill = 'rgb( 31, 120, 180)' fill-opacity = '0.250000' points = '587.1,298.3 587.1,662.4 589.0,662.4 589.0,304.0 '/>
		<polygon fill = 'rgb( 31, 120, 180)' fill-opacity = '0.250000' points = '589.0,304.0 589.0,662.4 590.9,662.4 590.9,309.5 '/>
		<polygon fill = 'rgb( 31, 120, 180)' fill-opacity = '0.250000' points = '590.9,309.5 590.9,662.4 592.7,662.4 592.7,314.8 '/>
		<polygon fill = 'rgb( 31, 120, 180)' fill-opacity = '0.250000' points = '592.7,314.8 592.7,662.4 594.6,662.4 594.6,319.7 '/>
		<polygon fill = 'rgb( 31, 120, 180)' fill-opacity = '0.250000' points = '594.6,319.7 594.6,662.4 596.5,662.4 596.5,324.2 '/>
		<polygon fill = 'rgb( 31, 120, 180)' fill-opacity = '0.250000' points = '596.5,324.2 596.5,662.4 598.3,662.4 598.3,328.3 '/>
		<polygon fill = 'rgb( 31, 120, 180)' fill-opacity = '0.250000' points = '598.3,328.3 598.3,662.4 600.2,662.4 600.2,332.1 '/>
		<polygon fill = 'rgb( 31, 120, 180)' fill-opacity = '0.250000' points = '600.2,332.1 600.2,662.4 602.1,662.4 602.1,335.4 '/>
		<polygon fill = 'rgb( 31, 120, 180)' fill-opacity = '0.250000' points = '602.1,335.4 602.1,662.4 604.0,662.4 604.0,338.2 '/>
		<polygon fill = 'rgb( 31, 120, 180)' fill-opacity = '0.250000' points = '604.0,338.2 604.0,662.4 605.8,662.4 605.8,340.6 '/>
		<polygon fill = 'rgb( 31, 120, 180)' fill-opacity = '0.250000' points = '605.8,340.6 605.8,662.4 607.7,662.4 607.7,342.6 '/>
		<polygon fill = 'rgb( 31, 120, 180)' fill-opacity = '0.250000' points = '607.7,342.6 607.7,662.4 609.6,662.4 609.6,344.1 '/>
		<polygon fill = 'rgb( 31, 120, 180)' fill-opacity = '0.250000' points = '609.6,344.1 609.6,662.4 611.4,662.4 611.4,345.2 '/>
		<polygon fill = 'rgb( 31, 120, 180)' fill-opacity = '0.250000' points = '611.4,345.2 611.4,662.4 613.3,662.4 613.3,345.9 '/>
		<polygon fill = 'rgb( 31, 120, 180)' fill-opacity = '0.250000' points = '613.3,345.9 613.3,662.4 615.2,662.4 615.2,346.2 '/>
		<polygon fill = 'rgb( 31, 120, 180)' fill-opacity = '0.250000' points = '615.2,346.2 615.2,662.4 617.0,662.4 617.0,346.1 '/>
		<polygon fill = 'rgb( 31, 120, 180)' fill-opacity = '0.250000' points = '617.0,346.1 617.0,662.4 618.9,662.4 618.9,345.7 '/>
		<polygon fill = 'rgb( 31, 120, 180)' fill-opacity = '0.250000' points = '618.9,345.7 618.9,662.4 620.8,662.4 620.8,344.9 '/>
		<polygon fill = 'rgb( 31, 120, 180)' fill-opacity = '0.250000' points = '620.8,344.9 620.8,662.4 622.7,662.4 622.7,343.9 '/>
		<polygon fill = 'rgb( 31, 120, 180)' fill-opacity = '0.250000' points = '622.7,343.9 622.7,662.4 624.5,662.4 624.5,342.6 '/>
		<polygon fill = 'rgb( 31, 120, 180)' fill-opacity = '0.250000' points = '624.5,342.6 624.5,662.4 626.4,662.4 626.4,341.1 '/>
		<polygon fill = 'rgb( 31, 120, 180)' fill-opacity = '0.250000' points = '626.4,341.1 626.4,662.4 628.3,662.4 628.3,339.4 '/>
		<polygon fill = 'rgb( 31, 120, 180)' fill-opacity = '0.250000' points = '628.3,339.4 628.3,662.4 630.1,662.4 630.1,337.5 '/>
		<polygon fill = 'rgb( 31, 120, 180)' fill-opacity = '0.250000' points = '630.1,337.5 630.1,662.4 632.0,662.4 632.0,335.5 '/>
		<polygon fill = 'rgb( 31, 120, 180)' fill-opacity = '0.250000' points = '632.0,335.5 632.0,662.4 633.9,662.4 633.9,333.3 '/>
		<polygon fill = 'rgb( 31, 120, 180)' fill-opacity = '0.250000' points = '633.9,333.3 633.9,662.4 635.8,662.4 635.8,331.1 '/>
		<polygon fill = 'rgb( 31, 120, 180)' fill-opacity = '0.250000' points = '635.8,331.1 635.8,662.4 637.6,662.4 637.6,328.7 '/>
		<polygon fill = 'rgb( 31, 120, 180)' fill-opacity = '0.250000' points = '637.6,328.7 637.6,662.4 639.5,662.4 639.5,326.3 '/>
		<polygon fill = 'rgb( 31, 120, 180)' fill-opacity = '0.250000' points = '639.5,326.3 639.5,662.4 641.4,662.4 641.4,323.8 '/>
		<polygon fill = 'rgb( 31, 120, 180)' fill-opacity = '0.250000' points = '641.4,323.8 641.4,662.4 643.2,662.4 643.2,321.3 '/>
		<polygon fill = 'rgb( 31, 120, 180)' fill-opacity = '0.250000' points = '643.2,321.3 643.2,662.4 645.1,662.4 645.1,318.8 '/>
		<polygon fill = 'rgb( 31, 120, 180)' fill-opacity = '0.250000' points = '645.1,318.8 645.1,662.4 647.0,662.4 647.0,316.2 '/>
		<polygon fill = 'rgb( 31, 120, 180)' fill-opacity = '0.250000' points = '647.0,316.2 647.0,662.4 648.8,662.4 648.8,313.7 '/>
		<polygon fill = 'rgb( 31, 120, 180)' fill-opacity = '0.250000' points = '648.8,313.7 648.8,662.4 650.7,662.4 650.7,311.2 '/>
		<polygon fill = 'rgb( 31, 120, 180)' fill-opacity = '0.250000' points = '650.7,311.2 650.7,662.4 652.6,662.4 652.6,308.7 '/>
		<polygon fill = 'rgb( 31, 120, 180)' fill-opacity = '0.250000' points = '652.6,308.7 652.6,662.4 654.5,662.4 654.5,306.2 '/>
		<polygon fill = 'rgb( 31, 120, 180)' fill-opacity = '0.250000' points = '654.5,306.2 654.5,662.4 656.3,662.4 656.3,303.8 '/>
		<polygon fill = 'rgb( 31, 120, 180)' fill-opacity = '0.250000' points = '656.3,303.8 656.3,662.4 658.2,662.4 658.2,301.5 '/>
		<polygon fill = 'rgb( 31, 120, 180)' fill-opacity = '0.250000' points = '658.2,301.5 658.2,662.4 660.1,662.4 660.1,299.2 '/>
		<polygon fill = 'rgb( 31, 120, 180)' fill-opacity = '0.250000' points = '660.1,299.2 660.1,662.4 661.9,662.4 661.9,297.0 '/>
		<polygon fill = 'rgb( 31, 120, 180)' fill-opacity = '0.250000' points = '661.9,297.0 661.9,662.4 663.8,662.4 663.8,294.9 '/>
		<polygon fill = 'rgb( 31, 120, 180)' fill-opacity = '0.250000' points = '663.8,294.9 663.8,662.4 665.7,662.4 665.7,292.8 '/>
		<polygon fill = 'rgb( 31, 120, 180)' fill-opacity = '0.250000' points = '665.7,292.8 665.7,662.4 667.5,662.4 667.5,290.9 '/>
		<polygon fill = 'rgb( 31, 120, 180)' fill-opacity = '0.250000' points = '667.5,290.9 667.5,662.4 669.4,662.4 669.4,289.0 '/>
		<polygon fill = 'rgb( 31, 120, 180)' fill-opacity = '0.250000' points = '669.4,289.0 669.4,662.4 671.3,662.4 671.3,287.2 '/>
		<polygon fill = 'rgb( 31, 120, 180)' fill-opacity = '0.250000' points = '671.3,287.2 671.3,662.4 673.2,662.4 673.2,285.4 '/>
		<polygon fill = 'rgb( 31, 120, 180)' fill-opacity = '0.250000' points = '673.2,285.4 673.2,662.4 675.0,662.4 675.0,283.7 '/>
		<polygon fill = 'rgb( 31, 120, 180)' fill-opacity = '0.250000' points = '675.0,283.7 675.0,662.4 676.9,662.4 676.9,282.0 '/>
		<polygon fill = 'rgb( 31, 120, 180)' fill-opacity = '0.250000' points = '676.9,282.0 676.9,662.4 678.8,662.4 678.8,280.4 '/>
		<polygon fill = 'rgb( 31, 120, 180)' fill-opacity = '0.250000' points = '678.8,280.4 678.8,662.4 680.6,662.4 680.6,278.8 '/>
		<polygon fill = 'rgb( 31, 120, 180)' fill-opacity = '0.250000' points = '680.6,278.8 680.6,662.4 682.5,662.4 682.5,277.1 '/>
		<polygon fill = 'rgb( 31, 120, 180)' fill-opacity = '0.250000' points = '682.5,277.1 682.5,662.4 684.4,662.4 684.4,275.4 '/>
		<polygon fill = 'rgb( 31, 120, 180)' fill-opacity = '0.250000' points = '684.4,275.4 684.4,662.4 686.3,662.4 686.3,273.7 '/>
		<polygon fill = 'rgb( 31, 120, 180)' fill-opacity = '0.250000' points = '686.3,273.7 686.3,662.4 688.1,662.4 688.1,271.9 '/>
		<polygon fill = 'rgb( 31, 120, 180)' fill-opacity = '0.250000' points = '688.1,271.9 688.1,662.4 690.0,662.4 690.0,270.1 '/>
		<polygon fill = 'rgb( 31, 120, 180)' fill-opacity = '0.250000' points = '690.0,270.1 690.0,662.4 691.9,662.4 691.9,268.1 '/>
		<polygon fill = 'rgb( 31, 120, 180)' fill-opacity = '0.250000' points = '691.9,268.1 691.9,662.4 693.7,662.4 693.7,266.1 '/>
		<polygon fill = 'rgb( 31, 120, 180)' fill-opacity = '0.250000' points = '693.7,266.1 693.7,662.4 695.6,662.4 695.6,263.9 '/>
		<polygon fill = 'rgb( 31, 120, 180)' fill-opacity = '0.250000' points = '695.6,263.9 695.6,662.4 697.5,662.4 697.5,261.6 '/>
		<polygon fill = 'rgb( 31, 120, 180)' fill-opacity = '0.250000' points = '697.5,261.6 697.5,662.4 699.3,662.4 699.3,259.3 '/>
		<polygon fill = 'rgb( 31, 120, 180)' fill-opacity = '0.250000' points = '699.3,259.3 699.3,662.4 701.2,662.4 701.2,256.9 '/>
		<polygon fill = 'rgb( 31, 120, 180)' fill-opacity = '0.250000' points = '701.2,256.9 701.2,662.4 703.1,662.4 703.1,254.3 '/>
		<polygon fill = 'rgb( 31, 120, 180)' fill-opacity = '0.250000' points = '703.1,254.3 703.1,662.4 705.0,662.4 705.0,251.8 '/>
		<polygon fill = 'rgb( 31, 120, 180)' fill-opacity = '0.250000' points = '705.0,251.8 705.0,662.4 706.8,662.4 706.8,249.2 '/>
		<polygon fill = 'rgb( 31, 120, 180)' fill-opacity = '0.250000' points = '706.8,249.2 706.8,662.4 708.7,662.4 708.7,246.7 '/>
		<polygon fill = 'rgb( 31, 120, 180)' fill-opacity = '0.250000' points = '708.7,246.7 708.7,662.4 710.6,662.4 710.6,244.2 '/>
		<polygon fill = 'rgb( 31, 120, 180)' fill-opacity = '0.250000' points = '710.6,244.2 710.6,662.4 712.4,662.4 712.4,241.9 '/>
		<polygon fill = 'rgb( 31, 120, 180)' fill-opacity = '0.250000' points = '712.4,241.9 712.4,662.4 714.3,662.4 714.3,239.6 '/>
		<polygon fill = 'rgb( 31, 120, 180)' fill-opacity = '0.250000' points = '714.3,239.6 714.3,662.4 716.2,662.4 716.2,237.5 '/>
		<polygon fill = 'rgb( 31, 120, 180)' fill-opacity = '0.250000' points = '716.2,237.5 716.2,662.4 718.1,662.4 718.1,235.7 '/>
		<polygon fill = 'rgb( 31, 120, 180)' fill-opacity = '0.250000' points = '718.1,235.7 718.1,662.4 719.9,662.4 719.9,234.1 '/>
		<polygon fill = 'rgb( 31, 120, 180)' fill-opacity = '0.250000' points = '719.9,234.1 719.9,662.4 721.8,662.4 721.8,232.7 '/>
		<polygon fill = 'rgb( 31, 120, 180)' fill-opacity = '0.250000' points = '721.8,232.7 721.8,662.4 723.7,662.4 723.7,231.6 '/>
		<polygon fill = 'rgb( 31, 120, 180)' fill-opacity = '0.250000' points = '723.7,231.6 723.7,662.4 725.5,662.4 725.5,230.9 '/>
		<polygon fill = 'rgb( 31, 120, 180)' fill-opacity = '0.250000' points = '725.5,230.9 725.5,662.4 727.4,662.4 727.4,230.4 '/>
		<polygon fill = 'rgb( 31, 120, 180)' fill-opacity = '0.250000' points = '727.4,230.4 727.4,662.4 729.3,662.4 729.3,230.3 '/>
		<polygon fill = 'rgb( 31, 120, 180)' fill-opacity = '0.250000' points = '729.3,230.3 729.3,662.4 731.1,662.4 731.1,230.5 '/>
		<polygon fill = 'rgb( 31, 120, 180)' fill-opacity = '0.250000' points = '731.1,230.5 731.1,662.4 733.0,662.4 733.0,231.1 '/>
		<polygon fill = 'rgb( 31, 120, 180)' fill-opacity = '0.250000' points = '733.0,231.1 733.0,662.4 734.9,662.4 734.9,231.9 '/>
		<polygon fill = 'rgb( 31, 120, 180)' fill-opacity = '0.250000' points = '734.9,231.9 734.9,662.4 736.8,662.4 736.8,233.1 '/>
		<polygon fill = 'rgb( 31, 120, 180)' fill-opacity = '0.250000' points = '736.8,233.1 736.8,662.4 738.6,662.4 738.6,234.5 '/>
		<polygon fill = 'rgb( 31, 120, 180)' fill-opacity = '0.250000' points = '738.6,234.5 738.6,662.4 740.5,662.4 740.5,236.2 '/>
		<polygon fill = 'rgb( 31, 120, 180)' fill-opacity = '0.250000' points = '740.5,236.2 740.5,662.4 742.4,662.4 742.4,238.1 '/>
		<polygon fill = 'rgb( 31, 120, 180)' fill-opacity = '0.250000' points = '742.4,238.1 742.4,662.4 744.2,662.4 744.2,240.3 '/>
		<polygon fill = 'rgb( 31, 120, 180)' fill-opacity = '0.250000' points = '744.2,240.3 744.2,662.4 746.1,662.4 746.1,242.8 '/>
		<polygon fill = 'rgb( 31, 120, 180)' fill-opacity = '0.250000' points = '746.1,242.8 746.1,662.4 748.0,662.4 748.0,245.4 '/>
		<polygon fill = 'rgb( 31, 120, 180)' fill-opacity = '0.250000' points = '748.0,245.4 748.0,662.4 749.9,662.4 749.9,248.2 '/>
		<polygon fill = 'rgb( 31, 120, 180)' fill-opacity = '0.250000' points = '749.9,248.2 749.9,662.4 751.7,662.4 751.7,251.2 '/>
		<polygon fill = 'rgb( 31, 120, 180)' fill-opacity = '0.250000' points = '751.7,251.2 751.7,662.4 753.6,662.4 753.6,254.4 '/>
		<polygon fill = 'rgb( 31, 120, 180)' fill-opacity = '0.250000' points = '753.6,254.4 753.6,662.4 755.5,662.4 755.5,257.8 '/>
		<polygon fill = 'rgb( 31, 120, 180)' fill-opacity = '0.250000' points = '755.5,257.8 755.5,662.4 757.3,662.4 757.3,261.3 '/>
		<polygon fill = 'rgb( 31, 120, 180)' fill-opacity = '0.250000' points = '757.3,261.3 757.3,662.4 759.2,662.4 759.2,265.0 '/>
		<polygon fill = 'rgb( 31, 120, 180)' fill-opacity = '0.250000' points = '759.2,265.0 759.2,662.4 761.1,662.4 761.1,268.9 '/>
		<polygon fill = 'rgb( 31, 120, 180)' fill-opacity = '0.250000' points = '761.1,268.9 761.1,662.4 762.9,662.4 762.9,272.9 '/>
		<polygon fill = 'rgb( 31, 120, 180)' fill-opacity = '0.250000' points = '762.9,272.9 762.9,662.4 764.8,662.4 764.8,277.0 '/>
		<polygon fill = 'rgb( 31, 120, 180)' fill-opacity = '0.250000' points = '764.8,277.0 764.8,662.4 766.7,662.4 766.7,281.2 '/>
		<polygon fill = 'rgb( 31, 120, 180)' fill-opacity = '0.250000' points = '766.7,281.2 766.7,662.4 768.6,662.4 768.6,285.5 '/>
		<polygon fill = 'rgb( 31, 120, 180)' fill-opacity = '0.250000' points = '768.6,285.5 768.6,662.4 770.4,662.4 770.4,289.9 '/>
		<polygon fill = 'rgb( 31, 120, 180)' fill-opacity = '0.250000' points = '770.4,289.9 770.4,662.4 772.3,662.4 772.3,294.4 '/>
		<polygon fill = 'rgb( 31, 120, 180)' fill-opacity = '0.250000' points = '772.3,294.4 772.3,662.4 774.2,662.4 774.2,298.9 '/>
		<polygon fill = 'rgb( 31, 120, 180)' fill-opacity = '0.250000' points = '774.2,298.9 774.2,662.4 776.0,662.4 776.0,303.3 '/>
		<polygon fill = 'rgb( 31, 120, 180)' fill-opacity = '0.250000' points = '776.0,303.3 776.0,662.4 777.9,662.4 777.9,307.8 '/>
		<polygon fill = 'rgb( 31, 120, 180)' fill-opacity = '0.250000' points = '777.9,307.8 777.9,662.4 779.8,662.4 779.8,312.1 '/>
		<polygon fill = 'rgb( 31, 120, 180)' fill-opacity = '0.250000' points = '779.8,312.1 779.8,662.4 781.7,662.4 781.7,316.4 '/>
		<polygon fill = 'rgb( 31, 120, 180)' fill-opacity = '0.250000' points = '781.7,316.4 781.7,662.4 783.5,662.4 783.5,320.6 '/>
		<polygon fill = 'rgb( 31, 120, 180)' fill-opacity = '0.250000' points = '783.5,320.6 783.5,662.4 785.4,662.4 785.4,324.6 '/>
		<polygon fill = 'rgb( 31, 120, 180)' fill-opacity = '0.250000' points = '785.4,324.6 785.4,662.4 787.3,662.4 787.3,328.5 '/>
		<polygon fill = 'rgb( 31, 120, 180)' fill-opacity = '0.250000' points = '787.3,328.5 787.3,662.4 789.1,662.4 789.1,332.2 '/>
		<polygon fill = 'rgb( 31, 120, 180)' fill-opacity = '0.250000' points = '789.1,332.2 789.1,662.4 791.0,662.4 791.0,335.7 '/>
		<polygon fill = 'rgb( 31, 120, 180)' fill-opacity = '0.250000' points = '791.0,335.7 791.0,662.4 792.9,662.4 792.9,339.0 '/>
		<polygon fill = 'rgb( 31, 120, 180)' fill-opacity = '0.250000' points = '792.9,339.0 792.9,662.4 794.7,662.4 794.7,342.1 '/>
		<polygon fill = 'rgb( 31, 120, 180)' fill-opacity = '0.250000' points = '794.7,342.1 794.7,662.4 796.6,662.4 796.6,344.9 '/>
		<polygon fill = 'rgb( 31, 120, 180)' fill-opacity = '0.250000' points = '796.6,344.9 796.6,662.4 798.5,662.4 798.5,347.6 '/>
		<polygon fill = 'rgb( 31, 120, 180)' fill-opacity = '0.250000' points = '798.5,347.6 798.5,662.4 800.4,662.4 800.4,350.1 '/>
		<polygon fill = 'rgb( 31, 120, 180)' fill-opacity = '0.250000' points = '800.4,350.1 800.4,662.4 802.2,662.4 802.2,352.3 '/>
		<polygon fill = 'rgb( 31, 120, 180)' fill-opacity = '0.250000' points = '802.2,352.3 802.2,662.4 804.1,662.4 804.1,354.4 '/>
		<polygon fill = 'rgb( 31, 120, 180)' fill-opacity = '0.250000' points = '804.1,354.4 804.1,662.4 806.0,662.4 806.0,356.3 '/>
		<polygon fill = 'rgb( 31, 120, 180)' fill-opacity = '0.250000' points = '806.0,356.3 806.0,662.4 807.8,662.4 807.8,358.0 '/>
		<polygon fill = 'rgb( 31, 120, 180)' fill-opacity = '0.250000' points = '807.8,358.0 807.8,662.4 809.7,662.4 809.7,359.6 '/>
		<polygon fill = 'rgb( 31, 120, 180)' fill-opacity = '0.250000' points = '809.7,359.6 809.7,662.4 811.6,662.4 811.6,361.0 '/>
		<polygon fill = 'rgb( 31, 120, 180)' fill-opacity = '0.250000' points = '811.6,361.0 811.6,662.4 813.5,662.4 813.5,362.3 '/>
		<polygon fill = 'rgb( 31, 120, 180)' fill-opacity = '0.250000' points = '813.5,362.3 813.5,662.4 815.3,662.4 815.3,363.4 '/>
		<polygon fill = 'rgb( 31, 120, 180)' fill-opacity = '0.250000' points = '815.3,363.4 815.3,662.4 817.2,662.4 817.2,364.4 '/>
		<polygon fill = 'rgb( 31, 120, 180)' fill-opacity = '0.250000' points = '817.2,364.4 817.2,662.4 819.1,662.4 819.1,365.2 '/>
		<polygon fill = 'rgb( 31, 120, 180)' fill-opacity = '0.250000' points = '819.1,365.2 819.1,662.4 820.9,662.4 820.9,365.9 '/>
		<polygon fill = 'rgb( 31, 120, 180)' fill-opacity = '0.250000' points = '820.9,365.9 820.9,662.4 822.8,662.4 822.8,366.5 '/>
		<polygon fill = 'rgb( 31, 120, 180)' fill-opacity = '0.250000' points = '822.8,366.5 822.8,662.4 824.7,662.4 824.7,367.0 '/>
		<polygon fill = 'rgb( 31, 120, 180)' fill-opacity = '0.250000' points = '824.7,367.0 824.7,662.4 826.5,662.4 826.5,367.3 '/>
		<polygon fill = 'rgb( 31, 120, 180)' fill-opacity = '0.250000' points = '826.5,367.3 826.5,662.4 828.4,662.4 828.4,367.4 '/>
		<polygon fill = 'rgb( 31, 120, 180)' fill-opacity = '0.250000' points = '828.4,367.4 828.4,662.4 830.3,662.4 830.3,367.5 '/>
		<polygon fill = 'rgb( 31, 120, 180)' fill-opacity = '0.250000' points = '830.3,367.5 830.3,662.4 832.2,662.4 832.2,367.4 '/>
		<polygon fill = 'rgb( 31, 120, 180)' fill-opacity = '0.250000' points = '832.2,367.4 832.2,662.4 834.0,662.4 834.0,367.2 '/>
		<polygon fill = 'rgb( 31, 120, 180)' fill-opacity = '0.250000' points = '834.0,367.2 834.0,662.4 835.9,662.4 835.9,367.0 '/>
		<polygon fill = 'rgb( 31, 120, 180)' fill-opacity = '0.250000' points = '835.9,367.0 835.9,662.4 837.8,662.4 837.8,366.6 '/>
		<polygon fill = 'rgb( 31, 120, 180)' fill-opacity = '0.250000' points = '837.8,366.6 837.8,662.4 839.6,662.4 839.6,366.1 '/>
		<polygon fill = 'rgb( 31, 120, 180)' fill-opacity = '0.250000' points = '839.6,366.1 839.6,662.4 841.5,662.4 841.5,365.6 '/>
		<polygon fill = 'rgb( 31, 120, 180)' fill-opacity = '0.250000' points = '841.5,365.6 841.5,662.4 843.4,662.4 843.4,365.1 '/>
		<polygon fill = 'rgb( 31, 120, 180)' fill-opacity = '0.250000' points = '843.4,365.1 843.4,662.4 845.3,662.4 845.3,364.5 '/>
		<polygon fill = 'rgb( 31, 120, 180)' fill-opacity = '0.250000' points = '845.3,364.5 845.3,662.4 847.1,662.4 847.1,363.9 '/>
		<polygon fill = 'rgb( 31, 120, 180)' fill-opacity = '0.250000' points = '847.1,363.9 847.1,662.4 849.0,662.4 849.0,363.2 '/>
		<polygon fill = 'rgb( 31, 120, 180)' fill-opacity = '0.250000' points = '849.0,363.2 849.0,662.4 850.9,662.4 850.9,362.6 '/>
		<polygon fill = 'rgb( 31, 120, 180)' fill-opacity = '0.250000' points = '850.9,362.6 850.9,662.4 852.7,662.4 852.7,362.0 '/>
		<polygon fill = 'rgb( 31, 120, 180)' fill-opacity = '0.250000' points = '852.7,362.0 852.7,662.4 854.6,662.4 854.6,361.4 '/>
		<polygon fill = 'rgb( 31, 120, 180)' fill-opacity = '0.250000' points = '854.6,361.4 854.6,662.4 856.5,662.4 856.5,360.8 '/>
		<polygon fill = 'rgb( 31, 120, 180)' fill-opacity = '0.250000' points = '856.5,360.8 856.5,662.4 858.3,662.4 858.3,360.3 '/>
		<polygon fill = 'rgb( 31, 120, 180)' fill-opacity = '0.250000' points = '858.3,360.3 858.3,662.4 860.2,662.4 860.2,359.8 '/>
		<polygon fill = 'rgb( 31, 120, 180)' fill-opacity = '0.250000' points = '860.2,359.8 860.2,662.4 862.1,662.4 862.1,359.4 '/>
		<polygon fill = 'rgb( 31, 120, 180)' fill-opacity = '0.250000' points = '862.1,359.4 862.1,662.4 864.0,662.4 864.0,359.2 '/>
		<polygon fill = 'rgb( 31, 120, 180)' fill-opacity = '0.250000' points = '864.0,359.2 864.0,662.4 865.8,662.4 865.8,359.0 '/>
		<polygon fill = 'rgb( 31, 120, 180)' fill-opacity = '0.250000' points = '865.8,359.0 865.8,662.4 867.7,662.4 867.7,359.0 '/>
		<polygon fill = 'rgb( 31, 120, 180)' fill-opacity = '0.250000' points = '867.7,359.0 867.7,662.4 869.6,662.4 869.6,359.1 '/>
		<polygon fill = 'rgb( 31, 120, 180)' fill-opacity = '0.250000' points = '869.6,359.1 869.6,662.4 871.4,662.4 871.4,359.3 '/>
		<polygon fill = 'rgb( 31, 120, 180)' fill-opacity = '0.250000' points = '871.4,359.3 871.4,662.4 873.3,662.4 873.3,359.8 '/>
		<polygon fill = 'rgb( 31, 120, 180)' fill-opacity = '0.250000' points = '873.3,359.8 873.3,662.4 875.2,662.4 875.2,360.4 '/>
		<polygon fill = 'rgb( 31, 120, 180)' fill-opacity = '0.250000' points = '875.2,360.4 875.2,662.4 877.1,662.4 877.1,361.3 '/>
		<polygon fill = 'rgb( 31, 120, 180)' fill-opacity = '0.250000' points = '877.1,361.3 877.1,662.4 878.9,662.4 878.9,362.4 '/>
		<polygon fill = 'rgb( 31, 120, 180)' fill-opacity = '0.250000' points = '878.9,362.4 878.9,662.4 880.8,662.4 880.8,363.7 '/>
		<polygon fill = 'rgb( 31, 120, 180)' fill-opacity = '0.250000' points = '880.8,363.7 880.8,662.4 882.7,662.4 882.7,365.3 '/>
		<polygon fill = 'rgb( 31, 120, 180)' fill-opacity = '0.250000' points = '882.7,365.3 882.7,662.4 884.5,662.4 884.5,367.2 '/>
		<polygon fill = 'rgb( 31, 120, 180)' fill-opacity = '0.250000' points = '884.5,367.2 884.5,662.4 886.4,662.4 886.4,369.2 '/>
		<polygon fill = 'rgb( 31, 120, 180)' fill-opacity = '0.250000' points = '886.4,369.2 886.4,662.4 888.3,662.4 888.3,371.6 '/>
		<polygon fill = 'rgb( 31, 120, 180)' fill-opacity = '0.250000' points = '888.3,371.6 888.3,662.4 890.1,662.4 890.1,374.1 '/>
		<polygon fill = 'rgb( 31, 120, 180)' fill-opacity = '0.250000' points = '890.1,374.1 890.1,662.4 892.0,662.4 892.0,376.9 '/>
		<polygon fill = 'rgb( 31, 120, 180)' fill-opacity = '0.250000' points = '892.0,376.9 892.0,662.4 893.9,662.4 893.9,380.0 '/>
		<polygon fill = 'rgb( 31, 120, 180)' fill-opacity = '0.250000' points = '893.9,380.0 893.9,662.4 895.8,662.4 895.8,383.2 '/>
		<polygon fill = 'rgb( 31, 120, 180)' fill-opacity = '0.250000' points = '895.8,383.2 895.8,662.4 897.6,662.4 897.6,386.7 '/>
		<polygon fill = 'rgb( 31, 120, 180)' fill-opacity = '0.250000' points = '897.6,386.7 897.6,662.4 899.5,662.4 899.5,390.3 '/>
		<polygon fill = 'rgb( 31, 120, 180)' fill-opacity = '0.250000' points = '899.5,390.3 899.5,662.4 901.4,662.4 901.4,394.2 '/>
		<polygon fill = 'rgb( 31, 120, 180)' fill-opacity = '0.250000' points = '901.4,394.2 901.4,662.4 903.2,662.4 903.2,398.2 '/>
		<polygon fill = 'rgb( 31, 120, 180)' fill-opacity = '0.250000' points = '903.2,398.2 903.2,662.4 905.1,662.4 905.1,402.4 '/>
		<polygon fill = 'rgb( 31, 120, 180)' fill-opacity = '0.250000' points = '905.1,402.4 905.1,662.4 907.0,662.4 907.0,406.7 '/>
		<polygon fill = 'rgb( 31, 120, 180)' fill-opacity = '0.250000' points = '907.0,406.7 907.0,662.4 908.8,662.4 908.8,411.3 '/>
		<polygon fill = 'rgb( 31, 120, 180)' fill-opacity = '0.250000' points = '908.8,411.3 908.8,662.4 910.7,662.4 910.7,415.9 '/>
		<polygon fill = 'rgb( 31, 120, 180)' fill-opacity = '0.250000' points = '910.7,415.9 910.7,662.4 912.6,662.4 912.6,420.8 '/>
		<polygon fill = 'rgb( 31, 120, 180)' fill-opacity = '0.250000' points = '912.6,420.8 912.6,662.4 914.5,662.4 914.5,425.8 '/>
		<polygon fill = 'rgb( 31, 120, 180)' fill-opacity = '0.250000' points = '914.5,425.8 914.5,662.4 916.3,662.4 916.3,430.9 '/>
		<polygon fill = 'rgb( 31, 120, 180)' fill-opacity = '0.250000' points = '916.3,430.9 916.3,662.4 918.2,662.4 918.2,436.3 '/>
		<polygon fill = 'rgb( 31, 120, 180)' fill-opacity = '0.250000' points = '918.2,436.3 918.2,662.4 920.1,662.4 920.1,441.8 '/>
		<polygon fill = 'rgb( 31, 120, 180)' fill-opacity = '0.250000' points = '920.1,441.8 920.1,662.4 921.9,662.4 921.9,447.4 '/>
		<polygon fill = 'rgb( 31, 120, 180)' fill-opacity = '0.250000' points = '921.9,447.4 921.9,662.4 923.8,662.4 923.8,453.2 '/>
		<polygon fill = 'rgb( 31, 120, 180)' fill-opacity = '0.250000' points = '923.8,453.2 923.8,662.4 925.7,662.4 925.7,459.2 '/>
	</g>
</g>
	</g>
	<g id="gnuplot_plot_3" ><title>Point estimate</title>
<g fill="none" color="white" stroke="rgb( 31, 120, 180)" stroke-width="2.00" stroke-linecap="butt" stroke-linejoin="miter">
</g>
<g fill="none" color="black" stroke="currentColor" stroke-width="2.00" stroke-linecap="butt" stroke-linejoin="miter">
	<g transform="translate(1089.0,103.0)" stroke="none" fill="black" font-family="Helvetica" font-size="12.00"  text-anchor="start">
		<text><tspan font-family="Helvetica" >Point estimate</tspan></text>
	</g>
</g>
<g fill="none" color="black" stroke="currentColor" stroke-width="2.00" stroke-linecap="butt" stroke-linejoin="miter">
	<path stroke='rgb( 31, 120, 180)'  d='M1038.5,99.1 L1080.7,99.1 M636.8,662.4 L636.8,329.7  '/></g>
	</g>
	<g id="gnuplot_plot_4" ><title>Noise threshold</title>
<g fill="none" color="white" stroke="rgb( 31, 120, 180)" stroke-width="1.00" stroke-linecap="butt" stroke-linejoin="miter">
</g>
<g fill="none" color="black" stroke="currentColor" stroke-width="1.00" stroke-linecap="butt" stroke-linejoin="miter">
	<g transform="translate(1089.0,121.0)" stroke="none" fill="black" font-family="Helvetica" font-size="12.00"  text-anchor="start">
		<text><tspan font-family="Helvetica" >Noise threshold</tspan></text>
	</g>
</g>
<g fill="none" color="black" stroke="currentColor" stroke-width="1.00" stroke-linecap="butt" stroke-linejoin="miter">
	<g stroke='none' shape-rendering='crispEdges'>
		<polygon fill = 'rgb(227,  26,  28)' fill-opacity = '0.100000' points = '1038.5,121.6 1080.7,121.6 1080.7,112.6 1038.5,112.6 '/>
		<polygon fill = 'rgb(227,  26,  28)' fill-opacity = '0.100000' points = '80.2,54.1 80.2,662.4 1013.6,662.4 1013.6,54.1 '/>
	</g>
</g>
	</g>
<g fill="none" color="white" stroke="rgb(227,  26,  28)" stroke-width="2.00" stroke-linecap="butt" stroke-linejoin="miter">
</g>
<g fill="none" color="black" stroke="currentColor" stroke-width="2.00" stroke-linecap="butt" stroke-linejoin="miter">
</g>
<g fill="none" color="black" stroke="black" stroke-width="1.00" stroke-linecap="butt" stroke-linejoin="miter">
</g>
<g fill="none" color="black" stroke="currentColor" stroke-width="1.00" stroke-linecap="butt" stroke-linejoin="miter">
	<path stroke='black'  d='M80.2,54.1 L80.2,662.4 L1013.6,662.4 L1013.6,54.1 L80.2,54.1 Z  '/></g>
<g fill="none" color="black" stroke="currentColor" stroke-width="1.00" stroke-linecap="butt" stroke-linejoin="miter">
</g>
</g>
</svg>

