group,function,value,throughput_num,throughput_type,sample_measured_value,unit,iteration_count
dfs arena mutex immut,,,,,4989975.0,ns,1
dfs arena mutex immut,,,,,9704989.0,ns,2
dfs arena mutex immut,,,,,14445502.0,ns,3
dfs arena mutex immut,,,,,21270932.0,ns,4
dfs arena mutex immut,,,,,24167371.0,ns,5
dfs arena mutex immut,,,,,29008178.0,ns,6
dfs arena mutex immut,,,,,34083949.0,ns,7
dfs arena mutex immut,,,,,39059406.0,ns,8
dfs arena mutex immut,,,,,44180540.0,ns,9
dfs arena mutex immut,,,,,49369374.0,ns,10
dfs arena mutex immut,,,,,54453426.0,ns,11
dfs arena mutex immut,,,,,59517210.0,ns,12
dfs arena mutex immut,,,,,64945508.0,ns,13
dfs arena mutex immut,,,,,69749044.0,ns,14
dfs arena mutex immut,,,,,74888398.0,ns,15
dfs arena mutex immut,,,,,80455529.0,ns,16
dfs arena mutex immut,,,,,87301563.0,ns,17
dfs arena mutex immut,,,,,90714356.0,ns,18
dfs arena mutex immut,,,,,95055013.0,ns,19
dfs arena mutex immut,,,,,100353493.0,ns,20
dfs arena mutex immut,,,,,105996405.0,ns,21
dfs arena mutex immut,,,,,110832859.0,ns,22
dfs arena mutex immut,,,,,115693062.0,ns,23
dfs arena mutex immut,,,,,120778008.0,ns,24
dfs arena mutex immut,,,,,128592033.0,ns,25
dfs arena mutex immut,,,,,131916620.0,ns,26
dfs arena mutex immut,,,,,136688748.0,ns,27
dfs arena mutex immut,,,,,141981671.0,ns,28
dfs arena mutex immut,,,,,146588518.0,ns,29
dfs arena mutex immut,,,,,151660144.0,ns,30
dfs arena mutex immut,,,,,159724150.0,ns,31
dfs arena mutex immut,,,,,161962891.0,ns,32
dfs arena mutex immut,,,,,166487210.0,ns,33
dfs arena mutex immut,,,,,172115420.0,ns,34
dfs arena mutex immut,,,,,176936859.0,ns,35
dfs arena mutex immut,,,,,183725883.0,ns,36
dfs arena mutex immut,,,,,187301136.0,ns,37
dfs arena mutex immut,,,,,193463227.0,ns,38
dfs arena mutex immut,,,,,197489300.0,ns,39
dfs arena mutex immut,,,,,202319132.0,ns,40
dfs arena mutex immut,,,,,210949475.0,ns,41
dfs arena mutex immut,,,,,212686996.0,ns,42
dfs arena mutex immut,,,,,218130649.0,ns,43
dfs arena mutex immut,,,,,223652250.0,ns,44
dfs arena mutex immut,,,,,231895294.0,ns,45
dfs arena mutex immut,,,,,233413656.0,ns,46
dfs arena mutex immut,,,,,238432123.0,ns,47
dfs arena mutex immut,,,,,244159042.0,ns,48
dfs arena mutex immut,,,,,250639297.0,ns,49
dfs arena mutex immut,,,,,253849503.0,ns,50
dfs arena mutex immut,,,,,259976151.0,ns,51
dfs arena mutex immut,,,,,268751636.0,ns,52
dfs arena mutex immut,,,,,268899963.0,ns,53
dfs arena mutex immut,,,,,275001216.0,ns,54
dfs arena mutex immut,,,,,279783604.0,ns,55
dfs arena mutex immut,,,,,287238218.0,ns,56
dfs arena mutex immut,,,,,289363702.0,ns,57
dfs arena mutex immut,,,,,295324823.0,ns,58
dfs arena mutex immut,,,,,305188431.0,ns,59
dfs arena mutex immut,,,,,304870037.0,ns,60
dfs arena mutex immut,,,,,310396954.0,ns,61
dfs arena mutex immut,,,,,317380073.0,ns,62
dfs arena mutex immut,,,,,320479059.0,ns,63
dfs arena mutex immut,,,,,325382781.0,ns,64
dfs arena mutex immut,,,,,334104904.0,ns,65
dfs arena mutex immut,,,,,336261035.0,ns,66
dfs arena mutex immut,,,,,340634409.0,ns,67
dfs arena mutex immut,,,,,344544127.0,ns,68
dfs arena mutex immut,,,,,350441737.0,ns,69
dfs arena mutex immut,,,,,359017383.0,ns,70
dfs arena mutex immut,,,,,362120343.0,ns,71
dfs arena mutex immut,,,,,367272112.0,ns,72
dfs arena mutex immut,,,,,374793460.0,ns,73
dfs arena mutex immut,,,,,377306974.0,ns,74
dfs arena mutex immut,,,,,385496150.0,ns,75
dfs arena mutex immut,,,,,387482620.0,ns,76
dfs arena mutex immut,,,,,391004910.0,ns,77
dfs arena mutex immut,,,,,405352435.0,ns,78
dfs arena mutex immut,,,,,403056154.0,ns,79
dfs arena mutex immut,,,,,411898676.0,ns,80
dfs arena mutex immut,,,,,412562665.0,ns,81
dfs arena mutex immut,,,,,422143248.0,ns,82
dfs arena mutex immut,,,,,422584432.0,ns,83
dfs arena mutex immut,,,,,427051890.0,ns,84
dfs arena mutex immut,,,,,435036694.0,ns,85
dfs arena mutex immut,,,,,437345906.0,ns,86
dfs arena mutex immut,,,,,444902822.0,ns,87
dfs arena mutex immut,,,,,448197091.0,ns,88
dfs arena mutex immut,,,,,457658538.0,ns,89
dfs arena mutex immut,,,,,457694990.0,ns,90
dfs arena mutex immut,,,,,466294202.0,ns,91
dfs arena mutex immut,,,,,468821386.0,ns,92
dfs arena mutex immut,,,,,476876372.0,ns,93
dfs arena mutex immut,,,,,479758118.0,ns,94
dfs arena mutex immut,,,,,487443252.0,ns,95
dfs arena mutex immut,,,,,488128044.0,ns,96
dfs arena mutex immut,,,,,499220171.0,ns,97
dfs arena mutex immut,,,,,499963123.0,ns,98
dfs arena mutex immut,,,,,507432020.0,ns,99
dfs arena mutex immut,,,,,510160457.0,ns,100
