<?xml version="1.0" encoding="utf-8"  standalone="no"?>
<!DOCTYPE svg PUBLIC "-//W3C//DTD SVG 1.1//EN"
 "http://www.w3.org/Graphics/SVG/1.1/DTD/svg11.dtd">
<svg 
 viewBox="0 0 1280 720"
 xmlns="http://www.w3.org/2000/svg"
 xmlns:xlink="http://www.w3.org/1999/xlink"
>

<title>Gnuplot</title>
<desc>Produced by GNUPLOT 5.0 patchlevel 5 </desc>

<g id="gnuplot_canvas">

<rect x="0" y="0" width="1280" height="720" fill="none"/>
<defs>

	<circle id='gpDot' r='0.5' stroke-width='0.5'/>
	<path id='gpPt0' stroke-width='0.222' stroke='currentColor' d='M-1,0 h2 M0,-1 v2'/>
	<path id='gpPt1' stroke-width='0.222' stroke='currentColor' d='M-1,-1 L1,1 M1,-1 L-1,1'/>
	<path id='gpPt2' stroke-width='0.222' stroke='currentColor' d='M-1,0 L1,0 M0,-1 L0,1 M-1,-1 L1,1 M-1,1 L1,-1'/>
	<rect id='gpPt3' stroke-width='0.222' stroke='currentColor' x='-1' y='-1' width='2' height='2'/>
	<rect id='gpPt4' stroke-width='0.222' stroke='currentColor' fill='currentColor' x='-1' y='-1' width='2' height='2'/>
	<circle id='gpPt5' stroke-width='0.222' stroke='currentColor' cx='0' cy='0' r='1'/>
	<use xlink:href='#gpPt5' id='gpPt6' fill='currentColor' stroke='none'/>
	<path id='gpPt7' stroke-width='0.222' stroke='currentColor' d='M0,-1.33 L-1.33,0.67 L1.33,0.67 z'/>
	<use xlink:href='#gpPt7' id='gpPt8' fill='currentColor' stroke='none'/>
	<use xlink:href='#gpPt7' id='gpPt9' stroke='currentColor' transform='rotate(180)'/>
	<use xlink:href='#gpPt9' id='gpPt10' fill='currentColor' stroke='none'/>
	<use xlink:href='#gpPt3' id='gpPt11' stroke='currentColor' transform='rotate(45)'/>
	<use xlink:href='#gpPt11' id='gpPt12' fill='currentColor' stroke='none'/>
	<path id='gpPt13' stroke-width='0.222' stroke='currentColor' d='M0,1.330 L1.265,0.411 L0.782,-1.067 L-0.782,-1.076 L-1.265,0.411 z'/>
	<use xlink:href='#gpPt13' id='gpPt14' fill='currentColor' stroke='none'/>
	<filter id='textbox' filterUnits='objectBoundingBox' x='0' y='0' height='1' width='1'>
	  <feFlood flood-color='white' flood-opacity='1' result='bgnd'/>
	  <feComposite in='SourceGraphic' in2='bgnd' operator='atop'/>
	</filter>
	<filter id='greybox' filterUnits='objectBoundingBox' x='0' y='0' height='1' width='1'>
	  <feFlood flood-color='lightgrey' flood-opacity='1' result='grey'/>
	  <feComposite in='SourceGraphic' in2='grey' operator='atop'/>
	</filter>
</defs>
<g fill="none" color="white" stroke="currentColor" stroke-width="1.00" stroke-linecap="butt" stroke-linejoin="miter">
</g>
<g fill="none" color="black" stroke="currentColor" stroke-width="1.00" stroke-linecap="butt" stroke-linejoin="miter">
	<path stroke='black'  d='M71.9,662.4 L80.9,662.4  '/>	<g transform="translate(63.6,666.3)" stroke="none" fill="black" font-family="Helvetica" font-size="12.00"  text-anchor="end">
		<text><tspan font-family="Helvetica" > 0</tspan></text>
	</g>
</g>
<g fill="none" color="black" stroke="currentColor" stroke-width="1.00" stroke-linecap="butt" stroke-linejoin="miter">
	<path stroke='black'  d='M71.9,561.0 L80.9,561.0  '/>	<g transform="translate(63.6,564.9)" stroke="none" fill="black" font-family="Helvetica" font-size="12.00"  text-anchor="end">
		<text><tspan font-family="Helvetica" > 20</tspan></text>
	</g>
</g>
<g fill="none" color="black" stroke="currentColor" stroke-width="1.00" stroke-linecap="butt" stroke-linejoin="miter">
	<path stroke='black'  d='M71.9,459.6 L80.9,459.6  '/>	<g transform="translate(63.6,463.5)" stroke="none" fill="black" font-family="Helvetica" font-size="12.00"  text-anchor="end">
		<text><tspan font-family="Helvetica" > 40</tspan></text>
	</g>
</g>
<g fill="none" color="black" stroke="currentColor" stroke-width="1.00" stroke-linecap="butt" stroke-linejoin="miter">
	<path stroke='black'  d='M71.9,358.2 L80.9,358.2  '/>	<g transform="translate(63.6,362.1)" stroke="none" fill="black" font-family="Helvetica" font-size="12.00"  text-anchor="end">
		<text><tspan font-family="Helvetica" > 60</tspan></text>
	</g>
</g>
<g fill="none" color="black" stroke="currentColor" stroke-width="1.00" stroke-linecap="butt" stroke-linejoin="miter">
	<path stroke='black'  d='M71.9,256.9 L80.9,256.9  '/>	<g transform="translate(63.6,260.8)" stroke="none" fill="black" font-family="Helvetica" font-size="12.00"  text-anchor="end">
		<text><tspan font-family="Helvetica" > 80</tspan></text>
	</g>
</g>
<g fill="none" color="black" stroke="currentColor" stroke-width="1.00" stroke-linecap="butt" stroke-linejoin="miter">
	<path stroke='black'  d='M71.9,155.5 L80.9,155.5  '/>	<g transform="translate(63.6,159.4)" stroke="none" fill="black" font-family="Helvetica" font-size="12.00"  text-anchor="end">
		<text><tspan font-family="Helvetica" > 100</tspan></text>
	</g>
</g>
<g fill="none" color="black" stroke="currentColor" stroke-width="1.00" stroke-linecap="butt" stroke-linejoin="miter">
	<path stroke='black'  d='M71.9,54.1 L80.9,54.1  '/>	<g transform="translate(63.6,58.0)" stroke="none" fill="black" font-family="Helvetica" font-size="12.00"  text-anchor="end">
		<text><tspan font-family="Helvetica" > 120</tspan></text>
	</g>
</g>
<g fill="none" color="black" stroke="currentColor" stroke-width="1.00" stroke-linecap="butt" stroke-linejoin="miter">
	<path stroke='black'  d='M82.7,662.4 L82.7,653.4  '/>	<g transform="translate(82.7,684.3)" stroke="none" fill="black" font-family="Helvetica" font-size="12.00"  text-anchor="middle">
		<text><tspan font-family="Helvetica" > 11.6</tspan></text>
	</g>
</g>
<g fill="none" color="black" stroke="currentColor" stroke-width="1.00" stroke-linecap="butt" stroke-linejoin="miter">
	<path stroke='black'  d='M191.0,662.4 L191.0,653.4  '/>	<g transform="translate(191.0,684.3)" stroke="none" fill="black" font-family="Helvetica" font-size="12.00"  text-anchor="middle">
		<text><tspan font-family="Helvetica" > 11.8</tspan></text>
	</g>
</g>
<g fill="none" color="black" stroke="currentColor" stroke-width="1.00" stroke-linecap="butt" stroke-linejoin="miter">
	<path stroke='black'  d='M299.3,662.4 L299.3,653.4  '/>	<g transform="translate(299.3,684.3)" stroke="none" fill="black" font-family="Helvetica" font-size="12.00"  text-anchor="middle">
		<text><tspan font-family="Helvetica" > 12</tspan></text>
	</g>
</g>
<g fill="none" color="black" stroke="currentColor" stroke-width="1.00" stroke-linecap="butt" stroke-linejoin="miter">
	<path stroke='black'  d='M407.6,662.4 L407.6,653.4  '/>	<g transform="translate(407.6,684.3)" stroke="none" fill="black" font-family="Helvetica" font-size="12.00"  text-anchor="middle">
		<text><tspan font-family="Helvetica" > 12.2</tspan></text>
	</g>
</g>
<g fill="none" color="black" stroke="currentColor" stroke-width="1.00" stroke-linecap="butt" stroke-linejoin="miter">
	<path stroke='black'  d='M515.9,662.4 L515.9,653.4  '/>	<g transform="translate(515.9,684.3)" stroke="none" fill="black" font-family="Helvetica" font-size="12.00"  text-anchor="middle">
		<text><tspan font-family="Helvetica" > 12.4</tspan></text>
	</g>
</g>
<g fill="none" color="black" stroke="currentColor" stroke-width="1.00" stroke-linecap="butt" stroke-linejoin="miter">
	<path stroke='black'  d='M624.1,662.4 L624.1,653.4  '/>	<g transform="translate(624.1,684.3)" stroke="none" fill="black" font-family="Helvetica" font-size="12.00"  text-anchor="middle">
		<text><tspan font-family="Helvetica" > 12.6</tspan></text>
	</g>
</g>
<g fill="none" color="black" stroke="currentColor" stroke-width="1.00" stroke-linecap="butt" stroke-linejoin="miter">
	<path stroke='black'  d='M732.4,662.4 L732.4,653.4  '/>	<g transform="translate(732.4,684.3)" stroke="none" fill="black" font-family="Helvetica" font-size="12.00"  text-anchor="middle">
		<text><tspan font-family="Helvetica" > 12.8</tspan></text>
	</g>
</g>
<g fill="none" color="black" stroke="currentColor" stroke-width="1.00" stroke-linecap="butt" stroke-linejoin="miter">
	<path stroke='black'  d='M840.7,662.4 L840.7,653.4  '/>	<g transform="translate(840.7,684.3)" stroke="none" fill="black" font-family="Helvetica" font-size="12.00"  text-anchor="middle">
		<text><tspan font-family="Helvetica" > 13</tspan></text>
	</g>
</g>
<g fill="none" color="black" stroke="currentColor" stroke-width="1.00" stroke-linecap="butt" stroke-linejoin="miter">
	<path stroke='black'  d='M949.0,662.4 L949.0,653.4  '/>	<g transform="translate(949.0,684.3)" stroke="none" fill="black" font-family="Helvetica" font-size="12.00"  text-anchor="middle">
		<text><tspan font-family="Helvetica" > 13.2</tspan></text>
	</g>
</g>
<g fill="none" color="black" stroke="currentColor" stroke-width="1.00" stroke-linecap="butt" stroke-linejoin="miter">
</g>
<g fill="none" color="black" stroke="currentColor" stroke-width="1.00" stroke-linecap="butt" stroke-linejoin="miter">
	<path stroke='black'  d='M71.9,54.1 L71.9,662.4 L1013.6,662.4 L1013.6,54.1 L71.9,54.1 Z  '/></g>
<g fill="none" color="black" stroke="currentColor" stroke-width="1.00" stroke-linecap="butt" stroke-linejoin="miter">
	<g transform="translate(17.0,358.3) rotate(270)" stroke="none" fill="black" font-family="Helvetica" font-size="12.00"  text-anchor="middle">
		<text><tspan font-family="Helvetica" >Density (a.u.)</tspan></text>
	</g>
</g>
<g fill="none" color="black" stroke="currentColor" stroke-width="1.00" stroke-linecap="butt" stroke-linejoin="miter">
	<g transform="translate(542.7,711.3)" stroke="none" fill="black" font-family="Helvetica" font-size="12.00"  text-anchor="middle">
		<text><tspan font-family="Helvetica" >Relative change (%)</tspan></text>
	</g>
</g>
<g fill="none" color="black" stroke="currentColor" stroke-width="1.00" stroke-linecap="butt" stroke-linejoin="miter">
	<g transform="translate(542.7,31.0)" stroke="none" fill="black" font-family="Helvetica" font-size="12.00"  text-anchor="middle">
		<text><tspan font-family="Helvetica" >dfs arena rwlock par immut (×4): mean</tspan></text>
	</g>
</g>
	<g id="gnuplot_plot_1" ><title>Bootstrap distribution</title>
<g fill="none" color="white" stroke="black" stroke-width="2.00" stroke-linecap="butt" stroke-linejoin="miter">
</g>
<g fill="none" color="black" stroke="currentColor" stroke-width="2.00" stroke-linecap="butt" stroke-linejoin="miter">
	<g transform="translate(1089.0,67.0)" stroke="none" fill="black" font-family="Helvetica" font-size="12.00"  text-anchor="start">
		<text><tspan font-family="Helvetica" >Bootstrap distribution</tspan></text>
	</g>
</g>
<g fill="none" color="black" stroke="currentColor" stroke-width="2.00" stroke-linecap="butt" stroke-linejoin="miter">
	<path stroke='rgb( 31, 120, 180)'  d='M1038.5,63.1 L1080.7,63.1 M71.9,630.4 L73.8,629.6 L75.7,628.8 L77.6,628.0 L79.4,627.2 L81.3,626.4
		L83.2,625.5 L85.1,624.6 L87.0,623.7 L88.9,622.8 L90.8,621.8 L92.7,620.8 L94.5,619.7 L96.4,618.6
		L98.3,617.5 L100.2,616.4 L102.1,615.2 L104.0,613.9 L105.9,612.7 L107.8,611.4 L109.6,610.0 L111.5,608.7
		L113.4,607.3 L115.3,605.8 L117.2,604.4 L119.1,602.9 L121.0,601.5 L122.9,600.0 L124.7,598.5 L126.6,596.9
		L128.5,595.4 L130.4,593.9 L132.3,592.3 L134.2,590.8 L136.1,589.2 L138.0,587.7 L139.8,586.1 L141.7,584.6
		L143.6,583.0 L145.5,581.5 L147.4,579.9 L149.3,578.3 L151.2,576.7 L153.0,575.1 L154.9,573.5 L156.8,571.9
		L158.7,570.3 L160.6,568.6 L162.5,566.9 L164.4,565.2 L166.3,563.5 L168.1,561.7 L170.0,559.9 L171.9,558.0
		L173.8,556.1 L175.7,554.2 L177.6,552.2 L179.5,550.2 L181.4,548.1 L183.2,546.0 L185.1,543.9 L187.0,541.7
		L188.9,539.4 L190.8,537.1 L192.7,534.8 L194.6,532.5 L196.5,530.1 L198.3,527.7 L200.2,525.3 L202.1,522.8
		L204.0,520.3 L205.9,517.7 L207.8,515.2 L209.7,512.6 L211.6,509.9 L213.4,507.3 L215.3,504.6 L217.2,501.8
		L219.1,499.0 L221.0,496.2 L222.9,493.3 L224.8,490.4 L226.6,487.4 L228.5,484.3 L230.4,481.3 L232.3,478.1
		L234.2,475.0 L236.1,471.7 L238.0,468.5 L239.9,465.2 L241.7,461.8 L243.6,458.5 L245.5,455.1 L247.4,451.6
		L249.3,448.2 L251.2,444.7 L253.1,441.2 L255.0,437.6 L256.8,434.1 L258.7,430.5 L260.6,426.9 L262.5,423.3
		L264.4,419.7 L266.3,416.1 L268.2,412.4 L270.1,408.8 L271.9,405.1 L273.8,401.5 L275.7,397.8 L277.6,394.2
		L279.5,390.6 L281.4,387.0 L283.3,383.4 L285.2,379.9 L287.0,376.4 L288.9,372.9 L290.8,369.5 L292.7,366.1
		L294.6,362.7 L296.5,359.4 L298.4,356.1 L300.2,352.8 L302.1,349.6 L304.0,346.3 L305.9,343.1 L307.8,339.8
		L309.7,336.6 L311.6,333.3 L313.5,330.0 L315.3,326.7 L317.2,323.3 L319.1,319.9 L321.0,316.5 L322.9,313.0
		L324.8,309.5 L326.7,306.0 L328.6,302.4 L330.4,298.8 L332.3,295.2 L334.2,291.7 L336.1,288.1 L338.0,284.5
		L339.9,281.0 L341.8,277.4 L343.7,273.9 L345.5,270.5 L347.4,267.1 L349.3,263.7 L351.2,260.4 L353.1,257.2
		L355.0,254.0 L356.9,250.8 L358.8,247.7 L360.6,244.7 L362.5,241.6 L364.4,238.7 L366.3,235.8 L368.2,232.9
		L370.1,230.1 L372.0,227.3 L373.8,224.6 L375.7,221.9 L377.6,219.3 L379.5,216.7 L381.4,214.1 L383.3,211.6
		L385.2,209.1 L387.1,206.7 L388.9,204.3 L390.8,201.9 L392.7,199.6 L394.6,197.3 L396.5,195.0 L398.4,192.8
		L400.3,190.6 L402.2,188.4 L404.0,186.1 L405.9,184.0 L407.8,181.8 L409.7,179.6 L411.6,177.4 L413.5,175.2
		L415.4,173.0 L417.3,170.9 L419.1,168.7 L421.0,166.5 L422.9,164.3 L424.8,162.1 L426.7,160.0 L428.6,157.8
		L430.5,155.7 L432.4,153.5 L434.2,151.4 L436.1,149.4 L438.0,147.3 L439.9,145.3 L441.8,143.4 L443.7,141.4
		L445.6,139.6 L447.4,137.7 L449.3,136.0 L451.2,134.2 L453.1,132.6 L455.0,130.9 L456.9,129.4 L458.8,127.9
		L460.7,126.4 L462.5,125.0 L464.4,123.6 L466.3,122.2 L468.2,120.9 L470.1,119.7 L472.0,118.4 L473.9,117.2
		L475.8,116.0 L477.6,114.9 L479.5,113.7 L481.4,112.6 L483.3,111.5 L485.2,110.5 L487.1,109.5 L489.0,108.5
		L490.9,107.5 L492.7,106.7 L494.6,105.8 L496.5,105.1 L498.4,104.4 L500.3,103.8 L502.2,103.2 L504.1,102.8
		L506.0,102.5 L507.8,102.3 L509.7,102.2 L511.6,102.2 L513.5,102.3 L515.4,102.5 L517.3,102.8 L519.2,103.3
		L521.0,103.9 L522.9,104.5 L524.8,105.3 L526.7,106.1 L528.6,107.0 L530.5,108.0 L532.4,109.0 L534.3,110.1
		L536.1,111.2 L538.0,112.3 L539.9,113.5 L541.8,114.6 L543.7,115.7 L545.6,116.9 L547.5,118.0 L549.4,119.1
		L551.2,120.2 L553.1,121.2 L555.0,122.3 L556.9,123.3 L558.8,124.4 L560.7,125.4 L562.6,126.5 L564.5,127.5
		L566.3,128.6 L568.2,129.7 L570.1,130.8 L572.0,132.0 L573.9,133.2 L575.8,134.4 L577.7,135.8 L579.5,137.1
		L581.4,138.6 L583.3,140.0 L585.2,141.6 L587.1,143.2 L589.0,144.9 L590.9,146.7 L592.8,148.5 L594.6,150.4
		L596.5,152.3 L598.4,154.3 L600.3,156.4 L602.2,158.5 L604.1,160.7 L606.0,163.0 L607.9,165.3 L609.7,167.6
		L611.6,170.0 L613.5,172.5 L615.4,175.0 L617.3,177.6 L619.2,180.2 L621.1,182.8 L623.0,185.5 L624.8,188.3
		L626.7,191.1 L628.6,194.0 L630.5,196.9 L632.4,199.8 L634.3,202.8 L636.2,205.8 L638.1,208.9 L639.9,212.0
		L641.8,215.0 L643.7,218.2 L645.6,221.3 L647.5,224.4 L649.4,227.5 L651.3,230.6 L653.1,233.7 L655.0,236.7
		L656.9,239.8 L658.8,242.8 L660.7,245.8 L662.6,248.7 L664.5,251.6 L666.4,254.5 L668.2,257.4 L670.1,260.2
		L672.0,263.0 L673.9,265.8 L675.8,268.5 L677.7,271.3 L679.6,274.0 L681.5,276.8 L683.3,279.6 L685.2,282.4
		L687.1,285.2 L689.0,288.1 L690.9,291.0 L692.8,293.9 L694.7,296.9 L696.6,300.0 L698.4,303.1 L700.3,306.3
		L702.2,309.5 L704.1,312.7 L706.0,316.0 L707.9,319.3 L709.8,322.7 L711.7,326.0 L713.5,329.4 L715.4,332.8
		L717.3,336.1 L719.2,339.5 L721.1,342.8 L723.0,346.1 L724.9,349.3 L726.7,352.5 L728.6,355.6 L730.5,358.6
		L732.4,361.6 L734.3,364.6 L736.2,367.4 L738.1,370.2 L740.0,373.0 L741.8,375.7 L743.7,378.3 L745.6,380.9
		L747.5,383.4 L749.4,386.0 L751.3,388.4 L753.2,390.9 L755.1,393.4 L756.9,395.8 L758.8,398.3 L760.7,400.7
		L762.6,403.2 L764.5,405.6 L766.4,408.1 L768.3,410.6 L770.2,413.1 L772.0,415.6 L773.9,418.2 L775.8,420.8
		L777.7,423.4 L779.6,426.0 L781.5,428.6 L783.4,431.3 L785.3,434.0 L787.1,436.7 L789.0,439.4 L790.9,442.1
		L792.8,444.9 L794.7,447.6 L796.6,450.4 L798.5,453.1 L800.3,455.8 L802.2,458.6 L804.1,461.3 L806.0,464.0
		L807.9,466.6 L809.8,469.3 L811.7,471.9 L813.6,474.5 L815.4,477.1 L817.3,479.6 L819.2,482.2 L821.1,484.7
		L823.0,487.2 L824.9,489.6 L826.8,492.1 L828.7,494.5 L830.5,496.9 L832.4,499.3 L834.3,501.7 L836.2,504.0
		L838.1,506.3 L840.0,508.6 L841.9,510.9 L843.8,513.2 L845.6,515.5 L847.5,517.7 L849.4,519.9 L851.3,522.1
		L853.2,524.3 L855.1,526.4 L857.0,528.5 L858.9,530.6 L860.7,532.7 L862.6,534.7 L864.5,536.7 L866.4,538.8
		L868.3,540.7 L870.2,542.7 L872.1,544.7 L873.9,546.6 L875.8,548.5 L877.7,550.4 L879.6,552.3 L881.5,554.2
		L883.4,556.0 L885.3,557.8 L887.2,559.6 L889.0,561.4 L890.9,563.1 L892.8,564.8 L894.7,566.5 L896.6,568.1
		L898.5,569.8 L900.4,571.3 L902.3,572.9 L904.1,574.3 L906.0,575.8 L907.9,577.2 L909.8,578.6 L911.7,580.0
		L913.6,581.3 L915.5,582.6 L917.4,583.9 L919.2,585.2 L921.1,586.4 L923.0,587.6 L924.9,588.8 L926.8,590.0
		L928.7,591.2 L930.6,592.4 L932.5,593.5 L934.3,594.7 L936.2,595.8 L938.1,596.9 L940.0,598.1 L941.9,599.2
		L943.8,600.3 L945.7,601.3 L947.5,602.4 L949.4,603.5 L951.3,604.5 L953.2,605.5 L955.1,606.5 L957.0,607.5
		L958.9,608.4 L960.8,609.4 L962.6,610.3 L964.5,611.2 L966.4,612.1 L968.3,613.0 L970.2,613.8 L972.1,614.6
		L974.0,615.5 L975.9,616.3 L977.7,617.1 L979.6,617.9 L981.5,618.6 L983.4,619.4 L985.3,620.2 L987.2,620.9
		L989.1,621.6 L991.0,622.4 L992.8,623.1 L994.7,623.8 L996.6,624.5 L998.5,625.2 L1000.4,625.9 L1002.3,626.5
		L1004.2,627.2 L1006.1,627.8 L1007.9,628.4 L1009.8,629.1 L1011.7,629.7 L1013.6,630.3  '/></g>
	</g>
	<g id="gnuplot_plot_2" ><title>Confidence interval</title>
<g fill="none" color="white" stroke="rgb( 31, 120, 180)" stroke-width="1.00" stroke-linecap="butt" stroke-linejoin="miter">
</g>
<g fill="none" color="black" stroke="currentColor" stroke-width="1.00" stroke-linecap="butt" stroke-linejoin="miter">
	<g transform="translate(1089.0,85.0)" stroke="none" fill="black" font-family="Helvetica" font-size="12.00"  text-anchor="start">
		<text><tspan font-family="Helvetica" >Confidence interval</tspan></text>
	</g>
</g>
<g fill="none" color="black" stroke="currentColor" stroke-width="1.00" stroke-linecap="butt" stroke-linejoin="miter">
	<g stroke='none' shape-rendering='crispEdges'>
		<polygon fill = 'rgb( 31, 120, 180)' fill-opacity = '0.250000' points = '1038.5,85.6 1080.7,85.6 1080.7,76.6 1038.5,76.6 '/>
		<polygon fill = 'rgb( 31, 120, 180)' fill-opacity = '0.250000' points = '158.7,570.3 158.7,662.4 160.6,662.4 160.6,568.6 '/>
		<polygon fill = 'rgb( 31, 120, 180)' fill-opacity = '0.250000' points = '160.6,568.6 160.6,662.4 162.5,662.4 162.5,566.9 '/>
		<polygon fill = 'rgb( 31, 120, 180)' fill-opacity = '0.250000' points = '162.5,566.9 162.5,662.4 164.4,662.4 164.4,565.2 '/>
		<polygon fill = 'rgb( 31, 120, 180)' fill-opacity = '0.250000' points = '164.4,565.2 164.4,662.4 166.3,662.4 166.3,563.5 '/>
		<polygon fill = 'rgb( 31, 120, 180)' fill-opacity = '0.250000' points = '166.3,563.5 166.3,662.4 168.1,662.4 168.1,561.7 '/>
		<polygon fill = 'rgb( 31, 120, 180)' fill-opacity = '0.250000' points = '168.1,561.7 168.1,662.4 170.0,662.4 170.0,559.9 '/>
		<polygon fill = 'rgb( 31, 120, 180)' fill-opacity = '0.250000' points = '170.0,559.9 170.0,662.4 171.9,662.4 171.9,558.0 '/>
		<polygon fill = 'rgb( 31, 120, 180)' fill-opacity = '0.250000' points = '171.9,558.0 171.9,662.4 173.8,662.4 173.8,556.1 '/>
		<polygon fill = 'rgb( 31, 120, 180)' fill-opacity = '0.250000' points = '173.8,556.1 173.8,662.4 175.7,662.4 175.7,554.2 '/>
		<polygon fill = 'rgb( 31, 120, 180)' fill-opacity = '0.250000' points = '175.7,554.2 175.7,662.4 177.6,662.4 177.6,552.2 '/>
		<polygon fill = 'rgb( 31, 120, 180)' fill-opacity = '0.250000' points = '177.6,552.2 177.6,662.4 179.5,662.4 179.5,550.2 '/>
		<polygon fill = 'rgb( 31, 120, 180)' fill-opacity = '0.250000' points = '179.5,550.2 179.5,662.4 181.4,662.4 181.4,548.1 '/>
		<polygon fill = 'rgb( 31, 120, 180)' fill-opacity = '0.250000' points = '181.4,548.1 181.4,662.4 183.2,662.4 183.2,546.0 '/>
		<polygon fill = 'rgb( 31, 120, 180)' fill-opacity = '0.250000' points = '183.2,546.0 183.2,662.4 185.1,662.4 185.1,543.9 '/>
		<polygon fill = 'rgb( 31, 120, 180)' fill-opacity = '0.250000' points = '185.1,543.9 185.1,662.4 187.0,662.4 187.0,541.7 '/>
		<polygon fill = 'rgb( 31, 120, 180)' fill-opacity = '0.250000' points = '187.0,541.7 187.0,662.4 188.9,662.4 188.9,539.4 '/>
		<polygon fill = 'rgb( 31, 120, 180)' fill-opacity = '0.250000' points = '188.9,539.4 188.9,662.4 190.8,662.4 190.8,537.1 '/>
		<polygon fill = 'rgb( 31, 120, 180)' fill-opacity = '0.250000' points = '190.8,537.1 190.8,662.4 192.7,662.4 192.7,534.8 '/>
		<polygon fill = 'rgb( 31, 120, 180)' fill-opacity = '0.250000' points = '192.7,534.8 192.7,662.4 194.6,662.4 194.6,532.5 '/>
		<polygon fill = 'rgb( 31, 120, 180)' fill-opacity = '0.250000' points = '194.6,532.5 194.6,662.4 196.5,662.4 196.5,530.1 '/>
		<polygon fill = 'rgb( 31, 120, 180)' fill-opacity = '0.250000' points = '196.5,530.1 196.5,662.4 198.3,662.4 198.3,527.7 '/>
		<polygon fill = 'rgb( 31, 120, 180)' fill-opacity = '0.250000' points = '198.3,527.7 198.3,662.4 200.2,662.4 200.2,525.3 '/>
		<polygon fill = 'rgb( 31, 120, 180)' fill-opacity = '0.250000' points = '200.2,525.3 200.2,662.4 202.1,662.4 202.1,522.8 '/>
		<polygon fill = 'rgb( 31, 120, 180)' fill-opacity = '0.250000' points = '202.1,522.8 202.1,662.4 204.0,662.4 204.0,520.3 '/>
		<polygon fill = 'rgb( 31, 120, 180)' fill-opacity = '0.250000' points = '204.0,520.3 204.0,662.4 205.9,662.4 205.9,517.7 '/>
		<polygon fill = 'rgb( 31, 120, 180)' fill-opacity = '0.250000' points = '205.9,517.7 205.9,662.4 207.8,662.4 207.8,515.2 '/>
		<polygon fill = 'rgb( 31, 120, 180)' fill-opacity = '0.250000' points = '207.8,515.2 207.8,662.4 209.7,662.4 209.7,512.6 '/>
		<polygon fill = 'rgb( 31, 120, 180)' fill-opacity = '0.250000' points = '209.7,512.6 209.7,662.4 211.6,662.4 211.6,509.9 '/>
		<polygon fill = 'rgb( 31, 120, 180)' fill-opacity = '0.250000' points = '211.6,509.9 211.6,662.4 213.4,662.4 213.4,507.3 '/>
		<polygon fill = 'rgb( 31, 120, 180)' fill-opacity = '0.250000' points = '213.4,507.3 213.4,662.4 215.3,662.4 215.3,504.6 '/>
		<polygon fill = 'rgb( 31, 120, 180)' fill-opacity = '0.250000' points = '215.3,504.6 215.3,662.4 217.2,662.4 217.2,501.8 '/>
		<polygon fill = 'rgb( 31, 120, 180)' fill-opacity = '0.250000' points = '217.2,501.8 217.2,662.4 219.1,662.4 219.1,499.0 '/>
		<polygon fill = 'rgb( 31, 120, 180)' fill-opacity = '0.250000' points = '219.1,499.0 219.1,662.4 221.0,662.4 221.0,496.2 '/>
		<polygon fill = 'rgb( 31, 120, 180)' fill-opacity = '0.250000' points = '221.0,496.2 221.0,662.4 222.9,662.4 222.9,493.3 '/>
		<polygon fill = 'rgb( 31, 120, 180)' fill-opacity = '0.250000' points = '222.9,493.3 222.9,662.4 224.8,662.4 224.8,490.4 '/>
		<polygon fill = 'rgb( 31, 120, 180)' fill-opacity = '0.250000' points = '224.8,490.4 224.8,662.4 226.6,662.4 226.6,487.4 '/>
		<polygon fill = 'rgb( 31, 120, 180)' fill-opacity = '0.250000' points = '226.6,487.4 226.6,662.4 228.5,662.4 228.5,484.3 '/>
		<polygon fill = 'rgb( 31, 120, 180)' fill-opacity = '0.250000' points = '228.5,484.3 228.5,662.4 230.4,662.4 230.4,481.3 '/>
		<polygon fill = 'rgb( 31, 120, 180)' fill-opacity = '0.250000' points = '230.4,481.3 230.4,662.4 232.3,662.4 232.3,478.1 '/>
		<polygon fill = 'rgb( 31, 120, 180)' fill-opacity = '0.250000' points = '232.3,478.1 232.3,662.4 234.2,662.4 234.2,475.0 '/>
		<polygon fill = 'rgb( 31, 120, 180)' fill-opacity = '0.250000' points = '234.2,475.0 234.2,662.4 236.1,662.4 236.1,471.7 '/>
		<polygon fill = 'rgb( 31, 120, 180)' fill-opacity = '0.250000' points = '236.1,471.7 236.1,662.4 238.0,662.4 238.0,468.5 '/>
		<polygon fill = 'rgb( 31, 120, 180)' fill-opacity = '0.250000' points = '238.0,468.5 238.0,662.4 239.9,662.4 239.9,465.2 '/>
		<polygon fill = 'rgb( 31, 120, 180)' fill-opacity = '0.250000' points = '239.9,465.2 239.9,662.4 241.7,662.4 241.7,461.8 '/>
		<polygon fill = 'rgb( 31, 120, 180)' fill-opacity = '0.250000' points = '241.7,461.8 241.7,662.4 243.6,662.4 243.6,458.5 '/>
		<polygon fill = 'rgb( 31, 120, 180)' fill-opacity = '0.250000' points = '243.6,458.5 243.6,662.4 245.5,662.4 245.5,455.1 '/>
		<polygon fill = 'rgb( 31, 120, 180)' fill-opacity = '0.250000' points = '245.5,455.1 245.5,662.4 247.4,662.4 247.4,451.6 '/>
		<polygon fill = 'rgb( 31, 120, 180)' fill-opacity = '0.250000' points = '247.4,451.6 247.4,662.4 249.3,662.4 249.3,448.2 '/>
		<polygon fill = 'rgb( 31, 120, 180)' fill-opacity = '0.250000' points = '249.3,448.2 249.3,662.4 251.2,662.4 251.2,444.7 '/>
		<polygon fill = 'rgb( 31, 120, 180)' fill-opacity = '0.250000' points = '251.2,444.7 251.2,662.4 253.1,662.4 253.1,441.2 '/>
		<polygon fill = 'rgb( 31, 120, 180)' fill-opacity = '0.250000' points = '253.1,441.2 253.1,662.4 255.0,662.4 255.0,437.6 '/>
		<polygon fill = 'rgb( 31, 120, 180)' fill-opacity = '0.250000' points = '255.0,437.6 255.0,662.4 256.8,662.4 256.8,434.1 '/>
		<polygon fill = 'rgb( 31, 120, 180)' fill-opacity = '0.250000' points = '256.8,434.1 256.8,662.4 258.7,662.4 258.7,430.5 '/>
		<polygon fill = 'rgb( 31, 120, 180)' fill-opacity = '0.250000' points = '258.7,430.5 258.7,662.4 260.6,662.4 260.6,426.9 '/>
		<polygon fill = 'rgb( 31, 120, 180)' fill-opacity = '0.250000' points = '260.6,426.9 260.6,662.4 262.5,662.4 262.5,423.3 '/>
		<polygon fill = 'rgb( 31, 120, 180)' fill-opacity = '0.250000' points = '262.5,423.3 262.5,662.4 264.4,662.4 264.4,419.7 '/>
		<polygon fill = 'rgb( 31, 120, 180)' fill-opacity = '0.250000' points = '264.4,419.7 264.4,662.4 266.3,662.4 266.3,416.1 '/>
		<polygon fill = 'rgb( 31, 120, 180)' fill-opacity = '0.250000' points = '266.3,416.1 266.3,662.4 268.2,662.4 268.2,412.4 '/>
		<polygon fill = 'rgb( 31, 120, 180)' fill-opacity = '0.250000' points = '268.2,412.4 268.2,662.4 270.1,662.4 270.1,408.8 '/>
		<polygon fill = 'rgb( 31, 120, 180)' fill-opacity = '0.250000' points = '270.1,408.8 270.1,662.4 271.9,662.4 271.9,405.1 '/>
		<polygon fill = 'rgb( 31, 120, 180)' fill-opacity = '0.250000' points = '271.9,405.1 271.9,662.4 273.8,662.4 273.8,401.5 '/>
		<polygon fill = 'rgb( 31, 120, 180)' fill-opacity = '0.250000' points = '273.8,401.5 273.8,662.4 275.7,662.4 275.7,397.8 '/>
		<polygon fill = 'rgb( 31, 120, 180)' fill-opacity = '0.250000' points = '275.7,397.8 275.7,662.4 277.6,662.4 277.6,394.2 '/>
		<polygon fill = 'rgb( 31, 120, 180)' fill-opacity = '0.250000' points = '277.6,394.2 277.6,662.4 279.5,662.4 279.5,390.6 '/>
		<polygon fill = 'rgb( 31, 120, 180)' fill-opacity = '0.250000' points = '279.5,390.6 279.5,662.4 281.4,662.4 281.4,387.0 '/>
		<polygon fill = 'rgb( 31, 120, 180)' fill-opacity = '0.250000' points = '281.4,387.0 281.4,662.4 283.3,662.4 283.3,383.4 '/>
		<polygon fill = 'rgb( 31, 120, 180)' fill-opacity = '0.250000' points = '283.3,383.4 283.3,662.4 285.2,662.4 285.2,379.9 '/>
		<polygon fill = 'rgb( 31, 120, 180)' fill-opacity = '0.250000' points = '285.2,379.9 285.2,662.4 287.0,662.4 287.0,376.4 '/>
		<polygon fill = 'rgb( 31, 120, 180)' fill-opacity = '0.250000' points = '287.0,376.4 287.0,662.4 288.9,662.4 288.9,372.9 '/>
		<polygon fill = 'rgb( 31, 120, 180)' fill-opacity = '0.250000' points = '288.9,372.9 288.9,662.4 290.8,662.4 290.8,369.5 '/>
		<polygon fill = 'rgb( 31, 120, 180)' fill-opacity = '0.250000' points = '290.8,369.5 290.8,662.4 292.7,662.4 292.7,366.1 '/>
		<polygon fill = 'rgb( 31, 120, 180)' fill-opacity = '0.250000' points = '292.7,366.1 292.7,662.4 294.6,662.4 294.6,362.7 '/>
		<polygon fill = 'rgb( 31, 120, 180)' fill-opacity = '0.250000' points = '294.6,362.7 294.6,662.4 296.5,662.4 296.5,359.4 '/>
		<polygon fill = 'rgb( 31, 120, 180)' fill-opacity = '0.250000' points = '296.5,359.4 296.5,662.4 298.4,662.4 298.4,356.1 '/>
		<polygon fill = 'rgb( 31, 120, 180)' fill-opacity = '0.250000' points = '298.4,356.1 298.4,662.4 300.2,662.4 300.2,352.8 '/>
		<polygon fill = 'rgb( 31, 120, 180)' fill-opacity = '0.250000' points = '300.2,352.8 300.2,662.4 302.1,662.4 302.1,349.6 '/>
		<polygon fill = 'rgb( 31, 120, 180)' fill-opacity = '0.250000' points = '302.1,349.6 302.1,662.4 304.0,662.4 304.0,346.3 '/>
		<polygon fill = 'rgb( 31, 120, 180)' fill-opacity = '0.250000' points = '304.0,346.3 304.0,662.4 305.9,662.4 305.9,343.1 '/>
		<polygon fill = 'rgb( 31, 120, 180)' fill-opacity = '0.250000' points = '305.9,343.1 305.9,662.4 307.8,662.4 307.8,339.8 '/>
		<polygon fill = 'rgb( 31, 120, 180)' fill-opacity = '0.250000' points = '307.8,339.8 307.8,662.4 309.7,662.4 309.7,336.6 '/>
		<polygon fill = 'rgb( 31, 120, 180)' fill-opacity = '0.250000' points = '309.7,336.6 309.7,662.4 311.6,662.4 311.6,333.3 '/>
		<polygon fill = 'rgb( 31, 120, 180)' fill-opacity = '0.250000' points = '311.6,333.3 311.6,662.4 313.5,662.4 313.5,330.0 '/>
		<polygon fill = 'rgb( 31, 120, 180)' fill-opacity = '0.250000' points = '313.5,330.0 313.5,662.4 315.3,662.4 315.3,326.7 '/>
		<polygon fill = 'rgb( 31, 120, 180)' fill-opacity = '0.250000' points = '315.3,326.7 315.3,662.4 317.2,662.4 317.2,323.3 '/>
		<polygon fill = 'rgb( 31, 120, 180)' fill-opacity = '0.250000' points = '317.2,323.3 317.2,662.4 319.1,662.4 319.1,319.9 '/>
		<polygon fill = 'rgb( 31, 120, 180)' fill-opacity = '0.250000' points = '319.1,319.9 319.1,662.4 321.0,662.4 321.0,316.5 '/>
		<polygon fill = 'rgb( 31, 120, 180)' fill-opacity = '0.250000' points = '321.0,316.5 321.0,662.4 322.9,662.4 322.9,313.0 '/>
		<polygon fill = 'rgb( 31, 120, 180)' fill-opacity = '0.250000' points = '322.9,313.0 322.9,662.4 324.8,662.4 324.8,309.5 '/>
		<polygon fill = 'rgb( 31, 120, 180)' fill-opacity = '0.250000' points = '324.8,309.5 324.8,662.4 326.7,662.4 326.7,306.0 '/>
		<polygon fill = 'rgb( 31, 120, 180)' fill-opacity = '0.250000' points = '326.7,306.0 326.7,662.4 328.6,662.4 328.6,302.4 '/>
		<polygon fill = 'rgb( 31, 120, 180)' fill-opacity = '0.250000' points = '328.6,302.4 328.6,662.4 330.4,662.4 330.4,298.8 '/>
		<polygon fill = 'rgb( 31, 120, 180)' fill-opacity = '0.250000' points = '330.4,298.8 330.4,662.4 332.3,662.4 332.3,295.2 '/>
		<polygon fill = 'rgb( 31, 120, 180)' fill-opacity = '0.250000' points = '332.3,295.2 332.3,662.4 334.2,662.4 334.2,291.7 '/>
		<polygon fill = 'rgb( 31, 120, 180)' fill-opacity = '0.250000' points = '334.2,291.7 334.2,662.4 336.1,662.4 336.1,288.1 '/>
		<polygon fill = 'rgb( 31, 120, 180)' fill-opacity = '0.250000' points = '336.1,288.1 336.1,662.4 338.0,662.4 338.0,284.5 '/>
		<polygon fill = 'rgb( 31, 120, 180)' fill-opacity = '0.250000' points = '338.0,284.5 338.0,662.4 339.9,662.4 339.9,281.0 '/>
		<polygon fill = 'rgb( 31, 120, 180)' fill-opacity = '0.250000' points = '339.9,281.0 339.9,662.4 341.8,662.4 341.8,277.4 '/>
		<polygon fill = 'rgb( 31, 120, 180)' fill-opacity = '0.250000' points = '341.8,277.4 341.8,662.4 343.7,662.4 343.7,273.9 '/>
		<polygon fill = 'rgb( 31, 120, 180)' fill-opacity = '0.250000' points = '343.7,273.9 343.7,662.4 345.5,662.4 345.5,270.5 '/>
		<polygon fill = 'rgb( 31, 120, 180)' fill-opacity = '0.250000' points = '345.5,270.5 345.5,662.4 347.4,662.4 347.4,267.1 '/>
		<polygon fill = 'rgb( 31, 120, 180)' fill-opacity = '0.250000' points = '347.4,267.1 347.4,662.4 349.3,662.4 349.3,263.7 '/>
		<polygon fill = 'rgb( 31, 120, 180)' fill-opacity = '0.250000' points = '349.3,263.7 349.3,662.4 351.2,662.4 351.2,260.4 '/>
		<polygon fill = 'rgb( 31, 120, 180)' fill-opacity = '0.250000' points = '351.2,260.4 351.2,662.4 353.1,662.4 353.1,257.2 '/>
		<polygon fill = 'rgb( 31, 120, 180)' fill-opacity = '0.250000' points = '353.1,257.2 353.1,662.4 355.0,662.4 355.0,254.0 '/>
		<polygon fill = 'rgb( 31, 120, 180)' fill-opacity = '0.250000' points = '355.0,254.0 355.0,662.4 356.9,662.4 356.9,250.8 '/>
		<polygon fill = 'rgb( 31, 120, 180)' fill-opacity = '0.250000' points = '356.9,250.8 356.9,662.4 358.8,662.4 358.8,247.7 '/>
		<polygon fill = 'rgb( 31, 120, 180)' fill-opacity = '0.250000' points = '358.8,247.7 358.8,662.4 360.6,662.4 360.6,244.7 '/>
		<polygon fill = 'rgb( 31, 120, 180)' fill-opacity = '0.250000' points = '360.6,244.7 360.6,662.4 362.5,662.4 362.5,241.6 '/>
		<polygon fill = 'rgb( 31, 120, 180)' fill-opacity = '0.250000' points = '362.5,241.6 362.5,662.4 364.4,662.4 364.4,238.7 '/>
		<polygon fill = 'rgb( 31, 120, 180)' fill-opacity = '0.250000' points = '364.4,238.7 364.4,662.4 366.3,662.4 366.3,235.8 '/>
		<polygon fill = 'rgb( 31, 120, 180)' fill-opacity = '0.250000' points = '366.3,235.8 366.3,662.4 368.2,662.4 368.2,232.9 '/>
		<polygon fill = 'rgb( 31, 120, 180)' fill-opacity = '0.250000' points = '368.2,232.9 368.2,662.4 370.1,662.4 370.1,230.1 '/>
		<polygon fill = 'rgb( 31, 120, 180)' fill-opacity = '0.250000' points = '370.1,230.1 370.1,662.4 372.0,662.4 372.0,227.3 '/>
		<polygon fill = 'rgb( 31, 120, 180)' fill-opacity = '0.250000' points = '372.0,227.3 372.0,662.4 373.8,662.4 373.8,224.6 '/>
		<polygon fill = 'rgb( 31, 120, 180)' fill-opacity = '0.250000' points = '373.8,224.6 373.8,662.4 375.7,662.4 375.7,221.9 '/>
		<polygon fill = 'rgb( 31, 120, 180)' fill-opacity = '0.250000' points = '375.7,221.9 375.7,662.4 377.6,662.4 377.6,219.3 '/>
		<polygon fill = 'rgb( 31, 120, 180)' fill-opacity = '0.250000' points = '377.6,219.3 377.6,662.4 379.5,662.4 379.5,216.7 '/>
		<polygon fill = 'rgb( 31, 120, 180)' fill-opacity = '0.250000' points = '379.5,216.7 379.5,662.4 381.4,662.4 381.4,214.1 '/>
		<polygon fill = 'rgb( 31, 120, 180)' fill-opacity = '0.250000' points = '381.4,214.1 381.4,662.4 383.3,662.4 383.3,211.6 '/>
		<polygon fill = 'rgb( 31, 120, 180)' fill-opacity = '0.250000' points = '383.3,211.6 383.3,662.4 385.2,662.4 385.2,209.1 '/>
		<polygon fill = 'rgb( 31, 120, 180)' fill-opacity = '0.250000' points = '385.2,209.1 385.2,662.4 387.1,662.4 387.1,206.7 '/>
		<polygon fill = 'rgb( 31, 120, 180)' fill-opacity = '0.250000' points = '387.1,206.7 387.1,662.4 388.9,662.4 388.9,204.3 '/>
		<polygon fill = 'rgb( 31, 120, 180)' fill-opacity = '0.250000' points = '388.9,204.3 388.9,662.4 390.8,662.4 390.8,201.9 '/>
		<polygon fill = 'rgb( 31, 120, 180)' fill-opacity = '0.250000' points = '390.8,201.9 390.8,662.4 392.7,662.4 392.7,199.6 '/>
		<polygon fill = 'rgb( 31, 120, 180)' fill-opacity = '0.250000' points = '392.7,199.6 392.7,662.4 394.6,662.4 394.6,197.3 '/>
		<polygon fill = 'rgb( 31, 120, 180)' fill-opacity = '0.250000' points = '394.6,197.3 394.6,662.4 396.5,662.4 396.5,195.0 '/>
		<polygon fill = 'rgb( 31, 120, 180)' fill-opacity = '0.250000' points = '396.5,195.0 396.5,662.4 398.4,662.4 398.4,192.8 '/>
		<polygon fill = 'rgb( 31, 120, 180)' fill-opacity = '0.250000' points = '398.4,192.8 398.4,662.4 400.3,662.4 400.3,190.6 '/>
		<polygon fill = 'rgb( 31, 120, 180)' fill-opacity = '0.250000' points = '400.3,190.6 400.3,662.4 402.2,662.4 402.2,188.4 '/>
		<polygon fill = 'rgb( 31, 120, 180)' fill-opacity = '0.250000' points = '402.2,188.4 402.2,662.4 404.0,662.4 404.0,186.1 '/>
		<polygon fill = 'rgb( 31, 120, 180)' fill-opacity = '0.250000' points = '404.0,186.1 404.0,662.4 405.9,662.4 405.9,184.0 '/>
		<polygon fill = 'rgb( 31, 120, 180)' fill-opacity = '0.250000' points = '405.9,184.0 405.9,662.4 407.8,662.4 407.8,181.8 '/>
		<polygon fill = 'rgb( 31, 120, 180)' fill-opacity = '0.250000' points = '407.8,181.8 407.8,662.4 409.7,662.4 409.7,179.6 '/>
		<polygon fill = 'rgb( 31, 120, 180)' fill-opacity = '0.250000' points = '409.7,179.6 409.7,662.4 411.6,662.4 411.6,177.4 '/>
		<polygon fill = 'rgb( 31, 120, 180)' fill-opacity = '0.250000' points = '411.6,177.4 411.6,662.4 413.5,662.4 413.5,175.2 '/>
		<polygon fill = 'rgb( 31, 120, 180)' fill-opacity = '0.250000' points = '413.5,175.2 413.5,662.4 415.4,662.4 415.4,173.0 '/>
		<polygon fill = 'rgb( 31, 120, 180)' fill-opacity = '0.250000' points = '415.4,173.0 415.4,662.4 417.3,662.4 417.3,170.9 '/>
		<polygon fill = 'rgb( 31, 120, 180)' fill-opacity = '0.250000' points = '417.3,170.9 417.3,662.4 419.1,662.4 419.1,168.7 '/>
		<polygon fill = 'rgb( 31, 120, 180)' fill-opacity = '0.250000' points = '419.1,168.7 419.1,662.4 421.0,662.4 421.0,166.5 '/>
		<polygon fill = 'rgb( 31, 120, 180)' fill-opacity = '0.250000' points = '421.0,166.5 421.0,662.4 422.9,662.4 422.9,164.3 '/>
		<polygon fill = 'rgb( 31, 120, 180)' fill-opacity = '0.250000' points = '422.9,164.3 422.9,662.4 424.8,662.4 424.8,162.1 '/>
		<polygon fill = 'rgb( 31, 120, 180)' fill-opacity = '0.250000' points = '424.8,162.1 424.8,662.4 426.7,662.4 426.7,160.0 '/>
		<polygon fill = 'rgb( 31, 120, 180)' fill-opacity = '0.250000' points = '426.7,160.0 426.7,662.4 428.6,662.4 428.6,157.8 '/>
		<polygon fill = 'rgb( 31, 120, 180)' fill-opacity = '0.250000' points = '428.6,157.8 428.6,662.4 430.5,662.4 430.5,155.7 '/>
		<polygon fill = 'rgb( 31, 120, 180)' fill-opacity = '0.250000' points = '430.5,155.7 430.5,662.4 432.4,662.4 432.4,153.5 '/>
		<polygon fill = 'rgb( 31, 120, 180)' fill-opacity = '0.250000' points = '432.4,153.5 432.4,662.4 434.2,662.4 434.2,151.4 '/>
		<polygon fill = 'rgb( 31, 120, 180)' fill-opacity = '0.250000' points = '434.2,151.4 434.2,662.4 436.1,662.4 436.1,149.4 '/>
		<polygon fill = 'rgb( 31, 120, 180)' fill-opacity = '0.250000' points = '436.1,149.4 436.1,662.4 438.0,662.4 438.0,147.3 '/>
		<polygon fill = 'rgb( 31, 120, 180)' fill-opacity = '0.250000' points = '438.0,147.3 438.0,662.4 439.9,662.4 439.9,145.3 '/>
		<polygon fill = 'rgb( 31, 120, 180)' fill-opacity = '0.250000' points = '439.9,145.3 439.9,662.4 441.8,662.4 441.8,143.4 '/>
		<polygon fill = 'rgb( 31, 120, 180)' fill-opacity = '0.250000' points = '441.8,143.4 441.8,662.4 443.7,662.4 443.7,141.4 '/>
		<polygon fill = 'rgb( 31, 120, 180)' fill-opacity = '0.250000' points = '443.7,141.4 443.7,662.4 445.6,662.4 445.6,139.6 '/>
		<polygon fill = 'rgb( 31, 120, 180)' fill-opacity = '0.250000' points = '445.6,139.6 445.6,662.4 447.4,662.4 447.4,137.7 '/>
		<polygon fill = 'rgb( 31, 120, 180)' fill-opacity = '0.250000' points = '447.4,137.7 447.4,662.4 449.3,662.4 449.3,136.0 '/>
		<polygon fill = 'rgb( 31, 120, 180)' fill-opacity = '0.250000' points = '449.3,136.0 449.3,662.4 451.2,662.4 451.2,134.2 '/>
		<polygon fill = 'rgb( 31, 120, 180)' fill-opacity = '0.250000' points = '451.2,134.2 451.2,662.4 453.1,662.4 453.1,132.6 '/>
		<polygon fill = 'rgb( 31, 120, 180)' fill-opacity = '0.250000' points = '453.1,132.6 453.1,662.4 455.0,662.4 455.0,130.9 '/>
		<polygon fill = 'rgb( 31, 120, 180)' fill-opacity = '0.250000' points = '455.0,130.9 455.0,662.4 456.9,662.4 456.9,129.4 '/>
		<polygon fill = 'rgb( 31, 120, 180)' fill-opacity = '0.250000' points = '456.9,129.4 456.9,662.4 458.8,662.4 458.8,127.9 '/>
		<polygon fill = 'rgb( 31, 120, 180)' fill-opacity = '0.250000' points = '458.8,127.9 458.8,662.4 460.7,662.4 460.7,126.4 '/>
		<polygon fill = 'rgb( 31, 120, 180)' fill-opacity = '0.250000' points = '460.7,126.4 460.7,662.4 462.5,662.4 462.5,125.0 '/>
		<polygon fill = 'rgb( 31, 120, 180)' fill-opacity = '0.250000' points = '462.5,125.0 462.5,662.4 464.4,662.4 464.4,123.6 '/>
		<polygon fill = 'rgb( 31, 120, 180)' fill-opacity = '0.250000' points = '464.4,123.6 464.4,662.4 466.3,662.4 466.3,122.2 '/>
		<polygon fill = 'rgb( 31, 120, 180)' fill-opacity = '0.250000' points = '466.3,122.2 466.3,662.4 468.2,662.4 468.2,120.9 '/>
		<polygon fill = 'rgb( 31, 120, 180)' fill-opacity = '0.250000' points = '468.2,120.9 468.2,662.4 470.1,662.4 470.1,119.7 '/>
		<polygon fill = 'rgb( 31, 120, 180)' fill-opacity = '0.250000' points = '470.1,119.7 470.1,662.4 472.0,662.4 472.0,118.4 '/>
		<polygon fill = 'rgb( 31, 120, 180)' fill-opacity = '0.250000' points = '472.0,118.4 472.0,662.4 473.9,662.4 473.9,117.2 '/>
		<polygon fill = 'rgb( 31, 120, 180)' fill-opacity = '0.250000' points = '473.9,117.2 473.9,662.4 475.8,662.4 475.8,116.0 '/>
		<polygon fill = 'rgb( 31, 120, 180)' fill-opacity = '0.250000' points = '475.8,116.0 475.8,662.4 477.6,662.4 477.6,114.9 '/>
		<polygon fill = 'rgb( 31, 120, 180)' fill-opacity = '0.250000' points = '477.6,114.9 477.6,662.4 479.5,662.4 479.5,113.7 '/>
		<polygon fill = 'rgb( 31, 120, 180)' fill-opacity = '0.250000' points = '479.5,113.7 479.5,662.4 481.4,662.4 481.4,112.6 '/>
		<polygon fill = 'rgb( 31, 120, 180)' fill-opacity = '0.250000' points = '481.4,112.6 481.4,662.4 483.3,662.4 483.3,111.5 '/>
		<polygon fill = 'rgb( 31, 120, 180)' fill-opacity = '0.250000' points = '483.3,111.5 483.3,662.4 485.2,662.4 485.2,110.5 '/>
		<polygon fill = 'rgb( 31, 120, 180)' fill-opacity = '0.250000' points = '485.2,110.5 485.2,662.4 487.1,662.4 487.1,109.5 '/>
		<polygon fill = 'rgb( 31, 120, 180)' fill-opacity = '0.250000' points = '487.1,109.5 487.1,662.4 489.0,662.4 489.0,108.5 '/>
		<polygon fill = 'rgb( 31, 120, 180)' fill-opacity = '0.250000' points = '489.0,108.5 489.0,662.4 490.9,662.4 490.9,107.5 '/>
		<polygon fill = 'rgb( 31, 120, 180)' fill-opacity = '0.250000' points = '490.9,107.5 490.9,662.4 492.7,662.4 492.7,106.7 '/>
		<polygon fill = 'rgb( 31, 120, 180)' fill-opacity = '0.250000' points = '492.7,106.7 492.7,662.4 494.6,662.4 494.6,105.8 '/>
		<polygon fill = 'rgb( 31, 120, 180)' fill-opacity = '0.250000' points = '494.6,105.8 494.6,662.4 496.5,662.4 496.5,105.1 '/>
		<polygon fill = 'rgb( 31, 120, 180)' fill-opacity = '0.250000' points = '496.5,105.1 496.5,662.4 498.4,662.4 498.4,104.4 '/>
		<polygon fill = 'rgb( 31, 120, 180)' fill-opacity = '0.250000' points = '498.4,104.4 498.4,662.4 500.3,662.4 500.3,103.8 '/>
		<polygon fill = 'rgb( 31, 120, 180)' fill-opacity = '0.250000' points = '500.3,103.8 500.3,662.4 502.2,662.4 502.2,103.2 '/>
		<polygon fill = 'rgb( 31, 120, 180)' fill-opacity = '0.250000' points = '502.2,103.2 502.2,662.4 504.1,662.4 504.1,102.8 '/>
		<polygon fill = 'rgb( 31, 120, 180)' fill-opacity = '0.250000' points = '504.1,102.8 504.1,662.4 506.0,662.4 506.0,102.5 '/>
		<polygon fill = 'rgb( 31, 120, 180)' fill-opacity = '0.250000' points = '506.0,102.5 506.0,662.4 507.8,662.4 507.8,102.3 '/>
		<polygon fill = 'rgb( 31, 120, 180)' fill-opacity = '0.250000' points = '507.8,102.3 507.8,662.4 509.7,662.4 509.7,102.2 '/>
		<polygon fill = 'rgb( 31, 120, 180)' fill-opacity = '0.250000' points = '509.7,102.2 509.7,662.4 511.6,662.4 511.6,102.2 '/>
		<polygon fill = 'rgb( 31, 120, 180)' fill-opacity = '0.250000' points = '511.6,102.2 511.6,662.4 513.5,662.4 513.5,102.3 '/>
		<polygon fill = 'rgb( 31, 120, 180)' fill-opacity = '0.250000' points = '513.5,102.3 513.5,662.4 515.4,662.4 515.4,102.5 '/>
		<polygon fill = 'rgb( 31, 120, 180)' fill-opacity = '0.250000' points = '515.4,102.5 515.4,662.4 517.3,662.4 517.3,102.8 '/>
		<polygon fill = 'rgb( 31, 120, 180)' fill-opacity = '0.250000' points = '517.3,102.8 517.3,662.4 519.2,662.4 519.2,103.3 '/>
		<polygon fill = 'rgb( 31, 120, 180)' fill-opacity = '0.250000' points = '519.2,103.3 519.2,662.4 521.0,662.4 521.0,103.9 '/>
		<polygon fill = 'rgb( 31, 120, 180)' fill-opacity = '0.250000' points = '521.0,103.9 521.0,662.4 522.9,662.4 522.9,104.5 '/>
		<polygon fill = 'rgb( 31, 120, 180)' fill-opacity = '0.250000' points = '522.9,104.5 522.9,662.4 524.8,662.4 524.8,105.3 '/>
		<polygon fill = 'rgb( 31, 120, 180)' fill-opacity = '0.250000' points = '524.8,105.3 524.8,662.4 526.7,662.4 526.7,106.1 '/>
		<polygon fill = 'rgb( 31, 120, 180)' fill-opacity = '0.250000' points = '526.7,106.1 526.7,662.4 528.6,662.4 528.6,107.0 '/>
		<polygon fill = 'rgb( 31, 120, 180)' fill-opacity = '0.250000' points = '528.6,107.0 528.6,662.4 530.5,662.4 530.5,108.0 '/>
		<polygon fill = 'rgb( 31, 120, 180)' fill-opacity = '0.250000' points = '530.5,108.0 530.5,662.4 532.4,662.4 532.4,109.0 '/>
		<polygon fill = 'rgb( 31, 120, 180)' fill-opacity = '0.250000' points = '532.4,109.0 532.4,662.4 534.3,662.4 534.3,110.1 '/>
		<polygon fill = 'rgb( 31, 120, 180)' fill-opacity = '0.250000' points = '534.3,110.1 534.3,662.4 536.1,662.4 536.1,111.2 '/>
		<polygon fill = 'rgb( 31, 120, 180)' fill-opacity = '0.250000' points = '536.1,111.2 536.1,662.4 538.0,662.4 538.0,112.3 '/>
		<polygon fill = 'rgb( 31, 120, 180)' fill-opacity = '0.250000' points = '538.0,112.3 538.0,662.4 539.9,662.4 539.9,113.5 '/>
		<polygon fill = 'rgb( 31, 120, 180)' fill-opacity = '0.250000' points = '539.9,113.5 539.9,662.4 541.8,662.4 541.8,114.6 '/>
		<polygon fill = 'rgb( 31, 120, 180)' fill-opacity = '0.250000' points = '541.8,114.6 541.8,662.4 543.7,662.4 543.7,115.7 '/>
		<polygon fill = 'rgb( 31, 120, 180)' fill-opacity = '0.250000' points = '543.7,115.7 543.7,662.4 545.6,662.4 545.6,116.9 '/>
		<polygon fill = 'rgb( 31, 120, 180)' fill-opacity = '0.250000' points = '545.6,116.9 545.6,662.4 547.5,662.4 547.5,118.0 '/>
		<polygon fill = 'rgb( 31, 120, 180)' fill-opacity = '0.250000' points = '547.5,118.0 547.5,662.4 549.4,662.4 549.4,119.1 '/>
		<polygon fill = 'rgb( 31, 120, 180)' fill-opacity = '0.250000' points = '549.4,119.1 549.4,662.4 551.2,662.4 551.2,120.2 '/>
		<polygon fill = 'rgb( 31, 120, 180)' fill-opacity = '0.250000' points = '551.2,120.2 551.2,662.4 553.1,662.4 553.1,121.2 '/>
		<polygon fill = 'rgb( 31, 120, 180)' fill-opacity = '0.250000' points = '553.1,121.2 553.1,662.4 555.0,662.4 555.0,122.3 '/>
		<polygon fill = 'rgb( 31, 120, 180)' fill-opacity = '0.250000' points = '555.0,122.3 555.0,662.4 556.9,662.4 556.9,123.3 '/>
		<polygon fill = 'rgb( 31, 120, 180)' fill-opacity = '0.250000' points = '556.9,123.3 556.9,662.4 558.8,662.4 558.8,124.4 '/>
		<polygon fill = 'rgb( 31, 120, 180)' fill-opacity = '0.250000' points = '558.8,124.4 558.8,662.4 560.7,662.4 560.7,125.4 '/>
		<polygon fill = 'rgb( 31, 120, 180)' fill-opacity = '0.250000' points = '560.7,125.4 560.7,662.4 562.6,662.4 562.6,126.5 '/>
		<polygon fill = 'rgb( 31, 120, 180)' fill-opacity = '0.250000' points = '562.6,126.5 562.6,662.4 564.5,662.4 564.5,127.5 '/>
		<polygon fill = 'rgb( 31, 120, 180)' fill-opacity = '0.250000' points = '564.5,127.5 564.5,662.4 566.3,662.4 566.3,128.6 '/>
		<polygon fill = 'rgb( 31, 120, 180)' fill-opacity = '0.250000' points = '566.3,128.6 566.3,662.4 568.2,662.4 568.2,129.7 '/>
		<polygon fill = 'rgb( 31, 120, 180)' fill-opacity = '0.250000' points = '568.2,129.7 568.2,662.4 570.1,662.4 570.1,130.8 '/>
		<polygon fill = 'rgb( 31, 120, 180)' fill-opacity = '0.250000' points = '570.1,130.8 570.1,662.4 572.0,662.4 572.0,132.0 '/>
		<polygon fill = 'rgb( 31, 120, 180)' fill-opacity = '0.250000' points = '572.0,132.0 572.0,662.4 573.9,662.4 573.9,133.2 '/>
		<polygon fill = 'rgb( 31, 120, 180)' fill-opacity = '0.250000' points = '573.9,133.2 573.9,662.4 575.8,662.4 575.8,134.4 '/>
		<polygon fill = 'rgb( 31, 120, 180)' fill-opacity = '0.250000' points = '575.8,134.4 575.8,662.4 577.7,662.4 577.7,135.8 '/>
		<polygon fill = 'rgb( 31, 120, 180)' fill-opacity = '0.250000' points = '577.7,135.8 577.7,662.4 579.5,662.4 579.5,137.1 '/>
		<polygon fill = 'rgb( 31, 120, 180)' fill-opacity = '0.250000' points = '579.5,137.1 579.5,662.4 581.4,662.4 581.4,138.6 '/>
		<polygon fill = 'rgb( 31, 120, 180)' fill-opacity = '0.250000' points = '581.4,138.6 581.4,662.4 583.3,662.4 583.3,140.0 '/>
		<polygon fill = 'rgb( 31, 120, 180)' fill-opacity = '0.250000' points = '583.3,140.0 583.3,662.4 585.2,662.4 585.2,141.6 '/>
		<polygon fill = 'rgb( 31, 120, 180)' fill-opacity = '0.250000' points = '585.2,141.6 585.2,662.4 587.1,662.4 587.1,143.2 '/>
		<polygon fill = 'rgb( 31, 120, 180)' fill-opacity = '0.250000' points = '587.1,143.2 587.1,662.4 589.0,662.4 589.0,144.9 '/>
		<polygon fill = 'rgb( 31, 120, 180)' fill-opacity = '0.250000' points = '589.0,144.9 589.0,662.4 590.9,662.4 590.9,146.7 '/>
		<polygon fill = 'rgb( 31, 120, 180)' fill-opacity = '0.250000' points = '590.9,146.7 590.9,662.4 592.8,662.4 592.8,148.5 '/>
		<polygon fill = 'rgb( 31, 120, 180)' fill-opacity = '0.250000' points = '592.8,148.5 592.8,662.4 594.6,662.4 594.6,150.4 '/>
		<polygon fill = 'rgb( 31, 120, 180)' fill-opacity = '0.250000' points = '594.6,150.4 594.6,662.4 596.5,662.4 596.5,152.3 '/>
		<polygon fill = 'rgb( 31, 120, 180)' fill-opacity = '0.250000' points = '596.5,152.3 596.5,662.4 598.4,662.4 598.4,154.3 '/>
		<polygon fill = 'rgb( 31, 120, 180)' fill-opacity = '0.250000' points = '598.4,154.3 598.4,662.4 600.3,662.4 600.3,156.4 '/>
		<polygon fill = 'rgb( 31, 120, 180)' fill-opacity = '0.250000' points = '600.3,156.4 600.3,662.4 602.2,662.4 602.2,158.5 '/>
		<polygon fill = 'rgb( 31, 120, 180)' fill-opacity = '0.250000' points = '602.2,158.5 602.2,662.4 604.1,662.4 604.1,160.7 '/>
		<polygon fill = 'rgb( 31, 120, 180)' fill-opacity = '0.250000' points = '604.1,160.7 604.1,662.4 606.0,662.4 606.0,163.0 '/>
		<polygon fill = 'rgb( 31, 120, 180)' fill-opacity = '0.250000' points = '606.0,163.0 606.0,662.4 607.9,662.4 607.9,165.3 '/>
		<polygon fill = 'rgb( 31, 120, 180)' fill-opacity = '0.250000' points = '607.9,165.3 607.9,662.4 609.7,662.4 609.7,167.6 '/>
		<polygon fill = 'rgb( 31, 120, 180)' fill-opacity = '0.250000' points = '609.7,167.6 609.7,662.4 611.6,662.4 611.6,170.0 '/>
		<polygon fill = 'rgb( 31, 120, 180)' fill-opacity = '0.250000' points = '611.6,170.0 611.6,662.4 613.5,662.4 613.5,172.5 '/>
		<polygon fill = 'rgb( 31, 120, 180)' fill-opacity = '0.250000' points = '613.5,172.5 613.5,662.4 615.4,662.4 615.4,175.0 '/>
		<polygon fill = 'rgb( 31, 120, 180)' fill-opacity = '0.250000' points = '615.4,175.0 615.4,662.4 617.3,662.4 617.3,177.6 '/>
		<polygon fill = 'rgb( 31, 120, 180)' fill-opacity = '0.250000' points = '617.3,177.6 617.3,662.4 619.2,662.4 619.2,180.2 '/>
		<polygon fill = 'rgb( 31, 120, 180)' fill-opacity = '0.250000' points = '619.2,180.2 619.2,662.4 621.1,662.4 621.1,182.8 '/>
		<polygon fill = 'rgb( 31, 120, 180)' fill-opacity = '0.250000' points = '621.1,182.8 621.1,662.4 623.0,662.4 623.0,185.5 '/>
		<polygon fill = 'rgb( 31, 120, 180)' fill-opacity = '0.250000' points = '623.0,185.5 623.0,662.4 624.8,662.4 624.8,188.3 '/>
		<polygon fill = 'rgb( 31, 120, 180)' fill-opacity = '0.250000' points = '624.8,188.3 624.8,662.4 626.7,662.4 626.7,191.1 '/>
		<polygon fill = 'rgb( 31, 120, 180)' fill-opacity = '0.250000' points = '626.7,191.1 626.7,662.4 628.6,662.4 628.6,194.0 '/>
		<polygon fill = 'rgb( 31, 120, 180)' fill-opacity = '0.250000' points = '628.6,194.0 628.6,662.4 630.5,662.4 630.5,196.9 '/>
		<polygon fill = 'rgb( 31, 120, 180)' fill-opacity = '0.250000' points = '630.5,196.9 630.5,662.4 632.4,662.4 632.4,199.8 '/>
		<polygon fill = 'rgb( 31, 120, 180)' fill-opacity = '0.250000' points = '632.4,199.8 632.4,662.4 634.3,662.4 634.3,202.8 '/>
		<polygon fill = 'rgb( 31, 120, 180)' fill-opacity = '0.250000' points = '634.3,202.8 634.3,662.4 636.2,662.4 636.2,205.8 '/>
		<polygon fill = 'rgb( 31, 120, 180)' fill-opacity = '0.250000' points = '636.2,205.8 636.2,662.4 638.1,662.4 638.1,208.9 '/>
		<polygon fill = 'rgb( 31, 120, 180)' fill-opacity = '0.250000' points = '638.1,208.9 638.1,662.4 639.9,662.4 639.9,212.0 '/>
		<polygon fill = 'rgb( 31, 120, 180)' fill-opacity = '0.250000' points = '639.9,212.0 639.9,662.4 641.8,662.4 641.8,215.0 '/>
		<polygon fill = 'rgb( 31, 120, 180)' fill-opacity = '0.250000' points = '641.8,215.0 641.8,662.4 643.7,662.4 643.7,218.2 '/>
		<polygon fill = 'rgb( 31, 120, 180)' fill-opacity = '0.250000' points = '643.7,218.2 643.7,662.4 645.6,662.4 645.6,221.3 '/>
		<polygon fill = 'rgb( 31, 120, 180)' fill-opacity = '0.250000' points = '645.6,221.3 645.6,662.4 647.5,662.4 647.5,224.4 '/>
		<polygon fill = 'rgb( 31, 120, 180)' fill-opacity = '0.250000' points = '647.5,224.4 647.5,662.4 649.4,662.4 649.4,227.5 '/>
		<polygon fill = 'rgb( 31, 120, 180)' fill-opacity = '0.250000' points = '649.4,227.5 649.4,662.4 651.3,662.4 651.3,230.6 '/>
		<polygon fill = 'rgb( 31, 120, 180)' fill-opacity = '0.250000' points = '651.3,230.6 651.3,662.4 653.1,662.4 653.1,233.7 '/>
		<polygon fill = 'rgb( 31, 120, 180)' fill-opacity = '0.250000' points = '653.1,233.7 653.1,662.4 655.0,662.4 655.0,236.7 '/>
		<polygon fill = 'rgb( 31, 120, 180)' fill-opacity = '0.250000' points = '655.0,236.7 655.0,662.4 656.9,662.4 656.9,239.8 '/>
		<polygon fill = 'rgb( 31, 120, 180)' fill-opacity = '0.250000' points = '656.9,239.8 656.9,662.4 658.8,662.4 658.8,242.8 '/>
		<polygon fill = 'rgb( 31, 120, 180)' fill-opacity = '0.250000' points = '658.8,242.8 658.8,662.4 660.7,662.4 660.7,245.8 '/>
		<polygon fill = 'rgb( 31, 120, 180)' fill-opacity = '0.250000' points = '660.7,245.8 660.7,662.4 662.6,662.4 662.6,248.7 '/>
		<polygon fill = 'rgb( 31, 120, 180)' fill-opacity = '0.250000' points = '662.6,248.7 662.6,662.4 664.5,662.4 664.5,251.6 '/>
		<polygon fill = 'rgb( 31, 120, 180)' fill-opacity = '0.250000' points = '664.5,251.6 664.5,662.4 666.4,662.4 666.4,254.5 '/>
		<polygon fill = 'rgb( 31, 120, 180)' fill-opacity = '0.250000' points = '666.4,254.5 666.4,662.4 668.2,662.4 668.2,257.4 '/>
		<polygon fill = 'rgb( 31, 120, 180)' fill-opacity = '0.250000' points = '668.2,257.4 668.2,662.4 670.1,662.4 670.1,260.2 '/>
		<polygon fill = 'rgb( 31, 120, 180)' fill-opacity = '0.250000' points = '670.1,260.2 670.1,662.4 672.0,662.4 672.0,263.0 '/>
		<polygon fill = 'rgb( 31, 120, 180)' fill-opacity = '0.250000' points = '672.0,263.0 672.0,662.4 673.9,662.4 673.9,265.8 '/>
		<polygon fill = 'rgb( 31, 120, 180)' fill-opacity = '0.250000' points = '673.9,265.8 673.9,662.4 675.8,662.4 675.8,268.5 '/>
		<polygon fill = 'rgb( 31, 120, 180)' fill-opacity = '0.250000' points = '675.8,268.5 675.8,662.4 677.7,662.4 677.7,271.3 '/>
		<polygon fill = 'rgb( 31, 120, 180)' fill-opacity = '0.250000' points = '677.7,271.3 677.7,662.4 679.6,662.4 679.6,274.0 '/>
		<polygon fill = 'rgb( 31, 120, 180)' fill-opacity = '0.250000' points = '679.6,274.0 679.6,662.4 681.5,662.4 681.5,276.8 '/>
		<polygon fill = 'rgb( 31, 120, 180)' fill-opacity = '0.250000' points = '681.5,276.8 681.5,662.4 683.3,662.4 683.3,279.6 '/>
		<polygon fill = 'rgb( 31, 120, 180)' fill-opacity = '0.250000' points = '683.3,279.6 683.3,662.4 685.2,662.4 685.2,282.4 '/>
		<polygon fill = 'rgb( 31, 120, 180)' fill-opacity = '0.250000' points = '685.2,282.4 685.2,662.4 687.1,662.4 687.1,285.2 '/>
		<polygon fill = 'rgb( 31, 120, 180)' fill-opacity = '0.250000' points = '687.1,285.2 687.1,662.4 689.0,662.4 689.0,288.1 '/>
		<polygon fill = 'rgb( 31, 120, 180)' fill-opacity = '0.250000' points = '689.0,288.1 689.0,662.4 690.9,662.4 690.9,291.0 '/>
		<polygon fill = 'rgb( 31, 120, 180)' fill-opacity = '0.250000' points = '690.9,291.0 690.9,662.4 692.8,662.4 692.8,293.9 '/>
		<polygon fill = 'rgb( 31, 120, 180)' fill-opacity = '0.250000' points = '692.8,293.9 692.8,662.4 694.7,662.4 694.7,296.9 '/>
		<polygon fill = 'rgb( 31, 120, 180)' fill-opacity = '0.250000' points = '694.7,296.9 694.7,662.4 696.6,662.4 696.6,300.0 '/>
		<polygon fill = 'rgb( 31, 120, 180)' fill-opacity = '0.250000' points = '696.6,300.0 696.6,662.4 698.4,662.4 698.4,303.1 '/>
		<polygon fill = 'rgb( 31, 120, 180)' fill-opacity = '0.250000' points = '698.4,303.1 698.4,662.4 700.3,662.4 700.3,306.3 '/>
		<polygon fill = 'rgb( 31, 120, 180)' fill-opacity = '0.250000' points = '700.3,306.3 700.3,662.4 702.2,662.4 702.2,309.5 '/>
		<polygon fill = 'rgb( 31, 120, 180)' fill-opacity = '0.250000' points = '702.2,309.5 702.2,662.4 704.1,662.4 704.1,312.7 '/>
		<polygon fill = 'rgb( 31, 120, 180)' fill-opacity = '0.250000' points = '704.1,312.7 704.1,662.4 706.0,662.4 706.0,316.0 '/>
		<polygon fill = 'rgb( 31, 120, 180)' fill-opacity = '0.250000' points = '706.0,316.0 706.0,662.4 707.9,662.4 707.9,319.3 '/>
		<polygon fill = 'rgb( 31, 120, 180)' fill-opacity = '0.250000' points = '707.9,319.3 707.9,662.4 709.8,662.4 709.8,322.7 '/>
		<polygon fill = 'rgb( 31, 120, 180)' fill-opacity = '0.250000' points = '709.8,322.7 709.8,662.4 711.7,662.4 711.7,326.0 '/>
		<polygon fill = 'rgb( 31, 120, 180)' fill-opacity = '0.250000' points = '711.7,326.0 711.7,662.4 713.5,662.4 713.5,329.4 '/>
		<polygon fill = 'rgb( 31, 120, 180)' fill-opacity = '0.250000' points = '713.5,329.4 713.5,662.4 715.4,662.4 715.4,332.8 '/>
		<polygon fill = 'rgb( 31, 120, 180)' fill-opacity = '0.250000' points = '715.4,332.8 715.4,662.4 717.3,662.4 717.3,336.1 '/>
		<polygon fill = 'rgb( 31, 120, 180)' fill-opacity = '0.250000' points = '717.3,336.1 717.3,662.4 719.2,662.4 719.2,339.5 '/>
		<polygon fill = 'rgb( 31, 120, 180)' fill-opacity = '0.250000' points = '719.2,339.5 719.2,662.4 721.1,662.4 721.1,342.8 '/>
		<polygon fill = 'rgb( 31, 120, 180)' fill-opacity = '0.250000' points = '721.1,342.8 721.1,662.4 723.0,662.4 723.0,346.1 '/>
		<polygon fill = 'rgb( 31, 120, 180)' fill-opacity = '0.250000' points = '723.0,346.1 723.0,662.4 724.9,662.4 724.9,349.3 '/>
		<polygon fill = 'rgb( 31, 120, 180)' fill-opacity = '0.250000' points = '724.9,349.3 724.9,662.4 726.7,662.4 726.7,352.5 '/>
		<polygon fill = 'rgb( 31, 120, 180)' fill-opacity = '0.250000' points = '726.7,352.5 726.7,662.4 728.6,662.4 728.6,355.6 '/>
		<polygon fill = 'rgb( 31, 120, 180)' fill-opacity = '0.250000' points = '728.6,355.6 728.6,662.4 730.5,662.4 730.5,358.6 '/>
		<polygon fill = 'rgb( 31, 120, 180)' fill-opacity = '0.250000' points = '730.5,358.6 730.5,662.4 732.4,662.4 732.4,361.6 '/>
		<polygon fill = 'rgb( 31, 120, 180)' fill-opacity = '0.250000' points = '732.4,361.6 732.4,662.4 734.3,662.4 734.3,364.6 '/>
		<polygon fill = 'rgb( 31, 120, 180)' fill-opacity = '0.250000' points = '734.3,364.6 734.3,662.4 736.2,662.4 736.2,367.4 '/>
		<polygon fill = 'rgb( 31, 120, 180)' fill-opacity = '0.250000' points = '736.2,367.4 736.2,662.4 738.1,662.4 738.1,370.2 '/>
		<polygon fill = 'rgb( 31, 120, 180)' fill-opacity = '0.250000' points = '738.1,370.2 738.1,662.4 740.0,662.4 740.0,373.0 '/>
		<polygon fill = 'rgb( 31, 120, 180)' fill-opacity = '0.250000' points = '740.0,373.0 740.0,662.4 741.8,662.4 741.8,375.7 '/>
		<polygon fill = 'rgb( 31, 120, 180)' fill-opacity = '0.250000' points = '741.8,375.7 741.8,662.4 743.7,662.4 743.7,378.3 '/>
		<polygon fill = 'rgb( 31, 120, 180)' fill-opacity = '0.250000' points = '743.7,378.3 743.7,662.4 745.6,662.4 745.6,380.9 '/>
		<polygon fill = 'rgb( 31, 120, 180)' fill-opacity = '0.250000' points = '745.6,380.9 745.6,662.4 747.5,662.4 747.5,383.4 '/>
		<polygon fill = 'rgb( 31, 120, 180)' fill-opacity = '0.250000' points = '747.5,383.4 747.5,662.4 749.4,662.4 749.4,386.0 '/>
		<polygon fill = 'rgb( 31, 120, 180)' fill-opacity = '0.250000' points = '749.4,386.0 749.4,662.4 751.3,662.4 751.3,388.4 '/>
		<polygon fill = 'rgb( 31, 120, 180)' fill-opacity = '0.250000' points = '751.3,388.4 751.3,662.4 753.2,662.4 753.2,390.9 '/>
		<polygon fill = 'rgb( 31, 120, 180)' fill-opacity = '0.250000' points = '753.2,390.9 753.2,662.4 755.1,662.4 755.1,393.4 '/>
		<polygon fill = 'rgb( 31, 120, 180)' fill-opacity = '0.250000' points = '755.1,393.4 755.1,662.4 756.9,662.4 756.9,395.8 '/>
		<polygon fill = 'rgb( 31, 120, 180)' fill-opacity = '0.250000' points = '756.9,395.8 756.9,662.4 758.8,662.4 758.8,398.3 '/>
		<polygon fill = 'rgb( 31, 120, 180)' fill-opacity = '0.250000' points = '758.8,398.3 758.8,662.4 760.7,662.4 760.7,400.7 '/>
		<polygon fill = 'rgb( 31, 120, 180)' fill-opacity = '0.250000' points = '760.7,400.7 760.7,662.4 762.6,662.4 762.6,403.2 '/>
		<polygon fill = 'rgb( 31, 120, 180)' fill-opacity = '0.250000' points = '762.6,403.2 762.6,662.4 764.5,662.4 764.5,405.6 '/>
		<polygon fill = 'rgb( 31, 120, 180)' fill-opacity = '0.250000' points = '764.5,405.6 764.5,662.4 766.4,662.4 766.4,408.1 '/>
		<polygon fill = 'rgb( 31, 120, 180)' fill-opacity = '0.250000' points = '766.4,408.1 766.4,662.4 768.3,662.4 768.3,410.6 '/>
		<polygon fill = 'rgb( 31, 120, 180)' fill-opacity = '0.250000' points = '768.3,410.6 768.3,662.4 770.2,662.4 770.2,413.1 '/>
		<polygon fill = 'rgb( 31, 120, 180)' fill-opacity = '0.250000' points = '770.2,413.1 770.2,662.4 772.0,662.4 772.0,415.6 '/>
		<polygon fill = 'rgb( 31, 120, 180)' fill-opacity = '0.250000' points = '772.0,415.6 772.0,662.4 773.9,662.4 773.9,418.2 '/>
		<polygon fill = 'rgb( 31, 120, 180)' fill-opacity = '0.250000' points = '773.9,418.2 773.9,662.4 775.8,662.4 775.8,420.8 '/>
		<polygon fill = 'rgb( 31, 120, 180)' fill-opacity = '0.250000' points = '775.8,420.8 775.8,662.4 777.7,662.4 777.7,423.4 '/>
		<polygon fill = 'rgb( 31, 120, 180)' fill-opacity = '0.250000' points = '777.7,423.4 777.7,662.4 779.6,662.4 779.6,426.0 '/>
		<polygon fill = 'rgb( 31, 120, 180)' fill-opacity = '0.250000' points = '779.6,426.0 779.6,662.4 781.5,662.4 781.5,428.6 '/>
		<polygon fill = 'rgb( 31, 120, 180)' fill-opacity = '0.250000' points = '781.5,428.6 781.5,662.4 783.4,662.4 783.4,431.3 '/>
		<polygon fill = 'rgb( 31, 120, 180)' fill-opacity = '0.250000' points = '783.4,431.3 783.4,662.4 785.3,662.4 785.3,434.0 '/>
		<polygon fill = 'rgb( 31, 120, 180)' fill-opacity = '0.250000' points = '785.3,434.0 785.3,662.4 787.1,662.4 787.1,436.7 '/>
		<polygon fill = 'rgb( 31, 120, 180)' fill-opacity = '0.250000' points = '787.1,436.7 787.1,662.4 789.0,662.4 789.0,439.4 '/>
		<polygon fill = 'rgb( 31, 120, 180)' fill-opacity = '0.250000' points = '789.0,439.4 789.0,662.4 790.9,662.4 790.9,442.1 '/>
		<polygon fill = 'rgb( 31, 120, 180)' fill-opacity = '0.250000' points = '790.9,442.1 790.9,662.4 792.8,662.4 792.8,444.9 '/>
		<polygon fill = 'rgb( 31, 120, 180)' fill-opacity = '0.250000' points = '792.8,444.9 792.8,662.4 794.7,662.4 794.7,447.6 '/>
		<polygon fill = 'rgb( 31, 120, 180)' fill-opacity = '0.250000' points = '794.7,447.6 794.7,662.4 796.6,662.4 796.6,450.4 '/>
		<polygon fill = 'rgb( 31, 120, 180)' fill-opacity = '0.250000' points = '796.6,450.4 796.6,662.4 798.5,662.4 798.5,453.1 '/>
		<polygon fill = 'rgb( 31, 120, 180)' fill-opacity = '0.250000' points = '798.5,453.1 798.5,662.4 800.3,662.4 800.3,455.8 '/>
		<polygon fill = 'rgb( 31, 120, 180)' fill-opacity = '0.250000' points = '800.3,455.8 800.3,662.4 802.2,662.4 802.2,458.6 '/>
		<polygon fill = 'rgb( 31, 120, 180)' fill-opacity = '0.250000' points = '802.2,458.6 802.2,662.4 804.1,662.4 804.1,461.3 '/>
		<polygon fill = 'rgb( 31, 120, 180)' fill-opacity = '0.250000' points = '804.1,461.3 804.1,662.4 806.0,662.4 806.0,464.0 '/>
		<polygon fill = 'rgb( 31, 120, 180)' fill-opacity = '0.250000' points = '806.0,464.0 806.0,662.4 807.9,662.4 807.9,466.6 '/>
		<polygon fill = 'rgb( 31, 120, 180)' fill-opacity = '0.250000' points = '807.9,466.6 807.9,662.4 809.8,662.4 809.8,469.3 '/>
		<polygon fill = 'rgb( 31, 120, 180)' fill-opacity = '0.250000' points = '809.8,469.3 809.8,662.4 811.7,662.4 811.7,471.9 '/>
		<polygon fill = 'rgb( 31, 120, 180)' fill-opacity = '0.250000' points = '811.7,471.9 811.7,662.4 813.6,662.4 813.6,474.5 '/>
		<polygon fill = 'rgb( 31, 120, 180)' fill-opacity = '0.250000' points = '813.6,474.5 813.6,662.4 815.4,662.4 815.4,477.1 '/>
		<polygon fill = 'rgb( 31, 120, 180)' fill-opacity = '0.250000' points = '815.4,477.1 815.4,662.4 817.3,662.4 817.3,479.6 '/>
		<polygon fill = 'rgb( 31, 120, 180)' fill-opacity = '0.250000' points = '817.3,479.6 817.3,662.4 819.2,662.4 819.2,482.2 '/>
		<polygon fill = 'rgb( 31, 120, 180)' fill-opacity = '0.250000' points = '819.2,482.2 819.2,662.4 821.1,662.4 821.1,484.7 '/>
		<polygon fill = 'rgb( 31, 120, 180)' fill-opacity = '0.250000' points = '821.1,484.7 821.1,662.4 823.0,662.4 823.0,487.2 '/>
		<polygon fill = 'rgb( 31, 120, 180)' fill-opacity = '0.250000' points = '823.0,487.2 823.0,662.4 824.9,662.4 824.9,489.6 '/>
		<polygon fill = 'rgb( 31, 120, 180)' fill-opacity = '0.250000' points = '824.9,489.6 824.9,662.4 826.8,662.4 826.8,492.1 '/>
		<polygon fill = 'rgb( 31, 120, 180)' fill-opacity = '0.250000' points = '826.8,492.1 826.8,662.4 828.7,662.4 828.7,494.5 '/>
		<polygon fill = 'rgb( 31, 120, 180)' fill-opacity = '0.250000' points = '828.7,494.5 828.7,662.4 830.5,662.4 830.5,496.9 '/>
		<polygon fill = 'rgb( 31, 120, 180)' fill-opacity = '0.250000' points = '830.5,496.9 830.5,662.4 832.4,662.4 832.4,499.3 '/>
		<polygon fill = 'rgb( 31, 120, 180)' fill-opacity = '0.250000' points = '832.4,499.3 832.4,662.4 834.3,662.4 834.3,501.7 '/>
		<polygon fill = 'rgb( 31, 120, 180)' fill-opacity = '0.250000' points = '834.3,501.7 834.3,662.4 836.2,662.4 836.2,504.0 '/>
		<polygon fill = 'rgb( 31, 120, 180)' fill-opacity = '0.250000' points = '836.2,504.0 836.2,662.4 838.1,662.4 838.1,506.3 '/>
		<polygon fill = 'rgb( 31, 120, 180)' fill-opacity = '0.250000' points = '838.1,506.3 838.1,662.4 840.0,662.4 840.0,508.6 '/>
		<polygon fill = 'rgb( 31, 120, 180)' fill-opacity = '0.250000' points = '840.0,508.6 840.0,662.4 841.9,662.4 841.9,510.9 '/>
		<polygon fill = 'rgb( 31, 120, 180)' fill-opacity = '0.250000' points = '841.9,510.9 841.9,662.4 843.8,662.4 843.8,513.2 '/>
		<polygon fill = 'rgb( 31, 120, 180)' fill-opacity = '0.250000' points = '843.8,513.2 843.8,662.4 845.6,662.4 845.6,515.5 '/>
		<polygon fill = 'rgb( 31, 120, 180)' fill-opacity = '0.250000' points = '845.6,515.5 845.6,662.4 847.5,662.4 847.5,517.7 '/>
		<polygon fill = 'rgb( 31, 120, 180)' fill-opacity = '0.250000' points = '847.5,517.7 847.5,662.4 849.4,662.4 849.4,519.9 '/>
		<polygon fill = 'rgb( 31, 120, 180)' fill-opacity = '0.250000' points = '849.4,519.9 849.4,662.4 851.3,662.4 851.3,522.1 '/>
		<polygon fill = 'rgb( 31, 120, 180)' fill-opacity = '0.250000' points = '851.3,522.1 851.3,662.4 853.2,662.4 853.2,524.3 '/>
		<polygon fill = 'rgb( 31, 120, 180)' fill-opacity = '0.250000' points = '853.2,524.3 853.2,662.4 855.1,662.4 855.1,526.4 '/>
		<polygon fill = 'rgb( 31, 120, 180)' fill-opacity = '0.250000' points = '855.1,526.4 855.1,662.4 857.0,662.4 857.0,528.5 '/>
		<polygon fill = 'rgb( 31, 120, 180)' fill-opacity = '0.250000' points = '857.0,528.5 857.0,662.4 858.9,662.4 858.9,530.6 '/>
		<polygon fill = 'rgb( 31, 120, 180)' fill-opacity = '0.250000' points = '858.9,530.6 858.9,662.4 860.7,662.4 860.7,532.7 '/>
		<polygon fill = 'rgb( 31, 120, 180)' fill-opacity = '0.250000' points = '860.7,532.7 860.7,662.4 862.6,662.4 862.6,534.7 '/>
		<polygon fill = 'rgb( 31, 120, 180)' fill-opacity = '0.250000' points = '862.6,534.7 862.6,662.4 864.5,662.4 864.5,536.7 '/>
		<polygon fill = 'rgb( 31, 120, 180)' fill-opacity = '0.250000' points = '864.5,536.7 864.5,662.4 866.4,662.4 866.4,538.8 '/>
		<polygon fill = 'rgb( 31, 120, 180)' fill-opacity = '0.250000' points = '866.4,538.8 866.4,662.4 868.3,662.4 868.3,540.7 '/>
		<polygon fill = 'rgb( 31, 120, 180)' fill-opacity = '0.250000' points = '868.3,540.7 868.3,662.4 870.2,662.4 870.2,542.7 '/>
		<polygon fill = 'rgb( 31, 120, 180)' fill-opacity = '0.250000' points = '870.2,542.7 870.2,662.4 872.1,662.4 872.1,544.7 '/>
		<polygon fill = 'rgb( 31, 120, 180)' fill-opacity = '0.250000' points = '872.1,544.7 872.1,662.4 873.9,662.4 873.9,546.6 '/>
		<polygon fill = 'rgb( 31, 120, 180)' fill-opacity = '0.250000' points = '873.9,546.6 873.9,662.4 875.8,662.4 875.8,548.5 '/>
		<polygon fill = 'rgb( 31, 120, 180)' fill-opacity = '0.250000' points = '875.8,548.5 875.8,662.4 877.7,662.4 877.7,550.4 '/>
		<polygon fill = 'rgb( 31, 120, 180)' fill-opacity = '0.250000' points = '877.7,550.4 877.7,662.4 879.6,662.4 879.6,552.3 '/>
		<polygon fill = 'rgb( 31, 120, 180)' fill-opacity = '0.250000' points = '879.6,552.3 879.6,662.4 881.5,662.4 881.5,554.2 '/>
		<polygon fill = 'rgb( 31, 120, 180)' fill-opacity = '0.250000' points = '881.5,554.2 881.5,662.4 883.4,662.4 883.4,556.0 '/>
		<polygon fill = 'rgb( 31, 120, 180)' fill-opacity = '0.250000' points = '883.4,556.0 883.4,662.4 885.3,662.4 885.3,557.8 '/>
		<polygon fill = 'rgb( 31, 120, 180)' fill-opacity = '0.250000' points = '885.3,557.8 885.3,662.4 887.2,662.4 887.2,559.6 '/>
		<polygon fill = 'rgb( 31, 120, 180)' fill-opacity = '0.250000' points = '887.2,559.6 887.2,662.4 889.0,662.4 889.0,561.4 '/>
		<polygon fill = 'rgb( 31, 120, 180)' fill-opacity = '0.250000' points = '889.0,561.4 889.0,662.4 890.9,662.4 890.9,563.1 '/>
		<polygon fill = 'rgb( 31, 120, 180)' fill-opacity = '0.250000' points = '890.9,563.1 890.9,662.4 892.8,662.4 892.8,564.8 '/>
		<polygon fill = 'rgb( 31, 120, 180)' fill-opacity = '0.250000' points = '892.8,564.8 892.8,662.4 894.7,662.4 894.7,566.5 '/>
		<polygon fill = 'rgb( 31, 120, 180)' fill-opacity = '0.250000' points = '894.7,566.5 894.7,662.4 896.6,662.4 896.6,568.1 '/>
		<polygon fill = 'rgb( 31, 120, 180)' fill-opacity = '0.250000' points = '896.6,568.1 896.6,662.4 898.5,662.4 898.5,569.8 '/>
		<polygon fill = 'rgb( 31, 120, 180)' fill-opacity = '0.250000' points = '898.5,569.8 898.5,662.4 900.4,662.4 900.4,571.3 '/>
		<polygon fill = 'rgb( 31, 120, 180)' fill-opacity = '0.250000' points = '900.4,571.3 900.4,662.4 902.3,662.4 902.3,572.9 '/>
		<polygon fill = 'rgb( 31, 120, 180)' fill-opacity = '0.250000' points = '902.3,572.9 902.3,662.4 904.1,662.4 904.1,574.3 '/>
		<polygon fill = 'rgb( 31, 120, 180)' fill-opacity = '0.250000' points = '904.1,574.3 904.1,662.4 906.0,662.4 906.0,575.8 '/>
		<polygon fill = 'rgb( 31, 120, 180)' fill-opacity = '0.250000' points = '906.0,575.8 906.0,662.4 907.9,662.4 907.9,577.2 '/>
		<polygon fill = 'rgb( 31, 120, 180)' fill-opacity = '0.250000' points = '907.9,577.2 907.9,662.4 909.8,662.4 909.8,578.6 '/>
		<polygon fill = 'rgb( 31, 120, 180)' fill-opacity = '0.250000' points = '909.8,578.6 909.8,662.4 911.7,662.4 911.7,580.0 '/>
		<polygon fill = 'rgb( 31, 120, 180)' fill-opacity = '0.250000' points = '911.7,580.0 911.7,662.4 913.6,662.4 913.6,581.3 '/>
		<polygon fill = 'rgb( 31, 120, 180)' fill-opacity = '0.250000' points = '913.6,581.3 913.6,662.4 915.5,662.4 915.5,582.6 '/>
		<polygon fill = 'rgb( 31, 120, 180)' fill-opacity = '0.250000' points = '915.5,582.6 915.5,662.4 917.4,662.4 917.4,583.9 '/>
		<polygon fill = 'rgb( 31, 120, 180)' fill-opacity = '0.250000' points = '917.4,583.9 917.4,662.4 919.2,662.4 919.2,585.2 '/>
		<polygon fill = 'rgb( 31, 120, 180)' fill-opacity = '0.250000' points = '919.2,585.2 919.2,662.4 921.1,662.4 921.1,586.4 '/>
		<polygon fill = 'rgb( 31, 120, 180)' fill-opacity = '0.250000' points = '921.1,586.4 921.1,662.4 923.0,662.4 923.0,587.6 '/>
		<polygon fill = 'rgb( 31, 120, 180)' fill-opacity = '0.250000' points = '923.0,587.6 923.0,662.4 924.9,662.4 924.9,588.8 '/>
	</g>
</g>
	</g>
	<g id="gnuplot_plot_3" ><title>Point estimate</title>
<g fill="none" color="white" stroke="rgb( 31, 120, 180)" stroke-width="2.00" stroke-linecap="butt" stroke-linejoin="miter">
</g>
<g fill="none" color="black" stroke="currentColor" stroke-width="2.00" stroke-linecap="butt" stroke-linejoin="miter">
	<g transform="translate(1089.0,103.0)" stroke="none" fill="black" font-family="Helvetica" font-size="12.00"  text-anchor="start">
		<text><tspan font-family="Helvetica" >Point estimate</tspan></text>
	</g>
</g>
<g fill="none" color="black" stroke="currentColor" stroke-width="2.00" stroke-linecap="butt" stroke-linejoin="miter">
	<path stroke='rgb( 31, 120, 180)'  d='M1038.5,99.1 L1080.7,99.1 M522.4,662.4 L522.4,104.3  '/></g>
	</g>
	<g id="gnuplot_plot_4" ><title>Noise threshold</title>
<g fill="none" color="white" stroke="rgb( 31, 120, 180)" stroke-width="1.00" stroke-linecap="butt" stroke-linejoin="miter">
</g>
<g fill="none" color="black" stroke="currentColor" stroke-width="1.00" stroke-linecap="butt" stroke-linejoin="miter">
	<g transform="translate(1089.0,121.0)" stroke="none" fill="black" font-family="Helvetica" font-size="12.00"  text-anchor="start">
		<text><tspan font-family="Helvetica" >Noise threshold</tspan></text>
	</g>
</g>
<g fill="none" color="black" stroke="currentColor" stroke-width="1.00" stroke-linecap="butt" stroke-linejoin="miter">
	<g stroke='none' shape-rendering='crispEdges'>
		<polygon fill = 'rgb(227,  26,  28)' fill-opacity = '0.100000' points = '1038.5,121.6 1080.7,121.6 1080.7,112.6 1038.5,112.6 '/>
		<polygon fill = 'rgb(227,  26,  28)' fill-opacity = '0.100000' points = '542.8,54.1 542.8,662.4 542.8,662.4 542.8,54.1 '/>
	</g>
</g>
	</g>
<g fill="none" color="white" stroke="rgb(227,  26,  28)" stroke-width="2.00" stroke-linecap="butt" stroke-linejoin="miter">
</g>
<g fill="none" color="black" stroke="currentColor" stroke-width="2.00" stroke-linecap="butt" stroke-linejoin="miter">
</g>
<g fill="none" color="black" stroke="black" stroke-width="1.00" stroke-linecap="butt" stroke-linejoin="miter">
</g>
<g fill="none" color="black" stroke="currentColor" stroke-width="1.00" stroke-linecap="butt" stroke-linejoin="miter">
	<path stroke='black'  d='M71.9,54.1 L71.9,662.4 L1013.6,662.4 L1013.6,54.1 L71.9,54.1 Z  '/></g>
<g fill="none" color="black" stroke="currentColor" stroke-width="1.00" stroke-linecap="butt" stroke-linejoin="miter">
</g>
</g>
</svg>

