<?xml version="1.0" encoding="utf-8"  standalone="no"?>
<!DOCTYPE svg PUBLIC "-//W3C//DTD SVG 1.1//EN"
 "http://www.w3.org/Graphics/SVG/1.1/DTD/svg11.dtd">
<svg 
 viewBox="0 0 1280 720"
 xmlns="http://www.w3.org/2000/svg"
 xmlns:xlink="http://www.w3.org/1999/xlink"
>

<title>Gnuplot</title>
<desc>Produced by GNUPLOT 5.0 patchlevel 5 </desc>

<g id="gnuplot_canvas">

<rect x="0" y="0" width="1280" height="720" fill="none"/>
<defs>

	<circle id='gpDot' r='0.5' stroke-width='0.5'/>
	<path id='gpPt0' stroke-width='0.222' stroke='currentColor' d='M-1,0 h2 M0,-1 v2'/>
	<path id='gpPt1' stroke-width='0.222' stroke='currentColor' d='M-1,-1 L1,1 M1,-1 L-1,1'/>
	<path id='gpPt2' stroke-width='0.222' stroke='currentColor' d='M-1,0 L1,0 M0,-1 L0,1 M-1,-1 L1,1 M-1,1 L1,-1'/>
	<rect id='gpPt3' stroke-width='0.222' stroke='currentColor' x='-1' y='-1' width='2' height='2'/>
	<rect id='gpPt4' stroke-width='0.222' stroke='currentColor' fill='currentColor' x='-1' y='-1' width='2' height='2'/>
	<circle id='gpPt5' stroke-width='0.222' stroke='currentColor' cx='0' cy='0' r='1'/>
	<use xlink:href='#gpPt5' id='gpPt6' fill='currentColor' stroke='none'/>
	<path id='gpPt7' stroke-width='0.222' stroke='currentColor' d='M0,-1.33 L-1.33,0.67 L1.33,0.67 z'/>
	<use xlink:href='#gpPt7' id='gpPt8' fill='currentColor' stroke='none'/>
	<use xlink:href='#gpPt7' id='gpPt9' stroke='currentColor' transform='rotate(180)'/>
	<use xlink:href='#gpPt9' id='gpPt10' fill='currentColor' stroke='none'/>
	<use xlink:href='#gpPt3' id='gpPt11' stroke='currentColor' transform='rotate(45)'/>
	<use xlink:href='#gpPt11' id='gpPt12' fill='currentColor' stroke='none'/>
	<path id='gpPt13' stroke-width='0.222' stroke='currentColor' d='M0,1.330 L1.265,0.411 L0.782,-1.067 L-0.782,-1.076 L-1.265,0.411 z'/>
	<use xlink:href='#gpPt13' id='gpPt14' fill='currentColor' stroke='none'/>
	<filter id='textbox' filterUnits='objectBoundingBox' x='0' y='0' height='1' width='1'>
	  <feFlood flood-color='white' flood-opacity='1' result='bgnd'/>
	  <feComposite in='SourceGraphic' in2='bgnd' operator='atop'/>
	</filter>
	<filter id='greybox' filterUnits='objectBoundingBox' x='0' y='0' height='1' width='1'>
	  <feFlood flood-color='lightgrey' flood-opacity='1' result='grey'/>
	  <feComposite in='SourceGraphic' in2='grey' operator='atop'/>
	</filter>
</defs>
<g fill="none" color="white" stroke="currentColor" stroke-width="1.00" stroke-linecap="butt" stroke-linejoin="miter">
</g>
<g fill="none" color="black" stroke="currentColor" stroke-width="1.00" stroke-linecap="butt" stroke-linejoin="miter">
	<path stroke='black'  d='M63.6,662.4 L72.6,662.4  '/>	<g transform="translate(55.3,666.3)" stroke="none" fill="black" font-family="Helvetica" font-size="12.00"  text-anchor="end">
		<text><tspan font-family="Helvetica" > 0</tspan></text>
	</g>
</g>
<g fill="none" color="black" stroke="currentColor" stroke-width="1.00" stroke-linecap="butt" stroke-linejoin="miter">
	<path stroke='black'  d='M63.6,575.5 L72.6,575.5  '/>	<g transform="translate(55.3,579.4)" stroke="none" fill="black" font-family="Helvetica" font-size="12.00"  text-anchor="end">
		<text><tspan font-family="Helvetica" > 10</tspan></text>
	</g>
</g>
<g fill="none" color="black" stroke="currentColor" stroke-width="1.00" stroke-linecap="butt" stroke-linejoin="miter">
	<path stroke='black'  d='M63.6,488.6 L72.6,488.6  '/>	<g transform="translate(55.3,492.5)" stroke="none" fill="black" font-family="Helvetica" font-size="12.00"  text-anchor="end">
		<text><tspan font-family="Helvetica" > 20</tspan></text>
	</g>
</g>
<g fill="none" color="black" stroke="currentColor" stroke-width="1.00" stroke-linecap="butt" stroke-linejoin="miter">
	<path stroke='black'  d='M63.6,401.7 L72.6,401.7  '/>	<g transform="translate(55.3,405.6)" stroke="none" fill="black" font-family="Helvetica" font-size="12.00"  text-anchor="end">
		<text><tspan font-family="Helvetica" > 30</tspan></text>
	</g>
</g>
<g fill="none" color="black" stroke="currentColor" stroke-width="1.00" stroke-linecap="butt" stroke-linejoin="miter">
	<path stroke='black'  d='M63.6,314.8 L72.6,314.8  '/>	<g transform="translate(55.3,318.7)" stroke="none" fill="black" font-family="Helvetica" font-size="12.00"  text-anchor="end">
		<text><tspan font-family="Helvetica" > 40</tspan></text>
	</g>
</g>
<g fill="none" color="black" stroke="currentColor" stroke-width="1.00" stroke-linecap="butt" stroke-linejoin="miter">
	<path stroke='black'  d='M63.6,227.9 L72.6,227.9  '/>	<g transform="translate(55.3,231.8)" stroke="none" fill="black" font-family="Helvetica" font-size="12.00"  text-anchor="end">
		<text><tspan font-family="Helvetica" > 50</tspan></text>
	</g>
</g>
<g fill="none" color="black" stroke="currentColor" stroke-width="1.00" stroke-linecap="butt" stroke-linejoin="miter">
	<path stroke='black'  d='M63.6,141.0 L72.6,141.0  '/>	<g transform="translate(55.3,144.9)" stroke="none" fill="black" font-family="Helvetica" font-size="12.00"  text-anchor="end">
		<text><tspan font-family="Helvetica" > 60</tspan></text>
	</g>
</g>
<g fill="none" color="black" stroke="currentColor" stroke-width="1.00" stroke-linecap="butt" stroke-linejoin="miter">
	<path stroke='black'  d='M63.6,54.1 L72.6,54.1  '/>	<g transform="translate(55.3,58.0)" stroke="none" fill="black" font-family="Helvetica" font-size="12.00"  text-anchor="end">
		<text><tspan font-family="Helvetica" > 70</tspan></text>
	</g>
</g>
<g fill="none" color="black" stroke="currentColor" stroke-width="1.00" stroke-linecap="butt" stroke-linejoin="miter">
	<path stroke='black'  d='M173.9,662.4 L173.9,653.4  '/>	<g transform="translate(173.9,684.3)" stroke="none" fill="black" font-family="Helvetica" font-size="12.00"  text-anchor="middle">
		<text><tspan font-family="Helvetica" >-3</tspan></text>
	</g>
</g>
<g fill="none" color="black" stroke="currentColor" stroke-width="1.00" stroke-linecap="butt" stroke-linejoin="miter">
	<path stroke='black'  d='M345.8,662.4 L345.8,653.4  '/>	<g transform="translate(345.8,684.3)" stroke="none" fill="black" font-family="Helvetica" font-size="12.00"  text-anchor="middle">
		<text><tspan font-family="Helvetica" >-2.5</tspan></text>
	</g>
</g>
<g fill="none" color="black" stroke="currentColor" stroke-width="1.00" stroke-linecap="butt" stroke-linejoin="miter">
	<path stroke='black'  d='M517.8,662.4 L517.8,653.4  '/>	<g transform="translate(517.8,684.3)" stroke="none" fill="black" font-family="Helvetica" font-size="12.00"  text-anchor="middle">
		<text><tspan font-family="Helvetica" >-2</tspan></text>
	</g>
</g>
<g fill="none" color="black" stroke="currentColor" stroke-width="1.00" stroke-linecap="butt" stroke-linejoin="miter">
	<path stroke='black'  d='M689.7,662.4 L689.7,653.4  '/>	<g transform="translate(689.7,684.3)" stroke="none" fill="black" font-family="Helvetica" font-size="12.00"  text-anchor="middle">
		<text><tspan font-family="Helvetica" >-1.5</tspan></text>
	</g>
</g>
<g fill="none" color="black" stroke="currentColor" stroke-width="1.00" stroke-linecap="butt" stroke-linejoin="miter">
	<path stroke='black'  d='M861.6,662.4 L861.6,653.4  '/>	<g transform="translate(861.6,684.3)" stroke="none" fill="black" font-family="Helvetica" font-size="12.00"  text-anchor="middle">
		<text><tspan font-family="Helvetica" >-1</tspan></text>
	</g>
</g>
<g fill="none" color="black" stroke="currentColor" stroke-width="1.00" stroke-linecap="butt" stroke-linejoin="miter">
</g>
<g fill="none" color="black" stroke="currentColor" stroke-width="1.00" stroke-linecap="butt" stroke-linejoin="miter">
	<path stroke='black'  d='M63.6,54.1 L63.6,662.4 L1013.6,662.4 L1013.6,54.1 L63.6,54.1 Z  '/></g>
<g fill="none" color="black" stroke="currentColor" stroke-width="1.00" stroke-linecap="butt" stroke-linejoin="miter">
	<g transform="translate(17.0,358.3) rotate(270)" stroke="none" fill="black" font-family="Helvetica" font-size="12.00"  text-anchor="middle">
		<text><tspan font-family="Helvetica" >Density (a.u.)</tspan></text>
	</g>
</g>
<g fill="none" color="black" stroke="currentColor" stroke-width="1.00" stroke-linecap="butt" stroke-linejoin="miter">
	<g transform="translate(538.6,711.3)" stroke="none" fill="black" font-family="Helvetica" font-size="12.00"  text-anchor="middle">
		<text><tspan font-family="Helvetica" >Relative change (%)</tspan></text>
	</g>
</g>
<g fill="none" color="black" stroke="currentColor" stroke-width="1.00" stroke-linecap="butt" stroke-linejoin="miter">
	<g transform="translate(538.6,31.0)" stroke="none" fill="black" font-family="Helvetica" font-size="12.00"  text-anchor="middle">
		<text><tspan font-family="Helvetica" >dfs arena ghostcell vec immut: mean</tspan></text>
	</g>
</g>
	<g id="gnuplot_plot_1" ><title>Bootstrap distribution</title>
<g fill="none" color="white" stroke="black" stroke-width="2.00" stroke-linecap="butt" stroke-linejoin="miter">
</g>
<g fill="none" color="black" stroke="currentColor" stroke-width="2.00" stroke-linecap="butt" stroke-linejoin="miter">
	<g transform="translate(1089.0,67.0)" stroke="none" fill="black" font-family="Helvetica" font-size="12.00"  text-anchor="start">
		<text><tspan font-family="Helvetica" >Bootstrap distribution</tspan></text>
	</g>
</g>
<g fill="none" color="black" stroke="currentColor" stroke-width="2.00" stroke-linecap="butt" stroke-linejoin="miter">
	<path stroke='rgb( 31, 120, 180)'  d='M1038.5,63.1 L1080.7,63.1 M63.6,627.5 L65.5,626.7 L67.4,625.9 L69.3,625.0 L71.2,624.1 L73.1,623.2
		L75.0,622.2 L76.9,621.3 L78.8,620.3 L80.7,619.3 L82.6,618.3 L84.5,617.3 L86.4,616.3 L88.3,615.3
		L90.3,614.3 L92.2,613.3 L94.1,612.2 L96.0,611.2 L97.9,610.2 L99.8,609.1 L101.7,608.1 L103.6,607.1
		L105.5,606.0 L107.4,605.0 L109.3,603.9 L111.2,602.8 L113.1,601.7 L115.0,600.6 L116.9,599.4 L118.8,598.2
		L120.7,597.0 L122.6,595.8 L124.5,594.5 L126.4,593.2 L128.3,591.9 L130.2,590.5 L132.1,589.1 L134.0,587.7
		L135.9,586.2 L137.8,584.6 L139.8,583.1 L141.7,581.5 L143.6,579.8 L145.5,578.1 L147.4,576.4 L149.3,574.7
		L151.2,572.9 L153.1,571.1 L155.0,569.3 L156.9,567.4 L158.8,565.5 L160.7,563.6 L162.6,561.7 L164.5,559.8
		L166.4,557.8 L168.3,555.9 L170.2,553.9 L172.1,552.0 L174.0,550.0 L175.9,548.0 L177.8,546.0 L179.7,544.0
		L181.6,542.0 L183.5,540.0 L185.4,538.0 L187.3,536.0 L189.3,533.9 L191.2,531.9 L193.1,529.8 L195.0,527.8
		L196.9,525.7 L198.8,523.6 L200.7,521.4 L202.6,519.3 L204.5,517.1 L206.4,514.9 L208.3,512.7 L210.2,510.5
		L212.1,508.2 L214.0,505.9 L215.9,503.6 L217.8,501.2 L219.7,498.8 L221.6,496.4 L223.5,494.0 L225.4,491.6
		L227.3,489.1 L229.2,486.6 L231.1,484.1 L233.0,481.6 L234.9,479.1 L236.8,476.6 L238.8,474.0 L240.7,471.5
		L242.6,468.9 L244.5,466.3 L246.4,463.7 L248.3,461.1 L250.2,458.5 L252.1,455.9 L254.0,453.3 L255.9,450.7
		L257.8,448.0 L259.7,445.3 L261.6,442.6 L263.5,439.9 L265.4,437.2 L267.3,434.4 L269.2,431.7 L271.1,428.8
		L273.0,426.0 L274.9,423.1 L276.8,420.2 L278.7,417.2 L280.6,414.1 L282.5,411.1 L284.4,407.9 L286.3,404.7
		L288.2,401.4 L290.2,398.1 L292.1,394.6 L294.0,391.2 L295.9,387.6 L297.8,384.0 L299.7,380.4 L301.6,376.7
		L303.5,372.9 L305.4,369.1 L307.3,365.3 L309.2,361.5 L311.1,357.6 L313.0,353.7 L314.9,349.9 L316.8,346.0
		L318.7,342.1 L320.6,338.3 L322.5,334.5 L324.4,330.8 L326.3,327.1 L328.2,323.4 L330.1,319.8 L332.0,316.2
		L333.9,312.7 L335.8,309.2 L337.7,305.8 L339.7,302.4 L341.6,299.1 L343.5,295.8 L345.4,292.6 L347.3,289.4
		L349.2,286.2 L351.1,283.0 L353.0,279.8 L354.9,276.6 L356.8,273.4 L358.7,270.2 L360.6,267.0 L362.5,263.7
		L364.4,260.4 L366.3,257.1 L368.2,253.7 L370.1,250.3 L372.0,246.9 L373.9,243.4 L375.8,239.9 L377.7,236.4
		L379.6,232.9 L381.5,229.4 L383.4,225.8 L385.3,222.3 L387.2,218.8 L389.2,215.3 L391.1,211.8 L393.0,208.3
		L394.9,204.8 L396.8,201.4 L398.7,198.0 L400.6,194.5 L402.5,191.1 L404.4,187.8 L406.3,184.4 L408.2,181.0
		L410.1,177.7 L412.0,174.4 L413.9,171.0 L415.8,167.7 L417.7,164.5 L419.6,161.2 L421.5,158.0 L423.4,154.8
		L425.3,151.6 L427.2,148.5 L429.1,145.4 L431.0,142.3 L432.9,139.3 L434.8,136.4 L436.7,133.6 L438.7,130.8
		L440.6,128.0 L442.5,125.4 L444.4,122.8 L446.3,120.4 L448.2,118.0 L450.1,115.7 L452.0,113.5 L453.9,111.4
		L455.8,109.4 L457.7,107.5 L459.6,105.7 L461.5,104.0 L463.4,102.3 L465.3,100.8 L467.2,99.4 L469.1,98.0
		L471.0,96.7 L472.9,95.5 L474.8,94.4 L476.7,93.3 L478.6,92.2 L480.5,91.2 L482.4,90.2 L484.3,89.3
		L486.2,88.3 L488.1,87.4 L490.1,86.4 L492.0,85.4 L493.9,84.4 L495.8,83.4 L497.7,82.4 L499.6,81.4
		L501.5,80.3 L503.4,79.2 L505.3,78.1 L507.2,76.9 L509.1,75.8 L511.0,74.7 L512.9,73.5 L514.8,72.4
		L516.7,71.3 L518.6,70.2 L520.5,69.1 L522.4,68.1 L524.3,67.2 L526.2,66.2 L528.1,65.4 L530.0,64.6
		L531.9,63.8 L533.8,63.2 L535.7,62.6 L537.6,62.1 L539.6,61.6 L541.5,61.2 L543.4,60.9 L545.3,60.7
		L547.2,60.5 L549.1,60.4 L551.0,60.4 L552.9,60.5 L554.8,60.6 L556.7,60.8 L558.6,61.0 L560.5,61.4
		L562.4,61.8 L564.3,62.3 L566.2,62.9 L568.1,63.6 L570.0,64.3 L571.9,65.2 L573.8,66.1 L575.7,67.2
		L577.6,68.3 L579.5,69.5 L581.4,70.9 L583.3,72.3 L585.2,73.8 L587.1,75.4 L589.1,77.1 L591.0,78.8
		L592.9,80.7 L594.8,82.6 L596.7,84.6 L598.6,86.6 L600.5,88.8 L602.4,90.9 L604.3,93.2 L606.2,95.4
		L608.1,97.7 L610.0,100.1 L611.9,102.4 L613.8,104.8 L615.7,107.1 L617.6,109.5 L619.5,111.8 L621.4,114.1
		L623.3,116.5 L625.2,118.7 L627.1,121.0 L629.0,123.2 L630.9,125.4 L632.8,127.6 L634.7,129.8 L636.6,132.0
		L638.5,134.1 L640.5,136.3 L642.4,138.5 L644.3,140.6 L646.2,142.9 L648.1,145.1 L650.0,147.5 L651.9,149.8
		L653.8,152.3 L655.7,154.8 L657.6,157.4 L659.5,160.1 L661.4,162.9 L663.3,165.7 L665.2,168.7 L667.1,171.7
		L669.0,174.8 L670.9,178.0 L672.8,181.2 L674.7,184.5 L676.6,187.8 L678.5,191.2 L680.4,194.6 L682.3,198.0
		L684.2,201.5 L686.1,204.9 L688.0,208.4 L690.0,211.9 L691.9,215.4 L693.8,219.0 L695.7,222.5 L697.6,226.0
		L699.5,229.6 L701.4,233.1 L703.3,236.7 L705.2,240.2 L707.1,243.8 L709.0,247.3 L710.9,250.8 L712.8,254.4
		L714.7,257.9 L716.6,261.4 L718.5,264.8 L720.4,268.3 L722.3,271.7 L724.2,275.0 L726.1,278.4 L728.0,281.7
		L729.9,285.0 L731.8,288.2 L733.7,291.4 L735.6,294.6 L737.5,297.8 L739.5,301.0 L741.4,304.1 L743.3,307.3
		L745.2,310.4 L747.1,313.6 L749.0,316.8 L750.9,320.0 L752.8,323.2 L754.7,326.5 L756.6,329.8 L758.5,333.1
		L760.4,336.4 L762.3,339.8 L764.2,343.2 L766.1,346.6 L768.0,350.1 L769.9,353.5 L771.8,357.0 L773.7,360.4
		L775.6,363.9 L777.5,367.3 L779.4,370.8 L781.3,374.2 L783.2,377.6 L785.1,381.0 L787.0,384.3 L789.0,387.6
		L790.9,390.9 L792.8,394.2 L794.7,397.4 L796.6,400.6 L798.5,403.8 L800.4,406.9 L802.3,410.0 L804.2,413.1
		L806.1,416.1 L808.0,419.2 L809.9,422.2 L811.8,425.2 L813.7,428.2 L815.6,431.1 L817.5,434.1 L819.4,437.1
		L821.3,440.0 L823.2,443.0 L825.1,445.9 L827.0,448.8 L828.9,451.8 L830.8,454.7 L832.7,457.6 L834.6,460.5
		L836.5,463.4 L838.4,466.3 L840.4,469.2 L842.3,472.0 L844.2,474.9 L846.1,477.7 L848.0,480.5 L849.9,483.3
		L851.8,486.1 L853.7,488.9 L855.6,491.6 L857.5,494.3 L859.4,497.0 L861.3,499.7 L863.2,502.3 L865.1,504.9
		L867.0,507.5 L868.9,510.1 L870.8,512.6 L872.7,515.0 L874.6,517.5 L876.5,519.8 L878.4,522.2 L880.3,524.4
		L882.2,526.7 L884.1,528.8 L886.0,531.0 L887.9,533.0 L889.9,535.1 L891.8,537.1 L893.7,539.0 L895.6,540.9
		L897.5,542.8 L899.4,544.6 L901.3,546.5 L903.2,548.3 L905.1,550.0 L907.0,551.8 L908.9,553.5 L910.8,555.3
		L912.7,557.0 L914.6,558.8 L916.5,560.5 L918.4,562.2 L920.3,563.9 L922.2,565.6 L924.1,567.3 L926.0,569.0
		L927.9,570.7 L929.8,572.4 L931.7,574.1 L933.6,575.7 L935.5,577.3 L937.4,578.9 L939.4,580.5 L941.3,582.1
		L943.2,583.6 L945.1,585.1 L947.0,586.6 L948.9,588.1 L950.8,589.6 L952.7,591.0 L954.6,592.4 L956.5,593.8
		L958.4,595.2 L960.3,596.5 L962.2,597.9 L964.1,599.2 L966.0,600.5 L967.9,601.8 L969.8,603.1 L971.7,604.4
		L973.6,605.6 L975.5,606.9 L977.4,608.1 L979.3,609.3 L981.2,610.5 L983.1,611.7 L985.0,612.8 L986.9,613.9
		L988.9,615.0 L990.8,616.1 L992.7,617.2 L994.6,618.2 L996.5,619.3 L998.4,620.3 L1000.3,621.2 L1002.2,622.2
		L1004.1,623.1 L1006.0,624.1 L1007.9,625.0 L1009.8,625.9 L1011.7,626.7 L1013.6,627.6  '/></g>
	</g>
	<g id="gnuplot_plot_2" ><title>Confidence interval</title>
<g fill="none" color="white" stroke="rgb( 31, 120, 180)" stroke-width="1.00" stroke-linecap="butt" stroke-linejoin="miter">
</g>
<g fill="none" color="black" stroke="currentColor" stroke-width="1.00" stroke-linecap="butt" stroke-linejoin="miter">
	<g transform="translate(1089.0,85.0)" stroke="none" fill="black" font-family="Helvetica" font-size="12.00"  text-anchor="start">
		<text><tspan font-family="Helvetica" >Confidence interval</tspan></text>
	</g>
</g>
<g fill="none" color="black" stroke="currentColor" stroke-width="1.00" stroke-linecap="butt" stroke-linejoin="miter">
	<g stroke='none' shape-rendering='crispEdges'>
		<polygon fill = 'rgb( 31, 120, 180)' fill-opacity = '0.250000' points = '1038.5,85.6 1080.7,85.6 1080.7,76.6 1038.5,76.6 '/>
		<polygon fill = 'rgb( 31, 120, 180)' fill-opacity = '0.250000' points = '151.2,572.9 151.2,662.4 153.1,662.4 153.1,571.1 '/>
		<polygon fill = 'rgb( 31, 120, 180)' fill-opacity = '0.250000' points = '153.1,571.1 153.1,662.4 155.0,662.4 155.0,569.3 '/>
		<polygon fill = 'rgb( 31, 120, 180)' fill-opacity = '0.250000' points = '155.0,569.3 155.0,662.4 156.9,662.4 156.9,567.4 '/>
		<polygon fill = 'rgb( 31, 120, 180)' fill-opacity = '0.250000' points = '156.9,567.4 156.9,662.4 158.8,662.4 158.8,565.5 '/>
		<polygon fill = 'rgb( 31, 120, 180)' fill-opacity = '0.250000' points = '158.8,565.5 158.8,662.4 160.7,662.4 160.7,563.6 '/>
		<polygon fill = 'rgb( 31, 120, 180)' fill-opacity = '0.250000' points = '160.7,563.6 160.7,662.4 162.6,662.4 162.6,561.7 '/>
		<polygon fill = 'rgb( 31, 120, 180)' fill-opacity = '0.250000' points = '162.6,561.7 162.6,662.4 164.5,662.4 164.5,559.8 '/>
		<polygon fill = 'rgb( 31, 120, 180)' fill-opacity = '0.250000' points = '164.5,559.8 164.5,662.4 166.4,662.4 166.4,557.8 '/>
		<polygon fill = 'rgb( 31, 120, 180)' fill-opacity = '0.250000' points = '166.4,557.8 166.4,662.4 168.3,662.4 168.3,555.9 '/>
		<polygon fill = 'rgb( 31, 120, 180)' fill-opacity = '0.250000' points = '168.3,555.9 168.3,662.4 170.2,662.4 170.2,553.9 '/>
		<polygon fill = 'rgb( 31, 120, 180)' fill-opacity = '0.250000' points = '170.2,553.9 170.2,662.4 172.1,662.4 172.1,552.0 '/>
		<polygon fill = 'rgb( 31, 120, 180)' fill-opacity = '0.250000' points = '172.1,552.0 172.1,662.4 174.0,662.4 174.0,550.0 '/>
		<polygon fill = 'rgb( 31, 120, 180)' fill-opacity = '0.250000' points = '174.0,550.0 174.0,662.4 175.9,662.4 175.9,548.0 '/>
		<polygon fill = 'rgb( 31, 120, 180)' fill-opacity = '0.250000' points = '175.9,548.0 175.9,662.4 177.8,662.4 177.8,546.0 '/>
		<polygon fill = 'rgb( 31, 120, 180)' fill-opacity = '0.250000' points = '177.8,546.0 177.8,662.4 179.7,662.4 179.7,544.0 '/>
		<polygon fill = 'rgb( 31, 120, 180)' fill-opacity = '0.250000' points = '179.7,544.0 179.7,662.4 181.6,662.4 181.6,542.0 '/>
		<polygon fill = 'rgb( 31, 120, 180)' fill-opacity = '0.250000' points = '181.6,542.0 181.6,662.4 183.5,662.4 183.5,540.0 '/>
		<polygon fill = 'rgb( 31, 120, 180)' fill-opacity = '0.250000' points = '183.5,540.0 183.5,662.4 185.4,662.4 185.4,538.0 '/>
		<polygon fill = 'rgb( 31, 120, 180)' fill-opacity = '0.250000' points = '185.4,538.0 185.4,662.4 187.3,662.4 187.3,536.0 '/>
		<polygon fill = 'rgb( 31, 120, 180)' fill-opacity = '0.250000' points = '187.3,536.0 187.3,662.4 189.3,662.4 189.3,533.9 '/>
		<polygon fill = 'rgb( 31, 120, 180)' fill-opacity = '0.250000' points = '189.3,533.9 189.3,662.4 191.2,662.4 191.2,531.9 '/>
		<polygon fill = 'rgb( 31, 120, 180)' fill-opacity = '0.250000' points = '191.2,531.9 191.2,662.4 193.1,662.4 193.1,529.8 '/>
		<polygon fill = 'rgb( 31, 120, 180)' fill-opacity = '0.250000' points = '193.1,529.8 193.1,662.4 195.0,662.4 195.0,527.8 '/>
		<polygon fill = 'rgb( 31, 120, 180)' fill-opacity = '0.250000' points = '195.0,527.8 195.0,662.4 196.9,662.4 196.9,525.7 '/>
		<polygon fill = 'rgb( 31, 120, 180)' fill-opacity = '0.250000' points = '196.9,525.7 196.9,662.4 198.8,662.4 198.8,523.6 '/>
		<polygon fill = 'rgb( 31, 120, 180)' fill-opacity = '0.250000' points = '198.8,523.6 198.8,662.4 200.7,662.4 200.7,521.4 '/>
		<polygon fill = 'rgb( 31, 120, 180)' fill-opacity = '0.250000' points = '200.7,521.4 200.7,662.4 202.6,662.4 202.6,519.3 '/>
		<polygon fill = 'rgb( 31, 120, 180)' fill-opacity = '0.250000' points = '202.6,519.3 202.6,662.4 204.5,662.4 204.5,517.1 '/>
		<polygon fill = 'rgb( 31, 120, 180)' fill-opacity = '0.250000' points = '204.5,517.1 204.5,662.4 206.4,662.4 206.4,514.9 '/>
		<polygon fill = 'rgb( 31, 120, 180)' fill-opacity = '0.250000' points = '206.4,514.9 206.4,662.4 208.3,662.4 208.3,512.7 '/>
		<polygon fill = 'rgb( 31, 120, 180)' fill-opacity = '0.250000' points = '208.3,512.7 208.3,662.4 210.2,662.4 210.2,510.5 '/>
		<polygon fill = 'rgb( 31, 120, 180)' fill-opacity = '0.250000' points = '210.2,510.5 210.2,662.4 212.1,662.4 212.1,508.2 '/>
		<polygon fill = 'rgb( 31, 120, 180)' fill-opacity = '0.250000' points = '212.1,508.2 212.1,662.4 214.0,662.4 214.0,505.9 '/>
		<polygon fill = 'rgb( 31, 120, 180)' fill-opacity = '0.250000' points = '214.0,505.9 214.0,662.4 215.9,662.4 215.9,503.6 '/>
		<polygon fill = 'rgb( 31, 120, 180)' fill-opacity = '0.250000' points = '215.9,503.6 215.9,662.4 217.8,662.4 217.8,501.2 '/>
		<polygon fill = 'rgb( 31, 120, 180)' fill-opacity = '0.250000' points = '217.8,501.2 217.8,662.4 219.7,662.4 219.7,498.8 '/>
		<polygon fill = 'rgb( 31, 120, 180)' fill-opacity = '0.250000' points = '219.7,498.8 219.7,662.4 221.6,662.4 221.6,496.4 '/>
		<polygon fill = 'rgb( 31, 120, 180)' fill-opacity = '0.250000' points = '221.6,496.4 221.6,662.4 223.5,662.4 223.5,494.0 '/>
		<polygon fill = 'rgb( 31, 120, 180)' fill-opacity = '0.250000' points = '223.5,494.0 223.5,662.4 225.4,662.4 225.4,491.6 '/>
		<polygon fill = 'rgb( 31, 120, 180)' fill-opacity = '0.250000' points = '225.4,491.6 225.4,662.4 227.3,662.4 227.3,489.1 '/>
		<polygon fill = 'rgb( 31, 120, 180)' fill-opacity = '0.250000' points = '227.3,489.1 227.3,662.4 229.2,662.4 229.2,486.6 '/>
		<polygon fill = 'rgb( 31, 120, 180)' fill-opacity = '0.250000' points = '229.2,486.6 229.2,662.4 231.1,662.4 231.1,484.1 '/>
		<polygon fill = 'rgb( 31, 120, 180)' fill-opacity = '0.250000' points = '231.1,484.1 231.1,662.4 233.0,662.4 233.0,481.6 '/>
		<polygon fill = 'rgb( 31, 120, 180)' fill-opacity = '0.250000' points = '233.0,481.6 233.0,662.4 234.9,662.4 234.9,479.1 '/>
		<polygon fill = 'rgb( 31, 120, 180)' fill-opacity = '0.250000' points = '234.9,479.1 234.9,662.4 236.8,662.4 236.8,476.6 '/>
		<polygon fill = 'rgb( 31, 120, 180)' fill-opacity = '0.250000' points = '236.8,476.6 236.8,662.4 238.8,662.4 238.8,474.0 '/>
		<polygon fill = 'rgb( 31, 120, 180)' fill-opacity = '0.250000' points = '238.8,474.0 238.8,662.4 240.7,662.4 240.7,471.5 '/>
		<polygon fill = 'rgb( 31, 120, 180)' fill-opacity = '0.250000' points = '240.7,471.5 240.7,662.4 242.6,662.4 242.6,468.9 '/>
		<polygon fill = 'rgb( 31, 120, 180)' fill-opacity = '0.250000' points = '242.6,468.9 242.6,662.4 244.5,662.4 244.5,466.3 '/>
		<polygon fill = 'rgb( 31, 120, 180)' fill-opacity = '0.250000' points = '244.5,466.3 244.5,662.4 246.4,662.4 246.4,463.7 '/>
		<polygon fill = 'rgb( 31, 120, 180)' fill-opacity = '0.250000' points = '246.4,463.7 246.4,662.4 248.3,662.4 248.3,461.1 '/>
		<polygon fill = 'rgb( 31, 120, 180)' fill-opacity = '0.250000' points = '248.3,461.1 248.3,662.4 250.2,662.4 250.2,458.5 '/>
		<polygon fill = 'rgb( 31, 120, 180)' fill-opacity = '0.250000' points = '250.2,458.5 250.2,662.4 252.1,662.4 252.1,455.9 '/>
		<polygon fill = 'rgb( 31, 120, 180)' fill-opacity = '0.250000' points = '252.1,455.9 252.1,662.4 254.0,662.4 254.0,453.3 '/>
		<polygon fill = 'rgb( 31, 120, 180)' fill-opacity = '0.250000' points = '254.0,453.3 254.0,662.4 255.9,662.4 255.9,450.7 '/>
		<polygon fill = 'rgb( 31, 120, 180)' fill-opacity = '0.250000' points = '255.9,450.7 255.9,662.4 257.8,662.4 257.8,448.0 '/>
		<polygon fill = 'rgb( 31, 120, 180)' fill-opacity = '0.250000' points = '257.8,448.0 257.8,662.4 259.7,662.4 259.7,445.3 '/>
		<polygon fill = 'rgb( 31, 120, 180)' fill-opacity = '0.250000' points = '259.7,445.3 259.7,662.4 261.6,662.4 261.6,442.6 '/>
		<polygon fill = 'rgb( 31, 120, 180)' fill-opacity = '0.250000' points = '261.6,442.6 261.6,662.4 263.5,662.4 263.5,439.9 '/>
		<polygon fill = 'rgb( 31, 120, 180)' fill-opacity = '0.250000' points = '263.5,439.9 263.5,662.4 265.4,662.4 265.4,437.2 '/>
		<polygon fill = 'rgb( 31, 120, 180)' fill-opacity = '0.250000' points = '265.4,437.2 265.4,662.4 267.3,662.4 267.3,434.4 '/>
		<polygon fill = 'rgb( 31, 120, 180)' fill-opacity = '0.250000' points = '267.3,434.4 267.3,662.4 269.2,662.4 269.2,431.7 '/>
		<polygon fill = 'rgb( 31, 120, 180)' fill-opacity = '0.250000' points = '269.2,431.7 269.2,662.4 271.1,662.4 271.1,428.8 '/>
		<polygon fill = 'rgb( 31, 120, 180)' fill-opacity = '0.250000' points = '271.1,428.8 271.1,662.4 273.0,662.4 273.0,426.0 '/>
		<polygon fill = 'rgb( 31, 120, 180)' fill-opacity = '0.250000' points = '273.0,426.0 273.0,662.4 274.9,662.4 274.9,423.1 '/>
		<polygon fill = 'rgb( 31, 120, 180)' fill-opacity = '0.250000' points = '274.9,423.1 274.9,662.4 276.8,662.4 276.8,420.2 '/>
		<polygon fill = 'rgb( 31, 120, 180)' fill-opacity = '0.250000' points = '276.8,420.2 276.8,662.4 278.7,662.4 278.7,417.2 '/>
		<polygon fill = 'rgb( 31, 120, 180)' fill-opacity = '0.250000' points = '278.7,417.2 278.7,662.4 280.6,662.4 280.6,414.1 '/>
		<polygon fill = 'rgb( 31, 120, 180)' fill-opacity = '0.250000' points = '280.6,414.1 280.6,662.4 282.5,662.4 282.5,411.1 '/>
		<polygon fill = 'rgb( 31, 120, 180)' fill-opacity = '0.250000' points = '282.5,411.1 282.5,662.4 284.4,662.4 284.4,407.9 '/>
		<polygon fill = 'rgb( 31, 120, 180)' fill-opacity = '0.250000' points = '284.4,407.9 284.4,662.4 286.3,662.4 286.3,404.7 '/>
		<polygon fill = 'rgb( 31, 120, 180)' fill-opacity = '0.250000' points = '286.3,404.7 286.3,662.4 288.2,662.4 288.2,401.4 '/>
		<polygon fill = 'rgb( 31, 120, 180)' fill-opacity = '0.250000' points = '288.2,401.4 288.2,662.4 290.2,662.4 290.2,398.1 '/>
		<polygon fill = 'rgb( 31, 120, 180)' fill-opacity = '0.250000' points = '290.2,398.1 290.2,662.4 292.1,662.4 292.1,394.6 '/>
		<polygon fill = 'rgb( 31, 120, 180)' fill-opacity = '0.250000' points = '292.1,394.6 292.1,662.4 294.0,662.4 294.0,391.2 '/>
		<polygon fill = 'rgb( 31, 120, 180)' fill-opacity = '0.250000' points = '294.0,391.2 294.0,662.4 295.9,662.4 295.9,387.6 '/>
		<polygon fill = 'rgb( 31, 120, 180)' fill-opacity = '0.250000' points = '295.9,387.6 295.9,662.4 297.8,662.4 297.8,384.0 '/>
		<polygon fill = 'rgb( 31, 120, 180)' fill-opacity = '0.250000' points = '297.8,384.0 297.8,662.4 299.7,662.4 299.7,380.4 '/>
		<polygon fill = 'rgb( 31, 120, 180)' fill-opacity = '0.250000' points = '299.7,380.4 299.7,662.4 301.6,662.4 301.6,376.7 '/>
		<polygon fill = 'rgb( 31, 120, 180)' fill-opacity = '0.250000' points = '301.6,376.7 301.6,662.4 303.5,662.4 303.5,372.9 '/>
		<polygon fill = 'rgb( 31, 120, 180)' fill-opacity = '0.250000' points = '303.5,372.9 303.5,662.4 305.4,662.4 305.4,369.1 '/>
		<polygon fill = 'rgb( 31, 120, 180)' fill-opacity = '0.250000' points = '305.4,369.1 305.4,662.4 307.3,662.4 307.3,365.3 '/>
		<polygon fill = 'rgb( 31, 120, 180)' fill-opacity = '0.250000' points = '307.3,365.3 307.3,662.4 309.2,662.4 309.2,361.5 '/>
		<polygon fill = 'rgb( 31, 120, 180)' fill-opacity = '0.250000' points = '309.2,361.5 309.2,662.4 311.1,662.4 311.1,357.6 '/>
		<polygon fill = 'rgb( 31, 120, 180)' fill-opacity = '0.250000' points = '311.1,357.6 311.1,662.4 313.0,662.4 313.0,353.7 '/>
		<polygon fill = 'rgb( 31, 120, 180)' fill-opacity = '0.250000' points = '313.0,353.7 313.0,662.4 314.9,662.4 314.9,349.9 '/>
		<polygon fill = 'rgb( 31, 120, 180)' fill-opacity = '0.250000' points = '314.9,349.9 314.9,662.4 316.8,662.4 316.8,346.0 '/>
		<polygon fill = 'rgb( 31, 120, 180)' fill-opacity = '0.250000' points = '316.8,346.0 316.8,662.4 318.7,662.4 318.7,342.1 '/>
		<polygon fill = 'rgb( 31, 120, 180)' fill-opacity = '0.250000' points = '318.7,342.1 318.7,662.4 320.6,662.4 320.6,338.3 '/>
		<polygon fill = 'rgb( 31, 120, 180)' fill-opacity = '0.250000' points = '320.6,338.3 320.6,662.4 322.5,662.4 322.5,334.5 '/>
		<polygon fill = 'rgb( 31, 120, 180)' fill-opacity = '0.250000' points = '322.5,334.5 322.5,662.4 324.4,662.4 324.4,330.8 '/>
		<polygon fill = 'rgb( 31, 120, 180)' fill-opacity = '0.250000' points = '324.4,330.8 324.4,662.4 326.3,662.4 326.3,327.1 '/>
		<polygon fill = 'rgb( 31, 120, 180)' fill-opacity = '0.250000' points = '326.3,327.1 326.3,662.4 328.2,662.4 328.2,323.4 '/>
		<polygon fill = 'rgb( 31, 120, 180)' fill-opacity = '0.250000' points = '328.2,323.4 328.2,662.4 330.1,662.4 330.1,319.8 '/>
		<polygon fill = 'rgb( 31, 120, 180)' fill-opacity = '0.250000' points = '330.1,319.8 330.1,662.4 332.0,662.4 332.0,316.2 '/>
		<polygon fill = 'rgb( 31, 120, 180)' fill-opacity = '0.250000' points = '332.0,316.2 332.0,662.4 333.9,662.4 333.9,312.7 '/>
		<polygon fill = 'rgb( 31, 120, 180)' fill-opacity = '0.250000' points = '333.9,312.7 333.9,662.4 335.8,662.4 335.8,309.2 '/>
		<polygon fill = 'rgb( 31, 120, 180)' fill-opacity = '0.250000' points = '335.8,309.2 335.8,662.4 337.7,662.4 337.7,305.8 '/>
		<polygon fill = 'rgb( 31, 120, 180)' fill-opacity = '0.250000' points = '337.7,305.8 337.7,662.4 339.7,662.4 339.7,302.4 '/>
		<polygon fill = 'rgb( 31, 120, 180)' fill-opacity = '0.250000' points = '339.7,302.4 339.7,662.4 341.6,662.4 341.6,299.1 '/>
		<polygon fill = 'rgb( 31, 120, 180)' fill-opacity = '0.250000' points = '341.6,299.1 341.6,662.4 343.5,662.4 343.5,295.8 '/>
		<polygon fill = 'rgb( 31, 120, 180)' fill-opacity = '0.250000' points = '343.5,295.8 343.5,662.4 345.4,662.4 345.4,292.6 '/>
		<polygon fill = 'rgb( 31, 120, 180)' fill-opacity = '0.250000' points = '345.4,292.6 345.4,662.4 347.3,662.4 347.3,289.4 '/>
		<polygon fill = 'rgb( 31, 120, 180)' fill-opacity = '0.250000' points = '347.3,289.4 347.3,662.4 349.2,662.4 349.2,286.2 '/>
		<polygon fill = 'rgb( 31, 120, 180)' fill-opacity = '0.250000' points = '349.2,286.2 349.2,662.4 351.1,662.4 351.1,283.0 '/>
		<polygon fill = 'rgb( 31, 120, 180)' fill-opacity = '0.250000' points = '351.1,283.0 351.1,662.4 353.0,662.4 353.0,279.8 '/>
		<polygon fill = 'rgb( 31, 120, 180)' fill-opacity = '0.250000' points = '353.0,279.8 353.0,662.4 354.9,662.4 354.9,276.6 '/>
		<polygon fill = 'rgb( 31, 120, 180)' fill-opacity = '0.250000' points = '354.9,276.6 354.9,662.4 356.8,662.4 356.8,273.4 '/>
		<polygon fill = 'rgb( 31, 120, 180)' fill-opacity = '0.250000' points = '356.8,273.4 356.8,662.4 358.7,662.4 358.7,270.2 '/>
		<polygon fill = 'rgb( 31, 120, 180)' fill-opacity = '0.250000' points = '358.7,270.2 358.7,662.4 360.6,662.4 360.6,267.0 '/>
		<polygon fill = 'rgb( 31, 120, 180)' fill-opacity = '0.250000' points = '360.6,267.0 360.6,662.4 362.5,662.4 362.5,263.7 '/>
		<polygon fill = 'rgb( 31, 120, 180)' fill-opacity = '0.250000' points = '362.5,263.7 362.5,662.4 364.4,662.4 364.4,260.4 '/>
		<polygon fill = 'rgb( 31, 120, 180)' fill-opacity = '0.250000' points = '364.4,260.4 364.4,662.4 366.3,662.4 366.3,257.1 '/>
		<polygon fill = 'rgb( 31, 120, 180)' fill-opacity = '0.250000' points = '366.3,257.1 366.3,662.4 368.2,662.4 368.2,253.7 '/>
		<polygon fill = 'rgb( 31, 120, 180)' fill-opacity = '0.250000' points = '368.2,253.7 368.2,662.4 370.1,662.4 370.1,250.3 '/>
		<polygon fill = 'rgb( 31, 120, 180)' fill-opacity = '0.250000' points = '370.1,250.3 370.1,662.4 372.0,662.4 372.0,246.9 '/>
		<polygon fill = 'rgb( 31, 120, 180)' fill-opacity = '0.250000' points = '372.0,246.9 372.0,662.4 373.9,662.4 373.9,243.4 '/>
		<polygon fill = 'rgb( 31, 120, 180)' fill-opacity = '0.250000' points = '373.9,243.4 373.9,662.4 375.8,662.4 375.8,239.9 '/>
		<polygon fill = 'rgb( 31, 120, 180)' fill-opacity = '0.250000' points = '375.8,239.9 375.8,662.4 377.7,662.4 377.7,236.4 '/>
		<polygon fill = 'rgb( 31, 120, 180)' fill-opacity = '0.250000' points = '377.7,236.4 377.7,662.4 379.6,662.4 379.6,232.9 '/>
		<polygon fill = 'rgb( 31, 120, 180)' fill-opacity = '0.250000' points = '379.6,232.9 379.6,662.4 381.5,662.4 381.5,229.4 '/>
		<polygon fill = 'rgb( 31, 120, 180)' fill-opacity = '0.250000' points = '381.5,229.4 381.5,662.4 383.4,662.4 383.4,225.8 '/>
		<polygon fill = 'rgb( 31, 120, 180)' fill-opacity = '0.250000' points = '383.4,225.8 383.4,662.4 385.3,662.4 385.3,222.3 '/>
		<polygon fill = 'rgb( 31, 120, 180)' fill-opacity = '0.250000' points = '385.3,222.3 385.3,662.4 387.2,662.4 387.2,218.8 '/>
		<polygon fill = 'rgb( 31, 120, 180)' fill-opacity = '0.250000' points = '387.2,218.8 387.2,662.4 389.2,662.4 389.2,215.3 '/>
		<polygon fill = 'rgb( 31, 120, 180)' fill-opacity = '0.250000' points = '389.2,215.3 389.2,662.4 391.1,662.4 391.1,211.8 '/>
		<polygon fill = 'rgb( 31, 120, 180)' fill-opacity = '0.250000' points = '391.1,211.8 391.1,662.4 393.0,662.4 393.0,208.3 '/>
		<polygon fill = 'rgb( 31, 120, 180)' fill-opacity = '0.250000' points = '393.0,208.3 393.0,662.4 394.9,662.4 394.9,204.8 '/>
		<polygon fill = 'rgb( 31, 120, 180)' fill-opacity = '0.250000' points = '394.9,204.8 394.9,662.4 396.8,662.4 396.8,201.4 '/>
		<polygon fill = 'rgb( 31, 120, 180)' fill-opacity = '0.250000' points = '396.8,201.4 396.8,662.4 398.7,662.4 398.7,198.0 '/>
		<polygon fill = 'rgb( 31, 120, 180)' fill-opacity = '0.250000' points = '398.7,198.0 398.7,662.4 400.6,662.4 400.6,194.5 '/>
		<polygon fill = 'rgb( 31, 120, 180)' fill-opacity = '0.250000' points = '400.6,194.5 400.6,662.4 402.5,662.4 402.5,191.1 '/>
		<polygon fill = 'rgb( 31, 120, 180)' fill-opacity = '0.250000' points = '402.5,191.1 402.5,662.4 404.4,662.4 404.4,187.8 '/>
		<polygon fill = 'rgb( 31, 120, 180)' fill-opacity = '0.250000' points = '404.4,187.8 404.4,662.4 406.3,662.4 406.3,184.4 '/>
		<polygon fill = 'rgb( 31, 120, 180)' fill-opacity = '0.250000' points = '406.3,184.4 406.3,662.4 408.2,662.4 408.2,181.0 '/>
		<polygon fill = 'rgb( 31, 120, 180)' fill-opacity = '0.250000' points = '408.2,181.0 408.2,662.4 410.1,662.4 410.1,177.7 '/>
		<polygon fill = 'rgb( 31, 120, 180)' fill-opacity = '0.250000' points = '410.1,177.7 410.1,662.4 412.0,662.4 412.0,174.4 '/>
		<polygon fill = 'rgb( 31, 120, 180)' fill-opacity = '0.250000' points = '412.0,174.4 412.0,662.4 413.9,662.4 413.9,171.0 '/>
		<polygon fill = 'rgb( 31, 120, 180)' fill-opacity = '0.250000' points = '413.9,171.0 413.9,662.4 415.8,662.4 415.8,167.7 '/>
		<polygon fill = 'rgb( 31, 120, 180)' fill-opacity = '0.250000' points = '415.8,167.7 415.8,662.4 417.7,662.4 417.7,164.5 '/>
		<polygon fill = 'rgb( 31, 120, 180)' fill-opacity = '0.250000' points = '417.7,164.5 417.7,662.4 419.6,662.4 419.6,161.2 '/>
		<polygon fill = 'rgb( 31, 120, 180)' fill-opacity = '0.250000' points = '419.6,161.2 419.6,662.4 421.5,662.4 421.5,158.0 '/>
		<polygon fill = 'rgb( 31, 120, 180)' fill-opacity = '0.250000' points = '421.5,158.0 421.5,662.4 423.4,662.4 423.4,154.8 '/>
		<polygon fill = 'rgb( 31, 120, 180)' fill-opacity = '0.250000' points = '423.4,154.8 423.4,662.4 425.3,662.4 425.3,151.6 '/>
		<polygon fill = 'rgb( 31, 120, 180)' fill-opacity = '0.250000' points = '425.3,151.6 425.3,662.4 427.2,662.4 427.2,148.5 '/>
		<polygon fill = 'rgb( 31, 120, 180)' fill-opacity = '0.250000' points = '427.2,148.5 427.2,662.4 429.1,662.4 429.1,145.4 '/>
		<polygon fill = 'rgb( 31, 120, 180)' fill-opacity = '0.250000' points = '429.1,145.4 429.1,662.4 431.0,662.4 431.0,142.3 '/>
		<polygon fill = 'rgb( 31, 120, 180)' fill-opacity = '0.250000' points = '431.0,142.3 431.0,662.4 432.9,662.4 432.9,139.3 '/>
		<polygon fill = 'rgb( 31, 120, 180)' fill-opacity = '0.250000' points = '432.9,139.3 432.9,662.4 434.8,662.4 434.8,136.4 '/>
		<polygon fill = 'rgb( 31, 120, 180)' fill-opacity = '0.250000' points = '434.8,136.4 434.8,662.4 436.7,662.4 436.7,133.6 '/>
		<polygon fill = 'rgb( 31, 120, 180)' fill-opacity = '0.250000' points = '436.7,133.6 436.7,662.4 438.7,662.4 438.7,130.8 '/>
		<polygon fill = 'rgb( 31, 120, 180)' fill-opacity = '0.250000' points = '438.7,130.8 438.7,662.4 440.6,662.4 440.6,128.0 '/>
		<polygon fill = 'rgb( 31, 120, 180)' fill-opacity = '0.250000' points = '440.6,128.0 440.6,662.4 442.5,662.4 442.5,125.4 '/>
		<polygon fill = 'rgb( 31, 120, 180)' fill-opacity = '0.250000' points = '442.5,125.4 442.5,662.4 444.4,662.4 444.4,122.8 '/>
		<polygon fill = 'rgb( 31, 120, 180)' fill-opacity = '0.250000' points = '444.4,122.8 444.4,662.4 446.3,662.4 446.3,120.4 '/>
		<polygon fill = 'rgb( 31, 120, 180)' fill-opacity = '0.250000' points = '446.3,120.4 446.3,662.4 448.2,662.4 448.2,118.0 '/>
		<polygon fill = 'rgb( 31, 120, 180)' fill-opacity = '0.250000' points = '448.2,118.0 448.2,662.4 450.1,662.4 450.1,115.7 '/>
		<polygon fill = 'rgb( 31, 120, 180)' fill-opacity = '0.250000' points = '450.1,115.7 450.1,662.4 452.0,662.4 452.0,113.5 '/>
		<polygon fill = 'rgb( 31, 120, 180)' fill-opacity = '0.250000' points = '452.0,113.5 452.0,662.4 453.9,662.4 453.9,111.4 '/>
		<polygon fill = 'rgb( 31, 120, 180)' fill-opacity = '0.250000' points = '453.9,111.4 453.9,662.4 455.8,662.4 455.8,109.4 '/>
		<polygon fill = 'rgb( 31, 120, 180)' fill-opacity = '0.250000' points = '455.8,109.4 455.8,662.4 457.7,662.4 457.7,107.5 '/>
		<polygon fill = 'rgb( 31, 120, 180)' fill-opacity = '0.250000' points = '457.7,107.5 457.7,662.4 459.6,662.4 459.6,105.7 '/>
		<polygon fill = 'rgb( 31, 120, 180)' fill-opacity = '0.250000' points = '459.6,105.7 459.6,662.4 461.5,662.4 461.5,104.0 '/>
		<polygon fill = 'rgb( 31, 120, 180)' fill-opacity = '0.250000' points = '461.5,104.0 461.5,662.4 463.4,662.4 463.4,102.3 '/>
		<polygon fill = 'rgb( 31, 120, 180)' fill-opacity = '0.250000' points = '463.4,102.3 463.4,662.4 465.3,662.4 465.3,100.8 '/>
		<polygon fill = 'rgb( 31, 120, 180)' fill-opacity = '0.250000' points = '465.3,100.8 465.3,662.4 467.2,662.4 467.2,99.4 '/>
		<polygon fill = 'rgb( 31, 120, 180)' fill-opacity = '0.250000' points = '467.2,99.4 467.2,662.4 469.1,662.4 469.1,98.0 '/>
		<polygon fill = 'rgb( 31, 120, 180)' fill-opacity = '0.250000' points = '469.1,98.0 469.1,662.4 471.0,662.4 471.0,96.7 '/>
		<polygon fill = 'rgb( 31, 120, 180)' fill-opacity = '0.250000' points = '471.0,96.7 471.0,662.4 472.9,662.4 472.9,95.5 '/>
		<polygon fill = 'rgb( 31, 120, 180)' fill-opacity = '0.250000' points = '472.9,95.5 472.9,662.4 474.8,662.4 474.8,94.4 '/>
		<polygon fill = 'rgb( 31, 120, 180)' fill-opacity = '0.250000' points = '474.8,94.4 474.8,662.4 476.7,662.4 476.7,93.3 '/>
		<polygon fill = 'rgb( 31, 120, 180)' fill-opacity = '0.250000' points = '476.7,93.3 476.7,662.4 478.6,662.4 478.6,92.2 '/>
		<polygon fill = 'rgb( 31, 120, 180)' fill-opacity = '0.250000' points = '478.6,92.2 478.6,662.4 480.5,662.4 480.5,91.2 '/>
		<polygon fill = 'rgb( 31, 120, 180)' fill-opacity = '0.250000' points = '480.5,91.2 480.5,662.4 482.4,662.4 482.4,90.2 '/>
		<polygon fill = 'rgb( 31, 120, 180)' fill-opacity = '0.250000' points = '482.4,90.2 482.4,662.4 484.3,662.4 484.3,89.3 '/>
		<polygon fill = 'rgb( 31, 120, 180)' fill-opacity = '0.250000' points = '484.3,89.3 484.3,662.4 486.2,662.4 486.2,88.3 '/>
		<polygon fill = 'rgb( 31, 120, 180)' fill-opacity = '0.250000' points = '486.2,88.3 486.2,662.4 488.1,662.4 488.1,87.4 '/>
		<polygon fill = 'rgb( 31, 120, 180)' fill-opacity = '0.250000' points = '488.1,87.4 488.1,662.4 490.1,662.4 490.1,86.4 '/>
		<polygon fill = 'rgb( 31, 120, 180)' fill-opacity = '0.250000' points = '490.1,86.4 490.1,662.4 492.0,662.4 492.0,85.4 '/>
		<polygon fill = 'rgb( 31, 120, 180)' fill-opacity = '0.250000' points = '492.0,85.4 492.0,662.4 493.9,662.4 493.9,84.4 '/>
		<polygon fill = 'rgb( 31, 120, 180)' fill-opacity = '0.250000' points = '493.9,84.4 493.9,662.4 495.8,662.4 495.8,83.4 '/>
		<polygon fill = 'rgb( 31, 120, 180)' fill-opacity = '0.250000' points = '495.8,83.4 495.8,662.4 497.7,662.4 497.7,82.4 '/>
		<polygon fill = 'rgb( 31, 120, 180)' fill-opacity = '0.250000' points = '497.7,82.4 497.7,662.4 499.6,662.4 499.6,81.4 '/>
		<polygon fill = 'rgb( 31, 120, 180)' fill-opacity = '0.250000' points = '499.6,81.4 499.6,662.4 501.5,662.4 501.5,80.3 '/>
		<polygon fill = 'rgb( 31, 120, 180)' fill-opacity = '0.250000' points = '501.5,80.3 501.5,662.4 503.4,662.4 503.4,79.2 '/>
		<polygon fill = 'rgb( 31, 120, 180)' fill-opacity = '0.250000' points = '503.4,79.2 503.4,662.4 505.3,662.4 505.3,78.1 '/>
		<polygon fill = 'rgb( 31, 120, 180)' fill-opacity = '0.250000' points = '505.3,78.1 505.3,662.4 507.2,662.4 507.2,76.9 '/>
		<polygon fill = 'rgb( 31, 120, 180)' fill-opacity = '0.250000' points = '507.2,76.9 507.2,662.4 509.1,662.4 509.1,75.8 '/>
		<polygon fill = 'rgb( 31, 120, 180)' fill-opacity = '0.250000' points = '509.1,75.8 509.1,662.4 511.0,662.4 511.0,74.7 '/>
		<polygon fill = 'rgb( 31, 120, 180)' fill-opacity = '0.250000' points = '511.0,74.7 511.0,662.4 512.9,662.4 512.9,73.5 '/>
		<polygon fill = 'rgb( 31, 120, 180)' fill-opacity = '0.250000' points = '512.9,73.5 512.9,662.4 514.8,662.4 514.8,72.4 '/>
		<polygon fill = 'rgb( 31, 120, 180)' fill-opacity = '0.250000' points = '514.8,72.4 514.8,662.4 516.7,662.4 516.7,71.3 '/>
		<polygon fill = 'rgb( 31, 120, 180)' fill-opacity = '0.250000' points = '516.7,71.3 516.7,662.4 518.6,662.4 518.6,70.2 '/>
		<polygon fill = 'rgb( 31, 120, 180)' fill-opacity = '0.250000' points = '518.6,70.2 518.6,662.4 520.5,662.4 520.5,69.1 '/>
		<polygon fill = 'rgb( 31, 120, 180)' fill-opacity = '0.250000' points = '520.5,69.1 520.5,662.4 522.4,662.4 522.4,68.1 '/>
		<polygon fill = 'rgb( 31, 120, 180)' fill-opacity = '0.250000' points = '522.4,68.1 522.4,662.4 524.3,662.4 524.3,67.2 '/>
		<polygon fill = 'rgb( 31, 120, 180)' fill-opacity = '0.250000' points = '524.3,67.2 524.3,662.4 526.2,662.4 526.2,66.2 '/>
		<polygon fill = 'rgb( 31, 120, 180)' fill-opacity = '0.250000' points = '526.2,66.2 526.2,662.4 528.1,662.4 528.1,65.4 '/>
		<polygon fill = 'rgb( 31, 120, 180)' fill-opacity = '0.250000' points = '528.1,65.4 528.1,662.4 530.0,662.4 530.0,64.6 '/>
		<polygon fill = 'rgb( 31, 120, 180)' fill-opacity = '0.250000' points = '530.0,64.6 530.0,662.4 531.9,662.4 531.9,63.8 '/>
		<polygon fill = 'rgb( 31, 120, 180)' fill-opacity = '0.250000' points = '531.9,63.8 531.9,662.4 533.8,662.4 533.8,63.2 '/>
		<polygon fill = 'rgb( 31, 120, 180)' fill-opacity = '0.250000' points = '533.8,63.2 533.8,662.4 535.7,662.4 535.7,62.6 '/>
		<polygon fill = 'rgb( 31, 120, 180)' fill-opacity = '0.250000' points = '535.7,62.6 535.7,662.4 537.6,662.4 537.6,62.1 '/>
		<polygon fill = 'rgb( 31, 120, 180)' fill-opacity = '0.250000' points = '537.6,62.1 537.6,662.4 539.6,662.4 539.6,61.6 '/>
		<polygon fill = 'rgb( 31, 120, 180)' fill-opacity = '0.250000' points = '539.6,61.6 539.6,662.4 541.5,662.4 541.5,61.2 '/>
		<polygon fill = 'rgb( 31, 120, 180)' fill-opacity = '0.250000' points = '541.5,61.2 541.5,662.4 543.4,662.4 543.4,60.9 '/>
		<polygon fill = 'rgb( 31, 120, 180)' fill-opacity = '0.250000' points = '543.4,60.9 543.4,662.4 545.3,662.4 545.3,60.7 '/>
		<polygon fill = 'rgb( 31, 120, 180)' fill-opacity = '0.250000' points = '545.3,60.7 545.3,662.4 547.2,662.4 547.2,60.5 '/>
		<polygon fill = 'rgb( 31, 120, 180)' fill-opacity = '0.250000' points = '547.2,60.5 547.2,662.4 549.1,662.4 549.1,60.4 '/>
		<polygon fill = 'rgb( 31, 120, 180)' fill-opacity = '0.250000' points = '549.1,60.4 549.1,662.4 551.0,662.4 551.0,60.4 '/>
		<polygon fill = 'rgb( 31, 120, 180)' fill-opacity = '0.250000' points = '551.0,60.4 551.0,662.4 552.9,662.4 552.9,60.5 '/>
		<polygon fill = 'rgb( 31, 120, 180)' fill-opacity = '0.250000' points = '552.9,60.5 552.9,662.4 554.8,662.4 554.8,60.6 '/>
		<polygon fill = 'rgb( 31, 120, 180)' fill-opacity = '0.250000' points = '554.8,60.6 554.8,662.4 556.7,662.4 556.7,60.8 '/>
		<polygon fill = 'rgb( 31, 120, 180)' fill-opacity = '0.250000' points = '556.7,60.8 556.7,662.4 558.6,662.4 558.6,61.0 '/>
		<polygon fill = 'rgb( 31, 120, 180)' fill-opacity = '0.250000' points = '558.6,61.0 558.6,662.4 560.5,662.4 560.5,61.4 '/>
		<polygon fill = 'rgb( 31, 120, 180)' fill-opacity = '0.250000' points = '560.5,61.4 560.5,662.4 562.4,662.4 562.4,61.8 '/>
		<polygon fill = 'rgb( 31, 120, 180)' fill-opacity = '0.250000' points = '562.4,61.8 562.4,662.4 564.3,662.4 564.3,62.3 '/>
		<polygon fill = 'rgb( 31, 120, 180)' fill-opacity = '0.250000' points = '564.3,62.3 564.3,662.4 566.2,662.4 566.2,62.9 '/>
		<polygon fill = 'rgb( 31, 120, 180)' fill-opacity = '0.250000' points = '566.2,62.9 566.2,662.4 568.1,662.4 568.1,63.6 '/>
		<polygon fill = 'rgb( 31, 120, 180)' fill-opacity = '0.250000' points = '568.1,63.6 568.1,662.4 570.0,662.4 570.0,64.3 '/>
		<polygon fill = 'rgb( 31, 120, 180)' fill-opacity = '0.250000' points = '570.0,64.3 570.0,662.4 571.9,662.4 571.9,65.2 '/>
		<polygon fill = 'rgb( 31, 120, 180)' fill-opacity = '0.250000' points = '571.9,65.2 571.9,662.4 573.8,662.4 573.8,66.1 '/>
		<polygon fill = 'rgb( 31, 120, 180)' fill-opacity = '0.250000' points = '573.8,66.1 573.8,662.4 575.7,662.4 575.7,67.2 '/>
		<polygon fill = 'rgb( 31, 120, 180)' fill-opacity = '0.250000' points = '575.7,67.2 575.7,662.4 577.6,662.4 577.6,68.3 '/>
		<polygon fill = 'rgb( 31, 120, 180)' fill-opacity = '0.250000' points = '577.6,68.3 577.6,662.4 579.5,662.4 579.5,69.5 '/>
		<polygon fill = 'rgb( 31, 120, 180)' fill-opacity = '0.250000' points = '579.5,69.5 579.5,662.4 581.4,662.4 581.4,70.9 '/>
		<polygon fill = 'rgb( 31, 120, 180)' fill-opacity = '0.250000' points = '581.4,70.9 581.4,662.4 583.3,662.4 583.3,72.3 '/>
		<polygon fill = 'rgb( 31, 120, 180)' fill-opacity = '0.250000' points = '583.3,72.3 583.3,662.4 585.2,662.4 585.2,73.8 '/>
		<polygon fill = 'rgb( 31, 120, 180)' fill-opacity = '0.250000' points = '585.2,73.8 585.2,662.4 587.1,662.4 587.1,75.4 '/>
		<polygon fill = 'rgb( 31, 120, 180)' fill-opacity = '0.250000' points = '587.1,75.4 587.1,662.4 589.1,662.4 589.1,77.1 '/>
		<polygon fill = 'rgb( 31, 120, 180)' fill-opacity = '0.250000' points = '589.1,77.1 589.1,662.4 591.0,662.4 591.0,78.8 '/>
		<polygon fill = 'rgb( 31, 120, 180)' fill-opacity = '0.250000' points = '591.0,78.8 591.0,662.4 592.9,662.4 592.9,80.7 '/>
		<polygon fill = 'rgb( 31, 120, 180)' fill-opacity = '0.250000' points = '592.9,80.7 592.9,662.4 594.8,662.4 594.8,82.6 '/>
		<polygon fill = 'rgb( 31, 120, 180)' fill-opacity = '0.250000' points = '594.8,82.6 594.8,662.4 596.7,662.4 596.7,84.6 '/>
		<polygon fill = 'rgb( 31, 120, 180)' fill-opacity = '0.250000' points = '596.7,84.6 596.7,662.4 598.6,662.4 598.6,86.6 '/>
		<polygon fill = 'rgb( 31, 120, 180)' fill-opacity = '0.250000' points = '598.6,86.6 598.6,662.4 600.5,662.4 600.5,88.8 '/>
		<polygon fill = 'rgb( 31, 120, 180)' fill-opacity = '0.250000' points = '600.5,88.8 600.5,662.4 602.4,662.4 602.4,90.9 '/>
		<polygon fill = 'rgb( 31, 120, 180)' fill-opacity = '0.250000' points = '602.4,90.9 602.4,662.4 604.3,662.4 604.3,93.2 '/>
		<polygon fill = 'rgb( 31, 120, 180)' fill-opacity = '0.250000' points = '604.3,93.2 604.3,662.4 606.2,662.4 606.2,95.4 '/>
		<polygon fill = 'rgb( 31, 120, 180)' fill-opacity = '0.250000' points = '606.2,95.4 606.2,662.4 608.1,662.4 608.1,97.7 '/>
		<polygon fill = 'rgb( 31, 120, 180)' fill-opacity = '0.250000' points = '608.1,97.7 608.1,662.4 610.0,662.4 610.0,100.1 '/>
		<polygon fill = 'rgb( 31, 120, 180)' fill-opacity = '0.250000' points = '610.0,100.1 610.0,662.4 611.9,662.4 611.9,102.4 '/>
		<polygon fill = 'rgb( 31, 120, 180)' fill-opacity = '0.250000' points = '611.9,102.4 611.9,662.4 613.8,662.4 613.8,104.8 '/>
		<polygon fill = 'rgb( 31, 120, 180)' fill-opacity = '0.250000' points = '613.8,104.8 613.8,662.4 615.7,662.4 615.7,107.1 '/>
		<polygon fill = 'rgb( 31, 120, 180)' fill-opacity = '0.250000' points = '615.7,107.1 615.7,662.4 617.6,662.4 617.6,109.5 '/>
		<polygon fill = 'rgb( 31, 120, 180)' fill-opacity = '0.250000' points = '617.6,109.5 617.6,662.4 619.5,662.4 619.5,111.8 '/>
		<polygon fill = 'rgb( 31, 120, 180)' fill-opacity = '0.250000' points = '619.5,111.8 619.5,662.4 621.4,662.4 621.4,114.1 '/>
		<polygon fill = 'rgb( 31, 120, 180)' fill-opacity = '0.250000' points = '621.4,114.1 621.4,662.4 623.3,662.4 623.3,116.5 '/>
		<polygon fill = 'rgb( 31, 120, 180)' fill-opacity = '0.250000' points = '623.3,116.5 623.3,662.4 625.2,662.4 625.2,118.7 '/>
		<polygon fill = 'rgb( 31, 120, 180)' fill-opacity = '0.250000' points = '625.2,118.7 625.2,662.4 627.1,662.4 627.1,121.0 '/>
		<polygon fill = 'rgb( 31, 120, 180)' fill-opacity = '0.250000' points = '627.1,121.0 627.1,662.4 629.0,662.4 629.0,123.2 '/>
		<polygon fill = 'rgb( 31, 120, 180)' fill-opacity = '0.250000' points = '629.0,123.2 629.0,662.4 630.9,662.4 630.9,125.4 '/>
		<polygon fill = 'rgb( 31, 120, 180)' fill-opacity = '0.250000' points = '630.9,125.4 630.9,662.4 632.8,662.4 632.8,127.6 '/>
		<polygon fill = 'rgb( 31, 120, 180)' fill-opacity = '0.250000' points = '632.8,127.6 632.8,662.4 634.7,662.4 634.7,129.8 '/>
		<polygon fill = 'rgb( 31, 120, 180)' fill-opacity = '0.250000' points = '634.7,129.8 634.7,662.4 636.6,662.4 636.6,132.0 '/>
		<polygon fill = 'rgb( 31, 120, 180)' fill-opacity = '0.250000' points = '636.6,132.0 636.6,662.4 638.5,662.4 638.5,134.1 '/>
		<polygon fill = 'rgb( 31, 120, 180)' fill-opacity = '0.250000' points = '638.5,134.1 638.5,662.4 640.5,662.4 640.5,136.3 '/>
		<polygon fill = 'rgb( 31, 120, 180)' fill-opacity = '0.250000' points = '640.5,136.3 640.5,662.4 642.4,662.4 642.4,138.5 '/>
		<polygon fill = 'rgb( 31, 120, 180)' fill-opacity = '0.250000' points = '642.4,138.5 642.4,662.4 644.3,662.4 644.3,140.6 '/>
		<polygon fill = 'rgb( 31, 120, 180)' fill-opacity = '0.250000' points = '644.3,140.6 644.3,662.4 646.2,662.4 646.2,142.9 '/>
		<polygon fill = 'rgb( 31, 120, 180)' fill-opacity = '0.250000' points = '646.2,142.9 646.2,662.4 648.1,662.4 648.1,145.1 '/>
		<polygon fill = 'rgb( 31, 120, 180)' fill-opacity = '0.250000' points = '648.1,145.1 648.1,662.4 650.0,662.4 650.0,147.5 '/>
		<polygon fill = 'rgb( 31, 120, 180)' fill-opacity = '0.250000' points = '650.0,147.5 650.0,662.4 651.9,662.4 651.9,149.8 '/>
		<polygon fill = 'rgb( 31, 120, 180)' fill-opacity = '0.250000' points = '651.9,149.8 651.9,662.4 653.8,662.4 653.8,152.3 '/>
		<polygon fill = 'rgb( 31, 120, 180)' fill-opacity = '0.250000' points = '653.8,152.3 653.8,662.4 655.7,662.4 655.7,154.8 '/>
		<polygon fill = 'rgb( 31, 120, 180)' fill-opacity = '0.250000' points = '655.7,154.8 655.7,662.4 657.6,662.4 657.6,157.4 '/>
		<polygon fill = 'rgb( 31, 120, 180)' fill-opacity = '0.250000' points = '657.6,157.4 657.6,662.4 659.5,662.4 659.5,160.1 '/>
		<polygon fill = 'rgb( 31, 120, 180)' fill-opacity = '0.250000' points = '659.5,160.1 659.5,662.4 661.4,662.4 661.4,162.9 '/>
		<polygon fill = 'rgb( 31, 120, 180)' fill-opacity = '0.250000' points = '661.4,162.9 661.4,662.4 663.3,662.4 663.3,165.7 '/>
		<polygon fill = 'rgb( 31, 120, 180)' fill-opacity = '0.250000' points = '663.3,165.7 663.3,662.4 665.2,662.4 665.2,168.7 '/>
		<polygon fill = 'rgb( 31, 120, 180)' fill-opacity = '0.250000' points = '665.2,168.7 665.2,662.4 667.1,662.4 667.1,171.7 '/>
		<polygon fill = 'rgb( 31, 120, 180)' fill-opacity = '0.250000' points = '667.1,171.7 667.1,662.4 669.0,662.4 669.0,174.8 '/>
		<polygon fill = 'rgb( 31, 120, 180)' fill-opacity = '0.250000' points = '669.0,174.8 669.0,662.4 670.9,662.4 670.9,178.0 '/>
		<polygon fill = 'rgb( 31, 120, 180)' fill-opacity = '0.250000' points = '670.9,178.0 670.9,662.4 672.8,662.4 672.8,181.2 '/>
		<polygon fill = 'rgb( 31, 120, 180)' fill-opacity = '0.250000' points = '672.8,181.2 672.8,662.4 674.7,662.4 674.7,184.5 '/>
		<polygon fill = 'rgb( 31, 120, 180)' fill-opacity = '0.250000' points = '674.7,184.5 674.7,662.4 676.6,662.4 676.6,187.8 '/>
		<polygon fill = 'rgb( 31, 120, 180)' fill-opacity = '0.250000' points = '676.6,187.8 676.6,662.4 678.5,662.4 678.5,191.2 '/>
		<polygon fill = 'rgb( 31, 120, 180)' fill-opacity = '0.250000' points = '678.5,191.2 678.5,662.4 680.4,662.4 680.4,194.6 '/>
		<polygon fill = 'rgb( 31, 120, 180)' fill-opacity = '0.250000' points = '680.4,194.6 680.4,662.4 682.3,662.4 682.3,198.0 '/>
		<polygon fill = 'rgb( 31, 120, 180)' fill-opacity = '0.250000' points = '682.3,198.0 682.3,662.4 684.2,662.4 684.2,201.5 '/>
		<polygon fill = 'rgb( 31, 120, 180)' fill-opacity = '0.250000' points = '684.2,201.5 684.2,662.4 686.1,662.4 686.1,204.9 '/>
		<polygon fill = 'rgb( 31, 120, 180)' fill-opacity = '0.250000' points = '686.1,204.9 686.1,662.4 688.0,662.4 688.0,208.4 '/>
		<polygon fill = 'rgb( 31, 120, 180)' fill-opacity = '0.250000' points = '688.0,208.4 688.0,662.4 690.0,662.4 690.0,211.9 '/>
		<polygon fill = 'rgb( 31, 120, 180)' fill-opacity = '0.250000' points = '690.0,211.9 690.0,662.4 691.9,662.4 691.9,215.4 '/>
		<polygon fill = 'rgb( 31, 120, 180)' fill-opacity = '0.250000' points = '691.9,215.4 691.9,662.4 693.8,662.4 693.8,219.0 '/>
		<polygon fill = 'rgb( 31, 120, 180)' fill-opacity = '0.250000' points = '693.8,219.0 693.8,662.4 695.7,662.4 695.7,222.5 '/>
		<polygon fill = 'rgb( 31, 120, 180)' fill-opacity = '0.250000' points = '695.7,222.5 695.7,662.4 697.6,662.4 697.6,226.0 '/>
		<polygon fill = 'rgb( 31, 120, 180)' fill-opacity = '0.250000' points = '697.6,226.0 697.6,662.4 699.5,662.4 699.5,229.6 '/>
		<polygon fill = 'rgb( 31, 120, 180)' fill-opacity = '0.250000' points = '699.5,229.6 699.5,662.4 701.4,662.4 701.4,233.1 '/>
		<polygon fill = 'rgb( 31, 120, 180)' fill-opacity = '0.250000' points = '701.4,233.1 701.4,662.4 703.3,662.4 703.3,236.7 '/>
		<polygon fill = 'rgb( 31, 120, 180)' fill-opacity = '0.250000' points = '703.3,236.7 703.3,662.4 705.2,662.4 705.2,240.2 '/>
		<polygon fill = 'rgb( 31, 120, 180)' fill-opacity = '0.250000' points = '705.2,240.2 705.2,662.4 707.1,662.4 707.1,243.8 '/>
		<polygon fill = 'rgb( 31, 120, 180)' fill-opacity = '0.250000' points = '707.1,243.8 707.1,662.4 709.0,662.4 709.0,247.3 '/>
		<polygon fill = 'rgb( 31, 120, 180)' fill-opacity = '0.250000' points = '709.0,247.3 709.0,662.4 710.9,662.4 710.9,250.8 '/>
		<polygon fill = 'rgb( 31, 120, 180)' fill-opacity = '0.250000' points = '710.9,250.8 710.9,662.4 712.8,662.4 712.8,254.4 '/>
		<polygon fill = 'rgb( 31, 120, 180)' fill-opacity = '0.250000' points = '712.8,254.4 712.8,662.4 714.7,662.4 714.7,257.9 '/>
		<polygon fill = 'rgb( 31, 120, 180)' fill-opacity = '0.250000' points = '714.7,257.9 714.7,662.4 716.6,662.4 716.6,261.4 '/>
		<polygon fill = 'rgb( 31, 120, 180)' fill-opacity = '0.250000' points = '716.6,261.4 716.6,662.4 718.5,662.4 718.5,264.8 '/>
		<polygon fill = 'rgb( 31, 120, 180)' fill-opacity = '0.250000' points = '718.5,264.8 718.5,662.4 720.4,662.4 720.4,268.3 '/>
		<polygon fill = 'rgb( 31, 120, 180)' fill-opacity = '0.250000' points = '720.4,268.3 720.4,662.4 722.3,662.4 722.3,271.7 '/>
		<polygon fill = 'rgb( 31, 120, 180)' fill-opacity = '0.250000' points = '722.3,271.7 722.3,662.4 724.2,662.4 724.2,275.0 '/>
		<polygon fill = 'rgb( 31, 120, 180)' fill-opacity = '0.250000' points = '724.2,275.0 724.2,662.4 726.1,662.4 726.1,278.4 '/>
		<polygon fill = 'rgb( 31, 120, 180)' fill-opacity = '0.250000' points = '726.1,278.4 726.1,662.4 728.0,662.4 728.0,281.7 '/>
		<polygon fill = 'rgb( 31, 120, 180)' fill-opacity = '0.250000' points = '728.0,281.7 728.0,662.4 729.9,662.4 729.9,285.0 '/>
		<polygon fill = 'rgb( 31, 120, 180)' fill-opacity = '0.250000' points = '729.9,285.0 729.9,662.4 731.8,662.4 731.8,288.2 '/>
		<polygon fill = 'rgb( 31, 120, 180)' fill-opacity = '0.250000' points = '731.8,288.2 731.8,662.4 733.7,662.4 733.7,291.4 '/>
		<polygon fill = 'rgb( 31, 120, 180)' fill-opacity = '0.250000' points = '733.7,291.4 733.7,662.4 735.6,662.4 735.6,294.6 '/>
		<polygon fill = 'rgb( 31, 120, 180)' fill-opacity = '0.250000' points = '735.6,294.6 735.6,662.4 737.5,662.4 737.5,297.8 '/>
		<polygon fill = 'rgb( 31, 120, 180)' fill-opacity = '0.250000' points = '737.5,297.8 737.5,662.4 739.5,662.4 739.5,301.0 '/>
		<polygon fill = 'rgb( 31, 120, 180)' fill-opacity = '0.250000' points = '739.5,301.0 739.5,662.4 741.4,662.4 741.4,304.1 '/>
		<polygon fill = 'rgb( 31, 120, 180)' fill-opacity = '0.250000' points = '741.4,304.1 741.4,662.4 743.3,662.4 743.3,307.3 '/>
		<polygon fill = 'rgb( 31, 120, 180)' fill-opacity = '0.250000' points = '743.3,307.3 743.3,662.4 745.2,662.4 745.2,310.4 '/>
		<polygon fill = 'rgb( 31, 120, 180)' fill-opacity = '0.250000' points = '745.2,310.4 745.2,662.4 747.1,662.4 747.1,313.6 '/>
		<polygon fill = 'rgb( 31, 120, 180)' fill-opacity = '0.250000' points = '747.1,313.6 747.1,662.4 749.0,662.4 749.0,316.8 '/>
		<polygon fill = 'rgb( 31, 120, 180)' fill-opacity = '0.250000' points = '749.0,316.8 749.0,662.4 750.9,662.4 750.9,320.0 '/>
		<polygon fill = 'rgb( 31, 120, 180)' fill-opacity = '0.250000' points = '750.9,320.0 750.9,662.4 752.8,662.4 752.8,323.2 '/>
		<polygon fill = 'rgb( 31, 120, 180)' fill-opacity = '0.250000' points = '752.8,323.2 752.8,662.4 754.7,662.4 754.7,326.5 '/>
		<polygon fill = 'rgb( 31, 120, 180)' fill-opacity = '0.250000' points = '754.7,326.5 754.7,662.4 756.6,662.4 756.6,329.8 '/>
		<polygon fill = 'rgb( 31, 120, 180)' fill-opacity = '0.250000' points = '756.6,329.8 756.6,662.4 758.5,662.4 758.5,333.1 '/>
		<polygon fill = 'rgb( 31, 120, 180)' fill-opacity = '0.250000' points = '758.5,333.1 758.5,662.4 760.4,662.4 760.4,336.4 '/>
		<polygon fill = 'rgb( 31, 120, 180)' fill-opacity = '0.250000' points = '760.4,336.4 760.4,662.4 762.3,662.4 762.3,339.8 '/>
		<polygon fill = 'rgb( 31, 120, 180)' fill-opacity = '0.250000' points = '762.3,339.8 762.3,662.4 764.2,662.4 764.2,343.2 '/>
		<polygon fill = 'rgb( 31, 120, 180)' fill-opacity = '0.250000' points = '764.2,343.2 764.2,662.4 766.1,662.4 766.1,346.6 '/>
		<polygon fill = 'rgb( 31, 120, 180)' fill-opacity = '0.250000' points = '766.1,346.6 766.1,662.4 768.0,662.4 768.0,350.1 '/>
		<polygon fill = 'rgb( 31, 120, 180)' fill-opacity = '0.250000' points = '768.0,350.1 768.0,662.4 769.9,662.4 769.9,353.5 '/>
		<polygon fill = 'rgb( 31, 120, 180)' fill-opacity = '0.250000' points = '769.9,353.5 769.9,662.4 771.8,662.4 771.8,357.0 '/>
		<polygon fill = 'rgb( 31, 120, 180)' fill-opacity = '0.250000' points = '771.8,357.0 771.8,662.4 773.7,662.4 773.7,360.4 '/>
		<polygon fill = 'rgb( 31, 120, 180)' fill-opacity = '0.250000' points = '773.7,360.4 773.7,662.4 775.6,662.4 775.6,363.9 '/>
		<polygon fill = 'rgb( 31, 120, 180)' fill-opacity = '0.250000' points = '775.6,363.9 775.6,662.4 777.5,662.4 777.5,367.3 '/>
		<polygon fill = 'rgb( 31, 120, 180)' fill-opacity = '0.250000' points = '777.5,367.3 777.5,662.4 779.4,662.4 779.4,370.8 '/>
		<polygon fill = 'rgb( 31, 120, 180)' fill-opacity = '0.250000' points = '779.4,370.8 779.4,662.4 781.3,662.4 781.3,374.2 '/>
		<polygon fill = 'rgb( 31, 120, 180)' fill-opacity = '0.250000' points = '781.3,374.2 781.3,662.4 783.2,662.4 783.2,377.6 '/>
		<polygon fill = 'rgb( 31, 120, 180)' fill-opacity = '0.250000' points = '783.2,377.6 783.2,662.4 785.1,662.4 785.1,381.0 '/>
		<polygon fill = 'rgb( 31, 120, 180)' fill-opacity = '0.250000' points = '785.1,381.0 785.1,662.4 787.0,662.4 787.0,384.3 '/>
		<polygon fill = 'rgb( 31, 120, 180)' fill-opacity = '0.250000' points = '787.0,384.3 787.0,662.4 789.0,662.4 789.0,387.6 '/>
		<polygon fill = 'rgb( 31, 120, 180)' fill-opacity = '0.250000' points = '789.0,387.6 789.0,662.4 790.9,662.4 790.9,390.9 '/>
		<polygon fill = 'rgb( 31, 120, 180)' fill-opacity = '0.250000' points = '790.9,390.9 790.9,662.4 792.8,662.4 792.8,394.2 '/>
		<polygon fill = 'rgb( 31, 120, 180)' fill-opacity = '0.250000' points = '792.8,394.2 792.8,662.4 794.7,662.4 794.7,397.4 '/>
		<polygon fill = 'rgb( 31, 120, 180)' fill-opacity = '0.250000' points = '794.7,397.4 794.7,662.4 796.6,662.4 796.6,400.6 '/>
		<polygon fill = 'rgb( 31, 120, 180)' fill-opacity = '0.250000' points = '796.6,400.6 796.6,662.4 798.5,662.4 798.5,403.8 '/>
		<polygon fill = 'rgb( 31, 120, 180)' fill-opacity = '0.250000' points = '798.5,403.8 798.5,662.4 800.4,662.4 800.4,406.9 '/>
		<polygon fill = 'rgb( 31, 120, 180)' fill-opacity = '0.250000' points = '800.4,406.9 800.4,662.4 802.3,662.4 802.3,410.0 '/>
		<polygon fill = 'rgb( 31, 120, 180)' fill-opacity = '0.250000' points = '802.3,410.0 802.3,662.4 804.2,662.4 804.2,413.1 '/>
		<polygon fill = 'rgb( 31, 120, 180)' fill-opacity = '0.250000' points = '804.2,413.1 804.2,662.4 806.1,662.4 806.1,416.1 '/>
		<polygon fill = 'rgb( 31, 120, 180)' fill-opacity = '0.250000' points = '806.1,416.1 806.1,662.4 808.0,662.4 808.0,419.2 '/>
		<polygon fill = 'rgb( 31, 120, 180)' fill-opacity = '0.250000' points = '808.0,419.2 808.0,662.4 809.9,662.4 809.9,422.2 '/>
		<polygon fill = 'rgb( 31, 120, 180)' fill-opacity = '0.250000' points = '809.9,422.2 809.9,662.4 811.8,662.4 811.8,425.2 '/>
		<polygon fill = 'rgb( 31, 120, 180)' fill-opacity = '0.250000' points = '811.8,425.2 811.8,662.4 813.7,662.4 813.7,428.2 '/>
		<polygon fill = 'rgb( 31, 120, 180)' fill-opacity = '0.250000' points = '813.7,428.2 813.7,662.4 815.6,662.4 815.6,431.1 '/>
		<polygon fill = 'rgb( 31, 120, 180)' fill-opacity = '0.250000' points = '815.6,431.1 815.6,662.4 817.5,662.4 817.5,434.1 '/>
		<polygon fill = 'rgb( 31, 120, 180)' fill-opacity = '0.250000' points = '817.5,434.1 817.5,662.4 819.4,662.4 819.4,437.1 '/>
		<polygon fill = 'rgb( 31, 120, 180)' fill-opacity = '0.250000' points = '819.4,437.1 819.4,662.4 821.3,662.4 821.3,440.0 '/>
		<polygon fill = 'rgb( 31, 120, 180)' fill-opacity = '0.250000' points = '821.3,440.0 821.3,662.4 823.2,662.4 823.2,443.0 '/>
		<polygon fill = 'rgb( 31, 120, 180)' fill-opacity = '0.250000' points = '823.2,443.0 823.2,662.4 825.1,662.4 825.1,445.9 '/>
		<polygon fill = 'rgb( 31, 120, 180)' fill-opacity = '0.250000' points = '825.1,445.9 825.1,662.4 827.0,662.4 827.0,448.8 '/>
		<polygon fill = 'rgb( 31, 120, 180)' fill-opacity = '0.250000' points = '827.0,448.8 827.0,662.4 828.9,662.4 828.9,451.8 '/>
		<polygon fill = 'rgb( 31, 120, 180)' fill-opacity = '0.250000' points = '828.9,451.8 828.9,662.4 830.8,662.4 830.8,454.7 '/>
		<polygon fill = 'rgb( 31, 120, 180)' fill-opacity = '0.250000' points = '830.8,454.7 830.8,662.4 832.7,662.4 832.7,457.6 '/>
		<polygon fill = 'rgb( 31, 120, 180)' fill-opacity = '0.250000' points = '832.7,457.6 832.7,662.4 834.6,662.4 834.6,460.5 '/>
		<polygon fill = 'rgb( 31, 120, 180)' fill-opacity = '0.250000' points = '834.6,460.5 834.6,662.4 836.5,662.4 836.5,463.4 '/>
		<polygon fill = 'rgb( 31, 120, 180)' fill-opacity = '0.250000' points = '836.5,463.4 836.5,662.4 838.4,662.4 838.4,466.3 '/>
		<polygon fill = 'rgb( 31, 120, 180)' fill-opacity = '0.250000' points = '838.4,466.3 838.4,662.4 840.4,662.4 840.4,469.2 '/>
		<polygon fill = 'rgb( 31, 120, 180)' fill-opacity = '0.250000' points = '840.4,469.2 840.4,662.4 842.3,662.4 842.3,472.0 '/>
		<polygon fill = 'rgb( 31, 120, 180)' fill-opacity = '0.250000' points = '842.3,472.0 842.3,662.4 844.2,662.4 844.2,474.9 '/>
		<polygon fill = 'rgb( 31, 120, 180)' fill-opacity = '0.250000' points = '844.2,474.9 844.2,662.4 846.1,662.4 846.1,477.7 '/>
		<polygon fill = 'rgb( 31, 120, 180)' fill-opacity = '0.250000' points = '846.1,477.7 846.1,662.4 848.0,662.4 848.0,480.5 '/>
		<polygon fill = 'rgb( 31, 120, 180)' fill-opacity = '0.250000' points = '848.0,480.5 848.0,662.4 849.9,662.4 849.9,483.3 '/>
		<polygon fill = 'rgb( 31, 120, 180)' fill-opacity = '0.250000' points = '849.9,483.3 849.9,662.4 851.8,662.4 851.8,486.1 '/>
		<polygon fill = 'rgb( 31, 120, 180)' fill-opacity = '0.250000' points = '851.8,486.1 851.8,662.4 853.7,662.4 853.7,488.9 '/>
		<polygon fill = 'rgb( 31, 120, 180)' fill-opacity = '0.250000' points = '853.7,488.9 853.7,662.4 855.6,662.4 855.6,491.6 '/>
		<polygon fill = 'rgb( 31, 120, 180)' fill-opacity = '0.250000' points = '855.6,491.6 855.6,662.4 857.5,662.4 857.5,494.3 '/>
		<polygon fill = 'rgb( 31, 120, 180)' fill-opacity = '0.250000' points = '857.5,494.3 857.5,662.4 859.4,662.4 859.4,497.0 '/>
		<polygon fill = 'rgb( 31, 120, 180)' fill-opacity = '0.250000' points = '859.4,497.0 859.4,662.4 861.3,662.4 861.3,499.7 '/>
		<polygon fill = 'rgb( 31, 120, 180)' fill-opacity = '0.250000' points = '861.3,499.7 861.3,662.4 863.2,662.4 863.2,502.3 '/>
		<polygon fill = 'rgb( 31, 120, 180)' fill-opacity = '0.250000' points = '863.2,502.3 863.2,662.4 865.1,662.4 865.1,504.9 '/>
		<polygon fill = 'rgb( 31, 120, 180)' fill-opacity = '0.250000' points = '865.1,504.9 865.1,662.4 867.0,662.4 867.0,507.5 '/>
		<polygon fill = 'rgb( 31, 120, 180)' fill-opacity = '0.250000' points = '867.0,507.5 867.0,662.4 868.9,662.4 868.9,510.1 '/>
		<polygon fill = 'rgb( 31, 120, 180)' fill-opacity = '0.250000' points = '868.9,510.1 868.9,662.4 870.8,662.4 870.8,512.6 '/>
		<polygon fill = 'rgb( 31, 120, 180)' fill-opacity = '0.250000' points = '870.8,512.6 870.8,662.4 872.7,662.4 872.7,515.0 '/>
		<polygon fill = 'rgb( 31, 120, 180)' fill-opacity = '0.250000' points = '872.7,515.0 872.7,662.4 874.6,662.4 874.6,517.5 '/>
		<polygon fill = 'rgb( 31, 120, 180)' fill-opacity = '0.250000' points = '874.6,517.5 874.6,662.4 876.5,662.4 876.5,519.8 '/>
		<polygon fill = 'rgb( 31, 120, 180)' fill-opacity = '0.250000' points = '876.5,519.8 876.5,662.4 878.4,662.4 878.4,522.2 '/>
		<polygon fill = 'rgb( 31, 120, 180)' fill-opacity = '0.250000' points = '878.4,522.2 878.4,662.4 880.3,662.4 880.3,524.4 '/>
		<polygon fill = 'rgb( 31, 120, 180)' fill-opacity = '0.250000' points = '880.3,524.4 880.3,662.4 882.2,662.4 882.2,526.7 '/>
		<polygon fill = 'rgb( 31, 120, 180)' fill-opacity = '0.250000' points = '882.2,526.7 882.2,662.4 884.1,662.4 884.1,528.8 '/>
		<polygon fill = 'rgb( 31, 120, 180)' fill-opacity = '0.250000' points = '884.1,528.8 884.1,662.4 886.0,662.4 886.0,531.0 '/>
		<polygon fill = 'rgb( 31, 120, 180)' fill-opacity = '0.250000' points = '886.0,531.0 886.0,662.4 887.9,662.4 887.9,533.0 '/>
		<polygon fill = 'rgb( 31, 120, 180)' fill-opacity = '0.250000' points = '887.9,533.0 887.9,662.4 889.9,662.4 889.9,535.1 '/>
		<polygon fill = 'rgb( 31, 120, 180)' fill-opacity = '0.250000' points = '889.9,535.1 889.9,662.4 891.8,662.4 891.8,537.1 '/>
		<polygon fill = 'rgb( 31, 120, 180)' fill-opacity = '0.250000' points = '891.8,537.1 891.8,662.4 893.7,662.4 893.7,539.0 '/>
		<polygon fill = 'rgb( 31, 120, 180)' fill-opacity = '0.250000' points = '893.7,539.0 893.7,662.4 895.6,662.4 895.6,540.9 '/>
		<polygon fill = 'rgb( 31, 120, 180)' fill-opacity = '0.250000' points = '895.6,540.9 895.6,662.4 897.5,662.4 897.5,542.8 '/>
		<polygon fill = 'rgb( 31, 120, 180)' fill-opacity = '0.250000' points = '897.5,542.8 897.5,662.4 899.4,662.4 899.4,544.6 '/>
		<polygon fill = 'rgb( 31, 120, 180)' fill-opacity = '0.250000' points = '899.4,544.6 899.4,662.4 901.3,662.4 901.3,546.5 '/>
		<polygon fill = 'rgb( 31, 120, 180)' fill-opacity = '0.250000' points = '901.3,546.5 901.3,662.4 903.2,662.4 903.2,548.3 '/>
		<polygon fill = 'rgb( 31, 120, 180)' fill-opacity = '0.250000' points = '903.2,548.3 903.2,662.4 905.1,662.4 905.1,550.0 '/>
		<polygon fill = 'rgb( 31, 120, 180)' fill-opacity = '0.250000' points = '905.1,550.0 905.1,662.4 907.0,662.4 907.0,551.8 '/>
		<polygon fill = 'rgb( 31, 120, 180)' fill-opacity = '0.250000' points = '907.0,551.8 907.0,662.4 908.9,662.4 908.9,553.5 '/>
		<polygon fill = 'rgb( 31, 120, 180)' fill-opacity = '0.250000' points = '908.9,553.5 908.9,662.4 910.8,662.4 910.8,555.3 '/>
		<polygon fill = 'rgb( 31, 120, 180)' fill-opacity = '0.250000' points = '910.8,555.3 910.8,662.4 912.7,662.4 912.7,557.0 '/>
		<polygon fill = 'rgb( 31, 120, 180)' fill-opacity = '0.250000' points = '912.7,557.0 912.7,662.4 914.6,662.4 914.6,558.8 '/>
		<polygon fill = 'rgb( 31, 120, 180)' fill-opacity = '0.250000' points = '914.6,558.8 914.6,662.4 916.5,662.4 916.5,560.5 '/>
		<polygon fill = 'rgb( 31, 120, 180)' fill-opacity = '0.250000' points = '916.5,560.5 916.5,662.4 918.4,662.4 918.4,562.2 '/>
		<polygon fill = 'rgb( 31, 120, 180)' fill-opacity = '0.250000' points = '918.4,562.2 918.4,662.4 920.3,662.4 920.3,563.9 '/>
		<polygon fill = 'rgb( 31, 120, 180)' fill-opacity = '0.250000' points = '920.3,563.9 920.3,662.4 922.2,662.4 922.2,565.6 '/>
		<polygon fill = 'rgb( 31, 120, 180)' fill-opacity = '0.250000' points = '922.2,565.6 922.2,662.4 924.1,662.4 924.1,567.3 '/>
	</g>
</g>
	</g>
	<g id="gnuplot_plot_3" ><title>Point estimate</title>
<g fill="none" color="white" stroke="rgb( 31, 120, 180)" stroke-width="2.00" stroke-linecap="butt" stroke-linejoin="miter">
</g>
<g fill="none" color="black" stroke="currentColor" stroke-width="2.00" stroke-linecap="butt" stroke-linejoin="miter">
	<g transform="translate(1089.0,103.0)" stroke="none" fill="black" font-family="Helvetica" font-size="12.00"  text-anchor="start">
		<text><tspan font-family="Helvetica" >Point estimate</tspan></text>
	</g>
</g>
<g fill="none" color="black" stroke="currentColor" stroke-width="2.00" stroke-linecap="butt" stroke-linejoin="miter">
	<path stroke='rgb( 31, 120, 180)'  d='M1038.5,99.1 L1080.7,99.1 M524.8,662.4 L524.8,66.9  '/></g>
	</g>
	<g id="gnuplot_plot_4" ><title>Noise threshold</title>
<g fill="none" color="white" stroke="rgb( 31, 120, 180)" stroke-width="1.00" stroke-linecap="butt" stroke-linejoin="miter">
</g>
<g fill="none" color="black" stroke="currentColor" stroke-width="1.00" stroke-linecap="butt" stroke-linejoin="miter">
	<g transform="translate(1089.0,121.0)" stroke="none" fill="black" font-family="Helvetica" font-size="12.00"  text-anchor="start">
		<text><tspan font-family="Helvetica" >Noise threshold</tspan></text>
	</g>
</g>
<g fill="none" color="black" stroke="currentColor" stroke-width="1.00" stroke-linecap="butt" stroke-linejoin="miter">
	<g stroke='none' shape-rendering='crispEdges'>
		<polygon fill = 'rgb(227,  26,  28)' fill-opacity = '0.100000' points = '1038.5,121.6 1080.7,121.6 1080.7,112.6 1038.5,112.6 '/>
		<polygon fill = 'rgb(227,  26,  28)' fill-opacity = '0.100000' points = '861.6,54.1 861.6,662.4 1013.6,662.4 1013.6,54.1 '/>
	</g>
</g>
	</g>
<g fill="none" color="white" stroke="rgb(227,  26,  28)" stroke-width="2.00" stroke-linecap="butt" stroke-linejoin="miter">
</g>
<g fill="none" color="black" stroke="currentColor" stroke-width="2.00" stroke-linecap="butt" stroke-linejoin="miter">
</g>
<g fill="none" color="black" stroke="black" stroke-width="1.00" stroke-linecap="butt" stroke-linejoin="miter">
</g>
<g fill="none" color="black" stroke="currentColor" stroke-width="1.00" stroke-linecap="butt" stroke-linejoin="miter">
	<path stroke='black'  d='M63.6,54.1 L63.6,662.4 L1013.6,662.4 L1013.6,54.1 L63.6,54.1 Z  '/></g>
<g fill="none" color="black" stroke="currentColor" stroke-width="1.00" stroke-linecap="butt" stroke-linejoin="miter">
</g>
</g>
</svg>

