<?xml version="1.0" encoding="utf-8"  standalone="no"?>
<!DOCTYPE svg PUBLIC "-//W3C//DTD SVG 1.1//EN"
 "http://www.w3.org/Graphics/SVG/1.1/DTD/svg11.dtd">
<svg 
 viewBox="0 0 1280 720"
 xmlns="http://www.w3.org/2000/svg"
 xmlns:xlink="http://www.w3.org/1999/xlink"
>

<title>Gnuplot</title>
<desc>Produced by GNUPLOT 5.0 patchlevel 5 </desc>

<g id="gnuplot_canvas">

<rect x="0" y="0" width="1280" height="720" fill="none"/>
<defs>

	<circle id='gpDot' r='0.5' stroke-width='0.5'/>
	<path id='gpPt0' stroke-width='0.222' stroke='currentColor' d='M-1,0 h2 M0,-1 v2'/>
	<path id='gpPt1' stroke-width='0.222' stroke='currentColor' d='M-1,-1 L1,1 M1,-1 L-1,1'/>
	<path id='gpPt2' stroke-width='0.222' stroke='currentColor' d='M-1,0 L1,0 M0,-1 L0,1 M-1,-1 L1,1 M-1,1 L1,-1'/>
	<rect id='gpPt3' stroke-width='0.222' stroke='currentColor' x='-1' y='-1' width='2' height='2'/>
	<rect id='gpPt4' stroke-width='0.222' stroke='currentColor' fill='currentColor' x='-1' y='-1' width='2' height='2'/>
	<circle id='gpPt5' stroke-width='0.222' stroke='currentColor' cx='0' cy='0' r='1'/>
	<use xlink:href='#gpPt5' id='gpPt6' fill='currentColor' stroke='none'/>
	<path id='gpPt7' stroke-width='0.222' stroke='currentColor' d='M0,-1.33 L-1.33,0.67 L1.33,0.67 z'/>
	<use xlink:href='#gpPt7' id='gpPt8' fill='currentColor' stroke='none'/>
	<use xlink:href='#gpPt7' id='gpPt9' stroke='currentColor' transform='rotate(180)'/>
	<use xlink:href='#gpPt9' id='gpPt10' fill='currentColor' stroke='none'/>
	<use xlink:href='#gpPt3' id='gpPt11' stroke='currentColor' transform='rotate(45)'/>
	<use xlink:href='#gpPt11' id='gpPt12' fill='currentColor' stroke='none'/>
	<path id='gpPt13' stroke-width='0.222' stroke='currentColor' d='M0,1.330 L1.265,0.411 L0.782,-1.067 L-0.782,-1.076 L-1.265,0.411 z'/>
	<use xlink:href='#gpPt13' id='gpPt14' fill='currentColor' stroke='none'/>
	<filter id='textbox' filterUnits='objectBoundingBox' x='0' y='0' height='1' width='1'>
	  <feFlood flood-color='white' flood-opacity='1' result='bgnd'/>
	  <feComposite in='SourceGraphic' in2='bgnd' operator='atop'/>
	</filter>
	<filter id='greybox' filterUnits='objectBoundingBox' x='0' y='0' height='1' width='1'>
	  <feFlood flood-color='lightgrey' flood-opacity='1' result='grey'/>
	  <feComposite in='SourceGraphic' in2='grey' operator='atop'/>
	</filter>
</defs>
<g fill="none" color="white" stroke="currentColor" stroke-width="1.00" stroke-linecap="butt" stroke-linejoin="miter">
</g>
<g fill="none" color="black" stroke="currentColor" stroke-width="1.00" stroke-linecap="butt" stroke-linejoin="miter">
	<path stroke='black'  d='M71.9,662.4 L80.9,662.4  '/>	<g transform="translate(63.6,666.3)" stroke="none" fill="black" font-family="Helvetica" font-size="12.00"  text-anchor="end">
		<text><tspan font-family="Helvetica" > 0</tspan></text>
	</g>
</g>
<g fill="none" color="black" stroke="currentColor" stroke-width="1.00" stroke-linecap="butt" stroke-linejoin="miter">
	<path stroke='black'  d='M71.9,594.8 L80.9,594.8  '/>	<g transform="translate(63.6,598.7)" stroke="none" fill="black" font-family="Helvetica" font-size="12.00"  text-anchor="end">
		<text><tspan font-family="Helvetica" > 20</tspan></text>
	</g>
</g>
<g fill="none" color="black" stroke="currentColor" stroke-width="1.00" stroke-linecap="butt" stroke-linejoin="miter">
	<path stroke='black'  d='M71.9,527.2 L80.9,527.2  '/>	<g transform="translate(63.6,531.1)" stroke="none" fill="black" font-family="Helvetica" font-size="12.00"  text-anchor="end">
		<text><tspan font-family="Helvetica" > 40</tspan></text>
	</g>
</g>
<g fill="none" color="black" stroke="currentColor" stroke-width="1.00" stroke-linecap="butt" stroke-linejoin="miter">
	<path stroke='black'  d='M71.9,459.6 L80.9,459.6  '/>	<g transform="translate(63.6,463.5)" stroke="none" fill="black" font-family="Helvetica" font-size="12.00"  text-anchor="end">
		<text><tspan font-family="Helvetica" > 60</tspan></text>
	</g>
</g>
<g fill="none" color="black" stroke="currentColor" stroke-width="1.00" stroke-linecap="butt" stroke-linejoin="miter">
	<path stroke='black'  d='M71.9,392.0 L80.9,392.0  '/>	<g transform="translate(63.6,395.9)" stroke="none" fill="black" font-family="Helvetica" font-size="12.00"  text-anchor="end">
		<text><tspan font-family="Helvetica" > 80</tspan></text>
	</g>
</g>
<g fill="none" color="black" stroke="currentColor" stroke-width="1.00" stroke-linecap="butt" stroke-linejoin="miter">
	<path stroke='black'  d='M71.9,324.5 L80.9,324.5  '/>	<g transform="translate(63.6,328.4)" stroke="none" fill="black" font-family="Helvetica" font-size="12.00"  text-anchor="end">
		<text><tspan font-family="Helvetica" > 100</tspan></text>
	</g>
</g>
<g fill="none" color="black" stroke="currentColor" stroke-width="1.00" stroke-linecap="butt" stroke-linejoin="miter">
	<path stroke='black'  d='M71.9,256.9 L80.9,256.9  '/>	<g transform="translate(63.6,260.8)" stroke="none" fill="black" font-family="Helvetica" font-size="12.00"  text-anchor="end">
		<text><tspan font-family="Helvetica" > 120</tspan></text>
	</g>
</g>
<g fill="none" color="black" stroke="currentColor" stroke-width="1.00" stroke-linecap="butt" stroke-linejoin="miter">
	<path stroke='black'  d='M71.9,189.3 L80.9,189.3  '/>	<g transform="translate(63.6,193.2)" stroke="none" fill="black" font-family="Helvetica" font-size="12.00"  text-anchor="end">
		<text><tspan font-family="Helvetica" > 140</tspan></text>
	</g>
</g>
<g fill="none" color="black" stroke="currentColor" stroke-width="1.00" stroke-linecap="butt" stroke-linejoin="miter">
	<path stroke='black'  d='M71.9,121.7 L80.9,121.7  '/>	<g transform="translate(63.6,125.6)" stroke="none" fill="black" font-family="Helvetica" font-size="12.00"  text-anchor="end">
		<text><tspan font-family="Helvetica" > 160</tspan></text>
	</g>
</g>
<g fill="none" color="black" stroke="currentColor" stroke-width="1.00" stroke-linecap="butt" stroke-linejoin="miter">
	<path stroke='black'  d='M71.9,54.1 L80.9,54.1  '/>	<g transform="translate(63.6,58.0)" stroke="none" fill="black" font-family="Helvetica" font-size="12.00"  text-anchor="end">
		<text><tspan font-family="Helvetica" > 180</tspan></text>
	</g>
</g>
<g fill="none" color="black" stroke="currentColor" stroke-width="1.00" stroke-linecap="butt" stroke-linejoin="miter">
	<path stroke='black'  d='M112.5,662.4 L112.5,653.4  '/>	<g transform="translate(112.5,684.3)" stroke="none" fill="black" font-family="Helvetica" font-size="12.00"  text-anchor="middle">
		<text><tspan font-family="Helvetica" > 7.684</tspan></text>
	</g>
</g>
<g fill="none" color="black" stroke="currentColor" stroke-width="1.00" stroke-linecap="butt" stroke-linejoin="miter">
	<path stroke='black'  d='M290.0,662.4 L290.0,653.4  '/>	<g transform="translate(290.0,684.3)" stroke="none" fill="black" font-family="Helvetica" font-size="12.00"  text-anchor="middle">
		<text><tspan font-family="Helvetica" > 7.686</tspan></text>
	</g>
</g>
<g fill="none" color="black" stroke="currentColor" stroke-width="1.00" stroke-linecap="butt" stroke-linejoin="miter">
	<path stroke='black'  d='M467.6,662.4 L467.6,653.4  '/>	<g transform="translate(467.6,684.3)" stroke="none" fill="black" font-family="Helvetica" font-size="12.00"  text-anchor="middle">
		<text><tspan font-family="Helvetica" > 7.688</tspan></text>
	</g>
</g>
<g fill="none" color="black" stroke="currentColor" stroke-width="1.00" stroke-linecap="butt" stroke-linejoin="miter">
	<path stroke='black'  d='M645.1,662.4 L645.1,653.4  '/>	<g transform="translate(645.1,684.3)" stroke="none" fill="black" font-family="Helvetica" font-size="12.00"  text-anchor="middle">
		<text><tspan font-family="Helvetica" > 7.69</tspan></text>
	</g>
</g>
<g fill="none" color="black" stroke="currentColor" stroke-width="1.00" stroke-linecap="butt" stroke-linejoin="miter">
	<path stroke='black'  d='M822.6,662.4 L822.6,653.4  '/>	<g transform="translate(822.6,684.3)" stroke="none" fill="black" font-family="Helvetica" font-size="12.00"  text-anchor="middle">
		<text><tspan font-family="Helvetica" > 7.692</tspan></text>
	</g>
</g>
<g fill="none" color="black" stroke="currentColor" stroke-width="1.00" stroke-linecap="butt" stroke-linejoin="miter">
	<path stroke='black'  d='M1000.1,662.4 L1000.1,653.4  '/>	<g transform="translate(1000.1,684.3)" stroke="none" fill="black" font-family="Helvetica" font-size="12.00"  text-anchor="middle">
		<text><tspan font-family="Helvetica" > 7.694</tspan></text>
	</g>
</g>
<g fill="none" color="black" stroke="currentColor" stroke-width="1.00" stroke-linecap="butt" stroke-linejoin="miter">
</g>
<g fill="none" color="black" stroke="currentColor" stroke-width="1.00" stroke-linecap="butt" stroke-linejoin="miter">
	<path stroke='black'  d='M71.9,54.1 L71.9,662.4 L1013.6,662.4 L1013.6,54.1 L71.9,54.1 Z  '/></g>
<g fill="none" color="black" stroke="currentColor" stroke-width="1.00" stroke-linecap="butt" stroke-linejoin="miter">
	<g transform="translate(17.0,358.3) rotate(270)" stroke="none" fill="black" font-family="Helvetica" font-size="12.00"  text-anchor="middle">
		<text><tspan font-family="Helvetica" >Density (a.u.)</tspan></text>
	</g>
</g>
<g fill="none" color="black" stroke="currentColor" stroke-width="1.00" stroke-linecap="butt" stroke-linejoin="miter">
	<g transform="translate(542.7,711.3)" stroke="none" fill="black" font-family="Helvetica" font-size="12.00"  text-anchor="middle">
		<text><tspan font-family="Helvetica" >Average time (ms)</tspan></text>
	</g>
</g>
<g fill="none" color="black" stroke="currentColor" stroke-width="1.00" stroke-linecap="butt" stroke-linejoin="miter">
	<g transform="translate(542.7,31.0)" stroke="none" fill="black" font-family="Helvetica" font-size="12.00"  text-anchor="middle">
		<text><tspan font-family="Helvetica" >dlist arc ghostcell init: mean</tspan></text>
	</g>
</g>
	<g id="gnuplot_plot_1" ><title>Bootstrap distribution</title>
<g fill="none" color="white" stroke="black" stroke-width="2.00" stroke-linecap="butt" stroke-linejoin="miter">
</g>
<g fill="none" color="black" stroke="currentColor" stroke-width="2.00" stroke-linecap="butt" stroke-linejoin="miter">
	<g transform="translate(1089.0,67.0)" stroke="none" fill="black" font-family="Helvetica" font-size="12.00"  text-anchor="start">
		<text><tspan font-family="Helvetica" >Bootstrap distribution</tspan></text>
	</g>
</g>
<g fill="none" color="black" stroke="currentColor" stroke-width="2.00" stroke-linecap="butt" stroke-linejoin="miter">
	<path stroke='rgb( 31, 120, 180)'  d='M1038.5,63.1 L1080.7,63.1 M71.9,626.9 L73.8,625.8 L75.7,624.6 L77.6,623.4 L79.4,622.2 L81.3,621.0
		L83.2,619.8 L85.1,618.6 L87.0,617.3 L88.9,616.0 L90.8,614.7 L92.7,613.4 L94.5,612.0 L96.4,610.7
		L98.3,609.3 L100.2,607.8 L102.1,606.4 L104.0,604.9 L105.9,603.4 L107.8,601.8 L109.6,600.2 L111.5,598.5
		L113.4,596.9 L115.3,595.1 L117.2,593.4 L119.1,591.6 L121.0,589.7 L122.9,587.8 L124.7,585.9 L126.6,583.9
		L128.5,581.9 L130.4,579.9 L132.3,577.8 L134.2,575.7 L136.1,573.5 L138.0,571.3 L139.8,569.1 L141.7,566.8
		L143.6,564.5 L145.5,562.2 L147.4,559.9 L149.3,557.5 L151.2,555.1 L153.0,552.6 L154.9,550.2 L156.8,547.7
		L158.7,545.1 L160.6,542.6 L162.5,540.0 L164.4,537.3 L166.3,534.6 L168.1,531.9 L170.0,529.2 L171.9,526.4
		L173.8,523.5 L175.7,520.7 L177.6,517.8 L179.5,514.8 L181.4,511.8 L183.2,508.8 L185.1,505.7 L187.0,502.7
		L188.9,499.6 L190.8,496.4 L192.7,493.3 L194.6,490.1 L196.5,486.9 L198.3,483.7 L200.2,480.5 L202.1,477.2
		L204.0,474.0 L205.9,470.7 L207.8,467.4 L209.7,464.1 L211.6,460.8 L213.4,457.5 L215.3,454.1 L217.2,450.8
		L219.1,447.4 L221.0,443.9 L222.9,440.5 L224.8,437.0 L226.6,433.6 L228.5,430.0 L230.4,426.5 L232.3,422.9
		L234.2,419.4 L236.1,415.7 L238.0,412.1 L239.9,408.5 L241.7,404.8 L243.6,401.1 L245.5,397.3 L247.4,393.6
		L249.3,389.8 L251.2,386.0 L253.1,382.2 L255.0,378.4 L256.8,374.5 L258.7,370.7 L260.6,366.8 L262.5,362.9
		L264.4,359.1 L266.3,355.2 L268.2,351.3 L270.1,347.4 L271.9,343.5 L273.8,339.6 L275.7,335.7 L277.6,331.8
		L279.5,328.0 L281.4,324.1 L283.3,320.2 L285.2,316.3 L287.0,312.5 L288.9,308.6 L290.8,304.8 L292.7,300.9
		L294.6,297.1 L296.5,293.2 L298.4,289.4 L300.2,285.6 L302.1,281.8 L304.0,278.0 L305.9,274.2 L307.8,270.4
		L309.7,266.6 L311.6,262.8 L313.5,259.1 L315.3,255.3 L317.2,251.6 L319.1,247.8 L321.0,244.1 L322.9,240.3
		L324.8,236.6 L326.7,232.8 L328.6,229.1 L330.4,225.4 L332.3,221.7 L334.2,218.0 L336.1,214.2 L338.0,210.5
		L339.9,206.9 L341.8,203.2 L343.7,199.5 L345.5,195.8 L347.4,192.2 L349.3,188.6 L351.2,185.0 L353.1,181.5
		L355.0,178.0 L356.9,174.5 L358.8,171.0 L360.6,167.6 L362.5,164.3 L364.4,161.0 L366.3,157.7 L368.2,154.5
		L370.1,151.3 L372.0,148.2 L373.8,145.2 L375.7,142.2 L377.6,139.2 L379.5,136.3 L381.4,133.4 L383.3,130.6
		L385.2,127.9 L387.1,125.2 L388.9,122.6 L390.8,120.1 L392.7,117.6 L394.6,115.2 L396.5,112.8 L398.4,110.5
		L400.3,108.4 L402.2,106.2 L404.0,104.2 L405.9,102.3 L407.8,100.4 L409.7,98.6 L411.6,96.9 L413.5,95.2
		L415.4,93.7 L417.3,92.1 L419.1,90.7 L421.0,89.3 L422.9,87.9 L424.8,86.6 L426.7,85.4 L428.6,84.1
		L430.5,82.9 L432.4,81.7 L434.2,80.5 L436.1,79.3 L438.0,78.2 L439.9,77.0 L441.8,75.9 L443.7,74.7
		L445.6,73.6 L447.4,72.5 L449.3,71.4 L451.2,70.3 L453.1,69.2 L455.0,68.2 L456.9,67.1 L458.8,66.1
		L460.7,65.2 L462.5,64.3 L464.4,63.4 L466.3,62.5 L468.2,61.7 L470.1,61.0 L472.0,60.3 L473.9,59.7
		L475.8,59.1 L477.6,58.7 L479.5,58.2 L481.4,57.9 L483.3,57.6 L485.2,57.4 L487.1,57.3 L489.0,57.3
		L490.9,57.3 L492.7,57.4 L494.6,57.7 L496.5,58.0 L498.4,58.3 L500.3,58.8 L502.2,59.4 L504.1,60.0
		L506.0,60.7 L507.8,61.5 L509.7,62.3 L511.6,63.2 L513.5,64.2 L515.4,65.3 L517.3,66.4 L519.2,67.5
		L521.0,68.7 L522.9,69.9 L524.8,71.2 L526.7,72.5 L528.6,73.8 L530.5,75.2 L532.4,76.5 L534.3,77.9
		L536.1,79.3 L538.0,80.7 L539.9,82.2 L541.8,83.7 L543.7,85.2 L545.6,86.7 L547.5,88.2 L549.4,89.8
		L551.2,91.5 L553.1,93.1 L555.0,94.9 L556.9,96.6 L558.8,98.4 L560.7,100.3 L562.6,102.2 L564.5,104.2
		L566.3,106.3 L568.2,108.4 L570.1,110.6 L572.0,112.8 L573.9,115.1 L575.8,117.4 L577.7,119.8 L579.5,122.2
		L581.4,124.7 L583.3,127.3 L585.2,129.9 L587.1,132.5 L589.0,135.2 L590.9,137.9 L592.8,140.6 L594.6,143.4
		L596.5,146.2 L598.4,149.0 L600.3,151.9 L602.2,154.7 L604.1,157.5 L606.0,160.4 L607.9,163.2 L609.7,166.0
		L611.6,168.8 L613.5,171.6 L615.4,174.3 L617.3,177.0 L619.2,179.7 L621.1,182.3 L623.0,184.9 L624.8,187.4
		L626.7,189.9 L628.6,192.4 L630.5,194.8 L632.4,197.2 L634.3,199.6 L636.2,202.0 L638.1,204.3 L639.9,206.7
		L641.8,209.1 L643.7,211.4 L645.6,213.8 L647.5,216.2 L649.4,218.6 L651.3,221.1 L653.1,223.6 L655.0,226.1
		L656.9,228.7 L658.8,231.3 L660.7,234.0 L662.6,236.7 L664.5,239.5 L666.4,242.3 L668.2,245.2 L670.1,248.2
		L672.0,251.1 L673.9,254.2 L675.8,257.2 L677.7,260.3 L679.6,263.5 L681.5,266.7 L683.3,269.9 L685.2,273.1
		L687.1,276.4 L689.0,279.6 L690.9,282.9 L692.8,286.2 L694.7,289.5 L696.6,292.8 L698.4,296.0 L700.3,299.3
		L702.2,302.6 L704.1,305.9 L706.0,309.2 L707.9,312.5 L709.8,315.8 L711.7,319.1 L713.5,322.4 L715.4,325.7
		L717.3,329.0 L719.2,332.4 L721.1,335.7 L723.0,339.2 L724.9,342.6 L726.7,346.1 L728.6,349.6 L730.5,353.1
		L732.4,356.7 L734.3,360.3 L736.2,363.9 L738.1,367.5 L740.0,371.2 L741.8,374.9 L743.7,378.5 L745.6,382.2
		L747.5,385.8 L749.4,389.4 L751.3,393.0 L753.2,396.5 L755.1,399.9 L756.9,403.3 L758.8,406.7 L760.7,409.9
		L762.6,413.1 L764.5,416.2 L766.4,419.3 L768.3,422.3 L770.2,425.2 L772.0,428.0 L773.9,430.8 L775.8,433.5
		L777.7,436.1 L779.6,438.7 L781.5,441.3 L783.4,443.8 L785.3,446.3 L787.1,448.8 L789.0,451.3 L790.9,453.7
		L792.8,456.2 L794.7,458.7 L796.6,461.1 L798.5,463.6 L800.3,466.0 L802.2,468.5 L804.1,471.0 L806.0,473.4
		L807.9,475.9 L809.8,478.4 L811.7,480.8 L813.6,483.3 L815.4,485.7 L817.3,488.1 L819.2,490.4 L821.1,492.8
		L823.0,495.0 L824.9,497.3 L826.8,499.5 L828.7,501.6 L830.5,503.7 L832.4,505.8 L834.3,507.8 L836.2,509.8
		L838.1,511.7 L840.0,513.6 L841.9,515.4 L843.8,517.3 L845.6,519.1 L847.5,520.9 L849.4,522.7 L851.3,524.5
		L853.2,526.2 L855.1,528.0 L857.0,529.8 L858.9,531.6 L860.7,533.3 L862.6,535.1 L864.5,536.9 L866.4,538.7
		L868.3,540.4 L870.2,542.2 L872.1,544.0 L873.9,545.7 L875.8,547.5 L877.7,549.2 L879.6,550.9 L881.5,552.6
		L883.4,554.2 L885.3,555.9 L887.2,557.5 L889.0,559.1 L890.9,560.7 L892.8,562.3 L894.7,563.8 L896.6,565.4
		L898.5,566.9 L900.4,568.4 L902.3,569.8 L904.1,571.3 L906.0,572.7 L907.9,574.2 L909.8,575.6 L911.7,577.0
		L913.6,578.3 L915.5,579.7 L917.4,581.0 L919.2,582.3 L921.1,583.6 L923.0,584.8 L924.9,586.1 L926.8,587.3
		L928.7,588.5 L930.6,589.7 L932.5,590.8 L934.3,592.0 L936.2,593.1 L938.1,594.2 L940.0,595.3 L941.9,596.4
		L943.8,597.5 L945.7,598.6 L947.5,599.7 L949.4,600.7 L951.3,601.7 L953.2,602.8 L955.1,603.8 L957.0,604.8
		L958.9,605.8 L960.8,606.8 L962.6,607.7 L964.5,608.6 L966.4,609.5 L968.3,610.4 L970.2,611.3 L972.1,612.2
		L974.0,613.0 L975.9,613.8 L977.7,614.6 L979.6,615.4 L981.5,616.1 L983.4,616.9 L985.3,617.6 L987.2,618.4
		L989.1,619.1 L991.0,619.8 L992.8,620.5 L994.7,621.3 L996.6,622.0 L998.5,622.7 L1000.4,623.4 L1002.3,624.2
		L1004.2,624.9 L1006.1,625.6 L1007.9,626.3 L1009.8,627.0 L1011.7,627.7 L1013.6,628.4  '/></g>
	</g>
	<g id="gnuplot_plot_2" ><title>Confidence interval</title>
<g fill="none" color="white" stroke="rgb( 31, 120, 180)" stroke-width="1.00" stroke-linecap="butt" stroke-linejoin="miter">
</g>
<g fill="none" color="black" stroke="currentColor" stroke-width="1.00" stroke-linecap="butt" stroke-linejoin="miter">
	<g transform="translate(1089.0,85.0)" stroke="none" fill="black" font-family="Helvetica" font-size="12.00"  text-anchor="start">
		<text><tspan font-family="Helvetica" >Confidence interval</tspan></text>
	</g>
</g>
<g fill="none" color="black" stroke="currentColor" stroke-width="1.00" stroke-linecap="butt" stroke-linejoin="miter">
	<g stroke='none' shape-rendering='crispEdges'>
		<polygon fill = 'rgb( 31, 120, 180)' fill-opacity = '0.250000' points = '1038.5,85.6 1080.7,85.6 1080.7,76.6 1038.5,76.6 '/>
		<polygon fill = 'rgb( 31, 120, 180)' fill-opacity = '0.250000' points = '158.7,545.1 158.7,662.4 160.6,662.4 160.6,542.6 '/>
		<polygon fill = 'rgb( 31, 120, 180)' fill-opacity = '0.250000' points = '160.6,542.6 160.6,662.4 162.5,662.4 162.5,540.0 '/>
		<polygon fill = 'rgb( 31, 120, 180)' fill-opacity = '0.250000' points = '162.5,540.0 162.5,662.4 164.4,662.4 164.4,537.3 '/>
		<polygon fill = 'rgb( 31, 120, 180)' fill-opacity = '0.250000' points = '164.4,537.3 164.4,662.4 166.3,662.4 166.3,534.6 '/>
		<polygon fill = 'rgb( 31, 120, 180)' fill-opacity = '0.250000' points = '166.3,534.6 166.3,662.4 168.1,662.4 168.1,531.9 '/>
		<polygon fill = 'rgb( 31, 120, 180)' fill-opacity = '0.250000' points = '168.1,531.9 168.1,662.4 170.0,662.4 170.0,529.2 '/>
		<polygon fill = 'rgb( 31, 120, 180)' fill-opacity = '0.250000' points = '170.0,529.2 170.0,662.4 171.9,662.4 171.9,526.4 '/>
		<polygon fill = 'rgb( 31, 120, 180)' fill-opacity = '0.250000' points = '171.9,526.4 171.9,662.4 173.8,662.4 173.8,523.5 '/>
		<polygon fill = 'rgb( 31, 120, 180)' fill-opacity = '0.250000' points = '173.8,523.5 173.8,662.4 175.7,662.4 175.7,520.7 '/>
		<polygon fill = 'rgb( 31, 120, 180)' fill-opacity = '0.250000' points = '175.7,520.7 175.7,662.4 177.6,662.4 177.6,517.8 '/>
		<polygon fill = 'rgb( 31, 120, 180)' fill-opacity = '0.250000' points = '177.6,517.8 177.6,662.4 179.5,662.4 179.5,514.8 '/>
		<polygon fill = 'rgb( 31, 120, 180)' fill-opacity = '0.250000' points = '179.5,514.8 179.5,662.4 181.4,662.4 181.4,511.8 '/>
		<polygon fill = 'rgb( 31, 120, 180)' fill-opacity = '0.250000' points = '181.4,511.8 181.4,662.4 183.2,662.4 183.2,508.8 '/>
		<polygon fill = 'rgb( 31, 120, 180)' fill-opacity = '0.250000' points = '183.2,508.8 183.2,662.4 185.1,662.4 185.1,505.7 '/>
		<polygon fill = 'rgb( 31, 120, 180)' fill-opacity = '0.250000' points = '185.1,505.7 185.1,662.4 187.0,662.4 187.0,502.7 '/>
		<polygon fill = 'rgb( 31, 120, 180)' fill-opacity = '0.250000' points = '187.0,502.7 187.0,662.4 188.9,662.4 188.9,499.6 '/>
		<polygon fill = 'rgb( 31, 120, 180)' fill-opacity = '0.250000' points = '188.9,499.6 188.9,662.4 190.8,662.4 190.8,496.4 '/>
		<polygon fill = 'rgb( 31, 120, 180)' fill-opacity = '0.250000' points = '190.8,496.4 190.8,662.4 192.7,662.4 192.7,493.3 '/>
		<polygon fill = 'rgb( 31, 120, 180)' fill-opacity = '0.250000' points = '192.7,493.3 192.7,662.4 194.6,662.4 194.6,490.1 '/>
		<polygon fill = 'rgb( 31, 120, 180)' fill-opacity = '0.250000' points = '194.6,490.1 194.6,662.4 196.5,662.4 196.5,486.9 '/>
		<polygon fill = 'rgb( 31, 120, 180)' fill-opacity = '0.250000' points = '196.5,486.9 196.5,662.4 198.3,662.4 198.3,483.7 '/>
		<polygon fill = 'rgb( 31, 120, 180)' fill-opacity = '0.250000' points = '198.3,483.7 198.3,662.4 200.2,662.4 200.2,480.5 '/>
		<polygon fill = 'rgb( 31, 120, 180)' fill-opacity = '0.250000' points = '200.2,480.5 200.2,662.4 202.1,662.4 202.1,477.2 '/>
		<polygon fill = 'rgb( 31, 120, 180)' fill-opacity = '0.250000' points = '202.1,477.2 202.1,662.4 204.0,662.4 204.0,474.0 '/>
		<polygon fill = 'rgb( 31, 120, 180)' fill-opacity = '0.250000' points = '204.0,474.0 204.0,662.4 205.9,662.4 205.9,470.7 '/>
		<polygon fill = 'rgb( 31, 120, 180)' fill-opacity = '0.250000' points = '205.9,470.7 205.9,662.4 207.8,662.4 207.8,467.4 '/>
		<polygon fill = 'rgb( 31, 120, 180)' fill-opacity = '0.250000' points = '207.8,467.4 207.8,662.4 209.7,662.4 209.7,464.1 '/>
		<polygon fill = 'rgb( 31, 120, 180)' fill-opacity = '0.250000' points = '209.7,464.1 209.7,662.4 211.6,662.4 211.6,460.8 '/>
		<polygon fill = 'rgb( 31, 120, 180)' fill-opacity = '0.250000' points = '211.6,460.8 211.6,662.4 213.4,662.4 213.4,457.5 '/>
		<polygon fill = 'rgb( 31, 120, 180)' fill-opacity = '0.250000' points = '213.4,457.5 213.4,662.4 215.3,662.4 215.3,454.1 '/>
		<polygon fill = 'rgb( 31, 120, 180)' fill-opacity = '0.250000' points = '215.3,454.1 215.3,662.4 217.2,662.4 217.2,450.8 '/>
		<polygon fill = 'rgb( 31, 120, 180)' fill-opacity = '0.250000' points = '217.2,450.8 217.2,662.4 219.1,662.4 219.1,447.4 '/>
		<polygon fill = 'rgb( 31, 120, 180)' fill-opacity = '0.250000' points = '219.1,447.4 219.1,662.4 221.0,662.4 221.0,443.9 '/>
		<polygon fill = 'rgb( 31, 120, 180)' fill-opacity = '0.250000' points = '221.0,443.9 221.0,662.4 222.9,662.4 222.9,440.5 '/>
		<polygon fill = 'rgb( 31, 120, 180)' fill-opacity = '0.250000' points = '222.9,440.5 222.9,662.4 224.8,662.4 224.8,437.0 '/>
		<polygon fill = 'rgb( 31, 120, 180)' fill-opacity = '0.250000' points = '224.8,437.0 224.8,662.4 226.6,662.4 226.6,433.6 '/>
		<polygon fill = 'rgb( 31, 120, 180)' fill-opacity = '0.250000' points = '226.6,433.6 226.6,662.4 228.5,662.4 228.5,430.0 '/>
		<polygon fill = 'rgb( 31, 120, 180)' fill-opacity = '0.250000' points = '228.5,430.0 228.5,662.4 230.4,662.4 230.4,426.5 '/>
		<polygon fill = 'rgb( 31, 120, 180)' fill-opacity = '0.250000' points = '230.4,426.5 230.4,662.4 232.3,662.4 232.3,422.9 '/>
		<polygon fill = 'rgb( 31, 120, 180)' fill-opacity = '0.250000' points = '232.3,422.9 232.3,662.4 234.2,662.4 234.2,419.4 '/>
		<polygon fill = 'rgb( 31, 120, 180)' fill-opacity = '0.250000' points = '234.2,419.4 234.2,662.4 236.1,662.4 236.1,415.7 '/>
		<polygon fill = 'rgb( 31, 120, 180)' fill-opacity = '0.250000' points = '236.1,415.7 236.1,662.4 238.0,662.4 238.0,412.1 '/>
		<polygon fill = 'rgb( 31, 120, 180)' fill-opacity = '0.250000' points = '238.0,412.1 238.0,662.4 239.9,662.4 239.9,408.5 '/>
		<polygon fill = 'rgb( 31, 120, 180)' fill-opacity = '0.250000' points = '239.9,408.5 239.9,662.4 241.7,662.4 241.7,404.8 '/>
		<polygon fill = 'rgb( 31, 120, 180)' fill-opacity = '0.250000' points = '241.7,404.8 241.7,662.4 243.6,662.4 243.6,401.1 '/>
		<polygon fill = 'rgb( 31, 120, 180)' fill-opacity = '0.250000' points = '243.6,401.1 243.6,662.4 245.5,662.4 245.5,397.3 '/>
		<polygon fill = 'rgb( 31, 120, 180)' fill-opacity = '0.250000' points = '245.5,397.3 245.5,662.4 247.4,662.4 247.4,393.6 '/>
		<polygon fill = 'rgb( 31, 120, 180)' fill-opacity = '0.250000' points = '247.4,393.6 247.4,662.4 249.3,662.4 249.3,389.8 '/>
		<polygon fill = 'rgb( 31, 120, 180)' fill-opacity = '0.250000' points = '249.3,389.8 249.3,662.4 251.2,662.4 251.2,386.0 '/>
		<polygon fill = 'rgb( 31, 120, 180)' fill-opacity = '0.250000' points = '251.2,386.0 251.2,662.4 253.1,662.4 253.1,382.2 '/>
		<polygon fill = 'rgb( 31, 120, 180)' fill-opacity = '0.250000' points = '253.1,382.2 253.1,662.4 255.0,662.4 255.0,378.4 '/>
		<polygon fill = 'rgb( 31, 120, 180)' fill-opacity = '0.250000' points = '255.0,378.4 255.0,662.4 256.8,662.4 256.8,374.5 '/>
		<polygon fill = 'rgb( 31, 120, 180)' fill-opacity = '0.250000' points = '256.8,374.5 256.8,662.4 258.7,662.4 258.7,370.7 '/>
		<polygon fill = 'rgb( 31, 120, 180)' fill-opacity = '0.250000' points = '258.7,370.7 258.7,662.4 260.6,662.4 260.6,366.8 '/>
		<polygon fill = 'rgb( 31, 120, 180)' fill-opacity = '0.250000' points = '260.6,366.8 260.6,662.4 262.5,662.4 262.5,362.9 '/>
		<polygon fill = 'rgb( 31, 120, 180)' fill-opacity = '0.250000' points = '262.5,362.9 262.5,662.4 264.4,662.4 264.4,359.1 '/>
		<polygon fill = 'rgb( 31, 120, 180)' fill-opacity = '0.250000' points = '264.4,359.1 264.4,662.4 266.3,662.4 266.3,355.2 '/>
		<polygon fill = 'rgb( 31, 120, 180)' fill-opacity = '0.250000' points = '266.3,355.2 266.3,662.4 268.2,662.4 268.2,351.3 '/>
		<polygon fill = 'rgb( 31, 120, 180)' fill-opacity = '0.250000' points = '268.2,351.3 268.2,662.4 270.1,662.4 270.1,347.4 '/>
		<polygon fill = 'rgb( 31, 120, 180)' fill-opacity = '0.250000' points = '270.1,347.4 270.1,662.4 271.9,662.4 271.9,343.5 '/>
		<polygon fill = 'rgb( 31, 120, 180)' fill-opacity = '0.250000' points = '271.9,343.5 271.9,662.4 273.8,662.4 273.8,339.6 '/>
		<polygon fill = 'rgb( 31, 120, 180)' fill-opacity = '0.250000' points = '273.8,339.6 273.8,662.4 275.7,662.4 275.7,335.7 '/>
		<polygon fill = 'rgb( 31, 120, 180)' fill-opacity = '0.250000' points = '275.7,335.7 275.7,662.4 277.6,662.4 277.6,331.8 '/>
		<polygon fill = 'rgb( 31, 120, 180)' fill-opacity = '0.250000' points = '277.6,331.8 277.6,662.4 279.5,662.4 279.5,328.0 '/>
		<polygon fill = 'rgb( 31, 120, 180)' fill-opacity = '0.250000' points = '279.5,328.0 279.5,662.4 281.4,662.4 281.4,324.1 '/>
		<polygon fill = 'rgb( 31, 120, 180)' fill-opacity = '0.250000' points = '281.4,324.1 281.4,662.4 283.3,662.4 283.3,320.2 '/>
		<polygon fill = 'rgb( 31, 120, 180)' fill-opacity = '0.250000' points = '283.3,320.2 283.3,662.4 285.2,662.4 285.2,316.3 '/>
		<polygon fill = 'rgb( 31, 120, 180)' fill-opacity = '0.250000' points = '285.2,316.3 285.2,662.4 287.0,662.4 287.0,312.5 '/>
		<polygon fill = 'rgb( 31, 120, 180)' fill-opacity = '0.250000' points = '287.0,312.5 287.0,662.4 288.9,662.4 288.9,308.6 '/>
		<polygon fill = 'rgb( 31, 120, 180)' fill-opacity = '0.250000' points = '288.9,308.6 288.9,662.4 290.8,662.4 290.8,304.8 '/>
		<polygon fill = 'rgb( 31, 120, 180)' fill-opacity = '0.250000' points = '290.8,304.8 290.8,662.4 292.7,662.4 292.7,300.9 '/>
		<polygon fill = 'rgb( 31, 120, 180)' fill-opacity = '0.250000' points = '292.7,300.9 292.7,662.4 294.6,662.4 294.6,297.1 '/>
		<polygon fill = 'rgb( 31, 120, 180)' fill-opacity = '0.250000' points = '294.6,297.1 294.6,662.4 296.5,662.4 296.5,293.2 '/>
		<polygon fill = 'rgb( 31, 120, 180)' fill-opacity = '0.250000' points = '296.5,293.2 296.5,662.4 298.4,662.4 298.4,289.4 '/>
		<polygon fill = 'rgb( 31, 120, 180)' fill-opacity = '0.250000' points = '298.4,289.4 298.4,662.4 300.2,662.4 300.2,285.6 '/>
		<polygon fill = 'rgb( 31, 120, 180)' fill-opacity = '0.250000' points = '300.2,285.6 300.2,662.4 302.1,662.4 302.1,281.8 '/>
		<polygon fill = 'rgb( 31, 120, 180)' fill-opacity = '0.250000' points = '302.1,281.8 302.1,662.4 304.0,662.4 304.0,278.0 '/>
		<polygon fill = 'rgb( 31, 120, 180)' fill-opacity = '0.250000' points = '304.0,278.0 304.0,662.4 305.9,662.4 305.9,274.2 '/>
		<polygon fill = 'rgb( 31, 120, 180)' fill-opacity = '0.250000' points = '305.9,274.2 305.9,662.4 307.8,662.4 307.8,270.4 '/>
		<polygon fill = 'rgb( 31, 120, 180)' fill-opacity = '0.250000' points = '307.8,270.4 307.8,662.4 309.7,662.4 309.7,266.6 '/>
		<polygon fill = 'rgb( 31, 120, 180)' fill-opacity = '0.250000' points = '309.7,266.6 309.7,662.4 311.6,662.4 311.6,262.8 '/>
		<polygon fill = 'rgb( 31, 120, 180)' fill-opacity = '0.250000' points = '311.6,262.8 311.6,662.4 313.5,662.4 313.5,259.1 '/>
		<polygon fill = 'rgb( 31, 120, 180)' fill-opacity = '0.250000' points = '313.5,259.1 313.5,662.4 315.3,662.4 315.3,255.3 '/>
		<polygon fill = 'rgb( 31, 120, 180)' fill-opacity = '0.250000' points = '315.3,255.3 315.3,662.4 317.2,662.4 317.2,251.6 '/>
		<polygon fill = 'rgb( 31, 120, 180)' fill-opacity = '0.250000' points = '317.2,251.6 317.2,662.4 319.1,662.4 319.1,247.8 '/>
		<polygon fill = 'rgb( 31, 120, 180)' fill-opacity = '0.250000' points = '319.1,247.8 319.1,662.4 321.0,662.4 321.0,244.1 '/>
		<polygon fill = 'rgb( 31, 120, 180)' fill-opacity = '0.250000' points = '321.0,244.1 321.0,662.4 322.9,662.4 322.9,240.3 '/>
		<polygon fill = 'rgb( 31, 120, 180)' fill-opacity = '0.250000' points = '322.9,240.3 322.9,662.4 324.8,662.4 324.8,236.6 '/>
		<polygon fill = 'rgb( 31, 120, 180)' fill-opacity = '0.250000' points = '324.8,236.6 324.8,662.4 326.7,662.4 326.7,232.8 '/>
		<polygon fill = 'rgb( 31, 120, 180)' fill-opacity = '0.250000' points = '326.7,232.8 326.7,662.4 328.6,662.4 328.6,229.1 '/>
		<polygon fill = 'rgb( 31, 120, 180)' fill-opacity = '0.250000' points = '328.6,229.1 328.6,662.4 330.4,662.4 330.4,225.4 '/>
		<polygon fill = 'rgb( 31, 120, 180)' fill-opacity = '0.250000' points = '330.4,225.4 330.4,662.4 332.3,662.4 332.3,221.7 '/>
		<polygon fill = 'rgb( 31, 120, 180)' fill-opacity = '0.250000' points = '332.3,221.7 332.3,662.4 334.2,662.4 334.2,218.0 '/>
		<polygon fill = 'rgb( 31, 120, 180)' fill-opacity = '0.250000' points = '334.2,218.0 334.2,662.4 336.1,662.4 336.1,214.2 '/>
		<polygon fill = 'rgb( 31, 120, 180)' fill-opacity = '0.250000' points = '336.1,214.2 336.1,662.4 338.0,662.4 338.0,210.5 '/>
		<polygon fill = 'rgb( 31, 120, 180)' fill-opacity = '0.250000' points = '338.0,210.5 338.0,662.4 339.9,662.4 339.9,206.9 '/>
		<polygon fill = 'rgb( 31, 120, 180)' fill-opacity = '0.250000' points = '339.9,206.9 339.9,662.4 341.8,662.4 341.8,203.2 '/>
		<polygon fill = 'rgb( 31, 120, 180)' fill-opacity = '0.250000' points = '341.8,203.2 341.8,662.4 343.7,662.4 343.7,199.5 '/>
		<polygon fill = 'rgb( 31, 120, 180)' fill-opacity = '0.250000' points = '343.7,199.5 343.7,662.4 345.5,662.4 345.5,195.8 '/>
		<polygon fill = 'rgb( 31, 120, 180)' fill-opacity = '0.250000' points = '345.5,195.8 345.5,662.4 347.4,662.4 347.4,192.2 '/>
		<polygon fill = 'rgb( 31, 120, 180)' fill-opacity = '0.250000' points = '347.4,192.2 347.4,662.4 349.3,662.4 349.3,188.6 '/>
		<polygon fill = 'rgb( 31, 120, 180)' fill-opacity = '0.250000' points = '349.3,188.6 349.3,662.4 351.2,662.4 351.2,185.0 '/>
		<polygon fill = 'rgb( 31, 120, 180)' fill-opacity = '0.250000' points = '351.2,185.0 351.2,662.4 353.1,662.4 353.1,181.5 '/>
		<polygon fill = 'rgb( 31, 120, 180)' fill-opacity = '0.250000' points = '353.1,181.5 353.1,662.4 355.0,662.4 355.0,178.0 '/>
		<polygon fill = 'rgb( 31, 120, 180)' fill-opacity = '0.250000' points = '355.0,178.0 355.0,662.4 356.9,662.4 356.9,174.5 '/>
		<polygon fill = 'rgb( 31, 120, 180)' fill-opacity = '0.250000' points = '356.9,174.5 356.9,662.4 358.8,662.4 358.8,171.0 '/>
		<polygon fill = 'rgb( 31, 120, 180)' fill-opacity = '0.250000' points = '358.8,171.0 358.8,662.4 360.6,662.4 360.6,167.6 '/>
		<polygon fill = 'rgb( 31, 120, 180)' fill-opacity = '0.250000' points = '360.6,167.6 360.6,662.4 362.5,662.4 362.5,164.3 '/>
		<polygon fill = 'rgb( 31, 120, 180)' fill-opacity = '0.250000' points = '362.5,164.3 362.5,662.4 364.4,662.4 364.4,161.0 '/>
		<polygon fill = 'rgb( 31, 120, 180)' fill-opacity = '0.250000' points = '364.4,161.0 364.4,662.4 366.3,662.4 366.3,157.7 '/>
		<polygon fill = 'rgb( 31, 120, 180)' fill-opacity = '0.250000' points = '366.3,157.7 366.3,662.4 368.2,662.4 368.2,154.5 '/>
		<polygon fill = 'rgb( 31, 120, 180)' fill-opacity = '0.250000' points = '368.2,154.5 368.2,662.4 370.1,662.4 370.1,151.3 '/>
		<polygon fill = 'rgb( 31, 120, 180)' fill-opacity = '0.250000' points = '370.1,151.3 370.1,662.4 372.0,662.4 372.0,148.2 '/>
		<polygon fill = 'rgb( 31, 120, 180)' fill-opacity = '0.250000' points = '372.0,148.2 372.0,662.4 373.8,662.4 373.8,145.2 '/>
		<polygon fill = 'rgb( 31, 120, 180)' fill-opacity = '0.250000' points = '373.8,145.2 373.8,662.4 375.7,662.4 375.7,142.2 '/>
		<polygon fill = 'rgb( 31, 120, 180)' fill-opacity = '0.250000' points = '375.7,142.2 375.7,662.4 377.6,662.4 377.6,139.2 '/>
		<polygon fill = 'rgb( 31, 120, 180)' fill-opacity = '0.250000' points = '377.6,139.2 377.6,662.4 379.5,662.4 379.5,136.3 '/>
		<polygon fill = 'rgb( 31, 120, 180)' fill-opacity = '0.250000' points = '379.5,136.3 379.5,662.4 381.4,662.4 381.4,133.4 '/>
		<polygon fill = 'rgb( 31, 120, 180)' fill-opacity = '0.250000' points = '381.4,133.4 381.4,662.4 383.3,662.4 383.3,130.6 '/>
		<polygon fill = 'rgb( 31, 120, 180)' fill-opacity = '0.250000' points = '383.3,130.6 383.3,662.4 385.2,662.4 385.2,127.9 '/>
		<polygon fill = 'rgb( 31, 120, 180)' fill-opacity = '0.250000' points = '385.2,127.9 385.2,662.4 387.1,662.4 387.1,125.2 '/>
		<polygon fill = 'rgb( 31, 120, 180)' fill-opacity = '0.250000' points = '387.1,125.2 387.1,662.4 388.9,662.4 388.9,122.6 '/>
		<polygon fill = 'rgb( 31, 120, 180)' fill-opacity = '0.250000' points = '388.9,122.6 388.9,662.4 390.8,662.4 390.8,120.1 '/>
		<polygon fill = 'rgb( 31, 120, 180)' fill-opacity = '0.250000' points = '390.8,120.1 390.8,662.4 392.7,662.4 392.7,117.6 '/>
		<polygon fill = 'rgb( 31, 120, 180)' fill-opacity = '0.250000' points = '392.7,117.6 392.7,662.4 394.6,662.4 394.6,115.2 '/>
		<polygon fill = 'rgb( 31, 120, 180)' fill-opacity = '0.250000' points = '394.6,115.2 394.6,662.4 396.5,662.4 396.5,112.8 '/>
		<polygon fill = 'rgb( 31, 120, 180)' fill-opacity = '0.250000' points = '396.5,112.8 396.5,662.4 398.4,662.4 398.4,110.5 '/>
		<polygon fill = 'rgb( 31, 120, 180)' fill-opacity = '0.250000' points = '398.4,110.5 398.4,662.4 400.3,662.4 400.3,108.4 '/>
		<polygon fill = 'rgb( 31, 120, 180)' fill-opacity = '0.250000' points = '400.3,108.4 400.3,662.4 402.2,662.4 402.2,106.2 '/>
		<polygon fill = 'rgb( 31, 120, 180)' fill-opacity = '0.250000' points = '402.2,106.2 402.2,662.4 404.0,662.4 404.0,104.2 '/>
		<polygon fill = 'rgb( 31, 120, 180)' fill-opacity = '0.250000' points = '404.0,104.2 404.0,662.4 405.9,662.4 405.9,102.3 '/>
		<polygon fill = 'rgb( 31, 120, 180)' fill-opacity = '0.250000' points = '405.9,102.3 405.9,662.4 407.8,662.4 407.8,100.4 '/>
		<polygon fill = 'rgb( 31, 120, 180)' fill-opacity = '0.250000' points = '407.8,100.4 407.8,662.4 409.7,662.4 409.7,98.6 '/>
		<polygon fill = 'rgb( 31, 120, 180)' fill-opacity = '0.250000' points = '409.7,98.6 409.7,662.4 411.6,662.4 411.6,96.9 '/>
		<polygon fill = 'rgb( 31, 120, 180)' fill-opacity = '0.250000' points = '411.6,96.9 411.6,662.4 413.5,662.4 413.5,95.2 '/>
		<polygon fill = 'rgb( 31, 120, 180)' fill-opacity = '0.250000' points = '413.5,95.2 413.5,662.4 415.4,662.4 415.4,93.7 '/>
		<polygon fill = 'rgb( 31, 120, 180)' fill-opacity = '0.250000' points = '415.4,93.7 415.4,662.4 417.3,662.4 417.3,92.1 '/>
		<polygon fill = 'rgb( 31, 120, 180)' fill-opacity = '0.250000' points = '417.3,92.1 417.3,662.4 419.1,662.4 419.1,90.7 '/>
		<polygon fill = 'rgb( 31, 120, 180)' fill-opacity = '0.250000' points = '419.1,90.7 419.1,662.4 421.0,662.4 421.0,89.3 '/>
		<polygon fill = 'rgb( 31, 120, 180)' fill-opacity = '0.250000' points = '421.0,89.3 421.0,662.4 422.9,662.4 422.9,87.9 '/>
		<polygon fill = 'rgb( 31, 120, 180)' fill-opacity = '0.250000' points = '422.9,87.9 422.9,662.4 424.8,662.4 424.8,86.6 '/>
		<polygon fill = 'rgb( 31, 120, 180)' fill-opacity = '0.250000' points = '424.8,86.6 424.8,662.4 426.7,662.4 426.7,85.4 '/>
		<polygon fill = 'rgb( 31, 120, 180)' fill-opacity = '0.250000' points = '426.7,85.4 426.7,662.4 428.6,662.4 428.6,84.1 '/>
		<polygon fill = 'rgb( 31, 120, 180)' fill-opacity = '0.250000' points = '428.6,84.1 428.6,662.4 430.5,662.4 430.5,82.9 '/>
		<polygon fill = 'rgb( 31, 120, 180)' fill-opacity = '0.250000' points = '430.5,82.9 430.5,662.4 432.4,662.4 432.4,81.7 '/>
		<polygon fill = 'rgb( 31, 120, 180)' fill-opacity = '0.250000' points = '432.4,81.7 432.4,662.4 434.2,662.4 434.2,80.5 '/>
		<polygon fill = 'rgb( 31, 120, 180)' fill-opacity = '0.250000' points = '434.2,80.5 434.2,662.4 436.1,662.4 436.1,79.3 '/>
		<polygon fill = 'rgb( 31, 120, 180)' fill-opacity = '0.250000' points = '436.1,79.3 436.1,662.4 438.0,662.4 438.0,78.2 '/>
		<polygon fill = 'rgb( 31, 120, 180)' fill-opacity = '0.250000' points = '438.0,78.2 438.0,662.4 439.9,662.4 439.9,77.0 '/>
		<polygon fill = 'rgb( 31, 120, 180)' fill-opacity = '0.250000' points = '439.9,77.0 439.9,662.4 441.8,662.4 441.8,75.9 '/>
		<polygon fill = 'rgb( 31, 120, 180)' fill-opacity = '0.250000' points = '441.8,75.9 441.8,662.4 443.7,662.4 443.7,74.7 '/>
		<polygon fill = 'rgb( 31, 120, 180)' fill-opacity = '0.250000' points = '443.7,74.7 443.7,662.4 445.6,662.4 445.6,73.6 '/>
		<polygon fill = 'rgb( 31, 120, 180)' fill-opacity = '0.250000' points = '445.6,73.6 445.6,662.4 447.4,662.4 447.4,72.5 '/>
		<polygon fill = 'rgb( 31, 120, 180)' fill-opacity = '0.250000' points = '447.4,72.5 447.4,662.4 449.3,662.4 449.3,71.4 '/>
		<polygon fill = 'rgb( 31, 120, 180)' fill-opacity = '0.250000' points = '449.3,71.4 449.3,662.4 451.2,662.4 451.2,70.3 '/>
		<polygon fill = 'rgb( 31, 120, 180)' fill-opacity = '0.250000' points = '451.2,70.3 451.2,662.4 453.1,662.4 453.1,69.2 '/>
		<polygon fill = 'rgb( 31, 120, 180)' fill-opacity = '0.250000' points = '453.1,69.2 453.1,662.4 455.0,662.4 455.0,68.2 '/>
		<polygon fill = 'rgb( 31, 120, 180)' fill-opacity = '0.250000' points = '455.0,68.2 455.0,662.4 456.9,662.4 456.9,67.1 '/>
		<polygon fill = 'rgb( 31, 120, 180)' fill-opacity = '0.250000' points = '456.9,67.1 456.9,662.4 458.8,662.4 458.8,66.1 '/>
		<polygon fill = 'rgb( 31, 120, 180)' fill-opacity = '0.250000' points = '458.8,66.1 458.8,662.4 460.7,662.4 460.7,65.2 '/>
		<polygon fill = 'rgb( 31, 120, 180)' fill-opacity = '0.250000' points = '460.7,65.2 460.7,662.4 462.5,662.4 462.5,64.3 '/>
		<polygon fill = 'rgb( 31, 120, 180)' fill-opacity = '0.250000' points = '462.5,64.3 462.5,662.4 464.4,662.4 464.4,63.4 '/>
		<polygon fill = 'rgb( 31, 120, 180)' fill-opacity = '0.250000' points = '464.4,63.4 464.4,662.4 466.3,662.4 466.3,62.5 '/>
		<polygon fill = 'rgb( 31, 120, 180)' fill-opacity = '0.250000' points = '466.3,62.5 466.3,662.4 468.2,662.4 468.2,61.7 '/>
		<polygon fill = 'rgb( 31, 120, 180)' fill-opacity = '0.250000' points = '468.2,61.7 468.2,662.4 470.1,662.4 470.1,61.0 '/>
		<polygon fill = 'rgb( 31, 120, 180)' fill-opacity = '0.250000' points = '470.1,61.0 470.1,662.4 472.0,662.4 472.0,60.3 '/>
		<polygon fill = 'rgb( 31, 120, 180)' fill-opacity = '0.250000' points = '472.0,60.3 472.0,662.4 473.9,662.4 473.9,59.7 '/>
		<polygon fill = 'rgb( 31, 120, 180)' fill-opacity = '0.250000' points = '473.9,59.7 473.9,662.4 475.8,662.4 475.8,59.1 '/>
		<polygon fill = 'rgb( 31, 120, 180)' fill-opacity = '0.250000' points = '475.8,59.1 475.8,662.4 477.6,662.4 477.6,58.7 '/>
		<polygon fill = 'rgb( 31, 120, 180)' fill-opacity = '0.250000' points = '477.6,58.7 477.6,662.4 479.5,662.4 479.5,58.2 '/>
		<polygon fill = 'rgb( 31, 120, 180)' fill-opacity = '0.250000' points = '479.5,58.2 479.5,662.4 481.4,662.4 481.4,57.9 '/>
		<polygon fill = 'rgb( 31, 120, 180)' fill-opacity = '0.250000' points = '481.4,57.9 481.4,662.4 483.3,662.4 483.3,57.6 '/>
		<polygon fill = 'rgb( 31, 120, 180)' fill-opacity = '0.250000' points = '483.3,57.6 483.3,662.4 485.2,662.4 485.2,57.4 '/>
		<polygon fill = 'rgb( 31, 120, 180)' fill-opacity = '0.250000' points = '485.2,57.4 485.2,662.4 487.1,662.4 487.1,57.3 '/>
		<polygon fill = 'rgb( 31, 120, 180)' fill-opacity = '0.250000' points = '487.1,57.3 487.1,662.4 489.0,662.4 489.0,57.3 '/>
		<polygon fill = 'rgb( 31, 120, 180)' fill-opacity = '0.250000' points = '489.0,57.3 489.0,662.4 490.9,662.4 490.9,57.3 '/>
		<polygon fill = 'rgb( 31, 120, 180)' fill-opacity = '0.250000' points = '490.9,57.3 490.9,662.4 492.7,662.4 492.7,57.4 '/>
		<polygon fill = 'rgb( 31, 120, 180)' fill-opacity = '0.250000' points = '492.7,57.4 492.7,662.4 494.6,662.4 494.6,57.7 '/>
		<polygon fill = 'rgb( 31, 120, 180)' fill-opacity = '0.250000' points = '494.6,57.7 494.6,662.4 496.5,662.4 496.5,58.0 '/>
		<polygon fill = 'rgb( 31, 120, 180)' fill-opacity = '0.250000' points = '496.5,58.0 496.5,662.4 498.4,662.4 498.4,58.3 '/>
		<polygon fill = 'rgb( 31, 120, 180)' fill-opacity = '0.250000' points = '498.4,58.3 498.4,662.4 500.3,662.4 500.3,58.8 '/>
		<polygon fill = 'rgb( 31, 120, 180)' fill-opacity = '0.250000' points = '500.3,58.8 500.3,662.4 502.2,662.4 502.2,59.4 '/>
		<polygon fill = 'rgb( 31, 120, 180)' fill-opacity = '0.250000' points = '502.2,59.4 502.2,662.4 504.1,662.4 504.1,60.0 '/>
		<polygon fill = 'rgb( 31, 120, 180)' fill-opacity = '0.250000' points = '504.1,60.0 504.1,662.4 506.0,662.4 506.0,60.7 '/>
		<polygon fill = 'rgb( 31, 120, 180)' fill-opacity = '0.250000' points = '506.0,60.7 506.0,662.4 507.8,662.4 507.8,61.5 '/>
		<polygon fill = 'rgb( 31, 120, 180)' fill-opacity = '0.250000' points = '507.8,61.5 507.8,662.4 509.7,662.4 509.7,62.3 '/>
		<polygon fill = 'rgb( 31, 120, 180)' fill-opacity = '0.250000' points = '509.7,62.3 509.7,662.4 511.6,662.4 511.6,63.2 '/>
		<polygon fill = 'rgb( 31, 120, 180)' fill-opacity = '0.250000' points = '511.6,63.2 511.6,662.4 513.5,662.4 513.5,64.2 '/>
		<polygon fill = 'rgb( 31, 120, 180)' fill-opacity = '0.250000' points = '513.5,64.2 513.5,662.4 515.4,662.4 515.4,65.3 '/>
		<polygon fill = 'rgb( 31, 120, 180)' fill-opacity = '0.250000' points = '515.4,65.3 515.4,662.4 517.3,662.4 517.3,66.4 '/>
		<polygon fill = 'rgb( 31, 120, 180)' fill-opacity = '0.250000' points = '517.3,66.4 517.3,662.4 519.2,662.4 519.2,67.5 '/>
		<polygon fill = 'rgb( 31, 120, 180)' fill-opacity = '0.250000' points = '519.2,67.5 519.2,662.4 521.0,662.4 521.0,68.7 '/>
		<polygon fill = 'rgb( 31, 120, 180)' fill-opacity = '0.250000' points = '521.0,68.7 521.0,662.4 522.9,662.4 522.9,69.9 '/>
		<polygon fill = 'rgb( 31, 120, 180)' fill-opacity = '0.250000' points = '522.9,69.9 522.9,662.4 524.8,662.4 524.8,71.2 '/>
		<polygon fill = 'rgb( 31, 120, 180)' fill-opacity = '0.250000' points = '524.8,71.2 524.8,662.4 526.7,662.4 526.7,72.5 '/>
		<polygon fill = 'rgb( 31, 120, 180)' fill-opacity = '0.250000' points = '526.7,72.5 526.7,662.4 528.6,662.4 528.6,73.8 '/>
		<polygon fill = 'rgb( 31, 120, 180)' fill-opacity = '0.250000' points = '528.6,73.8 528.6,662.4 530.5,662.4 530.5,75.2 '/>
		<polygon fill = 'rgb( 31, 120, 180)' fill-opacity = '0.250000' points = '530.5,75.2 530.5,662.4 532.4,662.4 532.4,76.5 '/>
		<polygon fill = 'rgb( 31, 120, 180)' fill-opacity = '0.250000' points = '532.4,76.5 532.4,662.4 534.3,662.4 534.3,77.9 '/>
		<polygon fill = 'rgb( 31, 120, 180)' fill-opacity = '0.250000' points = '534.3,77.9 534.3,662.4 536.1,662.4 536.1,79.3 '/>
		<polygon fill = 'rgb( 31, 120, 180)' fill-opacity = '0.250000' points = '536.1,79.3 536.1,662.4 538.0,662.4 538.0,80.7 '/>
		<polygon fill = 'rgb( 31, 120, 180)' fill-opacity = '0.250000' points = '538.0,80.7 538.0,662.4 539.9,662.4 539.9,82.2 '/>
		<polygon fill = 'rgb( 31, 120, 180)' fill-opacity = '0.250000' points = '539.9,82.2 539.9,662.4 541.8,662.4 541.8,83.7 '/>
		<polygon fill = 'rgb( 31, 120, 180)' fill-opacity = '0.250000' points = '541.8,83.7 541.8,662.4 543.7,662.4 543.7,85.2 '/>
		<polygon fill = 'rgb( 31, 120, 180)' fill-opacity = '0.250000' points = '543.7,85.2 543.7,662.4 545.6,662.4 545.6,86.7 '/>
		<polygon fill = 'rgb( 31, 120, 180)' fill-opacity = '0.250000' points = '545.6,86.7 545.6,662.4 547.5,662.4 547.5,88.2 '/>
		<polygon fill = 'rgb( 31, 120, 180)' fill-opacity = '0.250000' points = '547.5,88.2 547.5,662.4 549.4,662.4 549.4,89.8 '/>
		<polygon fill = 'rgb( 31, 120, 180)' fill-opacity = '0.250000' points = '549.4,89.8 549.4,662.4 551.2,662.4 551.2,91.5 '/>
		<polygon fill = 'rgb( 31, 120, 180)' fill-opacity = '0.250000' points = '551.2,91.5 551.2,662.4 553.1,662.4 553.1,93.1 '/>
		<polygon fill = 'rgb( 31, 120, 180)' fill-opacity = '0.250000' points = '553.1,93.1 553.1,662.4 555.0,662.4 555.0,94.9 '/>
		<polygon fill = 'rgb( 31, 120, 180)' fill-opacity = '0.250000' points = '555.0,94.9 555.0,662.4 556.9,662.4 556.9,96.6 '/>
		<polygon fill = 'rgb( 31, 120, 180)' fill-opacity = '0.250000' points = '556.9,96.6 556.9,662.4 558.8,662.4 558.8,98.4 '/>
		<polygon fill = 'rgb( 31, 120, 180)' fill-opacity = '0.250000' points = '558.8,98.4 558.8,662.4 560.7,662.4 560.7,100.3 '/>
		<polygon fill = 'rgb( 31, 120, 180)' fill-opacity = '0.250000' points = '560.7,100.3 560.7,662.4 562.6,662.4 562.6,102.2 '/>
		<polygon fill = 'rgb( 31, 120, 180)' fill-opacity = '0.250000' points = '562.6,102.2 562.6,662.4 564.5,662.4 564.5,104.2 '/>
		<polygon fill = 'rgb( 31, 120, 180)' fill-opacity = '0.250000' points = '564.5,104.2 564.5,662.4 566.3,662.4 566.3,106.3 '/>
		<polygon fill = 'rgb( 31, 120, 180)' fill-opacity = '0.250000' points = '566.3,106.3 566.3,662.4 568.2,662.4 568.2,108.4 '/>
		<polygon fill = 'rgb( 31, 120, 180)' fill-opacity = '0.250000' points = '568.2,108.4 568.2,662.4 570.1,662.4 570.1,110.6 '/>
		<polygon fill = 'rgb( 31, 120, 180)' fill-opacity = '0.250000' points = '570.1,110.6 570.1,662.4 572.0,662.4 572.0,112.8 '/>
		<polygon fill = 'rgb( 31, 120, 180)' fill-opacity = '0.250000' points = '572.0,112.8 572.0,662.4 573.9,662.4 573.9,115.1 '/>
		<polygon fill = 'rgb( 31, 120, 180)' fill-opacity = '0.250000' points = '573.9,115.1 573.9,662.4 575.8,662.4 575.8,117.4 '/>
		<polygon fill = 'rgb( 31, 120, 180)' fill-opacity = '0.250000' points = '575.8,117.4 575.8,662.4 577.7,662.4 577.7,119.8 '/>
		<polygon fill = 'rgb( 31, 120, 180)' fill-opacity = '0.250000' points = '577.7,119.8 577.7,662.4 579.5,662.4 579.5,122.2 '/>
		<polygon fill = 'rgb( 31, 120, 180)' fill-opacity = '0.250000' points = '579.5,122.2 579.5,662.4 581.4,662.4 581.4,124.7 '/>
		<polygon fill = 'rgb( 31, 120, 180)' fill-opacity = '0.250000' points = '581.4,124.7 581.4,662.4 583.3,662.4 583.3,127.3 '/>
		<polygon fill = 'rgb( 31, 120, 180)' fill-opacity = '0.250000' points = '583.3,127.3 583.3,662.4 585.2,662.4 585.2,129.9 '/>
		<polygon fill = 'rgb( 31, 120, 180)' fill-opacity = '0.250000' points = '585.2,129.9 585.2,662.4 587.1,662.4 587.1,132.5 '/>
		<polygon fill = 'rgb( 31, 120, 180)' fill-opacity = '0.250000' points = '587.1,132.5 587.1,662.4 589.0,662.4 589.0,135.2 '/>
		<polygon fill = 'rgb( 31, 120, 180)' fill-opacity = '0.250000' points = '589.0,135.2 589.0,662.4 590.9,662.4 590.9,137.9 '/>
		<polygon fill = 'rgb( 31, 120, 180)' fill-opacity = '0.250000' points = '590.9,137.9 590.9,662.4 592.8,662.4 592.8,140.6 '/>
		<polygon fill = 'rgb( 31, 120, 180)' fill-opacity = '0.250000' points = '592.8,140.6 592.8,662.4 594.6,662.4 594.6,143.4 '/>
		<polygon fill = 'rgb( 31, 120, 180)' fill-opacity = '0.250000' points = '594.6,143.4 594.6,662.4 596.5,662.4 596.5,146.2 '/>
		<polygon fill = 'rgb( 31, 120, 180)' fill-opacity = '0.250000' points = '596.5,146.2 596.5,662.4 598.4,662.4 598.4,149.0 '/>
		<polygon fill = 'rgb( 31, 120, 180)' fill-opacity = '0.250000' points = '598.4,149.0 598.4,662.4 600.3,662.4 600.3,151.9 '/>
		<polygon fill = 'rgb( 31, 120, 180)' fill-opacity = '0.250000' points = '600.3,151.9 600.3,662.4 602.2,662.4 602.2,154.7 '/>
		<polygon fill = 'rgb( 31, 120, 180)' fill-opacity = '0.250000' points = '602.2,154.7 602.2,662.4 604.1,662.4 604.1,157.5 '/>
		<polygon fill = 'rgb( 31, 120, 180)' fill-opacity = '0.250000' points = '604.1,157.5 604.1,662.4 606.0,662.4 606.0,160.4 '/>
		<polygon fill = 'rgb( 31, 120, 180)' fill-opacity = '0.250000' points = '606.0,160.4 606.0,662.4 607.9,662.4 607.9,163.2 '/>
		<polygon fill = 'rgb( 31, 120, 180)' fill-opacity = '0.250000' points = '607.9,163.2 607.9,662.4 609.7,662.4 609.7,166.0 '/>
		<polygon fill = 'rgb( 31, 120, 180)' fill-opacity = '0.250000' points = '609.7,166.0 609.7,662.4 611.6,662.4 611.6,168.8 '/>
		<polygon fill = 'rgb( 31, 120, 180)' fill-opacity = '0.250000' points = '611.6,168.8 611.6,662.4 613.5,662.4 613.5,171.6 '/>
		<polygon fill = 'rgb( 31, 120, 180)' fill-opacity = '0.250000' points = '613.5,171.6 613.5,662.4 615.4,662.4 615.4,174.3 '/>
		<polygon fill = 'rgb( 31, 120, 180)' fill-opacity = '0.250000' points = '615.4,174.3 615.4,662.4 617.3,662.4 617.3,177.0 '/>
		<polygon fill = 'rgb( 31, 120, 180)' fill-opacity = '0.250000' points = '617.3,177.0 617.3,662.4 619.2,662.4 619.2,179.7 '/>
		<polygon fill = 'rgb( 31, 120, 180)' fill-opacity = '0.250000' points = '619.2,179.7 619.2,662.4 621.1,662.4 621.1,182.3 '/>
		<polygon fill = 'rgb( 31, 120, 180)' fill-opacity = '0.250000' points = '621.1,182.3 621.1,662.4 623.0,662.4 623.0,184.9 '/>
		<polygon fill = 'rgb( 31, 120, 180)' fill-opacity = '0.250000' points = '623.0,184.9 623.0,662.4 624.8,662.4 624.8,187.4 '/>
		<polygon fill = 'rgb( 31, 120, 180)' fill-opacity = '0.250000' points = '624.8,187.4 624.8,662.4 626.7,662.4 626.7,189.9 '/>
		<polygon fill = 'rgb( 31, 120, 180)' fill-opacity = '0.250000' points = '626.7,189.9 626.7,662.4 628.6,662.4 628.6,192.4 '/>
		<polygon fill = 'rgb( 31, 120, 180)' fill-opacity = '0.250000' points = '628.6,192.4 628.6,662.4 630.5,662.4 630.5,194.8 '/>
		<polygon fill = 'rgb( 31, 120, 180)' fill-opacity = '0.250000' points = '630.5,194.8 630.5,662.4 632.4,662.4 632.4,197.2 '/>
		<polygon fill = 'rgb( 31, 120, 180)' fill-opacity = '0.250000' points = '632.4,197.2 632.4,662.4 634.3,662.4 634.3,199.6 '/>
		<polygon fill = 'rgb( 31, 120, 180)' fill-opacity = '0.250000' points = '634.3,199.6 634.3,662.4 636.2,662.4 636.2,202.0 '/>
		<polygon fill = 'rgb( 31, 120, 180)' fill-opacity = '0.250000' points = '636.2,202.0 636.2,662.4 638.1,662.4 638.1,204.3 '/>
		<polygon fill = 'rgb( 31, 120, 180)' fill-opacity = '0.250000' points = '638.1,204.3 638.1,662.4 639.9,662.4 639.9,206.7 '/>
		<polygon fill = 'rgb( 31, 120, 180)' fill-opacity = '0.250000' points = '639.9,206.7 639.9,662.4 641.8,662.4 641.8,209.1 '/>
		<polygon fill = 'rgb( 31, 120, 180)' fill-opacity = '0.250000' points = '641.8,209.1 641.8,662.4 643.7,662.4 643.7,211.4 '/>
		<polygon fill = 'rgb( 31, 120, 180)' fill-opacity = '0.250000' points = '643.7,211.4 643.7,662.4 645.6,662.4 645.6,213.8 '/>
		<polygon fill = 'rgb( 31, 120, 180)' fill-opacity = '0.250000' points = '645.6,213.8 645.6,662.4 647.5,662.4 647.5,216.2 '/>
		<polygon fill = 'rgb( 31, 120, 180)' fill-opacity = '0.250000' points = '647.5,216.2 647.5,662.4 649.4,662.4 649.4,218.6 '/>
		<polygon fill = 'rgb( 31, 120, 180)' fill-opacity = '0.250000' points = '649.4,218.6 649.4,662.4 651.3,662.4 651.3,221.1 '/>
		<polygon fill = 'rgb( 31, 120, 180)' fill-opacity = '0.250000' points = '651.3,221.1 651.3,662.4 653.1,662.4 653.1,223.6 '/>
		<polygon fill = 'rgb( 31, 120, 180)' fill-opacity = '0.250000' points = '653.1,223.6 653.1,662.4 655.0,662.4 655.0,226.1 '/>
		<polygon fill = 'rgb( 31, 120, 180)' fill-opacity = '0.250000' points = '655.0,226.1 655.0,662.4 656.9,662.4 656.9,228.7 '/>
		<polygon fill = 'rgb( 31, 120, 180)' fill-opacity = '0.250000' points = '656.9,228.7 656.9,662.4 658.8,662.4 658.8,231.3 '/>
		<polygon fill = 'rgb( 31, 120, 180)' fill-opacity = '0.250000' points = '658.8,231.3 658.8,662.4 660.7,662.4 660.7,234.0 '/>
		<polygon fill = 'rgb( 31, 120, 180)' fill-opacity = '0.250000' points = '660.7,234.0 660.7,662.4 662.6,662.4 662.6,236.7 '/>
		<polygon fill = 'rgb( 31, 120, 180)' fill-opacity = '0.250000' points = '662.6,236.7 662.6,662.4 664.5,662.4 664.5,239.5 '/>
		<polygon fill = 'rgb( 31, 120, 180)' fill-opacity = '0.250000' points = '664.5,239.5 664.5,662.4 666.4,662.4 666.4,242.3 '/>
		<polygon fill = 'rgb( 31, 120, 180)' fill-opacity = '0.250000' points = '666.4,242.3 666.4,662.4 668.2,662.4 668.2,245.2 '/>
		<polygon fill = 'rgb( 31, 120, 180)' fill-opacity = '0.250000' points = '668.2,245.2 668.2,662.4 670.1,662.4 670.1,248.2 '/>
		<polygon fill = 'rgb( 31, 120, 180)' fill-opacity = '0.250000' points = '670.1,248.2 670.1,662.4 672.0,662.4 672.0,251.1 '/>
		<polygon fill = 'rgb( 31, 120, 180)' fill-opacity = '0.250000' points = '672.0,251.1 672.0,662.4 673.9,662.4 673.9,254.2 '/>
		<polygon fill = 'rgb( 31, 120, 180)' fill-opacity = '0.250000' points = '673.9,254.2 673.9,662.4 675.8,662.4 675.8,257.2 '/>
		<polygon fill = 'rgb( 31, 120, 180)' fill-opacity = '0.250000' points = '675.8,257.2 675.8,662.4 677.7,662.4 677.7,260.3 '/>
		<polygon fill = 'rgb( 31, 120, 180)' fill-opacity = '0.250000' points = '677.7,260.3 677.7,662.4 679.6,662.4 679.6,263.5 '/>
		<polygon fill = 'rgb( 31, 120, 180)' fill-opacity = '0.250000' points = '679.6,263.5 679.6,662.4 681.5,662.4 681.5,266.7 '/>
		<polygon fill = 'rgb( 31, 120, 180)' fill-opacity = '0.250000' points = '681.5,266.7 681.5,662.4 683.3,662.4 683.3,269.9 '/>
		<polygon fill = 'rgb( 31, 120, 180)' fill-opacity = '0.250000' points = '683.3,269.9 683.3,662.4 685.2,662.4 685.2,273.1 '/>
		<polygon fill = 'rgb( 31, 120, 180)' fill-opacity = '0.250000' points = '685.2,273.1 685.2,662.4 687.1,662.4 687.1,276.4 '/>
		<polygon fill = 'rgb( 31, 120, 180)' fill-opacity = '0.250000' points = '687.1,276.4 687.1,662.4 689.0,662.4 689.0,279.6 '/>
		<polygon fill = 'rgb( 31, 120, 180)' fill-opacity = '0.250000' points = '689.0,279.6 689.0,662.4 690.9,662.4 690.9,282.9 '/>
		<polygon fill = 'rgb( 31, 120, 180)' fill-opacity = '0.250000' points = '690.9,282.9 690.9,662.4 692.8,662.4 692.8,286.2 '/>
		<polygon fill = 'rgb( 31, 120, 180)' fill-opacity = '0.250000' points = '692.8,286.2 692.8,662.4 694.7,662.4 694.7,289.5 '/>
		<polygon fill = 'rgb( 31, 120, 180)' fill-opacity = '0.250000' points = '694.7,289.5 694.7,662.4 696.6,662.4 696.6,292.8 '/>
		<polygon fill = 'rgb( 31, 120, 180)' fill-opacity = '0.250000' points = '696.6,292.8 696.6,662.4 698.4,662.4 698.4,296.0 '/>
		<polygon fill = 'rgb( 31, 120, 180)' fill-opacity = '0.250000' points = '698.4,296.0 698.4,662.4 700.3,662.4 700.3,299.3 '/>
		<polygon fill = 'rgb( 31, 120, 180)' fill-opacity = '0.250000' points = '700.3,299.3 700.3,662.4 702.2,662.4 702.2,302.6 '/>
		<polygon fill = 'rgb( 31, 120, 180)' fill-opacity = '0.250000' points = '702.2,302.6 702.2,662.4 704.1,662.4 704.1,305.9 '/>
		<polygon fill = 'rgb( 31, 120, 180)' fill-opacity = '0.250000' points = '704.1,305.9 704.1,662.4 706.0,662.4 706.0,309.2 '/>
		<polygon fill = 'rgb( 31, 120, 180)' fill-opacity = '0.250000' points = '706.0,309.2 706.0,662.4 707.9,662.4 707.9,312.5 '/>
		<polygon fill = 'rgb( 31, 120, 180)' fill-opacity = '0.250000' points = '707.9,312.5 707.9,662.4 709.8,662.4 709.8,315.8 '/>
		<polygon fill = 'rgb( 31, 120, 180)' fill-opacity = '0.250000' points = '709.8,315.8 709.8,662.4 711.7,662.4 711.7,319.1 '/>
		<polygon fill = 'rgb( 31, 120, 180)' fill-opacity = '0.250000' points = '711.7,319.1 711.7,662.4 713.5,662.4 713.5,322.4 '/>
		<polygon fill = 'rgb( 31, 120, 180)' fill-opacity = '0.250000' points = '713.5,322.4 713.5,662.4 715.4,662.4 715.4,325.7 '/>
		<polygon fill = 'rgb( 31, 120, 180)' fill-opacity = '0.250000' points = '715.4,325.7 715.4,662.4 717.3,662.4 717.3,329.0 '/>
		<polygon fill = 'rgb( 31, 120, 180)' fill-opacity = '0.250000' points = '717.3,329.0 717.3,662.4 719.2,662.4 719.2,332.4 '/>
		<polygon fill = 'rgb( 31, 120, 180)' fill-opacity = '0.250000' points = '719.2,332.4 719.2,662.4 721.1,662.4 721.1,335.7 '/>
		<polygon fill = 'rgb( 31, 120, 180)' fill-opacity = '0.250000' points = '721.1,335.7 721.1,662.4 723.0,662.4 723.0,339.2 '/>
		<polygon fill = 'rgb( 31, 120, 180)' fill-opacity = '0.250000' points = '723.0,339.2 723.0,662.4 724.9,662.4 724.9,342.6 '/>
		<polygon fill = 'rgb( 31, 120, 180)' fill-opacity = '0.250000' points = '724.9,342.6 724.9,662.4 726.7,662.4 726.7,346.1 '/>
		<polygon fill = 'rgb( 31, 120, 180)' fill-opacity = '0.250000' points = '726.7,346.1 726.7,662.4 728.6,662.4 728.6,349.6 '/>
		<polygon fill = 'rgb( 31, 120, 180)' fill-opacity = '0.250000' points = '728.6,349.6 728.6,662.4 730.5,662.4 730.5,353.1 '/>
		<polygon fill = 'rgb( 31, 120, 180)' fill-opacity = '0.250000' points = '730.5,353.1 730.5,662.4 732.4,662.4 732.4,356.7 '/>
		<polygon fill = 'rgb( 31, 120, 180)' fill-opacity = '0.250000' points = '732.4,356.7 732.4,662.4 734.3,662.4 734.3,360.3 '/>
		<polygon fill = 'rgb( 31, 120, 180)' fill-opacity = '0.250000' points = '734.3,360.3 734.3,662.4 736.2,662.4 736.2,363.9 '/>
		<polygon fill = 'rgb( 31, 120, 180)' fill-opacity = '0.250000' points = '736.2,363.9 736.2,662.4 738.1,662.4 738.1,367.5 '/>
		<polygon fill = 'rgb( 31, 120, 180)' fill-opacity = '0.250000' points = '738.1,367.5 738.1,662.4 740.0,662.4 740.0,371.2 '/>
		<polygon fill = 'rgb( 31, 120, 180)' fill-opacity = '0.250000' points = '740.0,371.2 740.0,662.4 741.8,662.4 741.8,374.9 '/>
		<polygon fill = 'rgb( 31, 120, 180)' fill-opacity = '0.250000' points = '741.8,374.9 741.8,662.4 743.7,662.4 743.7,378.5 '/>
		<polygon fill = 'rgb( 31, 120, 180)' fill-opacity = '0.250000' points = '743.7,378.5 743.7,662.4 745.6,662.4 745.6,382.2 '/>
		<polygon fill = 'rgb( 31, 120, 180)' fill-opacity = '0.250000' points = '745.6,382.2 745.6,662.4 747.5,662.4 747.5,385.8 '/>
		<polygon fill = 'rgb( 31, 120, 180)' fill-opacity = '0.250000' points = '747.5,385.8 747.5,662.4 749.4,662.4 749.4,389.4 '/>
		<polygon fill = 'rgb( 31, 120, 180)' fill-opacity = '0.250000' points = '749.4,389.4 749.4,662.4 751.3,662.4 751.3,393.0 '/>
		<polygon fill = 'rgb( 31, 120, 180)' fill-opacity = '0.250000' points = '751.3,393.0 751.3,662.4 753.2,662.4 753.2,396.5 '/>
		<polygon fill = 'rgb( 31, 120, 180)' fill-opacity = '0.250000' points = '753.2,396.5 753.2,662.4 755.1,662.4 755.1,399.9 '/>
		<polygon fill = 'rgb( 31, 120, 180)' fill-opacity = '0.250000' points = '755.1,399.9 755.1,662.4 756.9,662.4 756.9,403.3 '/>
		<polygon fill = 'rgb( 31, 120, 180)' fill-opacity = '0.250000' points = '756.9,403.3 756.9,662.4 758.8,662.4 758.8,406.7 '/>
		<polygon fill = 'rgb( 31, 120, 180)' fill-opacity = '0.250000' points = '758.8,406.7 758.8,662.4 760.7,662.4 760.7,409.9 '/>
		<polygon fill = 'rgb( 31, 120, 180)' fill-opacity = '0.250000' points = '760.7,409.9 760.7,662.4 762.6,662.4 762.6,413.1 '/>
		<polygon fill = 'rgb( 31, 120, 180)' fill-opacity = '0.250000' points = '762.6,413.1 762.6,662.4 764.5,662.4 764.5,416.2 '/>
		<polygon fill = 'rgb( 31, 120, 180)' fill-opacity = '0.250000' points = '764.5,416.2 764.5,662.4 766.4,662.4 766.4,419.3 '/>
		<polygon fill = 'rgb( 31, 120, 180)' fill-opacity = '0.250000' points = '766.4,419.3 766.4,662.4 768.3,662.4 768.3,422.3 '/>
		<polygon fill = 'rgb( 31, 120, 180)' fill-opacity = '0.250000' points = '768.3,422.3 768.3,662.4 770.2,662.4 770.2,425.2 '/>
		<polygon fill = 'rgb( 31, 120, 180)' fill-opacity = '0.250000' points = '770.2,425.2 770.2,662.4 772.0,662.4 772.0,428.0 '/>
		<polygon fill = 'rgb( 31, 120, 180)' fill-opacity = '0.250000' points = '772.0,428.0 772.0,662.4 773.9,662.4 773.9,430.8 '/>
		<polygon fill = 'rgb( 31, 120, 180)' fill-opacity = '0.250000' points = '773.9,430.8 773.9,662.4 775.8,662.4 775.8,433.5 '/>
		<polygon fill = 'rgb( 31, 120, 180)' fill-opacity = '0.250000' points = '775.8,433.5 775.8,662.4 777.7,662.4 777.7,436.1 '/>
		<polygon fill = 'rgb( 31, 120, 180)' fill-opacity = '0.250000' points = '777.7,436.1 777.7,662.4 779.6,662.4 779.6,438.7 '/>
		<polygon fill = 'rgb( 31, 120, 180)' fill-opacity = '0.250000' points = '779.6,438.7 779.6,662.4 781.5,662.4 781.5,441.3 '/>
		<polygon fill = 'rgb( 31, 120, 180)' fill-opacity = '0.250000' points = '781.5,441.3 781.5,662.4 783.4,662.4 783.4,443.8 '/>
		<polygon fill = 'rgb( 31, 120, 180)' fill-opacity = '0.250000' points = '783.4,443.8 783.4,662.4 785.3,662.4 785.3,446.3 '/>
		<polygon fill = 'rgb( 31, 120, 180)' fill-opacity = '0.250000' points = '785.3,446.3 785.3,662.4 787.1,662.4 787.1,448.8 '/>
		<polygon fill = 'rgb( 31, 120, 180)' fill-opacity = '0.250000' points = '787.1,448.8 787.1,662.4 789.0,662.4 789.0,451.3 '/>
		<polygon fill = 'rgb( 31, 120, 180)' fill-opacity = '0.250000' points = '789.0,451.3 789.0,662.4 790.9,662.4 790.9,453.7 '/>
		<polygon fill = 'rgb( 31, 120, 180)' fill-opacity = '0.250000' points = '790.9,453.7 790.9,662.4 792.8,662.4 792.8,456.2 '/>
		<polygon fill = 'rgb( 31, 120, 180)' fill-opacity = '0.250000' points = '792.8,456.2 792.8,662.4 794.7,662.4 794.7,458.7 '/>
		<polygon fill = 'rgb( 31, 120, 180)' fill-opacity = '0.250000' points = '794.7,458.7 794.7,662.4 796.6,662.4 796.6,461.1 '/>
		<polygon fill = 'rgb( 31, 120, 180)' fill-opacity = '0.250000' points = '796.6,461.1 796.6,662.4 798.5,662.4 798.5,463.6 '/>
		<polygon fill = 'rgb( 31, 120, 180)' fill-opacity = '0.250000' points = '798.5,463.6 798.5,662.4 800.3,662.4 800.3,466.0 '/>
		<polygon fill = 'rgb( 31, 120, 180)' fill-opacity = '0.250000' points = '800.3,466.0 800.3,662.4 802.2,662.4 802.2,468.5 '/>
		<polygon fill = 'rgb( 31, 120, 180)' fill-opacity = '0.250000' points = '802.2,468.5 802.2,662.4 804.1,662.4 804.1,471.0 '/>
		<polygon fill = 'rgb( 31, 120, 180)' fill-opacity = '0.250000' points = '804.1,471.0 804.1,662.4 806.0,662.4 806.0,473.4 '/>
		<polygon fill = 'rgb( 31, 120, 180)' fill-opacity = '0.250000' points = '806.0,473.4 806.0,662.4 807.9,662.4 807.9,475.9 '/>
		<polygon fill = 'rgb( 31, 120, 180)' fill-opacity = '0.250000' points = '807.9,475.9 807.9,662.4 809.8,662.4 809.8,478.4 '/>
		<polygon fill = 'rgb( 31, 120, 180)' fill-opacity = '0.250000' points = '809.8,478.4 809.8,662.4 811.7,662.4 811.7,480.8 '/>
		<polygon fill = 'rgb( 31, 120, 180)' fill-opacity = '0.250000' points = '811.7,480.8 811.7,662.4 813.6,662.4 813.6,483.3 '/>
		<polygon fill = 'rgb( 31, 120, 180)' fill-opacity = '0.250000' points = '813.6,483.3 813.6,662.4 815.4,662.4 815.4,485.7 '/>
		<polygon fill = 'rgb( 31, 120, 180)' fill-opacity = '0.250000' points = '815.4,485.7 815.4,662.4 817.3,662.4 817.3,488.1 '/>
		<polygon fill = 'rgb( 31, 120, 180)' fill-opacity = '0.250000' points = '817.3,488.1 817.3,662.4 819.2,662.4 819.2,490.4 '/>
		<polygon fill = 'rgb( 31, 120, 180)' fill-opacity = '0.250000' points = '819.2,490.4 819.2,662.4 821.1,662.4 821.1,492.8 '/>
		<polygon fill = 'rgb( 31, 120, 180)' fill-opacity = '0.250000' points = '821.1,492.8 821.1,662.4 823.0,662.4 823.0,495.0 '/>
		<polygon fill = 'rgb( 31, 120, 180)' fill-opacity = '0.250000' points = '823.0,495.0 823.0,662.4 824.9,662.4 824.9,497.3 '/>
		<polygon fill = 'rgb( 31, 120, 180)' fill-opacity = '0.250000' points = '824.9,497.3 824.9,662.4 826.8,662.4 826.8,499.5 '/>
		<polygon fill = 'rgb( 31, 120, 180)' fill-opacity = '0.250000' points = '826.8,499.5 826.8,662.4 828.7,662.4 828.7,501.6 '/>
		<polygon fill = 'rgb( 31, 120, 180)' fill-opacity = '0.250000' points = '828.7,501.6 828.7,662.4 830.5,662.4 830.5,503.7 '/>
		<polygon fill = 'rgb( 31, 120, 180)' fill-opacity = '0.250000' points = '830.5,503.7 830.5,662.4 832.4,662.4 832.4,505.8 '/>
		<polygon fill = 'rgb( 31, 120, 180)' fill-opacity = '0.250000' points = '832.4,505.8 832.4,662.4 834.3,662.4 834.3,507.8 '/>
		<polygon fill = 'rgb( 31, 120, 180)' fill-opacity = '0.250000' points = '834.3,507.8 834.3,662.4 836.2,662.4 836.2,509.8 '/>
		<polygon fill = 'rgb( 31, 120, 180)' fill-opacity = '0.250000' points = '836.2,509.8 836.2,662.4 838.1,662.4 838.1,511.7 '/>
		<polygon fill = 'rgb( 31, 120, 180)' fill-opacity = '0.250000' points = '838.1,511.7 838.1,662.4 840.0,662.4 840.0,513.6 '/>
		<polygon fill = 'rgb( 31, 120, 180)' fill-opacity = '0.250000' points = '840.0,513.6 840.0,662.4 841.9,662.4 841.9,515.4 '/>
		<polygon fill = 'rgb( 31, 120, 180)' fill-opacity = '0.250000' points = '841.9,515.4 841.9,662.4 843.8,662.4 843.8,517.3 '/>
		<polygon fill = 'rgb( 31, 120, 180)' fill-opacity = '0.250000' points = '843.8,517.3 843.8,662.4 845.6,662.4 845.6,519.1 '/>
		<polygon fill = 'rgb( 31, 120, 180)' fill-opacity = '0.250000' points = '845.6,519.1 845.6,662.4 847.5,662.4 847.5,520.9 '/>
		<polygon fill = 'rgb( 31, 120, 180)' fill-opacity = '0.250000' points = '847.5,520.9 847.5,662.4 849.4,662.4 849.4,522.7 '/>
		<polygon fill = 'rgb( 31, 120, 180)' fill-opacity = '0.250000' points = '849.4,522.7 849.4,662.4 851.3,662.4 851.3,524.5 '/>
		<polygon fill = 'rgb( 31, 120, 180)' fill-opacity = '0.250000' points = '851.3,524.5 851.3,662.4 853.2,662.4 853.2,526.2 '/>
		<polygon fill = 'rgb( 31, 120, 180)' fill-opacity = '0.250000' points = '853.2,526.2 853.2,662.4 855.1,662.4 855.1,528.0 '/>
		<polygon fill = 'rgb( 31, 120, 180)' fill-opacity = '0.250000' points = '855.1,528.0 855.1,662.4 857.0,662.4 857.0,529.8 '/>
		<polygon fill = 'rgb( 31, 120, 180)' fill-opacity = '0.250000' points = '857.0,529.8 857.0,662.4 858.9,662.4 858.9,531.6 '/>
		<polygon fill = 'rgb( 31, 120, 180)' fill-opacity = '0.250000' points = '858.9,531.6 858.9,662.4 860.7,662.4 860.7,533.3 '/>
		<polygon fill = 'rgb( 31, 120, 180)' fill-opacity = '0.250000' points = '860.7,533.3 860.7,662.4 862.6,662.4 862.6,535.1 '/>
		<polygon fill = 'rgb( 31, 120, 180)' fill-opacity = '0.250000' points = '862.6,535.1 862.6,662.4 864.5,662.4 864.5,536.9 '/>
		<polygon fill = 'rgb( 31, 120, 180)' fill-opacity = '0.250000' points = '864.5,536.9 864.5,662.4 866.4,662.4 866.4,538.7 '/>
		<polygon fill = 'rgb( 31, 120, 180)' fill-opacity = '0.250000' points = '866.4,538.7 866.4,662.4 868.3,662.4 868.3,540.4 '/>
		<polygon fill = 'rgb( 31, 120, 180)' fill-opacity = '0.250000' points = '868.3,540.4 868.3,662.4 870.2,662.4 870.2,542.2 '/>
		<polygon fill = 'rgb( 31, 120, 180)' fill-opacity = '0.250000' points = '870.2,542.2 870.2,662.4 872.1,662.4 872.1,544.0 '/>
		<polygon fill = 'rgb( 31, 120, 180)' fill-opacity = '0.250000' points = '872.1,544.0 872.1,662.4 873.9,662.4 873.9,545.7 '/>
		<polygon fill = 'rgb( 31, 120, 180)' fill-opacity = '0.250000' points = '873.9,545.7 873.9,662.4 875.8,662.4 875.8,547.5 '/>
		<polygon fill = 'rgb( 31, 120, 180)' fill-opacity = '0.250000' points = '875.8,547.5 875.8,662.4 877.7,662.4 877.7,549.2 '/>
		<polygon fill = 'rgb( 31, 120, 180)' fill-opacity = '0.250000' points = '877.7,549.2 877.7,662.4 879.6,662.4 879.6,550.9 '/>
		<polygon fill = 'rgb( 31, 120, 180)' fill-opacity = '0.250000' points = '879.6,550.9 879.6,662.4 881.5,662.4 881.5,552.6 '/>
		<polygon fill = 'rgb( 31, 120, 180)' fill-opacity = '0.250000' points = '881.5,552.6 881.5,662.4 883.4,662.4 883.4,554.2 '/>
		<polygon fill = 'rgb( 31, 120, 180)' fill-opacity = '0.250000' points = '883.4,554.2 883.4,662.4 885.3,662.4 885.3,555.9 '/>
		<polygon fill = 'rgb( 31, 120, 180)' fill-opacity = '0.250000' points = '885.3,555.9 885.3,662.4 887.2,662.4 887.2,557.5 '/>
		<polygon fill = 'rgb( 31, 120, 180)' fill-opacity = '0.250000' points = '887.2,557.5 887.2,662.4 889.0,662.4 889.0,559.1 '/>
		<polygon fill = 'rgb( 31, 120, 180)' fill-opacity = '0.250000' points = '889.0,559.1 889.0,662.4 890.9,662.4 890.9,560.7 '/>
		<polygon fill = 'rgb( 31, 120, 180)' fill-opacity = '0.250000' points = '890.9,560.7 890.9,662.4 892.8,662.4 892.8,562.3 '/>
		<polygon fill = 'rgb( 31, 120, 180)' fill-opacity = '0.250000' points = '892.8,562.3 892.8,662.4 894.7,662.4 894.7,563.8 '/>
		<polygon fill = 'rgb( 31, 120, 180)' fill-opacity = '0.250000' points = '894.7,563.8 894.7,662.4 896.6,662.4 896.6,565.4 '/>
		<polygon fill = 'rgb( 31, 120, 180)' fill-opacity = '0.250000' points = '896.6,565.4 896.6,662.4 898.5,662.4 898.5,566.9 '/>
		<polygon fill = 'rgb( 31, 120, 180)' fill-opacity = '0.250000' points = '898.5,566.9 898.5,662.4 900.4,662.4 900.4,568.4 '/>
		<polygon fill = 'rgb( 31, 120, 180)' fill-opacity = '0.250000' points = '900.4,568.4 900.4,662.4 902.3,662.4 902.3,569.8 '/>
		<polygon fill = 'rgb( 31, 120, 180)' fill-opacity = '0.250000' points = '902.3,569.8 902.3,662.4 904.1,662.4 904.1,571.3 '/>
		<polygon fill = 'rgb( 31, 120, 180)' fill-opacity = '0.250000' points = '904.1,571.3 904.1,662.4 906.0,662.4 906.0,572.7 '/>
		<polygon fill = 'rgb( 31, 120, 180)' fill-opacity = '0.250000' points = '906.0,572.7 906.0,662.4 907.9,662.4 907.9,574.2 '/>
		<polygon fill = 'rgb( 31, 120, 180)' fill-opacity = '0.250000' points = '907.9,574.2 907.9,662.4 909.8,662.4 909.8,575.6 '/>
		<polygon fill = 'rgb( 31, 120, 180)' fill-opacity = '0.250000' points = '909.8,575.6 909.8,662.4 911.7,662.4 911.7,577.0 '/>
		<polygon fill = 'rgb( 31, 120, 180)' fill-opacity = '0.250000' points = '911.7,577.0 911.7,662.4 913.6,662.4 913.6,578.3 '/>
		<polygon fill = 'rgb( 31, 120, 180)' fill-opacity = '0.250000' points = '913.6,578.3 913.6,662.4 915.5,662.4 915.5,579.7 '/>
		<polygon fill = 'rgb( 31, 120, 180)' fill-opacity = '0.250000' points = '915.5,579.7 915.5,662.4 917.4,662.4 917.4,581.0 '/>
		<polygon fill = 'rgb( 31, 120, 180)' fill-opacity = '0.250000' points = '917.4,581.0 917.4,662.4 919.2,662.4 919.2,582.3 '/>
		<polygon fill = 'rgb( 31, 120, 180)' fill-opacity = '0.250000' points = '919.2,582.3 919.2,662.4 921.1,662.4 921.1,583.6 '/>
		<polygon fill = 'rgb( 31, 120, 180)' fill-opacity = '0.250000' points = '921.1,583.6 921.1,662.4 923.0,662.4 923.0,584.8 '/>
		<polygon fill = 'rgb( 31, 120, 180)' fill-opacity = '0.250000' points = '923.0,584.8 923.0,662.4 924.9,662.4 924.9,586.1 '/>
	</g>
</g>
	</g>
	<g id="gnuplot_plot_3" ><title>Point estimate</title>
<g fill="none" color="white" stroke="rgb( 31, 120, 180)" stroke-width="2.00" stroke-linecap="butt" stroke-linejoin="miter">
</g>
<g fill="none" color="black" stroke="currentColor" stroke-width="2.00" stroke-linecap="butt" stroke-linejoin="miter">
	<g transform="translate(1089.0,103.0)" stroke="none" fill="black" font-family="Helvetica" font-size="12.00"  text-anchor="start">
		<text><tspan font-family="Helvetica" >Point estimate</tspan></text>
	</g>
</g>
<g fill="none" color="black" stroke="currentColor" stroke-width="2.00" stroke-linecap="butt" stroke-linejoin="miter">
	<path stroke='rgb( 31, 120, 180)'  d='M1038.5,99.1 L1080.7,99.1 M514.0,662.4 L514.0,64.5  '/></g>
	</g>
<g fill="none" color="black" stroke="currentColor" stroke-width="2.00" stroke-linecap="butt" stroke-linejoin="miter">
</g>
<g fill="none" color="black" stroke="black" stroke-width="1.00" stroke-linecap="butt" stroke-linejoin="miter">
</g>
<g fill="none" color="black" stroke="currentColor" stroke-width="1.00" stroke-linecap="butt" stroke-linejoin="miter">
	<path stroke='black'  d='M71.9,54.1 L71.9,662.4 L1013.6,662.4 L1013.6,54.1 L71.9,54.1 Z  '/></g>
<g fill="none" color="black" stroke="currentColor" stroke-width="1.00" stroke-linecap="butt" stroke-linejoin="miter">
</g>
</g>
</svg>

