group,function,value,throughput_num,throughput_type,sample_measured_value,unit,iteration_count
dfs petgraph immut,,,,,1611495.0,ns,1
dfs petgraph immut,,,,,3216150.0,ns,2
dfs petgraph immut,,,,,4824096.0,ns,3
dfs petgraph immut,,,,,6424798.0,ns,4
dfs petgraph immut,,,,,8023925.0,ns,5
dfs petgraph immut,,,,,9621587.0,ns,6
dfs petgraph immut,,,,,11219991.0,ns,7
dfs petgraph immut,,,,,12819350.0,ns,8
dfs petgraph immut,,,,,14420849.0,ns,9
dfs petgraph immut,,,,,16051029.0,ns,10
dfs petgraph immut,,,,,17619434.0,ns,11
dfs petgraph immut,,,,,19317056.0,ns,12
dfs petgraph immut,,,,,20848468.0,ns,13
dfs petgraph immut,,,,,22542401.0,ns,14
dfs petgraph immut,,,,,24041492.0,ns,15
dfs petgraph immut,,,,,27382891.0,ns,16
dfs petgraph immut,,,,,27293448.0,ns,17
dfs petgraph immut,,,,,28947471.0,ns,18
dfs petgraph immut,,,,,30460279.0,ns,19
dfs petgraph immut,,,,,32266089.0,ns,20
dfs petgraph immut,,,,,33829812.0,ns,21
dfs petgraph immut,,,,,35237881.0,ns,22
dfs petgraph immut,,,,,36818018.0,ns,23
dfs petgraph immut,,,,,38419093.0,ns,24
dfs petgraph immut,,,,,40048839.0,ns,25
dfs petgraph immut,,,,,41650426.0,ns,26
dfs petgraph immut,,,,,43351704.0,ns,27
dfs petgraph immut,,,,,44851890.0,ns,28
dfs petgraph immut,,,,,46440099.0,ns,29
dfs petgraph immut,,,,,48425786.0,ns,30
dfs petgraph immut,,,,,49763979.0,ns,31
dfs petgraph immut,,,,,51260259.0,ns,32
dfs petgraph immut,,,,,52870553.0,ns,33
dfs petgraph immut,,,,,54409200.0,ns,34
dfs petgraph immut,,,,,56035846.0,ns,35
dfs petgraph immut,,,,,57625267.0,ns,36
dfs petgraph immut,,,,,59650262.0,ns,37
dfs petgraph immut,,,,,62796076.0,ns,38
dfs petgraph immut,,,,,62524609.0,ns,39
dfs petgraph immut,,,,,64083325.0,ns,40
dfs petgraph immut,,,,,65677675.0,ns,41
dfs petgraph immut,,,,,67202437.0,ns,42
dfs petgraph immut,,,,,68826753.0,ns,43
dfs petgraph immut,,,,,70549784.0,ns,44
dfs petgraph immut,,,,,72026556.0,ns,45
dfs petgraph immut,,,,,73626855.0,ns,46
dfs petgraph immut,,,,,75369778.0,ns,47
dfs petgraph immut,,,,,76799412.0,ns,48
dfs petgraph immut,,,,,78348536.0,ns,49
dfs petgraph immut,,,,,80057400.0,ns,50
dfs petgraph immut,,,,,82921688.0,ns,51
dfs petgraph immut,,,,,87558459.0,ns,52
dfs petgraph immut,,,,,85758694.0,ns,53
dfs petgraph immut,,,,,86440827.0,ns,54
dfs petgraph immut,,,,,88451988.0,ns,55
dfs petgraph immut,,,,,89558267.0,ns,56
dfs petgraph immut,,,,,91319424.0,ns,57
dfs petgraph immut,,,,,92895917.0,ns,58
dfs petgraph immut,,,,,94425837.0,ns,59
dfs petgraph immut,,,,,95963176.0,ns,60
dfs petgraph immut,,,,,97998466.0,ns,61
dfs petgraph immut,,,,,100972895.0,ns,62
dfs petgraph immut,,,,,100921730.0,ns,63
dfs petgraph immut,,,,,102467586.0,ns,64
dfs petgraph immut,,,,,104151733.0,ns,65
dfs petgraph immut,,,,,105613662.0,ns,66
dfs petgraph immut,,,,,107248926.0,ns,67
dfs petgraph immut,,,,,109010024.0,ns,68
dfs petgraph immut,,,,,110306730.0,ns,69
dfs petgraph immut,,,,,112128092.0,ns,70
dfs petgraph immut,,,,,115208111.0,ns,71
dfs petgraph immut,,,,,115429530.0,ns,72
dfs petgraph immut,,,,,116979016.0,ns,73
dfs petgraph immut,,,,,118394943.0,ns,74
dfs petgraph immut,,,,,120330261.0,ns,75
dfs petgraph immut,,,,,121798711.0,ns,76
dfs petgraph immut,,,,,123486343.0,ns,77
dfs petgraph immut,,,,,124827081.0,ns,78
dfs petgraph immut,,,,,128363224.0,ns,79
dfs petgraph immut,,,,,128379737.0,ns,80
dfs petgraph immut,,,,,129944595.0,ns,81
dfs petgraph immut,,,,,131379881.0,ns,82
dfs petgraph immut,,,,,132909470.0,ns,83
dfs petgraph immut,,,,,134675292.0,ns,84
dfs petgraph immut,,,,,135971876.0,ns,85
dfs petgraph immut,,,,,137681429.0,ns,86
dfs petgraph immut,,,,,141669615.0,ns,87
dfs petgraph immut,,,,,141066222.0,ns,88
dfs petgraph immut,,,,,142409315.0,ns,89
dfs petgraph immut,,,,,144206518.0,ns,90
dfs petgraph immut,,,,,146287967.0,ns,91
dfs petgraph immut,,,,,147150657.0,ns,92
dfs petgraph immut,,,,,149194945.0,ns,93
dfs petgraph immut,,,,,152799663.0,ns,94
dfs petgraph immut,,,,,152313965.0,ns,95
dfs petgraph immut,,,,,153669208.0,ns,96
dfs petgraph immut,,,,,155126345.0,ns,97
dfs petgraph immut,,,,,156959135.0,ns,98
dfs petgraph immut,,,,,158539751.0,ns,99
dfs petgraph immut,,,,,162156207.0,ns,100
