<?xml version="1.0" encoding="utf-8"  standalone="no"?>
<!DOCTYPE svg PUBLIC "-//W3C//DTD SVG 1.1//EN"
 "http://www.w3.org/Graphics/SVG/1.1/DTD/svg11.dtd">
<svg 
 viewBox="0 0 1280 720"
 xmlns="http://www.w3.org/2000/svg"
 xmlns:xlink="http://www.w3.org/1999/xlink"
>

<title>Gnuplot</title>
<desc>Produced by GNUPLOT 5.0 patchlevel 5 </desc>

<g id="gnuplot_canvas">

<rect x="0" y="0" width="1280" height="720" fill="none"/>
<defs>

	<circle id='gpDot' r='0.5' stroke-width='0.5'/>
	<path id='gpPt0' stroke-width='0.222' stroke='currentColor' d='M-1,0 h2 M0,-1 v2'/>
	<path id='gpPt1' stroke-width='0.222' stroke='currentColor' d='M-1,-1 L1,1 M1,-1 L-1,1'/>
	<path id='gpPt2' stroke-width='0.222' stroke='currentColor' d='M-1,0 L1,0 M0,-1 L0,1 M-1,-1 L1,1 M-1,1 L1,-1'/>
	<rect id='gpPt3' stroke-width='0.222' stroke='currentColor' x='-1' y='-1' width='2' height='2'/>
	<rect id='gpPt4' stroke-width='0.222' stroke='currentColor' fill='currentColor' x='-1' y='-1' width='2' height='2'/>
	<circle id='gpPt5' stroke-width='0.222' stroke='currentColor' cx='0' cy='0' r='1'/>
	<use xlink:href='#gpPt5' id='gpPt6' fill='currentColor' stroke='none'/>
	<path id='gpPt7' stroke-width='0.222' stroke='currentColor' d='M0,-1.33 L-1.33,0.67 L1.33,0.67 z'/>
	<use xlink:href='#gpPt7' id='gpPt8' fill='currentColor' stroke='none'/>
	<use xlink:href='#gpPt7' id='gpPt9' stroke='currentColor' transform='rotate(180)'/>
	<use xlink:href='#gpPt9' id='gpPt10' fill='currentColor' stroke='none'/>
	<use xlink:href='#gpPt3' id='gpPt11' stroke='currentColor' transform='rotate(45)'/>
	<use xlink:href='#gpPt11' id='gpPt12' fill='currentColor' stroke='none'/>
	<path id='gpPt13' stroke-width='0.222' stroke='currentColor' d='M0,1.330 L1.265,0.411 L0.782,-1.067 L-0.782,-1.076 L-1.265,0.411 z'/>
	<use xlink:href='#gpPt13' id='gpPt14' fill='currentColor' stroke='none'/>
	<filter id='textbox' filterUnits='objectBoundingBox' x='0' y='0' height='1' width='1'>
	  <feFlood flood-color='white' flood-opacity='1' result='bgnd'/>
	  <feComposite in='SourceGraphic' in2='bgnd' operator='atop'/>
	</filter>
	<filter id='greybox' filterUnits='objectBoundingBox' x='0' y='0' height='1' width='1'>
	  <feFlood flood-color='lightgrey' flood-opacity='1' result='grey'/>
	  <feComposite in='SourceGraphic' in2='grey' operator='atop'/>
	</filter>
</defs>
<g fill="none" color="white" stroke="currentColor" stroke-width="1.00" stroke-linecap="butt" stroke-linejoin="miter">
</g>
<g fill="none" color="black" stroke="currentColor" stroke-width="1.00" stroke-linecap="butt" stroke-linejoin="miter">
	<path stroke='black'  d='M63.6,662.4 L72.6,662.4  '/>	<g transform="translate(55.3,666.3)" stroke="none" fill="black" font-family="Helvetica" font-size="12.00"  text-anchor="end">
		<text><tspan font-family="Helvetica" > 0</tspan></text>
	</g>
</g>
<g fill="none" color="black" stroke="currentColor" stroke-width="1.00" stroke-linecap="butt" stroke-linejoin="miter">
	<path stroke='black'  d='M63.6,594.8 L72.6,594.8  '/>	<g transform="translate(55.3,598.7)" stroke="none" fill="black" font-family="Helvetica" font-size="12.00"  text-anchor="end">
		<text><tspan font-family="Helvetica" > 5</tspan></text>
	</g>
</g>
<g fill="none" color="black" stroke="currentColor" stroke-width="1.00" stroke-linecap="butt" stroke-linejoin="miter">
	<path stroke='black'  d='M63.6,527.2 L72.6,527.2  '/>	<g transform="translate(55.3,531.1)" stroke="none" fill="black" font-family="Helvetica" font-size="12.00"  text-anchor="end">
		<text><tspan font-family="Helvetica" > 10</tspan></text>
	</g>
</g>
<g fill="none" color="black" stroke="currentColor" stroke-width="1.00" stroke-linecap="butt" stroke-linejoin="miter">
	<path stroke='black'  d='M63.6,459.6 L72.6,459.6  '/>	<g transform="translate(55.3,463.5)" stroke="none" fill="black" font-family="Helvetica" font-size="12.00"  text-anchor="end">
		<text><tspan font-family="Helvetica" > 15</tspan></text>
	</g>
</g>
<g fill="none" color="black" stroke="currentColor" stroke-width="1.00" stroke-linecap="butt" stroke-linejoin="miter">
	<path stroke='black'  d='M63.6,392.0 L72.6,392.0  '/>	<g transform="translate(55.3,395.9)" stroke="none" fill="black" font-family="Helvetica" font-size="12.00"  text-anchor="end">
		<text><tspan font-family="Helvetica" > 20</tspan></text>
	</g>
</g>
<g fill="none" color="black" stroke="currentColor" stroke-width="1.00" stroke-linecap="butt" stroke-linejoin="miter">
	<path stroke='black'  d='M63.6,324.5 L72.6,324.5  '/>	<g transform="translate(55.3,328.4)" stroke="none" fill="black" font-family="Helvetica" font-size="12.00"  text-anchor="end">
		<text><tspan font-family="Helvetica" > 25</tspan></text>
	</g>
</g>
<g fill="none" color="black" stroke="currentColor" stroke-width="1.00" stroke-linecap="butt" stroke-linejoin="miter">
	<path stroke='black'  d='M63.6,256.9 L72.6,256.9  '/>	<g transform="translate(55.3,260.8)" stroke="none" fill="black" font-family="Helvetica" font-size="12.00"  text-anchor="end">
		<text><tspan font-family="Helvetica" > 30</tspan></text>
	</g>
</g>
<g fill="none" color="black" stroke="currentColor" stroke-width="1.00" stroke-linecap="butt" stroke-linejoin="miter">
	<path stroke='black'  d='M63.6,189.3 L72.6,189.3  '/>	<g transform="translate(55.3,193.2)" stroke="none" fill="black" font-family="Helvetica" font-size="12.00"  text-anchor="end">
		<text><tspan font-family="Helvetica" > 35</tspan></text>
	</g>
</g>
<g fill="none" color="black" stroke="currentColor" stroke-width="1.00" stroke-linecap="butt" stroke-linejoin="miter">
	<path stroke='black'  d='M63.6,121.7 L72.6,121.7  '/>	<g transform="translate(55.3,125.6)" stroke="none" fill="black" font-family="Helvetica" font-size="12.00"  text-anchor="end">
		<text><tspan font-family="Helvetica" > 40</tspan></text>
	</g>
</g>
<g fill="none" color="black" stroke="currentColor" stroke-width="1.00" stroke-linecap="butt" stroke-linejoin="miter">
	<path stroke='black'  d='M63.6,54.1 L72.6,54.1  '/>	<g transform="translate(55.3,58.0)" stroke="none" fill="black" font-family="Helvetica" font-size="12.00"  text-anchor="end">
		<text><tspan font-family="Helvetica" > 45</tspan></text>
	</g>
</g>
<g fill="none" color="black" stroke="currentColor" stroke-width="1.00" stroke-linecap="butt" stroke-linejoin="miter">
	<path stroke='black'  d='M190.0,662.4 L190.0,653.4  '/>	<g transform="translate(190.0,684.3)" stroke="none" fill="black" font-family="Helvetica" font-size="12.00"  text-anchor="middle">
		<text><tspan font-family="Helvetica" > 260.92</tspan></text>
	</g>
</g>
<g fill="none" color="black" stroke="currentColor" stroke-width="1.00" stroke-linecap="butt" stroke-linejoin="miter">
	<path stroke='black'  d='M323.5,662.4 L323.5,653.4  '/>	<g transform="translate(323.5,684.3)" stroke="none" fill="black" font-family="Helvetica" font-size="12.00"  text-anchor="middle">
		<text><tspan font-family="Helvetica" > 260.94</tspan></text>
	</g>
</g>
<g fill="none" color="black" stroke="currentColor" stroke-width="1.00" stroke-linecap="butt" stroke-linejoin="miter">
	<path stroke='black'  d='M457.1,662.4 L457.1,653.4  '/>	<g transform="translate(457.1,684.3)" stroke="none" fill="black" font-family="Helvetica" font-size="12.00"  text-anchor="middle">
		<text><tspan font-family="Helvetica" > 260.96</tspan></text>
	</g>
</g>
<g fill="none" color="black" stroke="currentColor" stroke-width="1.00" stroke-linecap="butt" stroke-linejoin="miter">
	<path stroke='black'  d='M590.7,662.4 L590.7,653.4  '/>	<g transform="translate(590.7,684.3)" stroke="none" fill="black" font-family="Helvetica" font-size="12.00"  text-anchor="middle">
		<text><tspan font-family="Helvetica" > 260.98</tspan></text>
	</g>
</g>
<g fill="none" color="black" stroke="currentColor" stroke-width="1.00" stroke-linecap="butt" stroke-linejoin="miter">
	<path stroke='black'  d='M724.3,662.4 L724.3,653.4  '/>	<g transform="translate(724.3,684.3)" stroke="none" fill="black" font-family="Helvetica" font-size="12.00"  text-anchor="middle">
		<text><tspan font-family="Helvetica" > 261</tspan></text>
	</g>
</g>
<g fill="none" color="black" stroke="currentColor" stroke-width="1.00" stroke-linecap="butt" stroke-linejoin="miter">
	<path stroke='black'  d='M857.8,662.4 L857.8,653.4  '/>	<g transform="translate(857.8,684.3)" stroke="none" fill="black" font-family="Helvetica" font-size="12.00"  text-anchor="middle">
		<text><tspan font-family="Helvetica" > 261.02</tspan></text>
	</g>
</g>
<g fill="none" color="black" stroke="currentColor" stroke-width="1.00" stroke-linecap="butt" stroke-linejoin="miter">
	<path stroke='black'  d='M991.4,662.4 L991.4,653.4  '/>	<g transform="translate(991.4,684.3)" stroke="none" fill="black" font-family="Helvetica" font-size="12.00"  text-anchor="middle">
		<text><tspan font-family="Helvetica" > 261.04</tspan></text>
	</g>
</g>
<g fill="none" color="black" stroke="currentColor" stroke-width="1.00" stroke-linecap="butt" stroke-linejoin="miter">
</g>
<g fill="none" color="black" stroke="currentColor" stroke-width="1.00" stroke-linecap="butt" stroke-linejoin="miter">
	<path stroke='black'  d='M63.6,54.1 L63.6,662.4 L1013.6,662.4 L1013.6,54.1 L63.6,54.1 Z  '/></g>
<g fill="none" color="black" stroke="currentColor" stroke-width="1.00" stroke-linecap="butt" stroke-linejoin="miter">
	<g transform="translate(17.0,358.3) rotate(270)" stroke="none" fill="black" font-family="Helvetica" font-size="12.00"  text-anchor="middle">
		<text><tspan font-family="Helvetica" >Density (a.u.)</tspan></text>
	</g>
</g>
<g fill="none" color="black" stroke="currentColor" stroke-width="1.00" stroke-linecap="butt" stroke-linejoin="miter">
	<g transform="translate(538.6,711.3)" stroke="none" fill="black" font-family="Helvetica" font-size="12.00"  text-anchor="middle">
		<text><tspan font-family="Helvetica" >Average time (us)</tspan></text>
	</g>
</g>
<g fill="none" color="black" stroke="currentColor" stroke-width="1.00" stroke-linecap="butt" stroke-linejoin="miter">
	<g transform="translate(538.6,31.0)" stroke="none" fill="black" font-family="Helvetica" font-size="12.00"  text-anchor="middle">
		<text><tspan font-family="Helvetica" >dlist arena atomic_cell init: median</tspan></text>
	</g>
</g>
	<g id="gnuplot_plot_1" ><title>Bootstrap distribution</title>
<g fill="none" color="white" stroke="black" stroke-width="2.00" stroke-linecap="butt" stroke-linejoin="miter">
</g>
<g fill="none" color="black" stroke="currentColor" stroke-width="2.00" stroke-linecap="butt" stroke-linejoin="miter">
	<g transform="translate(1089.0,67.0)" stroke="none" fill="black" font-family="Helvetica" font-size="12.00"  text-anchor="start">
		<text><tspan font-family="Helvetica" >Bootstrap distribution</tspan></text>
	</g>
</g>
<g fill="none" color="black" stroke="currentColor" stroke-width="2.00" stroke-linecap="butt" stroke-linejoin="miter">
	<path stroke='rgb( 31, 120, 180)'  d='M1038.5,63.1 L1080.7,63.1 M63.6,661.5 L65.5,661.4 L67.4,661.3 L69.3,661.1 L71.2,660.9 L73.1,660.7
		L75.0,660.5 L76.9,660.2 L78.8,659.9 L80.7,659.6 L82.6,659.2 L84.5,658.8 L86.4,658.3 L88.3,657.7
		L90.3,657.1 L92.2,656.4 L94.1,655.6 L96.0,654.8 L97.9,653.8 L99.8,652.7 L101.7,651.4 L103.6,650.1
		L105.5,648.5 L107.4,646.8 L109.3,645.0 L111.2,642.9 L113.1,640.7 L115.0,638.3 L116.9,635.7 L118.8,633.0
		L120.7,630.0 L122.6,627.0 L124.5,623.7 L126.4,620.4 L128.3,617.0 L130.2,613.6 L132.1,610.1 L134.0,606.7
		L135.9,603.3 L137.8,600.1 L139.8,596.9 L141.7,593.9 L143.6,591.1 L145.5,588.4 L147.4,586.0 L149.3,583.7
		L151.2,581.6 L153.1,579.7 L155.0,577.9 L156.9,576.2 L158.8,574.4 L160.7,572.7 L162.6,570.8 L164.5,568.8
		L166.4,566.5 L168.3,563.9 L170.2,560.8 L172.1,557.3 L174.0,553.3 L175.9,548.6 L177.8,543.2 L179.7,537.1
		L181.6,530.3 L183.5,522.7 L185.4,514.4 L187.3,505.3 L189.3,495.5 L191.2,485.2 L193.1,474.2 L195.0,462.9
		L196.9,451.2 L198.8,439.3 L200.7,427.4 L202.6,415.7 L204.5,404.1 L206.4,393.1 L208.3,382.5 L210.2,372.7
		L212.1,363.7 L214.0,355.6 L215.9,348.4 L217.8,342.3 L219.7,337.1 L221.6,332.9 L223.5,329.6 L225.4,327.1
		L227.3,325.3 L229.2,324.0 L231.1,322.9 L233.0,321.9 L234.9,320.9 L236.8,319.4 L238.8,317.4 L240.7,314.6
		L242.6,310.9 L244.5,306.0 L246.4,299.8 L248.3,292.3 L250.2,283.4 L252.1,273.1 L254.0,261.5 L255.9,248.8
		L257.8,235.0 L259.7,220.5 L261.6,205.5 L263.5,190.3 L265.4,175.4 L267.3,161.0 L269.2,147.7 L271.1,135.7
		L273.0,125.4 L274.9,117.3 L276.8,111.5 L278.7,108.4 L280.6,108.1 L282.5,110.7 L284.4,116.2 L286.3,124.7
		L288.2,135.9 L290.2,149.8 L292.1,166.0 L294.0,184.3 L295.9,204.2 L297.8,225.5 L299.7,247.8 L301.6,270.6
		L303.5,293.6 L305.4,316.4 L307.3,338.6 L309.2,360.1 L311.1,380.5 L313.0,399.7 L314.9,417.5 L316.8,433.8
		L318.7,448.5 L320.6,461.7 L322.5,473.5 L324.4,483.7 L326.3,492.7 L328.2,500.4 L330.1,507.0 L332.0,512.7
		L333.9,517.5 L335.8,521.6 L337.7,525.1 L339.7,528.2 L341.6,530.8 L343.5,533.2 L345.4,535.3 L347.3,537.2
		L349.2,539.0 L351.1,540.6 L353.0,542.1 L354.9,543.5 L356.8,544.8 L358.7,545.9 L360.6,546.9 L362.5,547.8
		L364.4,548.5 L366.3,549.1 L368.2,549.5 L370.1,549.8 L372.0,549.9 L373.9,550.0 L375.8,549.9 L377.7,549.7
		L379.6,549.5 L381.5,549.2 L383.4,548.9 L385.3,548.6 L387.2,548.3 L389.2,548.1 L391.1,547.9 L393.0,547.9
		L394.9,547.9 L396.8,548.1 L398.7,548.5 L400.6,549.0 L402.5,549.7 L404.4,550.7 L406.3,551.8 L408.2,553.2
		L410.1,554.7 L412.0,556.5 L413.9,558.5 L415.8,560.6 L417.7,562.9 L419.6,565.2 L421.5,567.7 L423.4,570.2
		L425.3,572.7 L427.2,575.2 L429.1,577.6 L431.0,579.9 L432.9,582.0 L434.8,583.9 L436.7,585.6 L438.7,587.0
		L440.6,588.2 L442.5,589.1 L444.4,589.7 L446.3,590.1 L448.2,590.3 L450.1,590.2 L452.0,590.0 L453.9,589.7
		L455.8,589.3 L457.7,588.8 L459.6,588.4 L461.5,588.1 L463.4,587.8 L465.3,587.8 L467.2,587.8 L469.1,588.1
		L471.0,588.6 L472.9,589.3 L474.8,590.2 L476.7,591.3 L478.6,592.5 L480.5,593.8 L482.4,595.1 L484.3,596.3
		L486.2,597.5 L488.1,598.5 L490.1,599.2 L492.0,599.7 L493.9,599.9 L495.8,599.7 L497.7,599.1 L499.6,598.1
		L501.5,596.7 L503.4,594.9 L505.3,592.7 L507.2,590.3 L509.1,587.6 L511.0,584.8 L512.9,581.9 L514.8,579.0
		L516.7,576.1 L518.6,573.5 L520.5,571.1 L522.4,569.1 L524.3,567.5 L526.2,566.5 L528.1,565.9 L530.0,565.9
		L531.9,566.5 L533.8,567.7 L535.7,569.4 L537.6,571.7 L539.6,574.5 L541.5,577.8 L543.4,581.4 L545.3,585.4
		L547.2,589.7 L549.1,594.1 L551.0,598.6 L552.9,603.1 L554.8,607.7 L556.7,612.1 L558.6,616.4 L560.5,620.4
		L562.4,624.3 L564.3,627.9 L566.2,631.2 L568.1,634.2 L570.0,637.0 L571.9,639.4 L573.8,641.6 L575.7,643.5
		L577.6,645.1 L579.5,646.5 L581.4,647.7 L583.3,648.7 L585.2,649.4 L587.1,650.0 L589.1,650.4 L591.0,650.6
		L592.9,650.7 L594.8,650.5 L596.7,650.2 L598.6,649.7 L600.5,649.0 L602.4,648.1 L604.3,647.0 L606.2,645.7
		L608.1,644.1 L610.0,642.4 L611.9,640.4 L613.8,638.3 L615.7,636.0 L617.6,633.5 L619.5,630.9 L621.4,628.3
		L623.3,625.7 L625.2,623.0 L627.1,620.5 L629.0,618.1 L630.9,615.8 L632.8,613.8 L634.7,612.1 L636.6,610.7
		L638.5,609.7 L640.5,609.0 L642.4,608.8 L644.3,608.9 L646.2,609.5 L648.1,610.5 L650.0,611.8 L651.9,613.5
		L653.8,615.5 L655.7,617.8 L657.6,620.3 L659.5,623.0 L661.4,625.7 L663.3,628.6 L665.2,631.4 L667.1,634.3
		L669.0,637.1 L670.9,639.7 L672.8,642.3 L674.7,644.6 L676.6,646.8 L678.5,648.8 L680.4,650.6 L682.3,652.2
		L684.2,653.6 L686.1,654.7 L688.0,655.7 L690.0,656.5 L691.9,657.0 L693.8,657.3 L695.7,657.5 L697.6,657.4
		L699.5,657.2 L701.4,656.7 L703.3,656.0 L705.2,655.0 L707.1,653.8 L709.0,652.4 L710.9,650.7 L712.8,648.7
		L714.7,646.4 L716.6,643.9 L718.5,641.0 L720.4,637.9 L722.3,634.5 L724.2,630.8 L726.1,626.9 L728.0,622.9
		L729.9,618.6 L731.8,614.3 L733.7,609.9 L735.6,605.6 L737.5,601.3 L739.5,597.2 L741.4,593.4 L743.3,589.8
		L745.2,586.6 L747.1,583.8 L749.0,581.5 L750.9,579.7 L752.8,578.5 L754.7,577.8 L756.6,577.8 L758.5,578.4
		L760.4,579.5 L762.3,581.2 L764.2,583.4 L766.1,586.1 L768.0,589.2 L769.9,592.6 L771.8,596.4 L773.7,600.4
		L775.6,604.5 L777.5,608.7 L779.4,612.9 L781.3,617.1 L783.2,621.3 L785.1,625.2 L787.0,629.0 L789.0,632.6
		L790.9,635.9 L792.8,639.0 L794.7,641.7 L796.6,644.2 L798.5,646.4 L800.4,648.3 L802.3,649.8 L804.2,651.1
		L806.1,652.2 L808.0,652.9 L809.9,653.5 L811.8,653.7 L813.7,653.8 L815.6,653.7 L817.5,653.4 L819.4,653.0
		L821.3,652.4 L823.2,651.8 L825.1,651.0 L827.0,650.2 L828.9,649.3 L830.8,648.4 L832.7,647.5 L834.6,646.6
		L836.5,645.8 L838.4,645.0 L840.4,644.3 L842.3,643.7 L844.2,643.2 L846.1,642.8 L848.0,642.5 L849.9,642.3
		L851.8,642.2 L853.7,642.3 L855.6,642.5 L857.5,642.7 L859.4,643.1 L861.3,643.6 L863.2,644.1 L865.1,644.7
		L867.0,645.3 L868.9,646.0 L870.8,646.7 L872.7,647.5 L874.6,648.2 L876.5,648.9 L878.4,649.6 L880.3,650.3
		L882.2,651.0 L884.1,651.6 L886.0,652.1 L887.9,652.7 L889.9,653.1 L891.8,653.5 L893.7,653.8 L895.6,654.0
		L897.5,654.2 L899.4,654.3 L901.3,654.3 L903.2,654.2 L905.1,654.1 L907.0,653.9 L908.9,653.6 L910.8,653.3
		L912.7,653.0 L914.6,652.6 L916.5,652.2 L918.4,651.8 L920.3,651.4 L922.2,651.0 L924.1,650.5 L926.0,650.1
		L927.9,649.7 L929.8,649.3 L931.7,648.9 L933.6,648.6 L935.5,648.3 L937.4,647.9 L939.4,647.7 L941.3,647.4
		L943.2,647.1 L945.1,646.8 L947.0,646.6 L948.9,646.4 L950.8,646.1 L952.7,645.9 L954.6,645.7 L956.5,645.4
		L958.4,645.2 L960.3,645.0 L962.2,644.7 L964.1,644.5 L966.0,644.3 L967.9,644.1 L969.8,643.9 L971.7,643.7
		L973.6,643.6 L975.5,643.5 L977.4,643.4 L979.3,643.4 L981.2,643.5 L983.1,643.5 L985.0,643.7 L986.9,643.9
		L988.9,644.1 L990.8,644.5 L992.7,644.8 L994.6,645.2 L996.5,645.7 L998.4,646.2 L1000.3,646.7 L1002.2,647.3
		L1004.1,647.8 L1006.0,648.4 L1007.9,648.9 L1009.8,649.5 L1011.7,650.0 L1013.6,650.5  '/></g>
	</g>
	<g id="gnuplot_plot_2" ><title>Confidence interval</title>
<g fill="none" color="white" stroke="rgb( 31, 120, 180)" stroke-width="1.00" stroke-linecap="butt" stroke-linejoin="miter">
</g>
<g fill="none" color="black" stroke="currentColor" stroke-width="1.00" stroke-linecap="butt" stroke-linejoin="miter">
	<g transform="translate(1089.0,85.0)" stroke="none" fill="black" font-family="Helvetica" font-size="12.00"  text-anchor="start">
		<text><tspan font-family="Helvetica" >Confidence interval</tspan></text>
	</g>
</g>
<g fill="none" color="black" stroke="currentColor" stroke-width="1.00" stroke-linecap="butt" stroke-linejoin="miter">
	<g stroke='none' shape-rendering='crispEdges'>
		<polygon fill = 'rgb( 31, 120, 180)' fill-opacity = '0.250000' points = '1038.5,85.6 1080.7,85.6 1080.7,76.6 1038.5,76.6 '/>
		<polygon fill = 'rgb( 31, 120, 180)' fill-opacity = '0.250000' points = '151.2,581.6 151.2,662.4 153.1,662.4 153.1,579.7 '/>
		<polygon fill = 'rgb( 31, 120, 180)' fill-opacity = '0.250000' points = '153.1,579.7 153.1,662.4 155.0,662.4 155.0,577.9 '/>
		<polygon fill = 'rgb( 31, 120, 180)' fill-opacity = '0.250000' points = '155.0,577.9 155.0,662.4 156.9,662.4 156.9,576.2 '/>
		<polygon fill = 'rgb( 31, 120, 180)' fill-opacity = '0.250000' points = '156.9,576.2 156.9,662.4 158.8,662.4 158.8,574.4 '/>
		<polygon fill = 'rgb( 31, 120, 180)' fill-opacity = '0.250000' points = '158.8,574.4 158.8,662.4 160.7,662.4 160.7,572.7 '/>
		<polygon fill = 'rgb( 31, 120, 180)' fill-opacity = '0.250000' points = '160.7,572.7 160.7,662.4 162.6,662.4 162.6,570.8 '/>
		<polygon fill = 'rgb( 31, 120, 180)' fill-opacity = '0.250000' points = '162.6,570.8 162.6,662.4 164.5,662.4 164.5,568.8 '/>
		<polygon fill = 'rgb( 31, 120, 180)' fill-opacity = '0.250000' points = '164.5,568.8 164.5,662.4 166.4,662.4 166.4,566.5 '/>
		<polygon fill = 'rgb( 31, 120, 180)' fill-opacity = '0.250000' points = '166.4,566.5 166.4,662.4 168.3,662.4 168.3,563.9 '/>
		<polygon fill = 'rgb( 31, 120, 180)' fill-opacity = '0.250000' points = '168.3,563.9 168.3,662.4 170.2,662.4 170.2,560.8 '/>
		<polygon fill = 'rgb( 31, 120, 180)' fill-opacity = '0.250000' points = '170.2,560.8 170.2,662.4 172.1,662.4 172.1,557.3 '/>
		<polygon fill = 'rgb( 31, 120, 180)' fill-opacity = '0.250000' points = '172.1,557.3 172.1,662.4 174.0,662.4 174.0,553.3 '/>
		<polygon fill = 'rgb( 31, 120, 180)' fill-opacity = '0.250000' points = '174.0,553.3 174.0,662.4 175.9,662.4 175.9,548.6 '/>
		<polygon fill = 'rgb( 31, 120, 180)' fill-opacity = '0.250000' points = '175.9,548.6 175.9,662.4 177.8,662.4 177.8,543.2 '/>
		<polygon fill = 'rgb( 31, 120, 180)' fill-opacity = '0.250000' points = '177.8,543.2 177.8,662.4 179.7,662.4 179.7,537.1 '/>
		<polygon fill = 'rgb( 31, 120, 180)' fill-opacity = '0.250000' points = '179.7,537.1 179.7,662.4 181.6,662.4 181.6,530.3 '/>
		<polygon fill = 'rgb( 31, 120, 180)' fill-opacity = '0.250000' points = '181.6,530.3 181.6,662.4 183.5,662.4 183.5,522.7 '/>
		<polygon fill = 'rgb( 31, 120, 180)' fill-opacity = '0.250000' points = '183.5,522.7 183.5,662.4 185.4,662.4 185.4,514.4 '/>
		<polygon fill = 'rgb( 31, 120, 180)' fill-opacity = '0.250000' points = '185.4,514.4 185.4,662.4 187.3,662.4 187.3,505.3 '/>
		<polygon fill = 'rgb( 31, 120, 180)' fill-opacity = '0.250000' points = '187.3,505.3 187.3,662.4 189.3,662.4 189.3,495.5 '/>
		<polygon fill = 'rgb( 31, 120, 180)' fill-opacity = '0.250000' points = '189.3,495.5 189.3,662.4 191.2,662.4 191.2,485.2 '/>
		<polygon fill = 'rgb( 31, 120, 180)' fill-opacity = '0.250000' points = '191.2,485.2 191.2,662.4 193.1,662.4 193.1,474.2 '/>
		<polygon fill = 'rgb( 31, 120, 180)' fill-opacity = '0.250000' points = '193.1,474.2 193.1,662.4 195.0,662.4 195.0,462.9 '/>
		<polygon fill = 'rgb( 31, 120, 180)' fill-opacity = '0.250000' points = '195.0,462.9 195.0,662.4 196.9,662.4 196.9,451.2 '/>
		<polygon fill = 'rgb( 31, 120, 180)' fill-opacity = '0.250000' points = '196.9,451.2 196.9,662.4 198.8,662.4 198.8,439.3 '/>
		<polygon fill = 'rgb( 31, 120, 180)' fill-opacity = '0.250000' points = '198.8,439.3 198.8,662.4 200.7,662.4 200.7,427.4 '/>
		<polygon fill = 'rgb( 31, 120, 180)' fill-opacity = '0.250000' points = '200.7,427.4 200.7,662.4 202.6,662.4 202.6,415.7 '/>
		<polygon fill = 'rgb( 31, 120, 180)' fill-opacity = '0.250000' points = '202.6,415.7 202.6,662.4 204.5,662.4 204.5,404.1 '/>
		<polygon fill = 'rgb( 31, 120, 180)' fill-opacity = '0.250000' points = '204.5,404.1 204.5,662.4 206.4,662.4 206.4,393.1 '/>
		<polygon fill = 'rgb( 31, 120, 180)' fill-opacity = '0.250000' points = '206.4,393.1 206.4,662.4 208.3,662.4 208.3,382.5 '/>
		<polygon fill = 'rgb( 31, 120, 180)' fill-opacity = '0.250000' points = '208.3,382.5 208.3,662.4 210.2,662.4 210.2,372.7 '/>
		<polygon fill = 'rgb( 31, 120, 180)' fill-opacity = '0.250000' points = '210.2,372.7 210.2,662.4 212.1,662.4 212.1,363.7 '/>
		<polygon fill = 'rgb( 31, 120, 180)' fill-opacity = '0.250000' points = '212.1,363.7 212.1,662.4 214.0,662.4 214.0,355.6 '/>
		<polygon fill = 'rgb( 31, 120, 180)' fill-opacity = '0.250000' points = '214.0,355.6 214.0,662.4 215.9,662.4 215.9,348.4 '/>
		<polygon fill = 'rgb( 31, 120, 180)' fill-opacity = '0.250000' points = '215.9,348.4 215.9,662.4 217.8,662.4 217.8,342.3 '/>
		<polygon fill = 'rgb( 31, 120, 180)' fill-opacity = '0.250000' points = '217.8,342.3 217.8,662.4 219.7,662.4 219.7,337.1 '/>
		<polygon fill = 'rgb( 31, 120, 180)' fill-opacity = '0.250000' points = '219.7,337.1 219.7,662.4 221.6,662.4 221.6,332.9 '/>
		<polygon fill = 'rgb( 31, 120, 180)' fill-opacity = '0.250000' points = '221.6,332.9 221.6,662.4 223.5,662.4 223.5,329.6 '/>
		<polygon fill = 'rgb( 31, 120, 180)' fill-opacity = '0.250000' points = '223.5,329.6 223.5,662.4 225.4,662.4 225.4,327.1 '/>
		<polygon fill = 'rgb( 31, 120, 180)' fill-opacity = '0.250000' points = '225.4,327.1 225.4,662.4 227.3,662.4 227.3,325.3 '/>
		<polygon fill = 'rgb( 31, 120, 180)' fill-opacity = '0.250000' points = '227.3,325.3 227.3,662.4 229.2,662.4 229.2,324.0 '/>
		<polygon fill = 'rgb( 31, 120, 180)' fill-opacity = '0.250000' points = '229.2,324.0 229.2,662.4 231.1,662.4 231.1,322.9 '/>
		<polygon fill = 'rgb( 31, 120, 180)' fill-opacity = '0.250000' points = '231.1,322.9 231.1,662.4 233.0,662.4 233.0,321.9 '/>
		<polygon fill = 'rgb( 31, 120, 180)' fill-opacity = '0.250000' points = '233.0,321.9 233.0,662.4 234.9,662.4 234.9,320.9 '/>
		<polygon fill = 'rgb( 31, 120, 180)' fill-opacity = '0.250000' points = '234.9,320.9 234.9,662.4 236.8,662.4 236.8,319.4 '/>
		<polygon fill = 'rgb( 31, 120, 180)' fill-opacity = '0.250000' points = '236.8,319.4 236.8,662.4 238.8,662.4 238.8,317.4 '/>
		<polygon fill = 'rgb( 31, 120, 180)' fill-opacity = '0.250000' points = '238.8,317.4 238.8,662.4 240.7,662.4 240.7,314.6 '/>
		<polygon fill = 'rgb( 31, 120, 180)' fill-opacity = '0.250000' points = '240.7,314.6 240.7,662.4 242.6,662.4 242.6,310.9 '/>
		<polygon fill = 'rgb( 31, 120, 180)' fill-opacity = '0.250000' points = '242.6,310.9 242.6,662.4 244.5,662.4 244.5,306.0 '/>
		<polygon fill = 'rgb( 31, 120, 180)' fill-opacity = '0.250000' points = '244.5,306.0 244.5,662.4 246.4,662.4 246.4,299.8 '/>
		<polygon fill = 'rgb( 31, 120, 180)' fill-opacity = '0.250000' points = '246.4,299.8 246.4,662.4 248.3,662.4 248.3,292.3 '/>
		<polygon fill = 'rgb( 31, 120, 180)' fill-opacity = '0.250000' points = '248.3,292.3 248.3,662.4 250.2,662.4 250.2,283.4 '/>
		<polygon fill = 'rgb( 31, 120, 180)' fill-opacity = '0.250000' points = '250.2,283.4 250.2,662.4 252.1,662.4 252.1,273.1 '/>
		<polygon fill = 'rgb( 31, 120, 180)' fill-opacity = '0.250000' points = '252.1,273.1 252.1,662.4 254.0,662.4 254.0,261.5 '/>
		<polygon fill = 'rgb( 31, 120, 180)' fill-opacity = '0.250000' points = '254.0,261.5 254.0,662.4 255.9,662.4 255.9,248.8 '/>
		<polygon fill = 'rgb( 31, 120, 180)' fill-opacity = '0.250000' points = '255.9,248.8 255.9,662.4 257.8,662.4 257.8,235.0 '/>
		<polygon fill = 'rgb( 31, 120, 180)' fill-opacity = '0.250000' points = '257.8,235.0 257.8,662.4 259.7,662.4 259.7,220.5 '/>
		<polygon fill = 'rgb( 31, 120, 180)' fill-opacity = '0.250000' points = '259.7,220.5 259.7,662.4 261.6,662.4 261.6,205.5 '/>
		<polygon fill = 'rgb( 31, 120, 180)' fill-opacity = '0.250000' points = '261.6,205.5 261.6,662.4 263.5,662.4 263.5,190.3 '/>
		<polygon fill = 'rgb( 31, 120, 180)' fill-opacity = '0.250000' points = '263.5,190.3 263.5,662.4 265.4,662.4 265.4,175.4 '/>
		<polygon fill = 'rgb( 31, 120, 180)' fill-opacity = '0.250000' points = '265.4,175.4 265.4,662.4 267.3,662.4 267.3,161.0 '/>
		<polygon fill = 'rgb( 31, 120, 180)' fill-opacity = '0.250000' points = '267.3,161.0 267.3,662.4 269.2,662.4 269.2,147.7 '/>
		<polygon fill = 'rgb( 31, 120, 180)' fill-opacity = '0.250000' points = '269.2,147.7 269.2,662.4 271.1,662.4 271.1,135.7 '/>
		<polygon fill = 'rgb( 31, 120, 180)' fill-opacity = '0.250000' points = '271.1,135.7 271.1,662.4 273.0,662.4 273.0,125.4 '/>
		<polygon fill = 'rgb( 31, 120, 180)' fill-opacity = '0.250000' points = '273.0,125.4 273.0,662.4 274.9,662.4 274.9,117.3 '/>
		<polygon fill = 'rgb( 31, 120, 180)' fill-opacity = '0.250000' points = '274.9,117.3 274.9,662.4 276.8,662.4 276.8,111.5 '/>
		<polygon fill = 'rgb( 31, 120, 180)' fill-opacity = '0.250000' points = '276.8,111.5 276.8,662.4 278.7,662.4 278.7,108.4 '/>
		<polygon fill = 'rgb( 31, 120, 180)' fill-opacity = '0.250000' points = '278.7,108.4 278.7,662.4 280.6,662.4 280.6,108.1 '/>
		<polygon fill = 'rgb( 31, 120, 180)' fill-opacity = '0.250000' points = '280.6,108.1 280.6,662.4 282.5,662.4 282.5,110.7 '/>
		<polygon fill = 'rgb( 31, 120, 180)' fill-opacity = '0.250000' points = '282.5,110.7 282.5,662.4 284.4,662.4 284.4,116.2 '/>
		<polygon fill = 'rgb( 31, 120, 180)' fill-opacity = '0.250000' points = '284.4,116.2 284.4,662.4 286.3,662.4 286.3,124.7 '/>
		<polygon fill = 'rgb( 31, 120, 180)' fill-opacity = '0.250000' points = '286.3,124.7 286.3,662.4 288.2,662.4 288.2,135.9 '/>
		<polygon fill = 'rgb( 31, 120, 180)' fill-opacity = '0.250000' points = '288.2,135.9 288.2,662.4 290.2,662.4 290.2,149.8 '/>
		<polygon fill = 'rgb( 31, 120, 180)' fill-opacity = '0.250000' points = '290.2,149.8 290.2,662.4 292.1,662.4 292.1,166.0 '/>
		<polygon fill = 'rgb( 31, 120, 180)' fill-opacity = '0.250000' points = '292.1,166.0 292.1,662.4 294.0,662.4 294.0,184.3 '/>
		<polygon fill = 'rgb( 31, 120, 180)' fill-opacity = '0.250000' points = '294.0,184.3 294.0,662.4 295.9,662.4 295.9,204.2 '/>
		<polygon fill = 'rgb( 31, 120, 180)' fill-opacity = '0.250000' points = '295.9,204.2 295.9,662.4 297.8,662.4 297.8,225.5 '/>
		<polygon fill = 'rgb( 31, 120, 180)' fill-opacity = '0.250000' points = '297.8,225.5 297.8,662.4 299.7,662.4 299.7,247.8 '/>
		<polygon fill = 'rgb( 31, 120, 180)' fill-opacity = '0.250000' points = '299.7,247.8 299.7,662.4 301.6,662.4 301.6,270.6 '/>
		<polygon fill = 'rgb( 31, 120, 180)' fill-opacity = '0.250000' points = '301.6,270.6 301.6,662.4 303.5,662.4 303.5,293.6 '/>
		<polygon fill = 'rgb( 31, 120, 180)' fill-opacity = '0.250000' points = '303.5,293.6 303.5,662.4 305.4,662.4 305.4,316.4 '/>
		<polygon fill = 'rgb( 31, 120, 180)' fill-opacity = '0.250000' points = '305.4,316.4 305.4,662.4 307.3,662.4 307.3,338.6 '/>
		<polygon fill = 'rgb( 31, 120, 180)' fill-opacity = '0.250000' points = '307.3,338.6 307.3,662.4 309.2,662.4 309.2,360.1 '/>
		<polygon fill = 'rgb( 31, 120, 180)' fill-opacity = '0.250000' points = '309.2,360.1 309.2,662.4 311.1,662.4 311.1,380.5 '/>
		<polygon fill = 'rgb( 31, 120, 180)' fill-opacity = '0.250000' points = '311.1,380.5 311.1,662.4 313.0,662.4 313.0,399.7 '/>
		<polygon fill = 'rgb( 31, 120, 180)' fill-opacity = '0.250000' points = '313.0,399.7 313.0,662.4 314.9,662.4 314.9,417.5 '/>
		<polygon fill = 'rgb( 31, 120, 180)' fill-opacity = '0.250000' points = '314.9,417.5 314.9,662.4 316.8,662.4 316.8,433.8 '/>
		<polygon fill = 'rgb( 31, 120, 180)' fill-opacity = '0.250000' points = '316.8,433.8 316.8,662.4 318.7,662.4 318.7,448.5 '/>
		<polygon fill = 'rgb( 31, 120, 180)' fill-opacity = '0.250000' points = '318.7,448.5 318.7,662.4 320.6,662.4 320.6,461.7 '/>
		<polygon fill = 'rgb( 31, 120, 180)' fill-opacity = '0.250000' points = '320.6,461.7 320.6,662.4 322.5,662.4 322.5,473.5 '/>
		<polygon fill = 'rgb( 31, 120, 180)' fill-opacity = '0.250000' points = '322.5,473.5 322.5,662.4 324.4,662.4 324.4,483.7 '/>
		<polygon fill = 'rgb( 31, 120, 180)' fill-opacity = '0.250000' points = '324.4,483.7 324.4,662.4 326.3,662.4 326.3,492.7 '/>
		<polygon fill = 'rgb( 31, 120, 180)' fill-opacity = '0.250000' points = '326.3,492.7 326.3,662.4 328.2,662.4 328.2,500.4 '/>
		<polygon fill = 'rgb( 31, 120, 180)' fill-opacity = '0.250000' points = '328.2,500.4 328.2,662.4 330.1,662.4 330.1,507.0 '/>
		<polygon fill = 'rgb( 31, 120, 180)' fill-opacity = '0.250000' points = '330.1,507.0 330.1,662.4 332.0,662.4 332.0,512.7 '/>
		<polygon fill = 'rgb( 31, 120, 180)' fill-opacity = '0.250000' points = '332.0,512.7 332.0,662.4 333.9,662.4 333.9,517.5 '/>
		<polygon fill = 'rgb( 31, 120, 180)' fill-opacity = '0.250000' points = '333.9,517.5 333.9,662.4 335.8,662.4 335.8,521.6 '/>
		<polygon fill = 'rgb( 31, 120, 180)' fill-opacity = '0.250000' points = '335.8,521.6 335.8,662.4 337.7,662.4 337.7,525.1 '/>
		<polygon fill = 'rgb( 31, 120, 180)' fill-opacity = '0.250000' points = '337.7,525.1 337.7,662.4 339.7,662.4 339.7,528.2 '/>
		<polygon fill = 'rgb( 31, 120, 180)' fill-opacity = '0.250000' points = '339.7,528.2 339.7,662.4 341.6,662.4 341.6,530.8 '/>
		<polygon fill = 'rgb( 31, 120, 180)' fill-opacity = '0.250000' points = '341.6,530.8 341.6,662.4 343.5,662.4 343.5,533.2 '/>
		<polygon fill = 'rgb( 31, 120, 180)' fill-opacity = '0.250000' points = '343.5,533.2 343.5,662.4 345.4,662.4 345.4,535.3 '/>
		<polygon fill = 'rgb( 31, 120, 180)' fill-opacity = '0.250000' points = '345.4,535.3 345.4,662.4 347.3,662.4 347.3,537.2 '/>
		<polygon fill = 'rgb( 31, 120, 180)' fill-opacity = '0.250000' points = '347.3,537.2 347.3,662.4 349.2,662.4 349.2,539.0 '/>
		<polygon fill = 'rgb( 31, 120, 180)' fill-opacity = '0.250000' points = '349.2,539.0 349.2,662.4 351.1,662.4 351.1,540.6 '/>
		<polygon fill = 'rgb( 31, 120, 180)' fill-opacity = '0.250000' points = '351.1,540.6 351.1,662.4 353.0,662.4 353.0,542.1 '/>
		<polygon fill = 'rgb( 31, 120, 180)' fill-opacity = '0.250000' points = '353.0,542.1 353.0,662.4 354.9,662.4 354.9,543.5 '/>
		<polygon fill = 'rgb( 31, 120, 180)' fill-opacity = '0.250000' points = '354.9,543.5 354.9,662.4 356.8,662.4 356.8,544.8 '/>
		<polygon fill = 'rgb( 31, 120, 180)' fill-opacity = '0.250000' points = '356.8,544.8 356.8,662.4 358.7,662.4 358.7,545.9 '/>
		<polygon fill = 'rgb( 31, 120, 180)' fill-opacity = '0.250000' points = '358.7,545.9 358.7,662.4 360.6,662.4 360.6,546.9 '/>
		<polygon fill = 'rgb( 31, 120, 180)' fill-opacity = '0.250000' points = '360.6,546.9 360.6,662.4 362.5,662.4 362.5,547.8 '/>
		<polygon fill = 'rgb( 31, 120, 180)' fill-opacity = '0.250000' points = '362.5,547.8 362.5,662.4 364.4,662.4 364.4,548.5 '/>
		<polygon fill = 'rgb( 31, 120, 180)' fill-opacity = '0.250000' points = '364.4,548.5 364.4,662.4 366.3,662.4 366.3,549.1 '/>
		<polygon fill = 'rgb( 31, 120, 180)' fill-opacity = '0.250000' points = '366.3,549.1 366.3,662.4 368.2,662.4 368.2,549.5 '/>
		<polygon fill = 'rgb( 31, 120, 180)' fill-opacity = '0.250000' points = '368.2,549.5 368.2,662.4 370.1,662.4 370.1,549.8 '/>
		<polygon fill = 'rgb( 31, 120, 180)' fill-opacity = '0.250000' points = '370.1,549.8 370.1,662.4 372.0,662.4 372.0,549.9 '/>
		<polygon fill = 'rgb( 31, 120, 180)' fill-opacity = '0.250000' points = '372.0,549.9 372.0,662.4 373.9,662.4 373.9,550.0 '/>
		<polygon fill = 'rgb( 31, 120, 180)' fill-opacity = '0.250000' points = '373.9,550.0 373.9,662.4 375.8,662.4 375.8,549.9 '/>
		<polygon fill = 'rgb( 31, 120, 180)' fill-opacity = '0.250000' points = '375.8,549.9 375.8,662.4 377.7,662.4 377.7,549.7 '/>
		<polygon fill = 'rgb( 31, 120, 180)' fill-opacity = '0.250000' points = '377.7,549.7 377.7,662.4 379.6,662.4 379.6,549.5 '/>
		<polygon fill = 'rgb( 31, 120, 180)' fill-opacity = '0.250000' points = '379.6,549.5 379.6,662.4 381.5,662.4 381.5,549.2 '/>
		<polygon fill = 'rgb( 31, 120, 180)' fill-opacity = '0.250000' points = '381.5,549.2 381.5,662.4 383.4,662.4 383.4,548.9 '/>
		<polygon fill = 'rgb( 31, 120, 180)' fill-opacity = '0.250000' points = '383.4,548.9 383.4,662.4 385.3,662.4 385.3,548.6 '/>
		<polygon fill = 'rgb( 31, 120, 180)' fill-opacity = '0.250000' points = '385.3,548.6 385.3,662.4 387.2,662.4 387.2,548.3 '/>
		<polygon fill = 'rgb( 31, 120, 180)' fill-opacity = '0.250000' points = '387.2,548.3 387.2,662.4 389.2,662.4 389.2,548.1 '/>
		<polygon fill = 'rgb( 31, 120, 180)' fill-opacity = '0.250000' points = '389.2,548.1 389.2,662.4 391.1,662.4 391.1,547.9 '/>
		<polygon fill = 'rgb( 31, 120, 180)' fill-opacity = '0.250000' points = '391.1,547.9 391.1,662.4 393.0,662.4 393.0,547.9 '/>
		<polygon fill = 'rgb( 31, 120, 180)' fill-opacity = '0.250000' points = '393.0,547.9 393.0,662.4 394.9,662.4 394.9,547.9 '/>
		<polygon fill = 'rgb( 31, 120, 180)' fill-opacity = '0.250000' points = '394.9,547.9 394.9,662.4 396.8,662.4 396.8,548.1 '/>
		<polygon fill = 'rgb( 31, 120, 180)' fill-opacity = '0.250000' points = '396.8,548.1 396.8,662.4 398.7,662.4 398.7,548.5 '/>
		<polygon fill = 'rgb( 31, 120, 180)' fill-opacity = '0.250000' points = '398.7,548.5 398.7,662.4 400.6,662.4 400.6,549.0 '/>
		<polygon fill = 'rgb( 31, 120, 180)' fill-opacity = '0.250000' points = '400.6,549.0 400.6,662.4 402.5,662.4 402.5,549.7 '/>
		<polygon fill = 'rgb( 31, 120, 180)' fill-opacity = '0.250000' points = '402.5,549.7 402.5,662.4 404.4,662.4 404.4,550.7 '/>
		<polygon fill = 'rgb( 31, 120, 180)' fill-opacity = '0.250000' points = '404.4,550.7 404.4,662.4 406.3,662.4 406.3,551.8 '/>
		<polygon fill = 'rgb( 31, 120, 180)' fill-opacity = '0.250000' points = '406.3,551.8 406.3,662.4 408.2,662.4 408.2,553.2 '/>
		<polygon fill = 'rgb( 31, 120, 180)' fill-opacity = '0.250000' points = '408.2,553.2 408.2,662.4 410.1,662.4 410.1,554.7 '/>
		<polygon fill = 'rgb( 31, 120, 180)' fill-opacity = '0.250000' points = '410.1,554.7 410.1,662.4 412.0,662.4 412.0,556.5 '/>
		<polygon fill = 'rgb( 31, 120, 180)' fill-opacity = '0.250000' points = '412.0,556.5 412.0,662.4 413.9,662.4 413.9,558.5 '/>
		<polygon fill = 'rgb( 31, 120, 180)' fill-opacity = '0.250000' points = '413.9,558.5 413.9,662.4 415.8,662.4 415.8,560.6 '/>
		<polygon fill = 'rgb( 31, 120, 180)' fill-opacity = '0.250000' points = '415.8,560.6 415.8,662.4 417.7,662.4 417.7,562.9 '/>
		<polygon fill = 'rgb( 31, 120, 180)' fill-opacity = '0.250000' points = '417.7,562.9 417.7,662.4 419.6,662.4 419.6,565.2 '/>
		<polygon fill = 'rgb( 31, 120, 180)' fill-opacity = '0.250000' points = '419.6,565.2 419.6,662.4 421.5,662.4 421.5,567.7 '/>
		<polygon fill = 'rgb( 31, 120, 180)' fill-opacity = '0.250000' points = '421.5,567.7 421.5,662.4 423.4,662.4 423.4,570.2 '/>
		<polygon fill = 'rgb( 31, 120, 180)' fill-opacity = '0.250000' points = '423.4,570.2 423.4,662.4 425.3,662.4 425.3,572.7 '/>
		<polygon fill = 'rgb( 31, 120, 180)' fill-opacity = '0.250000' points = '425.3,572.7 425.3,662.4 427.2,662.4 427.2,575.2 '/>
		<polygon fill = 'rgb( 31, 120, 180)' fill-opacity = '0.250000' points = '427.2,575.2 427.2,662.4 429.1,662.4 429.1,577.6 '/>
		<polygon fill = 'rgb( 31, 120, 180)' fill-opacity = '0.250000' points = '429.1,577.6 429.1,662.4 431.0,662.4 431.0,579.9 '/>
		<polygon fill = 'rgb( 31, 120, 180)' fill-opacity = '0.250000' points = '431.0,579.9 431.0,662.4 432.9,662.4 432.9,582.0 '/>
		<polygon fill = 'rgb( 31, 120, 180)' fill-opacity = '0.250000' points = '432.9,582.0 432.9,662.4 434.8,662.4 434.8,583.9 '/>
		<polygon fill = 'rgb( 31, 120, 180)' fill-opacity = '0.250000' points = '434.8,583.9 434.8,662.4 436.7,662.4 436.7,585.6 '/>
		<polygon fill = 'rgb( 31, 120, 180)' fill-opacity = '0.250000' points = '436.7,585.6 436.7,662.4 438.7,662.4 438.7,587.0 '/>
		<polygon fill = 'rgb( 31, 120, 180)' fill-opacity = '0.250000' points = '438.7,587.0 438.7,662.4 440.6,662.4 440.6,588.2 '/>
		<polygon fill = 'rgb( 31, 120, 180)' fill-opacity = '0.250000' points = '440.6,588.2 440.6,662.4 442.5,662.4 442.5,589.1 '/>
		<polygon fill = 'rgb( 31, 120, 180)' fill-opacity = '0.250000' points = '442.5,589.1 442.5,662.4 444.4,662.4 444.4,589.7 '/>
		<polygon fill = 'rgb( 31, 120, 180)' fill-opacity = '0.250000' points = '444.4,589.7 444.4,662.4 446.3,662.4 446.3,590.1 '/>
		<polygon fill = 'rgb( 31, 120, 180)' fill-opacity = '0.250000' points = '446.3,590.1 446.3,662.4 448.2,662.4 448.2,590.3 '/>
		<polygon fill = 'rgb( 31, 120, 180)' fill-opacity = '0.250000' points = '448.2,590.3 448.2,662.4 450.1,662.4 450.1,590.2 '/>
		<polygon fill = 'rgb( 31, 120, 180)' fill-opacity = '0.250000' points = '450.1,590.2 450.1,662.4 452.0,662.4 452.0,590.0 '/>
		<polygon fill = 'rgb( 31, 120, 180)' fill-opacity = '0.250000' points = '452.0,590.0 452.0,662.4 453.9,662.4 453.9,589.7 '/>
		<polygon fill = 'rgb( 31, 120, 180)' fill-opacity = '0.250000' points = '453.9,589.7 453.9,662.4 455.8,662.4 455.8,589.3 '/>
		<polygon fill = 'rgb( 31, 120, 180)' fill-opacity = '0.250000' points = '455.8,589.3 455.8,662.4 457.7,662.4 457.7,588.8 '/>
		<polygon fill = 'rgb( 31, 120, 180)' fill-opacity = '0.250000' points = '457.7,588.8 457.7,662.4 459.6,662.4 459.6,588.4 '/>
		<polygon fill = 'rgb( 31, 120, 180)' fill-opacity = '0.250000' points = '459.6,588.4 459.6,662.4 461.5,662.4 461.5,588.1 '/>
		<polygon fill = 'rgb( 31, 120, 180)' fill-opacity = '0.250000' points = '461.5,588.1 461.5,662.4 463.4,662.4 463.4,587.8 '/>
		<polygon fill = 'rgb( 31, 120, 180)' fill-opacity = '0.250000' points = '463.4,587.8 463.4,662.4 465.3,662.4 465.3,587.8 '/>
		<polygon fill = 'rgb( 31, 120, 180)' fill-opacity = '0.250000' points = '465.3,587.8 465.3,662.4 467.2,662.4 467.2,587.8 '/>
		<polygon fill = 'rgb( 31, 120, 180)' fill-opacity = '0.250000' points = '467.2,587.8 467.2,662.4 469.1,662.4 469.1,588.1 '/>
		<polygon fill = 'rgb( 31, 120, 180)' fill-opacity = '0.250000' points = '469.1,588.1 469.1,662.4 471.0,662.4 471.0,588.6 '/>
		<polygon fill = 'rgb( 31, 120, 180)' fill-opacity = '0.250000' points = '471.0,588.6 471.0,662.4 472.9,662.4 472.9,589.3 '/>
		<polygon fill = 'rgb( 31, 120, 180)' fill-opacity = '0.250000' points = '472.9,589.3 472.9,662.4 474.8,662.4 474.8,590.2 '/>
		<polygon fill = 'rgb( 31, 120, 180)' fill-opacity = '0.250000' points = '474.8,590.2 474.8,662.4 476.7,662.4 476.7,591.3 '/>
		<polygon fill = 'rgb( 31, 120, 180)' fill-opacity = '0.250000' points = '476.7,591.3 476.7,662.4 478.6,662.4 478.6,592.5 '/>
		<polygon fill = 'rgb( 31, 120, 180)' fill-opacity = '0.250000' points = '478.6,592.5 478.6,662.4 480.5,662.4 480.5,593.8 '/>
		<polygon fill = 'rgb( 31, 120, 180)' fill-opacity = '0.250000' points = '480.5,593.8 480.5,662.4 482.4,662.4 482.4,595.1 '/>
		<polygon fill = 'rgb( 31, 120, 180)' fill-opacity = '0.250000' points = '482.4,595.1 482.4,662.4 484.3,662.4 484.3,596.3 '/>
		<polygon fill = 'rgb( 31, 120, 180)' fill-opacity = '0.250000' points = '484.3,596.3 484.3,662.4 486.2,662.4 486.2,597.5 '/>
		<polygon fill = 'rgb( 31, 120, 180)' fill-opacity = '0.250000' points = '486.2,597.5 486.2,662.4 488.1,662.4 488.1,598.5 '/>
		<polygon fill = 'rgb( 31, 120, 180)' fill-opacity = '0.250000' points = '488.1,598.5 488.1,662.4 490.1,662.4 490.1,599.2 '/>
		<polygon fill = 'rgb( 31, 120, 180)' fill-opacity = '0.250000' points = '490.1,599.2 490.1,662.4 492.0,662.4 492.0,599.7 '/>
		<polygon fill = 'rgb( 31, 120, 180)' fill-opacity = '0.250000' points = '492.0,599.7 492.0,662.4 493.9,662.4 493.9,599.9 '/>
		<polygon fill = 'rgb( 31, 120, 180)' fill-opacity = '0.250000' points = '493.9,599.9 493.9,662.4 495.8,662.4 495.8,599.7 '/>
		<polygon fill = 'rgb( 31, 120, 180)' fill-opacity = '0.250000' points = '495.8,599.7 495.8,662.4 497.7,662.4 497.7,599.1 '/>
		<polygon fill = 'rgb( 31, 120, 180)' fill-opacity = '0.250000' points = '497.7,599.1 497.7,662.4 499.6,662.4 499.6,598.1 '/>
		<polygon fill = 'rgb( 31, 120, 180)' fill-opacity = '0.250000' points = '499.6,598.1 499.6,662.4 501.5,662.4 501.5,596.7 '/>
		<polygon fill = 'rgb( 31, 120, 180)' fill-opacity = '0.250000' points = '501.5,596.7 501.5,662.4 503.4,662.4 503.4,594.9 '/>
		<polygon fill = 'rgb( 31, 120, 180)' fill-opacity = '0.250000' points = '503.4,594.9 503.4,662.4 505.3,662.4 505.3,592.7 '/>
		<polygon fill = 'rgb( 31, 120, 180)' fill-opacity = '0.250000' points = '505.3,592.7 505.3,662.4 507.2,662.4 507.2,590.3 '/>
		<polygon fill = 'rgb( 31, 120, 180)' fill-opacity = '0.250000' points = '507.2,590.3 507.2,662.4 509.1,662.4 509.1,587.6 '/>
		<polygon fill = 'rgb( 31, 120, 180)' fill-opacity = '0.250000' points = '509.1,587.6 509.1,662.4 511.0,662.4 511.0,584.8 '/>
		<polygon fill = 'rgb( 31, 120, 180)' fill-opacity = '0.250000' points = '511.0,584.8 511.0,662.4 512.9,662.4 512.9,581.9 '/>
		<polygon fill = 'rgb( 31, 120, 180)' fill-opacity = '0.250000' points = '512.9,581.9 512.9,662.4 514.8,662.4 514.8,579.0 '/>
		<polygon fill = 'rgb( 31, 120, 180)' fill-opacity = '0.250000' points = '514.8,579.0 514.8,662.4 516.7,662.4 516.7,576.1 '/>
		<polygon fill = 'rgb( 31, 120, 180)' fill-opacity = '0.250000' points = '516.7,576.1 516.7,662.4 518.6,662.4 518.6,573.5 '/>
		<polygon fill = 'rgb( 31, 120, 180)' fill-opacity = '0.250000' points = '518.6,573.5 518.6,662.4 520.5,662.4 520.5,571.1 '/>
		<polygon fill = 'rgb( 31, 120, 180)' fill-opacity = '0.250000' points = '520.5,571.1 520.5,662.4 522.4,662.4 522.4,569.1 '/>
		<polygon fill = 'rgb( 31, 120, 180)' fill-opacity = '0.250000' points = '522.4,569.1 522.4,662.4 524.3,662.4 524.3,567.5 '/>
		<polygon fill = 'rgb( 31, 120, 180)' fill-opacity = '0.250000' points = '524.3,567.5 524.3,662.4 526.2,662.4 526.2,566.5 '/>
		<polygon fill = 'rgb( 31, 120, 180)' fill-opacity = '0.250000' points = '526.2,566.5 526.2,662.4 528.1,662.4 528.1,565.9 '/>
		<polygon fill = 'rgb( 31, 120, 180)' fill-opacity = '0.250000' points = '528.1,565.9 528.1,662.4 530.0,662.4 530.0,565.9 '/>
		<polygon fill = 'rgb( 31, 120, 180)' fill-opacity = '0.250000' points = '530.0,565.9 530.0,662.4 531.9,662.4 531.9,566.5 '/>
		<polygon fill = 'rgb( 31, 120, 180)' fill-opacity = '0.250000' points = '531.9,566.5 531.9,662.4 533.8,662.4 533.8,567.7 '/>
		<polygon fill = 'rgb( 31, 120, 180)' fill-opacity = '0.250000' points = '533.8,567.7 533.8,662.4 535.7,662.4 535.7,569.4 '/>
		<polygon fill = 'rgb( 31, 120, 180)' fill-opacity = '0.250000' points = '535.7,569.4 535.7,662.4 537.6,662.4 537.6,571.7 '/>
		<polygon fill = 'rgb( 31, 120, 180)' fill-opacity = '0.250000' points = '537.6,571.7 537.6,662.4 539.6,662.4 539.6,574.5 '/>
		<polygon fill = 'rgb( 31, 120, 180)' fill-opacity = '0.250000' points = '539.6,574.5 539.6,662.4 541.5,662.4 541.5,577.8 '/>
		<polygon fill = 'rgb( 31, 120, 180)' fill-opacity = '0.250000' points = '541.5,577.8 541.5,662.4 543.4,662.4 543.4,581.4 '/>
		<polygon fill = 'rgb( 31, 120, 180)' fill-opacity = '0.250000' points = '543.4,581.4 543.4,662.4 545.3,662.4 545.3,585.4 '/>
		<polygon fill = 'rgb( 31, 120, 180)' fill-opacity = '0.250000' points = '545.3,585.4 545.3,662.4 547.2,662.4 547.2,589.7 '/>
		<polygon fill = 'rgb( 31, 120, 180)' fill-opacity = '0.250000' points = '547.2,589.7 547.2,662.4 549.1,662.4 549.1,594.1 '/>
		<polygon fill = 'rgb( 31, 120, 180)' fill-opacity = '0.250000' points = '549.1,594.1 549.1,662.4 551.0,662.4 551.0,598.6 '/>
		<polygon fill = 'rgb( 31, 120, 180)' fill-opacity = '0.250000' points = '551.0,598.6 551.0,662.4 552.9,662.4 552.9,603.1 '/>
		<polygon fill = 'rgb( 31, 120, 180)' fill-opacity = '0.250000' points = '552.9,603.1 552.9,662.4 554.8,662.4 554.8,607.7 '/>
		<polygon fill = 'rgb( 31, 120, 180)' fill-opacity = '0.250000' points = '554.8,607.7 554.8,662.4 556.7,662.4 556.7,612.1 '/>
		<polygon fill = 'rgb( 31, 120, 180)' fill-opacity = '0.250000' points = '556.7,612.1 556.7,662.4 558.6,662.4 558.6,616.4 '/>
		<polygon fill = 'rgb( 31, 120, 180)' fill-opacity = '0.250000' points = '558.6,616.4 558.6,662.4 560.5,662.4 560.5,620.4 '/>
		<polygon fill = 'rgb( 31, 120, 180)' fill-opacity = '0.250000' points = '560.5,620.4 560.5,662.4 562.4,662.4 562.4,624.3 '/>
		<polygon fill = 'rgb( 31, 120, 180)' fill-opacity = '0.250000' points = '562.4,624.3 562.4,662.4 564.3,662.4 564.3,627.9 '/>
		<polygon fill = 'rgb( 31, 120, 180)' fill-opacity = '0.250000' points = '564.3,627.9 564.3,662.4 566.2,662.4 566.2,631.2 '/>
		<polygon fill = 'rgb( 31, 120, 180)' fill-opacity = '0.250000' points = '566.2,631.2 566.2,662.4 568.1,662.4 568.1,634.2 '/>
		<polygon fill = 'rgb( 31, 120, 180)' fill-opacity = '0.250000' points = '568.1,634.2 568.1,662.4 570.0,662.4 570.0,637.0 '/>
		<polygon fill = 'rgb( 31, 120, 180)' fill-opacity = '0.250000' points = '570.0,637.0 570.0,662.4 571.9,662.4 571.9,639.4 '/>
		<polygon fill = 'rgb( 31, 120, 180)' fill-opacity = '0.250000' points = '571.9,639.4 571.9,662.4 573.8,662.4 573.8,641.6 '/>
		<polygon fill = 'rgb( 31, 120, 180)' fill-opacity = '0.250000' points = '573.8,641.6 573.8,662.4 575.7,662.4 575.7,643.5 '/>
		<polygon fill = 'rgb( 31, 120, 180)' fill-opacity = '0.250000' points = '575.7,643.5 575.7,662.4 577.6,662.4 577.6,645.1 '/>
		<polygon fill = 'rgb( 31, 120, 180)' fill-opacity = '0.250000' points = '577.6,645.1 577.6,662.4 579.5,662.4 579.5,646.5 '/>
		<polygon fill = 'rgb( 31, 120, 180)' fill-opacity = '0.250000' points = '579.5,646.5 579.5,662.4 581.4,662.4 581.4,647.7 '/>
		<polygon fill = 'rgb( 31, 120, 180)' fill-opacity = '0.250000' points = '581.4,647.7 581.4,662.4 583.3,662.4 583.3,648.7 '/>
		<polygon fill = 'rgb( 31, 120, 180)' fill-opacity = '0.250000' points = '583.3,648.7 583.3,662.4 585.2,662.4 585.2,649.4 '/>
		<polygon fill = 'rgb( 31, 120, 180)' fill-opacity = '0.250000' points = '585.2,649.4 585.2,662.4 587.1,662.4 587.1,650.0 '/>
		<polygon fill = 'rgb( 31, 120, 180)' fill-opacity = '0.250000' points = '587.1,650.0 587.1,662.4 589.1,662.4 589.1,650.4 '/>
		<polygon fill = 'rgb( 31, 120, 180)' fill-opacity = '0.250000' points = '589.1,650.4 589.1,662.4 591.0,662.4 591.0,650.6 '/>
		<polygon fill = 'rgb( 31, 120, 180)' fill-opacity = '0.250000' points = '591.0,650.6 591.0,662.4 592.9,662.4 592.9,650.7 '/>
		<polygon fill = 'rgb( 31, 120, 180)' fill-opacity = '0.250000' points = '592.9,650.7 592.9,662.4 594.8,662.4 594.8,650.5 '/>
		<polygon fill = 'rgb( 31, 120, 180)' fill-opacity = '0.250000' points = '594.8,650.5 594.8,662.4 596.7,662.4 596.7,650.2 '/>
		<polygon fill = 'rgb( 31, 120, 180)' fill-opacity = '0.250000' points = '596.7,650.2 596.7,662.4 598.6,662.4 598.6,649.7 '/>
		<polygon fill = 'rgb( 31, 120, 180)' fill-opacity = '0.250000' points = '598.6,649.7 598.6,662.4 600.5,662.4 600.5,649.0 '/>
		<polygon fill = 'rgb( 31, 120, 180)' fill-opacity = '0.250000' points = '600.5,649.0 600.5,662.4 602.4,662.4 602.4,648.1 '/>
		<polygon fill = 'rgb( 31, 120, 180)' fill-opacity = '0.250000' points = '602.4,648.1 602.4,662.4 604.3,662.4 604.3,647.0 '/>
		<polygon fill = 'rgb( 31, 120, 180)' fill-opacity = '0.250000' points = '604.3,647.0 604.3,662.4 606.2,662.4 606.2,645.7 '/>
		<polygon fill = 'rgb( 31, 120, 180)' fill-opacity = '0.250000' points = '606.2,645.7 606.2,662.4 608.1,662.4 608.1,644.1 '/>
		<polygon fill = 'rgb( 31, 120, 180)' fill-opacity = '0.250000' points = '608.1,644.1 608.1,662.4 610.0,662.4 610.0,642.4 '/>
		<polygon fill = 'rgb( 31, 120, 180)' fill-opacity = '0.250000' points = '610.0,642.4 610.0,662.4 611.9,662.4 611.9,640.4 '/>
		<polygon fill = 'rgb( 31, 120, 180)' fill-opacity = '0.250000' points = '611.9,640.4 611.9,662.4 613.8,662.4 613.8,638.3 '/>
		<polygon fill = 'rgb( 31, 120, 180)' fill-opacity = '0.250000' points = '613.8,638.3 613.8,662.4 615.7,662.4 615.7,636.0 '/>
		<polygon fill = 'rgb( 31, 120, 180)' fill-opacity = '0.250000' points = '615.7,636.0 615.7,662.4 617.6,662.4 617.6,633.5 '/>
		<polygon fill = 'rgb( 31, 120, 180)' fill-opacity = '0.250000' points = '617.6,633.5 617.6,662.4 619.5,662.4 619.5,630.9 '/>
		<polygon fill = 'rgb( 31, 120, 180)' fill-opacity = '0.250000' points = '619.5,630.9 619.5,662.4 621.4,662.4 621.4,628.3 '/>
		<polygon fill = 'rgb( 31, 120, 180)' fill-opacity = '0.250000' points = '621.4,628.3 621.4,662.4 623.3,662.4 623.3,625.7 '/>
		<polygon fill = 'rgb( 31, 120, 180)' fill-opacity = '0.250000' points = '623.3,625.7 623.3,662.4 625.2,662.4 625.2,623.0 '/>
		<polygon fill = 'rgb( 31, 120, 180)' fill-opacity = '0.250000' points = '625.2,623.0 625.2,662.4 627.1,662.4 627.1,620.5 '/>
		<polygon fill = 'rgb( 31, 120, 180)' fill-opacity = '0.250000' points = '627.1,620.5 627.1,662.4 629.0,662.4 629.0,618.1 '/>
		<polygon fill = 'rgb( 31, 120, 180)' fill-opacity = '0.250000' points = '629.0,618.1 629.0,662.4 630.9,662.4 630.9,615.8 '/>
		<polygon fill = 'rgb( 31, 120, 180)' fill-opacity = '0.250000' points = '630.9,615.8 630.9,662.4 632.8,662.4 632.8,613.8 '/>
		<polygon fill = 'rgb( 31, 120, 180)' fill-opacity = '0.250000' points = '632.8,613.8 632.8,662.4 634.7,662.4 634.7,612.1 '/>
		<polygon fill = 'rgb( 31, 120, 180)' fill-opacity = '0.250000' points = '634.7,612.1 634.7,662.4 636.6,662.4 636.6,610.7 '/>
		<polygon fill = 'rgb( 31, 120, 180)' fill-opacity = '0.250000' points = '636.6,610.7 636.6,662.4 638.5,662.4 638.5,609.7 '/>
		<polygon fill = 'rgb( 31, 120, 180)' fill-opacity = '0.250000' points = '638.5,609.7 638.5,662.4 640.5,662.4 640.5,609.0 '/>
		<polygon fill = 'rgb( 31, 120, 180)' fill-opacity = '0.250000' points = '640.5,609.0 640.5,662.4 642.4,662.4 642.4,608.8 '/>
		<polygon fill = 'rgb( 31, 120, 180)' fill-opacity = '0.250000' points = '642.4,608.8 642.4,662.4 644.3,662.4 644.3,608.9 '/>
		<polygon fill = 'rgb( 31, 120, 180)' fill-opacity = '0.250000' points = '644.3,608.9 644.3,662.4 646.2,662.4 646.2,609.5 '/>
		<polygon fill = 'rgb( 31, 120, 180)' fill-opacity = '0.250000' points = '646.2,609.5 646.2,662.4 648.1,662.4 648.1,610.5 '/>
		<polygon fill = 'rgb( 31, 120, 180)' fill-opacity = '0.250000' points = '648.1,610.5 648.1,662.4 650.0,662.4 650.0,611.8 '/>
		<polygon fill = 'rgb( 31, 120, 180)' fill-opacity = '0.250000' points = '650.0,611.8 650.0,662.4 651.9,662.4 651.9,613.5 '/>
		<polygon fill = 'rgb( 31, 120, 180)' fill-opacity = '0.250000' points = '651.9,613.5 651.9,662.4 653.8,662.4 653.8,615.5 '/>
		<polygon fill = 'rgb( 31, 120, 180)' fill-opacity = '0.250000' points = '653.8,615.5 653.8,662.4 655.7,662.4 655.7,617.8 '/>
		<polygon fill = 'rgb( 31, 120, 180)' fill-opacity = '0.250000' points = '655.7,617.8 655.7,662.4 657.6,662.4 657.6,620.3 '/>
		<polygon fill = 'rgb( 31, 120, 180)' fill-opacity = '0.250000' points = '657.6,620.3 657.6,662.4 659.5,662.4 659.5,623.0 '/>
		<polygon fill = 'rgb( 31, 120, 180)' fill-opacity = '0.250000' points = '659.5,623.0 659.5,662.4 661.4,662.4 661.4,625.7 '/>
		<polygon fill = 'rgb( 31, 120, 180)' fill-opacity = '0.250000' points = '661.4,625.7 661.4,662.4 663.3,662.4 663.3,628.6 '/>
		<polygon fill = 'rgb( 31, 120, 180)' fill-opacity = '0.250000' points = '663.3,628.6 663.3,662.4 665.2,662.4 665.2,631.4 '/>
		<polygon fill = 'rgb( 31, 120, 180)' fill-opacity = '0.250000' points = '665.2,631.4 665.2,662.4 667.1,662.4 667.1,634.3 '/>
		<polygon fill = 'rgb( 31, 120, 180)' fill-opacity = '0.250000' points = '667.1,634.3 667.1,662.4 669.0,662.4 669.0,637.1 '/>
		<polygon fill = 'rgb( 31, 120, 180)' fill-opacity = '0.250000' points = '669.0,637.1 669.0,662.4 670.9,662.4 670.9,639.7 '/>
		<polygon fill = 'rgb( 31, 120, 180)' fill-opacity = '0.250000' points = '670.9,639.7 670.9,662.4 672.8,662.4 672.8,642.3 '/>
		<polygon fill = 'rgb( 31, 120, 180)' fill-opacity = '0.250000' points = '672.8,642.3 672.8,662.4 674.7,662.4 674.7,644.6 '/>
		<polygon fill = 'rgb( 31, 120, 180)' fill-opacity = '0.250000' points = '674.7,644.6 674.7,662.4 676.6,662.4 676.6,646.8 '/>
		<polygon fill = 'rgb( 31, 120, 180)' fill-opacity = '0.250000' points = '676.6,646.8 676.6,662.4 678.5,662.4 678.5,648.8 '/>
		<polygon fill = 'rgb( 31, 120, 180)' fill-opacity = '0.250000' points = '678.5,648.8 678.5,662.4 680.4,662.4 680.4,650.6 '/>
		<polygon fill = 'rgb( 31, 120, 180)' fill-opacity = '0.250000' points = '680.4,650.6 680.4,662.4 682.3,662.4 682.3,652.2 '/>
		<polygon fill = 'rgb( 31, 120, 180)' fill-opacity = '0.250000' points = '682.3,652.2 682.3,662.4 684.2,662.4 684.2,653.6 '/>
		<polygon fill = 'rgb( 31, 120, 180)' fill-opacity = '0.250000' points = '684.2,653.6 684.2,662.4 686.1,662.4 686.1,654.7 '/>
		<polygon fill = 'rgb( 31, 120, 180)' fill-opacity = '0.250000' points = '686.1,654.7 686.1,662.4 688.0,662.4 688.0,655.7 '/>
		<polygon fill = 'rgb( 31, 120, 180)' fill-opacity = '0.250000' points = '688.0,655.7 688.0,662.4 690.0,662.4 690.0,656.5 '/>
		<polygon fill = 'rgb( 31, 120, 180)' fill-opacity = '0.250000' points = '690.0,656.5 690.0,662.4 691.9,662.4 691.9,657.0 '/>
		<polygon fill = 'rgb( 31, 120, 180)' fill-opacity = '0.250000' points = '691.9,657.0 691.9,662.4 693.8,662.4 693.8,657.3 '/>
		<polygon fill = 'rgb( 31, 120, 180)' fill-opacity = '0.250000' points = '693.8,657.3 693.8,662.4 695.7,662.4 695.7,657.5 '/>
		<polygon fill = 'rgb( 31, 120, 180)' fill-opacity = '0.250000' points = '695.7,657.5 695.7,662.4 697.6,662.4 697.6,657.4 '/>
		<polygon fill = 'rgb( 31, 120, 180)' fill-opacity = '0.250000' points = '697.6,657.4 697.6,662.4 699.5,662.4 699.5,657.2 '/>
		<polygon fill = 'rgb( 31, 120, 180)' fill-opacity = '0.250000' points = '699.5,657.2 699.5,662.4 701.4,662.4 701.4,656.7 '/>
		<polygon fill = 'rgb( 31, 120, 180)' fill-opacity = '0.250000' points = '701.4,656.7 701.4,662.4 703.3,662.4 703.3,656.0 '/>
		<polygon fill = 'rgb( 31, 120, 180)' fill-opacity = '0.250000' points = '703.3,656.0 703.3,662.4 705.2,662.4 705.2,655.0 '/>
		<polygon fill = 'rgb( 31, 120, 180)' fill-opacity = '0.250000' points = '705.2,655.0 705.2,662.4 707.1,662.4 707.1,653.8 '/>
		<polygon fill = 'rgb( 31, 120, 180)' fill-opacity = '0.250000' points = '707.1,653.8 707.1,662.4 709.0,662.4 709.0,652.4 '/>
		<polygon fill = 'rgb( 31, 120, 180)' fill-opacity = '0.250000' points = '709.0,652.4 709.0,662.4 710.9,662.4 710.9,650.7 '/>
		<polygon fill = 'rgb( 31, 120, 180)' fill-opacity = '0.250000' points = '710.9,650.7 710.9,662.4 712.8,662.4 712.8,648.7 '/>
		<polygon fill = 'rgb( 31, 120, 180)' fill-opacity = '0.250000' points = '712.8,648.7 712.8,662.4 714.7,662.4 714.7,646.4 '/>
		<polygon fill = 'rgb( 31, 120, 180)' fill-opacity = '0.250000' points = '714.7,646.4 714.7,662.4 716.6,662.4 716.6,643.9 '/>
		<polygon fill = 'rgb( 31, 120, 180)' fill-opacity = '0.250000' points = '716.6,643.9 716.6,662.4 718.5,662.4 718.5,641.0 '/>
		<polygon fill = 'rgb( 31, 120, 180)' fill-opacity = '0.250000' points = '718.5,641.0 718.5,662.4 720.4,662.4 720.4,637.9 '/>
		<polygon fill = 'rgb( 31, 120, 180)' fill-opacity = '0.250000' points = '720.4,637.9 720.4,662.4 722.3,662.4 722.3,634.5 '/>
		<polygon fill = 'rgb( 31, 120, 180)' fill-opacity = '0.250000' points = '722.3,634.5 722.3,662.4 724.2,662.4 724.2,630.8 '/>
		<polygon fill = 'rgb( 31, 120, 180)' fill-opacity = '0.250000' points = '724.2,630.8 724.2,662.4 726.1,662.4 726.1,626.9 '/>
		<polygon fill = 'rgb( 31, 120, 180)' fill-opacity = '0.250000' points = '726.1,626.9 726.1,662.4 728.0,662.4 728.0,622.9 '/>
		<polygon fill = 'rgb( 31, 120, 180)' fill-opacity = '0.250000' points = '728.0,622.9 728.0,662.4 729.9,662.4 729.9,618.6 '/>
		<polygon fill = 'rgb( 31, 120, 180)' fill-opacity = '0.250000' points = '729.9,618.6 729.9,662.4 731.8,662.4 731.8,614.3 '/>
		<polygon fill = 'rgb( 31, 120, 180)' fill-opacity = '0.250000' points = '731.8,614.3 731.8,662.4 733.7,662.4 733.7,609.9 '/>
		<polygon fill = 'rgb( 31, 120, 180)' fill-opacity = '0.250000' points = '733.7,609.9 733.7,662.4 735.6,662.4 735.6,605.6 '/>
		<polygon fill = 'rgb( 31, 120, 180)' fill-opacity = '0.250000' points = '735.6,605.6 735.6,662.4 737.5,662.4 737.5,601.3 '/>
		<polygon fill = 'rgb( 31, 120, 180)' fill-opacity = '0.250000' points = '737.5,601.3 737.5,662.4 739.5,662.4 739.5,597.2 '/>
		<polygon fill = 'rgb( 31, 120, 180)' fill-opacity = '0.250000' points = '739.5,597.2 739.5,662.4 741.4,662.4 741.4,593.4 '/>
		<polygon fill = 'rgb( 31, 120, 180)' fill-opacity = '0.250000' points = '741.4,593.4 741.4,662.4 743.3,662.4 743.3,589.8 '/>
		<polygon fill = 'rgb( 31, 120, 180)' fill-opacity = '0.250000' points = '743.3,589.8 743.3,662.4 745.2,662.4 745.2,586.6 '/>
		<polygon fill = 'rgb( 31, 120, 180)' fill-opacity = '0.250000' points = '745.2,586.6 745.2,662.4 747.1,662.4 747.1,583.8 '/>
		<polygon fill = 'rgb( 31, 120, 180)' fill-opacity = '0.250000' points = '747.1,583.8 747.1,662.4 749.0,662.4 749.0,581.5 '/>
		<polygon fill = 'rgb( 31, 120, 180)' fill-opacity = '0.250000' points = '749.0,581.5 749.0,662.4 750.9,662.4 750.9,579.7 '/>
		<polygon fill = 'rgb( 31, 120, 180)' fill-opacity = '0.250000' points = '750.9,579.7 750.9,662.4 752.8,662.4 752.8,578.5 '/>
		<polygon fill = 'rgb( 31, 120, 180)' fill-opacity = '0.250000' points = '752.8,578.5 752.8,662.4 754.7,662.4 754.7,577.8 '/>
		<polygon fill = 'rgb( 31, 120, 180)' fill-opacity = '0.250000' points = '754.7,577.8 754.7,662.4 756.6,662.4 756.6,577.8 '/>
		<polygon fill = 'rgb( 31, 120, 180)' fill-opacity = '0.250000' points = '756.6,577.8 756.6,662.4 758.5,662.4 758.5,578.4 '/>
		<polygon fill = 'rgb( 31, 120, 180)' fill-opacity = '0.250000' points = '758.5,578.4 758.5,662.4 760.4,662.4 760.4,579.5 '/>
		<polygon fill = 'rgb( 31, 120, 180)' fill-opacity = '0.250000' points = '760.4,579.5 760.4,662.4 762.3,662.4 762.3,581.2 '/>
		<polygon fill = 'rgb( 31, 120, 180)' fill-opacity = '0.250000' points = '762.3,581.2 762.3,662.4 764.2,662.4 764.2,583.4 '/>
		<polygon fill = 'rgb( 31, 120, 180)' fill-opacity = '0.250000' points = '764.2,583.4 764.2,662.4 766.1,662.4 766.1,586.1 '/>
		<polygon fill = 'rgb( 31, 120, 180)' fill-opacity = '0.250000' points = '766.1,586.1 766.1,662.4 768.0,662.4 768.0,589.2 '/>
		<polygon fill = 'rgb( 31, 120, 180)' fill-opacity = '0.250000' points = '768.0,589.2 768.0,662.4 769.9,662.4 769.9,592.6 '/>
		<polygon fill = 'rgb( 31, 120, 180)' fill-opacity = '0.250000' points = '769.9,592.6 769.9,662.4 771.8,662.4 771.8,596.4 '/>
		<polygon fill = 'rgb( 31, 120, 180)' fill-opacity = '0.250000' points = '771.8,596.4 771.8,662.4 773.7,662.4 773.7,600.4 '/>
		<polygon fill = 'rgb( 31, 120, 180)' fill-opacity = '0.250000' points = '773.7,600.4 773.7,662.4 775.6,662.4 775.6,604.5 '/>
		<polygon fill = 'rgb( 31, 120, 180)' fill-opacity = '0.250000' points = '775.6,604.5 775.6,662.4 777.5,662.4 777.5,608.7 '/>
		<polygon fill = 'rgb( 31, 120, 180)' fill-opacity = '0.250000' points = '777.5,608.7 777.5,662.4 779.4,662.4 779.4,612.9 '/>
		<polygon fill = 'rgb( 31, 120, 180)' fill-opacity = '0.250000' points = '779.4,612.9 779.4,662.4 781.3,662.4 781.3,617.1 '/>
		<polygon fill = 'rgb( 31, 120, 180)' fill-opacity = '0.250000' points = '781.3,617.1 781.3,662.4 783.2,662.4 783.2,621.3 '/>
		<polygon fill = 'rgb( 31, 120, 180)' fill-opacity = '0.250000' points = '783.2,621.3 783.2,662.4 785.1,662.4 785.1,625.2 '/>
		<polygon fill = 'rgb( 31, 120, 180)' fill-opacity = '0.250000' points = '785.1,625.2 785.1,662.4 787.0,662.4 787.0,629.0 '/>
		<polygon fill = 'rgb( 31, 120, 180)' fill-opacity = '0.250000' points = '787.0,629.0 787.0,662.4 789.0,662.4 789.0,632.6 '/>
		<polygon fill = 'rgb( 31, 120, 180)' fill-opacity = '0.250000' points = '789.0,632.6 789.0,662.4 790.9,662.4 790.9,635.9 '/>
		<polygon fill = 'rgb( 31, 120, 180)' fill-opacity = '0.250000' points = '790.9,635.9 790.9,662.4 792.8,662.4 792.8,639.0 '/>
		<polygon fill = 'rgb( 31, 120, 180)' fill-opacity = '0.250000' points = '792.8,639.0 792.8,662.4 794.7,662.4 794.7,641.7 '/>
		<polygon fill = 'rgb( 31, 120, 180)' fill-opacity = '0.250000' points = '794.7,641.7 794.7,662.4 796.6,662.4 796.6,644.2 '/>
		<polygon fill = 'rgb( 31, 120, 180)' fill-opacity = '0.250000' points = '796.6,644.2 796.6,662.4 798.5,662.4 798.5,646.4 '/>
		<polygon fill = 'rgb( 31, 120, 180)' fill-opacity = '0.250000' points = '798.5,646.4 798.5,662.4 800.4,662.4 800.4,648.3 '/>
		<polygon fill = 'rgb( 31, 120, 180)' fill-opacity = '0.250000' points = '800.4,648.3 800.4,662.4 802.3,662.4 802.3,649.8 '/>
		<polygon fill = 'rgb( 31, 120, 180)' fill-opacity = '0.250000' points = '802.3,649.8 802.3,662.4 804.2,662.4 804.2,651.1 '/>
		<polygon fill = 'rgb( 31, 120, 180)' fill-opacity = '0.250000' points = '804.2,651.1 804.2,662.4 806.1,662.4 806.1,652.2 '/>
		<polygon fill = 'rgb( 31, 120, 180)' fill-opacity = '0.250000' points = '806.1,652.2 806.1,662.4 808.0,662.4 808.0,652.9 '/>
		<polygon fill = 'rgb( 31, 120, 180)' fill-opacity = '0.250000' points = '808.0,652.9 808.0,662.4 809.9,662.4 809.9,653.5 '/>
		<polygon fill = 'rgb( 31, 120, 180)' fill-opacity = '0.250000' points = '809.9,653.5 809.9,662.4 811.8,662.4 811.8,653.7 '/>
		<polygon fill = 'rgb( 31, 120, 180)' fill-opacity = '0.250000' points = '811.8,653.7 811.8,662.4 813.7,662.4 813.7,653.8 '/>
		<polygon fill = 'rgb( 31, 120, 180)' fill-opacity = '0.250000' points = '813.7,653.8 813.7,662.4 815.6,662.4 815.6,653.7 '/>
		<polygon fill = 'rgb( 31, 120, 180)' fill-opacity = '0.250000' points = '815.6,653.7 815.6,662.4 817.5,662.4 817.5,653.4 '/>
		<polygon fill = 'rgb( 31, 120, 180)' fill-opacity = '0.250000' points = '817.5,653.4 817.5,662.4 819.4,662.4 819.4,653.0 '/>
		<polygon fill = 'rgb( 31, 120, 180)' fill-opacity = '0.250000' points = '819.4,653.0 819.4,662.4 821.3,662.4 821.3,652.4 '/>
		<polygon fill = 'rgb( 31, 120, 180)' fill-opacity = '0.250000' points = '821.3,652.4 821.3,662.4 823.2,662.4 823.2,651.8 '/>
		<polygon fill = 'rgb( 31, 120, 180)' fill-opacity = '0.250000' points = '823.2,651.8 823.2,662.4 825.1,662.4 825.1,651.0 '/>
		<polygon fill = 'rgb( 31, 120, 180)' fill-opacity = '0.250000' points = '825.1,651.0 825.1,662.4 827.0,662.4 827.0,650.2 '/>
		<polygon fill = 'rgb( 31, 120, 180)' fill-opacity = '0.250000' points = '827.0,650.2 827.0,662.4 828.9,662.4 828.9,649.3 '/>
		<polygon fill = 'rgb( 31, 120, 180)' fill-opacity = '0.250000' points = '828.9,649.3 828.9,662.4 830.8,662.4 830.8,648.4 '/>
		<polygon fill = 'rgb( 31, 120, 180)' fill-opacity = '0.250000' points = '830.8,648.4 830.8,662.4 832.7,662.4 832.7,647.5 '/>
		<polygon fill = 'rgb( 31, 120, 180)' fill-opacity = '0.250000' points = '832.7,647.5 832.7,662.4 834.6,662.4 834.6,646.6 '/>
		<polygon fill = 'rgb( 31, 120, 180)' fill-opacity = '0.250000' points = '834.6,646.6 834.6,662.4 836.5,662.4 836.5,645.8 '/>
		<polygon fill = 'rgb( 31, 120, 180)' fill-opacity = '0.250000' points = '836.5,645.8 836.5,662.4 838.4,662.4 838.4,645.0 '/>
		<polygon fill = 'rgb( 31, 120, 180)' fill-opacity = '0.250000' points = '838.4,645.0 838.4,662.4 840.4,662.4 840.4,644.3 '/>
		<polygon fill = 'rgb( 31, 120, 180)' fill-opacity = '0.250000' points = '840.4,644.3 840.4,662.4 842.3,662.4 842.3,643.7 '/>
		<polygon fill = 'rgb( 31, 120, 180)' fill-opacity = '0.250000' points = '842.3,643.7 842.3,662.4 844.2,662.4 844.2,643.2 '/>
		<polygon fill = 'rgb( 31, 120, 180)' fill-opacity = '0.250000' points = '844.2,643.2 844.2,662.4 846.1,662.4 846.1,642.8 '/>
		<polygon fill = 'rgb( 31, 120, 180)' fill-opacity = '0.250000' points = '846.1,642.8 846.1,662.4 848.0,662.4 848.0,642.5 '/>
		<polygon fill = 'rgb( 31, 120, 180)' fill-opacity = '0.250000' points = '848.0,642.5 848.0,662.4 849.9,662.4 849.9,642.3 '/>
		<polygon fill = 'rgb( 31, 120, 180)' fill-opacity = '0.250000' points = '849.9,642.3 849.9,662.4 851.8,662.4 851.8,642.2 '/>
		<polygon fill = 'rgb( 31, 120, 180)' fill-opacity = '0.250000' points = '851.8,642.2 851.8,662.4 853.7,662.4 853.7,642.3 '/>
		<polygon fill = 'rgb( 31, 120, 180)' fill-opacity = '0.250000' points = '853.7,642.3 853.7,662.4 855.6,662.4 855.6,642.5 '/>
		<polygon fill = 'rgb( 31, 120, 180)' fill-opacity = '0.250000' points = '855.6,642.5 855.6,662.4 857.5,662.4 857.5,642.7 '/>
		<polygon fill = 'rgb( 31, 120, 180)' fill-opacity = '0.250000' points = '857.5,642.7 857.5,662.4 859.4,662.4 859.4,643.1 '/>
		<polygon fill = 'rgb( 31, 120, 180)' fill-opacity = '0.250000' points = '859.4,643.1 859.4,662.4 861.3,662.4 861.3,643.6 '/>
		<polygon fill = 'rgb( 31, 120, 180)' fill-opacity = '0.250000' points = '861.3,643.6 861.3,662.4 863.2,662.4 863.2,644.1 '/>
		<polygon fill = 'rgb( 31, 120, 180)' fill-opacity = '0.250000' points = '863.2,644.1 863.2,662.4 865.1,662.4 865.1,644.7 '/>
		<polygon fill = 'rgb( 31, 120, 180)' fill-opacity = '0.250000' points = '865.1,644.7 865.1,662.4 867.0,662.4 867.0,645.3 '/>
		<polygon fill = 'rgb( 31, 120, 180)' fill-opacity = '0.250000' points = '867.0,645.3 867.0,662.4 868.9,662.4 868.9,646.0 '/>
		<polygon fill = 'rgb( 31, 120, 180)' fill-opacity = '0.250000' points = '868.9,646.0 868.9,662.4 870.8,662.4 870.8,646.7 '/>
		<polygon fill = 'rgb( 31, 120, 180)' fill-opacity = '0.250000' points = '870.8,646.7 870.8,662.4 872.7,662.4 872.7,647.5 '/>
		<polygon fill = 'rgb( 31, 120, 180)' fill-opacity = '0.250000' points = '872.7,647.5 872.7,662.4 874.6,662.4 874.6,648.2 '/>
		<polygon fill = 'rgb( 31, 120, 180)' fill-opacity = '0.250000' points = '874.6,648.2 874.6,662.4 876.5,662.4 876.5,648.9 '/>
		<polygon fill = 'rgb( 31, 120, 180)' fill-opacity = '0.250000' points = '876.5,648.9 876.5,662.4 878.4,662.4 878.4,649.6 '/>
		<polygon fill = 'rgb( 31, 120, 180)' fill-opacity = '0.250000' points = '878.4,649.6 878.4,662.4 880.3,662.4 880.3,650.3 '/>
		<polygon fill = 'rgb( 31, 120, 180)' fill-opacity = '0.250000' points = '880.3,650.3 880.3,662.4 882.2,662.4 882.2,651.0 '/>
		<polygon fill = 'rgb( 31, 120, 180)' fill-opacity = '0.250000' points = '882.2,651.0 882.2,662.4 884.1,662.4 884.1,651.6 '/>
		<polygon fill = 'rgb( 31, 120, 180)' fill-opacity = '0.250000' points = '884.1,651.6 884.1,662.4 886.0,662.4 886.0,652.1 '/>
		<polygon fill = 'rgb( 31, 120, 180)' fill-opacity = '0.250000' points = '886.0,652.1 886.0,662.4 887.9,662.4 887.9,652.7 '/>
		<polygon fill = 'rgb( 31, 120, 180)' fill-opacity = '0.250000' points = '887.9,652.7 887.9,662.4 889.9,662.4 889.9,653.1 '/>
		<polygon fill = 'rgb( 31, 120, 180)' fill-opacity = '0.250000' points = '889.9,653.1 889.9,662.4 891.8,662.4 891.8,653.5 '/>
		<polygon fill = 'rgb( 31, 120, 180)' fill-opacity = '0.250000' points = '891.8,653.5 891.8,662.4 893.7,662.4 893.7,653.8 '/>
		<polygon fill = 'rgb( 31, 120, 180)' fill-opacity = '0.250000' points = '893.7,653.8 893.7,662.4 895.6,662.4 895.6,654.0 '/>
		<polygon fill = 'rgb( 31, 120, 180)' fill-opacity = '0.250000' points = '895.6,654.0 895.6,662.4 897.5,662.4 897.5,654.2 '/>
		<polygon fill = 'rgb( 31, 120, 180)' fill-opacity = '0.250000' points = '897.5,654.2 897.5,662.4 899.4,662.4 899.4,654.3 '/>
		<polygon fill = 'rgb( 31, 120, 180)' fill-opacity = '0.250000' points = '899.4,654.3 899.4,662.4 901.3,662.4 901.3,654.3 '/>
		<polygon fill = 'rgb( 31, 120, 180)' fill-opacity = '0.250000' points = '901.3,654.3 901.3,662.4 903.2,662.4 903.2,654.2 '/>
		<polygon fill = 'rgb( 31, 120, 180)' fill-opacity = '0.250000' points = '903.2,654.2 903.2,662.4 905.1,662.4 905.1,654.1 '/>
		<polygon fill = 'rgb( 31, 120, 180)' fill-opacity = '0.250000' points = '905.1,654.1 905.1,662.4 907.0,662.4 907.0,653.9 '/>
		<polygon fill = 'rgb( 31, 120, 180)' fill-opacity = '0.250000' points = '907.0,653.9 907.0,662.4 908.9,662.4 908.9,653.6 '/>
		<polygon fill = 'rgb( 31, 120, 180)' fill-opacity = '0.250000' points = '908.9,653.6 908.9,662.4 910.8,662.4 910.8,653.3 '/>
		<polygon fill = 'rgb( 31, 120, 180)' fill-opacity = '0.250000' points = '910.8,653.3 910.8,662.4 912.7,662.4 912.7,653.0 '/>
		<polygon fill = 'rgb( 31, 120, 180)' fill-opacity = '0.250000' points = '912.7,653.0 912.7,662.4 914.6,662.4 914.6,652.6 '/>
		<polygon fill = 'rgb( 31, 120, 180)' fill-opacity = '0.250000' points = '914.6,652.6 914.6,662.4 916.5,662.4 916.5,652.2 '/>
		<polygon fill = 'rgb( 31, 120, 180)' fill-opacity = '0.250000' points = '916.5,652.2 916.5,662.4 918.4,662.4 918.4,651.8 '/>
		<polygon fill = 'rgb( 31, 120, 180)' fill-opacity = '0.250000' points = '918.4,651.8 918.4,662.4 920.3,662.4 920.3,651.4 '/>
		<polygon fill = 'rgb( 31, 120, 180)' fill-opacity = '0.250000' points = '920.3,651.4 920.3,662.4 922.2,662.4 922.2,651.0 '/>
		<polygon fill = 'rgb( 31, 120, 180)' fill-opacity = '0.250000' points = '922.2,651.0 922.2,662.4 924.1,662.4 924.1,650.5 '/>
	</g>
</g>
	</g>
	<g id="gnuplot_plot_3" ><title>Point estimate</title>
<g fill="none" color="white" stroke="rgb( 31, 120, 180)" stroke-width="2.00" stroke-linecap="butt" stroke-linejoin="miter">
</g>
<g fill="none" color="black" stroke="currentColor" stroke-width="2.00" stroke-linecap="butt" stroke-linejoin="miter">
	<g transform="translate(1089.0,103.0)" stroke="none" fill="black" font-family="Helvetica" font-size="12.00"  text-anchor="start">
		<text><tspan font-family="Helvetica" >Point estimate</tspan></text>
	</g>
</g>
<g fill="none" color="black" stroke="currentColor" stroke-width="2.00" stroke-linecap="butt" stroke-linejoin="miter">
	<path stroke='rgb( 31, 120, 180)'  d='M1038.5,99.1 L1080.7,99.1 M282.2,662.4 L282.2,110.2  '/></g>
	</g>
<g fill="none" color="black" stroke="currentColor" stroke-width="2.00" stroke-linecap="butt" stroke-linejoin="miter">
</g>
<g fill="none" color="black" stroke="black" stroke-width="1.00" stroke-linecap="butt" stroke-linejoin="miter">
</g>
<g fill="none" color="black" stroke="currentColor" stroke-width="1.00" stroke-linecap="butt" stroke-linejoin="miter">
	<path stroke='black'  d='M63.6,54.1 L63.6,662.4 L1013.6,662.4 L1013.6,54.1 L63.6,54.1 Z  '/></g>
<g fill="none" color="black" stroke="currentColor" stroke-width="1.00" stroke-linecap="butt" stroke-linejoin="miter">
</g>
</g>
</svg>

