<?xml version="1.0" encoding="utf-8"  standalone="no"?>
<!DOCTYPE svg PUBLIC "-//W3C//DTD SVG 1.1//EN"
 "http://www.w3.org/Graphics/SVG/1.1/DTD/svg11.dtd">
<svg 
 viewBox="0 0 1280 720"
 xmlns="http://www.w3.org/2000/svg"
 xmlns:xlink="http://www.w3.org/1999/xlink"
>

<title>Gnuplot</title>
<desc>Produced by GNUPLOT 5.0 patchlevel 5 </desc>

<g id="gnuplot_canvas">

<rect x="0" y="0" width="1280" height="720" fill="none"/>
<defs>

	<circle id='gpDot' r='0.5' stroke-width='0.5'/>
	<path id='gpPt0' stroke-width='0.222' stroke='currentColor' d='M-1,0 h2 M0,-1 v2'/>
	<path id='gpPt1' stroke-width='0.222' stroke='currentColor' d='M-1,-1 L1,1 M1,-1 L-1,1'/>
	<path id='gpPt2' stroke-width='0.222' stroke='currentColor' d='M-1,0 L1,0 M0,-1 L0,1 M-1,-1 L1,1 M-1,1 L1,-1'/>
	<rect id='gpPt3' stroke-width='0.222' stroke='currentColor' x='-1' y='-1' width='2' height='2'/>
	<rect id='gpPt4' stroke-width='0.222' stroke='currentColor' fill='currentColor' x='-1' y='-1' width='2' height='2'/>
	<circle id='gpPt5' stroke-width='0.222' stroke='currentColor' cx='0' cy='0' r='1'/>
	<use xlink:href='#gpPt5' id='gpPt6' fill='currentColor' stroke='none'/>
	<path id='gpPt7' stroke-width='0.222' stroke='currentColor' d='M0,-1.33 L-1.33,0.67 L1.33,0.67 z'/>
	<use xlink:href='#gpPt7' id='gpPt8' fill='currentColor' stroke='none'/>
	<use xlink:href='#gpPt7' id='gpPt9' stroke='currentColor' transform='rotate(180)'/>
	<use xlink:href='#gpPt9' id='gpPt10' fill='currentColor' stroke='none'/>
	<use xlink:href='#gpPt3' id='gpPt11' stroke='currentColor' transform='rotate(45)'/>
	<use xlink:href='#gpPt11' id='gpPt12' fill='currentColor' stroke='none'/>
	<path id='gpPt13' stroke-width='0.222' stroke='currentColor' d='M0,1.330 L1.265,0.411 L0.782,-1.067 L-0.782,-1.076 L-1.265,0.411 z'/>
	<use xlink:href='#gpPt13' id='gpPt14' fill='currentColor' stroke='none'/>
	<filter id='textbox' filterUnits='objectBoundingBox' x='0' y='0' height='1' width='1'>
	  <feFlood flood-color='white' flood-opacity='1' result='bgnd'/>
	  <feComposite in='SourceGraphic' in2='bgnd' operator='atop'/>
	</filter>
	<filter id='greybox' filterUnits='objectBoundingBox' x='0' y='0' height='1' width='1'>
	  <feFlood flood-color='lightgrey' flood-opacity='1' result='grey'/>
	  <feComposite in='SourceGraphic' in2='grey' operator='atop'/>
	</filter>
</defs>
<g fill="none" color="white" stroke="currentColor" stroke-width="1.00" stroke-linecap="butt" stroke-linejoin="miter">
</g>
<g fill="none" color="black" stroke="currentColor" stroke-width="1.00" stroke-linecap="butt" stroke-linejoin="miter">
	<path stroke='black'  d='M71.9,662.4 L80.9,662.4  '/>	<g transform="translate(63.6,666.3)" stroke="none" fill="black" font-family="Helvetica" font-size="12.00"  text-anchor="end">
		<text><tspan font-family="Helvetica" > 0</tspan></text>
	</g>
</g>
<g fill="none" color="black" stroke="currentColor" stroke-width="1.00" stroke-linecap="butt" stroke-linejoin="miter">
	<path stroke='black'  d='M71.9,561.0 L80.9,561.0  '/>	<g transform="translate(63.6,564.9)" stroke="none" fill="black" font-family="Helvetica" font-size="12.00"  text-anchor="end">
		<text><tspan font-family="Helvetica" > 0.1</tspan></text>
	</g>
</g>
<g fill="none" color="black" stroke="currentColor" stroke-width="1.00" stroke-linecap="butt" stroke-linejoin="miter">
	<path stroke='black'  d='M71.9,459.6 L80.9,459.6  '/>	<g transform="translate(63.6,463.5)" stroke="none" fill="black" font-family="Helvetica" font-size="12.00"  text-anchor="end">
		<text><tspan font-family="Helvetica" > 0.2</tspan></text>
	</g>
</g>
<g fill="none" color="black" stroke="currentColor" stroke-width="1.00" stroke-linecap="butt" stroke-linejoin="miter">
	<path stroke='black'  d='M71.9,358.2 L80.9,358.2  '/>	<g transform="translate(63.6,362.1)" stroke="none" fill="black" font-family="Helvetica" font-size="12.00"  text-anchor="end">
		<text><tspan font-family="Helvetica" > 0.3</tspan></text>
	</g>
</g>
<g fill="none" color="black" stroke="currentColor" stroke-width="1.00" stroke-linecap="butt" stroke-linejoin="miter">
	<path stroke='black'  d='M71.9,256.9 L80.9,256.9  '/>	<g transform="translate(63.6,260.8)" stroke="none" fill="black" font-family="Helvetica" font-size="12.00"  text-anchor="end">
		<text><tspan font-family="Helvetica" > 0.4</tspan></text>
	</g>
</g>
<g fill="none" color="black" stroke="currentColor" stroke-width="1.00" stroke-linecap="butt" stroke-linejoin="miter">
	<path stroke='black'  d='M71.9,155.5 L80.9,155.5  '/>	<g transform="translate(63.6,159.4)" stroke="none" fill="black" font-family="Helvetica" font-size="12.00"  text-anchor="end">
		<text><tspan font-family="Helvetica" > 0.5</tspan></text>
	</g>
</g>
<g fill="none" color="black" stroke="currentColor" stroke-width="1.00" stroke-linecap="butt" stroke-linejoin="miter">
	<path stroke='black'  d='M71.9,54.1 L80.9,54.1  '/>	<g transform="translate(63.6,58.0)" stroke="none" fill="black" font-family="Helvetica" font-size="12.00"  text-anchor="end">
		<text><tspan font-family="Helvetica" > 0.6</tspan></text>
	</g>
</g>
<g fill="none" color="black" stroke="currentColor" stroke-width="1.00" stroke-linecap="butt" stroke-linejoin="miter">
	<path stroke='black'  d='M95.4,662.4 L95.4,653.4  '/>	<g transform="translate(95.4,684.3)" stroke="none" fill="black" font-family="Helvetica" font-size="12.00"  text-anchor="middle">
		<text><tspan font-family="Helvetica" > 1</tspan></text>
	</g>
</g>
<g fill="none" color="black" stroke="currentColor" stroke-width="1.00" stroke-linecap="butt" stroke-linejoin="miter">
	<path stroke='black'  d='M267.9,662.4 L267.9,653.4  '/>	<g transform="translate(267.9,684.3)" stroke="none" fill="black" font-family="Helvetica" font-size="12.00"  text-anchor="middle">
		<text><tspan font-family="Helvetica" > 2</tspan></text>
	</g>
</g>
<g fill="none" color="black" stroke="currentColor" stroke-width="1.00" stroke-linecap="butt" stroke-linejoin="miter">
	<path stroke='black'  d='M440.4,662.4 L440.4,653.4  '/>	<g transform="translate(440.4,684.3)" stroke="none" fill="black" font-family="Helvetica" font-size="12.00"  text-anchor="middle">
		<text><tspan font-family="Helvetica" > 3</tspan></text>
	</g>
</g>
<g fill="none" color="black" stroke="currentColor" stroke-width="1.00" stroke-linecap="butt" stroke-linejoin="miter">
	<path stroke='black'  d='M612.9,662.4 L612.9,653.4  '/>	<g transform="translate(612.9,684.3)" stroke="none" fill="black" font-family="Helvetica" font-size="12.00"  text-anchor="middle">
		<text><tspan font-family="Helvetica" > 4</tspan></text>
	</g>
</g>
<g fill="none" color="black" stroke="currentColor" stroke-width="1.00" stroke-linecap="butt" stroke-linejoin="miter">
	<path stroke='black'  d='M785.3,662.4 L785.3,653.4  '/>	<g transform="translate(785.3,684.3)" stroke="none" fill="black" font-family="Helvetica" font-size="12.00"  text-anchor="middle">
		<text><tspan font-family="Helvetica" > 5</tspan></text>
	</g>
</g>
<g fill="none" color="black" stroke="currentColor" stroke-width="1.00" stroke-linecap="butt" stroke-linejoin="miter">
	<path stroke='black'  d='M957.8,662.4 L957.8,653.4  '/>	<g transform="translate(957.8,684.3)" stroke="none" fill="black" font-family="Helvetica" font-size="12.00"  text-anchor="middle">
		<text><tspan font-family="Helvetica" > 6</tspan></text>
	</g>
</g>
<g fill="none" color="black" stroke="currentColor" stroke-width="1.00" stroke-linecap="butt" stroke-linejoin="miter">
</g>
<g fill="none" color="black" stroke="currentColor" stroke-width="1.00" stroke-linecap="butt" stroke-linejoin="miter">
	<path stroke='black'  d='M71.9,54.1 L71.9,662.4 L1013.6,662.4 L1013.6,54.1 L71.9,54.1 Z  '/></g>
<g fill="none" color="black" stroke="currentColor" stroke-width="1.00" stroke-linecap="butt" stroke-linejoin="miter">
	<g transform="translate(17.0,358.3) rotate(270)" stroke="none" fill="black" font-family="Helvetica" font-size="12.00"  text-anchor="middle">
		<text><tspan font-family="Helvetica" >Density (a.u.)</tspan></text>
	</g>
</g>
<g fill="none" color="black" stroke="currentColor" stroke-width="1.00" stroke-linecap="butt" stroke-linejoin="miter">
	<g transform="translate(542.7,711.3)" stroke="none" fill="black" font-family="Helvetica" font-size="12.00"  text-anchor="middle">
		<text><tspan font-family="Helvetica" >Average time (us)</tspan></text>
	</g>
</g>
<g fill="none" color="black" stroke="currentColor" stroke-width="1.00" stroke-linecap="butt" stroke-linejoin="miter">
	<g transform="translate(542.7,31.0)" stroke="none" fill="black" font-family="Helvetica" font-size="12.00"  text-anchor="middle">
		<text><tspan font-family="Helvetica" >dlist arena atomic_cell init: SD</tspan></text>
	</g>
</g>
	<g id="gnuplot_plot_1" ><title>Bootstrap distribution</title>
<g fill="none" color="white" stroke="black" stroke-width="2.00" stroke-linecap="butt" stroke-linejoin="miter">
</g>
<g fill="none" color="black" stroke="currentColor" stroke-width="2.00" stroke-linecap="butt" stroke-linejoin="miter">
	<g transform="translate(1089.0,67.0)" stroke="none" fill="black" font-family="Helvetica" font-size="12.00"  text-anchor="start">
		<text><tspan font-family="Helvetica" >Bootstrap distribution</tspan></text>
	</g>
</g>
<g fill="none" color="black" stroke="currentColor" stroke-width="2.00" stroke-linecap="butt" stroke-linejoin="miter">
	<path stroke='rgb( 31, 120, 180)'  d='M1038.5,63.1 L1080.7,63.1 M71.9,645.3 L73.8,644.5 L75.7,643.6 L77.6,642.7 L79.4,641.8 L81.3,640.8
		L83.2,639.8 L85.1,638.7 L87.0,637.6 L88.9,636.5 L90.8,635.3 L92.7,634.1 L94.5,632.8 L96.4,631.5
		L98.3,630.2 L100.2,628.8 L102.1,627.3 L104.0,625.9 L105.9,624.3 L107.8,622.7 L109.6,621.1 L111.5,619.4
		L113.4,617.6 L115.3,615.8 L117.2,613.9 L119.1,612.0 L121.0,610.0 L122.9,607.9 L124.7,605.7 L126.6,603.5
		L128.5,601.2 L130.4,598.8 L132.3,596.4 L134.2,593.8 L136.1,591.2 L138.0,588.5 L139.8,585.7 L141.7,582.9
		L143.6,580.0 L145.5,576.9 L147.4,573.9 L149.3,570.7 L151.2,567.5 L153.0,564.2 L154.9,560.9 L156.8,557.5
		L158.7,554.1 L160.6,550.5 L162.5,547.0 L164.4,543.4 L166.3,539.7 L168.1,536.0 L170.0,532.3 L171.9,528.5
		L173.8,524.6 L175.7,520.8 L177.6,516.9 L179.5,513.0 L181.4,509.0 L183.2,505.0 L185.1,501.0 L187.0,497.0
		L188.9,492.9 L190.8,488.9 L192.7,484.8 L194.6,480.7 L196.5,476.6 L198.3,472.5 L200.2,468.3 L202.1,464.2
		L204.0,460.1 L205.9,456.1 L207.8,452.0 L209.7,448.0 L211.6,443.9 L213.4,440.0 L215.3,436.0 L217.2,432.1
		L219.1,428.3 L221.0,424.4 L222.9,420.7 L224.8,417.0 L226.6,413.4 L228.5,409.8 L230.4,406.4 L232.3,403.0
		L234.2,399.6 L236.1,396.4 L238.0,393.3 L239.9,390.3 L241.7,387.3 L243.6,384.5 L245.5,381.8 L247.4,379.1
		L249.3,376.6 L251.2,374.3 L253.1,372.0 L255.0,369.8 L256.8,367.8 L258.7,365.9 L260.6,364.2 L262.5,362.5
		L264.4,361.0 L266.3,359.6 L268.2,358.4 L270.1,357.3 L271.9,356.3 L273.8,355.5 L275.7,354.8 L277.6,354.2
		L279.5,353.8 L281.4,353.5 L283.3,353.4 L285.2,353.4 L287.0,353.6 L288.9,353.9 L290.8,354.4 L292.7,355.0
		L294.6,355.7 L296.5,356.6 L298.4,357.7 L300.2,358.9 L302.1,360.3 L304.0,361.8 L305.9,363.5 L307.8,365.3
		L309.7,367.3 L311.6,369.4 L313.5,371.6 L315.3,374.0 L317.2,376.6 L319.1,379.3 L321.0,382.1 L322.9,385.0
		L324.8,388.1 L326.7,391.4 L328.6,394.7 L330.4,398.2 L332.3,401.7 L334.2,405.4 L336.1,409.2 L338.0,413.1
		L339.9,417.1 L341.8,421.2 L343.7,425.3 L345.5,429.6 L347.4,433.9 L349.3,438.3 L351.2,442.7 L353.1,447.2
		L355.0,451.7 L356.9,456.3 L358.8,460.9 L360.6,465.6 L362.5,470.2 L364.4,474.9 L366.3,479.6 L368.2,484.3
		L370.1,489.0 L372.0,493.7 L373.8,498.3 L375.7,503.0 L377.6,507.6 L379.5,512.2 L381.4,516.7 L383.3,521.2
		L385.2,525.6 L387.1,530.0 L388.9,534.4 L390.8,538.6 L392.7,542.8 L394.6,546.9 L396.5,551.0 L398.4,554.9
		L400.3,558.8 L402.2,562.6 L404.0,566.2 L405.9,569.8 L407.8,573.3 L409.7,576.6 L411.6,579.9 L413.5,583.0
		L415.4,586.0 L417.3,588.9 L419.1,591.7 L421.0,594.3 L422.9,596.8 L424.8,599.2 L426.7,601.4 L428.6,603.5
		L430.5,605.3 L432.4,607.0 L434.2,608.6 L436.1,609.8 L438.0,610.9 L439.9,611.8 L441.8,612.4 L443.7,612.7
		L445.6,612.7 L447.4,612.4 L449.3,611.8 L451.2,610.8 L453.1,609.4 L455.0,607.6 L456.9,605.4 L458.8,602.8
		L460.7,599.7 L462.5,596.1 L464.4,592.0 L466.3,587.4 L468.2,582.3 L470.1,576.6 L472.0,570.3 L473.9,563.5
		L475.8,556.2 L477.6,548.2 L479.5,539.7 L481.4,530.6 L483.3,521.0 L485.2,510.9 L487.1,500.2 L489.0,489.0
		L490.9,477.4 L492.7,465.3 L494.6,452.8 L496.5,439.9 L498.4,426.7 L500.3,413.1 L502.2,399.3 L504.1,385.3
		L506.0,371.1 L507.8,356.8 L509.7,342.4 L511.6,328.0 L513.5,313.7 L515.4,299.4 L517.3,285.3 L519.2,271.5
		L521.0,257.8 L522.9,244.5 L524.8,231.6 L526.7,219.1 L528.6,207.1 L530.5,195.7 L532.4,184.8 L534.3,174.5
		L536.1,164.9 L538.0,156.1 L539.9,147.9 L541.8,140.6 L543.7,134.0 L545.6,128.3 L547.5,123.4 L549.4,119.4
		L551.2,116.3 L553.1,114.0 L555.0,112.6 L556.9,112.1 L558.8,112.4 L560.7,113.7 L562.6,115.7 L564.5,118.6
		L566.3,122.2 L568.2,126.7 L570.1,131.9 L572.0,137.8 L573.9,144.4 L575.8,151.7 L577.7,159.6 L579.5,168.1
		L581.4,177.2 L583.3,186.7 L585.2,196.8 L587.1,207.3 L589.0,218.1 L590.9,229.3 L592.8,240.9 L594.6,252.7
		L596.5,264.7 L598.4,276.9 L600.3,289.3 L602.2,301.7 L604.1,314.2 L606.0,326.8 L607.9,339.3 L609.7,351.9
		L611.6,364.3 L613.5,376.6 L615.4,388.8 L617.3,400.8 L619.2,412.6 L621.1,424.1 L623.0,435.5 L624.8,446.5
		L626.7,457.3 L628.6,467.7 L630.5,477.8 L632.4,487.6 L634.3,497.0 L636.2,506.0 L638.1,514.7 L639.9,522.9
		L641.8,530.7 L643.7,538.1 L645.6,545.0 L647.5,551.4 L649.4,557.4 L651.3,562.9 L653.1,567.8 L655.0,572.3
		L656.9,576.2 L658.8,579.5 L660.7,582.3 L662.6,584.5 L664.5,586.1 L666.4,587.0 L668.2,587.3 L670.1,587.0
		L672.0,586.0 L673.9,584.4 L675.8,582.1 L677.7,579.1 L679.6,575.4 L681.5,571.0 L683.3,566.0 L685.2,560.3
		L687.1,554.0 L689.0,547.1 L690.9,539.5 L692.8,531.4 L694.7,522.8 L696.6,513.7 L698.4,504.2 L700.3,494.3
		L702.2,484.1 L704.1,473.6 L706.0,462.9 L707.9,452.1 L709.8,441.3 L711.7,430.5 L713.5,419.8 L715.4,409.2
		L717.3,398.9 L719.2,388.9 L721.1,379.4 L723.0,370.2 L724.9,361.6 L726.7,353.6 L728.6,346.3 L730.5,339.6
		L732.4,333.7 L734.3,328.5 L736.2,324.2 L738.1,320.7 L740.0,318.0 L741.8,316.2 L743.7,315.3 L745.6,315.3
		L747.5,316.1 L749.4,317.8 L751.3,320.3 L753.2,323.6 L755.1,327.6 L756.9,332.5 L758.8,338.0 L760.7,344.1
		L762.6,350.9 L764.5,358.2 L766.4,366.0 L768.3,374.2 L770.2,382.8 L772.0,391.8 L773.9,401.1 L775.8,410.6
		L777.7,420.2 L779.6,430.0 L781.5,439.9 L783.4,449.7 L785.3,459.6 L787.1,469.4 L789.0,479.1 L790.9,488.6
		L792.8,498.0 L794.7,507.1 L796.6,516.0 L798.5,524.6 L800.3,533.0 L802.2,541.0 L804.1,548.7 L806.0,556.0
		L807.9,562.9 L809.8,569.5 L811.7,575.6 L813.6,581.4 L815.4,586.7 L817.3,591.6 L819.2,596.0 L821.1,600.0
		L823.0,603.5 L824.9,606.6 L826.8,609.2 L828.7,611.4 L830.5,613.1 L832.4,614.3 L834.3,615.1 L836.2,615.4
		L838.1,615.3 L840.0,614.8 L841.9,613.8 L843.8,612.4 L845.6,610.6 L847.5,608.4 L849.4,605.9 L851.3,603.0
		L853.2,599.9 L855.1,596.4 L857.0,592.8 L858.9,588.9 L860.7,584.9 L862.6,580.8 L864.5,576.7 L866.4,572.5
		L868.3,568.3 L870.2,564.2 L872.1,560.2 L873.9,556.4 L875.8,552.7 L877.7,549.3 L879.6,546.1 L881.5,543.3
		L883.4,540.8 L885.3,538.6 L887.2,536.9 L889.0,535.5 L890.9,534.5 L892.8,533.9 L894.7,533.8 L896.6,534.0
		L898.5,534.7 L900.4,535.8 L902.3,537.2 L904.1,539.0 L906.0,541.2 L907.9,543.7 L909.8,546.5 L911.7,549.5
		L913.6,552.8 L915.5,556.3 L917.4,560.0 L919.2,563.9 L921.1,567.8 L923.0,571.9 L924.9,576.0 L926.8,580.1
		L928.7,584.3 L930.6,588.4 L932.5,592.5 L934.3,596.5 L936.2,600.5 L938.1,604.3 L940.0,608.0 L941.9,611.6
		L943.8,615.0 L945.7,618.3 L947.5,621.3 L949.4,624.2 L951.3,626.9 L953.2,629.4 L955.1,631.7 L957.0,633.8
		L958.9,635.7 L960.8,637.3 L962.6,638.8 L964.5,640.1 L966.4,641.1 L968.3,641.9 L970.2,642.6 L972.1,643.0
		L974.0,643.3 L975.9,643.4 L977.7,643.3 L979.6,643.1 L981.5,642.7 L983.4,642.2 L985.3,641.5 L987.2,640.8
		L989.1,640.0 L991.0,639.1 L992.8,638.1 L994.7,637.1 L996.6,636.1 L998.5,635.0 L1000.4,634.0 L1002.3,633.0
		L1004.2,632.0 L1006.1,631.1 L1007.9,630.3 L1009.8,629.6 L1011.7,628.9 L1013.6,628.4  '/></g>
	</g>
	<g id="gnuplot_plot_2" ><title>Confidence interval</title>
<g fill="none" color="white" stroke="rgb( 31, 120, 180)" stroke-width="1.00" stroke-linecap="butt" stroke-linejoin="miter">
</g>
<g fill="none" color="black" stroke="currentColor" stroke-width="1.00" stroke-linecap="butt" stroke-linejoin="miter">
	<g transform="translate(1089.0,85.0)" stroke="none" fill="black" font-family="Helvetica" font-size="12.00"  text-anchor="start">
		<text><tspan font-family="Helvetica" >Confidence interval</tspan></text>
	</g>
</g>
<g fill="none" color="black" stroke="currentColor" stroke-width="1.00" stroke-linecap="butt" stroke-linejoin="miter">
	<g stroke='none' shape-rendering='crispEdges'>
		<polygon fill = 'rgb( 31, 120, 180)' fill-opacity = '0.250000' points = '1038.5,85.6 1080.7,85.6 1080.7,76.6 1038.5,76.6 '/>
		<polygon fill = 'rgb( 31, 120, 180)' fill-opacity = '0.250000' points = '158.7,554.1 158.7,662.4 160.6,662.4 160.6,550.5 '/>
		<polygon fill = 'rgb( 31, 120, 180)' fill-opacity = '0.250000' points = '160.6,550.5 160.6,662.4 162.5,662.4 162.5,547.0 '/>
		<polygon fill = 'rgb( 31, 120, 180)' fill-opacity = '0.250000' points = '162.5,547.0 162.5,662.4 164.4,662.4 164.4,543.4 '/>
		<polygon fill = 'rgb( 31, 120, 180)' fill-opacity = '0.250000' points = '164.4,543.4 164.4,662.4 166.3,662.4 166.3,539.7 '/>
		<polygon fill = 'rgb( 31, 120, 180)' fill-opacity = '0.250000' points = '166.3,539.7 166.3,662.4 168.1,662.4 168.1,536.0 '/>
		<polygon fill = 'rgb( 31, 120, 180)' fill-opacity = '0.250000' points = '168.1,536.0 168.1,662.4 170.0,662.4 170.0,532.3 '/>
		<polygon fill = 'rgb( 31, 120, 180)' fill-opacity = '0.250000' points = '170.0,532.3 170.0,662.4 171.9,662.4 171.9,528.5 '/>
		<polygon fill = 'rgb( 31, 120, 180)' fill-opacity = '0.250000' points = '171.9,528.5 171.9,662.4 173.8,662.4 173.8,524.6 '/>
		<polygon fill = 'rgb( 31, 120, 180)' fill-opacity = '0.250000' points = '173.8,524.6 173.8,662.4 175.7,662.4 175.7,520.8 '/>
		<polygon fill = 'rgb( 31, 120, 180)' fill-opacity = '0.250000' points = '175.7,520.8 175.7,662.4 177.6,662.4 177.6,516.9 '/>
		<polygon fill = 'rgb( 31, 120, 180)' fill-opacity = '0.250000' points = '177.6,516.9 177.6,662.4 179.5,662.4 179.5,513.0 '/>
		<polygon fill = 'rgb( 31, 120, 180)' fill-opacity = '0.250000' points = '179.5,513.0 179.5,662.4 181.4,662.4 181.4,509.0 '/>
		<polygon fill = 'rgb( 31, 120, 180)' fill-opacity = '0.250000' points = '181.4,509.0 181.4,662.4 183.2,662.4 183.2,505.0 '/>
		<polygon fill = 'rgb( 31, 120, 180)' fill-opacity = '0.250000' points = '183.2,505.0 183.2,662.4 185.1,662.4 185.1,501.0 '/>
		<polygon fill = 'rgb( 31, 120, 180)' fill-opacity = '0.250000' points = '185.1,501.0 185.1,662.4 187.0,662.4 187.0,497.0 '/>
		<polygon fill = 'rgb( 31, 120, 180)' fill-opacity = '0.250000' points = '187.0,497.0 187.0,662.4 188.9,662.4 188.9,492.9 '/>
		<polygon fill = 'rgb( 31, 120, 180)' fill-opacity = '0.250000' points = '188.9,492.9 188.9,662.4 190.8,662.4 190.8,488.9 '/>
		<polygon fill = 'rgb( 31, 120, 180)' fill-opacity = '0.250000' points = '190.8,488.9 190.8,662.4 192.7,662.4 192.7,484.8 '/>
		<polygon fill = 'rgb( 31, 120, 180)' fill-opacity = '0.250000' points = '192.7,484.8 192.7,662.4 194.6,662.4 194.6,480.7 '/>
		<polygon fill = 'rgb( 31, 120, 180)' fill-opacity = '0.250000' points = '194.6,480.7 194.6,662.4 196.5,662.4 196.5,476.6 '/>
		<polygon fill = 'rgb( 31, 120, 180)' fill-opacity = '0.250000' points = '196.5,476.6 196.5,662.4 198.3,662.4 198.3,472.5 '/>
		<polygon fill = 'rgb( 31, 120, 180)' fill-opacity = '0.250000' points = '198.3,472.5 198.3,662.4 200.2,662.4 200.2,468.3 '/>
		<polygon fill = 'rgb( 31, 120, 180)' fill-opacity = '0.250000' points = '200.2,468.3 200.2,662.4 202.1,662.4 202.1,464.2 '/>
		<polygon fill = 'rgb( 31, 120, 180)' fill-opacity = '0.250000' points = '202.1,464.2 202.1,662.4 204.0,662.4 204.0,460.1 '/>
		<polygon fill = 'rgb( 31, 120, 180)' fill-opacity = '0.250000' points = '204.0,460.1 204.0,662.4 205.9,662.4 205.9,456.1 '/>
		<polygon fill = 'rgb( 31, 120, 180)' fill-opacity = '0.250000' points = '205.9,456.1 205.9,662.4 207.8,662.4 207.8,452.0 '/>
		<polygon fill = 'rgb( 31, 120, 180)' fill-opacity = '0.250000' points = '207.8,452.0 207.8,662.4 209.7,662.4 209.7,448.0 '/>
		<polygon fill = 'rgb( 31, 120, 180)' fill-opacity = '0.250000' points = '209.7,448.0 209.7,662.4 211.6,662.4 211.6,443.9 '/>
		<polygon fill = 'rgb( 31, 120, 180)' fill-opacity = '0.250000' points = '211.6,443.9 211.6,662.4 213.4,662.4 213.4,440.0 '/>
		<polygon fill = 'rgb( 31, 120, 180)' fill-opacity = '0.250000' points = '213.4,440.0 213.4,662.4 215.3,662.4 215.3,436.0 '/>
		<polygon fill = 'rgb( 31, 120, 180)' fill-opacity = '0.250000' points = '215.3,436.0 215.3,662.4 217.2,662.4 217.2,432.1 '/>
		<polygon fill = 'rgb( 31, 120, 180)' fill-opacity = '0.250000' points = '217.2,432.1 217.2,662.4 219.1,662.4 219.1,428.3 '/>
		<polygon fill = 'rgb( 31, 120, 180)' fill-opacity = '0.250000' points = '219.1,428.3 219.1,662.4 221.0,662.4 221.0,424.4 '/>
		<polygon fill = 'rgb( 31, 120, 180)' fill-opacity = '0.250000' points = '221.0,424.4 221.0,662.4 222.9,662.4 222.9,420.7 '/>
		<polygon fill = 'rgb( 31, 120, 180)' fill-opacity = '0.250000' points = '222.9,420.7 222.9,662.4 224.8,662.4 224.8,417.0 '/>
		<polygon fill = 'rgb( 31, 120, 180)' fill-opacity = '0.250000' points = '224.8,417.0 224.8,662.4 226.6,662.4 226.6,413.4 '/>
		<polygon fill = 'rgb( 31, 120, 180)' fill-opacity = '0.250000' points = '226.6,413.4 226.6,662.4 228.5,662.4 228.5,409.8 '/>
		<polygon fill = 'rgb( 31, 120, 180)' fill-opacity = '0.250000' points = '228.5,409.8 228.5,662.4 230.4,662.4 230.4,406.4 '/>
		<polygon fill = 'rgb( 31, 120, 180)' fill-opacity = '0.250000' points = '230.4,406.4 230.4,662.4 232.3,662.4 232.3,403.0 '/>
		<polygon fill = 'rgb( 31, 120, 180)' fill-opacity = '0.250000' points = '232.3,403.0 232.3,662.4 234.2,662.4 234.2,399.6 '/>
		<polygon fill = 'rgb( 31, 120, 180)' fill-opacity = '0.250000' points = '234.2,399.6 234.2,662.4 236.1,662.4 236.1,396.4 '/>
		<polygon fill = 'rgb( 31, 120, 180)' fill-opacity = '0.250000' points = '236.1,396.4 236.1,662.4 238.0,662.4 238.0,393.3 '/>
		<polygon fill = 'rgb( 31, 120, 180)' fill-opacity = '0.250000' points = '238.0,393.3 238.0,662.4 239.9,662.4 239.9,390.3 '/>
		<polygon fill = 'rgb( 31, 120, 180)' fill-opacity = '0.250000' points = '239.9,390.3 239.9,662.4 241.7,662.4 241.7,387.3 '/>
		<polygon fill = 'rgb( 31, 120, 180)' fill-opacity = '0.250000' points = '241.7,387.3 241.7,662.4 243.6,662.4 243.6,384.5 '/>
		<polygon fill = 'rgb( 31, 120, 180)' fill-opacity = '0.250000' points = '243.6,384.5 243.6,662.4 245.5,662.4 245.5,381.8 '/>
		<polygon fill = 'rgb( 31, 120, 180)' fill-opacity = '0.250000' points = '245.5,381.8 245.5,662.4 247.4,662.4 247.4,379.1 '/>
		<polygon fill = 'rgb( 31, 120, 180)' fill-opacity = '0.250000' points = '247.4,379.1 247.4,662.4 249.3,662.4 249.3,376.6 '/>
		<polygon fill = 'rgb( 31, 120, 180)' fill-opacity = '0.250000' points = '249.3,376.6 249.3,662.4 251.2,662.4 251.2,374.3 '/>
		<polygon fill = 'rgb( 31, 120, 180)' fill-opacity = '0.250000' points = '251.2,374.3 251.2,662.4 253.1,662.4 253.1,372.0 '/>
		<polygon fill = 'rgb( 31, 120, 180)' fill-opacity = '0.250000' points = '253.1,372.0 253.1,662.4 255.0,662.4 255.0,369.8 '/>
		<polygon fill = 'rgb( 31, 120, 180)' fill-opacity = '0.250000' points = '255.0,369.8 255.0,662.4 256.8,662.4 256.8,367.8 '/>
		<polygon fill = 'rgb( 31, 120, 180)' fill-opacity = '0.250000' points = '256.8,367.8 256.8,662.4 258.7,662.4 258.7,365.9 '/>
		<polygon fill = 'rgb( 31, 120, 180)' fill-opacity = '0.250000' points = '258.7,365.9 258.7,662.4 260.6,662.4 260.6,364.2 '/>
		<polygon fill = 'rgb( 31, 120, 180)' fill-opacity = '0.250000' points = '260.6,364.2 260.6,662.4 262.5,662.4 262.5,362.5 '/>
		<polygon fill = 'rgb( 31, 120, 180)' fill-opacity = '0.250000' points = '262.5,362.5 262.5,662.4 264.4,662.4 264.4,361.0 '/>
		<polygon fill = 'rgb( 31, 120, 180)' fill-opacity = '0.250000' points = '264.4,361.0 264.4,662.4 266.3,662.4 266.3,359.6 '/>
		<polygon fill = 'rgb( 31, 120, 180)' fill-opacity = '0.250000' points = '266.3,359.6 266.3,662.4 268.2,662.4 268.2,358.4 '/>
		<polygon fill = 'rgb( 31, 120, 180)' fill-opacity = '0.250000' points = '268.2,358.4 268.2,662.4 270.1,662.4 270.1,357.3 '/>
		<polygon fill = 'rgb( 31, 120, 180)' fill-opacity = '0.250000' points = '270.1,357.3 270.1,662.4 271.9,662.4 271.9,356.3 '/>
		<polygon fill = 'rgb( 31, 120, 180)' fill-opacity = '0.250000' points = '271.9,356.3 271.9,662.4 273.8,662.4 273.8,355.5 '/>
		<polygon fill = 'rgb( 31, 120, 180)' fill-opacity = '0.250000' points = '273.8,355.5 273.8,662.4 275.7,662.4 275.7,354.8 '/>
		<polygon fill = 'rgb( 31, 120, 180)' fill-opacity = '0.250000' points = '275.7,354.8 275.7,662.4 277.6,662.4 277.6,354.2 '/>
		<polygon fill = 'rgb( 31, 120, 180)' fill-opacity = '0.250000' points = '277.6,354.2 277.6,662.4 279.5,662.4 279.5,353.8 '/>
		<polygon fill = 'rgb( 31, 120, 180)' fill-opacity = '0.250000' points = '279.5,353.8 279.5,662.4 281.4,662.4 281.4,353.5 '/>
		<polygon fill = 'rgb( 31, 120, 180)' fill-opacity = '0.250000' points = '281.4,353.5 281.4,662.4 283.3,662.4 283.3,353.4 '/>
		<polygon fill = 'rgb( 31, 120, 180)' fill-opacity = '0.250000' points = '283.3,353.4 283.3,662.4 285.2,662.4 285.2,353.4 '/>
		<polygon fill = 'rgb( 31, 120, 180)' fill-opacity = '0.250000' points = '285.2,353.4 285.2,662.4 287.0,662.4 287.0,353.6 '/>
		<polygon fill = 'rgb( 31, 120, 180)' fill-opacity = '0.250000' points = '287.0,353.6 287.0,662.4 288.9,662.4 288.9,353.9 '/>
		<polygon fill = 'rgb( 31, 120, 180)' fill-opacity = '0.250000' points = '288.9,353.9 288.9,662.4 290.8,662.4 290.8,354.4 '/>
		<polygon fill = 'rgb( 31, 120, 180)' fill-opacity = '0.250000' points = '290.8,354.4 290.8,662.4 292.7,662.4 292.7,355.0 '/>
		<polygon fill = 'rgb( 31, 120, 180)' fill-opacity = '0.250000' points = '292.7,355.0 292.7,662.4 294.6,662.4 294.6,355.7 '/>
		<polygon fill = 'rgb( 31, 120, 180)' fill-opacity = '0.250000' points = '294.6,355.7 294.6,662.4 296.5,662.4 296.5,356.6 '/>
		<polygon fill = 'rgb( 31, 120, 180)' fill-opacity = '0.250000' points = '296.5,356.6 296.5,662.4 298.4,662.4 298.4,357.7 '/>
		<polygon fill = 'rgb( 31, 120, 180)' fill-opacity = '0.250000' points = '298.4,357.7 298.4,662.4 300.2,662.4 300.2,358.9 '/>
		<polygon fill = 'rgb( 31, 120, 180)' fill-opacity = '0.250000' points = '300.2,358.9 300.2,662.4 302.1,662.4 302.1,360.3 '/>
		<polygon fill = 'rgb( 31, 120, 180)' fill-opacity = '0.250000' points = '302.1,360.3 302.1,662.4 304.0,662.4 304.0,361.8 '/>
		<polygon fill = 'rgb( 31, 120, 180)' fill-opacity = '0.250000' points = '304.0,361.8 304.0,662.4 305.9,662.4 305.9,363.5 '/>
		<polygon fill = 'rgb( 31, 120, 180)' fill-opacity = '0.250000' points = '305.9,363.5 305.9,662.4 307.8,662.4 307.8,365.3 '/>
		<polygon fill = 'rgb( 31, 120, 180)' fill-opacity = '0.250000' points = '307.8,365.3 307.8,662.4 309.7,662.4 309.7,367.3 '/>
		<polygon fill = 'rgb( 31, 120, 180)' fill-opacity = '0.250000' points = '309.7,367.3 309.7,662.4 311.6,662.4 311.6,369.4 '/>
		<polygon fill = 'rgb( 31, 120, 180)' fill-opacity = '0.250000' points = '311.6,369.4 311.6,662.4 313.5,662.4 313.5,371.6 '/>
		<polygon fill = 'rgb( 31, 120, 180)' fill-opacity = '0.250000' points = '313.5,371.6 313.5,662.4 315.3,662.4 315.3,374.0 '/>
		<polygon fill = 'rgb( 31, 120, 180)' fill-opacity = '0.250000' points = '315.3,374.0 315.3,662.4 317.2,662.4 317.2,376.6 '/>
		<polygon fill = 'rgb( 31, 120, 180)' fill-opacity = '0.250000' points = '317.2,376.6 317.2,662.4 319.1,662.4 319.1,379.3 '/>
		<polygon fill = 'rgb( 31, 120, 180)' fill-opacity = '0.250000' points = '319.1,379.3 319.1,662.4 321.0,662.4 321.0,382.1 '/>
		<polygon fill = 'rgb( 31, 120, 180)' fill-opacity = '0.250000' points = '321.0,382.1 321.0,662.4 322.9,662.4 322.9,385.0 '/>
		<polygon fill = 'rgb( 31, 120, 180)' fill-opacity = '0.250000' points = '322.9,385.0 322.9,662.4 324.8,662.4 324.8,388.1 '/>
		<polygon fill = 'rgb( 31, 120, 180)' fill-opacity = '0.250000' points = '324.8,388.1 324.8,662.4 326.7,662.4 326.7,391.4 '/>
		<polygon fill = 'rgb( 31, 120, 180)' fill-opacity = '0.250000' points = '326.7,391.4 326.7,662.4 328.6,662.4 328.6,394.7 '/>
		<polygon fill = 'rgb( 31, 120, 180)' fill-opacity = '0.250000' points = '328.6,394.7 328.6,662.4 330.4,662.4 330.4,398.2 '/>
		<polygon fill = 'rgb( 31, 120, 180)' fill-opacity = '0.250000' points = '330.4,398.2 330.4,662.4 332.3,662.4 332.3,401.7 '/>
		<polygon fill = 'rgb( 31, 120, 180)' fill-opacity = '0.250000' points = '332.3,401.7 332.3,662.4 334.2,662.4 334.2,405.4 '/>
		<polygon fill = 'rgb( 31, 120, 180)' fill-opacity = '0.250000' points = '334.2,405.4 334.2,662.4 336.1,662.4 336.1,409.2 '/>
		<polygon fill = 'rgb( 31, 120, 180)' fill-opacity = '0.250000' points = '336.1,409.2 336.1,662.4 338.0,662.4 338.0,413.1 '/>
		<polygon fill = 'rgb( 31, 120, 180)' fill-opacity = '0.250000' points = '338.0,413.1 338.0,662.4 339.9,662.4 339.9,417.1 '/>
		<polygon fill = 'rgb( 31, 120, 180)' fill-opacity = '0.250000' points = '339.9,417.1 339.9,662.4 341.8,662.4 341.8,421.2 '/>
		<polygon fill = 'rgb( 31, 120, 180)' fill-opacity = '0.250000' points = '341.8,421.2 341.8,662.4 343.7,662.4 343.7,425.3 '/>
		<polygon fill = 'rgb( 31, 120, 180)' fill-opacity = '0.250000' points = '343.7,425.3 343.7,662.4 345.5,662.4 345.5,429.6 '/>
		<polygon fill = 'rgb( 31, 120, 180)' fill-opacity = '0.250000' points = '345.5,429.6 345.5,662.4 347.4,662.4 347.4,433.9 '/>
		<polygon fill = 'rgb( 31, 120, 180)' fill-opacity = '0.250000' points = '347.4,433.9 347.4,662.4 349.3,662.4 349.3,438.3 '/>
		<polygon fill = 'rgb( 31, 120, 180)' fill-opacity = '0.250000' points = '349.3,438.3 349.3,662.4 351.2,662.4 351.2,442.7 '/>
		<polygon fill = 'rgb( 31, 120, 180)' fill-opacity = '0.250000' points = '351.2,442.7 351.2,662.4 353.1,662.4 353.1,447.2 '/>
		<polygon fill = 'rgb( 31, 120, 180)' fill-opacity = '0.250000' points = '353.1,447.2 353.1,662.4 355.0,662.4 355.0,451.7 '/>
		<polygon fill = 'rgb( 31, 120, 180)' fill-opacity = '0.250000' points = '355.0,451.7 355.0,662.4 356.9,662.4 356.9,456.3 '/>
		<polygon fill = 'rgb( 31, 120, 180)' fill-opacity = '0.250000' points = '356.9,456.3 356.9,662.4 358.8,662.4 358.8,460.9 '/>
		<polygon fill = 'rgb( 31, 120, 180)' fill-opacity = '0.250000' points = '358.8,460.9 358.8,662.4 360.6,662.4 360.6,465.6 '/>
		<polygon fill = 'rgb( 31, 120, 180)' fill-opacity = '0.250000' points = '360.6,465.6 360.6,662.4 362.5,662.4 362.5,470.2 '/>
		<polygon fill = 'rgb( 31, 120, 180)' fill-opacity = '0.250000' points = '362.5,470.2 362.5,662.4 364.4,662.4 364.4,474.9 '/>
		<polygon fill = 'rgb( 31, 120, 180)' fill-opacity = '0.250000' points = '364.4,474.9 364.4,662.4 366.3,662.4 366.3,479.6 '/>
		<polygon fill = 'rgb( 31, 120, 180)' fill-opacity = '0.250000' points = '366.3,479.6 366.3,662.4 368.2,662.4 368.2,484.3 '/>
		<polygon fill = 'rgb( 31, 120, 180)' fill-opacity = '0.250000' points = '368.2,484.3 368.2,662.4 370.1,662.4 370.1,489.0 '/>
		<polygon fill = 'rgb( 31, 120, 180)' fill-opacity = '0.250000' points = '370.1,489.0 370.1,662.4 372.0,662.4 372.0,493.7 '/>
		<polygon fill = 'rgb( 31, 120, 180)' fill-opacity = '0.250000' points = '372.0,493.7 372.0,662.4 373.8,662.4 373.8,498.3 '/>
		<polygon fill = 'rgb( 31, 120, 180)' fill-opacity = '0.250000' points = '373.8,498.3 373.8,662.4 375.7,662.4 375.7,503.0 '/>
		<polygon fill = 'rgb( 31, 120, 180)' fill-opacity = '0.250000' points = '375.7,503.0 375.7,662.4 377.6,662.4 377.6,507.6 '/>
		<polygon fill = 'rgb( 31, 120, 180)' fill-opacity = '0.250000' points = '377.6,507.6 377.6,662.4 379.5,662.4 379.5,512.2 '/>
		<polygon fill = 'rgb( 31, 120, 180)' fill-opacity = '0.250000' points = '379.5,512.2 379.5,662.4 381.4,662.4 381.4,516.7 '/>
		<polygon fill = 'rgb( 31, 120, 180)' fill-opacity = '0.250000' points = '381.4,516.7 381.4,662.4 383.3,662.4 383.3,521.2 '/>
		<polygon fill = 'rgb( 31, 120, 180)' fill-opacity = '0.250000' points = '383.3,521.2 383.3,662.4 385.2,662.4 385.2,525.6 '/>
		<polygon fill = 'rgb( 31, 120, 180)' fill-opacity = '0.250000' points = '385.2,525.6 385.2,662.4 387.1,662.4 387.1,530.0 '/>
		<polygon fill = 'rgb( 31, 120, 180)' fill-opacity = '0.250000' points = '387.1,530.0 387.1,662.4 388.9,662.4 388.9,534.4 '/>
		<polygon fill = 'rgb( 31, 120, 180)' fill-opacity = '0.250000' points = '388.9,534.4 388.9,662.4 390.8,662.4 390.8,538.6 '/>
		<polygon fill = 'rgb( 31, 120, 180)' fill-opacity = '0.250000' points = '390.8,538.6 390.8,662.4 392.7,662.4 392.7,542.8 '/>
		<polygon fill = 'rgb( 31, 120, 180)' fill-opacity = '0.250000' points = '392.7,542.8 392.7,662.4 394.6,662.4 394.6,546.9 '/>
		<polygon fill = 'rgb( 31, 120, 180)' fill-opacity = '0.250000' points = '394.6,546.9 394.6,662.4 396.5,662.4 396.5,551.0 '/>
		<polygon fill = 'rgb( 31, 120, 180)' fill-opacity = '0.250000' points = '396.5,551.0 396.5,662.4 398.4,662.4 398.4,554.9 '/>
		<polygon fill = 'rgb( 31, 120, 180)' fill-opacity = '0.250000' points = '398.4,554.9 398.4,662.4 400.3,662.4 400.3,558.8 '/>
		<polygon fill = 'rgb( 31, 120, 180)' fill-opacity = '0.250000' points = '400.3,558.8 400.3,662.4 402.2,662.4 402.2,562.6 '/>
		<polygon fill = 'rgb( 31, 120, 180)' fill-opacity = '0.250000' points = '402.2,562.6 402.2,662.4 404.0,662.4 404.0,566.2 '/>
		<polygon fill = 'rgb( 31, 120, 180)' fill-opacity = '0.250000' points = '404.0,566.2 404.0,662.4 405.9,662.4 405.9,569.8 '/>
		<polygon fill = 'rgb( 31, 120, 180)' fill-opacity = '0.250000' points = '405.9,569.8 405.9,662.4 407.8,662.4 407.8,573.3 '/>
		<polygon fill = 'rgb( 31, 120, 180)' fill-opacity = '0.250000' points = '407.8,573.3 407.8,662.4 409.7,662.4 409.7,576.6 '/>
		<polygon fill = 'rgb( 31, 120, 180)' fill-opacity = '0.250000' points = '409.7,576.6 409.7,662.4 411.6,662.4 411.6,579.9 '/>
		<polygon fill = 'rgb( 31, 120, 180)' fill-opacity = '0.250000' points = '411.6,579.9 411.6,662.4 413.5,662.4 413.5,583.0 '/>
		<polygon fill = 'rgb( 31, 120, 180)' fill-opacity = '0.250000' points = '413.5,583.0 413.5,662.4 415.4,662.4 415.4,586.0 '/>
		<polygon fill = 'rgb( 31, 120, 180)' fill-opacity = '0.250000' points = '415.4,586.0 415.4,662.4 417.3,662.4 417.3,588.9 '/>
		<polygon fill = 'rgb( 31, 120, 180)' fill-opacity = '0.250000' points = '417.3,588.9 417.3,662.4 419.1,662.4 419.1,591.7 '/>
		<polygon fill = 'rgb( 31, 120, 180)' fill-opacity = '0.250000' points = '419.1,591.7 419.1,662.4 421.0,662.4 421.0,594.3 '/>
		<polygon fill = 'rgb( 31, 120, 180)' fill-opacity = '0.250000' points = '421.0,594.3 421.0,662.4 422.9,662.4 422.9,596.8 '/>
		<polygon fill = 'rgb( 31, 120, 180)' fill-opacity = '0.250000' points = '422.9,596.8 422.9,662.4 424.8,662.4 424.8,599.2 '/>
		<polygon fill = 'rgb( 31, 120, 180)' fill-opacity = '0.250000' points = '424.8,599.2 424.8,662.4 426.7,662.4 426.7,601.4 '/>
		<polygon fill = 'rgb( 31, 120, 180)' fill-opacity = '0.250000' points = '426.7,601.4 426.7,662.4 428.6,662.4 428.6,603.5 '/>
		<polygon fill = 'rgb( 31, 120, 180)' fill-opacity = '0.250000' points = '428.6,603.5 428.6,662.4 430.5,662.4 430.5,605.3 '/>
		<polygon fill = 'rgb( 31, 120, 180)' fill-opacity = '0.250000' points = '430.5,605.3 430.5,662.4 432.4,662.4 432.4,607.0 '/>
		<polygon fill = 'rgb( 31, 120, 180)' fill-opacity = '0.250000' points = '432.4,607.0 432.4,662.4 434.2,662.4 434.2,608.6 '/>
		<polygon fill = 'rgb( 31, 120, 180)' fill-opacity = '0.250000' points = '434.2,608.6 434.2,662.4 436.1,662.4 436.1,609.8 '/>
		<polygon fill = 'rgb( 31, 120, 180)' fill-opacity = '0.250000' points = '436.1,609.8 436.1,662.4 438.0,662.4 438.0,610.9 '/>
		<polygon fill = 'rgb( 31, 120, 180)' fill-opacity = '0.250000' points = '438.0,610.9 438.0,662.4 439.9,662.4 439.9,611.8 '/>
		<polygon fill = 'rgb( 31, 120, 180)' fill-opacity = '0.250000' points = '439.9,611.8 439.9,662.4 441.8,662.4 441.8,612.4 '/>
		<polygon fill = 'rgb( 31, 120, 180)' fill-opacity = '0.250000' points = '441.8,612.4 441.8,662.4 443.7,662.4 443.7,612.7 '/>
		<polygon fill = 'rgb( 31, 120, 180)' fill-opacity = '0.250000' points = '443.7,612.7 443.7,662.4 445.6,662.4 445.6,612.7 '/>
		<polygon fill = 'rgb( 31, 120, 180)' fill-opacity = '0.250000' points = '445.6,612.7 445.6,662.4 447.4,662.4 447.4,612.4 '/>
		<polygon fill = 'rgb( 31, 120, 180)' fill-opacity = '0.250000' points = '447.4,612.4 447.4,662.4 449.3,662.4 449.3,611.8 '/>
		<polygon fill = 'rgb( 31, 120, 180)' fill-opacity = '0.250000' points = '449.3,611.8 449.3,662.4 451.2,662.4 451.2,610.8 '/>
		<polygon fill = 'rgb( 31, 120, 180)' fill-opacity = '0.250000' points = '451.2,610.8 451.2,662.4 453.1,662.4 453.1,609.4 '/>
		<polygon fill = 'rgb( 31, 120, 180)' fill-opacity = '0.250000' points = '453.1,609.4 453.1,662.4 455.0,662.4 455.0,607.6 '/>
		<polygon fill = 'rgb( 31, 120, 180)' fill-opacity = '0.250000' points = '455.0,607.6 455.0,662.4 456.9,662.4 456.9,605.4 '/>
		<polygon fill = 'rgb( 31, 120, 180)' fill-opacity = '0.250000' points = '456.9,605.4 456.9,662.4 458.8,662.4 458.8,602.8 '/>
		<polygon fill = 'rgb( 31, 120, 180)' fill-opacity = '0.250000' points = '458.8,602.8 458.8,662.4 460.7,662.4 460.7,599.7 '/>
		<polygon fill = 'rgb( 31, 120, 180)' fill-opacity = '0.250000' points = '460.7,599.7 460.7,662.4 462.5,662.4 462.5,596.1 '/>
		<polygon fill = 'rgb( 31, 120, 180)' fill-opacity = '0.250000' points = '462.5,596.1 462.5,662.4 464.4,662.4 464.4,592.0 '/>
		<polygon fill = 'rgb( 31, 120, 180)' fill-opacity = '0.250000' points = '464.4,592.0 464.4,662.4 466.3,662.4 466.3,587.4 '/>
		<polygon fill = 'rgb( 31, 120, 180)' fill-opacity = '0.250000' points = '466.3,587.4 466.3,662.4 468.2,662.4 468.2,582.3 '/>
		<polygon fill = 'rgb( 31, 120, 180)' fill-opacity = '0.250000' points = '468.2,582.3 468.2,662.4 470.1,662.4 470.1,576.6 '/>
		<polygon fill = 'rgb( 31, 120, 180)' fill-opacity = '0.250000' points = '470.1,576.6 470.1,662.4 472.0,662.4 472.0,570.3 '/>
		<polygon fill = 'rgb( 31, 120, 180)' fill-opacity = '0.250000' points = '472.0,570.3 472.0,662.4 473.9,662.4 473.9,563.5 '/>
		<polygon fill = 'rgb( 31, 120, 180)' fill-opacity = '0.250000' points = '473.9,563.5 473.9,662.4 475.8,662.4 475.8,556.2 '/>
		<polygon fill = 'rgb( 31, 120, 180)' fill-opacity = '0.250000' points = '475.8,556.2 475.8,662.4 477.6,662.4 477.6,548.2 '/>
		<polygon fill = 'rgb( 31, 120, 180)' fill-opacity = '0.250000' points = '477.6,548.2 477.6,662.4 479.5,662.4 479.5,539.7 '/>
		<polygon fill = 'rgb( 31, 120, 180)' fill-opacity = '0.250000' points = '479.5,539.7 479.5,662.4 481.4,662.4 481.4,530.6 '/>
		<polygon fill = 'rgb( 31, 120, 180)' fill-opacity = '0.250000' points = '481.4,530.6 481.4,662.4 483.3,662.4 483.3,521.0 '/>
		<polygon fill = 'rgb( 31, 120, 180)' fill-opacity = '0.250000' points = '483.3,521.0 483.3,662.4 485.2,662.4 485.2,510.9 '/>
		<polygon fill = 'rgb( 31, 120, 180)' fill-opacity = '0.250000' points = '485.2,510.9 485.2,662.4 487.1,662.4 487.1,500.2 '/>
		<polygon fill = 'rgb( 31, 120, 180)' fill-opacity = '0.250000' points = '487.1,500.2 487.1,662.4 489.0,662.4 489.0,489.0 '/>
		<polygon fill = 'rgb( 31, 120, 180)' fill-opacity = '0.250000' points = '489.0,489.0 489.0,662.4 490.9,662.4 490.9,477.4 '/>
		<polygon fill = 'rgb( 31, 120, 180)' fill-opacity = '0.250000' points = '490.9,477.4 490.9,662.4 492.7,662.4 492.7,465.3 '/>
		<polygon fill = 'rgb( 31, 120, 180)' fill-opacity = '0.250000' points = '492.7,465.3 492.7,662.4 494.6,662.4 494.6,452.8 '/>
		<polygon fill = 'rgb( 31, 120, 180)' fill-opacity = '0.250000' points = '494.6,452.8 494.6,662.4 496.5,662.4 496.5,439.9 '/>
		<polygon fill = 'rgb( 31, 120, 180)' fill-opacity = '0.250000' points = '496.5,439.9 496.5,662.4 498.4,662.4 498.4,426.7 '/>
		<polygon fill = 'rgb( 31, 120, 180)' fill-opacity = '0.250000' points = '498.4,426.7 498.4,662.4 500.3,662.4 500.3,413.1 '/>
		<polygon fill = 'rgb( 31, 120, 180)' fill-opacity = '0.250000' points = '500.3,413.1 500.3,662.4 502.2,662.4 502.2,399.3 '/>
		<polygon fill = 'rgb( 31, 120, 180)' fill-opacity = '0.250000' points = '502.2,399.3 502.2,662.4 504.1,662.4 504.1,385.3 '/>
		<polygon fill = 'rgb( 31, 120, 180)' fill-opacity = '0.250000' points = '504.1,385.3 504.1,662.4 506.0,662.4 506.0,371.1 '/>
		<polygon fill = 'rgb( 31, 120, 180)' fill-opacity = '0.250000' points = '506.0,371.1 506.0,662.4 507.8,662.4 507.8,356.8 '/>
		<polygon fill = 'rgb( 31, 120, 180)' fill-opacity = '0.250000' points = '507.8,356.8 507.8,662.4 509.7,662.4 509.7,342.4 '/>
		<polygon fill = 'rgb( 31, 120, 180)' fill-opacity = '0.250000' points = '509.7,342.4 509.7,662.4 511.6,662.4 511.6,328.0 '/>
		<polygon fill = 'rgb( 31, 120, 180)' fill-opacity = '0.250000' points = '511.6,328.0 511.6,662.4 513.5,662.4 513.5,313.7 '/>
		<polygon fill = 'rgb( 31, 120, 180)' fill-opacity = '0.250000' points = '513.5,313.7 513.5,662.4 515.4,662.4 515.4,299.4 '/>
		<polygon fill = 'rgb( 31, 120, 180)' fill-opacity = '0.250000' points = '515.4,299.4 515.4,662.4 517.3,662.4 517.3,285.3 '/>
		<polygon fill = 'rgb( 31, 120, 180)' fill-opacity = '0.250000' points = '517.3,285.3 517.3,662.4 519.2,662.4 519.2,271.5 '/>
		<polygon fill = 'rgb( 31, 120, 180)' fill-opacity = '0.250000' points = '519.2,271.5 519.2,662.4 521.0,662.4 521.0,257.8 '/>
		<polygon fill = 'rgb( 31, 120, 180)' fill-opacity = '0.250000' points = '521.0,257.8 521.0,662.4 522.9,662.4 522.9,244.5 '/>
		<polygon fill = 'rgb( 31, 120, 180)' fill-opacity = '0.250000' points = '522.9,244.5 522.9,662.4 524.8,662.4 524.8,231.6 '/>
		<polygon fill = 'rgb( 31, 120, 180)' fill-opacity = '0.250000' points = '524.8,231.6 524.8,662.4 526.7,662.4 526.7,219.1 '/>
		<polygon fill = 'rgb( 31, 120, 180)' fill-opacity = '0.250000' points = '526.7,219.1 526.7,662.4 528.6,662.4 528.6,207.1 '/>
		<polygon fill = 'rgb( 31, 120, 180)' fill-opacity = '0.250000' points = '528.6,207.1 528.6,662.4 530.5,662.4 530.5,195.7 '/>
		<polygon fill = 'rgb( 31, 120, 180)' fill-opacity = '0.250000' points = '530.5,195.7 530.5,662.4 532.4,662.4 532.4,184.8 '/>
		<polygon fill = 'rgb( 31, 120, 180)' fill-opacity = '0.250000' points = '532.4,184.8 532.4,662.4 534.3,662.4 534.3,174.5 '/>
		<polygon fill = 'rgb( 31, 120, 180)' fill-opacity = '0.250000' points = '534.3,174.5 534.3,662.4 536.1,662.4 536.1,164.9 '/>
		<polygon fill = 'rgb( 31, 120, 180)' fill-opacity = '0.250000' points = '536.1,164.9 536.1,662.4 538.0,662.4 538.0,156.1 '/>
		<polygon fill = 'rgb( 31, 120, 180)' fill-opacity = '0.250000' points = '538.0,156.1 538.0,662.4 539.9,662.4 539.9,147.9 '/>
		<polygon fill = 'rgb( 31, 120, 180)' fill-opacity = '0.250000' points = '539.9,147.9 539.9,662.4 541.8,662.4 541.8,140.6 '/>
		<polygon fill = 'rgb( 31, 120, 180)' fill-opacity = '0.250000' points = '541.8,140.6 541.8,662.4 543.7,662.4 543.7,134.0 '/>
		<polygon fill = 'rgb( 31, 120, 180)' fill-opacity = '0.250000' points = '543.7,134.0 543.7,662.4 545.6,662.4 545.6,128.3 '/>
		<polygon fill = 'rgb( 31, 120, 180)' fill-opacity = '0.250000' points = '545.6,128.3 545.6,662.4 547.5,662.4 547.5,123.4 '/>
		<polygon fill = 'rgb( 31, 120, 180)' fill-opacity = '0.250000' points = '547.5,123.4 547.5,662.4 549.4,662.4 549.4,119.4 '/>
		<polygon fill = 'rgb( 31, 120, 180)' fill-opacity = '0.250000' points = '549.4,119.4 549.4,662.4 551.2,662.4 551.2,116.3 '/>
		<polygon fill = 'rgb( 31, 120, 180)' fill-opacity = '0.250000' points = '551.2,116.3 551.2,662.4 553.1,662.4 553.1,114.0 '/>
		<polygon fill = 'rgb( 31, 120, 180)' fill-opacity = '0.250000' points = '553.1,114.0 553.1,662.4 555.0,662.4 555.0,112.6 '/>
		<polygon fill = 'rgb( 31, 120, 180)' fill-opacity = '0.250000' points = '555.0,112.6 555.0,662.4 556.9,662.4 556.9,112.1 '/>
		<polygon fill = 'rgb( 31, 120, 180)' fill-opacity = '0.250000' points = '556.9,112.1 556.9,662.4 558.8,662.4 558.8,112.4 '/>
		<polygon fill = 'rgb( 31, 120, 180)' fill-opacity = '0.250000' points = '558.8,112.4 558.8,662.4 560.7,662.4 560.7,113.7 '/>
		<polygon fill = 'rgb( 31, 120, 180)' fill-opacity = '0.250000' points = '560.7,113.7 560.7,662.4 562.6,662.4 562.6,115.7 '/>
		<polygon fill = 'rgb( 31, 120, 180)' fill-opacity = '0.250000' points = '562.6,115.7 562.6,662.4 564.5,662.4 564.5,118.6 '/>
		<polygon fill = 'rgb( 31, 120, 180)' fill-opacity = '0.250000' points = '564.5,118.6 564.5,662.4 566.3,662.4 566.3,122.2 '/>
		<polygon fill = 'rgb( 31, 120, 180)' fill-opacity = '0.250000' points = '566.3,122.2 566.3,662.4 568.2,662.4 568.2,126.7 '/>
		<polygon fill = 'rgb( 31, 120, 180)' fill-opacity = '0.250000' points = '568.2,126.7 568.2,662.4 570.1,662.4 570.1,131.9 '/>
		<polygon fill = 'rgb( 31, 120, 180)' fill-opacity = '0.250000' points = '570.1,131.9 570.1,662.4 572.0,662.4 572.0,137.8 '/>
		<polygon fill = 'rgb( 31, 120, 180)' fill-opacity = '0.250000' points = '572.0,137.8 572.0,662.4 573.9,662.4 573.9,144.4 '/>
		<polygon fill = 'rgb( 31, 120, 180)' fill-opacity = '0.250000' points = '573.9,144.4 573.9,662.4 575.8,662.4 575.8,151.7 '/>
		<polygon fill = 'rgb( 31, 120, 180)' fill-opacity = '0.250000' points = '575.8,151.7 575.8,662.4 577.7,662.4 577.7,159.6 '/>
		<polygon fill = 'rgb( 31, 120, 180)' fill-opacity = '0.250000' points = '577.7,159.6 577.7,662.4 579.5,662.4 579.5,168.1 '/>
		<polygon fill = 'rgb( 31, 120, 180)' fill-opacity = '0.250000' points = '579.5,168.1 579.5,662.4 581.4,662.4 581.4,177.2 '/>
		<polygon fill = 'rgb( 31, 120, 180)' fill-opacity = '0.250000' points = '581.4,177.2 581.4,662.4 583.3,662.4 583.3,186.7 '/>
		<polygon fill = 'rgb( 31, 120, 180)' fill-opacity = '0.250000' points = '583.3,186.7 583.3,662.4 585.2,662.4 585.2,196.8 '/>
		<polygon fill = 'rgb( 31, 120, 180)' fill-opacity = '0.250000' points = '585.2,196.8 585.2,662.4 587.1,662.4 587.1,207.3 '/>
		<polygon fill = 'rgb( 31, 120, 180)' fill-opacity = '0.250000' points = '587.1,207.3 587.1,662.4 589.0,662.4 589.0,218.1 '/>
		<polygon fill = 'rgb( 31, 120, 180)' fill-opacity = '0.250000' points = '589.0,218.1 589.0,662.4 590.9,662.4 590.9,229.3 '/>
		<polygon fill = 'rgb( 31, 120, 180)' fill-opacity = '0.250000' points = '590.9,229.3 590.9,662.4 592.8,662.4 592.8,240.9 '/>
		<polygon fill = 'rgb( 31, 120, 180)' fill-opacity = '0.250000' points = '592.8,240.9 592.8,662.4 594.6,662.4 594.6,252.7 '/>
		<polygon fill = 'rgb( 31, 120, 180)' fill-opacity = '0.250000' points = '594.6,252.7 594.6,662.4 596.5,662.4 596.5,264.7 '/>
		<polygon fill = 'rgb( 31, 120, 180)' fill-opacity = '0.250000' points = '596.5,264.7 596.5,662.4 598.4,662.4 598.4,276.9 '/>
		<polygon fill = 'rgb( 31, 120, 180)' fill-opacity = '0.250000' points = '598.4,276.9 598.4,662.4 600.3,662.4 600.3,289.3 '/>
		<polygon fill = 'rgb( 31, 120, 180)' fill-opacity = '0.250000' points = '600.3,289.3 600.3,662.4 602.2,662.4 602.2,301.7 '/>
		<polygon fill = 'rgb( 31, 120, 180)' fill-opacity = '0.250000' points = '602.2,301.7 602.2,662.4 604.1,662.4 604.1,314.2 '/>
		<polygon fill = 'rgb( 31, 120, 180)' fill-opacity = '0.250000' points = '604.1,314.2 604.1,662.4 606.0,662.4 606.0,326.8 '/>
		<polygon fill = 'rgb( 31, 120, 180)' fill-opacity = '0.250000' points = '606.0,326.8 606.0,662.4 607.9,662.4 607.9,339.3 '/>
		<polygon fill = 'rgb( 31, 120, 180)' fill-opacity = '0.250000' points = '607.9,339.3 607.9,662.4 609.7,662.4 609.7,351.9 '/>
		<polygon fill = 'rgb( 31, 120, 180)' fill-opacity = '0.250000' points = '609.7,351.9 609.7,662.4 611.6,662.4 611.6,364.3 '/>
		<polygon fill = 'rgb( 31, 120, 180)' fill-opacity = '0.250000' points = '611.6,364.3 611.6,662.4 613.5,662.4 613.5,376.6 '/>
		<polygon fill = 'rgb( 31, 120, 180)' fill-opacity = '0.250000' points = '613.5,376.6 613.5,662.4 615.4,662.4 615.4,388.8 '/>
		<polygon fill = 'rgb( 31, 120, 180)' fill-opacity = '0.250000' points = '615.4,388.8 615.4,662.4 617.3,662.4 617.3,400.8 '/>
		<polygon fill = 'rgb( 31, 120, 180)' fill-opacity = '0.250000' points = '617.3,400.8 617.3,662.4 619.2,662.4 619.2,412.6 '/>
		<polygon fill = 'rgb( 31, 120, 180)' fill-opacity = '0.250000' points = '619.2,412.6 619.2,662.4 621.1,662.4 621.1,424.1 '/>
		<polygon fill = 'rgb( 31, 120, 180)' fill-opacity = '0.250000' points = '621.1,424.1 621.1,662.4 623.0,662.4 623.0,435.5 '/>
		<polygon fill = 'rgb( 31, 120, 180)' fill-opacity = '0.250000' points = '623.0,435.5 623.0,662.4 624.8,662.4 624.8,446.5 '/>
		<polygon fill = 'rgb( 31, 120, 180)' fill-opacity = '0.250000' points = '624.8,446.5 624.8,662.4 626.7,662.4 626.7,457.3 '/>
		<polygon fill = 'rgb( 31, 120, 180)' fill-opacity = '0.250000' points = '626.7,457.3 626.7,662.4 628.6,662.4 628.6,467.7 '/>
		<polygon fill = 'rgb( 31, 120, 180)' fill-opacity = '0.250000' points = '628.6,467.7 628.6,662.4 630.5,662.4 630.5,477.8 '/>
		<polygon fill = 'rgb( 31, 120, 180)' fill-opacity = '0.250000' points = '630.5,477.8 630.5,662.4 632.4,662.4 632.4,487.6 '/>
		<polygon fill = 'rgb( 31, 120, 180)' fill-opacity = '0.250000' points = '632.4,487.6 632.4,662.4 634.3,662.4 634.3,497.0 '/>
		<polygon fill = 'rgb( 31, 120, 180)' fill-opacity = '0.250000' points = '634.3,497.0 634.3,662.4 636.2,662.4 636.2,506.0 '/>
		<polygon fill = 'rgb( 31, 120, 180)' fill-opacity = '0.250000' points = '636.2,506.0 636.2,662.4 638.1,662.4 638.1,514.7 '/>
		<polygon fill = 'rgb( 31, 120, 180)' fill-opacity = '0.250000' points = '638.1,514.7 638.1,662.4 639.9,662.4 639.9,522.9 '/>
		<polygon fill = 'rgb( 31, 120, 180)' fill-opacity = '0.250000' points = '639.9,522.9 639.9,662.4 641.8,662.4 641.8,530.7 '/>
		<polygon fill = 'rgb( 31, 120, 180)' fill-opacity = '0.250000' points = '641.8,530.7 641.8,662.4 643.7,662.4 643.7,538.1 '/>
		<polygon fill = 'rgb( 31, 120, 180)' fill-opacity = '0.250000' points = '643.7,538.1 643.7,662.4 645.6,662.4 645.6,545.0 '/>
		<polygon fill = 'rgb( 31, 120, 180)' fill-opacity = '0.250000' points = '645.6,545.0 645.6,662.4 647.5,662.4 647.5,551.4 '/>
		<polygon fill = 'rgb( 31, 120, 180)' fill-opacity = '0.250000' points = '647.5,551.4 647.5,662.4 649.4,662.4 649.4,557.4 '/>
		<polygon fill = 'rgb( 31, 120, 180)' fill-opacity = '0.250000' points = '649.4,557.4 649.4,662.4 651.3,662.4 651.3,562.9 '/>
		<polygon fill = 'rgb( 31, 120, 180)' fill-opacity = '0.250000' points = '651.3,562.9 651.3,662.4 653.1,662.4 653.1,567.8 '/>
		<polygon fill = 'rgb( 31, 120, 180)' fill-opacity = '0.250000' points = '653.1,567.8 653.1,662.4 655.0,662.4 655.0,572.3 '/>
		<polygon fill = 'rgb( 31, 120, 180)' fill-opacity = '0.250000' points = '655.0,572.3 655.0,662.4 656.9,662.4 656.9,576.2 '/>
		<polygon fill = 'rgb( 31, 120, 180)' fill-opacity = '0.250000' points = '656.9,576.2 656.9,662.4 658.8,662.4 658.8,579.5 '/>
		<polygon fill = 'rgb( 31, 120, 180)' fill-opacity = '0.250000' points = '658.8,579.5 658.8,662.4 660.7,662.4 660.7,582.3 '/>
		<polygon fill = 'rgb( 31, 120, 180)' fill-opacity = '0.250000' points = '660.7,582.3 660.7,662.4 662.6,662.4 662.6,584.5 '/>
		<polygon fill = 'rgb( 31, 120, 180)' fill-opacity = '0.250000' points = '662.6,584.5 662.6,662.4 664.5,662.4 664.5,586.1 '/>
		<polygon fill = 'rgb( 31, 120, 180)' fill-opacity = '0.250000' points = '664.5,586.1 664.5,662.4 666.4,662.4 666.4,587.0 '/>
		<polygon fill = 'rgb( 31, 120, 180)' fill-opacity = '0.250000' points = '666.4,587.0 666.4,662.4 668.2,662.4 668.2,587.3 '/>
		<polygon fill = 'rgb( 31, 120, 180)' fill-opacity = '0.250000' points = '668.2,587.3 668.2,662.4 670.1,662.4 670.1,587.0 '/>
		<polygon fill = 'rgb( 31, 120, 180)' fill-opacity = '0.250000' points = '670.1,587.0 670.1,662.4 672.0,662.4 672.0,586.0 '/>
		<polygon fill = 'rgb( 31, 120, 180)' fill-opacity = '0.250000' points = '672.0,586.0 672.0,662.4 673.9,662.4 673.9,584.4 '/>
		<polygon fill = 'rgb( 31, 120, 180)' fill-opacity = '0.250000' points = '673.9,584.4 673.9,662.4 675.8,662.4 675.8,582.1 '/>
		<polygon fill = 'rgb( 31, 120, 180)' fill-opacity = '0.250000' points = '675.8,582.1 675.8,662.4 677.7,662.4 677.7,579.1 '/>
		<polygon fill = 'rgb( 31, 120, 180)' fill-opacity = '0.250000' points = '677.7,579.1 677.7,662.4 679.6,662.4 679.6,575.4 '/>
		<polygon fill = 'rgb( 31, 120, 180)' fill-opacity = '0.250000' points = '679.6,575.4 679.6,662.4 681.5,662.4 681.5,571.0 '/>
		<polygon fill = 'rgb( 31, 120, 180)' fill-opacity = '0.250000' points = '681.5,571.0 681.5,662.4 683.3,662.4 683.3,566.0 '/>
		<polygon fill = 'rgb( 31, 120, 180)' fill-opacity = '0.250000' points = '683.3,566.0 683.3,662.4 685.2,662.4 685.2,560.3 '/>
		<polygon fill = 'rgb( 31, 120, 180)' fill-opacity = '0.250000' points = '685.2,560.3 685.2,662.4 687.1,662.4 687.1,554.0 '/>
		<polygon fill = 'rgb( 31, 120, 180)' fill-opacity = '0.250000' points = '687.1,554.0 687.1,662.4 689.0,662.4 689.0,547.1 '/>
		<polygon fill = 'rgb( 31, 120, 180)' fill-opacity = '0.250000' points = '689.0,547.1 689.0,662.4 690.9,662.4 690.9,539.5 '/>
		<polygon fill = 'rgb( 31, 120, 180)' fill-opacity = '0.250000' points = '690.9,539.5 690.9,662.4 692.8,662.4 692.8,531.4 '/>
		<polygon fill = 'rgb( 31, 120, 180)' fill-opacity = '0.250000' points = '692.8,531.4 692.8,662.4 694.7,662.4 694.7,522.8 '/>
		<polygon fill = 'rgb( 31, 120, 180)' fill-opacity = '0.250000' points = '694.7,522.8 694.7,662.4 696.6,662.4 696.6,513.7 '/>
		<polygon fill = 'rgb( 31, 120, 180)' fill-opacity = '0.250000' points = '696.6,513.7 696.6,662.4 698.4,662.4 698.4,504.2 '/>
		<polygon fill = 'rgb( 31, 120, 180)' fill-opacity = '0.250000' points = '698.4,504.2 698.4,662.4 700.3,662.4 700.3,494.3 '/>
		<polygon fill = 'rgb( 31, 120, 180)' fill-opacity = '0.250000' points = '700.3,494.3 700.3,662.4 702.2,662.4 702.2,484.1 '/>
		<polygon fill = 'rgb( 31, 120, 180)' fill-opacity = '0.250000' points = '702.2,484.1 702.2,662.4 704.1,662.4 704.1,473.6 '/>
		<polygon fill = 'rgb( 31, 120, 180)' fill-opacity = '0.250000' points = '704.1,473.6 704.1,662.4 706.0,662.4 706.0,462.9 '/>
		<polygon fill = 'rgb( 31, 120, 180)' fill-opacity = '0.250000' points = '706.0,462.9 706.0,662.4 707.9,662.4 707.9,452.1 '/>
		<polygon fill = 'rgb( 31, 120, 180)' fill-opacity = '0.250000' points = '707.9,452.1 707.9,662.4 709.8,662.4 709.8,441.3 '/>
		<polygon fill = 'rgb( 31, 120, 180)' fill-opacity = '0.250000' points = '709.8,441.3 709.8,662.4 711.7,662.4 711.7,430.5 '/>
		<polygon fill = 'rgb( 31, 120, 180)' fill-opacity = '0.250000' points = '711.7,430.5 711.7,662.4 713.5,662.4 713.5,419.8 '/>
		<polygon fill = 'rgb( 31, 120, 180)' fill-opacity = '0.250000' points = '713.5,419.8 713.5,662.4 715.4,662.4 715.4,409.2 '/>
		<polygon fill = 'rgb( 31, 120, 180)' fill-opacity = '0.250000' points = '715.4,409.2 715.4,662.4 717.3,662.4 717.3,398.9 '/>
		<polygon fill = 'rgb( 31, 120, 180)' fill-opacity = '0.250000' points = '717.3,398.9 717.3,662.4 719.2,662.4 719.2,388.9 '/>
		<polygon fill = 'rgb( 31, 120, 180)' fill-opacity = '0.250000' points = '719.2,388.9 719.2,662.4 721.1,662.4 721.1,379.4 '/>
		<polygon fill = 'rgb( 31, 120, 180)' fill-opacity = '0.250000' points = '721.1,379.4 721.1,662.4 723.0,662.4 723.0,370.2 '/>
		<polygon fill = 'rgb( 31, 120, 180)' fill-opacity = '0.250000' points = '723.0,370.2 723.0,662.4 724.9,662.4 724.9,361.6 '/>
		<polygon fill = 'rgb( 31, 120, 180)' fill-opacity = '0.250000' points = '724.9,361.6 724.9,662.4 726.7,662.4 726.7,353.6 '/>
		<polygon fill = 'rgb( 31, 120, 180)' fill-opacity = '0.250000' points = '726.7,353.6 726.7,662.4 728.6,662.4 728.6,346.3 '/>
		<polygon fill = 'rgb( 31, 120, 180)' fill-opacity = '0.250000' points = '728.6,346.3 728.6,662.4 730.5,662.4 730.5,339.6 '/>
		<polygon fill = 'rgb( 31, 120, 180)' fill-opacity = '0.250000' points = '730.5,339.6 730.5,662.4 732.4,662.4 732.4,333.7 '/>
		<polygon fill = 'rgb( 31, 120, 180)' fill-opacity = '0.250000' points = '732.4,333.7 732.4,662.4 734.3,662.4 734.3,328.5 '/>
		<polygon fill = 'rgb( 31, 120, 180)' fill-opacity = '0.250000' points = '734.3,328.5 734.3,662.4 736.2,662.4 736.2,324.2 '/>
		<polygon fill = 'rgb( 31, 120, 180)' fill-opacity = '0.250000' points = '736.2,324.2 736.2,662.4 738.1,662.4 738.1,320.7 '/>
		<polygon fill = 'rgb( 31, 120, 180)' fill-opacity = '0.250000' points = '738.1,320.7 738.1,662.4 740.0,662.4 740.0,318.0 '/>
		<polygon fill = 'rgb( 31, 120, 180)' fill-opacity = '0.250000' points = '740.0,318.0 740.0,662.4 741.8,662.4 741.8,316.2 '/>
		<polygon fill = 'rgb( 31, 120, 180)' fill-opacity = '0.250000' points = '741.8,316.2 741.8,662.4 743.7,662.4 743.7,315.3 '/>
		<polygon fill = 'rgb( 31, 120, 180)' fill-opacity = '0.250000' points = '743.7,315.3 743.7,662.4 745.6,662.4 745.6,315.3 '/>
		<polygon fill = 'rgb( 31, 120, 180)' fill-opacity = '0.250000' points = '745.6,315.3 745.6,662.4 747.5,662.4 747.5,316.1 '/>
		<polygon fill = 'rgb( 31, 120, 180)' fill-opacity = '0.250000' points = '747.5,316.1 747.5,662.4 749.4,662.4 749.4,317.8 '/>
		<polygon fill = 'rgb( 31, 120, 180)' fill-opacity = '0.250000' points = '749.4,317.8 749.4,662.4 751.3,662.4 751.3,320.3 '/>
		<polygon fill = 'rgb( 31, 120, 180)' fill-opacity = '0.250000' points = '751.3,320.3 751.3,662.4 753.2,662.4 753.2,323.6 '/>
		<polygon fill = 'rgb( 31, 120, 180)' fill-opacity = '0.250000' points = '753.2,323.6 753.2,662.4 755.1,662.4 755.1,327.6 '/>
		<polygon fill = 'rgb( 31, 120, 180)' fill-opacity = '0.250000' points = '755.1,327.6 755.1,662.4 756.9,662.4 756.9,332.5 '/>
		<polygon fill = 'rgb( 31, 120, 180)' fill-opacity = '0.250000' points = '756.9,332.5 756.9,662.4 758.8,662.4 758.8,338.0 '/>
		<polygon fill = 'rgb( 31, 120, 180)' fill-opacity = '0.250000' points = '758.8,338.0 758.8,662.4 760.7,662.4 760.7,344.1 '/>
		<polygon fill = 'rgb( 31, 120, 180)' fill-opacity = '0.250000' points = '760.7,344.1 760.7,662.4 762.6,662.4 762.6,350.9 '/>
		<polygon fill = 'rgb( 31, 120, 180)' fill-opacity = '0.250000' points = '762.6,350.9 762.6,662.4 764.5,662.4 764.5,358.2 '/>
		<polygon fill = 'rgb( 31, 120, 180)' fill-opacity = '0.250000' points = '764.5,358.2 764.5,662.4 766.4,662.4 766.4,366.0 '/>
		<polygon fill = 'rgb( 31, 120, 180)' fill-opacity = '0.250000' points = '766.4,366.0 766.4,662.4 768.3,662.4 768.3,374.2 '/>
		<polygon fill = 'rgb( 31, 120, 180)' fill-opacity = '0.250000' points = '768.3,374.2 768.3,662.4 770.2,662.4 770.2,382.8 '/>
		<polygon fill = 'rgb( 31, 120, 180)' fill-opacity = '0.250000' points = '770.2,382.8 770.2,662.4 772.0,662.4 772.0,391.8 '/>
		<polygon fill = 'rgb( 31, 120, 180)' fill-opacity = '0.250000' points = '772.0,391.8 772.0,662.4 773.9,662.4 773.9,401.1 '/>
		<polygon fill = 'rgb( 31, 120, 180)' fill-opacity = '0.250000' points = '773.9,401.1 773.9,662.4 775.8,662.4 775.8,410.6 '/>
		<polygon fill = 'rgb( 31, 120, 180)' fill-opacity = '0.250000' points = '775.8,410.6 775.8,662.4 777.7,662.4 777.7,420.2 '/>
		<polygon fill = 'rgb( 31, 120, 180)' fill-opacity = '0.250000' points = '777.7,420.2 777.7,662.4 779.6,662.4 779.6,430.0 '/>
		<polygon fill = 'rgb( 31, 120, 180)' fill-opacity = '0.250000' points = '779.6,430.0 779.6,662.4 781.5,662.4 781.5,439.9 '/>
		<polygon fill = 'rgb( 31, 120, 180)' fill-opacity = '0.250000' points = '781.5,439.9 781.5,662.4 783.4,662.4 783.4,449.7 '/>
		<polygon fill = 'rgb( 31, 120, 180)' fill-opacity = '0.250000' points = '783.4,449.7 783.4,662.4 785.3,662.4 785.3,459.6 '/>
		<polygon fill = 'rgb( 31, 120, 180)' fill-opacity = '0.250000' points = '785.3,459.6 785.3,662.4 787.1,662.4 787.1,469.4 '/>
		<polygon fill = 'rgb( 31, 120, 180)' fill-opacity = '0.250000' points = '787.1,469.4 787.1,662.4 789.0,662.4 789.0,479.1 '/>
		<polygon fill = 'rgb( 31, 120, 180)' fill-opacity = '0.250000' points = '789.0,479.1 789.0,662.4 790.9,662.4 790.9,488.6 '/>
		<polygon fill = 'rgb( 31, 120, 180)' fill-opacity = '0.250000' points = '790.9,488.6 790.9,662.4 792.8,662.4 792.8,498.0 '/>
		<polygon fill = 'rgb( 31, 120, 180)' fill-opacity = '0.250000' points = '792.8,498.0 792.8,662.4 794.7,662.4 794.7,507.1 '/>
		<polygon fill = 'rgb( 31, 120, 180)' fill-opacity = '0.250000' points = '794.7,507.1 794.7,662.4 796.6,662.4 796.6,516.0 '/>
		<polygon fill = 'rgb( 31, 120, 180)' fill-opacity = '0.250000' points = '796.6,516.0 796.6,662.4 798.5,662.4 798.5,524.6 '/>
		<polygon fill = 'rgb( 31, 120, 180)' fill-opacity = '0.250000' points = '798.5,524.6 798.5,662.4 800.3,662.4 800.3,533.0 '/>
		<polygon fill = 'rgb( 31, 120, 180)' fill-opacity = '0.250000' points = '800.3,533.0 800.3,662.4 802.2,662.4 802.2,541.0 '/>
		<polygon fill = 'rgb( 31, 120, 180)' fill-opacity = '0.250000' points = '802.2,541.0 802.2,662.4 804.1,662.4 804.1,548.7 '/>
		<polygon fill = 'rgb( 31, 120, 180)' fill-opacity = '0.250000' points = '804.1,548.7 804.1,662.4 806.0,662.4 806.0,556.0 '/>
		<polygon fill = 'rgb( 31, 120, 180)' fill-opacity = '0.250000' points = '806.0,556.0 806.0,662.4 807.9,662.4 807.9,562.9 '/>
		<polygon fill = 'rgb( 31, 120, 180)' fill-opacity = '0.250000' points = '807.9,562.9 807.9,662.4 809.8,662.4 809.8,569.5 '/>
		<polygon fill = 'rgb( 31, 120, 180)' fill-opacity = '0.250000' points = '809.8,569.5 809.8,662.4 811.7,662.4 811.7,575.6 '/>
		<polygon fill = 'rgb( 31, 120, 180)' fill-opacity = '0.250000' points = '811.7,575.6 811.7,662.4 813.6,662.4 813.6,581.4 '/>
		<polygon fill = 'rgb( 31, 120, 180)' fill-opacity = '0.250000' points = '813.6,581.4 813.6,662.4 815.4,662.4 815.4,586.7 '/>
		<polygon fill = 'rgb( 31, 120, 180)' fill-opacity = '0.250000' points = '815.4,586.7 815.4,662.4 817.3,662.4 817.3,591.6 '/>
		<polygon fill = 'rgb( 31, 120, 180)' fill-opacity = '0.250000' points = '817.3,591.6 817.3,662.4 819.2,662.4 819.2,596.0 '/>
		<polygon fill = 'rgb( 31, 120, 180)' fill-opacity = '0.250000' points = '819.2,596.0 819.2,662.4 821.1,662.4 821.1,600.0 '/>
		<polygon fill = 'rgb( 31, 120, 180)' fill-opacity = '0.250000' points = '821.1,600.0 821.1,662.4 823.0,662.4 823.0,603.5 '/>
		<polygon fill = 'rgb( 31, 120, 180)' fill-opacity = '0.250000' points = '823.0,603.5 823.0,662.4 824.9,662.4 824.9,606.6 '/>
		<polygon fill = 'rgb( 31, 120, 180)' fill-opacity = '0.250000' points = '824.9,606.6 824.9,662.4 826.8,662.4 826.8,609.2 '/>
		<polygon fill = 'rgb( 31, 120, 180)' fill-opacity = '0.250000' points = '826.8,609.2 826.8,662.4 828.7,662.4 828.7,611.4 '/>
		<polygon fill = 'rgb( 31, 120, 180)' fill-opacity = '0.250000' points = '828.7,611.4 828.7,662.4 830.5,662.4 830.5,613.1 '/>
		<polygon fill = 'rgb( 31, 120, 180)' fill-opacity = '0.250000' points = '830.5,613.1 830.5,662.4 832.4,662.4 832.4,614.3 '/>
		<polygon fill = 'rgb( 31, 120, 180)' fill-opacity = '0.250000' points = '832.4,614.3 832.4,662.4 834.3,662.4 834.3,615.1 '/>
		<polygon fill = 'rgb( 31, 120, 180)' fill-opacity = '0.250000' points = '834.3,615.1 834.3,662.4 836.2,662.4 836.2,615.4 '/>
		<polygon fill = 'rgb( 31, 120, 180)' fill-opacity = '0.250000' points = '836.2,615.4 836.2,662.4 838.1,662.4 838.1,615.3 '/>
		<polygon fill = 'rgb( 31, 120, 180)' fill-opacity = '0.250000' points = '838.1,615.3 838.1,662.4 840.0,662.4 840.0,614.8 '/>
		<polygon fill = 'rgb( 31, 120, 180)' fill-opacity = '0.250000' points = '840.0,614.8 840.0,662.4 841.9,662.4 841.9,613.8 '/>
		<polygon fill = 'rgb( 31, 120, 180)' fill-opacity = '0.250000' points = '841.9,613.8 841.9,662.4 843.8,662.4 843.8,612.4 '/>
		<polygon fill = 'rgb( 31, 120, 180)' fill-opacity = '0.250000' points = '843.8,612.4 843.8,662.4 845.6,662.4 845.6,610.6 '/>
		<polygon fill = 'rgb( 31, 120, 180)' fill-opacity = '0.250000' points = '845.6,610.6 845.6,662.4 847.5,662.4 847.5,608.4 '/>
		<polygon fill = 'rgb( 31, 120, 180)' fill-opacity = '0.250000' points = '847.5,608.4 847.5,662.4 849.4,662.4 849.4,605.9 '/>
		<polygon fill = 'rgb( 31, 120, 180)' fill-opacity = '0.250000' points = '849.4,605.9 849.4,662.4 851.3,662.4 851.3,603.0 '/>
		<polygon fill = 'rgb( 31, 120, 180)' fill-opacity = '0.250000' points = '851.3,603.0 851.3,662.4 853.2,662.4 853.2,599.9 '/>
		<polygon fill = 'rgb( 31, 120, 180)' fill-opacity = '0.250000' points = '853.2,599.9 853.2,662.4 855.1,662.4 855.1,596.4 '/>
		<polygon fill = 'rgb( 31, 120, 180)' fill-opacity = '0.250000' points = '855.1,596.4 855.1,662.4 857.0,662.4 857.0,592.8 '/>
		<polygon fill = 'rgb( 31, 120, 180)' fill-opacity = '0.250000' points = '857.0,592.8 857.0,662.4 858.9,662.4 858.9,588.9 '/>
		<polygon fill = 'rgb( 31, 120, 180)' fill-opacity = '0.250000' points = '858.9,588.9 858.9,662.4 860.7,662.4 860.7,584.9 '/>
		<polygon fill = 'rgb( 31, 120, 180)' fill-opacity = '0.250000' points = '860.7,584.9 860.7,662.4 862.6,662.4 862.6,580.8 '/>
		<polygon fill = 'rgb( 31, 120, 180)' fill-opacity = '0.250000' points = '862.6,580.8 862.6,662.4 864.5,662.4 864.5,576.7 '/>
		<polygon fill = 'rgb( 31, 120, 180)' fill-opacity = '0.250000' points = '864.5,576.7 864.5,662.4 866.4,662.4 866.4,572.5 '/>
		<polygon fill = 'rgb( 31, 120, 180)' fill-opacity = '0.250000' points = '866.4,572.5 866.4,662.4 868.3,662.4 868.3,568.3 '/>
		<polygon fill = 'rgb( 31, 120, 180)' fill-opacity = '0.250000' points = '868.3,568.3 868.3,662.4 870.2,662.4 870.2,564.2 '/>
		<polygon fill = 'rgb( 31, 120, 180)' fill-opacity = '0.250000' points = '870.2,564.2 870.2,662.4 872.1,662.4 872.1,560.2 '/>
		<polygon fill = 'rgb( 31, 120, 180)' fill-opacity = '0.250000' points = '872.1,560.2 872.1,662.4 873.9,662.4 873.9,556.4 '/>
		<polygon fill = 'rgb( 31, 120, 180)' fill-opacity = '0.250000' points = '873.9,556.4 873.9,662.4 875.8,662.4 875.8,552.7 '/>
		<polygon fill = 'rgb( 31, 120, 180)' fill-opacity = '0.250000' points = '875.8,552.7 875.8,662.4 877.7,662.4 877.7,549.3 '/>
		<polygon fill = 'rgb( 31, 120, 180)' fill-opacity = '0.250000' points = '877.7,549.3 877.7,662.4 879.6,662.4 879.6,546.1 '/>
		<polygon fill = 'rgb( 31, 120, 180)' fill-opacity = '0.250000' points = '879.6,546.1 879.6,662.4 881.5,662.4 881.5,543.3 '/>
		<polygon fill = 'rgb( 31, 120, 180)' fill-opacity = '0.250000' points = '881.5,543.3 881.5,662.4 883.4,662.4 883.4,540.8 '/>
		<polygon fill = 'rgb( 31, 120, 180)' fill-opacity = '0.250000' points = '883.4,540.8 883.4,662.4 885.3,662.4 885.3,538.6 '/>
		<polygon fill = 'rgb( 31, 120, 180)' fill-opacity = '0.250000' points = '885.3,538.6 885.3,662.4 887.2,662.4 887.2,536.9 '/>
		<polygon fill = 'rgb( 31, 120, 180)' fill-opacity = '0.250000' points = '887.2,536.9 887.2,662.4 889.0,662.4 889.0,535.5 '/>
		<polygon fill = 'rgb( 31, 120, 180)' fill-opacity = '0.250000' points = '889.0,535.5 889.0,662.4 890.9,662.4 890.9,534.5 '/>
		<polygon fill = 'rgb( 31, 120, 180)' fill-opacity = '0.250000' points = '890.9,534.5 890.9,662.4 892.8,662.4 892.8,533.9 '/>
		<polygon fill = 'rgb( 31, 120, 180)' fill-opacity = '0.250000' points = '892.8,533.9 892.8,662.4 894.7,662.4 894.7,533.8 '/>
		<polygon fill = 'rgb( 31, 120, 180)' fill-opacity = '0.250000' points = '894.7,533.8 894.7,662.4 896.6,662.4 896.6,534.0 '/>
		<polygon fill = 'rgb( 31, 120, 180)' fill-opacity = '0.250000' points = '896.6,534.0 896.6,662.4 898.5,662.4 898.5,534.7 '/>
		<polygon fill = 'rgb( 31, 120, 180)' fill-opacity = '0.250000' points = '898.5,534.7 898.5,662.4 900.4,662.4 900.4,535.8 '/>
		<polygon fill = 'rgb( 31, 120, 180)' fill-opacity = '0.250000' points = '900.4,535.8 900.4,662.4 902.3,662.4 902.3,537.2 '/>
		<polygon fill = 'rgb( 31, 120, 180)' fill-opacity = '0.250000' points = '902.3,537.2 902.3,662.4 904.1,662.4 904.1,539.0 '/>
		<polygon fill = 'rgb( 31, 120, 180)' fill-opacity = '0.250000' points = '904.1,539.0 904.1,662.4 906.0,662.4 906.0,541.2 '/>
		<polygon fill = 'rgb( 31, 120, 180)' fill-opacity = '0.250000' points = '906.0,541.2 906.0,662.4 907.9,662.4 907.9,543.7 '/>
		<polygon fill = 'rgb( 31, 120, 180)' fill-opacity = '0.250000' points = '907.9,543.7 907.9,662.4 909.8,662.4 909.8,546.5 '/>
		<polygon fill = 'rgb( 31, 120, 180)' fill-opacity = '0.250000' points = '909.8,546.5 909.8,662.4 911.7,662.4 911.7,549.5 '/>
		<polygon fill = 'rgb( 31, 120, 180)' fill-opacity = '0.250000' points = '911.7,549.5 911.7,662.4 913.6,662.4 913.6,552.8 '/>
		<polygon fill = 'rgb( 31, 120, 180)' fill-opacity = '0.250000' points = '913.6,552.8 913.6,662.4 915.5,662.4 915.5,556.3 '/>
		<polygon fill = 'rgb( 31, 120, 180)' fill-opacity = '0.250000' points = '915.5,556.3 915.5,662.4 917.4,662.4 917.4,560.0 '/>
		<polygon fill = 'rgb( 31, 120, 180)' fill-opacity = '0.250000' points = '917.4,560.0 917.4,662.4 919.2,662.4 919.2,563.9 '/>
		<polygon fill = 'rgb( 31, 120, 180)' fill-opacity = '0.250000' points = '919.2,563.9 919.2,662.4 921.1,662.4 921.1,567.8 '/>
		<polygon fill = 'rgb( 31, 120, 180)' fill-opacity = '0.250000' points = '921.1,567.8 921.1,662.4 923.0,662.4 923.0,571.9 '/>
		<polygon fill = 'rgb( 31, 120, 180)' fill-opacity = '0.250000' points = '923.0,571.9 923.0,662.4 924.9,662.4 924.9,576.0 '/>
	</g>
</g>
	</g>
	<g id="gnuplot_plot_3" ><title>Point estimate</title>
<g fill="none" color="white" stroke="rgb( 31, 120, 180)" stroke-width="2.00" stroke-linecap="butt" stroke-linejoin="miter">
</g>
<g fill="none" color="black" stroke="currentColor" stroke-width="2.00" stroke-linecap="butt" stroke-linejoin="miter">
	<g transform="translate(1089.0,103.0)" stroke="none" fill="black" font-family="Helvetica" font-size="12.00"  text-anchor="start">
		<text><tspan font-family="Helvetica" >Point estimate</tspan></text>
	</g>
</g>
<g fill="none" color="black" stroke="currentColor" stroke-width="2.00" stroke-linecap="butt" stroke-linejoin="miter">
	<path stroke='rgb( 31, 120, 180)'  d='M1038.5,99.1 L1080.7,99.1 M564.4,662.4 L564.4,118.4  '/></g>
	</g>
<g fill="none" color="black" stroke="currentColor" stroke-width="2.00" stroke-linecap="butt" stroke-linejoin="miter">
</g>
<g fill="none" color="black" stroke="black" stroke-width="1.00" stroke-linecap="butt" stroke-linejoin="miter">
</g>
<g fill="none" color="black" stroke="currentColor" stroke-width="1.00" stroke-linecap="butt" stroke-linejoin="miter">
	<path stroke='black'  d='M71.9,54.1 L71.9,662.4 L1013.6,662.4 L1013.6,54.1 L71.9,54.1 Z  '/></g>
<g fill="none" color="black" stroke="currentColor" stroke-width="1.00" stroke-linecap="butt" stroke-linejoin="miter">
</g>
</g>
</svg>

