<?xml version="1.0" encoding="utf-8"  standalone="no"?>
<!DOCTYPE svg PUBLIC "-//W3C//DTD SVG 1.1//EN"
 "http://www.w3.org/Graphics/SVG/1.1/DTD/svg11.dtd">
<svg 
 viewBox="0 0 1280 720"
 xmlns="http://www.w3.org/2000/svg"
 xmlns:xlink="http://www.w3.org/1999/xlink"
>

<title>Gnuplot</title>
<desc>Produced by GNUPLOT 5.0 patchlevel 5 </desc>

<g id="gnuplot_canvas">

<rect x="0" y="0" width="1280" height="720" fill="none"/>
<defs>

	<circle id='gpDot' r='0.5' stroke-width='0.5'/>
	<path id='gpPt0' stroke-width='0.222' stroke='currentColor' d='M-1,0 h2 M0,-1 v2'/>
	<path id='gpPt1' stroke-width='0.222' stroke='currentColor' d='M-1,-1 L1,1 M1,-1 L-1,1'/>
	<path id='gpPt2' stroke-width='0.222' stroke='currentColor' d='M-1,0 L1,0 M0,-1 L0,1 M-1,-1 L1,1 M-1,1 L1,-1'/>
	<rect id='gpPt3' stroke-width='0.222' stroke='currentColor' x='-1' y='-1' width='2' height='2'/>
	<rect id='gpPt4' stroke-width='0.222' stroke='currentColor' fill='currentColor' x='-1' y='-1' width='2' height='2'/>
	<circle id='gpPt5' stroke-width='0.222' stroke='currentColor' cx='0' cy='0' r='1'/>
	<use xlink:href='#gpPt5' id='gpPt6' fill='currentColor' stroke='none'/>
	<path id='gpPt7' stroke-width='0.222' stroke='currentColor' d='M0,-1.33 L-1.33,0.67 L1.33,0.67 z'/>
	<use xlink:href='#gpPt7' id='gpPt8' fill='currentColor' stroke='none'/>
	<use xlink:href='#gpPt7' id='gpPt9' stroke='currentColor' transform='rotate(180)'/>
	<use xlink:href='#gpPt9' id='gpPt10' fill='currentColor' stroke='none'/>
	<use xlink:href='#gpPt3' id='gpPt11' stroke='currentColor' transform='rotate(45)'/>
	<use xlink:href='#gpPt11' id='gpPt12' fill='currentColor' stroke='none'/>
	<path id='gpPt13' stroke-width='0.222' stroke='currentColor' d='M0,1.330 L1.265,0.411 L0.782,-1.067 L-0.782,-1.076 L-1.265,0.411 z'/>
	<use xlink:href='#gpPt13' id='gpPt14' fill='currentColor' stroke='none'/>
	<filter id='textbox' filterUnits='objectBoundingBox' x='0' y='0' height='1' width='1'>
	  <feFlood flood-color='white' flood-opacity='1' result='bgnd'/>
	  <feComposite in='SourceGraphic' in2='bgnd' operator='atop'/>
	</filter>
	<filter id='greybox' filterUnits='objectBoundingBox' x='0' y='0' height='1' width='1'>
	  <feFlood flood-color='lightgrey' flood-opacity='1' result='grey'/>
	  <feComposite in='SourceGraphic' in2='grey' operator='atop'/>
	</filter>
</defs>
<g fill="none" color="white" stroke="currentColor" stroke-width="1.00" stroke-linecap="butt" stroke-linejoin="miter">
</g>
<g fill="none" color="black" stroke="currentColor" stroke-width="1.00" stroke-linecap="butt" stroke-linejoin="miter">
	<path stroke='black'  d='M71.9,662.4 L80.9,662.4  '/>	<g transform="translate(63.6,666.3)" stroke="none" fill="black" font-family="Helvetica" font-size="12.00"  text-anchor="end">
		<text><tspan font-family="Helvetica" > 0</tspan></text>
	</g>
</g>
<g fill="none" color="black" stroke="currentColor" stroke-width="1.00" stroke-linecap="butt" stroke-linejoin="miter">
	<path stroke='black'  d='M71.9,575.5 L80.9,575.5  '/>	<g transform="translate(63.6,579.4)" stroke="none" fill="black" font-family="Helvetica" font-size="12.00"  text-anchor="end">
		<text><tspan font-family="Helvetica" > 20</tspan></text>
	</g>
</g>
<g fill="none" color="black" stroke="currentColor" stroke-width="1.00" stroke-linecap="butt" stroke-linejoin="miter">
	<path stroke='black'  d='M71.9,488.6 L80.9,488.6  '/>	<g transform="translate(63.6,492.5)" stroke="none" fill="black" font-family="Helvetica" font-size="12.00"  text-anchor="end">
		<text><tspan font-family="Helvetica" > 40</tspan></text>
	</g>
</g>
<g fill="none" color="black" stroke="currentColor" stroke-width="1.00" stroke-linecap="butt" stroke-linejoin="miter">
	<path stroke='black'  d='M71.9,401.7 L80.9,401.7  '/>	<g transform="translate(63.6,405.6)" stroke="none" fill="black" font-family="Helvetica" font-size="12.00"  text-anchor="end">
		<text><tspan font-family="Helvetica" > 60</tspan></text>
	</g>
</g>
<g fill="none" color="black" stroke="currentColor" stroke-width="1.00" stroke-linecap="butt" stroke-linejoin="miter">
	<path stroke='black'  d='M71.9,314.8 L80.9,314.8  '/>	<g transform="translate(63.6,318.7)" stroke="none" fill="black" font-family="Helvetica" font-size="12.00"  text-anchor="end">
		<text><tspan font-family="Helvetica" > 80</tspan></text>
	</g>
</g>
<g fill="none" color="black" stroke="currentColor" stroke-width="1.00" stroke-linecap="butt" stroke-linejoin="miter">
	<path stroke='black'  d='M71.9,227.9 L80.9,227.9  '/>	<g transform="translate(63.6,231.8)" stroke="none" fill="black" font-family="Helvetica" font-size="12.00"  text-anchor="end">
		<text><tspan font-family="Helvetica" > 100</tspan></text>
	</g>
</g>
<g fill="none" color="black" stroke="currentColor" stroke-width="1.00" stroke-linecap="butt" stroke-linejoin="miter">
	<path stroke='black'  d='M71.9,141.0 L80.9,141.0  '/>	<g transform="translate(63.6,144.9)" stroke="none" fill="black" font-family="Helvetica" font-size="12.00"  text-anchor="end">
		<text><tspan font-family="Helvetica" > 120</tspan></text>
	</g>
</g>
<g fill="none" color="black" stroke="currentColor" stroke-width="1.00" stroke-linecap="butt" stroke-linejoin="miter">
	<path stroke='black'  d='M71.9,54.1 L80.9,54.1  '/>	<g transform="translate(63.6,58.0)" stroke="none" fill="black" font-family="Helvetica" font-size="12.00"  text-anchor="end">
		<text><tspan font-family="Helvetica" > 140</tspan></text>
	</g>
</g>
<g fill="none" color="black" stroke="currentColor" stroke-width="1.00" stroke-linecap="butt" stroke-linejoin="miter">
	<path stroke='black'  d='M148.2,662.4 L148.2,653.4  '/>	<g transform="translate(148.2,684.3)" stroke="none" fill="black" font-family="Helvetica" font-size="12.00"  text-anchor="middle">
		<text><tspan font-family="Helvetica" > 14.122</tspan></text>
	</g>
</g>
<g fill="none" color="black" stroke="currentColor" stroke-width="1.00" stroke-linecap="butt" stroke-linejoin="miter">
	<path stroke='black'  d='M270.9,662.4 L270.9,653.4  '/>	<g transform="translate(270.9,684.3)" stroke="none" fill="black" font-family="Helvetica" font-size="12.00"  text-anchor="middle">
		<text><tspan font-family="Helvetica" > 14.124</tspan></text>
	</g>
</g>
<g fill="none" color="black" stroke="currentColor" stroke-width="1.00" stroke-linecap="butt" stroke-linejoin="miter">
	<path stroke='black'  d='M393.6,662.4 L393.6,653.4  '/>	<g transform="translate(393.6,684.3)" stroke="none" fill="black" font-family="Helvetica" font-size="12.00"  text-anchor="middle">
		<text><tspan font-family="Helvetica" > 14.126</tspan></text>
	</g>
</g>
<g fill="none" color="black" stroke="currentColor" stroke-width="1.00" stroke-linecap="butt" stroke-linejoin="miter">
	<path stroke='black'  d='M516.2,662.4 L516.2,653.4  '/>	<g transform="translate(516.2,684.3)" stroke="none" fill="black" font-family="Helvetica" font-size="12.00"  text-anchor="middle">
		<text><tspan font-family="Helvetica" > 14.128</tspan></text>
	</g>
</g>
<g fill="none" color="black" stroke="currentColor" stroke-width="1.00" stroke-linecap="butt" stroke-linejoin="miter">
	<path stroke='black'  d='M638.9,662.4 L638.9,653.4  '/>	<g transform="translate(638.9,684.3)" stroke="none" fill="black" font-family="Helvetica" font-size="12.00"  text-anchor="middle">
		<text><tspan font-family="Helvetica" > 14.13</tspan></text>
	</g>
</g>
<g fill="none" color="black" stroke="currentColor" stroke-width="1.00" stroke-linecap="butt" stroke-linejoin="miter">
	<path stroke='black'  d='M761.6,662.4 L761.6,653.4  '/>	<g transform="translate(761.6,684.3)" stroke="none" fill="black" font-family="Helvetica" font-size="12.00"  text-anchor="middle">
		<text><tspan font-family="Helvetica" > 14.132</tspan></text>
	</g>
</g>
<g fill="none" color="black" stroke="currentColor" stroke-width="1.00" stroke-linecap="butt" stroke-linejoin="miter">
	<path stroke='black'  d='M884.3,662.4 L884.3,653.4  '/>	<g transform="translate(884.3,684.3)" stroke="none" fill="black" font-family="Helvetica" font-size="12.00"  text-anchor="middle">
		<text><tspan font-family="Helvetica" > 14.134</tspan></text>
	</g>
</g>
<g fill="none" color="black" stroke="currentColor" stroke-width="1.00" stroke-linecap="butt" stroke-linejoin="miter">
	<path stroke='black'  d='M1006.9,662.4 L1006.9,653.4  '/>	<g transform="translate(1006.9,684.3)" stroke="none" fill="black" font-family="Helvetica" font-size="12.00"  text-anchor="middle">
		<text><tspan font-family="Helvetica" > 14.136</tspan></text>
	</g>
</g>
<g fill="none" color="black" stroke="currentColor" stroke-width="1.00" stroke-linecap="butt" stroke-linejoin="miter">
</g>
<g fill="none" color="black" stroke="currentColor" stroke-width="1.00" stroke-linecap="butt" stroke-linejoin="miter">
	<path stroke='black'  d='M71.9,54.1 L71.9,662.4 L1013.6,662.4 L1013.6,54.1 L71.9,54.1 Z  '/></g>
<g fill="none" color="black" stroke="currentColor" stroke-width="1.00" stroke-linecap="butt" stroke-linejoin="miter">
	<g transform="translate(17.0,358.3) rotate(270)" stroke="none" fill="black" font-family="Helvetica" font-size="12.00"  text-anchor="middle">
		<text><tspan font-family="Helvetica" >Density (a.u.)</tspan></text>
	</g>
</g>
<g fill="none" color="black" stroke="currentColor" stroke-width="1.00" stroke-linecap="butt" stroke-linejoin="miter">
	<g transform="translate(542.7,711.3)" stroke="none" fill="black" font-family="Helvetica" font-size="12.00"  text-anchor="middle">
		<text><tspan font-family="Helvetica" >Average time (ms)</tspan></text>
	</g>
</g>
<g fill="none" color="black" stroke="currentColor" stroke-width="1.00" stroke-linecap="butt" stroke-linejoin="miter">
	<g transform="translate(542.7,31.0)" stroke="none" fill="black" font-family="Helvetica" font-size="12.00"  text-anchor="middle">
		<text><tspan font-family="Helvetica" >dlist arena rwlock init no_drop: mean</tspan></text>
	</g>
</g>
	<g id="gnuplot_plot_1" ><title>Bootstrap distribution</title>
<g fill="none" color="white" stroke="black" stroke-width="2.00" stroke-linecap="butt" stroke-linejoin="miter">
</g>
<g fill="none" color="black" stroke="currentColor" stroke-width="2.00" stroke-linecap="butt" stroke-linejoin="miter">
	<g transform="translate(1089.0,67.0)" stroke="none" fill="black" font-family="Helvetica" font-size="12.00"  text-anchor="start">
		<text><tspan font-family="Helvetica" >Bootstrap distribution</tspan></text>
	</g>
</g>
<g fill="none" color="black" stroke="currentColor" stroke-width="2.00" stroke-linecap="butt" stroke-linejoin="miter">
	<path stroke='rgb( 31, 120, 180)'  d='M1038.5,63.1 L1080.7,63.1 M71.9,631.0 L73.8,630.1 L75.7,629.2 L77.6,628.4 L79.4,627.4 L81.3,626.5
		L83.2,625.6 L85.1,624.7 L87.0,623.7 L88.9,622.8 L90.8,621.8 L92.7,620.8 L94.5,619.9 L96.4,618.9
		L98.3,617.9 L100.2,617.0 L102.1,616.0 L104.0,615.0 L105.9,613.9 L107.8,612.9 L109.6,611.8 L111.5,610.8
		L113.4,609.7 L115.3,608.6 L117.2,607.4 L119.1,606.3 L121.0,605.1 L122.9,603.9 L124.7,602.6 L126.6,601.4
		L128.5,600.1 L130.4,598.8 L132.3,597.5 L134.2,596.2 L136.1,594.9 L138.0,593.5 L139.8,592.2 L141.7,590.8
		L143.6,589.4 L145.5,588.1 L147.4,586.7 L149.3,585.3 L151.2,583.9 L153.0,582.5 L154.9,581.1 L156.8,579.7
		L158.7,578.3 L160.6,576.9 L162.5,575.5 L164.4,574.0 L166.3,572.6 L168.1,571.1 L170.0,569.5 L171.9,568.0
		L173.8,566.4 L175.7,564.8 L177.6,563.1 L179.5,561.5 L181.4,559.7 L183.2,557.9 L185.1,556.1 L187.0,554.2
		L188.9,552.3 L190.8,550.3 L192.7,548.3 L194.6,546.2 L196.5,544.1 L198.3,541.9 L200.2,539.6 L202.1,537.3
		L204.0,535.0 L205.9,532.6 L207.8,530.2 L209.7,527.7 L211.6,525.2 L213.4,522.7 L215.3,520.2 L217.2,517.6
		L219.1,515.0 L221.0,512.3 L222.9,509.7 L224.8,507.0 L226.6,504.3 L228.5,501.6 L230.4,498.9 L232.3,496.2
		L234.2,493.4 L236.1,490.6 L238.0,487.8 L239.9,485.0 L241.7,482.2 L243.6,479.4 L245.5,476.6 L247.4,473.7
		L249.3,470.9 L251.2,468.0 L253.1,465.1 L255.0,462.2 L256.8,459.3 L258.7,456.4 L260.6,453.4 L262.5,450.5
		L264.4,447.5 L266.3,444.5 L268.2,441.5 L270.1,438.5 L271.9,435.5 L273.8,432.4 L275.7,429.4 L277.6,426.3
		L279.5,423.2 L281.4,420.1 L283.3,416.9 L285.2,413.8 L287.0,410.6 L288.9,407.5 L290.8,404.3 L292.7,401.2
		L294.6,398.0 L296.5,394.8 L298.4,391.7 L300.2,388.5 L302.1,385.4 L304.0,382.3 L305.9,379.2 L307.8,376.1
		L309.7,373.1 L311.6,370.1 L313.5,367.1 L315.3,364.1 L317.2,361.2 L319.1,358.3 L321.0,355.4 L322.9,352.6
		L324.8,349.8 L326.7,347.0 L328.6,344.2 L330.4,341.5 L332.3,338.7 L334.2,336.0 L336.1,333.2 L338.0,330.5
		L339.9,327.7 L341.8,325.0 L343.7,322.2 L345.5,319.4 L347.4,316.5 L349.3,313.6 L351.2,310.6 L353.1,307.7
		L355.0,304.6 L356.9,301.5 L358.8,298.4 L360.6,295.2 L362.5,292.0 L364.4,288.7 L366.3,285.4 L368.2,282.1
		L370.1,278.7 L372.0,275.4 L373.8,272.0 L375.7,268.6 L377.6,265.3 L379.5,261.9 L381.4,258.6 L383.3,255.3
		L385.2,252.1 L387.1,248.9 L388.9,245.7 L390.8,242.7 L392.7,239.6 L394.6,236.7 L396.5,233.8 L398.4,231.0
		L400.3,228.3 L402.2,225.6 L404.0,223.0 L405.9,220.5 L407.8,218.0 L409.7,215.5 L411.6,213.1 L413.5,210.8
		L415.4,208.5 L417.3,206.2 L419.1,203.9 L421.0,201.7 L422.9,199.5 L424.8,197.3 L426.7,195.1 L428.6,192.9
		L430.5,190.7 L432.4,188.6 L434.2,186.5 L436.1,184.4 L438.0,182.3 L439.9,180.2 L441.8,178.2 L443.7,176.2
		L445.6,174.2 L447.4,172.2 L449.3,170.3 L451.2,168.4 L453.1,166.6 L455.0,164.8 L456.9,163.0 L458.8,161.2
		L460.7,159.4 L462.5,157.7 L464.4,156.0 L466.3,154.3 L468.2,152.6 L470.1,150.9 L472.0,149.2 L473.9,147.5
		L475.8,145.9 L477.6,144.2 L479.5,142.5 L481.4,140.9 L483.3,139.3 L485.2,137.7 L487.1,136.1 L489.0,134.6
		L490.9,133.2 L492.7,131.8 L494.6,130.4 L496.5,129.2 L498.4,128.0 L500.3,126.9 L502.2,125.9 L504.1,125.0
		L506.0,124.1 L507.8,123.4 L509.7,122.8 L511.6,122.2 L513.5,121.7 L515.4,121.4 L517.3,121.1 L519.2,120.8
		L521.0,120.7 L522.9,120.6 L524.8,120.6 L526.7,120.7 L528.6,120.8 L530.5,121.0 L532.4,121.2 L534.3,121.5
		L536.1,121.8 L538.0,122.2 L539.9,122.7 L541.8,123.1 L543.7,123.7 L545.6,124.3 L547.5,124.9 L549.4,125.6
		L551.2,126.3 L553.1,127.1 L555.0,127.9 L556.9,128.7 L558.8,129.6 L560.7,130.5 L562.6,131.5 L564.5,132.4
		L566.3,133.5 L568.2,134.5 L570.1,135.6 L572.0,136.8 L573.9,138.0 L575.8,139.2 L577.7,140.5 L579.5,141.8
		L581.4,143.2 L583.3,144.7 L585.2,146.2 L587.1,147.7 L589.0,149.3 L590.9,150.9 L592.8,152.6 L594.6,154.3
		L596.5,156.0 L598.4,157.8 L600.3,159.6 L602.2,161.3 L604.1,163.1 L606.0,165.0 L607.9,166.8 L609.7,168.6
		L611.6,170.5 L613.5,172.3 L615.4,174.2 L617.3,176.1 L619.2,177.9 L621.1,179.8 L623.0,181.8 L624.8,183.7
		L626.7,185.7 L628.6,187.7 L630.5,189.7 L632.4,191.8 L634.3,193.9 L636.2,196.1 L638.1,198.3 L639.9,200.5
		L641.8,202.8 L643.7,205.1 L645.6,207.5 L647.5,210.0 L649.4,212.4 L651.3,214.9 L653.1,217.5 L655.0,220.1
		L656.9,222.8 L658.8,225.5 L660.7,228.2 L662.6,230.9 L664.5,233.7 L666.4,236.5 L668.2,239.4 L670.1,242.2
		L672.0,245.1 L673.9,247.9 L675.8,250.8 L677.7,253.7 L679.6,256.6 L681.5,259.5 L683.3,262.4 L685.2,265.3
		L687.1,268.2 L689.0,271.1 L690.9,274.0 L692.8,276.9 L694.7,279.8 L696.6,282.8 L698.4,285.8 L700.3,288.8
		L702.2,291.8 L704.1,294.9 L706.0,297.9 L707.9,301.1 L709.8,304.2 L711.7,307.3 L713.5,310.5 L715.4,313.7
		L717.3,316.9 L719.2,320.1 L721.1,323.2 L723.0,326.4 L724.9,329.6 L726.7,332.7 L728.6,335.8 L730.5,338.9
		L732.4,341.9 L734.3,344.9 L736.2,347.9 L738.1,350.9 L740.0,353.8 L741.8,356.7 L743.7,359.6 L745.6,362.4
		L747.5,365.3 L749.4,368.1 L751.3,371.0 L753.2,373.9 L755.1,376.7 L756.9,379.6 L758.8,382.6 L760.7,385.5
		L762.6,388.4 L764.5,391.4 L766.4,394.4 L768.3,397.4 L770.2,400.4 L772.0,403.4 L773.9,406.4 L775.8,409.4
		L777.7,412.4 L779.6,415.4 L781.5,418.4 L783.4,421.3 L785.3,424.2 L787.1,427.1 L789.0,429.9 L790.9,432.7
		L792.8,435.5 L794.7,438.2 L796.6,440.9 L798.5,443.6 L800.3,446.3 L802.2,448.9 L804.1,451.5 L806.0,454.1
		L807.9,456.7 L809.8,459.3 L811.7,461.9 L813.6,464.5 L815.4,467.1 L817.3,469.7 L819.2,472.3 L821.1,474.9
		L823.0,477.5 L824.9,480.2 L826.8,482.8 L828.7,485.5 L830.5,488.1 L832.4,490.8 L834.3,493.4 L836.2,496.0
		L838.1,498.6 L840.0,501.2 L841.9,503.7 L843.8,506.2 L845.6,508.6 L847.5,511.0 L849.4,513.4 L851.3,515.7
		L853.2,518.0 L855.1,520.1 L857.0,522.3 L858.9,524.4 L860.7,526.4 L862.6,528.3 L864.5,530.3 L866.4,532.1
		L868.3,533.9 L870.2,535.7 L872.1,537.4 L873.9,539.1 L875.8,540.8 L877.7,542.4 L879.6,544.0 L881.5,545.6
		L883.4,547.1 L885.3,548.6 L887.2,550.1 L889.0,551.7 L890.9,553.1 L892.8,554.6 L894.7,556.1 L896.6,557.6
		L898.5,559.1 L900.4,560.6 L902.3,562.0 L904.1,563.5 L906.0,565.0 L907.9,566.5 L909.8,568.0 L911.7,569.5
		L913.6,571.1 L915.5,572.6 L917.4,574.1 L919.2,575.7 L921.1,577.2 L923.0,578.8 L924.9,580.3 L926.8,581.9
		L928.7,583.4 L930.6,585.0 L932.5,586.5 L934.3,588.1 L936.2,589.6 L938.1,591.1 L940.0,592.6 L941.9,594.0
		L943.8,595.5 L945.7,596.9 L947.5,598.3 L949.4,599.7 L951.3,601.0 L953.2,602.3 L955.1,603.6 L957.0,604.9
		L958.9,606.1 L960.8,607.3 L962.6,608.5 L964.5,609.7 L966.4,610.8 L968.3,611.9 L970.2,613.0 L972.1,614.1
		L974.0,615.1 L975.9,616.1 L977.7,617.1 L979.6,618.0 L981.5,619.0 L983.4,619.9 L985.3,620.8 L987.2,621.6
		L989.1,622.4 L991.0,623.2 L992.8,624.0 L994.7,624.8 L996.6,625.5 L998.5,626.2 L1000.4,626.9 L1002.3,627.6
		L1004.2,628.2 L1006.1,628.8 L1007.9,629.5 L1009.8,630.1 L1011.7,630.7 L1013.6,631.2  '/></g>
	</g>
	<g id="gnuplot_plot_2" ><title>Confidence interval</title>
<g fill="none" color="white" stroke="rgb( 31, 120, 180)" stroke-width="1.00" stroke-linecap="butt" stroke-linejoin="miter">
</g>
<g fill="none" color="black" stroke="currentColor" stroke-width="1.00" stroke-linecap="butt" stroke-linejoin="miter">
	<g transform="translate(1089.0,85.0)" stroke="none" fill="black" font-family="Helvetica" font-size="12.00"  text-anchor="start">
		<text><tspan font-family="Helvetica" >Confidence interval</tspan></text>
	</g>
</g>
<g fill="none" color="black" stroke="currentColor" stroke-width="1.00" stroke-linecap="butt" stroke-linejoin="miter">
	<g stroke='none' shape-rendering='crispEdges'>
		<polygon fill = 'rgb( 31, 120, 180)' fill-opacity = '0.250000' points = '1038.5,85.6 1080.7,85.6 1080.7,76.6 1038.5,76.6 '/>
		<polygon fill = 'rgb( 31, 120, 180)' fill-opacity = '0.250000' points = '158.7,578.3 158.7,662.4 160.6,662.4 160.6,576.9 '/>
		<polygon fill = 'rgb( 31, 120, 180)' fill-opacity = '0.250000' points = '160.6,576.9 160.6,662.4 162.5,662.4 162.5,575.5 '/>
		<polygon fill = 'rgb( 31, 120, 180)' fill-opacity = '0.250000' points = '162.5,575.5 162.5,662.4 164.4,662.4 164.4,574.0 '/>
		<polygon fill = 'rgb( 31, 120, 180)' fill-opacity = '0.250000' points = '164.4,574.0 164.4,662.4 166.3,662.4 166.3,572.6 '/>
		<polygon fill = 'rgb( 31, 120, 180)' fill-opacity = '0.250000' points = '166.3,572.6 166.3,662.4 168.1,662.4 168.1,571.1 '/>
		<polygon fill = 'rgb( 31, 120, 180)' fill-opacity = '0.250000' points = '168.1,571.1 168.1,662.4 170.0,662.4 170.0,569.5 '/>
		<polygon fill = 'rgb( 31, 120, 180)' fill-opacity = '0.250000' points = '170.0,569.5 170.0,662.4 171.9,662.4 171.9,568.0 '/>
		<polygon fill = 'rgb( 31, 120, 180)' fill-opacity = '0.250000' points = '171.9,568.0 171.9,662.4 173.8,662.4 173.8,566.4 '/>
		<polygon fill = 'rgb( 31, 120, 180)' fill-opacity = '0.250000' points = '173.8,566.4 173.8,662.4 175.7,662.4 175.7,564.8 '/>
		<polygon fill = 'rgb( 31, 120, 180)' fill-opacity = '0.250000' points = '175.7,564.8 175.7,662.4 177.6,662.4 177.6,563.1 '/>
		<polygon fill = 'rgb( 31, 120, 180)' fill-opacity = '0.250000' points = '177.6,563.1 177.6,662.4 179.5,662.4 179.5,561.5 '/>
		<polygon fill = 'rgb( 31, 120, 180)' fill-opacity = '0.250000' points = '179.5,561.5 179.5,662.4 181.4,662.4 181.4,559.7 '/>
		<polygon fill = 'rgb( 31, 120, 180)' fill-opacity = '0.250000' points = '181.4,559.7 181.4,662.4 183.2,662.4 183.2,557.9 '/>
		<polygon fill = 'rgb( 31, 120, 180)' fill-opacity = '0.250000' points = '183.2,557.9 183.2,662.4 185.1,662.4 185.1,556.1 '/>
		<polygon fill = 'rgb( 31, 120, 180)' fill-opacity = '0.250000' points = '185.1,556.1 185.1,662.4 187.0,662.4 187.0,554.2 '/>
		<polygon fill = 'rgb( 31, 120, 180)' fill-opacity = '0.250000' points = '187.0,554.2 187.0,662.4 188.9,662.4 188.9,552.3 '/>
		<polygon fill = 'rgb( 31, 120, 180)' fill-opacity = '0.250000' points = '188.9,552.3 188.9,662.4 190.8,662.4 190.8,550.3 '/>
		<polygon fill = 'rgb( 31, 120, 180)' fill-opacity = '0.250000' points = '190.8,550.3 190.8,662.4 192.7,662.4 192.7,548.3 '/>
		<polygon fill = 'rgb( 31, 120, 180)' fill-opacity = '0.250000' points = '192.7,548.3 192.7,662.4 194.6,662.4 194.6,546.2 '/>
		<polygon fill = 'rgb( 31, 120, 180)' fill-opacity = '0.250000' points = '194.6,546.2 194.6,662.4 196.5,662.4 196.5,544.1 '/>
		<polygon fill = 'rgb( 31, 120, 180)' fill-opacity = '0.250000' points = '196.5,544.1 196.5,662.4 198.3,662.4 198.3,541.9 '/>
		<polygon fill = 'rgb( 31, 120, 180)' fill-opacity = '0.250000' points = '198.3,541.9 198.3,662.4 200.2,662.4 200.2,539.6 '/>
		<polygon fill = 'rgb( 31, 120, 180)' fill-opacity = '0.250000' points = '200.2,539.6 200.2,662.4 202.1,662.4 202.1,537.3 '/>
		<polygon fill = 'rgb( 31, 120, 180)' fill-opacity = '0.250000' points = '202.1,537.3 202.1,662.4 204.0,662.4 204.0,535.0 '/>
		<polygon fill = 'rgb( 31, 120, 180)' fill-opacity = '0.250000' points = '204.0,535.0 204.0,662.4 205.9,662.4 205.9,532.6 '/>
		<polygon fill = 'rgb( 31, 120, 180)' fill-opacity = '0.250000' points = '205.9,532.6 205.9,662.4 207.8,662.4 207.8,530.2 '/>
		<polygon fill = 'rgb( 31, 120, 180)' fill-opacity = '0.250000' points = '207.8,530.2 207.8,662.4 209.7,662.4 209.7,527.7 '/>
		<polygon fill = 'rgb( 31, 120, 180)' fill-opacity = '0.250000' points = '209.7,527.7 209.7,662.4 211.6,662.4 211.6,525.2 '/>
		<polygon fill = 'rgb( 31, 120, 180)' fill-opacity = '0.250000' points = '211.6,525.2 211.6,662.4 213.4,662.4 213.4,522.7 '/>
		<polygon fill = 'rgb( 31, 120, 180)' fill-opacity = '0.250000' points = '213.4,522.7 213.4,662.4 215.3,662.4 215.3,520.2 '/>
		<polygon fill = 'rgb( 31, 120, 180)' fill-opacity = '0.250000' points = '215.3,520.2 215.3,662.4 217.2,662.4 217.2,517.6 '/>
		<polygon fill = 'rgb( 31, 120, 180)' fill-opacity = '0.250000' points = '217.2,517.6 217.2,662.4 219.1,662.4 219.1,515.0 '/>
		<polygon fill = 'rgb( 31, 120, 180)' fill-opacity = '0.250000' points = '219.1,515.0 219.1,662.4 221.0,662.4 221.0,512.3 '/>
		<polygon fill = 'rgb( 31, 120, 180)' fill-opacity = '0.250000' points = '221.0,512.3 221.0,662.4 222.9,662.4 222.9,509.7 '/>
		<polygon fill = 'rgb( 31, 120, 180)' fill-opacity = '0.250000' points = '222.9,509.7 222.9,662.4 224.8,662.4 224.8,507.0 '/>
		<polygon fill = 'rgb( 31, 120, 180)' fill-opacity = '0.250000' points = '224.8,507.0 224.8,662.4 226.6,662.4 226.6,504.3 '/>
		<polygon fill = 'rgb( 31, 120, 180)' fill-opacity = '0.250000' points = '226.6,504.3 226.6,662.4 228.5,662.4 228.5,501.6 '/>
		<polygon fill = 'rgb( 31, 120, 180)' fill-opacity = '0.250000' points = '228.5,501.6 228.5,662.4 230.4,662.4 230.4,498.9 '/>
		<polygon fill = 'rgb( 31, 120, 180)' fill-opacity = '0.250000' points = '230.4,498.9 230.4,662.4 232.3,662.4 232.3,496.2 '/>
		<polygon fill = 'rgb( 31, 120, 180)' fill-opacity = '0.250000' points = '232.3,496.2 232.3,662.4 234.2,662.4 234.2,493.4 '/>
		<polygon fill = 'rgb( 31, 120, 180)' fill-opacity = '0.250000' points = '234.2,493.4 234.2,662.4 236.1,662.4 236.1,490.6 '/>
		<polygon fill = 'rgb( 31, 120, 180)' fill-opacity = '0.250000' points = '236.1,490.6 236.1,662.4 238.0,662.4 238.0,487.8 '/>
		<polygon fill = 'rgb( 31, 120, 180)' fill-opacity = '0.250000' points = '238.0,487.8 238.0,662.4 239.9,662.4 239.9,485.0 '/>
		<polygon fill = 'rgb( 31, 120, 180)' fill-opacity = '0.250000' points = '239.9,485.0 239.9,662.4 241.7,662.4 241.7,482.2 '/>
		<polygon fill = 'rgb( 31, 120, 180)' fill-opacity = '0.250000' points = '241.7,482.2 241.7,662.4 243.6,662.4 243.6,479.4 '/>
		<polygon fill = 'rgb( 31, 120, 180)' fill-opacity = '0.250000' points = '243.6,479.4 243.6,662.4 245.5,662.4 245.5,476.6 '/>
		<polygon fill = 'rgb( 31, 120, 180)' fill-opacity = '0.250000' points = '245.5,476.6 245.5,662.4 247.4,662.4 247.4,473.7 '/>
		<polygon fill = 'rgb( 31, 120, 180)' fill-opacity = '0.250000' points = '247.4,473.7 247.4,662.4 249.3,662.4 249.3,470.9 '/>
		<polygon fill = 'rgb( 31, 120, 180)' fill-opacity = '0.250000' points = '249.3,470.9 249.3,662.4 251.2,662.4 251.2,468.0 '/>
		<polygon fill = 'rgb( 31, 120, 180)' fill-opacity = '0.250000' points = '251.2,468.0 251.2,662.4 253.1,662.4 253.1,465.1 '/>
		<polygon fill = 'rgb( 31, 120, 180)' fill-opacity = '0.250000' points = '253.1,465.1 253.1,662.4 255.0,662.4 255.0,462.2 '/>
		<polygon fill = 'rgb( 31, 120, 180)' fill-opacity = '0.250000' points = '255.0,462.2 255.0,662.4 256.8,662.4 256.8,459.3 '/>
		<polygon fill = 'rgb( 31, 120, 180)' fill-opacity = '0.250000' points = '256.8,459.3 256.8,662.4 258.7,662.4 258.7,456.4 '/>
		<polygon fill = 'rgb( 31, 120, 180)' fill-opacity = '0.250000' points = '258.7,456.4 258.7,662.4 260.6,662.4 260.6,453.4 '/>
		<polygon fill = 'rgb( 31, 120, 180)' fill-opacity = '0.250000' points = '260.6,453.4 260.6,662.4 262.5,662.4 262.5,450.5 '/>
		<polygon fill = 'rgb( 31, 120, 180)' fill-opacity = '0.250000' points = '262.5,450.5 262.5,662.4 264.4,662.4 264.4,447.5 '/>
		<polygon fill = 'rgb( 31, 120, 180)' fill-opacity = '0.250000' points = '264.4,447.5 264.4,662.4 266.3,662.4 266.3,444.5 '/>
		<polygon fill = 'rgb( 31, 120, 180)' fill-opacity = '0.250000' points = '266.3,444.5 266.3,662.4 268.2,662.4 268.2,441.5 '/>
		<polygon fill = 'rgb( 31, 120, 180)' fill-opacity = '0.250000' points = '268.2,441.5 268.2,662.4 270.1,662.4 270.1,438.5 '/>
		<polygon fill = 'rgb( 31, 120, 180)' fill-opacity = '0.250000' points = '270.1,438.5 270.1,662.4 271.9,662.4 271.9,435.5 '/>
		<polygon fill = 'rgb( 31, 120, 180)' fill-opacity = '0.250000' points = '271.9,435.5 271.9,662.4 273.8,662.4 273.8,432.4 '/>
		<polygon fill = 'rgb( 31, 120, 180)' fill-opacity = '0.250000' points = '273.8,432.4 273.8,662.4 275.7,662.4 275.7,429.4 '/>
		<polygon fill = 'rgb( 31, 120, 180)' fill-opacity = '0.250000' points = '275.7,429.4 275.7,662.4 277.6,662.4 277.6,426.3 '/>
		<polygon fill = 'rgb( 31, 120, 180)' fill-opacity = '0.250000' points = '277.6,426.3 277.6,662.4 279.5,662.4 279.5,423.2 '/>
		<polygon fill = 'rgb( 31, 120, 180)' fill-opacity = '0.250000' points = '279.5,423.2 279.5,662.4 281.4,662.4 281.4,420.1 '/>
		<polygon fill = 'rgb( 31, 120, 180)' fill-opacity = '0.250000' points = '281.4,420.1 281.4,662.4 283.3,662.4 283.3,416.9 '/>
		<polygon fill = 'rgb( 31, 120, 180)' fill-opacity = '0.250000' points = '283.3,416.9 283.3,662.4 285.2,662.4 285.2,413.8 '/>
		<polygon fill = 'rgb( 31, 120, 180)' fill-opacity = '0.250000' points = '285.2,413.8 285.2,662.4 287.0,662.4 287.0,410.6 '/>
		<polygon fill = 'rgb( 31, 120, 180)' fill-opacity = '0.250000' points = '287.0,410.6 287.0,662.4 288.9,662.4 288.9,407.5 '/>
		<polygon fill = 'rgb( 31, 120, 180)' fill-opacity = '0.250000' points = '288.9,407.5 288.9,662.4 290.8,662.4 290.8,404.3 '/>
		<polygon fill = 'rgb( 31, 120, 180)' fill-opacity = '0.250000' points = '290.8,404.3 290.8,662.4 292.7,662.4 292.7,401.2 '/>
		<polygon fill = 'rgb( 31, 120, 180)' fill-opacity = '0.250000' points = '292.7,401.2 292.7,662.4 294.6,662.4 294.6,398.0 '/>
		<polygon fill = 'rgb( 31, 120, 180)' fill-opacity = '0.250000' points = '294.6,398.0 294.6,662.4 296.5,662.4 296.5,394.8 '/>
		<polygon fill = 'rgb( 31, 120, 180)' fill-opacity = '0.250000' points = '296.5,394.8 296.5,662.4 298.4,662.4 298.4,391.7 '/>
		<polygon fill = 'rgb( 31, 120, 180)' fill-opacity = '0.250000' points = '298.4,391.7 298.4,662.4 300.2,662.4 300.2,388.5 '/>
		<polygon fill = 'rgb( 31, 120, 180)' fill-opacity = '0.250000' points = '300.2,388.5 300.2,662.4 302.1,662.4 302.1,385.4 '/>
		<polygon fill = 'rgb( 31, 120, 180)' fill-opacity = '0.250000' points = '302.1,385.4 302.1,662.4 304.0,662.4 304.0,382.3 '/>
		<polygon fill = 'rgb( 31, 120, 180)' fill-opacity = '0.250000' points = '304.0,382.3 304.0,662.4 305.9,662.4 305.9,379.2 '/>
		<polygon fill = 'rgb( 31, 120, 180)' fill-opacity = '0.250000' points = '305.9,379.2 305.9,662.4 307.8,662.4 307.8,376.1 '/>
		<polygon fill = 'rgb( 31, 120, 180)' fill-opacity = '0.250000' points = '307.8,376.1 307.8,662.4 309.7,662.4 309.7,373.1 '/>
		<polygon fill = 'rgb( 31, 120, 180)' fill-opacity = '0.250000' points = '309.7,373.1 309.7,662.4 311.6,662.4 311.6,370.1 '/>
		<polygon fill = 'rgb( 31, 120, 180)' fill-opacity = '0.250000' points = '311.6,370.1 311.6,662.4 313.5,662.4 313.5,367.1 '/>
		<polygon fill = 'rgb( 31, 120, 180)' fill-opacity = '0.250000' points = '313.5,367.1 313.5,662.4 315.3,662.4 315.3,364.1 '/>
		<polygon fill = 'rgb( 31, 120, 180)' fill-opacity = '0.250000' points = '315.3,364.1 315.3,662.4 317.2,662.4 317.2,361.2 '/>
		<polygon fill = 'rgb( 31, 120, 180)' fill-opacity = '0.250000' points = '317.2,361.2 317.2,662.4 319.1,662.4 319.1,358.3 '/>
		<polygon fill = 'rgb( 31, 120, 180)' fill-opacity = '0.250000' points = '319.1,358.3 319.1,662.4 321.0,662.4 321.0,355.4 '/>
		<polygon fill = 'rgb( 31, 120, 180)' fill-opacity = '0.250000' points = '321.0,355.4 321.0,662.4 322.9,662.4 322.9,352.6 '/>
		<polygon fill = 'rgb( 31, 120, 180)' fill-opacity = '0.250000' points = '322.9,352.6 322.9,662.4 324.8,662.4 324.8,349.8 '/>
		<polygon fill = 'rgb( 31, 120, 180)' fill-opacity = '0.250000' points = '324.8,349.8 324.8,662.4 326.7,662.4 326.7,347.0 '/>
		<polygon fill = 'rgb( 31, 120, 180)' fill-opacity = '0.250000' points = '326.7,347.0 326.7,662.4 328.6,662.4 328.6,344.2 '/>
		<polygon fill = 'rgb( 31, 120, 180)' fill-opacity = '0.250000' points = '328.6,344.2 328.6,662.4 330.4,662.4 330.4,341.5 '/>
		<polygon fill = 'rgb( 31, 120, 180)' fill-opacity = '0.250000' points = '330.4,341.5 330.4,662.4 332.3,662.4 332.3,338.7 '/>
		<polygon fill = 'rgb( 31, 120, 180)' fill-opacity = '0.250000' points = '332.3,338.7 332.3,662.4 334.2,662.4 334.2,336.0 '/>
		<polygon fill = 'rgb( 31, 120, 180)' fill-opacity = '0.250000' points = '334.2,336.0 334.2,662.4 336.1,662.4 336.1,333.2 '/>
		<polygon fill = 'rgb( 31, 120, 180)' fill-opacity = '0.250000' points = '336.1,333.2 336.1,662.4 338.0,662.4 338.0,330.5 '/>
		<polygon fill = 'rgb( 31, 120, 180)' fill-opacity = '0.250000' points = '338.0,330.5 338.0,662.4 339.9,662.4 339.9,327.7 '/>
		<polygon fill = 'rgb( 31, 120, 180)' fill-opacity = '0.250000' points = '339.9,327.7 339.9,662.4 341.8,662.4 341.8,325.0 '/>
		<polygon fill = 'rgb( 31, 120, 180)' fill-opacity = '0.250000' points = '341.8,325.0 341.8,662.4 343.7,662.4 343.7,322.2 '/>
		<polygon fill = 'rgb( 31, 120, 180)' fill-opacity = '0.250000' points = '343.7,322.2 343.7,662.4 345.5,662.4 345.5,319.4 '/>
		<polygon fill = 'rgb( 31, 120, 180)' fill-opacity = '0.250000' points = '345.5,319.4 345.5,662.4 347.4,662.4 347.4,316.5 '/>
		<polygon fill = 'rgb( 31, 120, 180)' fill-opacity = '0.250000' points = '347.4,316.5 347.4,662.4 349.3,662.4 349.3,313.6 '/>
		<polygon fill = 'rgb( 31, 120, 180)' fill-opacity = '0.250000' points = '349.3,313.6 349.3,662.4 351.2,662.4 351.2,310.6 '/>
		<polygon fill = 'rgb( 31, 120, 180)' fill-opacity = '0.250000' points = '351.2,310.6 351.2,662.4 353.1,662.4 353.1,307.7 '/>
		<polygon fill = 'rgb( 31, 120, 180)' fill-opacity = '0.250000' points = '353.1,307.7 353.1,662.4 355.0,662.4 355.0,304.6 '/>
		<polygon fill = 'rgb( 31, 120, 180)' fill-opacity = '0.250000' points = '355.0,304.6 355.0,662.4 356.9,662.4 356.9,301.5 '/>
		<polygon fill = 'rgb( 31, 120, 180)' fill-opacity = '0.250000' points = '356.9,301.5 356.9,662.4 358.8,662.4 358.8,298.4 '/>
		<polygon fill = 'rgb( 31, 120, 180)' fill-opacity = '0.250000' points = '358.8,298.4 358.8,662.4 360.6,662.4 360.6,295.2 '/>
		<polygon fill = 'rgb( 31, 120, 180)' fill-opacity = '0.250000' points = '360.6,295.2 360.6,662.4 362.5,662.4 362.5,292.0 '/>
		<polygon fill = 'rgb( 31, 120, 180)' fill-opacity = '0.250000' points = '362.5,292.0 362.5,662.4 364.4,662.4 364.4,288.7 '/>
		<polygon fill = 'rgb( 31, 120, 180)' fill-opacity = '0.250000' points = '364.4,288.7 364.4,662.4 366.3,662.4 366.3,285.4 '/>
		<polygon fill = 'rgb( 31, 120, 180)' fill-opacity = '0.250000' points = '366.3,285.4 366.3,662.4 368.2,662.4 368.2,282.1 '/>
		<polygon fill = 'rgb( 31, 120, 180)' fill-opacity = '0.250000' points = '368.2,282.1 368.2,662.4 370.1,662.4 370.1,278.7 '/>
		<polygon fill = 'rgb( 31, 120, 180)' fill-opacity = '0.250000' points = '370.1,278.7 370.1,662.4 372.0,662.4 372.0,275.4 '/>
		<polygon fill = 'rgb( 31, 120, 180)' fill-opacity = '0.250000' points = '372.0,275.4 372.0,662.4 373.8,662.4 373.8,272.0 '/>
		<polygon fill = 'rgb( 31, 120, 180)' fill-opacity = '0.250000' points = '373.8,272.0 373.8,662.4 375.7,662.4 375.7,268.6 '/>
		<polygon fill = 'rgb( 31, 120, 180)' fill-opacity = '0.250000' points = '375.7,268.6 375.7,662.4 377.6,662.4 377.6,265.3 '/>
		<polygon fill = 'rgb( 31, 120, 180)' fill-opacity = '0.250000' points = '377.6,265.3 377.6,662.4 379.5,662.4 379.5,261.9 '/>
		<polygon fill = 'rgb( 31, 120, 180)' fill-opacity = '0.250000' points = '379.5,261.9 379.5,662.4 381.4,662.4 381.4,258.6 '/>
		<polygon fill = 'rgb( 31, 120, 180)' fill-opacity = '0.250000' points = '381.4,258.6 381.4,662.4 383.3,662.4 383.3,255.3 '/>
		<polygon fill = 'rgb( 31, 120, 180)' fill-opacity = '0.250000' points = '383.3,255.3 383.3,662.4 385.2,662.4 385.2,252.1 '/>
		<polygon fill = 'rgb( 31, 120, 180)' fill-opacity = '0.250000' points = '385.2,252.1 385.2,662.4 387.1,662.4 387.1,248.9 '/>
		<polygon fill = 'rgb( 31, 120, 180)' fill-opacity = '0.250000' points = '387.1,248.9 387.1,662.4 388.9,662.4 388.9,245.7 '/>
		<polygon fill = 'rgb( 31, 120, 180)' fill-opacity = '0.250000' points = '388.9,245.7 388.9,662.4 390.8,662.4 390.8,242.7 '/>
		<polygon fill = 'rgb( 31, 120, 180)' fill-opacity = '0.250000' points = '390.8,242.7 390.8,662.4 392.7,662.4 392.7,239.6 '/>
		<polygon fill = 'rgb( 31, 120, 180)' fill-opacity = '0.250000' points = '392.7,239.6 392.7,662.4 394.6,662.4 394.6,236.7 '/>
		<polygon fill = 'rgb( 31, 120, 180)' fill-opacity = '0.250000' points = '394.6,236.7 394.6,662.4 396.5,662.4 396.5,233.8 '/>
		<polygon fill = 'rgb( 31, 120, 180)' fill-opacity = '0.250000' points = '396.5,233.8 396.5,662.4 398.4,662.4 398.4,231.0 '/>
		<polygon fill = 'rgb( 31, 120, 180)' fill-opacity = '0.250000' points = '398.4,231.0 398.4,662.4 400.3,662.4 400.3,228.3 '/>
		<polygon fill = 'rgb( 31, 120, 180)' fill-opacity = '0.250000' points = '400.3,228.3 400.3,662.4 402.2,662.4 402.2,225.6 '/>
		<polygon fill = 'rgb( 31, 120, 180)' fill-opacity = '0.250000' points = '402.2,225.6 402.2,662.4 404.0,662.4 404.0,223.0 '/>
		<polygon fill = 'rgb( 31, 120, 180)' fill-opacity = '0.250000' points = '404.0,223.0 404.0,662.4 405.9,662.4 405.9,220.5 '/>
		<polygon fill = 'rgb( 31, 120, 180)' fill-opacity = '0.250000' points = '405.9,220.5 405.9,662.4 407.8,662.4 407.8,218.0 '/>
		<polygon fill = 'rgb( 31, 120, 180)' fill-opacity = '0.250000' points = '407.8,218.0 407.8,662.4 409.7,662.4 409.7,215.5 '/>
		<polygon fill = 'rgb( 31, 120, 180)' fill-opacity = '0.250000' points = '409.7,215.5 409.7,662.4 411.6,662.4 411.6,213.1 '/>
		<polygon fill = 'rgb( 31, 120, 180)' fill-opacity = '0.250000' points = '411.6,213.1 411.6,662.4 413.5,662.4 413.5,210.8 '/>
		<polygon fill = 'rgb( 31, 120, 180)' fill-opacity = '0.250000' points = '413.5,210.8 413.5,662.4 415.4,662.4 415.4,208.5 '/>
		<polygon fill = 'rgb( 31, 120, 180)' fill-opacity = '0.250000' points = '415.4,208.5 415.4,662.4 417.3,662.4 417.3,206.2 '/>
		<polygon fill = 'rgb( 31, 120, 180)' fill-opacity = '0.250000' points = '417.3,206.2 417.3,662.4 419.1,662.4 419.1,203.9 '/>
		<polygon fill = 'rgb( 31, 120, 180)' fill-opacity = '0.250000' points = '419.1,203.9 419.1,662.4 421.0,662.4 421.0,201.7 '/>
		<polygon fill = 'rgb( 31, 120, 180)' fill-opacity = '0.250000' points = '421.0,201.7 421.0,662.4 422.9,662.4 422.9,199.5 '/>
		<polygon fill = 'rgb( 31, 120, 180)' fill-opacity = '0.250000' points = '422.9,199.5 422.9,662.4 424.8,662.4 424.8,197.3 '/>
		<polygon fill = 'rgb( 31, 120, 180)' fill-opacity = '0.250000' points = '424.8,197.3 424.8,662.4 426.7,662.4 426.7,195.1 '/>
		<polygon fill = 'rgb( 31, 120, 180)' fill-opacity = '0.250000' points = '426.7,195.1 426.7,662.4 428.6,662.4 428.6,192.9 '/>
		<polygon fill = 'rgb( 31, 120, 180)' fill-opacity = '0.250000' points = '428.6,192.9 428.6,662.4 430.5,662.4 430.5,190.7 '/>
		<polygon fill = 'rgb( 31, 120, 180)' fill-opacity = '0.250000' points = '430.5,190.7 430.5,662.4 432.4,662.4 432.4,188.6 '/>
		<polygon fill = 'rgb( 31, 120, 180)' fill-opacity = '0.250000' points = '432.4,188.6 432.4,662.4 434.2,662.4 434.2,186.5 '/>
		<polygon fill = 'rgb( 31, 120, 180)' fill-opacity = '0.250000' points = '434.2,186.5 434.2,662.4 436.1,662.4 436.1,184.4 '/>
		<polygon fill = 'rgb( 31, 120, 180)' fill-opacity = '0.250000' points = '436.1,184.4 436.1,662.4 438.0,662.4 438.0,182.3 '/>
		<polygon fill = 'rgb( 31, 120, 180)' fill-opacity = '0.250000' points = '438.0,182.3 438.0,662.4 439.9,662.4 439.9,180.2 '/>
		<polygon fill = 'rgb( 31, 120, 180)' fill-opacity = '0.250000' points = '439.9,180.2 439.9,662.4 441.8,662.4 441.8,178.2 '/>
		<polygon fill = 'rgb( 31, 120, 180)' fill-opacity = '0.250000' points = '441.8,178.2 441.8,662.4 443.7,662.4 443.7,176.2 '/>
		<polygon fill = 'rgb( 31, 120, 180)' fill-opacity = '0.250000' points = '443.7,176.2 443.7,662.4 445.6,662.4 445.6,174.2 '/>
		<polygon fill = 'rgb( 31, 120, 180)' fill-opacity = '0.250000' points = '445.6,174.2 445.6,662.4 447.4,662.4 447.4,172.2 '/>
		<polygon fill = 'rgb( 31, 120, 180)' fill-opacity = '0.250000' points = '447.4,172.2 447.4,662.4 449.3,662.4 449.3,170.3 '/>
		<polygon fill = 'rgb( 31, 120, 180)' fill-opacity = '0.250000' points = '449.3,170.3 449.3,662.4 451.2,662.4 451.2,168.4 '/>
		<polygon fill = 'rgb( 31, 120, 180)' fill-opacity = '0.250000' points = '451.2,168.4 451.2,662.4 453.1,662.4 453.1,166.6 '/>
		<polygon fill = 'rgb( 31, 120, 180)' fill-opacity = '0.250000' points = '453.1,166.6 453.1,662.4 455.0,662.4 455.0,164.8 '/>
		<polygon fill = 'rgb( 31, 120, 180)' fill-opacity = '0.250000' points = '455.0,164.8 455.0,662.4 456.9,662.4 456.9,163.0 '/>
		<polygon fill = 'rgb( 31, 120, 180)' fill-opacity = '0.250000' points = '456.9,163.0 456.9,662.4 458.8,662.4 458.8,161.2 '/>
		<polygon fill = 'rgb( 31, 120, 180)' fill-opacity = '0.250000' points = '458.8,161.2 458.8,662.4 460.7,662.4 460.7,159.4 '/>
		<polygon fill = 'rgb( 31, 120, 180)' fill-opacity = '0.250000' points = '460.7,159.4 460.7,662.4 462.5,662.4 462.5,157.7 '/>
		<polygon fill = 'rgb( 31, 120, 180)' fill-opacity = '0.250000' points = '462.5,157.7 462.5,662.4 464.4,662.4 464.4,156.0 '/>
		<polygon fill = 'rgb( 31, 120, 180)' fill-opacity = '0.250000' points = '464.4,156.0 464.4,662.4 466.3,662.4 466.3,154.3 '/>
		<polygon fill = 'rgb( 31, 120, 180)' fill-opacity = '0.250000' points = '466.3,154.3 466.3,662.4 468.2,662.4 468.2,152.6 '/>
		<polygon fill = 'rgb( 31, 120, 180)' fill-opacity = '0.250000' points = '468.2,152.6 468.2,662.4 470.1,662.4 470.1,150.9 '/>
		<polygon fill = 'rgb( 31, 120, 180)' fill-opacity = '0.250000' points = '470.1,150.9 470.1,662.4 472.0,662.4 472.0,149.2 '/>
		<polygon fill = 'rgb( 31, 120, 180)' fill-opacity = '0.250000' points = '472.0,149.2 472.0,662.4 473.9,662.4 473.9,147.5 '/>
		<polygon fill = 'rgb( 31, 120, 180)' fill-opacity = '0.250000' points = '473.9,147.5 473.9,662.4 475.8,662.4 475.8,145.9 '/>
		<polygon fill = 'rgb( 31, 120, 180)' fill-opacity = '0.250000' points = '475.8,145.9 475.8,662.4 477.6,662.4 477.6,144.2 '/>
		<polygon fill = 'rgb( 31, 120, 180)' fill-opacity = '0.250000' points = '477.6,144.2 477.6,662.4 479.5,662.4 479.5,142.5 '/>
		<polygon fill = 'rgb( 31, 120, 180)' fill-opacity = '0.250000' points = '479.5,142.5 479.5,662.4 481.4,662.4 481.4,140.9 '/>
		<polygon fill = 'rgb( 31, 120, 180)' fill-opacity = '0.250000' points = '481.4,140.9 481.4,662.4 483.3,662.4 483.3,139.3 '/>
		<polygon fill = 'rgb( 31, 120, 180)' fill-opacity = '0.250000' points = '483.3,139.3 483.3,662.4 485.2,662.4 485.2,137.7 '/>
		<polygon fill = 'rgb( 31, 120, 180)' fill-opacity = '0.250000' points = '485.2,137.7 485.2,662.4 487.1,662.4 487.1,136.1 '/>
		<polygon fill = 'rgb( 31, 120, 180)' fill-opacity = '0.250000' points = '487.1,136.1 487.1,662.4 489.0,662.4 489.0,134.6 '/>
		<polygon fill = 'rgb( 31, 120, 180)' fill-opacity = '0.250000' points = '489.0,134.6 489.0,662.4 490.9,662.4 490.9,133.2 '/>
		<polygon fill = 'rgb( 31, 120, 180)' fill-opacity = '0.250000' points = '490.9,133.2 490.9,662.4 492.7,662.4 492.7,131.8 '/>
		<polygon fill = 'rgb( 31, 120, 180)' fill-opacity = '0.250000' points = '492.7,131.8 492.7,662.4 494.6,662.4 494.6,130.4 '/>
		<polygon fill = 'rgb( 31, 120, 180)' fill-opacity = '0.250000' points = '494.6,130.4 494.6,662.4 496.5,662.4 496.5,129.2 '/>
		<polygon fill = 'rgb( 31, 120, 180)' fill-opacity = '0.250000' points = '496.5,129.2 496.5,662.4 498.4,662.4 498.4,128.0 '/>
		<polygon fill = 'rgb( 31, 120, 180)' fill-opacity = '0.250000' points = '498.4,128.0 498.4,662.4 500.3,662.4 500.3,126.9 '/>
		<polygon fill = 'rgb( 31, 120, 180)' fill-opacity = '0.250000' points = '500.3,126.9 500.3,662.4 502.2,662.4 502.2,125.9 '/>
		<polygon fill = 'rgb( 31, 120, 180)' fill-opacity = '0.250000' points = '502.2,125.9 502.2,662.4 504.1,662.4 504.1,125.0 '/>
		<polygon fill = 'rgb( 31, 120, 180)' fill-opacity = '0.250000' points = '504.1,125.0 504.1,662.4 506.0,662.4 506.0,124.1 '/>
		<polygon fill = 'rgb( 31, 120, 180)' fill-opacity = '0.250000' points = '506.0,124.1 506.0,662.4 507.8,662.4 507.8,123.4 '/>
		<polygon fill = 'rgb( 31, 120, 180)' fill-opacity = '0.250000' points = '507.8,123.4 507.8,662.4 509.7,662.4 509.7,122.8 '/>
		<polygon fill = 'rgb( 31, 120, 180)' fill-opacity = '0.250000' points = '509.7,122.8 509.7,662.4 511.6,662.4 511.6,122.2 '/>
		<polygon fill = 'rgb( 31, 120, 180)' fill-opacity = '0.250000' points = '511.6,122.2 511.6,662.4 513.5,662.4 513.5,121.7 '/>
		<polygon fill = 'rgb( 31, 120, 180)' fill-opacity = '0.250000' points = '513.5,121.7 513.5,662.4 515.4,662.4 515.4,121.4 '/>
		<polygon fill = 'rgb( 31, 120, 180)' fill-opacity = '0.250000' points = '515.4,121.4 515.4,662.4 517.3,662.4 517.3,121.1 '/>
		<polygon fill = 'rgb( 31, 120, 180)' fill-opacity = '0.250000' points = '517.3,121.1 517.3,662.4 519.2,662.4 519.2,120.8 '/>
		<polygon fill = 'rgb( 31, 120, 180)' fill-opacity = '0.250000' points = '519.2,120.8 519.2,662.4 521.0,662.4 521.0,120.7 '/>
		<polygon fill = 'rgb( 31, 120, 180)' fill-opacity = '0.250000' points = '521.0,120.7 521.0,662.4 522.9,662.4 522.9,120.6 '/>
		<polygon fill = 'rgb( 31, 120, 180)' fill-opacity = '0.250000' points = '522.9,120.6 522.9,662.4 524.8,662.4 524.8,120.6 '/>
		<polygon fill = 'rgb( 31, 120, 180)' fill-opacity = '0.250000' points = '524.8,120.6 524.8,662.4 526.7,662.4 526.7,120.7 '/>
		<polygon fill = 'rgb( 31, 120, 180)' fill-opacity = '0.250000' points = '526.7,120.7 526.7,662.4 528.6,662.4 528.6,120.8 '/>
		<polygon fill = 'rgb( 31, 120, 180)' fill-opacity = '0.250000' points = '528.6,120.8 528.6,662.4 530.5,662.4 530.5,121.0 '/>
		<polygon fill = 'rgb( 31, 120, 180)' fill-opacity = '0.250000' points = '530.5,121.0 530.5,662.4 532.4,662.4 532.4,121.2 '/>
		<polygon fill = 'rgb( 31, 120, 180)' fill-opacity = '0.250000' points = '532.4,121.2 532.4,662.4 534.3,662.4 534.3,121.5 '/>
		<polygon fill = 'rgb( 31, 120, 180)' fill-opacity = '0.250000' points = '534.3,121.5 534.3,662.4 536.1,662.4 536.1,121.8 '/>
		<polygon fill = 'rgb( 31, 120, 180)' fill-opacity = '0.250000' points = '536.1,121.8 536.1,662.4 538.0,662.4 538.0,122.2 '/>
		<polygon fill = 'rgb( 31, 120, 180)' fill-opacity = '0.250000' points = '538.0,122.2 538.0,662.4 539.9,662.4 539.9,122.7 '/>
		<polygon fill = 'rgb( 31, 120, 180)' fill-opacity = '0.250000' points = '539.9,122.7 539.9,662.4 541.8,662.4 541.8,123.1 '/>
		<polygon fill = 'rgb( 31, 120, 180)' fill-opacity = '0.250000' points = '541.8,123.1 541.8,662.4 543.7,662.4 543.7,123.7 '/>
		<polygon fill = 'rgb( 31, 120, 180)' fill-opacity = '0.250000' points = '543.7,123.7 543.7,662.4 545.6,662.4 545.6,124.3 '/>
		<polygon fill = 'rgb( 31, 120, 180)' fill-opacity = '0.250000' points = '545.6,124.3 545.6,662.4 547.5,662.4 547.5,124.9 '/>
		<polygon fill = 'rgb( 31, 120, 180)' fill-opacity = '0.250000' points = '547.5,124.9 547.5,662.4 549.4,662.4 549.4,125.6 '/>
		<polygon fill = 'rgb( 31, 120, 180)' fill-opacity = '0.250000' points = '549.4,125.6 549.4,662.4 551.2,662.4 551.2,126.3 '/>
		<polygon fill = 'rgb( 31, 120, 180)' fill-opacity = '0.250000' points = '551.2,126.3 551.2,662.4 553.1,662.4 553.1,127.1 '/>
		<polygon fill = 'rgb( 31, 120, 180)' fill-opacity = '0.250000' points = '553.1,127.1 553.1,662.4 555.0,662.4 555.0,127.9 '/>
		<polygon fill = 'rgb( 31, 120, 180)' fill-opacity = '0.250000' points = '555.0,127.9 555.0,662.4 556.9,662.4 556.9,128.7 '/>
		<polygon fill = 'rgb( 31, 120, 180)' fill-opacity = '0.250000' points = '556.9,128.7 556.9,662.4 558.8,662.4 558.8,129.6 '/>
		<polygon fill = 'rgb( 31, 120, 180)' fill-opacity = '0.250000' points = '558.8,129.6 558.8,662.4 560.7,662.4 560.7,130.5 '/>
		<polygon fill = 'rgb( 31, 120, 180)' fill-opacity = '0.250000' points = '560.7,130.5 560.7,662.4 562.6,662.4 562.6,131.5 '/>
		<polygon fill = 'rgb( 31, 120, 180)' fill-opacity = '0.250000' points = '562.6,131.5 562.6,662.4 564.5,662.4 564.5,132.4 '/>
		<polygon fill = 'rgb( 31, 120, 180)' fill-opacity = '0.250000' points = '564.5,132.4 564.5,662.4 566.3,662.4 566.3,133.5 '/>
		<polygon fill = 'rgb( 31, 120, 180)' fill-opacity = '0.250000' points = '566.3,133.5 566.3,662.4 568.2,662.4 568.2,134.5 '/>
		<polygon fill = 'rgb( 31, 120, 180)' fill-opacity = '0.250000' points = '568.2,134.5 568.2,662.4 570.1,662.4 570.1,135.6 '/>
		<polygon fill = 'rgb( 31, 120, 180)' fill-opacity = '0.250000' points = '570.1,135.6 570.1,662.4 572.0,662.4 572.0,136.8 '/>
		<polygon fill = 'rgb( 31, 120, 180)' fill-opacity = '0.250000' points = '572.0,136.8 572.0,662.4 573.9,662.4 573.9,138.0 '/>
		<polygon fill = 'rgb( 31, 120, 180)' fill-opacity = '0.250000' points = '573.9,138.0 573.9,662.4 575.8,662.4 575.8,139.2 '/>
		<polygon fill = 'rgb( 31, 120, 180)' fill-opacity = '0.250000' points = '575.8,139.2 575.8,662.4 577.7,662.4 577.7,140.5 '/>
		<polygon fill = 'rgb( 31, 120, 180)' fill-opacity = '0.250000' points = '577.7,140.5 577.7,662.4 579.5,662.4 579.5,141.8 '/>
		<polygon fill = 'rgb( 31, 120, 180)' fill-opacity = '0.250000' points = '579.5,141.8 579.5,662.4 581.4,662.4 581.4,143.2 '/>
		<polygon fill = 'rgb( 31, 120, 180)' fill-opacity = '0.250000' points = '581.4,143.2 581.4,662.4 583.3,662.4 583.3,144.7 '/>
		<polygon fill = 'rgb( 31, 120, 180)' fill-opacity = '0.250000' points = '583.3,144.7 583.3,662.4 585.2,662.4 585.2,146.2 '/>
		<polygon fill = 'rgb( 31, 120, 180)' fill-opacity = '0.250000' points = '585.2,146.2 585.2,662.4 587.1,662.4 587.1,147.7 '/>
		<polygon fill = 'rgb( 31, 120, 180)' fill-opacity = '0.250000' points = '587.1,147.7 587.1,662.4 589.0,662.4 589.0,149.3 '/>
		<polygon fill = 'rgb( 31, 120, 180)' fill-opacity = '0.250000' points = '589.0,149.3 589.0,662.4 590.9,662.4 590.9,150.9 '/>
		<polygon fill = 'rgb( 31, 120, 180)' fill-opacity = '0.250000' points = '590.9,150.9 590.9,662.4 592.8,662.4 592.8,152.6 '/>
		<polygon fill = 'rgb( 31, 120, 180)' fill-opacity = '0.250000' points = '592.8,152.6 592.8,662.4 594.6,662.4 594.6,154.3 '/>
		<polygon fill = 'rgb( 31, 120, 180)' fill-opacity = '0.250000' points = '594.6,154.3 594.6,662.4 596.5,662.4 596.5,156.0 '/>
		<polygon fill = 'rgb( 31, 120, 180)' fill-opacity = '0.250000' points = '596.5,156.0 596.5,662.4 598.4,662.4 598.4,157.8 '/>
		<polygon fill = 'rgb( 31, 120, 180)' fill-opacity = '0.250000' points = '598.4,157.8 598.4,662.4 600.3,662.4 600.3,159.6 '/>
		<polygon fill = 'rgb( 31, 120, 180)' fill-opacity = '0.250000' points = '600.3,159.6 600.3,662.4 602.2,662.4 602.2,161.3 '/>
		<polygon fill = 'rgb( 31, 120, 180)' fill-opacity = '0.250000' points = '602.2,161.3 602.2,662.4 604.1,662.4 604.1,163.1 '/>
		<polygon fill = 'rgb( 31, 120, 180)' fill-opacity = '0.250000' points = '604.1,163.1 604.1,662.4 606.0,662.4 606.0,165.0 '/>
		<polygon fill = 'rgb( 31, 120, 180)' fill-opacity = '0.250000' points = '606.0,165.0 606.0,662.4 607.9,662.4 607.9,166.8 '/>
		<polygon fill = 'rgb( 31, 120, 180)' fill-opacity = '0.250000' points = '607.9,166.8 607.9,662.4 609.7,662.4 609.7,168.6 '/>
		<polygon fill = 'rgb( 31, 120, 180)' fill-opacity = '0.250000' points = '609.7,168.6 609.7,662.4 611.6,662.4 611.6,170.5 '/>
		<polygon fill = 'rgb( 31, 120, 180)' fill-opacity = '0.250000' points = '611.6,170.5 611.6,662.4 613.5,662.4 613.5,172.3 '/>
		<polygon fill = 'rgb( 31, 120, 180)' fill-opacity = '0.250000' points = '613.5,172.3 613.5,662.4 615.4,662.4 615.4,174.2 '/>
		<polygon fill = 'rgb( 31, 120, 180)' fill-opacity = '0.250000' points = '615.4,174.2 615.4,662.4 617.3,662.4 617.3,176.1 '/>
		<polygon fill = 'rgb( 31, 120, 180)' fill-opacity = '0.250000' points = '617.3,176.1 617.3,662.4 619.2,662.4 619.2,177.9 '/>
		<polygon fill = 'rgb( 31, 120, 180)' fill-opacity = '0.250000' points = '619.2,177.9 619.2,662.4 621.1,662.4 621.1,179.8 '/>
		<polygon fill = 'rgb( 31, 120, 180)' fill-opacity = '0.250000' points = '621.1,179.8 621.1,662.4 623.0,662.4 623.0,181.8 '/>
		<polygon fill = 'rgb( 31, 120, 180)' fill-opacity = '0.250000' points = '623.0,181.8 623.0,662.4 624.8,662.4 624.8,183.7 '/>
		<polygon fill = 'rgb( 31, 120, 180)' fill-opacity = '0.250000' points = '624.8,183.7 624.8,662.4 626.7,662.4 626.7,185.7 '/>
		<polygon fill = 'rgb( 31, 120, 180)' fill-opacity = '0.250000' points = '626.7,185.7 626.7,662.4 628.6,662.4 628.6,187.7 '/>
		<polygon fill = 'rgb( 31, 120, 180)' fill-opacity = '0.250000' points = '628.6,187.7 628.6,662.4 630.5,662.4 630.5,189.7 '/>
		<polygon fill = 'rgb( 31, 120, 180)' fill-opacity = '0.250000' points = '630.5,189.7 630.5,662.4 632.4,662.4 632.4,191.8 '/>
		<polygon fill = 'rgb( 31, 120, 180)' fill-opacity = '0.250000' points = '632.4,191.8 632.4,662.4 634.3,662.4 634.3,193.9 '/>
		<polygon fill = 'rgb( 31, 120, 180)' fill-opacity = '0.250000' points = '634.3,193.9 634.3,662.4 636.2,662.4 636.2,196.1 '/>
		<polygon fill = 'rgb( 31, 120, 180)' fill-opacity = '0.250000' points = '636.2,196.1 636.2,662.4 638.1,662.4 638.1,198.3 '/>
		<polygon fill = 'rgb( 31, 120, 180)' fill-opacity = '0.250000' points = '638.1,198.3 638.1,662.4 639.9,662.4 639.9,200.5 '/>
		<polygon fill = 'rgb( 31, 120, 180)' fill-opacity = '0.250000' points = '639.9,200.5 639.9,662.4 641.8,662.4 641.8,202.8 '/>
		<polygon fill = 'rgb( 31, 120, 180)' fill-opacity = '0.250000' points = '641.8,202.8 641.8,662.4 643.7,662.4 643.7,205.1 '/>
		<polygon fill = 'rgb( 31, 120, 180)' fill-opacity = '0.250000' points = '643.7,205.1 643.7,662.4 645.6,662.4 645.6,207.5 '/>
		<polygon fill = 'rgb( 31, 120, 180)' fill-opacity = '0.250000' points = '645.6,207.5 645.6,662.4 647.5,662.4 647.5,210.0 '/>
		<polygon fill = 'rgb( 31, 120, 180)' fill-opacity = '0.250000' points = '647.5,210.0 647.5,662.4 649.4,662.4 649.4,212.4 '/>
		<polygon fill = 'rgb( 31, 120, 180)' fill-opacity = '0.250000' points = '649.4,212.4 649.4,662.4 651.3,662.4 651.3,214.9 '/>
		<polygon fill = 'rgb( 31, 120, 180)' fill-opacity = '0.250000' points = '651.3,214.9 651.3,662.4 653.1,662.4 653.1,217.5 '/>
		<polygon fill = 'rgb( 31, 120, 180)' fill-opacity = '0.250000' points = '653.1,217.5 653.1,662.4 655.0,662.4 655.0,220.1 '/>
		<polygon fill = 'rgb( 31, 120, 180)' fill-opacity = '0.250000' points = '655.0,220.1 655.0,662.4 656.9,662.4 656.9,222.8 '/>
		<polygon fill = 'rgb( 31, 120, 180)' fill-opacity = '0.250000' points = '656.9,222.8 656.9,662.4 658.8,662.4 658.8,225.5 '/>
		<polygon fill = 'rgb( 31, 120, 180)' fill-opacity = '0.250000' points = '658.8,225.5 658.8,662.4 660.7,662.4 660.7,228.2 '/>
		<polygon fill = 'rgb( 31, 120, 180)' fill-opacity = '0.250000' points = '660.7,228.2 660.7,662.4 662.6,662.4 662.6,230.9 '/>
		<polygon fill = 'rgb( 31, 120, 180)' fill-opacity = '0.250000' points = '662.6,230.9 662.6,662.4 664.5,662.4 664.5,233.7 '/>
		<polygon fill = 'rgb( 31, 120, 180)' fill-opacity = '0.250000' points = '664.5,233.7 664.5,662.4 666.4,662.4 666.4,236.5 '/>
		<polygon fill = 'rgb( 31, 120, 180)' fill-opacity = '0.250000' points = '666.4,236.5 666.4,662.4 668.2,662.4 668.2,239.4 '/>
		<polygon fill = 'rgb( 31, 120, 180)' fill-opacity = '0.250000' points = '668.2,239.4 668.2,662.4 670.1,662.4 670.1,242.2 '/>
		<polygon fill = 'rgb( 31, 120, 180)' fill-opacity = '0.250000' points = '670.1,242.2 670.1,662.4 672.0,662.4 672.0,245.1 '/>
		<polygon fill = 'rgb( 31, 120, 180)' fill-opacity = '0.250000' points = '672.0,245.1 672.0,662.4 673.9,662.4 673.9,247.9 '/>
		<polygon fill = 'rgb( 31, 120, 180)' fill-opacity = '0.250000' points = '673.9,247.9 673.9,662.4 675.8,662.4 675.8,250.8 '/>
		<polygon fill = 'rgb( 31, 120, 180)' fill-opacity = '0.250000' points = '675.8,250.8 675.8,662.4 677.7,662.4 677.7,253.7 '/>
		<polygon fill = 'rgb( 31, 120, 180)' fill-opacity = '0.250000' points = '677.7,253.7 677.7,662.4 679.6,662.4 679.6,256.6 '/>
		<polygon fill = 'rgb( 31, 120, 180)' fill-opacity = '0.250000' points = '679.6,256.6 679.6,662.4 681.5,662.4 681.5,259.5 '/>
		<polygon fill = 'rgb( 31, 120, 180)' fill-opacity = '0.250000' points = '681.5,259.5 681.5,662.4 683.3,662.4 683.3,262.4 '/>
		<polygon fill = 'rgb( 31, 120, 180)' fill-opacity = '0.250000' points = '683.3,262.4 683.3,662.4 685.2,662.4 685.2,265.3 '/>
		<polygon fill = 'rgb( 31, 120, 180)' fill-opacity = '0.250000' points = '685.2,265.3 685.2,662.4 687.1,662.4 687.1,268.2 '/>
		<polygon fill = 'rgb( 31, 120, 180)' fill-opacity = '0.250000' points = '687.1,268.2 687.1,662.4 689.0,662.4 689.0,271.1 '/>
		<polygon fill = 'rgb( 31, 120, 180)' fill-opacity = '0.250000' points = '689.0,271.1 689.0,662.4 690.9,662.4 690.9,274.0 '/>
		<polygon fill = 'rgb( 31, 120, 180)' fill-opacity = '0.250000' points = '690.9,274.0 690.9,662.4 692.8,662.4 692.8,276.9 '/>
		<polygon fill = 'rgb( 31, 120, 180)' fill-opacity = '0.250000' points = '692.8,276.9 692.8,662.4 694.7,662.4 694.7,279.8 '/>
		<polygon fill = 'rgb( 31, 120, 180)' fill-opacity = '0.250000' points = '694.7,279.8 694.7,662.4 696.6,662.4 696.6,282.8 '/>
		<polygon fill = 'rgb( 31, 120, 180)' fill-opacity = '0.250000' points = '696.6,282.8 696.6,662.4 698.4,662.4 698.4,285.8 '/>
		<polygon fill = 'rgb( 31, 120, 180)' fill-opacity = '0.250000' points = '698.4,285.8 698.4,662.4 700.3,662.4 700.3,288.8 '/>
		<polygon fill = 'rgb( 31, 120, 180)' fill-opacity = '0.250000' points = '700.3,288.8 700.3,662.4 702.2,662.4 702.2,291.8 '/>
		<polygon fill = 'rgb( 31, 120, 180)' fill-opacity = '0.250000' points = '702.2,291.8 702.2,662.4 704.1,662.4 704.1,294.9 '/>
		<polygon fill = 'rgb( 31, 120, 180)' fill-opacity = '0.250000' points = '704.1,294.9 704.1,662.4 706.0,662.4 706.0,297.9 '/>
		<polygon fill = 'rgb( 31, 120, 180)' fill-opacity = '0.250000' points = '706.0,297.9 706.0,662.4 707.9,662.4 707.9,301.1 '/>
		<polygon fill = 'rgb( 31, 120, 180)' fill-opacity = '0.250000' points = '707.9,301.1 707.9,662.4 709.8,662.4 709.8,304.2 '/>
		<polygon fill = 'rgb( 31, 120, 180)' fill-opacity = '0.250000' points = '709.8,304.2 709.8,662.4 711.7,662.4 711.7,307.3 '/>
		<polygon fill = 'rgb( 31, 120, 180)' fill-opacity = '0.250000' points = '711.7,307.3 711.7,662.4 713.5,662.4 713.5,310.5 '/>
		<polygon fill = 'rgb( 31, 120, 180)' fill-opacity = '0.250000' points = '713.5,310.5 713.5,662.4 715.4,662.4 715.4,313.7 '/>
		<polygon fill = 'rgb( 31, 120, 180)' fill-opacity = '0.250000' points = '715.4,313.7 715.4,662.4 717.3,662.4 717.3,316.9 '/>
		<polygon fill = 'rgb( 31, 120, 180)' fill-opacity = '0.250000' points = '717.3,316.9 717.3,662.4 719.2,662.4 719.2,320.1 '/>
		<polygon fill = 'rgb( 31, 120, 180)' fill-opacity = '0.250000' points = '719.2,320.1 719.2,662.4 721.1,662.4 721.1,323.2 '/>
		<polygon fill = 'rgb( 31, 120, 180)' fill-opacity = '0.250000' points = '721.1,323.2 721.1,662.4 723.0,662.4 723.0,326.4 '/>
		<polygon fill = 'rgb( 31, 120, 180)' fill-opacity = '0.250000' points = '723.0,326.4 723.0,662.4 724.9,662.4 724.9,329.6 '/>
		<polygon fill = 'rgb( 31, 120, 180)' fill-opacity = '0.250000' points = '724.9,329.6 724.9,662.4 726.7,662.4 726.7,332.7 '/>
		<polygon fill = 'rgb( 31, 120, 180)' fill-opacity = '0.250000' points = '726.7,332.7 726.7,662.4 728.6,662.4 728.6,335.8 '/>
		<polygon fill = 'rgb( 31, 120, 180)' fill-opacity = '0.250000' points = '728.6,335.8 728.6,662.4 730.5,662.4 730.5,338.9 '/>
		<polygon fill = 'rgb( 31, 120, 180)' fill-opacity = '0.250000' points = '730.5,338.9 730.5,662.4 732.4,662.4 732.4,341.9 '/>
		<polygon fill = 'rgb( 31, 120, 180)' fill-opacity = '0.250000' points = '732.4,341.9 732.4,662.4 734.3,662.4 734.3,344.9 '/>
		<polygon fill = 'rgb( 31, 120, 180)' fill-opacity = '0.250000' points = '734.3,344.9 734.3,662.4 736.2,662.4 736.2,347.9 '/>
		<polygon fill = 'rgb( 31, 120, 180)' fill-opacity = '0.250000' points = '736.2,347.9 736.2,662.4 738.1,662.4 738.1,350.9 '/>
		<polygon fill = 'rgb( 31, 120, 180)' fill-opacity = '0.250000' points = '738.1,350.9 738.1,662.4 740.0,662.4 740.0,353.8 '/>
		<polygon fill = 'rgb( 31, 120, 180)' fill-opacity = '0.250000' points = '740.0,353.8 740.0,662.4 741.8,662.4 741.8,356.7 '/>
		<polygon fill = 'rgb( 31, 120, 180)' fill-opacity = '0.250000' points = '741.8,356.7 741.8,662.4 743.7,662.4 743.7,359.6 '/>
		<polygon fill = 'rgb( 31, 120, 180)' fill-opacity = '0.250000' points = '743.7,359.6 743.7,662.4 745.6,662.4 745.6,362.4 '/>
		<polygon fill = 'rgb( 31, 120, 180)' fill-opacity = '0.250000' points = '745.6,362.4 745.6,662.4 747.5,662.4 747.5,365.3 '/>
		<polygon fill = 'rgb( 31, 120, 180)' fill-opacity = '0.250000' points = '747.5,365.3 747.5,662.4 749.4,662.4 749.4,368.1 '/>
		<polygon fill = 'rgb( 31, 120, 180)' fill-opacity = '0.250000' points = '749.4,368.1 749.4,662.4 751.3,662.4 751.3,371.0 '/>
		<polygon fill = 'rgb( 31, 120, 180)' fill-opacity = '0.250000' points = '751.3,371.0 751.3,662.4 753.2,662.4 753.2,373.9 '/>
		<polygon fill = 'rgb( 31, 120, 180)' fill-opacity = '0.250000' points = '753.2,373.9 753.2,662.4 755.1,662.4 755.1,376.7 '/>
		<polygon fill = 'rgb( 31, 120, 180)' fill-opacity = '0.250000' points = '755.1,376.7 755.1,662.4 756.9,662.4 756.9,379.6 '/>
		<polygon fill = 'rgb( 31, 120, 180)' fill-opacity = '0.250000' points = '756.9,379.6 756.9,662.4 758.8,662.4 758.8,382.6 '/>
		<polygon fill = 'rgb( 31, 120, 180)' fill-opacity = '0.250000' points = '758.8,382.6 758.8,662.4 760.7,662.4 760.7,385.5 '/>
		<polygon fill = 'rgb( 31, 120, 180)' fill-opacity = '0.250000' points = '760.7,385.5 760.7,662.4 762.6,662.4 762.6,388.4 '/>
		<polygon fill = 'rgb( 31, 120, 180)' fill-opacity = '0.250000' points = '762.6,388.4 762.6,662.4 764.5,662.4 764.5,391.4 '/>
		<polygon fill = 'rgb( 31, 120, 180)' fill-opacity = '0.250000' points = '764.5,391.4 764.5,662.4 766.4,662.4 766.4,394.4 '/>
		<polygon fill = 'rgb( 31, 120, 180)' fill-opacity = '0.250000' points = '766.4,394.4 766.4,662.4 768.3,662.4 768.3,397.4 '/>
		<polygon fill = 'rgb( 31, 120, 180)' fill-opacity = '0.250000' points = '768.3,397.4 768.3,662.4 770.2,662.4 770.2,400.4 '/>
		<polygon fill = 'rgb( 31, 120, 180)' fill-opacity = '0.250000' points = '770.2,400.4 770.2,662.4 772.0,662.4 772.0,403.4 '/>
		<polygon fill = 'rgb( 31, 120, 180)' fill-opacity = '0.250000' points = '772.0,403.4 772.0,662.4 773.9,662.4 773.9,406.4 '/>
		<polygon fill = 'rgb( 31, 120, 180)' fill-opacity = '0.250000' points = '773.9,406.4 773.9,662.4 775.8,662.4 775.8,409.4 '/>
		<polygon fill = 'rgb( 31, 120, 180)' fill-opacity = '0.250000' points = '775.8,409.4 775.8,662.4 777.7,662.4 777.7,412.4 '/>
		<polygon fill = 'rgb( 31, 120, 180)' fill-opacity = '0.250000' points = '777.7,412.4 777.7,662.4 779.6,662.4 779.6,415.4 '/>
		<polygon fill = 'rgb( 31, 120, 180)' fill-opacity = '0.250000' points = '779.6,415.4 779.6,662.4 781.5,662.4 781.5,418.4 '/>
		<polygon fill = 'rgb( 31, 120, 180)' fill-opacity = '0.250000' points = '781.5,418.4 781.5,662.4 783.4,662.4 783.4,421.3 '/>
		<polygon fill = 'rgb( 31, 120, 180)' fill-opacity = '0.250000' points = '783.4,421.3 783.4,662.4 785.3,662.4 785.3,424.2 '/>
		<polygon fill = 'rgb( 31, 120, 180)' fill-opacity = '0.250000' points = '785.3,424.2 785.3,662.4 787.1,662.4 787.1,427.1 '/>
		<polygon fill = 'rgb( 31, 120, 180)' fill-opacity = '0.250000' points = '787.1,427.1 787.1,662.4 789.0,662.4 789.0,429.9 '/>
		<polygon fill = 'rgb( 31, 120, 180)' fill-opacity = '0.250000' points = '789.0,429.9 789.0,662.4 790.9,662.4 790.9,432.7 '/>
		<polygon fill = 'rgb( 31, 120, 180)' fill-opacity = '0.250000' points = '790.9,432.7 790.9,662.4 792.8,662.4 792.8,435.5 '/>
		<polygon fill = 'rgb( 31, 120, 180)' fill-opacity = '0.250000' points = '792.8,435.5 792.8,662.4 794.7,662.4 794.7,438.2 '/>
		<polygon fill = 'rgb( 31, 120, 180)' fill-opacity = '0.250000' points = '794.7,438.2 794.7,662.4 796.6,662.4 796.6,440.9 '/>
		<polygon fill = 'rgb( 31, 120, 180)' fill-opacity = '0.250000' points = '796.6,440.9 796.6,662.4 798.5,662.4 798.5,443.6 '/>
		<polygon fill = 'rgb( 31, 120, 180)' fill-opacity = '0.250000' points = '798.5,443.6 798.5,662.4 800.3,662.4 800.3,446.3 '/>
		<polygon fill = 'rgb( 31, 120, 180)' fill-opacity = '0.250000' points = '800.3,446.3 800.3,662.4 802.2,662.4 802.2,448.9 '/>
		<polygon fill = 'rgb( 31, 120, 180)' fill-opacity = '0.250000' points = '802.2,448.9 802.2,662.4 804.1,662.4 804.1,451.5 '/>
		<polygon fill = 'rgb( 31, 120, 180)' fill-opacity = '0.250000' points = '804.1,451.5 804.1,662.4 806.0,662.4 806.0,454.1 '/>
		<polygon fill = 'rgb( 31, 120, 180)' fill-opacity = '0.250000' points = '806.0,454.1 806.0,662.4 807.9,662.4 807.9,456.7 '/>
		<polygon fill = 'rgb( 31, 120, 180)' fill-opacity = '0.250000' points = '807.9,456.7 807.9,662.4 809.8,662.4 809.8,459.3 '/>
		<polygon fill = 'rgb( 31, 120, 180)' fill-opacity = '0.250000' points = '809.8,459.3 809.8,662.4 811.7,662.4 811.7,461.9 '/>
		<polygon fill = 'rgb( 31, 120, 180)' fill-opacity = '0.250000' points = '811.7,461.9 811.7,662.4 813.6,662.4 813.6,464.5 '/>
		<polygon fill = 'rgb( 31, 120, 180)' fill-opacity = '0.250000' points = '813.6,464.5 813.6,662.4 815.4,662.4 815.4,467.1 '/>
		<polygon fill = 'rgb( 31, 120, 180)' fill-opacity = '0.250000' points = '815.4,467.1 815.4,662.4 817.3,662.4 817.3,469.7 '/>
		<polygon fill = 'rgb( 31, 120, 180)' fill-opacity = '0.250000' points = '817.3,469.7 817.3,662.4 819.2,662.4 819.2,472.3 '/>
		<polygon fill = 'rgb( 31, 120, 180)' fill-opacity = '0.250000' points = '819.2,472.3 819.2,662.4 821.1,662.4 821.1,474.9 '/>
		<polygon fill = 'rgb( 31, 120, 180)' fill-opacity = '0.250000' points = '821.1,474.9 821.1,662.4 823.0,662.4 823.0,477.5 '/>
		<polygon fill = 'rgb( 31, 120, 180)' fill-opacity = '0.250000' points = '823.0,477.5 823.0,662.4 824.9,662.4 824.9,480.2 '/>
		<polygon fill = 'rgb( 31, 120, 180)' fill-opacity = '0.250000' points = '824.9,480.2 824.9,662.4 826.8,662.4 826.8,482.8 '/>
		<polygon fill = 'rgb( 31, 120, 180)' fill-opacity = '0.250000' points = '826.8,482.8 826.8,662.4 828.7,662.4 828.7,485.5 '/>
		<polygon fill = 'rgb( 31, 120, 180)' fill-opacity = '0.250000' points = '828.7,485.5 828.7,662.4 830.5,662.4 830.5,488.1 '/>
		<polygon fill = 'rgb( 31, 120, 180)' fill-opacity = '0.250000' points = '830.5,488.1 830.5,662.4 832.4,662.4 832.4,490.8 '/>
		<polygon fill = 'rgb( 31, 120, 180)' fill-opacity = '0.250000' points = '832.4,490.8 832.4,662.4 834.3,662.4 834.3,493.4 '/>
		<polygon fill = 'rgb( 31, 120, 180)' fill-opacity = '0.250000' points = '834.3,493.4 834.3,662.4 836.2,662.4 836.2,496.0 '/>
		<polygon fill = 'rgb( 31, 120, 180)' fill-opacity = '0.250000' points = '836.2,496.0 836.2,662.4 838.1,662.4 838.1,498.6 '/>
		<polygon fill = 'rgb( 31, 120, 180)' fill-opacity = '0.250000' points = '838.1,498.6 838.1,662.4 840.0,662.4 840.0,501.2 '/>
		<polygon fill = 'rgb( 31, 120, 180)' fill-opacity = '0.250000' points = '840.0,501.2 840.0,662.4 841.9,662.4 841.9,503.7 '/>
		<polygon fill = 'rgb( 31, 120, 180)' fill-opacity = '0.250000' points = '841.9,503.7 841.9,662.4 843.8,662.4 843.8,506.2 '/>
		<polygon fill = 'rgb( 31, 120, 180)' fill-opacity = '0.250000' points = '843.8,506.2 843.8,662.4 845.6,662.4 845.6,508.6 '/>
		<polygon fill = 'rgb( 31, 120, 180)' fill-opacity = '0.250000' points = '845.6,508.6 845.6,662.4 847.5,662.4 847.5,511.0 '/>
		<polygon fill = 'rgb( 31, 120, 180)' fill-opacity = '0.250000' points = '847.5,511.0 847.5,662.4 849.4,662.4 849.4,513.4 '/>
		<polygon fill = 'rgb( 31, 120, 180)' fill-opacity = '0.250000' points = '849.4,513.4 849.4,662.4 851.3,662.4 851.3,515.7 '/>
		<polygon fill = 'rgb( 31, 120, 180)' fill-opacity = '0.250000' points = '851.3,515.7 851.3,662.4 853.2,662.4 853.2,518.0 '/>
		<polygon fill = 'rgb( 31, 120, 180)' fill-opacity = '0.250000' points = '853.2,518.0 853.2,662.4 855.1,662.4 855.1,520.1 '/>
		<polygon fill = 'rgb( 31, 120, 180)' fill-opacity = '0.250000' points = '855.1,520.1 855.1,662.4 857.0,662.4 857.0,522.3 '/>
		<polygon fill = 'rgb( 31, 120, 180)' fill-opacity = '0.250000' points = '857.0,522.3 857.0,662.4 858.9,662.4 858.9,524.4 '/>
		<polygon fill = 'rgb( 31, 120, 180)' fill-opacity = '0.250000' points = '858.9,524.4 858.9,662.4 860.7,662.4 860.7,526.4 '/>
		<polygon fill = 'rgb( 31, 120, 180)' fill-opacity = '0.250000' points = '860.7,526.4 860.7,662.4 862.6,662.4 862.6,528.3 '/>
		<polygon fill = 'rgb( 31, 120, 180)' fill-opacity = '0.250000' points = '862.6,528.3 862.6,662.4 864.5,662.4 864.5,530.3 '/>
		<polygon fill = 'rgb( 31, 120, 180)' fill-opacity = '0.250000' points = '864.5,530.3 864.5,662.4 866.4,662.4 866.4,532.1 '/>
		<polygon fill = 'rgb( 31, 120, 180)' fill-opacity = '0.250000' points = '866.4,532.1 866.4,662.4 868.3,662.4 868.3,533.9 '/>
		<polygon fill = 'rgb( 31, 120, 180)' fill-opacity = '0.250000' points = '868.3,533.9 868.3,662.4 870.2,662.4 870.2,535.7 '/>
		<polygon fill = 'rgb( 31, 120, 180)' fill-opacity = '0.250000' points = '870.2,535.7 870.2,662.4 872.1,662.4 872.1,537.4 '/>
		<polygon fill = 'rgb( 31, 120, 180)' fill-opacity = '0.250000' points = '872.1,537.4 872.1,662.4 873.9,662.4 873.9,539.1 '/>
		<polygon fill = 'rgb( 31, 120, 180)' fill-opacity = '0.250000' points = '873.9,539.1 873.9,662.4 875.8,662.4 875.8,540.8 '/>
		<polygon fill = 'rgb( 31, 120, 180)' fill-opacity = '0.250000' points = '875.8,540.8 875.8,662.4 877.7,662.4 877.7,542.4 '/>
		<polygon fill = 'rgb( 31, 120, 180)' fill-opacity = '0.250000' points = '877.7,542.4 877.7,662.4 879.6,662.4 879.6,544.0 '/>
		<polygon fill = 'rgb( 31, 120, 180)' fill-opacity = '0.250000' points = '879.6,544.0 879.6,662.4 881.5,662.4 881.5,545.6 '/>
		<polygon fill = 'rgb( 31, 120, 180)' fill-opacity = '0.250000' points = '881.5,545.6 881.5,662.4 883.4,662.4 883.4,547.1 '/>
		<polygon fill = 'rgb( 31, 120, 180)' fill-opacity = '0.250000' points = '883.4,547.1 883.4,662.4 885.3,662.4 885.3,548.6 '/>
		<polygon fill = 'rgb( 31, 120, 180)' fill-opacity = '0.250000' points = '885.3,548.6 885.3,662.4 887.2,662.4 887.2,550.1 '/>
		<polygon fill = 'rgb( 31, 120, 180)' fill-opacity = '0.250000' points = '887.2,550.1 887.2,662.4 889.0,662.4 889.0,551.7 '/>
		<polygon fill = 'rgb( 31, 120, 180)' fill-opacity = '0.250000' points = '889.0,551.7 889.0,662.4 890.9,662.4 890.9,553.1 '/>
		<polygon fill = 'rgb( 31, 120, 180)' fill-opacity = '0.250000' points = '890.9,553.1 890.9,662.4 892.8,662.4 892.8,554.6 '/>
		<polygon fill = 'rgb( 31, 120, 180)' fill-opacity = '0.250000' points = '892.8,554.6 892.8,662.4 894.7,662.4 894.7,556.1 '/>
		<polygon fill = 'rgb( 31, 120, 180)' fill-opacity = '0.250000' points = '894.7,556.1 894.7,662.4 896.6,662.4 896.6,557.6 '/>
		<polygon fill = 'rgb( 31, 120, 180)' fill-opacity = '0.250000' points = '896.6,557.6 896.6,662.4 898.5,662.4 898.5,559.1 '/>
		<polygon fill = 'rgb( 31, 120, 180)' fill-opacity = '0.250000' points = '898.5,559.1 898.5,662.4 900.4,662.4 900.4,560.6 '/>
		<polygon fill = 'rgb( 31, 120, 180)' fill-opacity = '0.250000' points = '900.4,560.6 900.4,662.4 902.3,662.4 902.3,562.0 '/>
		<polygon fill = 'rgb( 31, 120, 180)' fill-opacity = '0.250000' points = '902.3,562.0 902.3,662.4 904.1,662.4 904.1,563.5 '/>
		<polygon fill = 'rgb( 31, 120, 180)' fill-opacity = '0.250000' points = '904.1,563.5 904.1,662.4 906.0,662.4 906.0,565.0 '/>
		<polygon fill = 'rgb( 31, 120, 180)' fill-opacity = '0.250000' points = '906.0,565.0 906.0,662.4 907.9,662.4 907.9,566.5 '/>
		<polygon fill = 'rgb( 31, 120, 180)' fill-opacity = '0.250000' points = '907.9,566.5 907.9,662.4 909.8,662.4 909.8,568.0 '/>
		<polygon fill = 'rgb( 31, 120, 180)' fill-opacity = '0.250000' points = '909.8,568.0 909.8,662.4 911.7,662.4 911.7,569.5 '/>
		<polygon fill = 'rgb( 31, 120, 180)' fill-opacity = '0.250000' points = '911.7,569.5 911.7,662.4 913.6,662.4 913.6,571.1 '/>
		<polygon fill = 'rgb( 31, 120, 180)' fill-opacity = '0.250000' points = '913.6,571.1 913.6,662.4 915.5,662.4 915.5,572.6 '/>
		<polygon fill = 'rgb( 31, 120, 180)' fill-opacity = '0.250000' points = '915.5,572.6 915.5,662.4 917.4,662.4 917.4,574.1 '/>
		<polygon fill = 'rgb( 31, 120, 180)' fill-opacity = '0.250000' points = '917.4,574.1 917.4,662.4 919.2,662.4 919.2,575.7 '/>
		<polygon fill = 'rgb( 31, 120, 180)' fill-opacity = '0.250000' points = '919.2,575.7 919.2,662.4 921.1,662.4 921.1,577.2 '/>
		<polygon fill = 'rgb( 31, 120, 180)' fill-opacity = '0.250000' points = '921.1,577.2 921.1,662.4 923.0,662.4 923.0,578.8 '/>
		<polygon fill = 'rgb( 31, 120, 180)' fill-opacity = '0.250000' points = '923.0,578.8 923.0,662.4 924.9,662.4 924.9,580.3 '/>
	</g>
</g>
	</g>
	<g id="gnuplot_plot_3" ><title>Point estimate</title>
<g fill="none" color="white" stroke="rgb( 31, 120, 180)" stroke-width="2.00" stroke-linecap="butt" stroke-linejoin="miter">
</g>
<g fill="none" color="black" stroke="currentColor" stroke-width="2.00" stroke-linecap="butt" stroke-linejoin="miter">
	<g transform="translate(1089.0,103.0)" stroke="none" fill="black" font-family="Helvetica" font-size="12.00"  text-anchor="start">
		<text><tspan font-family="Helvetica" >Point estimate</tspan></text>
	</g>
</g>
<g fill="none" color="black" stroke="currentColor" stroke-width="2.00" stroke-linecap="butt" stroke-linejoin="miter">
	<path stroke='rgb( 31, 120, 180)'  d='M1038.5,99.1 L1080.7,99.1 M536.8,662.4 L536.8,121.9  '/></g>
	</g>
<g fill="none" color="black" stroke="currentColor" stroke-width="2.00" stroke-linecap="butt" stroke-linejoin="miter">
</g>
<g fill="none" color="black" stroke="black" stroke-width="1.00" stroke-linecap="butt" stroke-linejoin="miter">
</g>
<g fill="none" color="black" stroke="currentColor" stroke-width="1.00" stroke-linecap="butt" stroke-linejoin="miter">
	<path stroke='black'  d='M71.9,54.1 L71.9,662.4 L1013.6,662.4 L1013.6,54.1 L71.9,54.1 Z  '/></g>
<g fill="none" color="black" stroke="currentColor" stroke-width="1.00" stroke-linecap="butt" stroke-linejoin="miter">
</g>
</g>
</svg>

