<?xml version="1.0" encoding="utf-8"  standalone="no"?>
<!DOCTYPE svg PUBLIC "-//W3C//DTD SVG 1.1//EN"
 "http://www.w3.org/Graphics/SVG/1.1/DTD/svg11.dtd">
<svg 
 viewBox="0 0 1280 720"
 xmlns="http://www.w3.org/2000/svg"
 xmlns:xlink="http://www.w3.org/1999/xlink"
>

<title>Gnuplot</title>
<desc>Produced by GNUPLOT 5.0 patchlevel 5 </desc>

<g id="gnuplot_canvas">

<rect x="0" y="0" width="1280" height="720" fill="none"/>
<defs>

	<circle id='gpDot' r='0.5' stroke-width='0.5'/>
	<path id='gpPt0' stroke-width='0.222' stroke='currentColor' d='M-1,0 h2 M0,-1 v2'/>
	<path id='gpPt1' stroke-width='0.222' stroke='currentColor' d='M-1,-1 L1,1 M1,-1 L-1,1'/>
	<path id='gpPt2' stroke-width='0.222' stroke='currentColor' d='M-1,0 L1,0 M0,-1 L0,1 M-1,-1 L1,1 M-1,1 L1,-1'/>
	<rect id='gpPt3' stroke-width='0.222' stroke='currentColor' x='-1' y='-1' width='2' height='2'/>
	<rect id='gpPt4' stroke-width='0.222' stroke='currentColor' fill='currentColor' x='-1' y='-1' width='2' height='2'/>
	<circle id='gpPt5' stroke-width='0.222' stroke='currentColor' cx='0' cy='0' r='1'/>
	<use xlink:href='#gpPt5' id='gpPt6' fill='currentColor' stroke='none'/>
	<path id='gpPt7' stroke-width='0.222' stroke='currentColor' d='M0,-1.33 L-1.33,0.67 L1.33,0.67 z'/>
	<use xlink:href='#gpPt7' id='gpPt8' fill='currentColor' stroke='none'/>
	<use xlink:href='#gpPt7' id='gpPt9' stroke='currentColor' transform='rotate(180)'/>
	<use xlink:href='#gpPt9' id='gpPt10' fill='currentColor' stroke='none'/>
	<use xlink:href='#gpPt3' id='gpPt11' stroke='currentColor' transform='rotate(45)'/>
	<use xlink:href='#gpPt11' id='gpPt12' fill='currentColor' stroke='none'/>
	<path id='gpPt13' stroke-width='0.222' stroke='currentColor' d='M0,1.330 L1.265,0.411 L0.782,-1.067 L-0.782,-1.076 L-1.265,0.411 z'/>
	<use xlink:href='#gpPt13' id='gpPt14' fill='currentColor' stroke='none'/>
	<filter id='textbox' filterUnits='objectBoundingBox' x='0' y='0' height='1' width='1'>
	  <feFlood flood-color='white' flood-opacity='1' result='bgnd'/>
	  <feComposite in='SourceGraphic' in2='bgnd' operator='atop'/>
	</filter>
	<filter id='greybox' filterUnits='objectBoundingBox' x='0' y='0' height='1' width='1'>
	  <feFlood flood-color='lightgrey' flood-opacity='1' result='grey'/>
	  <feComposite in='SourceGraphic' in2='grey' operator='atop'/>
	</filter>
</defs>
<g fill="none" color="white" stroke="currentColor" stroke-width="1.00" stroke-linecap="butt" stroke-linejoin="miter">
</g>
<g fill="none" color="black" stroke="currentColor" stroke-width="1.00" stroke-linecap="butt" stroke-linejoin="miter">
	<path stroke='black'  d='M71.9,662.4 L80.9,662.4  '/>	<g transform="translate(63.6,666.3)" stroke="none" fill="black" font-family="Helvetica" font-size="12.00"  text-anchor="end">
		<text><tspan font-family="Helvetica" > 0</tspan></text>
	</g>
</g>
<g fill="none" color="black" stroke="currentColor" stroke-width="1.00" stroke-linecap="butt" stroke-linejoin="miter">
	<path stroke='black'  d='M71.9,594.8 L80.9,594.8  '/>	<g transform="translate(63.6,598.7)" stroke="none" fill="black" font-family="Helvetica" font-size="12.00"  text-anchor="end">
		<text><tspan font-family="Helvetica" > 50</tspan></text>
	</g>
</g>
<g fill="none" color="black" stroke="currentColor" stroke-width="1.00" stroke-linecap="butt" stroke-linejoin="miter">
	<path stroke='black'  d='M71.9,527.2 L80.9,527.2  '/>	<g transform="translate(63.6,531.1)" stroke="none" fill="black" font-family="Helvetica" font-size="12.00"  text-anchor="end">
		<text><tspan font-family="Helvetica" > 100</tspan></text>
	</g>
</g>
<g fill="none" color="black" stroke="currentColor" stroke-width="1.00" stroke-linecap="butt" stroke-linejoin="miter">
	<path stroke='black'  d='M71.9,459.6 L80.9,459.6  '/>	<g transform="translate(63.6,463.5)" stroke="none" fill="black" font-family="Helvetica" font-size="12.00"  text-anchor="end">
		<text><tspan font-family="Helvetica" > 150</tspan></text>
	</g>
</g>
<g fill="none" color="black" stroke="currentColor" stroke-width="1.00" stroke-linecap="butt" stroke-linejoin="miter">
	<path stroke='black'  d='M71.9,392.0 L80.9,392.0  '/>	<g transform="translate(63.6,395.9)" stroke="none" fill="black" font-family="Helvetica" font-size="12.00"  text-anchor="end">
		<text><tspan font-family="Helvetica" > 200</tspan></text>
	</g>
</g>
<g fill="none" color="black" stroke="currentColor" stroke-width="1.00" stroke-linecap="butt" stroke-linejoin="miter">
	<path stroke='black'  d='M71.9,324.5 L80.9,324.5  '/>	<g transform="translate(63.6,328.4)" stroke="none" fill="black" font-family="Helvetica" font-size="12.00"  text-anchor="end">
		<text><tspan font-family="Helvetica" > 250</tspan></text>
	</g>
</g>
<g fill="none" color="black" stroke="currentColor" stroke-width="1.00" stroke-linecap="butt" stroke-linejoin="miter">
	<path stroke='black'  d='M71.9,256.9 L80.9,256.9  '/>	<g transform="translate(63.6,260.8)" stroke="none" fill="black" font-family="Helvetica" font-size="12.00"  text-anchor="end">
		<text><tspan font-family="Helvetica" > 300</tspan></text>
	</g>
</g>
<g fill="none" color="black" stroke="currentColor" stroke-width="1.00" stroke-linecap="butt" stroke-linejoin="miter">
	<path stroke='black'  d='M71.9,189.3 L80.9,189.3  '/>	<g transform="translate(63.6,193.2)" stroke="none" fill="black" font-family="Helvetica" font-size="12.00"  text-anchor="end">
		<text><tspan font-family="Helvetica" > 350</tspan></text>
	</g>
</g>
<g fill="none" color="black" stroke="currentColor" stroke-width="1.00" stroke-linecap="butt" stroke-linejoin="miter">
	<path stroke='black'  d='M71.9,121.7 L80.9,121.7  '/>	<g transform="translate(63.6,125.6)" stroke="none" fill="black" font-family="Helvetica" font-size="12.00"  text-anchor="end">
		<text><tspan font-family="Helvetica" > 400</tspan></text>
	</g>
</g>
<g fill="none" color="black" stroke="currentColor" stroke-width="1.00" stroke-linecap="butt" stroke-linejoin="miter">
	<path stroke='black'  d='M71.9,54.1 L80.9,54.1  '/>	<g transform="translate(63.6,58.0)" stroke="none" fill="black" font-family="Helvetica" font-size="12.00"  text-anchor="end">
		<text><tspan font-family="Helvetica" > 450</tspan></text>
	</g>
</g>
<g fill="none" color="black" stroke="currentColor" stroke-width="1.00" stroke-linecap="butt" stroke-linejoin="miter">
	<path stroke='black'  d='M115.3,662.4 L115.3,653.4  '/>	<g transform="translate(115.3,684.3)" stroke="none" fill="black" font-family="Helvetica" font-size="12.00"  text-anchor="middle">
		<text><tspan font-family="Helvetica" >-1.75</tspan></text>
	</g>
</g>
<g fill="none" color="black" stroke="currentColor" stroke-width="1.00" stroke-linecap="butt" stroke-linejoin="miter">
	<path stroke='black'  d='M220.5,662.4 L220.5,653.4  '/>	<g transform="translate(220.5,684.3)" stroke="none" fill="black" font-family="Helvetica" font-size="12.00"  text-anchor="middle">
		<text><tspan font-family="Helvetica" >-1.7</tspan></text>
	</g>
</g>
<g fill="none" color="black" stroke="currentColor" stroke-width="1.00" stroke-linecap="butt" stroke-linejoin="miter">
	<path stroke='black'  d='M325.7,662.4 L325.7,653.4  '/>	<g transform="translate(325.7,684.3)" stroke="none" fill="black" font-family="Helvetica" font-size="12.00"  text-anchor="middle">
		<text><tspan font-family="Helvetica" >-1.65</tspan></text>
	</g>
</g>
<g fill="none" color="black" stroke="currentColor" stroke-width="1.00" stroke-linecap="butt" stroke-linejoin="miter">
	<path stroke='black'  d='M430.9,662.4 L430.9,653.4  '/>	<g transform="translate(430.9,684.3)" stroke="none" fill="black" font-family="Helvetica" font-size="12.00"  text-anchor="middle">
		<text><tspan font-family="Helvetica" >-1.6</tspan></text>
	</g>
</g>
<g fill="none" color="black" stroke="currentColor" stroke-width="1.00" stroke-linecap="butt" stroke-linejoin="miter">
	<path stroke='black'  d='M536.1,662.4 L536.1,653.4  '/>	<g transform="translate(536.1,684.3)" stroke="none" fill="black" font-family="Helvetica" font-size="12.00"  text-anchor="middle">
		<text><tspan font-family="Helvetica" >-1.55</tspan></text>
	</g>
</g>
<g fill="none" color="black" stroke="currentColor" stroke-width="1.00" stroke-linecap="butt" stroke-linejoin="miter">
	<path stroke='black'  d='M641.3,662.4 L641.3,653.4  '/>	<g transform="translate(641.3,684.3)" stroke="none" fill="black" font-family="Helvetica" font-size="12.00"  text-anchor="middle">
		<text><tspan font-family="Helvetica" >-1.5</tspan></text>
	</g>
</g>
<g fill="none" color="black" stroke="currentColor" stroke-width="1.00" stroke-linecap="butt" stroke-linejoin="miter">
	<path stroke='black'  d='M746.5,662.4 L746.5,653.4  '/>	<g transform="translate(746.5,684.3)" stroke="none" fill="black" font-family="Helvetica" font-size="12.00"  text-anchor="middle">
		<text><tspan font-family="Helvetica" >-1.45</tspan></text>
	</g>
</g>
<g fill="none" color="black" stroke="currentColor" stroke-width="1.00" stroke-linecap="butt" stroke-linejoin="miter">
	<path stroke='black'  d='M851.6,662.4 L851.6,653.4  '/>	<g transform="translate(851.6,684.3)" stroke="none" fill="black" font-family="Helvetica" font-size="12.00"  text-anchor="middle">
		<text><tspan font-family="Helvetica" >-1.4</tspan></text>
	</g>
</g>
<g fill="none" color="black" stroke="currentColor" stroke-width="1.00" stroke-linecap="butt" stroke-linejoin="miter">
	<path stroke='black'  d='M956.8,662.4 L956.8,653.4  '/>	<g transform="translate(956.8,684.3)" stroke="none" fill="black" font-family="Helvetica" font-size="12.00"  text-anchor="middle">
		<text><tspan font-family="Helvetica" >-1.35</tspan></text>
	</g>
</g>
<g fill="none" color="black" stroke="currentColor" stroke-width="1.00" stroke-linecap="butt" stroke-linejoin="miter">
</g>
<g fill="none" color="black" stroke="currentColor" stroke-width="1.00" stroke-linecap="butt" stroke-linejoin="miter">
	<path stroke='black'  d='M71.9,54.1 L71.9,662.4 L1013.6,662.4 L1013.6,54.1 L71.9,54.1 Z  '/></g>
<g fill="none" color="black" stroke="currentColor" stroke-width="1.00" stroke-linecap="butt" stroke-linejoin="miter">
	<g transform="translate(17.0,358.3) rotate(270)" stroke="none" fill="black" font-family="Helvetica" font-size="12.00"  text-anchor="middle">
		<text><tspan font-family="Helvetica" >Density (a.u.)</tspan></text>
	</g>
</g>
<g fill="none" color="black" stroke="currentColor" stroke-width="1.00" stroke-linecap="butt" stroke-linejoin="miter">
	<g transform="translate(542.7,711.3)" stroke="none" fill="black" font-family="Helvetica" font-size="12.00"  text-anchor="middle">
		<text><tspan font-family="Helvetica" >Relative change (%)</tspan></text>
	</g>
</g>
<g fill="none" color="black" stroke="currentColor" stroke-width="1.00" stroke-linecap="butt" stroke-linejoin="miter">
	<g transform="translate(542.7,31.0)" stroke="none" fill="black" font-family="Helvetica" font-size="12.00"  text-anchor="middle">
		<text><tspan font-family="Helvetica" >dfs arena ghostcell vec par immut (×4): median</tspan></text>
	</g>
</g>
	<g id="gnuplot_plot_1" ><title>Bootstrap distribution</title>
<g fill="none" color="white" stroke="black" stroke-width="2.00" stroke-linecap="butt" stroke-linejoin="miter">
</g>
<g fill="none" color="black" stroke="currentColor" stroke-width="2.00" stroke-linecap="butt" stroke-linejoin="miter">
	<g transform="translate(1089.0,67.0)" stroke="none" fill="black" font-family="Helvetica" font-size="12.00"  text-anchor="start">
		<text><tspan font-family="Helvetica" >Bootstrap distribution</tspan></text>
	</g>
</g>
<g fill="none" color="black" stroke="currentColor" stroke-width="2.00" stroke-linecap="butt" stroke-linejoin="miter">
	<path stroke='rgb( 31, 120, 180)'  d='M1038.5,63.1 L1080.7,63.1 M71.9,636.7 L73.8,635.9 L75.7,635.1 L77.6,634.2 L79.4,633.3 L81.3,632.3
		L83.2,631.2 L85.1,630.2 L87.0,629.0 L88.9,627.8 L90.8,626.5 L92.7,625.2 L94.5,623.8 L96.4,622.3
		L98.3,620.8 L100.2,619.2 L102.1,617.5 L104.0,615.7 L105.9,613.8 L107.8,611.8 L109.6,609.6 L111.5,607.3
		L113.4,604.8 L115.3,602.2 L117.2,599.3 L119.1,596.2 L121.0,592.9 L122.9,589.3 L124.7,585.5 L126.6,581.3
		L128.5,576.9 L130.4,572.1 L132.3,567.1 L134.2,561.7 L136.1,556.0 L138.0,550.0 L139.8,543.8 L141.7,537.3
		L143.6,530.7 L145.5,523.9 L147.4,517.1 L149.3,510.2 L151.2,503.4 L153.0,496.6 L154.9,490.1 L156.8,483.9
		L158.7,478.0 L160.6,472.5 L162.5,467.5 L164.4,463.1 L166.3,459.2 L168.1,456.0 L170.0,453.5 L171.9,451.6
		L173.8,450.4 L175.7,449.9 L177.6,450.1 L179.5,450.8 L181.4,452.2 L183.2,454.0 L185.1,456.4 L187.0,459.1
		L188.9,462.1 L190.8,465.4 L192.7,468.9 L194.6,472.5 L196.5,476.2 L198.3,479.8 L200.2,483.3 L202.1,486.7
		L204.0,489.9 L205.9,492.9 L207.8,495.7 L209.7,498.2 L211.6,500.3 L213.4,502.2 L215.3,503.8 L217.2,505.1
		L219.1,506.1 L221.0,506.8 L222.9,507.3 L224.8,507.5 L226.6,507.6 L228.5,507.4 L230.4,507.1 L232.3,506.8
		L234.2,506.3 L236.1,505.7 L238.0,505.2 L239.9,504.6 L241.7,504.0 L243.6,503.5 L245.5,503.0 L247.4,502.5
		L249.3,502.1 L251.2,501.8 L253.1,501.4 L255.0,501.1 L256.8,500.8 L258.7,500.5 L260.6,500.2 L262.5,499.8
		L264.4,499.4 L266.3,498.8 L268.2,498.1 L270.1,497.3 L271.9,496.4 L273.8,495.2 L275.7,493.8 L277.6,492.3
		L279.5,490.4 L281.4,488.4 L283.3,486.1 L285.2,483.5 L287.0,480.7 L288.9,477.6 L290.8,474.2 L292.7,470.6
		L294.6,466.7 L296.5,462.6 L298.4,458.3 L300.2,453.8 L302.1,449.1 L304.0,444.2 L305.9,439.3 L307.8,434.2
		L309.7,429.0 L311.6,423.8 L313.5,418.6 L315.3,413.5 L317.2,408.3 L319.1,403.3 L321.0,398.4 L322.9,393.6
		L324.8,389.0 L326.7,384.5 L328.6,380.3 L330.4,376.4 L332.3,372.7 L334.2,369.2 L336.1,366.0 L338.0,363.2
		L339.9,360.6 L341.8,358.3 L343.7,356.3 L345.5,354.6 L347.4,353.1 L349.3,352.0 L351.2,351.1 L353.1,350.4
		L355.0,350.0 L356.9,349.8 L358.8,349.8 L360.6,350.0 L362.5,350.3 L364.4,350.7 L366.3,351.2 L368.2,351.8
		L370.1,352.4 L372.0,353.1 L373.8,353.7 L375.7,354.4 L377.6,355.0 L379.5,355.5 L381.4,356.0 L383.3,356.4
		L385.2,356.7 L387.1,357.0 L388.9,357.2 L390.8,357.3 L392.7,357.3 L394.6,357.3 L396.5,357.2 L398.4,357.1
		L400.3,356.8 L402.2,356.6 L404.0,356.2 L405.9,355.8 L407.8,355.3 L409.7,354.7 L411.6,353.9 L413.5,353.1
		L415.4,352.0 L417.3,350.8 L419.1,349.4 L421.0,347.7 L422.9,345.8 L424.8,343.6 L426.7,341.0 L428.6,338.2
		L430.5,335.0 L432.4,331.5 L434.2,327.6 L436.1,323.4 L438.0,318.8 L439.9,313.9 L441.8,308.6 L443.7,303.0
		L445.6,297.1 L447.4,290.9 L449.3,284.5 L451.2,277.8 L453.1,270.9 L455.0,263.9 L456.9,256.6 L458.8,249.3
		L460.7,241.9 L462.5,234.4 L464.4,226.9 L466.3,219.4 L468.2,211.9 L470.1,204.6 L472.0,197.3 L473.9,190.1
		L475.8,183.1 L477.6,176.3 L479.5,169.6 L481.4,163.2 L483.3,157.1 L485.2,151.2 L487.1,145.6 L489.0,140.3
		L490.9,135.2 L492.7,130.5 L494.6,126.1 L496.5,122.0 L498.4,118.3 L500.3,114.8 L502.2,111.6 L504.1,108.8
		L506.0,106.2 L507.8,103.8 L509.7,101.8 L511.6,100.0 L513.5,98.4 L515.4,97.1 L517.3,95.9 L519.2,95.0
		L521.0,94.2 L522.9,93.6 L524.8,93.1 L526.7,92.8 L528.6,92.6 L530.5,92.5 L532.4,92.5 L534.3,92.6
		L536.1,92.8 L538.0,93.0 L539.9,93.3 L541.8,93.6 L543.7,93.9 L545.6,94.3 L547.5,94.8 L549.4,95.2
		L551.2,95.7 L553.1,96.2 L555.0,96.8 L556.9,97.4 L558.8,98.0 L560.7,98.6 L562.6,99.3 L564.5,100.0
		L566.3,100.7 L568.2,101.4 L570.1,102.2 L572.0,103.0 L573.9,103.8 L575.8,104.6 L577.7,105.3 L579.5,106.1
		L581.4,106.8 L583.3,107.4 L585.2,107.9 L587.1,108.3 L589.0,108.6 L590.9,108.8 L592.8,108.7 L594.6,108.5
		L596.5,108.1 L598.4,107.5 L600.3,106.7 L602.2,105.6 L604.1,104.4 L606.0,102.9 L607.9,101.1 L609.7,99.2
		L611.6,97.1 L613.5,94.9 L615.4,92.6 L617.3,90.2 L619.2,87.7 L621.1,85.3 L623.0,82.9 L624.8,80.7
		L626.7,78.6 L628.6,76.7 L630.5,75.1 L632.4,73.8 L634.3,72.8 L636.2,72.1 L638.1,71.9 L639.9,72.0
		L641.8,72.5 L643.7,73.4 L645.6,74.7 L647.5,76.3 L649.4,78.3 L651.3,80.7 L653.1,83.3 L655.0,86.2
		L656.9,89.3 L658.8,92.7 L660.7,96.3 L662.6,100.0 L664.5,103.9 L666.4,107.9 L668.2,112.1 L670.1,116.4
		L672.0,120.8 L673.9,125.3 L675.8,130.0 L677.7,134.8 L679.6,139.7 L681.5,144.7 L683.3,149.9 L685.2,155.2
		L687.1,160.6 L689.0,166.1 L690.9,171.8 L692.8,177.6 L694.7,183.4 L696.6,189.3 L698.4,195.3 L700.3,201.2
		L702.2,207.2 L704.1,213.1 L706.0,219.0 L707.9,224.8 L709.8,230.5 L711.7,236.1 L713.5,241.5 L715.4,246.8
		L717.3,251.9 L719.2,256.8 L721.1,261.5 L723.0,266.0 L724.9,270.3 L726.7,274.4 L728.6,278.3 L730.5,282.0
		L732.4,285.5 L734.3,288.8 L736.2,291.9 L738.1,294.9 L740.0,297.6 L741.8,300.2 L743.7,302.6 L745.6,304.8
		L747.5,306.8 L749.4,308.7 L751.3,310.4 L753.2,311.9 L755.1,313.3 L756.9,314.5 L758.8,315.6 L760.7,316.6
		L762.6,317.5 L764.5,318.3 L766.4,319.1 L768.3,319.9 L770.2,320.6 L772.0,321.4 L773.9,322.2 L775.8,323.1
		L777.7,324.1 L779.6,325.2 L781.5,326.4 L783.4,327.8 L785.3,329.4 L787.1,331.1 L789.0,333.0 L790.9,335.0
		L792.8,337.2 L794.7,339.5 L796.6,341.9 L798.5,344.5 L800.3,347.1 L802.2,349.8 L804.1,352.6 L806.0,355.4
		L807.9,358.3 L809.8,361.1 L811.7,364.0 L813.6,366.8 L815.4,369.6 L817.3,372.4 L819.2,375.2 L821.1,377.9
		L823.0,380.6 L824.9,383.2 L826.8,385.8 L828.7,388.4 L830.5,391.0 L832.4,393.6 L834.3,396.2 L836.2,398.8
		L838.1,401.5 L840.0,404.2 L841.9,407.0 L843.8,409.9 L845.6,412.9 L847.5,416.0 L849.4,419.3 L851.3,422.7
		L853.2,426.3 L855.1,430.0 L857.0,433.8 L858.9,437.8 L860.7,442.0 L862.6,446.3 L864.5,450.7 L866.4,455.2
		L868.3,459.8 L870.2,464.5 L872.1,469.2 L873.9,474.0 L875.8,478.9 L877.7,483.7 L879.6,488.5 L881.5,493.3
		L883.4,498.0 L885.3,502.7 L887.2,507.3 L889.0,511.8 L890.9,516.3 L892.8,520.6 L894.7,524.8 L896.6,528.9
		L898.5,532.9 L900.4,536.7 L902.3,540.5 L904.1,544.1 L906.0,547.5 L907.9,550.8 L909.8,554.0 L911.7,557.1
		L913.6,560.0 L915.5,562.8 L917.4,565.5 L919.2,568.1 L921.1,570.5 L923.0,572.8 L924.9,575.1 L926.8,577.2
		L928.7,579.3 L930.6,581.2 L932.5,583.1 L934.3,584.9 L936.2,586.6 L938.1,588.2 L940.0,589.8 L941.9,591.3
		L943.8,592.7 L945.7,594.1 L947.5,595.4 L949.4,596.6 L951.3,597.8 L953.2,599.0 L955.1,600.1 L957.0,601.2
		L958.9,602.2 L960.8,603.2 L962.6,604.1 L964.5,605.0 L966.4,605.9 L968.3,606.8 L970.2,607.6 L972.1,608.4
		L974.0,609.2 L975.9,610.0 L977.7,610.8 L979.6,611.6 L981.5,612.3 L983.4,613.1 L985.3,613.8 L987.2,614.6
		L989.1,615.4 L991.0,616.1 L992.8,616.9 L994.7,617.7 L996.6,618.5 L998.5,619.3 L1000.4,620.2 L1002.3,621.0
		L1004.2,621.8 L1006.1,622.7 L1007.9,623.5 L1009.8,624.3 L1011.7,625.2 L1013.6,626.0  '/></g>
	</g>
	<g id="gnuplot_plot_2" ><title>Confidence interval</title>
<g fill="none" color="white" stroke="rgb( 31, 120, 180)" stroke-width="1.00" stroke-linecap="butt" stroke-linejoin="miter">
</g>
<g fill="none" color="black" stroke="currentColor" stroke-width="1.00" stroke-linecap="butt" stroke-linejoin="miter">
	<g transform="translate(1089.0,85.0)" stroke="none" fill="black" font-family="Helvetica" font-size="12.00"  text-anchor="start">
		<text><tspan font-family="Helvetica" >Confidence interval</tspan></text>
	</g>
</g>
<g fill="none" color="black" stroke="currentColor" stroke-width="1.00" stroke-linecap="butt" stroke-linejoin="miter">
	<g stroke='none' shape-rendering='crispEdges'>
		<polygon fill = 'rgb( 31, 120, 180)' fill-opacity = '0.250000' points = '1038.5,85.6 1080.7,85.6 1080.7,76.6 1038.5,76.6 '/>
		<polygon fill = 'rgb( 31, 120, 180)' fill-opacity = '0.250000' points = '158.7,478.0 158.7,662.4 160.6,662.4 160.6,472.5 '/>
		<polygon fill = 'rgb( 31, 120, 180)' fill-opacity = '0.250000' points = '160.6,472.5 160.6,662.4 162.5,662.4 162.5,467.5 '/>
		<polygon fill = 'rgb( 31, 120, 180)' fill-opacity = '0.250000' points = '162.5,467.5 162.5,662.4 164.4,662.4 164.4,463.1 '/>
		<polygon fill = 'rgb( 31, 120, 180)' fill-opacity = '0.250000' points = '164.4,463.1 164.4,662.4 166.3,662.4 166.3,459.2 '/>
		<polygon fill = 'rgb( 31, 120, 180)' fill-opacity = '0.250000' points = '166.3,459.2 166.3,662.4 168.1,662.4 168.1,456.0 '/>
		<polygon fill = 'rgb( 31, 120, 180)' fill-opacity = '0.250000' points = '168.1,456.0 168.1,662.4 170.0,662.4 170.0,453.5 '/>
		<polygon fill = 'rgb( 31, 120, 180)' fill-opacity = '0.250000' points = '170.0,453.5 170.0,662.4 171.9,662.4 171.9,451.6 '/>
		<polygon fill = 'rgb( 31, 120, 180)' fill-opacity = '0.250000' points = '171.9,451.6 171.9,662.4 173.8,662.4 173.8,450.4 '/>
		<polygon fill = 'rgb( 31, 120, 180)' fill-opacity = '0.250000' points = '173.8,450.4 173.8,662.4 175.7,662.4 175.7,449.9 '/>
		<polygon fill = 'rgb( 31, 120, 180)' fill-opacity = '0.250000' points = '175.7,449.9 175.7,662.4 177.6,662.4 177.6,450.1 '/>
		<polygon fill = 'rgb( 31, 120, 180)' fill-opacity = '0.250000' points = '177.6,450.1 177.6,662.4 179.5,662.4 179.5,450.8 '/>
		<polygon fill = 'rgb( 31, 120, 180)' fill-opacity = '0.250000' points = '179.5,450.8 179.5,662.4 181.4,662.4 181.4,452.2 '/>
		<polygon fill = 'rgb( 31, 120, 180)' fill-opacity = '0.250000' points = '181.4,452.2 181.4,662.4 183.2,662.4 183.2,454.0 '/>
		<polygon fill = 'rgb( 31, 120, 180)' fill-opacity = '0.250000' points = '183.2,454.0 183.2,662.4 185.1,662.4 185.1,456.4 '/>
		<polygon fill = 'rgb( 31, 120, 180)' fill-opacity = '0.250000' points = '185.1,456.4 185.1,662.4 187.0,662.4 187.0,459.1 '/>
		<polygon fill = 'rgb( 31, 120, 180)' fill-opacity = '0.250000' points = '187.0,459.1 187.0,662.4 188.9,662.4 188.9,462.1 '/>
		<polygon fill = 'rgb( 31, 120, 180)' fill-opacity = '0.250000' points = '188.9,462.1 188.9,662.4 190.8,662.4 190.8,465.4 '/>
		<polygon fill = 'rgb( 31, 120, 180)' fill-opacity = '0.250000' points = '190.8,465.4 190.8,662.4 192.7,662.4 192.7,468.9 '/>
		<polygon fill = 'rgb( 31, 120, 180)' fill-opacity = '0.250000' points = '192.7,468.9 192.7,662.4 194.6,662.4 194.6,472.5 '/>
		<polygon fill = 'rgb( 31, 120, 180)' fill-opacity = '0.250000' points = '194.6,472.5 194.6,662.4 196.5,662.4 196.5,476.2 '/>
		<polygon fill = 'rgb( 31, 120, 180)' fill-opacity = '0.250000' points = '196.5,476.2 196.5,662.4 198.3,662.4 198.3,479.8 '/>
		<polygon fill = 'rgb( 31, 120, 180)' fill-opacity = '0.250000' points = '198.3,479.8 198.3,662.4 200.2,662.4 200.2,483.3 '/>
		<polygon fill = 'rgb( 31, 120, 180)' fill-opacity = '0.250000' points = '200.2,483.3 200.2,662.4 202.1,662.4 202.1,486.7 '/>
		<polygon fill = 'rgb( 31, 120, 180)' fill-opacity = '0.250000' points = '202.1,486.7 202.1,662.4 204.0,662.4 204.0,489.9 '/>
		<polygon fill = 'rgb( 31, 120, 180)' fill-opacity = '0.250000' points = '204.0,489.9 204.0,662.4 205.9,662.4 205.9,492.9 '/>
		<polygon fill = 'rgb( 31, 120, 180)' fill-opacity = '0.250000' points = '205.9,492.9 205.9,662.4 207.8,662.4 207.8,495.7 '/>
		<polygon fill = 'rgb( 31, 120, 180)' fill-opacity = '0.250000' points = '207.8,495.7 207.8,662.4 209.7,662.4 209.7,498.2 '/>
		<polygon fill = 'rgb( 31, 120, 180)' fill-opacity = '0.250000' points = '209.7,498.2 209.7,662.4 211.6,662.4 211.6,500.3 '/>
		<polygon fill = 'rgb( 31, 120, 180)' fill-opacity = '0.250000' points = '211.6,500.3 211.6,662.4 213.4,662.4 213.4,502.2 '/>
		<polygon fill = 'rgb( 31, 120, 180)' fill-opacity = '0.250000' points = '213.4,502.2 213.4,662.4 215.3,662.4 215.3,503.8 '/>
		<polygon fill = 'rgb( 31, 120, 180)' fill-opacity = '0.250000' points = '215.3,503.8 215.3,662.4 217.2,662.4 217.2,505.1 '/>
		<polygon fill = 'rgb( 31, 120, 180)' fill-opacity = '0.250000' points = '217.2,505.1 217.2,662.4 219.1,662.4 219.1,506.1 '/>
		<polygon fill = 'rgb( 31, 120, 180)' fill-opacity = '0.250000' points = '219.1,506.1 219.1,662.4 221.0,662.4 221.0,506.8 '/>
		<polygon fill = 'rgb( 31, 120, 180)' fill-opacity = '0.250000' points = '221.0,506.8 221.0,662.4 222.9,662.4 222.9,507.3 '/>
		<polygon fill = 'rgb( 31, 120, 180)' fill-opacity = '0.250000' points = '222.9,507.3 222.9,662.4 224.8,662.4 224.8,507.5 '/>
		<polygon fill = 'rgb( 31, 120, 180)' fill-opacity = '0.250000' points = '224.8,507.5 224.8,662.4 226.6,662.4 226.6,507.6 '/>
		<polygon fill = 'rgb( 31, 120, 180)' fill-opacity = '0.250000' points = '226.6,507.6 226.6,662.4 228.5,662.4 228.5,507.4 '/>
		<polygon fill = 'rgb( 31, 120, 180)' fill-opacity = '0.250000' points = '228.5,507.4 228.5,662.4 230.4,662.4 230.4,507.1 '/>
		<polygon fill = 'rgb( 31, 120, 180)' fill-opacity = '0.250000' points = '230.4,507.1 230.4,662.4 232.3,662.4 232.3,506.8 '/>
		<polygon fill = 'rgb( 31, 120, 180)' fill-opacity = '0.250000' points = '232.3,506.8 232.3,662.4 234.2,662.4 234.2,506.3 '/>
		<polygon fill = 'rgb( 31, 120, 180)' fill-opacity = '0.250000' points = '234.2,506.3 234.2,662.4 236.1,662.4 236.1,505.7 '/>
		<polygon fill = 'rgb( 31, 120, 180)' fill-opacity = '0.250000' points = '236.1,505.7 236.1,662.4 238.0,662.4 238.0,505.2 '/>
		<polygon fill = 'rgb( 31, 120, 180)' fill-opacity = '0.250000' points = '238.0,505.2 238.0,662.4 239.9,662.4 239.9,504.6 '/>
		<polygon fill = 'rgb( 31, 120, 180)' fill-opacity = '0.250000' points = '239.9,504.6 239.9,662.4 241.7,662.4 241.7,504.0 '/>
		<polygon fill = 'rgb( 31, 120, 180)' fill-opacity = '0.250000' points = '241.7,504.0 241.7,662.4 243.6,662.4 243.6,503.5 '/>
		<polygon fill = 'rgb( 31, 120, 180)' fill-opacity = '0.250000' points = '243.6,503.5 243.6,662.4 245.5,662.4 245.5,503.0 '/>
		<polygon fill = 'rgb( 31, 120, 180)' fill-opacity = '0.250000' points = '245.5,503.0 245.5,662.4 247.4,662.4 247.4,502.5 '/>
		<polygon fill = 'rgb( 31, 120, 180)' fill-opacity = '0.250000' points = '247.4,502.5 247.4,662.4 249.3,662.4 249.3,502.1 '/>
		<polygon fill = 'rgb( 31, 120, 180)' fill-opacity = '0.250000' points = '249.3,502.1 249.3,662.4 251.2,662.4 251.2,501.8 '/>
		<polygon fill = 'rgb( 31, 120, 180)' fill-opacity = '0.250000' points = '251.2,501.8 251.2,662.4 253.1,662.4 253.1,501.4 '/>
		<polygon fill = 'rgb( 31, 120, 180)' fill-opacity = '0.250000' points = '253.1,501.4 253.1,662.4 255.0,662.4 255.0,501.1 '/>
		<polygon fill = 'rgb( 31, 120, 180)' fill-opacity = '0.250000' points = '255.0,501.1 255.0,662.4 256.8,662.4 256.8,500.8 '/>
		<polygon fill = 'rgb( 31, 120, 180)' fill-opacity = '0.250000' points = '256.8,500.8 256.8,662.4 258.7,662.4 258.7,500.5 '/>
		<polygon fill = 'rgb( 31, 120, 180)' fill-opacity = '0.250000' points = '258.7,500.5 258.7,662.4 260.6,662.4 260.6,500.2 '/>
		<polygon fill = 'rgb( 31, 120, 180)' fill-opacity = '0.250000' points = '260.6,500.2 260.6,662.4 262.5,662.4 262.5,499.8 '/>
		<polygon fill = 'rgb( 31, 120, 180)' fill-opacity = '0.250000' points = '262.5,499.8 262.5,662.4 264.4,662.4 264.4,499.4 '/>
		<polygon fill = 'rgb( 31, 120, 180)' fill-opacity = '0.250000' points = '264.4,499.4 264.4,662.4 266.3,662.4 266.3,498.8 '/>
		<polygon fill = 'rgb( 31, 120, 180)' fill-opacity = '0.250000' points = '266.3,498.8 266.3,662.4 268.2,662.4 268.2,498.1 '/>
		<polygon fill = 'rgb( 31, 120, 180)' fill-opacity = '0.250000' points = '268.2,498.1 268.2,662.4 270.1,662.4 270.1,497.3 '/>
		<polygon fill = 'rgb( 31, 120, 180)' fill-opacity = '0.250000' points = '270.1,497.3 270.1,662.4 271.9,662.4 271.9,496.4 '/>
		<polygon fill = 'rgb( 31, 120, 180)' fill-opacity = '0.250000' points = '271.9,496.4 271.9,662.4 273.8,662.4 273.8,495.2 '/>
		<polygon fill = 'rgb( 31, 120, 180)' fill-opacity = '0.250000' points = '273.8,495.2 273.8,662.4 275.7,662.4 275.7,493.8 '/>
		<polygon fill = 'rgb( 31, 120, 180)' fill-opacity = '0.250000' points = '275.7,493.8 275.7,662.4 277.6,662.4 277.6,492.3 '/>
		<polygon fill = 'rgb( 31, 120, 180)' fill-opacity = '0.250000' points = '277.6,492.3 277.6,662.4 279.5,662.4 279.5,490.4 '/>
		<polygon fill = 'rgb( 31, 120, 180)' fill-opacity = '0.250000' points = '279.5,490.4 279.5,662.4 281.4,662.4 281.4,488.4 '/>
		<polygon fill = 'rgb( 31, 120, 180)' fill-opacity = '0.250000' points = '281.4,488.4 281.4,662.4 283.3,662.4 283.3,486.1 '/>
		<polygon fill = 'rgb( 31, 120, 180)' fill-opacity = '0.250000' points = '283.3,486.1 283.3,662.4 285.2,662.4 285.2,483.5 '/>
		<polygon fill = 'rgb( 31, 120, 180)' fill-opacity = '0.250000' points = '285.2,483.5 285.2,662.4 287.0,662.4 287.0,480.7 '/>
		<polygon fill = 'rgb( 31, 120, 180)' fill-opacity = '0.250000' points = '287.0,480.7 287.0,662.4 288.9,662.4 288.9,477.6 '/>
		<polygon fill = 'rgb( 31, 120, 180)' fill-opacity = '0.250000' points = '288.9,477.6 288.9,662.4 290.8,662.4 290.8,474.2 '/>
		<polygon fill = 'rgb( 31, 120, 180)' fill-opacity = '0.250000' points = '290.8,474.2 290.8,662.4 292.7,662.4 292.7,470.6 '/>
		<polygon fill = 'rgb( 31, 120, 180)' fill-opacity = '0.250000' points = '292.7,470.6 292.7,662.4 294.6,662.4 294.6,466.7 '/>
		<polygon fill = 'rgb( 31, 120, 180)' fill-opacity = '0.250000' points = '294.6,466.7 294.6,662.4 296.5,662.4 296.5,462.6 '/>
		<polygon fill = 'rgb( 31, 120, 180)' fill-opacity = '0.250000' points = '296.5,462.6 296.5,662.4 298.4,662.4 298.4,458.3 '/>
		<polygon fill = 'rgb( 31, 120, 180)' fill-opacity = '0.250000' points = '298.4,458.3 298.4,662.4 300.2,662.4 300.2,453.8 '/>
		<polygon fill = 'rgb( 31, 120, 180)' fill-opacity = '0.250000' points = '300.2,453.8 300.2,662.4 302.1,662.4 302.1,449.1 '/>
		<polygon fill = 'rgb( 31, 120, 180)' fill-opacity = '0.250000' points = '302.1,449.1 302.1,662.4 304.0,662.4 304.0,444.2 '/>
		<polygon fill = 'rgb( 31, 120, 180)' fill-opacity = '0.250000' points = '304.0,444.2 304.0,662.4 305.9,662.4 305.9,439.3 '/>
		<polygon fill = 'rgb( 31, 120, 180)' fill-opacity = '0.250000' points = '305.9,439.3 305.9,662.4 307.8,662.4 307.8,434.2 '/>
		<polygon fill = 'rgb( 31, 120, 180)' fill-opacity = '0.250000' points = '307.8,434.2 307.8,662.4 309.7,662.4 309.7,429.0 '/>
		<polygon fill = 'rgb( 31, 120, 180)' fill-opacity = '0.250000' points = '309.7,429.0 309.7,662.4 311.6,662.4 311.6,423.8 '/>
		<polygon fill = 'rgb( 31, 120, 180)' fill-opacity = '0.250000' points = '311.6,423.8 311.6,662.4 313.5,662.4 313.5,418.6 '/>
		<polygon fill = 'rgb( 31, 120, 180)' fill-opacity = '0.250000' points = '313.5,418.6 313.5,662.4 315.3,662.4 315.3,413.5 '/>
		<polygon fill = 'rgb( 31, 120, 180)' fill-opacity = '0.250000' points = '315.3,413.5 315.3,662.4 317.2,662.4 317.2,408.3 '/>
		<polygon fill = 'rgb( 31, 120, 180)' fill-opacity = '0.250000' points = '317.2,408.3 317.2,662.4 319.1,662.4 319.1,403.3 '/>
		<polygon fill = 'rgb( 31, 120, 180)' fill-opacity = '0.250000' points = '319.1,403.3 319.1,662.4 321.0,662.4 321.0,398.4 '/>
		<polygon fill = 'rgb( 31, 120, 180)' fill-opacity = '0.250000' points = '321.0,398.4 321.0,662.4 322.9,662.4 322.9,393.6 '/>
		<polygon fill = 'rgb( 31, 120, 180)' fill-opacity = '0.250000' points = '322.9,393.6 322.9,662.4 324.8,662.4 324.8,389.0 '/>
		<polygon fill = 'rgb( 31, 120, 180)' fill-opacity = '0.250000' points = '324.8,389.0 324.8,662.4 326.7,662.4 326.7,384.5 '/>
		<polygon fill = 'rgb( 31, 120, 180)' fill-opacity = '0.250000' points = '326.7,384.5 326.7,662.4 328.6,662.4 328.6,380.3 '/>
		<polygon fill = 'rgb( 31, 120, 180)' fill-opacity = '0.250000' points = '328.6,380.3 328.6,662.4 330.4,662.4 330.4,376.4 '/>
		<polygon fill = 'rgb( 31, 120, 180)' fill-opacity = '0.250000' points = '330.4,376.4 330.4,662.4 332.3,662.4 332.3,372.7 '/>
		<polygon fill = 'rgb( 31, 120, 180)' fill-opacity = '0.250000' points = '332.3,372.7 332.3,662.4 334.2,662.4 334.2,369.2 '/>
		<polygon fill = 'rgb( 31, 120, 180)' fill-opacity = '0.250000' points = '334.2,369.2 334.2,662.4 336.1,662.4 336.1,366.0 '/>
		<polygon fill = 'rgb( 31, 120, 180)' fill-opacity = '0.250000' points = '336.1,366.0 336.1,662.4 338.0,662.4 338.0,363.2 '/>
		<polygon fill = 'rgb( 31, 120, 180)' fill-opacity = '0.250000' points = '338.0,363.2 338.0,662.4 339.9,662.4 339.9,360.6 '/>
		<polygon fill = 'rgb( 31, 120, 180)' fill-opacity = '0.250000' points = '339.9,360.6 339.9,662.4 341.8,662.4 341.8,358.3 '/>
		<polygon fill = 'rgb( 31, 120, 180)' fill-opacity = '0.250000' points = '341.8,358.3 341.8,662.4 343.7,662.4 343.7,356.3 '/>
		<polygon fill = 'rgb( 31, 120, 180)' fill-opacity = '0.250000' points = '343.7,356.3 343.7,662.4 345.5,662.4 345.5,354.6 '/>
		<polygon fill = 'rgb( 31, 120, 180)' fill-opacity = '0.250000' points = '345.5,354.6 345.5,662.4 347.4,662.4 347.4,353.1 '/>
		<polygon fill = 'rgb( 31, 120, 180)' fill-opacity = '0.250000' points = '347.4,353.1 347.4,662.4 349.3,662.4 349.3,352.0 '/>
		<polygon fill = 'rgb( 31, 120, 180)' fill-opacity = '0.250000' points = '349.3,352.0 349.3,662.4 351.2,662.4 351.2,351.1 '/>
		<polygon fill = 'rgb( 31, 120, 180)' fill-opacity = '0.250000' points = '351.2,351.1 351.2,662.4 353.1,662.4 353.1,350.4 '/>
		<polygon fill = 'rgb( 31, 120, 180)' fill-opacity = '0.250000' points = '353.1,350.4 353.1,662.4 355.0,662.4 355.0,350.0 '/>
		<polygon fill = 'rgb( 31, 120, 180)' fill-opacity = '0.250000' points = '355.0,350.0 355.0,662.4 356.9,662.4 356.9,349.8 '/>
		<polygon fill = 'rgb( 31, 120, 180)' fill-opacity = '0.250000' points = '356.9,349.8 356.9,662.4 358.8,662.4 358.8,349.8 '/>
		<polygon fill = 'rgb( 31, 120, 180)' fill-opacity = '0.250000' points = '358.8,349.8 358.8,662.4 360.6,662.4 360.6,350.0 '/>
		<polygon fill = 'rgb( 31, 120, 180)' fill-opacity = '0.250000' points = '360.6,350.0 360.6,662.4 362.5,662.4 362.5,350.3 '/>
		<polygon fill = 'rgb( 31, 120, 180)' fill-opacity = '0.250000' points = '362.5,350.3 362.5,662.4 364.4,662.4 364.4,350.7 '/>
		<polygon fill = 'rgb( 31, 120, 180)' fill-opacity = '0.250000' points = '364.4,350.7 364.4,662.4 366.3,662.4 366.3,351.2 '/>
		<polygon fill = 'rgb( 31, 120, 180)' fill-opacity = '0.250000' points = '366.3,351.2 366.3,662.4 368.2,662.4 368.2,351.8 '/>
		<polygon fill = 'rgb( 31, 120, 180)' fill-opacity = '0.250000' points = '368.2,351.8 368.2,662.4 370.1,662.4 370.1,352.4 '/>
		<polygon fill = 'rgb( 31, 120, 180)' fill-opacity = '0.250000' points = '370.1,352.4 370.1,662.4 372.0,662.4 372.0,353.1 '/>
		<polygon fill = 'rgb( 31, 120, 180)' fill-opacity = '0.250000' points = '372.0,353.1 372.0,662.4 373.8,662.4 373.8,353.7 '/>
		<polygon fill = 'rgb( 31, 120, 180)' fill-opacity = '0.250000' points = '373.8,353.7 373.8,662.4 375.7,662.4 375.7,354.4 '/>
		<polygon fill = 'rgb( 31, 120, 180)' fill-opacity = '0.250000' points = '375.7,354.4 375.7,662.4 377.6,662.4 377.6,355.0 '/>
		<polygon fill = 'rgb( 31, 120, 180)' fill-opacity = '0.250000' points = '377.6,355.0 377.6,662.4 379.5,662.4 379.5,355.5 '/>
		<polygon fill = 'rgb( 31, 120, 180)' fill-opacity = '0.250000' points = '379.5,355.5 379.5,662.4 381.4,662.4 381.4,356.0 '/>
		<polygon fill = 'rgb( 31, 120, 180)' fill-opacity = '0.250000' points = '381.4,356.0 381.4,662.4 383.3,662.4 383.3,356.4 '/>
		<polygon fill = 'rgb( 31, 120, 180)' fill-opacity = '0.250000' points = '383.3,356.4 383.3,662.4 385.2,662.4 385.2,356.7 '/>
		<polygon fill = 'rgb( 31, 120, 180)' fill-opacity = '0.250000' points = '385.2,356.7 385.2,662.4 387.1,662.4 387.1,357.0 '/>
		<polygon fill = 'rgb( 31, 120, 180)' fill-opacity = '0.250000' points = '387.1,357.0 387.1,662.4 388.9,662.4 388.9,357.2 '/>
		<polygon fill = 'rgb( 31, 120, 180)' fill-opacity = '0.250000' points = '388.9,357.2 388.9,662.4 390.8,662.4 390.8,357.3 '/>
		<polygon fill = 'rgb( 31, 120, 180)' fill-opacity = '0.250000' points = '390.8,357.3 390.8,662.4 392.7,662.4 392.7,357.3 '/>
		<polygon fill = 'rgb( 31, 120, 180)' fill-opacity = '0.250000' points = '392.7,357.3 392.7,662.4 394.6,662.4 394.6,357.3 '/>
		<polygon fill = 'rgb( 31, 120, 180)' fill-opacity = '0.250000' points = '394.6,357.3 394.6,662.4 396.5,662.4 396.5,357.2 '/>
		<polygon fill = 'rgb( 31, 120, 180)' fill-opacity = '0.250000' points = '396.5,357.2 396.5,662.4 398.4,662.4 398.4,357.1 '/>
		<polygon fill = 'rgb( 31, 120, 180)' fill-opacity = '0.250000' points = '398.4,357.1 398.4,662.4 400.3,662.4 400.3,356.8 '/>
		<polygon fill = 'rgb( 31, 120, 180)' fill-opacity = '0.250000' points = '400.3,356.8 400.3,662.4 402.2,662.4 402.2,356.6 '/>
		<polygon fill = 'rgb( 31, 120, 180)' fill-opacity = '0.250000' points = '402.2,356.6 402.2,662.4 404.0,662.4 404.0,356.2 '/>
		<polygon fill = 'rgb( 31, 120, 180)' fill-opacity = '0.250000' points = '404.0,356.2 404.0,662.4 405.9,662.4 405.9,355.8 '/>
		<polygon fill = 'rgb( 31, 120, 180)' fill-opacity = '0.250000' points = '405.9,355.8 405.9,662.4 407.8,662.4 407.8,355.3 '/>
		<polygon fill = 'rgb( 31, 120, 180)' fill-opacity = '0.250000' points = '407.8,355.3 407.8,662.4 409.7,662.4 409.7,354.7 '/>
		<polygon fill = 'rgb( 31, 120, 180)' fill-opacity = '0.250000' points = '409.7,354.7 409.7,662.4 411.6,662.4 411.6,353.9 '/>
		<polygon fill = 'rgb( 31, 120, 180)' fill-opacity = '0.250000' points = '411.6,353.9 411.6,662.4 413.5,662.4 413.5,353.1 '/>
		<polygon fill = 'rgb( 31, 120, 180)' fill-opacity = '0.250000' points = '413.5,353.1 413.5,662.4 415.4,662.4 415.4,352.0 '/>
		<polygon fill = 'rgb( 31, 120, 180)' fill-opacity = '0.250000' points = '415.4,352.0 415.4,662.4 417.3,662.4 417.3,350.8 '/>
		<polygon fill = 'rgb( 31, 120, 180)' fill-opacity = '0.250000' points = '417.3,350.8 417.3,662.4 419.1,662.4 419.1,349.4 '/>
		<polygon fill = 'rgb( 31, 120, 180)' fill-opacity = '0.250000' points = '419.1,349.4 419.1,662.4 421.0,662.4 421.0,347.7 '/>
		<polygon fill = 'rgb( 31, 120, 180)' fill-opacity = '0.250000' points = '421.0,347.7 421.0,662.4 422.9,662.4 422.9,345.8 '/>
		<polygon fill = 'rgb( 31, 120, 180)' fill-opacity = '0.250000' points = '422.9,345.8 422.9,662.4 424.8,662.4 424.8,343.6 '/>
		<polygon fill = 'rgb( 31, 120, 180)' fill-opacity = '0.250000' points = '424.8,343.6 424.8,662.4 426.7,662.4 426.7,341.0 '/>
		<polygon fill = 'rgb( 31, 120, 180)' fill-opacity = '0.250000' points = '426.7,341.0 426.7,662.4 428.6,662.4 428.6,338.2 '/>
		<polygon fill = 'rgb( 31, 120, 180)' fill-opacity = '0.250000' points = '428.6,338.2 428.6,662.4 430.5,662.4 430.5,335.0 '/>
		<polygon fill = 'rgb( 31, 120, 180)' fill-opacity = '0.250000' points = '430.5,335.0 430.5,662.4 432.4,662.4 432.4,331.5 '/>
		<polygon fill = 'rgb( 31, 120, 180)' fill-opacity = '0.250000' points = '432.4,331.5 432.4,662.4 434.2,662.4 434.2,327.6 '/>
		<polygon fill = 'rgb( 31, 120, 180)' fill-opacity = '0.250000' points = '434.2,327.6 434.2,662.4 436.1,662.4 436.1,323.4 '/>
		<polygon fill = 'rgb( 31, 120, 180)' fill-opacity = '0.250000' points = '436.1,323.4 436.1,662.4 438.0,662.4 438.0,318.8 '/>
		<polygon fill = 'rgb( 31, 120, 180)' fill-opacity = '0.250000' points = '438.0,318.8 438.0,662.4 439.9,662.4 439.9,313.9 '/>
		<polygon fill = 'rgb( 31, 120, 180)' fill-opacity = '0.250000' points = '439.9,313.9 439.9,662.4 441.8,662.4 441.8,308.6 '/>
		<polygon fill = 'rgb( 31, 120, 180)' fill-opacity = '0.250000' points = '441.8,308.6 441.8,662.4 443.7,662.4 443.7,303.0 '/>
		<polygon fill = 'rgb( 31, 120, 180)' fill-opacity = '0.250000' points = '443.7,303.0 443.7,662.4 445.6,662.4 445.6,297.1 '/>
		<polygon fill = 'rgb( 31, 120, 180)' fill-opacity = '0.250000' points = '445.6,297.1 445.6,662.4 447.4,662.4 447.4,290.9 '/>
		<polygon fill = 'rgb( 31, 120, 180)' fill-opacity = '0.250000' points = '447.4,290.9 447.4,662.4 449.3,662.4 449.3,284.5 '/>
		<polygon fill = 'rgb( 31, 120, 180)' fill-opacity = '0.250000' points = '449.3,284.5 449.3,662.4 451.2,662.4 451.2,277.8 '/>
		<polygon fill = 'rgb( 31, 120, 180)' fill-opacity = '0.250000' points = '451.2,277.8 451.2,662.4 453.1,662.4 453.1,270.9 '/>
		<polygon fill = 'rgb( 31, 120, 180)' fill-opacity = '0.250000' points = '453.1,270.9 453.1,662.4 455.0,662.4 455.0,263.9 '/>
		<polygon fill = 'rgb( 31, 120, 180)' fill-opacity = '0.250000' points = '455.0,263.9 455.0,662.4 456.9,662.4 456.9,256.6 '/>
		<polygon fill = 'rgb( 31, 120, 180)' fill-opacity = '0.250000' points = '456.9,256.6 456.9,662.4 458.8,662.4 458.8,249.3 '/>
		<polygon fill = 'rgb( 31, 120, 180)' fill-opacity = '0.250000' points = '458.8,249.3 458.8,662.4 460.7,662.4 460.7,241.9 '/>
		<polygon fill = 'rgb( 31, 120, 180)' fill-opacity = '0.250000' points = '460.7,241.9 460.7,662.4 462.5,662.4 462.5,234.4 '/>
		<polygon fill = 'rgb( 31, 120, 180)' fill-opacity = '0.250000' points = '462.5,234.4 462.5,662.4 464.4,662.4 464.4,226.9 '/>
		<polygon fill = 'rgb( 31, 120, 180)' fill-opacity = '0.250000' points = '464.4,226.9 464.4,662.4 466.3,662.4 466.3,219.4 '/>
		<polygon fill = 'rgb( 31, 120, 180)' fill-opacity = '0.250000' points = '466.3,219.4 466.3,662.4 468.2,662.4 468.2,211.9 '/>
		<polygon fill = 'rgb( 31, 120, 180)' fill-opacity = '0.250000' points = '468.2,211.9 468.2,662.4 470.1,662.4 470.1,204.6 '/>
		<polygon fill = 'rgb( 31, 120, 180)' fill-opacity = '0.250000' points = '470.1,204.6 470.1,662.4 472.0,662.4 472.0,197.3 '/>
		<polygon fill = 'rgb( 31, 120, 180)' fill-opacity = '0.250000' points = '472.0,197.3 472.0,662.4 473.9,662.4 473.9,190.1 '/>
		<polygon fill = 'rgb( 31, 120, 180)' fill-opacity = '0.250000' points = '473.9,190.1 473.9,662.4 475.8,662.4 475.8,183.1 '/>
		<polygon fill = 'rgb( 31, 120, 180)' fill-opacity = '0.250000' points = '475.8,183.1 475.8,662.4 477.6,662.4 477.6,176.3 '/>
		<polygon fill = 'rgb( 31, 120, 180)' fill-opacity = '0.250000' points = '477.6,176.3 477.6,662.4 479.5,662.4 479.5,169.6 '/>
		<polygon fill = 'rgb( 31, 120, 180)' fill-opacity = '0.250000' points = '479.5,169.6 479.5,662.4 481.4,662.4 481.4,163.2 '/>
		<polygon fill = 'rgb( 31, 120, 180)' fill-opacity = '0.250000' points = '481.4,163.2 481.4,662.4 483.3,662.4 483.3,157.1 '/>
		<polygon fill = 'rgb( 31, 120, 180)' fill-opacity = '0.250000' points = '483.3,157.1 483.3,662.4 485.2,662.4 485.2,151.2 '/>
		<polygon fill = 'rgb( 31, 120, 180)' fill-opacity = '0.250000' points = '485.2,151.2 485.2,662.4 487.1,662.4 487.1,145.6 '/>
		<polygon fill = 'rgb( 31, 120, 180)' fill-opacity = '0.250000' points = '487.1,145.6 487.1,662.4 489.0,662.4 489.0,140.3 '/>
		<polygon fill = 'rgb( 31, 120, 180)' fill-opacity = '0.250000' points = '489.0,140.3 489.0,662.4 490.9,662.4 490.9,135.2 '/>
		<polygon fill = 'rgb( 31, 120, 180)' fill-opacity = '0.250000' points = '490.9,135.2 490.9,662.4 492.7,662.4 492.7,130.5 '/>
		<polygon fill = 'rgb( 31, 120, 180)' fill-opacity = '0.250000' points = '492.7,130.5 492.7,662.4 494.6,662.4 494.6,126.1 '/>
		<polygon fill = 'rgb( 31, 120, 180)' fill-opacity = '0.250000' points = '494.6,126.1 494.6,662.4 496.5,662.4 496.5,122.0 '/>
		<polygon fill = 'rgb( 31, 120, 180)' fill-opacity = '0.250000' points = '496.5,122.0 496.5,662.4 498.4,662.4 498.4,118.3 '/>
		<polygon fill = 'rgb( 31, 120, 180)' fill-opacity = '0.250000' points = '498.4,118.3 498.4,662.4 500.3,662.4 500.3,114.8 '/>
		<polygon fill = 'rgb( 31, 120, 180)' fill-opacity = '0.250000' points = '500.3,114.8 500.3,662.4 502.2,662.4 502.2,111.6 '/>
		<polygon fill = 'rgb( 31, 120, 180)' fill-opacity = '0.250000' points = '502.2,111.6 502.2,662.4 504.1,662.4 504.1,108.8 '/>
		<polygon fill = 'rgb( 31, 120, 180)' fill-opacity = '0.250000' points = '504.1,108.8 504.1,662.4 506.0,662.4 506.0,106.2 '/>
		<polygon fill = 'rgb( 31, 120, 180)' fill-opacity = '0.250000' points = '506.0,106.2 506.0,662.4 507.8,662.4 507.8,103.8 '/>
		<polygon fill = 'rgb( 31, 120, 180)' fill-opacity = '0.250000' points = '507.8,103.8 507.8,662.4 509.7,662.4 509.7,101.8 '/>
		<polygon fill = 'rgb( 31, 120, 180)' fill-opacity = '0.250000' points = '509.7,101.8 509.7,662.4 511.6,662.4 511.6,100.0 '/>
		<polygon fill = 'rgb( 31, 120, 180)' fill-opacity = '0.250000' points = '511.6,100.0 511.6,662.4 513.5,662.4 513.5,98.4 '/>
		<polygon fill = 'rgb( 31, 120, 180)' fill-opacity = '0.250000' points = '513.5,98.4 513.5,662.4 515.4,662.4 515.4,97.1 '/>
		<polygon fill = 'rgb( 31, 120, 180)' fill-opacity = '0.250000' points = '515.4,97.1 515.4,662.4 517.3,662.4 517.3,95.9 '/>
		<polygon fill = 'rgb( 31, 120, 180)' fill-opacity = '0.250000' points = '517.3,95.9 517.3,662.4 519.2,662.4 519.2,95.0 '/>
		<polygon fill = 'rgb( 31, 120, 180)' fill-opacity = '0.250000' points = '519.2,95.0 519.2,662.4 521.0,662.4 521.0,94.2 '/>
		<polygon fill = 'rgb( 31, 120, 180)' fill-opacity = '0.250000' points = '521.0,94.2 521.0,662.4 522.9,662.4 522.9,93.6 '/>
		<polygon fill = 'rgb( 31, 120, 180)' fill-opacity = '0.250000' points = '522.9,93.6 522.9,662.4 524.8,662.4 524.8,93.1 '/>
		<polygon fill = 'rgb( 31, 120, 180)' fill-opacity = '0.250000' points = '524.8,93.1 524.8,662.4 526.7,662.4 526.7,92.8 '/>
		<polygon fill = 'rgb( 31, 120, 180)' fill-opacity = '0.250000' points = '526.7,92.8 526.7,662.4 528.6,662.4 528.6,92.6 '/>
		<polygon fill = 'rgb( 31, 120, 180)' fill-opacity = '0.250000' points = '528.6,92.6 528.6,662.4 530.5,662.4 530.5,92.5 '/>
		<polygon fill = 'rgb( 31, 120, 180)' fill-opacity = '0.250000' points = '530.5,92.5 530.5,662.4 532.4,662.4 532.4,92.5 '/>
		<polygon fill = 'rgb( 31, 120, 180)' fill-opacity = '0.250000' points = '532.4,92.5 532.4,662.4 534.3,662.4 534.3,92.6 '/>
		<polygon fill = 'rgb( 31, 120, 180)' fill-opacity = '0.250000' points = '534.3,92.6 534.3,662.4 536.1,662.4 536.1,92.8 '/>
		<polygon fill = 'rgb( 31, 120, 180)' fill-opacity = '0.250000' points = '536.1,92.8 536.1,662.4 538.0,662.4 538.0,93.0 '/>
		<polygon fill = 'rgb( 31, 120, 180)' fill-opacity = '0.250000' points = '538.0,93.0 538.0,662.4 539.9,662.4 539.9,93.3 '/>
		<polygon fill = 'rgb( 31, 120, 180)' fill-opacity = '0.250000' points = '539.9,93.3 539.9,662.4 541.8,662.4 541.8,93.6 '/>
		<polygon fill = 'rgb( 31, 120, 180)' fill-opacity = '0.250000' points = '541.8,93.6 541.8,662.4 543.7,662.4 543.7,93.9 '/>
		<polygon fill = 'rgb( 31, 120, 180)' fill-opacity = '0.250000' points = '543.7,93.9 543.7,662.4 545.6,662.4 545.6,94.3 '/>
		<polygon fill = 'rgb( 31, 120, 180)' fill-opacity = '0.250000' points = '545.6,94.3 545.6,662.4 547.5,662.4 547.5,94.8 '/>
		<polygon fill = 'rgb( 31, 120, 180)' fill-opacity = '0.250000' points = '547.5,94.8 547.5,662.4 549.4,662.4 549.4,95.2 '/>
		<polygon fill = 'rgb( 31, 120, 180)' fill-opacity = '0.250000' points = '549.4,95.2 549.4,662.4 551.2,662.4 551.2,95.7 '/>
		<polygon fill = 'rgb( 31, 120, 180)' fill-opacity = '0.250000' points = '551.2,95.7 551.2,662.4 553.1,662.4 553.1,96.2 '/>
		<polygon fill = 'rgb( 31, 120, 180)' fill-opacity = '0.250000' points = '553.1,96.2 553.1,662.4 555.0,662.4 555.0,96.8 '/>
		<polygon fill = 'rgb( 31, 120, 180)' fill-opacity = '0.250000' points = '555.0,96.8 555.0,662.4 556.9,662.4 556.9,97.4 '/>
		<polygon fill = 'rgb( 31, 120, 180)' fill-opacity = '0.250000' points = '556.9,97.4 556.9,662.4 558.8,662.4 558.8,98.0 '/>
		<polygon fill = 'rgb( 31, 120, 180)' fill-opacity = '0.250000' points = '558.8,98.0 558.8,662.4 560.7,662.4 560.7,98.6 '/>
		<polygon fill = 'rgb( 31, 120, 180)' fill-opacity = '0.250000' points = '560.7,98.6 560.7,662.4 562.6,662.4 562.6,99.3 '/>
		<polygon fill = 'rgb( 31, 120, 180)' fill-opacity = '0.250000' points = '562.6,99.3 562.6,662.4 564.5,662.4 564.5,100.0 '/>
		<polygon fill = 'rgb( 31, 120, 180)' fill-opacity = '0.250000' points = '564.5,100.0 564.5,662.4 566.3,662.4 566.3,100.7 '/>
		<polygon fill = 'rgb( 31, 120, 180)' fill-opacity = '0.250000' points = '566.3,100.7 566.3,662.4 568.2,662.4 568.2,101.4 '/>
		<polygon fill = 'rgb( 31, 120, 180)' fill-opacity = '0.250000' points = '568.2,101.4 568.2,662.4 570.1,662.4 570.1,102.2 '/>
		<polygon fill = 'rgb( 31, 120, 180)' fill-opacity = '0.250000' points = '570.1,102.2 570.1,662.4 572.0,662.4 572.0,103.0 '/>
		<polygon fill = 'rgb( 31, 120, 180)' fill-opacity = '0.250000' points = '572.0,103.0 572.0,662.4 573.9,662.4 573.9,103.8 '/>
		<polygon fill = 'rgb( 31, 120, 180)' fill-opacity = '0.250000' points = '573.9,103.8 573.9,662.4 575.8,662.4 575.8,104.6 '/>
		<polygon fill = 'rgb( 31, 120, 180)' fill-opacity = '0.250000' points = '575.8,104.6 575.8,662.4 577.7,662.4 577.7,105.3 '/>
		<polygon fill = 'rgb( 31, 120, 180)' fill-opacity = '0.250000' points = '577.7,105.3 577.7,662.4 579.5,662.4 579.5,106.1 '/>
		<polygon fill = 'rgb( 31, 120, 180)' fill-opacity = '0.250000' points = '579.5,106.1 579.5,662.4 581.4,662.4 581.4,106.8 '/>
		<polygon fill = 'rgb( 31, 120, 180)' fill-opacity = '0.250000' points = '581.4,106.8 581.4,662.4 583.3,662.4 583.3,107.4 '/>
		<polygon fill = 'rgb( 31, 120, 180)' fill-opacity = '0.250000' points = '583.3,107.4 583.3,662.4 585.2,662.4 585.2,107.9 '/>
		<polygon fill = 'rgb( 31, 120, 180)' fill-opacity = '0.250000' points = '585.2,107.9 585.2,662.4 587.1,662.4 587.1,108.3 '/>
		<polygon fill = 'rgb( 31, 120, 180)' fill-opacity = '0.250000' points = '587.1,108.3 587.1,662.4 589.0,662.4 589.0,108.6 '/>
		<polygon fill = 'rgb( 31, 120, 180)' fill-opacity = '0.250000' points = '589.0,108.6 589.0,662.4 590.9,662.4 590.9,108.8 '/>
		<polygon fill = 'rgb( 31, 120, 180)' fill-opacity = '0.250000' points = '590.9,108.8 590.9,662.4 592.8,662.4 592.8,108.7 '/>
		<polygon fill = 'rgb( 31, 120, 180)' fill-opacity = '0.250000' points = '592.8,108.7 592.8,662.4 594.6,662.4 594.6,108.5 '/>
		<polygon fill = 'rgb( 31, 120, 180)' fill-opacity = '0.250000' points = '594.6,108.5 594.6,662.4 596.5,662.4 596.5,108.1 '/>
		<polygon fill = 'rgb( 31, 120, 180)' fill-opacity = '0.250000' points = '596.5,108.1 596.5,662.4 598.4,662.4 598.4,107.5 '/>
		<polygon fill = 'rgb( 31, 120, 180)' fill-opacity = '0.250000' points = '598.4,107.5 598.4,662.4 600.3,662.4 600.3,106.7 '/>
		<polygon fill = 'rgb( 31, 120, 180)' fill-opacity = '0.250000' points = '600.3,106.7 600.3,662.4 602.2,662.4 602.2,105.6 '/>
		<polygon fill = 'rgb( 31, 120, 180)' fill-opacity = '0.250000' points = '602.2,105.6 602.2,662.4 604.1,662.4 604.1,104.4 '/>
		<polygon fill = 'rgb( 31, 120, 180)' fill-opacity = '0.250000' points = '604.1,104.4 604.1,662.4 606.0,662.4 606.0,102.9 '/>
		<polygon fill = 'rgb( 31, 120, 180)' fill-opacity = '0.250000' points = '606.0,102.9 606.0,662.4 607.9,662.4 607.9,101.1 '/>
		<polygon fill = 'rgb( 31, 120, 180)' fill-opacity = '0.250000' points = '607.9,101.1 607.9,662.4 609.7,662.4 609.7,99.2 '/>
		<polygon fill = 'rgb( 31, 120, 180)' fill-opacity = '0.250000' points = '609.7,99.2 609.7,662.4 611.6,662.4 611.6,97.1 '/>
		<polygon fill = 'rgb( 31, 120, 180)' fill-opacity = '0.250000' points = '611.6,97.1 611.6,662.4 613.5,662.4 613.5,94.9 '/>
		<polygon fill = 'rgb( 31, 120, 180)' fill-opacity = '0.250000' points = '613.5,94.9 613.5,662.4 615.4,662.4 615.4,92.6 '/>
		<polygon fill = 'rgb( 31, 120, 180)' fill-opacity = '0.250000' points = '615.4,92.6 615.4,662.4 617.3,662.4 617.3,90.2 '/>
		<polygon fill = 'rgb( 31, 120, 180)' fill-opacity = '0.250000' points = '617.3,90.2 617.3,662.4 619.2,662.4 619.2,87.7 '/>
		<polygon fill = 'rgb( 31, 120, 180)' fill-opacity = '0.250000' points = '619.2,87.7 619.2,662.4 621.1,662.4 621.1,85.3 '/>
		<polygon fill = 'rgb( 31, 120, 180)' fill-opacity = '0.250000' points = '621.1,85.3 621.1,662.4 623.0,662.4 623.0,82.9 '/>
		<polygon fill = 'rgb( 31, 120, 180)' fill-opacity = '0.250000' points = '623.0,82.9 623.0,662.4 624.8,662.4 624.8,80.7 '/>
		<polygon fill = 'rgb( 31, 120, 180)' fill-opacity = '0.250000' points = '624.8,80.7 624.8,662.4 626.7,662.4 626.7,78.6 '/>
		<polygon fill = 'rgb( 31, 120, 180)' fill-opacity = '0.250000' points = '626.7,78.6 626.7,662.4 628.6,662.4 628.6,76.7 '/>
		<polygon fill = 'rgb( 31, 120, 180)' fill-opacity = '0.250000' points = '628.6,76.7 628.6,662.4 630.5,662.4 630.5,75.1 '/>
		<polygon fill = 'rgb( 31, 120, 180)' fill-opacity = '0.250000' points = '630.5,75.1 630.5,662.4 632.4,662.4 632.4,73.8 '/>
		<polygon fill = 'rgb( 31, 120, 180)' fill-opacity = '0.250000' points = '632.4,73.8 632.4,662.4 634.3,662.4 634.3,72.8 '/>
		<polygon fill = 'rgb( 31, 120, 180)' fill-opacity = '0.250000' points = '634.3,72.8 634.3,662.4 636.2,662.4 636.2,72.1 '/>
		<polygon fill = 'rgb( 31, 120, 180)' fill-opacity = '0.250000' points = '636.2,72.1 636.2,662.4 638.1,662.4 638.1,71.9 '/>
		<polygon fill = 'rgb( 31, 120, 180)' fill-opacity = '0.250000' points = '638.1,71.9 638.1,662.4 639.9,662.4 639.9,72.0 '/>
		<polygon fill = 'rgb( 31, 120, 180)' fill-opacity = '0.250000' points = '639.9,72.0 639.9,662.4 641.8,662.4 641.8,72.5 '/>
		<polygon fill = 'rgb( 31, 120, 180)' fill-opacity = '0.250000' points = '641.8,72.5 641.8,662.4 643.7,662.4 643.7,73.4 '/>
		<polygon fill = 'rgb( 31, 120, 180)' fill-opacity = '0.250000' points = '643.7,73.4 643.7,662.4 645.6,662.4 645.6,74.7 '/>
		<polygon fill = 'rgb( 31, 120, 180)' fill-opacity = '0.250000' points = '645.6,74.7 645.6,662.4 647.5,662.4 647.5,76.3 '/>
		<polygon fill = 'rgb( 31, 120, 180)' fill-opacity = '0.250000' points = '647.5,76.3 647.5,662.4 649.4,662.4 649.4,78.3 '/>
		<polygon fill = 'rgb( 31, 120, 180)' fill-opacity = '0.250000' points = '649.4,78.3 649.4,662.4 651.3,662.4 651.3,80.7 '/>
		<polygon fill = 'rgb( 31, 120, 180)' fill-opacity = '0.250000' points = '651.3,80.7 651.3,662.4 653.1,662.4 653.1,83.3 '/>
		<polygon fill = 'rgb( 31, 120, 180)' fill-opacity = '0.250000' points = '653.1,83.3 653.1,662.4 655.0,662.4 655.0,86.2 '/>
		<polygon fill = 'rgb( 31, 120, 180)' fill-opacity = '0.250000' points = '655.0,86.2 655.0,662.4 656.9,662.4 656.9,89.3 '/>
		<polygon fill = 'rgb( 31, 120, 180)' fill-opacity = '0.250000' points = '656.9,89.3 656.9,662.4 658.8,662.4 658.8,92.7 '/>
		<polygon fill = 'rgb( 31, 120, 180)' fill-opacity = '0.250000' points = '658.8,92.7 658.8,662.4 660.7,662.4 660.7,96.3 '/>
		<polygon fill = 'rgb( 31, 120, 180)' fill-opacity = '0.250000' points = '660.7,96.3 660.7,662.4 662.6,662.4 662.6,100.0 '/>
		<polygon fill = 'rgb( 31, 120, 180)' fill-opacity = '0.250000' points = '662.6,100.0 662.6,662.4 664.5,662.4 664.5,103.9 '/>
		<polygon fill = 'rgb( 31, 120, 180)' fill-opacity = '0.250000' points = '664.5,103.9 664.5,662.4 666.4,662.4 666.4,107.9 '/>
		<polygon fill = 'rgb( 31, 120, 180)' fill-opacity = '0.250000' points = '666.4,107.9 666.4,662.4 668.2,662.4 668.2,112.1 '/>
		<polygon fill = 'rgb( 31, 120, 180)' fill-opacity = '0.250000' points = '668.2,112.1 668.2,662.4 670.1,662.4 670.1,116.4 '/>
		<polygon fill = 'rgb( 31, 120, 180)' fill-opacity = '0.250000' points = '670.1,116.4 670.1,662.4 672.0,662.4 672.0,120.8 '/>
		<polygon fill = 'rgb( 31, 120, 180)' fill-opacity = '0.250000' points = '672.0,120.8 672.0,662.4 673.9,662.4 673.9,125.3 '/>
		<polygon fill = 'rgb( 31, 120, 180)' fill-opacity = '0.250000' points = '673.9,125.3 673.9,662.4 675.8,662.4 675.8,130.0 '/>
		<polygon fill = 'rgb( 31, 120, 180)' fill-opacity = '0.250000' points = '675.8,130.0 675.8,662.4 677.7,662.4 677.7,134.8 '/>
		<polygon fill = 'rgb( 31, 120, 180)' fill-opacity = '0.250000' points = '677.7,134.8 677.7,662.4 679.6,662.4 679.6,139.7 '/>
		<polygon fill = 'rgb( 31, 120, 180)' fill-opacity = '0.250000' points = '679.6,139.7 679.6,662.4 681.5,662.4 681.5,144.7 '/>
		<polygon fill = 'rgb( 31, 120, 180)' fill-opacity = '0.250000' points = '681.5,144.7 681.5,662.4 683.3,662.4 683.3,149.9 '/>
		<polygon fill = 'rgb( 31, 120, 180)' fill-opacity = '0.250000' points = '683.3,149.9 683.3,662.4 685.2,662.4 685.2,155.2 '/>
		<polygon fill = 'rgb( 31, 120, 180)' fill-opacity = '0.250000' points = '685.2,155.2 685.2,662.4 687.1,662.4 687.1,160.6 '/>
		<polygon fill = 'rgb( 31, 120, 180)' fill-opacity = '0.250000' points = '687.1,160.6 687.1,662.4 689.0,662.4 689.0,166.1 '/>
		<polygon fill = 'rgb( 31, 120, 180)' fill-opacity = '0.250000' points = '689.0,166.1 689.0,662.4 690.9,662.4 690.9,171.8 '/>
		<polygon fill = 'rgb( 31, 120, 180)' fill-opacity = '0.250000' points = '690.9,171.8 690.9,662.4 692.8,662.4 692.8,177.6 '/>
		<polygon fill = 'rgb( 31, 120, 180)' fill-opacity = '0.250000' points = '692.8,177.6 692.8,662.4 694.7,662.4 694.7,183.4 '/>
		<polygon fill = 'rgb( 31, 120, 180)' fill-opacity = '0.250000' points = '694.7,183.4 694.7,662.4 696.6,662.4 696.6,189.3 '/>
		<polygon fill = 'rgb( 31, 120, 180)' fill-opacity = '0.250000' points = '696.6,189.3 696.6,662.4 698.4,662.4 698.4,195.3 '/>
		<polygon fill = 'rgb( 31, 120, 180)' fill-opacity = '0.250000' points = '698.4,195.3 698.4,662.4 700.3,662.4 700.3,201.2 '/>
		<polygon fill = 'rgb( 31, 120, 180)' fill-opacity = '0.250000' points = '700.3,201.2 700.3,662.4 702.2,662.4 702.2,207.2 '/>
		<polygon fill = 'rgb( 31, 120, 180)' fill-opacity = '0.250000' points = '702.2,207.2 702.2,662.4 704.1,662.4 704.1,213.1 '/>
		<polygon fill = 'rgb( 31, 120, 180)' fill-opacity = '0.250000' points = '704.1,213.1 704.1,662.4 706.0,662.4 706.0,219.0 '/>
		<polygon fill = 'rgb( 31, 120, 180)' fill-opacity = '0.250000' points = '706.0,219.0 706.0,662.4 707.9,662.4 707.9,224.8 '/>
		<polygon fill = 'rgb( 31, 120, 180)' fill-opacity = '0.250000' points = '707.9,224.8 707.9,662.4 709.8,662.4 709.8,230.5 '/>
		<polygon fill = 'rgb( 31, 120, 180)' fill-opacity = '0.250000' points = '709.8,230.5 709.8,662.4 711.7,662.4 711.7,236.1 '/>
		<polygon fill = 'rgb( 31, 120, 180)' fill-opacity = '0.250000' points = '711.7,236.1 711.7,662.4 713.5,662.4 713.5,241.5 '/>
		<polygon fill = 'rgb( 31, 120, 180)' fill-opacity = '0.250000' points = '713.5,241.5 713.5,662.4 715.4,662.4 715.4,246.8 '/>
		<polygon fill = 'rgb( 31, 120, 180)' fill-opacity = '0.250000' points = '715.4,246.8 715.4,662.4 717.3,662.4 717.3,251.9 '/>
		<polygon fill = 'rgb( 31, 120, 180)' fill-opacity = '0.250000' points = '717.3,251.9 717.3,662.4 719.2,662.4 719.2,256.8 '/>
		<polygon fill = 'rgb( 31, 120, 180)' fill-opacity = '0.250000' points = '719.2,256.8 719.2,662.4 721.1,662.4 721.1,261.5 '/>
		<polygon fill = 'rgb( 31, 120, 180)' fill-opacity = '0.250000' points = '721.1,261.5 721.1,662.4 723.0,662.4 723.0,266.0 '/>
		<polygon fill = 'rgb( 31, 120, 180)' fill-opacity = '0.250000' points = '723.0,266.0 723.0,662.4 724.9,662.4 724.9,270.3 '/>
		<polygon fill = 'rgb( 31, 120, 180)' fill-opacity = '0.250000' points = '724.9,270.3 724.9,662.4 726.7,662.4 726.7,274.4 '/>
		<polygon fill = 'rgb( 31, 120, 180)' fill-opacity = '0.250000' points = '726.7,274.4 726.7,662.4 728.6,662.4 728.6,278.3 '/>
		<polygon fill = 'rgb( 31, 120, 180)' fill-opacity = '0.250000' points = '728.6,278.3 728.6,662.4 730.5,662.4 730.5,282.0 '/>
		<polygon fill = 'rgb( 31, 120, 180)' fill-opacity = '0.250000' points = '730.5,282.0 730.5,662.4 732.4,662.4 732.4,285.5 '/>
		<polygon fill = 'rgb( 31, 120, 180)' fill-opacity = '0.250000' points = '732.4,285.5 732.4,662.4 734.3,662.4 734.3,288.8 '/>
		<polygon fill = 'rgb( 31, 120, 180)' fill-opacity = '0.250000' points = '734.3,288.8 734.3,662.4 736.2,662.4 736.2,291.9 '/>
		<polygon fill = 'rgb( 31, 120, 180)' fill-opacity = '0.250000' points = '736.2,291.9 736.2,662.4 738.1,662.4 738.1,294.9 '/>
		<polygon fill = 'rgb( 31, 120, 180)' fill-opacity = '0.250000' points = '738.1,294.9 738.1,662.4 740.0,662.4 740.0,297.6 '/>
		<polygon fill = 'rgb( 31, 120, 180)' fill-opacity = '0.250000' points = '740.0,297.6 740.0,662.4 741.8,662.4 741.8,300.2 '/>
		<polygon fill = 'rgb( 31, 120, 180)' fill-opacity = '0.250000' points = '741.8,300.2 741.8,662.4 743.7,662.4 743.7,302.6 '/>
		<polygon fill = 'rgb( 31, 120, 180)' fill-opacity = '0.250000' points = '743.7,302.6 743.7,662.4 745.6,662.4 745.6,304.8 '/>
		<polygon fill = 'rgb( 31, 120, 180)' fill-opacity = '0.250000' points = '745.6,304.8 745.6,662.4 747.5,662.4 747.5,306.8 '/>
		<polygon fill = 'rgb( 31, 120, 180)' fill-opacity = '0.250000' points = '747.5,306.8 747.5,662.4 749.4,662.4 749.4,308.7 '/>
		<polygon fill = 'rgb( 31, 120, 180)' fill-opacity = '0.250000' points = '749.4,308.7 749.4,662.4 751.3,662.4 751.3,310.4 '/>
		<polygon fill = 'rgb( 31, 120, 180)' fill-opacity = '0.250000' points = '751.3,310.4 751.3,662.4 753.2,662.4 753.2,311.9 '/>
		<polygon fill = 'rgb( 31, 120, 180)' fill-opacity = '0.250000' points = '753.2,311.9 753.2,662.4 755.1,662.4 755.1,313.3 '/>
		<polygon fill = 'rgb( 31, 120, 180)' fill-opacity = '0.250000' points = '755.1,313.3 755.1,662.4 756.9,662.4 756.9,314.5 '/>
		<polygon fill = 'rgb( 31, 120, 180)' fill-opacity = '0.250000' points = '756.9,314.5 756.9,662.4 758.8,662.4 758.8,315.6 '/>
		<polygon fill = 'rgb( 31, 120, 180)' fill-opacity = '0.250000' points = '758.8,315.6 758.8,662.4 760.7,662.4 760.7,316.6 '/>
		<polygon fill = 'rgb( 31, 120, 180)' fill-opacity = '0.250000' points = '760.7,316.6 760.7,662.4 762.6,662.4 762.6,317.5 '/>
		<polygon fill = 'rgb( 31, 120, 180)' fill-opacity = '0.250000' points = '762.6,317.5 762.6,662.4 764.5,662.4 764.5,318.3 '/>
		<polygon fill = 'rgb( 31, 120, 180)' fill-opacity = '0.250000' points = '764.5,318.3 764.5,662.4 766.4,662.4 766.4,319.1 '/>
		<polygon fill = 'rgb( 31, 120, 180)' fill-opacity = '0.250000' points = '766.4,319.1 766.4,662.4 768.3,662.4 768.3,319.9 '/>
		<polygon fill = 'rgb( 31, 120, 180)' fill-opacity = '0.250000' points = '768.3,319.9 768.3,662.4 770.2,662.4 770.2,320.6 '/>
		<polygon fill = 'rgb( 31, 120, 180)' fill-opacity = '0.250000' points = '770.2,320.6 770.2,662.4 772.0,662.4 772.0,321.4 '/>
		<polygon fill = 'rgb( 31, 120, 180)' fill-opacity = '0.250000' points = '772.0,321.4 772.0,662.4 773.9,662.4 773.9,322.2 '/>
		<polygon fill = 'rgb( 31, 120, 180)' fill-opacity = '0.250000' points = '773.9,322.2 773.9,662.4 775.8,662.4 775.8,323.1 '/>
		<polygon fill = 'rgb( 31, 120, 180)' fill-opacity = '0.250000' points = '775.8,323.1 775.8,662.4 777.7,662.4 777.7,324.1 '/>
		<polygon fill = 'rgb( 31, 120, 180)' fill-opacity = '0.250000' points = '777.7,324.1 777.7,662.4 779.6,662.4 779.6,325.2 '/>
		<polygon fill = 'rgb( 31, 120, 180)' fill-opacity = '0.250000' points = '779.6,325.2 779.6,662.4 781.5,662.4 781.5,326.4 '/>
		<polygon fill = 'rgb( 31, 120, 180)' fill-opacity = '0.250000' points = '781.5,326.4 781.5,662.4 783.4,662.4 783.4,327.8 '/>
		<polygon fill = 'rgb( 31, 120, 180)' fill-opacity = '0.250000' points = '783.4,327.8 783.4,662.4 785.3,662.4 785.3,329.4 '/>
		<polygon fill = 'rgb( 31, 120, 180)' fill-opacity = '0.250000' points = '785.3,329.4 785.3,662.4 787.1,662.4 787.1,331.1 '/>
		<polygon fill = 'rgb( 31, 120, 180)' fill-opacity = '0.250000' points = '787.1,331.1 787.1,662.4 789.0,662.4 789.0,333.0 '/>
		<polygon fill = 'rgb( 31, 120, 180)' fill-opacity = '0.250000' points = '789.0,333.0 789.0,662.4 790.9,662.4 790.9,335.0 '/>
		<polygon fill = 'rgb( 31, 120, 180)' fill-opacity = '0.250000' points = '790.9,335.0 790.9,662.4 792.8,662.4 792.8,337.2 '/>
		<polygon fill = 'rgb( 31, 120, 180)' fill-opacity = '0.250000' points = '792.8,337.2 792.8,662.4 794.7,662.4 794.7,339.5 '/>
		<polygon fill = 'rgb( 31, 120, 180)' fill-opacity = '0.250000' points = '794.7,339.5 794.7,662.4 796.6,662.4 796.6,341.9 '/>
		<polygon fill = 'rgb( 31, 120, 180)' fill-opacity = '0.250000' points = '796.6,341.9 796.6,662.4 798.5,662.4 798.5,344.5 '/>
		<polygon fill = 'rgb( 31, 120, 180)' fill-opacity = '0.250000' points = '798.5,344.5 798.5,662.4 800.3,662.4 800.3,347.1 '/>
		<polygon fill = 'rgb( 31, 120, 180)' fill-opacity = '0.250000' points = '800.3,347.1 800.3,662.4 802.2,662.4 802.2,349.8 '/>
		<polygon fill = 'rgb( 31, 120, 180)' fill-opacity = '0.250000' points = '802.2,349.8 802.2,662.4 804.1,662.4 804.1,352.6 '/>
		<polygon fill = 'rgb( 31, 120, 180)' fill-opacity = '0.250000' points = '804.1,352.6 804.1,662.4 806.0,662.4 806.0,355.4 '/>
		<polygon fill = 'rgb( 31, 120, 180)' fill-opacity = '0.250000' points = '806.0,355.4 806.0,662.4 807.9,662.4 807.9,358.3 '/>
		<polygon fill = 'rgb( 31, 120, 180)' fill-opacity = '0.250000' points = '807.9,358.3 807.9,662.4 809.8,662.4 809.8,361.1 '/>
		<polygon fill = 'rgb( 31, 120, 180)' fill-opacity = '0.250000' points = '809.8,361.1 809.8,662.4 811.7,662.4 811.7,364.0 '/>
		<polygon fill = 'rgb( 31, 120, 180)' fill-opacity = '0.250000' points = '811.7,364.0 811.7,662.4 813.6,662.4 813.6,366.8 '/>
		<polygon fill = 'rgb( 31, 120, 180)' fill-opacity = '0.250000' points = '813.6,366.8 813.6,662.4 815.4,662.4 815.4,369.6 '/>
		<polygon fill = 'rgb( 31, 120, 180)' fill-opacity = '0.250000' points = '815.4,369.6 815.4,662.4 817.3,662.4 817.3,372.4 '/>
		<polygon fill = 'rgb( 31, 120, 180)' fill-opacity = '0.250000' points = '817.3,372.4 817.3,662.4 819.2,662.4 819.2,375.2 '/>
		<polygon fill = 'rgb( 31, 120, 180)' fill-opacity = '0.250000' points = '819.2,375.2 819.2,662.4 821.1,662.4 821.1,377.9 '/>
		<polygon fill = 'rgb( 31, 120, 180)' fill-opacity = '0.250000' points = '821.1,377.9 821.1,662.4 823.0,662.4 823.0,380.6 '/>
		<polygon fill = 'rgb( 31, 120, 180)' fill-opacity = '0.250000' points = '823.0,380.6 823.0,662.4 824.9,662.4 824.9,383.2 '/>
		<polygon fill = 'rgb( 31, 120, 180)' fill-opacity = '0.250000' points = '824.9,383.2 824.9,662.4 826.8,662.4 826.8,385.8 '/>
		<polygon fill = 'rgb( 31, 120, 180)' fill-opacity = '0.250000' points = '826.8,385.8 826.8,662.4 828.7,662.4 828.7,388.4 '/>
		<polygon fill = 'rgb( 31, 120, 180)' fill-opacity = '0.250000' points = '828.7,388.4 828.7,662.4 830.5,662.4 830.5,391.0 '/>
		<polygon fill = 'rgb( 31, 120, 180)' fill-opacity = '0.250000' points = '830.5,391.0 830.5,662.4 832.4,662.4 832.4,393.6 '/>
		<polygon fill = 'rgb( 31, 120, 180)' fill-opacity = '0.250000' points = '832.4,393.6 832.4,662.4 834.3,662.4 834.3,396.2 '/>
		<polygon fill = 'rgb( 31, 120, 180)' fill-opacity = '0.250000' points = '834.3,396.2 834.3,662.4 836.2,662.4 836.2,398.8 '/>
		<polygon fill = 'rgb( 31, 120, 180)' fill-opacity = '0.250000' points = '836.2,398.8 836.2,662.4 838.1,662.4 838.1,401.5 '/>
		<polygon fill = 'rgb( 31, 120, 180)' fill-opacity = '0.250000' points = '838.1,401.5 838.1,662.4 840.0,662.4 840.0,404.2 '/>
		<polygon fill = 'rgb( 31, 120, 180)' fill-opacity = '0.250000' points = '840.0,404.2 840.0,662.4 841.9,662.4 841.9,407.0 '/>
		<polygon fill = 'rgb( 31, 120, 180)' fill-opacity = '0.250000' points = '841.9,407.0 841.9,662.4 843.8,662.4 843.8,409.9 '/>
		<polygon fill = 'rgb( 31, 120, 180)' fill-opacity = '0.250000' points = '843.8,409.9 843.8,662.4 845.6,662.4 845.6,412.9 '/>
		<polygon fill = 'rgb( 31, 120, 180)' fill-opacity = '0.250000' points = '845.6,412.9 845.6,662.4 847.5,662.4 847.5,416.0 '/>
		<polygon fill = 'rgb( 31, 120, 180)' fill-opacity = '0.250000' points = '847.5,416.0 847.5,662.4 849.4,662.4 849.4,419.3 '/>
		<polygon fill = 'rgb( 31, 120, 180)' fill-opacity = '0.250000' points = '849.4,419.3 849.4,662.4 851.3,662.4 851.3,422.7 '/>
		<polygon fill = 'rgb( 31, 120, 180)' fill-opacity = '0.250000' points = '851.3,422.7 851.3,662.4 853.2,662.4 853.2,426.3 '/>
		<polygon fill = 'rgb( 31, 120, 180)' fill-opacity = '0.250000' points = '853.2,426.3 853.2,662.4 855.1,662.4 855.1,430.0 '/>
		<polygon fill = 'rgb( 31, 120, 180)' fill-opacity = '0.250000' points = '855.1,430.0 855.1,662.4 857.0,662.4 857.0,433.8 '/>
		<polygon fill = 'rgb( 31, 120, 180)' fill-opacity = '0.250000' points = '857.0,433.8 857.0,662.4 858.9,662.4 858.9,437.8 '/>
		<polygon fill = 'rgb( 31, 120, 180)' fill-opacity = '0.250000' points = '858.9,437.8 858.9,662.4 860.7,662.4 860.7,442.0 '/>
		<polygon fill = 'rgb( 31, 120, 180)' fill-opacity = '0.250000' points = '860.7,442.0 860.7,662.4 862.6,662.4 862.6,446.3 '/>
		<polygon fill = 'rgb( 31, 120, 180)' fill-opacity = '0.250000' points = '862.6,446.3 862.6,662.4 864.5,662.4 864.5,450.7 '/>
		<polygon fill = 'rgb( 31, 120, 180)' fill-opacity = '0.250000' points = '864.5,450.7 864.5,662.4 866.4,662.4 866.4,455.2 '/>
		<polygon fill = 'rgb( 31, 120, 180)' fill-opacity = '0.250000' points = '866.4,455.2 866.4,662.4 868.3,662.4 868.3,459.8 '/>
		<polygon fill = 'rgb( 31, 120, 180)' fill-opacity = '0.250000' points = '868.3,459.8 868.3,662.4 870.2,662.4 870.2,464.5 '/>
		<polygon fill = 'rgb( 31, 120, 180)' fill-opacity = '0.250000' points = '870.2,464.5 870.2,662.4 872.1,662.4 872.1,469.2 '/>
		<polygon fill = 'rgb( 31, 120, 180)' fill-opacity = '0.250000' points = '872.1,469.2 872.1,662.4 873.9,662.4 873.9,474.0 '/>
		<polygon fill = 'rgb( 31, 120, 180)' fill-opacity = '0.250000' points = '873.9,474.0 873.9,662.4 875.8,662.4 875.8,478.9 '/>
		<polygon fill = 'rgb( 31, 120, 180)' fill-opacity = '0.250000' points = '875.8,478.9 875.8,662.4 877.7,662.4 877.7,483.7 '/>
		<polygon fill = 'rgb( 31, 120, 180)' fill-opacity = '0.250000' points = '877.7,483.7 877.7,662.4 879.6,662.4 879.6,488.5 '/>
		<polygon fill = 'rgb( 31, 120, 180)' fill-opacity = '0.250000' points = '879.6,488.5 879.6,662.4 881.5,662.4 881.5,493.3 '/>
		<polygon fill = 'rgb( 31, 120, 180)' fill-opacity = '0.250000' points = '881.5,493.3 881.5,662.4 883.4,662.4 883.4,498.0 '/>
		<polygon fill = 'rgb( 31, 120, 180)' fill-opacity = '0.250000' points = '883.4,498.0 883.4,662.4 885.3,662.4 885.3,502.7 '/>
		<polygon fill = 'rgb( 31, 120, 180)' fill-opacity = '0.250000' points = '885.3,502.7 885.3,662.4 887.2,662.4 887.2,507.3 '/>
		<polygon fill = 'rgb( 31, 120, 180)' fill-opacity = '0.250000' points = '887.2,507.3 887.2,662.4 889.0,662.4 889.0,511.8 '/>
		<polygon fill = 'rgb( 31, 120, 180)' fill-opacity = '0.250000' points = '889.0,511.8 889.0,662.4 890.9,662.4 890.9,516.3 '/>
		<polygon fill = 'rgb( 31, 120, 180)' fill-opacity = '0.250000' points = '890.9,516.3 890.9,662.4 892.8,662.4 892.8,520.6 '/>
		<polygon fill = 'rgb( 31, 120, 180)' fill-opacity = '0.250000' points = '892.8,520.6 892.8,662.4 894.7,662.4 894.7,524.8 '/>
		<polygon fill = 'rgb( 31, 120, 180)' fill-opacity = '0.250000' points = '894.7,524.8 894.7,662.4 896.6,662.4 896.6,528.9 '/>
		<polygon fill = 'rgb( 31, 120, 180)' fill-opacity = '0.250000' points = '896.6,528.9 896.6,662.4 898.5,662.4 898.5,532.9 '/>
		<polygon fill = 'rgb( 31, 120, 180)' fill-opacity = '0.250000' points = '898.5,532.9 898.5,662.4 900.4,662.4 900.4,536.7 '/>
		<polygon fill = 'rgb( 31, 120, 180)' fill-opacity = '0.250000' points = '900.4,536.7 900.4,662.4 902.3,662.4 902.3,540.5 '/>
		<polygon fill = 'rgb( 31, 120, 180)' fill-opacity = '0.250000' points = '902.3,540.5 902.3,662.4 904.1,662.4 904.1,544.1 '/>
		<polygon fill = 'rgb( 31, 120, 180)' fill-opacity = '0.250000' points = '904.1,544.1 904.1,662.4 906.0,662.4 906.0,547.5 '/>
		<polygon fill = 'rgb( 31, 120, 180)' fill-opacity = '0.250000' points = '906.0,547.5 906.0,662.4 907.9,662.4 907.9,550.8 '/>
		<polygon fill = 'rgb( 31, 120, 180)' fill-opacity = '0.250000' points = '907.9,550.8 907.9,662.4 909.8,662.4 909.8,554.0 '/>
		<polygon fill = 'rgb( 31, 120, 180)' fill-opacity = '0.250000' points = '909.8,554.0 909.8,662.4 911.7,662.4 911.7,557.1 '/>
		<polygon fill = 'rgb( 31, 120, 180)' fill-opacity = '0.250000' points = '911.7,557.1 911.7,662.4 913.6,662.4 913.6,560.0 '/>
		<polygon fill = 'rgb( 31, 120, 180)' fill-opacity = '0.250000' points = '913.6,560.0 913.6,662.4 915.5,662.4 915.5,562.8 '/>
		<polygon fill = 'rgb( 31, 120, 180)' fill-opacity = '0.250000' points = '915.5,562.8 915.5,662.4 917.4,662.4 917.4,565.5 '/>
		<polygon fill = 'rgb( 31, 120, 180)' fill-opacity = '0.250000' points = '917.4,565.5 917.4,662.4 919.2,662.4 919.2,568.1 '/>
		<polygon fill = 'rgb( 31, 120, 180)' fill-opacity = '0.250000' points = '919.2,568.1 919.2,662.4 921.1,662.4 921.1,570.5 '/>
		<polygon fill = 'rgb( 31, 120, 180)' fill-opacity = '0.250000' points = '921.1,570.5 921.1,662.4 923.0,662.4 923.0,572.8 '/>
		<polygon fill = 'rgb( 31, 120, 180)' fill-opacity = '0.250000' points = '923.0,572.8 923.0,662.4 924.9,662.4 924.9,575.1 '/>
	</g>
</g>
	</g>
	<g id="gnuplot_plot_3" ><title>Point estimate</title>
<g fill="none" color="white" stroke="rgb( 31, 120, 180)" stroke-width="2.00" stroke-linecap="butt" stroke-linejoin="miter">
</g>
<g fill="none" color="black" stroke="currentColor" stroke-width="2.00" stroke-linecap="butt" stroke-linejoin="miter">
	<g transform="translate(1089.0,103.0)" stroke="none" fill="black" font-family="Helvetica" font-size="12.00"  text-anchor="start">
		<text><tspan font-family="Helvetica" >Point estimate</tspan></text>
	</g>
</g>
<g fill="none" color="black" stroke="currentColor" stroke-width="2.00" stroke-linecap="butt" stroke-linejoin="miter">
	<path stroke='rgb( 31, 120, 180)'  d='M1038.5,99.1 L1080.7,99.1 M551.3,662.4 L551.3,95.7  '/></g>
	</g>
	<g id="gnuplot_plot_4" ><title>Noise threshold</title>
<g fill="none" color="white" stroke="rgb( 31, 120, 180)" stroke-width="1.00" stroke-linecap="butt" stroke-linejoin="miter">
</g>
<g fill="none" color="black" stroke="currentColor" stroke-width="1.00" stroke-linecap="butt" stroke-linejoin="miter">
	<g transform="translate(1089.0,121.0)" stroke="none" fill="black" font-family="Helvetica" font-size="12.00"  text-anchor="start">
		<text><tspan font-family="Helvetica" >Noise threshold</tspan></text>
	</g>
</g>
<g fill="none" color="black" stroke="currentColor" stroke-width="1.00" stroke-linecap="butt" stroke-linejoin="miter">
	<g stroke='none' shape-rendering='crispEdges'>
		<polygon fill = 'rgb(227,  26,  28)' fill-opacity = '0.100000' points = '1038.5,121.6 1080.7,121.6 1080.7,112.6 1038.5,112.6 '/>
		<polygon fill = 'rgb(227,  26,  28)' fill-opacity = '0.100000' points = '542.8,54.1 542.8,662.4 542.8,662.4 542.8,54.1 '/>
	</g>
</g>
	</g>
<g fill="none" color="white" stroke="rgb(227,  26,  28)" stroke-width="2.00" stroke-linecap="butt" stroke-linejoin="miter">
</g>
<g fill="none" color="black" stroke="currentColor" stroke-width="2.00" stroke-linecap="butt" stroke-linejoin="miter">
</g>
<g fill="none" color="black" stroke="black" stroke-width="1.00" stroke-linecap="butt" stroke-linejoin="miter">
</g>
<g fill="none" color="black" stroke="currentColor" stroke-width="1.00" stroke-linecap="butt" stroke-linejoin="miter">
	<path stroke='black'  d='M71.9,54.1 L71.9,662.4 L1013.6,662.4 L1013.6,54.1 L71.9,54.1 Z  '/></g>
<g fill="none" color="black" stroke="currentColor" stroke-width="1.00" stroke-linecap="butt" stroke-linejoin="miter">
</g>
</g>
</svg>

