<?xml version="1.0" encoding="utf-8"  standalone="no"?>
<!DOCTYPE svg PUBLIC "-//W3C//DTD SVG 1.1//EN"
 "http://www.w3.org/Graphics/SVG/1.1/DTD/svg11.dtd">
<svg 
 viewBox="0 0 1280 720"
 xmlns="http://www.w3.org/2000/svg"
 xmlns:xlink="http://www.w3.org/1999/xlink"
>

<title>Gnuplot</title>
<desc>Produced by GNUPLOT 5.0 patchlevel 5 </desc>

<g id="gnuplot_canvas">

<rect x="0" y="0" width="1280" height="720" fill="none"/>
<defs>

	<circle id='gpDot' r='0.5' stroke-width='0.5'/>
	<path id='gpPt0' stroke-width='0.222' stroke='currentColor' d='M-1,0 h2 M0,-1 v2'/>
	<path id='gpPt1' stroke-width='0.222' stroke='currentColor' d='M-1,-1 L1,1 M1,-1 L-1,1'/>
	<path id='gpPt2' stroke-width='0.222' stroke='currentColor' d='M-1,0 L1,0 M0,-1 L0,1 M-1,-1 L1,1 M-1,1 L1,-1'/>
	<rect id='gpPt3' stroke-width='0.222' stroke='currentColor' x='-1' y='-1' width='2' height='2'/>
	<rect id='gpPt4' stroke-width='0.222' stroke='currentColor' fill='currentColor' x='-1' y='-1' width='2' height='2'/>
	<circle id='gpPt5' stroke-width='0.222' stroke='currentColor' cx='0' cy='0' r='1'/>
	<use xlink:href='#gpPt5' id='gpPt6' fill='currentColor' stroke='none'/>
	<path id='gpPt7' stroke-width='0.222' stroke='currentColor' d='M0,-1.33 L-1.33,0.67 L1.33,0.67 z'/>
	<use xlink:href='#gpPt7' id='gpPt8' fill='currentColor' stroke='none'/>
	<use xlink:href='#gpPt7' id='gpPt9' stroke='currentColor' transform='rotate(180)'/>
	<use xlink:href='#gpPt9' id='gpPt10' fill='currentColor' stroke='none'/>
	<use xlink:href='#gpPt3' id='gpPt11' stroke='currentColor' transform='rotate(45)'/>
	<use xlink:href='#gpPt11' id='gpPt12' fill='currentColor' stroke='none'/>
	<path id='gpPt13' stroke-width='0.222' stroke='currentColor' d='M0,1.330 L1.265,0.411 L0.782,-1.067 L-0.782,-1.076 L-1.265,0.411 z'/>
	<use xlink:href='#gpPt13' id='gpPt14' fill='currentColor' stroke='none'/>
	<filter id='textbox' filterUnits='objectBoundingBox' x='0' y='0' height='1' width='1'>
	  <feFlood flood-color='white' flood-opacity='1' result='bgnd'/>
	  <feComposite in='SourceGraphic' in2='bgnd' operator='atop'/>
	</filter>
	<filter id='greybox' filterUnits='objectBoundingBox' x='0' y='0' height='1' width='1'>
	  <feFlood flood-color='lightgrey' flood-opacity='1' result='grey'/>
	  <feComposite in='SourceGraphic' in2='grey' operator='atop'/>
	</filter>
</defs>
<g fill="none" color="white" stroke="currentColor" stroke-width="1.00" stroke-linecap="butt" stroke-linejoin="miter">
</g>
<g fill="none" color="black" stroke="currentColor" stroke-width="1.00" stroke-linecap="butt" stroke-linejoin="miter">
	<path stroke='black'  d='M71.9,662.4 L80.9,662.4  '/>	<g transform="translate(63.6,666.3)" stroke="none" fill="black" font-family="Helvetica" font-size="12.00"  text-anchor="end">
		<text><tspan font-family="Helvetica" > 0</tspan></text>
	</g>
</g>
<g fill="none" color="black" stroke="currentColor" stroke-width="1.00" stroke-linecap="butt" stroke-linejoin="miter">
	<path stroke='black'  d='M71.9,575.5 L80.9,575.5  '/>	<g transform="translate(63.6,579.4)" stroke="none" fill="black" font-family="Helvetica" font-size="12.00"  text-anchor="end">
		<text><tspan font-family="Helvetica" > 50</tspan></text>
	</g>
</g>
<g fill="none" color="black" stroke="currentColor" stroke-width="1.00" stroke-linecap="butt" stroke-linejoin="miter">
	<path stroke='black'  d='M71.9,488.6 L80.9,488.6  '/>	<g transform="translate(63.6,492.5)" stroke="none" fill="black" font-family="Helvetica" font-size="12.00"  text-anchor="end">
		<text><tspan font-family="Helvetica" > 100</tspan></text>
	</g>
</g>
<g fill="none" color="black" stroke="currentColor" stroke-width="1.00" stroke-linecap="butt" stroke-linejoin="miter">
	<path stroke='black'  d='M71.9,401.7 L80.9,401.7  '/>	<g transform="translate(63.6,405.6)" stroke="none" fill="black" font-family="Helvetica" font-size="12.00"  text-anchor="end">
		<text><tspan font-family="Helvetica" > 150</tspan></text>
	</g>
</g>
<g fill="none" color="black" stroke="currentColor" stroke-width="1.00" stroke-linecap="butt" stroke-linejoin="miter">
	<path stroke='black'  d='M71.9,314.8 L80.9,314.8  '/>	<g transform="translate(63.6,318.7)" stroke="none" fill="black" font-family="Helvetica" font-size="12.00"  text-anchor="end">
		<text><tspan font-family="Helvetica" > 200</tspan></text>
	</g>
</g>
<g fill="none" color="black" stroke="currentColor" stroke-width="1.00" stroke-linecap="butt" stroke-linejoin="miter">
	<path stroke='black'  d='M71.9,227.9 L80.9,227.9  '/>	<g transform="translate(63.6,231.8)" stroke="none" fill="black" font-family="Helvetica" font-size="12.00"  text-anchor="end">
		<text><tspan font-family="Helvetica" > 250</tspan></text>
	</g>
</g>
<g fill="none" color="black" stroke="currentColor" stroke-width="1.00" stroke-linecap="butt" stroke-linejoin="miter">
	<path stroke='black'  d='M71.9,141.0 L80.9,141.0  '/>	<g transform="translate(63.6,144.9)" stroke="none" fill="black" font-family="Helvetica" font-size="12.00"  text-anchor="end">
		<text><tspan font-family="Helvetica" > 300</tspan></text>
	</g>
</g>
<g fill="none" color="black" stroke="currentColor" stroke-width="1.00" stroke-linecap="butt" stroke-linejoin="miter">
	<path stroke='black'  d='M71.9,54.1 L80.9,54.1  '/>	<g transform="translate(63.6,58.0)" stroke="none" fill="black" font-family="Helvetica" font-size="12.00"  text-anchor="end">
		<text><tspan font-family="Helvetica" > 350</tspan></text>
	</g>
</g>
<g fill="none" color="black" stroke="currentColor" stroke-width="1.00" stroke-linecap="butt" stroke-linejoin="miter">
	<path stroke='black'  d='M205.0,662.4 L205.0,653.4  '/>	<g transform="translate(205.0,684.3)" stroke="none" fill="black" font-family="Helvetica" font-size="12.00"  text-anchor="middle">
		<text><tspan font-family="Helvetica" >-0.7</tspan></text>
	</g>
</g>
<g fill="none" color="black" stroke="currentColor" stroke-width="1.00" stroke-linecap="butt" stroke-linejoin="miter">
	<path stroke='black'  d='M374.2,662.4 L374.2,653.4  '/>	<g transform="translate(374.2,684.3)" stroke="none" fill="black" font-family="Helvetica" font-size="12.00"  text-anchor="middle">
		<text><tspan font-family="Helvetica" >-0.6</tspan></text>
	</g>
</g>
<g fill="none" color="black" stroke="currentColor" stroke-width="1.00" stroke-linecap="butt" stroke-linejoin="miter">
	<path stroke='black'  d='M543.4,662.4 L543.4,653.4  '/>	<g transform="translate(543.4,684.3)" stroke="none" fill="black" font-family="Helvetica" font-size="12.00"  text-anchor="middle">
		<text><tspan font-family="Helvetica" >-0.5</tspan></text>
	</g>
</g>
<g fill="none" color="black" stroke="currentColor" stroke-width="1.00" stroke-linecap="butt" stroke-linejoin="miter">
	<path stroke='black'  d='M712.6,662.4 L712.6,653.4  '/>	<g transform="translate(712.6,684.3)" stroke="none" fill="black" font-family="Helvetica" font-size="12.00"  text-anchor="middle">
		<text><tspan font-family="Helvetica" >-0.4</tspan></text>
	</g>
</g>
<g fill="none" color="black" stroke="currentColor" stroke-width="1.00" stroke-linecap="butt" stroke-linejoin="miter">
	<path stroke='black'  d='M881.8,662.4 L881.8,653.4  '/>	<g transform="translate(881.8,684.3)" stroke="none" fill="black" font-family="Helvetica" font-size="12.00"  text-anchor="middle">
		<text><tspan font-family="Helvetica" >-0.3</tspan></text>
	</g>
</g>
<g fill="none" color="black" stroke="currentColor" stroke-width="1.00" stroke-linecap="butt" stroke-linejoin="miter">
</g>
<g fill="none" color="black" stroke="currentColor" stroke-width="1.00" stroke-linecap="butt" stroke-linejoin="miter">
	<path stroke='black'  d='M71.9,54.1 L71.9,662.4 L1013.6,662.4 L1013.6,54.1 L71.9,54.1 Z  '/></g>
<g fill="none" color="black" stroke="currentColor" stroke-width="1.00" stroke-linecap="butt" stroke-linejoin="miter">
	<g transform="translate(17.0,358.3) rotate(270)" stroke="none" fill="black" font-family="Helvetica" font-size="12.00"  text-anchor="middle">
		<text><tspan font-family="Helvetica" >Density (a.u.)</tspan></text>
	</g>
</g>
<g fill="none" color="black" stroke="currentColor" stroke-width="1.00" stroke-linecap="butt" stroke-linejoin="miter">
	<g transform="translate(542.7,711.3)" stroke="none" fill="black" font-family="Helvetica" font-size="12.00"  text-anchor="middle">
		<text><tspan font-family="Helvetica" >Relative change (%)</tspan></text>
	</g>
</g>
<g fill="none" color="black" stroke="currentColor" stroke-width="1.00" stroke-linecap="butt" stroke-linejoin="miter">
	<g transform="translate(542.7,31.0)" stroke="none" fill="black" font-family="Helvetica" font-size="12.00"  text-anchor="middle">
		<text><tspan font-family="Helvetica" >dfs petgraph mut: mean</tspan></text>
	</g>
</g>
	<g id="gnuplot_plot_1" ><title>Bootstrap distribution</title>
<g fill="none" color="white" stroke="black" stroke-width="2.00" stroke-linecap="butt" stroke-linejoin="miter">
</g>
<g fill="none" color="black" stroke="currentColor" stroke-width="2.00" stroke-linecap="butt" stroke-linejoin="miter">
	<g transform="translate(1089.0,67.0)" stroke="none" fill="black" font-family="Helvetica" font-size="12.00"  text-anchor="start">
		<text><tspan font-family="Helvetica" >Bootstrap distribution</tspan></text>
	</g>
</g>
<g fill="none" color="black" stroke="currentColor" stroke-width="2.00" stroke-linecap="butt" stroke-linejoin="miter">
	<path stroke='rgb( 31, 120, 180)'  d='M1038.5,63.1 L1080.7,63.1 M71.9,628.8 L73.8,628.2 L75.7,627.5 L77.6,626.9 L79.4,626.2 L81.3,625.5
		L83.2,624.8 L85.1,624.1 L87.0,623.3 L88.9,622.6 L90.8,621.8 L92.7,621.0 L94.5,620.2 L96.4,619.4
		L98.3,618.5 L100.2,617.7 L102.1,616.8 L104.0,615.9 L105.9,615.0 L107.8,614.0 L109.6,613.1 L111.5,612.1
		L113.4,611.1 L115.3,610.1 L117.2,609.1 L119.1,608.0 L121.0,607.0 L122.9,605.9 L124.7,604.8 L126.6,603.6
		L128.5,602.5 L130.4,601.3 L132.3,600.1 L134.2,598.9 L136.1,597.7 L138.0,596.5 L139.8,595.2 L141.7,593.9
		L143.6,592.6 L145.5,591.3 L147.4,590.0 L149.3,588.6 L151.2,587.2 L153.0,585.9 L154.9,584.5 L156.8,583.1
		L158.7,581.7 L160.6,580.2 L162.5,578.8 L164.4,577.4 L166.3,575.9 L168.1,574.5 L170.0,573.0 L171.9,571.5
		L173.8,570.0 L175.7,568.5 L177.6,566.9 L179.5,565.4 L181.4,563.8 L183.2,562.2 L185.1,560.6 L187.0,558.9
		L188.9,557.3 L190.8,555.5 L192.7,553.8 L194.6,552.0 L196.5,550.2 L198.3,548.4 L200.2,546.5 L202.1,544.6
		L204.0,542.7 L205.9,540.7 L207.8,538.7 L209.7,536.7 L211.6,534.7 L213.4,532.7 L215.3,530.6 L217.2,528.5
		L219.1,526.4 L221.0,524.3 L222.9,522.2 L224.8,520.1 L226.6,517.9 L228.5,515.7 L230.4,513.5 L232.3,511.3
		L234.2,509.0 L236.1,506.7 L238.0,504.3 L239.9,501.9 L241.7,499.5 L243.6,497.0 L245.5,494.4 L247.4,491.8
		L249.3,489.1 L251.2,486.3 L253.1,483.5 L255.0,480.7 L256.8,477.8 L258.7,474.8 L260.6,471.8 L262.5,468.8
		L264.4,465.7 L266.3,462.6 L268.2,459.5 L270.1,456.3 L271.9,453.2 L273.8,450.0 L275.7,446.9 L277.6,443.7
		L279.5,440.6 L281.4,437.5 L283.3,434.3 L285.2,431.2 L287.0,428.2 L288.9,425.1 L290.8,422.0 L292.7,419.0
		L294.6,416.0 L296.5,413.0 L298.4,410.0 L300.2,407.0 L302.1,404.0 L304.0,401.1 L305.9,398.1 L307.8,395.2
		L309.7,392.2 L311.6,389.3 L313.5,386.4 L315.3,383.4 L317.2,380.5 L319.1,377.6 L321.0,374.7 L322.9,371.9
		L324.8,369.0 L326.7,366.1 L328.6,363.3 L330.4,360.5 L332.3,357.6 L334.2,354.8 L336.1,352.0 L338.0,349.2
		L339.9,346.4 L341.8,343.6 L343.7,340.8 L345.5,338.1 L347.4,335.3 L349.3,332.4 L351.2,329.6 L353.1,326.8
		L355.0,323.9 L356.9,321.0 L358.8,318.1 L360.6,315.1 L362.5,312.1 L364.4,309.1 L366.3,306.1 L368.2,303.0
		L370.1,299.8 L372.0,296.7 L373.8,293.5 L375.7,290.2 L377.6,287.0 L379.5,283.7 L381.4,280.4 L383.3,277.1
		L385.2,273.8 L387.1,270.4 L388.9,267.1 L390.8,263.8 L392.7,260.4 L394.6,257.1 L396.5,253.8 L398.4,250.5
		L400.3,247.3 L402.2,244.0 L404.0,240.8 L405.9,237.6 L407.8,234.4 L409.7,231.2 L411.6,228.1 L413.5,225.0
		L415.4,221.8 L417.3,218.8 L419.1,215.7 L421.0,212.6 L422.9,209.6 L424.8,206.6 L426.7,203.5 L428.6,200.6
		L430.5,197.6 L432.4,194.6 L434.2,191.7 L436.1,188.7 L438.0,185.8 L439.9,182.9 L441.8,180.0 L443.7,177.2
		L445.6,174.3 L447.4,171.5 L449.3,168.7 L451.2,165.9 L453.1,163.2 L455.0,160.5 L456.9,157.8 L458.8,155.1
		L460.7,152.5 L462.5,149.8 L464.4,147.3 L466.3,144.8 L468.2,142.3 L470.1,139.8 L472.0,137.4 L473.9,135.1
		L475.8,132.7 L477.6,130.5 L479.5,128.3 L481.4,126.1 L483.3,123.9 L485.2,121.8 L487.1,119.8 L489.0,117.8
		L490.9,115.8 L492.7,113.8 L494.6,111.8 L496.5,109.9 L498.4,107.9 L500.3,106.0 L502.2,104.1 L504.1,102.2
		L506.0,100.3 L507.8,98.4 L509.7,96.5 L511.6,94.7 L513.5,92.8 L515.4,91.0 L517.3,89.2 L519.2,87.4
		L521.0,85.7 L522.9,84.0 L524.8,82.3 L526.7,80.8 L528.6,79.2 L530.5,77.8 L532.4,76.4 L534.3,75.1
		L536.1,73.9 L538.0,72.8 L539.9,71.7 L541.8,70.7 L543.7,69.8 L545.6,69.0 L547.5,68.3 L549.4,67.6
		L551.2,67.0 L553.1,66.4 L555.0,65.9 L556.9,65.5 L558.8,65.1 L560.7,64.7 L562.6,64.4 L564.5,64.1
		L566.3,63.9 L568.2,63.7 L570.1,63.6 L572.0,63.5 L573.9,63.5 L575.8,63.5 L577.7,63.6 L579.5,63.7
		L581.4,63.9 L583.3,64.2 L585.2,64.5 L587.1,65.0 L589.0,65.5 L590.9,66.1 L592.8,66.7 L594.6,67.5
		L596.5,68.3 L598.4,69.2 L600.3,70.2 L602.2,71.3 L604.1,72.4 L606.0,73.6 L607.9,74.8 L609.7,76.1
		L611.6,77.4 L613.5,78.7 L615.4,80.0 L617.3,81.4 L619.2,82.8 L621.1,84.2 L623.0,85.6 L624.8,87.0
		L626.7,88.4 L628.6,89.9 L630.5,91.3 L632.4,92.8 L634.3,94.4 L636.2,95.9 L638.1,97.6 L639.9,99.3
		L641.8,101.0 L643.7,102.9 L645.6,104.8 L647.5,106.8 L649.4,108.9 L651.3,111.2 L653.1,113.5 L655.0,115.9
		L656.9,118.4 L658.8,121.0 L660.7,123.7 L662.6,126.5 L664.5,129.3 L666.4,132.2 L668.2,135.2 L670.1,138.2
		L672.0,141.3 L673.9,144.4 L675.8,147.5 L677.7,150.6 L679.6,153.8 L681.5,156.9 L683.3,160.1 L685.2,163.3
		L687.1,166.4 L689.0,169.6 L690.9,172.8 L692.8,175.9 L694.7,179.1 L696.6,182.2 L698.4,185.4 L700.3,188.6
		L702.2,191.8 L704.1,195.0 L706.0,198.2 L707.9,201.5 L709.8,204.8 L711.7,208.1 L713.5,211.4 L715.4,214.8
		L717.3,218.2 L719.2,221.6 L721.1,225.1 L723.0,228.6 L724.9,232.1 L726.7,235.6 L728.6,239.2 L730.5,242.8
		L732.4,246.4 L734.3,250.0 L736.2,253.7 L738.1,257.4 L740.0,261.0 L741.8,264.7 L743.7,268.4 L745.6,272.1
		L747.5,275.8 L749.4,279.6 L751.3,283.3 L753.2,287.0 L755.1,290.8 L756.9,294.6 L758.8,298.4 L760.7,302.2
		L762.6,306.0 L764.5,309.8 L766.4,313.7 L768.3,317.6 L770.2,321.4 L772.0,325.3 L773.9,329.2 L775.8,333.0
		L777.7,336.9 L779.6,340.7 L781.5,344.6 L783.4,348.4 L785.3,352.2 L787.1,355.9 L789.0,359.7 L790.9,363.4
		L792.8,367.1 L794.7,370.7 L796.6,374.3 L798.5,377.8 L800.3,381.3 L802.2,384.7 L804.1,388.1 L806.0,391.5
		L807.9,394.8 L809.8,398.1 L811.7,401.3 L813.6,404.5 L815.4,407.7 L817.3,410.8 L819.2,413.9 L821.1,417.0
		L823.0,420.0 L824.9,423.1 L826.8,426.1 L828.7,429.1 L830.5,432.1 L832.4,435.1 L834.3,438.1 L836.2,441.0
		L838.1,444.0 L840.0,447.0 L841.9,449.9 L843.8,452.8 L845.6,455.8 L847.5,458.7 L849.4,461.6 L851.3,464.5
		L853.2,467.3 L855.1,470.2 L857.0,473.0 L858.9,475.8 L860.7,478.6 L862.6,481.4 L864.5,484.1 L866.4,486.9
		L868.3,489.6 L870.2,492.3 L872.1,495.0 L873.9,497.7 L875.8,500.4 L877.7,503.1 L879.6,505.8 L881.5,508.4
		L883.4,511.1 L885.3,513.7 L887.2,516.4 L889.0,519.0 L890.9,521.6 L892.8,524.1 L894.7,526.7 L896.6,529.2
		L898.5,531.6 L900.4,534.0 L902.3,536.4 L904.1,538.7 L906.0,541.0 L907.9,543.3 L909.8,545.4 L911.7,547.6
		L913.6,549.7 L915.5,551.7 L917.4,553.7 L919.2,555.7 L921.1,557.6 L923.0,559.5 L924.9,561.4 L926.8,563.2
		L928.7,565.0 L930.6,566.8 L932.5,568.6 L934.3,570.3 L936.2,572.0 L938.1,573.7 L940.0,575.4 L941.9,577.1
		L943.8,578.8 L945.7,580.5 L947.5,582.1 L949.4,583.7 L951.3,585.3 L953.2,586.9 L955.1,588.5 L957.0,590.0
		L958.9,591.5 L960.8,593.0 L962.6,594.5 L964.5,595.9 L966.4,597.4 L968.3,598.7 L970.2,600.1 L972.1,601.4
		L974.0,602.7 L975.9,604.0 L977.7,605.3 L979.6,606.5 L981.5,607.7 L983.4,608.9 L985.3,610.0 L987.2,611.2
		L989.1,612.3 L991.0,613.4 L992.8,614.5 L994.7,615.6 L996.6,616.6 L998.5,617.7 L1000.4,618.7 L1002.3,619.8
		L1004.2,620.8 L1006.1,621.8 L1007.9,622.9 L1009.8,623.9 L1011.7,624.8 L1013.6,625.8  '/></g>
	</g>
	<g id="gnuplot_plot_2" ><title>Confidence interval</title>
<g fill="none" color="white" stroke="rgb( 31, 120, 180)" stroke-width="1.00" stroke-linecap="butt" stroke-linejoin="miter">
</g>
<g fill="none" color="black" stroke="currentColor" stroke-width="1.00" stroke-linecap="butt" stroke-linejoin="miter">
	<g transform="translate(1089.0,85.0)" stroke="none" fill="black" font-family="Helvetica" font-size="12.00"  text-anchor="start">
		<text><tspan font-family="Helvetica" >Confidence interval</tspan></text>
	</g>
</g>
<g fill="none" color="black" stroke="currentColor" stroke-width="1.00" stroke-linecap="butt" stroke-linejoin="miter">
	<g stroke='none' shape-rendering='crispEdges'>
		<polygon fill = 'rgb( 31, 120, 180)' fill-opacity = '0.250000' points = '1038.5,85.6 1080.7,85.6 1080.7,76.6 1038.5,76.6 '/>
		<polygon fill = 'rgb( 31, 120, 180)' fill-opacity = '0.250000' points = '158.7,581.7 158.7,662.4 160.6,662.4 160.6,580.2 '/>
		<polygon fill = 'rgb( 31, 120, 180)' fill-opacity = '0.250000' points = '160.6,580.2 160.6,662.4 162.5,662.4 162.5,578.8 '/>
		<polygon fill = 'rgb( 31, 120, 180)' fill-opacity = '0.250000' points = '162.5,578.8 162.5,662.4 164.4,662.4 164.4,577.4 '/>
		<polygon fill = 'rgb( 31, 120, 180)' fill-opacity = '0.250000' points = '164.4,577.4 164.4,662.4 166.3,662.4 166.3,575.9 '/>
		<polygon fill = 'rgb( 31, 120, 180)' fill-opacity = '0.250000' points = '166.3,575.9 166.3,662.4 168.1,662.4 168.1,574.5 '/>
		<polygon fill = 'rgb( 31, 120, 180)' fill-opacity = '0.250000' points = '168.1,574.5 168.1,662.4 170.0,662.4 170.0,573.0 '/>
		<polygon fill = 'rgb( 31, 120, 180)' fill-opacity = '0.250000' points = '170.0,573.0 170.0,662.4 171.9,662.4 171.9,571.5 '/>
		<polygon fill = 'rgb( 31, 120, 180)' fill-opacity = '0.250000' points = '171.9,571.5 171.9,662.4 173.8,662.4 173.8,570.0 '/>
		<polygon fill = 'rgb( 31, 120, 180)' fill-opacity = '0.250000' points = '173.8,570.0 173.8,662.4 175.7,662.4 175.7,568.5 '/>
		<polygon fill = 'rgb( 31, 120, 180)' fill-opacity = '0.250000' points = '175.7,568.5 175.7,662.4 177.6,662.4 177.6,566.9 '/>
		<polygon fill = 'rgb( 31, 120, 180)' fill-opacity = '0.250000' points = '177.6,566.9 177.6,662.4 179.5,662.4 179.5,565.4 '/>
		<polygon fill = 'rgb( 31, 120, 180)' fill-opacity = '0.250000' points = '179.5,565.4 179.5,662.4 181.4,662.4 181.4,563.8 '/>
		<polygon fill = 'rgb( 31, 120, 180)' fill-opacity = '0.250000' points = '181.4,563.8 181.4,662.4 183.2,662.4 183.2,562.2 '/>
		<polygon fill = 'rgb( 31, 120, 180)' fill-opacity = '0.250000' points = '183.2,562.2 183.2,662.4 185.1,662.4 185.1,560.6 '/>
		<polygon fill = 'rgb( 31, 120, 180)' fill-opacity = '0.250000' points = '185.1,560.6 185.1,662.4 187.0,662.4 187.0,558.9 '/>
		<polygon fill = 'rgb( 31, 120, 180)' fill-opacity = '0.250000' points = '187.0,558.9 187.0,662.4 188.9,662.4 188.9,557.3 '/>
		<polygon fill = 'rgb( 31, 120, 180)' fill-opacity = '0.250000' points = '188.9,557.3 188.9,662.4 190.8,662.4 190.8,555.5 '/>
		<polygon fill = 'rgb( 31, 120, 180)' fill-opacity = '0.250000' points = '190.8,555.5 190.8,662.4 192.7,662.4 192.7,553.8 '/>
		<polygon fill = 'rgb( 31, 120, 180)' fill-opacity = '0.250000' points = '192.7,553.8 192.7,662.4 194.6,662.4 194.6,552.0 '/>
		<polygon fill = 'rgb( 31, 120, 180)' fill-opacity = '0.250000' points = '194.6,552.0 194.6,662.4 196.5,662.4 196.5,550.2 '/>
		<polygon fill = 'rgb( 31, 120, 180)' fill-opacity = '0.250000' points = '196.5,550.2 196.5,662.4 198.3,662.4 198.3,548.4 '/>
		<polygon fill = 'rgb( 31, 120, 180)' fill-opacity = '0.250000' points = '198.3,548.4 198.3,662.4 200.2,662.4 200.2,546.5 '/>
		<polygon fill = 'rgb( 31, 120, 180)' fill-opacity = '0.250000' points = '200.2,546.5 200.2,662.4 202.1,662.4 202.1,544.6 '/>
		<polygon fill = 'rgb( 31, 120, 180)' fill-opacity = '0.250000' points = '202.1,544.6 202.1,662.4 204.0,662.4 204.0,542.7 '/>
		<polygon fill = 'rgb( 31, 120, 180)' fill-opacity = '0.250000' points = '204.0,542.7 204.0,662.4 205.9,662.4 205.9,540.7 '/>
		<polygon fill = 'rgb( 31, 120, 180)' fill-opacity = '0.250000' points = '205.9,540.7 205.9,662.4 207.8,662.4 207.8,538.7 '/>
		<polygon fill = 'rgb( 31, 120, 180)' fill-opacity = '0.250000' points = '207.8,538.7 207.8,662.4 209.7,662.4 209.7,536.7 '/>
		<polygon fill = 'rgb( 31, 120, 180)' fill-opacity = '0.250000' points = '209.7,536.7 209.7,662.4 211.6,662.4 211.6,534.7 '/>
		<polygon fill = 'rgb( 31, 120, 180)' fill-opacity = '0.250000' points = '211.6,534.7 211.6,662.4 213.4,662.4 213.4,532.7 '/>
		<polygon fill = 'rgb( 31, 120, 180)' fill-opacity = '0.250000' points = '213.4,532.7 213.4,662.4 215.3,662.4 215.3,530.6 '/>
		<polygon fill = 'rgb( 31, 120, 180)' fill-opacity = '0.250000' points = '215.3,530.6 215.3,662.4 217.2,662.4 217.2,528.5 '/>
		<polygon fill = 'rgb( 31, 120, 180)' fill-opacity = '0.250000' points = '217.2,528.5 217.2,662.4 219.1,662.4 219.1,526.4 '/>
		<polygon fill = 'rgb( 31, 120, 180)' fill-opacity = '0.250000' points = '219.1,526.4 219.1,662.4 221.0,662.4 221.0,524.3 '/>
		<polygon fill = 'rgb( 31, 120, 180)' fill-opacity = '0.250000' points = '221.0,524.3 221.0,662.4 222.9,662.4 222.9,522.2 '/>
		<polygon fill = 'rgb( 31, 120, 180)' fill-opacity = '0.250000' points = '222.9,522.2 222.9,662.4 224.8,662.4 224.8,520.1 '/>
		<polygon fill = 'rgb( 31, 120, 180)' fill-opacity = '0.250000' points = '224.8,520.1 224.8,662.4 226.6,662.4 226.6,517.9 '/>
		<polygon fill = 'rgb( 31, 120, 180)' fill-opacity = '0.250000' points = '226.6,517.9 226.6,662.4 228.5,662.4 228.5,515.7 '/>
		<polygon fill = 'rgb( 31, 120, 180)' fill-opacity = '0.250000' points = '228.5,515.7 228.5,662.4 230.4,662.4 230.4,513.5 '/>
		<polygon fill = 'rgb( 31, 120, 180)' fill-opacity = '0.250000' points = '230.4,513.5 230.4,662.4 232.3,662.4 232.3,511.3 '/>
		<polygon fill = 'rgb( 31, 120, 180)' fill-opacity = '0.250000' points = '232.3,511.3 232.3,662.4 234.2,662.4 234.2,509.0 '/>
		<polygon fill = 'rgb( 31, 120, 180)' fill-opacity = '0.250000' points = '234.2,509.0 234.2,662.4 236.1,662.4 236.1,506.7 '/>
		<polygon fill = 'rgb( 31, 120, 180)' fill-opacity = '0.250000' points = '236.1,506.7 236.1,662.4 238.0,662.4 238.0,504.3 '/>
		<polygon fill = 'rgb( 31, 120, 180)' fill-opacity = '0.250000' points = '238.0,504.3 238.0,662.4 239.9,662.4 239.9,501.9 '/>
		<polygon fill = 'rgb( 31, 120, 180)' fill-opacity = '0.250000' points = '239.9,501.9 239.9,662.4 241.7,662.4 241.7,499.5 '/>
		<polygon fill = 'rgb( 31, 120, 180)' fill-opacity = '0.250000' points = '241.7,499.5 241.7,662.4 243.6,662.4 243.6,497.0 '/>
		<polygon fill = 'rgb( 31, 120, 180)' fill-opacity = '0.250000' points = '243.6,497.0 243.6,662.4 245.5,662.4 245.5,494.4 '/>
		<polygon fill = 'rgb( 31, 120, 180)' fill-opacity = '0.250000' points = '245.5,494.4 245.5,662.4 247.4,662.4 247.4,491.8 '/>
		<polygon fill = 'rgb( 31, 120, 180)' fill-opacity = '0.250000' points = '247.4,491.8 247.4,662.4 249.3,662.4 249.3,489.1 '/>
		<polygon fill = 'rgb( 31, 120, 180)' fill-opacity = '0.250000' points = '249.3,489.1 249.3,662.4 251.2,662.4 251.2,486.3 '/>
		<polygon fill = 'rgb( 31, 120, 180)' fill-opacity = '0.250000' points = '251.2,486.3 251.2,662.4 253.1,662.4 253.1,483.5 '/>
		<polygon fill = 'rgb( 31, 120, 180)' fill-opacity = '0.250000' points = '253.1,483.5 253.1,662.4 255.0,662.4 255.0,480.7 '/>
		<polygon fill = 'rgb( 31, 120, 180)' fill-opacity = '0.250000' points = '255.0,480.7 255.0,662.4 256.8,662.4 256.8,477.8 '/>
		<polygon fill = 'rgb( 31, 120, 180)' fill-opacity = '0.250000' points = '256.8,477.8 256.8,662.4 258.7,662.4 258.7,474.8 '/>
		<polygon fill = 'rgb( 31, 120, 180)' fill-opacity = '0.250000' points = '258.7,474.8 258.7,662.4 260.6,662.4 260.6,471.8 '/>
		<polygon fill = 'rgb( 31, 120, 180)' fill-opacity = '0.250000' points = '260.6,471.8 260.6,662.4 262.5,662.4 262.5,468.8 '/>
		<polygon fill = 'rgb( 31, 120, 180)' fill-opacity = '0.250000' points = '262.5,468.8 262.5,662.4 264.4,662.4 264.4,465.7 '/>
		<polygon fill = 'rgb( 31, 120, 180)' fill-opacity = '0.250000' points = '264.4,465.7 264.4,662.4 266.3,662.4 266.3,462.6 '/>
		<polygon fill = 'rgb( 31, 120, 180)' fill-opacity = '0.250000' points = '266.3,462.6 266.3,662.4 268.2,662.4 268.2,459.5 '/>
		<polygon fill = 'rgb( 31, 120, 180)' fill-opacity = '0.250000' points = '268.2,459.5 268.2,662.4 270.1,662.4 270.1,456.3 '/>
		<polygon fill = 'rgb( 31, 120, 180)' fill-opacity = '0.250000' points = '270.1,456.3 270.1,662.4 271.9,662.4 271.9,453.2 '/>
		<polygon fill = 'rgb( 31, 120, 180)' fill-opacity = '0.250000' points = '271.9,453.2 271.9,662.4 273.8,662.4 273.8,450.0 '/>
		<polygon fill = 'rgb( 31, 120, 180)' fill-opacity = '0.250000' points = '273.8,450.0 273.8,662.4 275.7,662.4 275.7,446.9 '/>
		<polygon fill = 'rgb( 31, 120, 180)' fill-opacity = '0.250000' points = '275.7,446.9 275.7,662.4 277.6,662.4 277.6,443.7 '/>
		<polygon fill = 'rgb( 31, 120, 180)' fill-opacity = '0.250000' points = '277.6,443.7 277.6,662.4 279.5,662.4 279.5,440.6 '/>
		<polygon fill = 'rgb( 31, 120, 180)' fill-opacity = '0.250000' points = '279.5,440.6 279.5,662.4 281.4,662.4 281.4,437.5 '/>
		<polygon fill = 'rgb( 31, 120, 180)' fill-opacity = '0.250000' points = '281.4,437.5 281.4,662.4 283.3,662.4 283.3,434.3 '/>
		<polygon fill = 'rgb( 31, 120, 180)' fill-opacity = '0.250000' points = '283.3,434.3 283.3,662.4 285.2,662.4 285.2,431.2 '/>
		<polygon fill = 'rgb( 31, 120, 180)' fill-opacity = '0.250000' points = '285.2,431.2 285.2,662.4 287.0,662.4 287.0,428.2 '/>
		<polygon fill = 'rgb( 31, 120, 180)' fill-opacity = '0.250000' points = '287.0,428.2 287.0,662.4 288.9,662.4 288.9,425.1 '/>
		<polygon fill = 'rgb( 31, 120, 180)' fill-opacity = '0.250000' points = '288.9,425.1 288.9,662.4 290.8,662.4 290.8,422.0 '/>
		<polygon fill = 'rgb( 31, 120, 180)' fill-opacity = '0.250000' points = '290.8,422.0 290.8,662.4 292.7,662.4 292.7,419.0 '/>
		<polygon fill = 'rgb( 31, 120, 180)' fill-opacity = '0.250000' points = '292.7,419.0 292.7,662.4 294.6,662.4 294.6,416.0 '/>
		<polygon fill = 'rgb( 31, 120, 180)' fill-opacity = '0.250000' points = '294.6,416.0 294.6,662.4 296.5,662.4 296.5,413.0 '/>
		<polygon fill = 'rgb( 31, 120, 180)' fill-opacity = '0.250000' points = '296.5,413.0 296.5,662.4 298.4,662.4 298.4,410.0 '/>
		<polygon fill = 'rgb( 31, 120, 180)' fill-opacity = '0.250000' points = '298.4,410.0 298.4,662.4 300.2,662.4 300.2,407.0 '/>
		<polygon fill = 'rgb( 31, 120, 180)' fill-opacity = '0.250000' points = '300.2,407.0 300.2,662.4 302.1,662.4 302.1,404.0 '/>
		<polygon fill = 'rgb( 31, 120, 180)' fill-opacity = '0.250000' points = '302.1,404.0 302.1,662.4 304.0,662.4 304.0,401.1 '/>
		<polygon fill = 'rgb( 31, 120, 180)' fill-opacity = '0.250000' points = '304.0,401.1 304.0,662.4 305.9,662.4 305.9,398.1 '/>
		<polygon fill = 'rgb( 31, 120, 180)' fill-opacity = '0.250000' points = '305.9,398.1 305.9,662.4 307.8,662.4 307.8,395.2 '/>
		<polygon fill = 'rgb( 31, 120, 180)' fill-opacity = '0.250000' points = '307.8,395.2 307.8,662.4 309.7,662.4 309.7,392.2 '/>
		<polygon fill = 'rgb( 31, 120, 180)' fill-opacity = '0.250000' points = '309.7,392.2 309.7,662.4 311.6,662.4 311.6,389.3 '/>
		<polygon fill = 'rgb( 31, 120, 180)' fill-opacity = '0.250000' points = '311.6,389.3 311.6,662.4 313.5,662.4 313.5,386.4 '/>
		<polygon fill = 'rgb( 31, 120, 180)' fill-opacity = '0.250000' points = '313.5,386.4 313.5,662.4 315.3,662.4 315.3,383.4 '/>
		<polygon fill = 'rgb( 31, 120, 180)' fill-opacity = '0.250000' points = '315.3,383.4 315.3,662.4 317.2,662.4 317.2,380.5 '/>
		<polygon fill = 'rgb( 31, 120, 180)' fill-opacity = '0.250000' points = '317.2,380.5 317.2,662.4 319.1,662.4 319.1,377.6 '/>
		<polygon fill = 'rgb( 31, 120, 180)' fill-opacity = '0.250000' points = '319.1,377.6 319.1,662.4 321.0,662.4 321.0,374.7 '/>
		<polygon fill = 'rgb( 31, 120, 180)' fill-opacity = '0.250000' points = '321.0,374.7 321.0,662.4 322.9,662.4 322.9,371.9 '/>
		<polygon fill = 'rgb( 31, 120, 180)' fill-opacity = '0.250000' points = '322.9,371.9 322.9,662.4 324.8,662.4 324.8,369.0 '/>
		<polygon fill = 'rgb( 31, 120, 180)' fill-opacity = '0.250000' points = '324.8,369.0 324.8,662.4 326.7,662.4 326.7,366.1 '/>
		<polygon fill = 'rgb( 31, 120, 180)' fill-opacity = '0.250000' points = '326.7,366.1 326.7,662.4 328.6,662.4 328.6,363.3 '/>
		<polygon fill = 'rgb( 31, 120, 180)' fill-opacity = '0.250000' points = '328.6,363.3 328.6,662.4 330.4,662.4 330.4,360.5 '/>
		<polygon fill = 'rgb( 31, 120, 180)' fill-opacity = '0.250000' points = '330.4,360.5 330.4,662.4 332.3,662.4 332.3,357.6 '/>
		<polygon fill = 'rgb( 31, 120, 180)' fill-opacity = '0.250000' points = '332.3,357.6 332.3,662.4 334.2,662.4 334.2,354.8 '/>
		<polygon fill = 'rgb( 31, 120, 180)' fill-opacity = '0.250000' points = '334.2,354.8 334.2,662.4 336.1,662.4 336.1,352.0 '/>
		<polygon fill = 'rgb( 31, 120, 180)' fill-opacity = '0.250000' points = '336.1,352.0 336.1,662.4 338.0,662.4 338.0,349.2 '/>
		<polygon fill = 'rgb( 31, 120, 180)' fill-opacity = '0.250000' points = '338.0,349.2 338.0,662.4 339.9,662.4 339.9,346.4 '/>
		<polygon fill = 'rgb( 31, 120, 180)' fill-opacity = '0.250000' points = '339.9,346.4 339.9,662.4 341.8,662.4 341.8,343.6 '/>
		<polygon fill = 'rgb( 31, 120, 180)' fill-opacity = '0.250000' points = '341.8,343.6 341.8,662.4 343.7,662.4 343.7,340.8 '/>
		<polygon fill = 'rgb( 31, 120, 180)' fill-opacity = '0.250000' points = '343.7,340.8 343.7,662.4 345.5,662.4 345.5,338.1 '/>
		<polygon fill = 'rgb( 31, 120, 180)' fill-opacity = '0.250000' points = '345.5,338.1 345.5,662.4 347.4,662.4 347.4,335.3 '/>
		<polygon fill = 'rgb( 31, 120, 180)' fill-opacity = '0.250000' points = '347.4,335.3 347.4,662.4 349.3,662.4 349.3,332.4 '/>
		<polygon fill = 'rgb( 31, 120, 180)' fill-opacity = '0.250000' points = '349.3,332.4 349.3,662.4 351.2,662.4 351.2,329.6 '/>
		<polygon fill = 'rgb( 31, 120, 180)' fill-opacity = '0.250000' points = '351.2,329.6 351.2,662.4 353.1,662.4 353.1,326.8 '/>
		<polygon fill = 'rgb( 31, 120, 180)' fill-opacity = '0.250000' points = '353.1,326.8 353.1,662.4 355.0,662.4 355.0,323.9 '/>
		<polygon fill = 'rgb( 31, 120, 180)' fill-opacity = '0.250000' points = '355.0,323.9 355.0,662.4 356.9,662.4 356.9,321.0 '/>
		<polygon fill = 'rgb( 31, 120, 180)' fill-opacity = '0.250000' points = '356.9,321.0 356.9,662.4 358.8,662.4 358.8,318.1 '/>
		<polygon fill = 'rgb( 31, 120, 180)' fill-opacity = '0.250000' points = '358.8,318.1 358.8,662.4 360.6,662.4 360.6,315.1 '/>
		<polygon fill = 'rgb( 31, 120, 180)' fill-opacity = '0.250000' points = '360.6,315.1 360.6,662.4 362.5,662.4 362.5,312.1 '/>
		<polygon fill = 'rgb( 31, 120, 180)' fill-opacity = '0.250000' points = '362.5,312.1 362.5,662.4 364.4,662.4 364.4,309.1 '/>
		<polygon fill = 'rgb( 31, 120, 180)' fill-opacity = '0.250000' points = '364.4,309.1 364.4,662.4 366.3,662.4 366.3,306.1 '/>
		<polygon fill = 'rgb( 31, 120, 180)' fill-opacity = '0.250000' points = '366.3,306.1 366.3,662.4 368.2,662.4 368.2,303.0 '/>
		<polygon fill = 'rgb( 31, 120, 180)' fill-opacity = '0.250000' points = '368.2,303.0 368.2,662.4 370.1,662.4 370.1,299.8 '/>
		<polygon fill = 'rgb( 31, 120, 180)' fill-opacity = '0.250000' points = '370.1,299.8 370.1,662.4 372.0,662.4 372.0,296.7 '/>
		<polygon fill = 'rgb( 31, 120, 180)' fill-opacity = '0.250000' points = '372.0,296.7 372.0,662.4 373.8,662.4 373.8,293.5 '/>
		<polygon fill = 'rgb( 31, 120, 180)' fill-opacity = '0.250000' points = '373.8,293.5 373.8,662.4 375.7,662.4 375.7,290.2 '/>
		<polygon fill = 'rgb( 31, 120, 180)' fill-opacity = '0.250000' points = '375.7,290.2 375.7,662.4 377.6,662.4 377.6,287.0 '/>
		<polygon fill = 'rgb( 31, 120, 180)' fill-opacity = '0.250000' points = '377.6,287.0 377.6,662.4 379.5,662.4 379.5,283.7 '/>
		<polygon fill = 'rgb( 31, 120, 180)' fill-opacity = '0.250000' points = '379.5,283.7 379.5,662.4 381.4,662.4 381.4,280.4 '/>
		<polygon fill = 'rgb( 31, 120, 180)' fill-opacity = '0.250000' points = '381.4,280.4 381.4,662.4 383.3,662.4 383.3,277.1 '/>
		<polygon fill = 'rgb( 31, 120, 180)' fill-opacity = '0.250000' points = '383.3,277.1 383.3,662.4 385.2,662.4 385.2,273.8 '/>
		<polygon fill = 'rgb( 31, 120, 180)' fill-opacity = '0.250000' points = '385.2,273.8 385.2,662.4 387.1,662.4 387.1,270.4 '/>
		<polygon fill = 'rgb( 31, 120, 180)' fill-opacity = '0.250000' points = '387.1,270.4 387.1,662.4 388.9,662.4 388.9,267.1 '/>
		<polygon fill = 'rgb( 31, 120, 180)' fill-opacity = '0.250000' points = '388.9,267.1 388.9,662.4 390.8,662.4 390.8,263.8 '/>
		<polygon fill = 'rgb( 31, 120, 180)' fill-opacity = '0.250000' points = '390.8,263.8 390.8,662.4 392.7,662.4 392.7,260.4 '/>
		<polygon fill = 'rgb( 31, 120, 180)' fill-opacity = '0.250000' points = '392.7,260.4 392.7,662.4 394.6,662.4 394.6,257.1 '/>
		<polygon fill = 'rgb( 31, 120, 180)' fill-opacity = '0.250000' points = '394.6,257.1 394.6,662.4 396.5,662.4 396.5,253.8 '/>
		<polygon fill = 'rgb( 31, 120, 180)' fill-opacity = '0.250000' points = '396.5,253.8 396.5,662.4 398.4,662.4 398.4,250.5 '/>
		<polygon fill = 'rgb( 31, 120, 180)' fill-opacity = '0.250000' points = '398.4,250.5 398.4,662.4 400.3,662.4 400.3,247.3 '/>
		<polygon fill = 'rgb( 31, 120, 180)' fill-opacity = '0.250000' points = '400.3,247.3 400.3,662.4 402.2,662.4 402.2,244.0 '/>
		<polygon fill = 'rgb( 31, 120, 180)' fill-opacity = '0.250000' points = '402.2,244.0 402.2,662.4 404.0,662.4 404.0,240.8 '/>
		<polygon fill = 'rgb( 31, 120, 180)' fill-opacity = '0.250000' points = '404.0,240.8 404.0,662.4 405.9,662.4 405.9,237.6 '/>
		<polygon fill = 'rgb( 31, 120, 180)' fill-opacity = '0.250000' points = '405.9,237.6 405.9,662.4 407.8,662.4 407.8,234.4 '/>
		<polygon fill = 'rgb( 31, 120, 180)' fill-opacity = '0.250000' points = '407.8,234.4 407.8,662.4 409.7,662.4 409.7,231.2 '/>
		<polygon fill = 'rgb( 31, 120, 180)' fill-opacity = '0.250000' points = '409.7,231.2 409.7,662.4 411.6,662.4 411.6,228.1 '/>
		<polygon fill = 'rgb( 31, 120, 180)' fill-opacity = '0.250000' points = '411.6,228.1 411.6,662.4 413.5,662.4 413.5,225.0 '/>
		<polygon fill = 'rgb( 31, 120, 180)' fill-opacity = '0.250000' points = '413.5,225.0 413.5,662.4 415.4,662.4 415.4,221.8 '/>
		<polygon fill = 'rgb( 31, 120, 180)' fill-opacity = '0.250000' points = '415.4,221.8 415.4,662.4 417.3,662.4 417.3,218.8 '/>
		<polygon fill = 'rgb( 31, 120, 180)' fill-opacity = '0.250000' points = '417.3,218.8 417.3,662.4 419.1,662.4 419.1,215.7 '/>
		<polygon fill = 'rgb( 31, 120, 180)' fill-opacity = '0.250000' points = '419.1,215.7 419.1,662.4 421.0,662.4 421.0,212.6 '/>
		<polygon fill = 'rgb( 31, 120, 180)' fill-opacity = '0.250000' points = '421.0,212.6 421.0,662.4 422.9,662.4 422.9,209.6 '/>
		<polygon fill = 'rgb( 31, 120, 180)' fill-opacity = '0.250000' points = '422.9,209.6 422.9,662.4 424.8,662.4 424.8,206.6 '/>
		<polygon fill = 'rgb( 31, 120, 180)' fill-opacity = '0.250000' points = '424.8,206.6 424.8,662.4 426.7,662.4 426.7,203.5 '/>
		<polygon fill = 'rgb( 31, 120, 180)' fill-opacity = '0.250000' points = '426.7,203.5 426.7,662.4 428.6,662.4 428.6,200.6 '/>
		<polygon fill = 'rgb( 31, 120, 180)' fill-opacity = '0.250000' points = '428.6,200.6 428.6,662.4 430.5,662.4 430.5,197.6 '/>
		<polygon fill = 'rgb( 31, 120, 180)' fill-opacity = '0.250000' points = '430.5,197.6 430.5,662.4 432.4,662.4 432.4,194.6 '/>
		<polygon fill = 'rgb( 31, 120, 180)' fill-opacity = '0.250000' points = '432.4,194.6 432.4,662.4 434.2,662.4 434.2,191.7 '/>
		<polygon fill = 'rgb( 31, 120, 180)' fill-opacity = '0.250000' points = '434.2,191.7 434.2,662.4 436.1,662.4 436.1,188.7 '/>
		<polygon fill = 'rgb( 31, 120, 180)' fill-opacity = '0.250000' points = '436.1,188.7 436.1,662.4 438.0,662.4 438.0,185.8 '/>
		<polygon fill = 'rgb( 31, 120, 180)' fill-opacity = '0.250000' points = '438.0,185.8 438.0,662.4 439.9,662.4 439.9,182.9 '/>
		<polygon fill = 'rgb( 31, 120, 180)' fill-opacity = '0.250000' points = '439.9,182.9 439.9,662.4 441.8,662.4 441.8,180.0 '/>
		<polygon fill = 'rgb( 31, 120, 180)' fill-opacity = '0.250000' points = '441.8,180.0 441.8,662.4 443.7,662.4 443.7,177.2 '/>
		<polygon fill = 'rgb( 31, 120, 180)' fill-opacity = '0.250000' points = '443.7,177.2 443.7,662.4 445.6,662.4 445.6,174.3 '/>
		<polygon fill = 'rgb( 31, 120, 180)' fill-opacity = '0.250000' points = '445.6,174.3 445.6,662.4 447.4,662.4 447.4,171.5 '/>
		<polygon fill = 'rgb( 31, 120, 180)' fill-opacity = '0.250000' points = '447.4,171.5 447.4,662.4 449.3,662.4 449.3,168.7 '/>
		<polygon fill = 'rgb( 31, 120, 180)' fill-opacity = '0.250000' points = '449.3,168.7 449.3,662.4 451.2,662.4 451.2,165.9 '/>
		<polygon fill = 'rgb( 31, 120, 180)' fill-opacity = '0.250000' points = '451.2,165.9 451.2,662.4 453.1,662.4 453.1,163.2 '/>
		<polygon fill = 'rgb( 31, 120, 180)' fill-opacity = '0.250000' points = '453.1,163.2 453.1,662.4 455.0,662.4 455.0,160.5 '/>
		<polygon fill = 'rgb( 31, 120, 180)' fill-opacity = '0.250000' points = '455.0,160.5 455.0,662.4 456.9,662.4 456.9,157.8 '/>
		<polygon fill = 'rgb( 31, 120, 180)' fill-opacity = '0.250000' points = '456.9,157.8 456.9,662.4 458.8,662.4 458.8,155.1 '/>
		<polygon fill = 'rgb( 31, 120, 180)' fill-opacity = '0.250000' points = '458.8,155.1 458.8,662.4 460.7,662.4 460.7,152.5 '/>
		<polygon fill = 'rgb( 31, 120, 180)' fill-opacity = '0.250000' points = '460.7,152.5 460.7,662.4 462.5,662.4 462.5,149.8 '/>
		<polygon fill = 'rgb( 31, 120, 180)' fill-opacity = '0.250000' points = '462.5,149.8 462.5,662.4 464.4,662.4 464.4,147.3 '/>
		<polygon fill = 'rgb( 31, 120, 180)' fill-opacity = '0.250000' points = '464.4,147.3 464.4,662.4 466.3,662.4 466.3,144.8 '/>
		<polygon fill = 'rgb( 31, 120, 180)' fill-opacity = '0.250000' points = '466.3,144.8 466.3,662.4 468.2,662.4 468.2,142.3 '/>
		<polygon fill = 'rgb( 31, 120, 180)' fill-opacity = '0.250000' points = '468.2,142.3 468.2,662.4 470.1,662.4 470.1,139.8 '/>
		<polygon fill = 'rgb( 31, 120, 180)' fill-opacity = '0.250000' points = '470.1,139.8 470.1,662.4 472.0,662.4 472.0,137.4 '/>
		<polygon fill = 'rgb( 31, 120, 180)' fill-opacity = '0.250000' points = '472.0,137.4 472.0,662.4 473.9,662.4 473.9,135.1 '/>
		<polygon fill = 'rgb( 31, 120, 180)' fill-opacity = '0.250000' points = '473.9,135.1 473.9,662.4 475.8,662.4 475.8,132.7 '/>
		<polygon fill = 'rgb( 31, 120, 180)' fill-opacity = '0.250000' points = '475.8,132.7 475.8,662.4 477.6,662.4 477.6,130.5 '/>
		<polygon fill = 'rgb( 31, 120, 180)' fill-opacity = '0.250000' points = '477.6,130.5 477.6,662.4 479.5,662.4 479.5,128.3 '/>
		<polygon fill = 'rgb( 31, 120, 180)' fill-opacity = '0.250000' points = '479.5,128.3 479.5,662.4 481.4,662.4 481.4,126.1 '/>
		<polygon fill = 'rgb( 31, 120, 180)' fill-opacity = '0.250000' points = '481.4,126.1 481.4,662.4 483.3,662.4 483.3,123.9 '/>
		<polygon fill = 'rgb( 31, 120, 180)' fill-opacity = '0.250000' points = '483.3,123.9 483.3,662.4 485.2,662.4 485.2,121.8 '/>
		<polygon fill = 'rgb( 31, 120, 180)' fill-opacity = '0.250000' points = '485.2,121.8 485.2,662.4 487.1,662.4 487.1,119.8 '/>
		<polygon fill = 'rgb( 31, 120, 180)' fill-opacity = '0.250000' points = '487.1,119.8 487.1,662.4 489.0,662.4 489.0,117.8 '/>
		<polygon fill = 'rgb( 31, 120, 180)' fill-opacity = '0.250000' points = '489.0,117.8 489.0,662.4 490.9,662.4 490.9,115.8 '/>
		<polygon fill = 'rgb( 31, 120, 180)' fill-opacity = '0.250000' points = '490.9,115.8 490.9,662.4 492.7,662.4 492.7,113.8 '/>
		<polygon fill = 'rgb( 31, 120, 180)' fill-opacity = '0.250000' points = '492.7,113.8 492.7,662.4 494.6,662.4 494.6,111.8 '/>
		<polygon fill = 'rgb( 31, 120, 180)' fill-opacity = '0.250000' points = '494.6,111.8 494.6,662.4 496.5,662.4 496.5,109.9 '/>
		<polygon fill = 'rgb( 31, 120, 180)' fill-opacity = '0.250000' points = '496.5,109.9 496.5,662.4 498.4,662.4 498.4,107.9 '/>
		<polygon fill = 'rgb( 31, 120, 180)' fill-opacity = '0.250000' points = '498.4,107.9 498.4,662.4 500.3,662.4 500.3,106.0 '/>
		<polygon fill = 'rgb( 31, 120, 180)' fill-opacity = '0.250000' points = '500.3,106.0 500.3,662.4 502.2,662.4 502.2,104.1 '/>
		<polygon fill = 'rgb( 31, 120, 180)' fill-opacity = '0.250000' points = '502.2,104.1 502.2,662.4 504.1,662.4 504.1,102.2 '/>
		<polygon fill = 'rgb( 31, 120, 180)' fill-opacity = '0.250000' points = '504.1,102.2 504.1,662.4 506.0,662.4 506.0,100.3 '/>
		<polygon fill = 'rgb( 31, 120, 180)' fill-opacity = '0.250000' points = '506.0,100.3 506.0,662.4 507.8,662.4 507.8,98.4 '/>
		<polygon fill = 'rgb( 31, 120, 180)' fill-opacity = '0.250000' points = '507.8,98.4 507.8,662.4 509.7,662.4 509.7,96.5 '/>
		<polygon fill = 'rgb( 31, 120, 180)' fill-opacity = '0.250000' points = '509.7,96.5 509.7,662.4 511.6,662.4 511.6,94.7 '/>
		<polygon fill = 'rgb( 31, 120, 180)' fill-opacity = '0.250000' points = '511.6,94.7 511.6,662.4 513.5,662.4 513.5,92.8 '/>
		<polygon fill = 'rgb( 31, 120, 180)' fill-opacity = '0.250000' points = '513.5,92.8 513.5,662.4 515.4,662.4 515.4,91.0 '/>
		<polygon fill = 'rgb( 31, 120, 180)' fill-opacity = '0.250000' points = '515.4,91.0 515.4,662.4 517.3,662.4 517.3,89.2 '/>
		<polygon fill = 'rgb( 31, 120, 180)' fill-opacity = '0.250000' points = '517.3,89.2 517.3,662.4 519.2,662.4 519.2,87.4 '/>
		<polygon fill = 'rgb( 31, 120, 180)' fill-opacity = '0.250000' points = '519.2,87.4 519.2,662.4 521.0,662.4 521.0,85.7 '/>
		<polygon fill = 'rgb( 31, 120, 180)' fill-opacity = '0.250000' points = '521.0,85.7 521.0,662.4 522.9,662.4 522.9,84.0 '/>
		<polygon fill = 'rgb( 31, 120, 180)' fill-opacity = '0.250000' points = '522.9,84.0 522.9,662.4 524.8,662.4 524.8,82.3 '/>
		<polygon fill = 'rgb( 31, 120, 180)' fill-opacity = '0.250000' points = '524.8,82.3 524.8,662.4 526.7,662.4 526.7,80.8 '/>
		<polygon fill = 'rgb( 31, 120, 180)' fill-opacity = '0.250000' points = '526.7,80.8 526.7,662.4 528.6,662.4 528.6,79.2 '/>
		<polygon fill = 'rgb( 31, 120, 180)' fill-opacity = '0.250000' points = '528.6,79.2 528.6,662.4 530.5,662.4 530.5,77.8 '/>
		<polygon fill = 'rgb( 31, 120, 180)' fill-opacity = '0.250000' points = '530.5,77.8 530.5,662.4 532.4,662.4 532.4,76.4 '/>
		<polygon fill = 'rgb( 31, 120, 180)' fill-opacity = '0.250000' points = '532.4,76.4 532.4,662.4 534.3,662.4 534.3,75.1 '/>
		<polygon fill = 'rgb( 31, 120, 180)' fill-opacity = '0.250000' points = '534.3,75.1 534.3,662.4 536.1,662.4 536.1,73.9 '/>
		<polygon fill = 'rgb( 31, 120, 180)' fill-opacity = '0.250000' points = '536.1,73.9 536.1,662.4 538.0,662.4 538.0,72.8 '/>
		<polygon fill = 'rgb( 31, 120, 180)' fill-opacity = '0.250000' points = '538.0,72.8 538.0,662.4 539.9,662.4 539.9,71.7 '/>
		<polygon fill = 'rgb( 31, 120, 180)' fill-opacity = '0.250000' points = '539.9,71.7 539.9,662.4 541.8,662.4 541.8,70.7 '/>
		<polygon fill = 'rgb( 31, 120, 180)' fill-opacity = '0.250000' points = '541.8,70.7 541.8,662.4 543.7,662.4 543.7,69.8 '/>
		<polygon fill = 'rgb( 31, 120, 180)' fill-opacity = '0.250000' points = '543.7,69.8 543.7,662.4 545.6,662.4 545.6,69.0 '/>
		<polygon fill = 'rgb( 31, 120, 180)' fill-opacity = '0.250000' points = '545.6,69.0 545.6,662.4 547.5,662.4 547.5,68.3 '/>
		<polygon fill = 'rgb( 31, 120, 180)' fill-opacity = '0.250000' points = '547.5,68.3 547.5,662.4 549.4,662.4 549.4,67.6 '/>
		<polygon fill = 'rgb( 31, 120, 180)' fill-opacity = '0.250000' points = '549.4,67.6 549.4,662.4 551.2,662.4 551.2,67.0 '/>
		<polygon fill = 'rgb( 31, 120, 180)' fill-opacity = '0.250000' points = '551.2,67.0 551.2,662.4 553.1,662.4 553.1,66.4 '/>
		<polygon fill = 'rgb( 31, 120, 180)' fill-opacity = '0.250000' points = '553.1,66.4 553.1,662.4 555.0,662.4 555.0,65.9 '/>
		<polygon fill = 'rgb( 31, 120, 180)' fill-opacity = '0.250000' points = '555.0,65.9 555.0,662.4 556.9,662.4 556.9,65.5 '/>
		<polygon fill = 'rgb( 31, 120, 180)' fill-opacity = '0.250000' points = '556.9,65.5 556.9,662.4 558.8,662.4 558.8,65.1 '/>
		<polygon fill = 'rgb( 31, 120, 180)' fill-opacity = '0.250000' points = '558.8,65.1 558.8,662.4 560.7,662.4 560.7,64.7 '/>
		<polygon fill = 'rgb( 31, 120, 180)' fill-opacity = '0.250000' points = '560.7,64.7 560.7,662.4 562.6,662.4 562.6,64.4 '/>
		<polygon fill = 'rgb( 31, 120, 180)' fill-opacity = '0.250000' points = '562.6,64.4 562.6,662.4 564.5,662.4 564.5,64.1 '/>
		<polygon fill = 'rgb( 31, 120, 180)' fill-opacity = '0.250000' points = '564.5,64.1 564.5,662.4 566.3,662.4 566.3,63.9 '/>
		<polygon fill = 'rgb( 31, 120, 180)' fill-opacity = '0.250000' points = '566.3,63.9 566.3,662.4 568.2,662.4 568.2,63.7 '/>
		<polygon fill = 'rgb( 31, 120, 180)' fill-opacity = '0.250000' points = '568.2,63.7 568.2,662.4 570.1,662.4 570.1,63.6 '/>
		<polygon fill = 'rgb( 31, 120, 180)' fill-opacity = '0.250000' points = '570.1,63.6 570.1,662.4 572.0,662.4 572.0,63.5 '/>
		<polygon fill = 'rgb( 31, 120, 180)' fill-opacity = '0.250000' points = '572.0,63.5 572.0,662.4 573.9,662.4 573.9,63.5 '/>
		<polygon fill = 'rgb( 31, 120, 180)' fill-opacity = '0.250000' points = '573.9,63.5 573.9,662.4 575.8,662.4 575.8,63.5 '/>
		<polygon fill = 'rgb( 31, 120, 180)' fill-opacity = '0.250000' points = '575.8,63.5 575.8,662.4 577.7,662.4 577.7,63.6 '/>
		<polygon fill = 'rgb( 31, 120, 180)' fill-opacity = '0.250000' points = '577.7,63.6 577.7,662.4 579.5,662.4 579.5,63.7 '/>
		<polygon fill = 'rgb( 31, 120, 180)' fill-opacity = '0.250000' points = '579.5,63.7 579.5,662.4 581.4,662.4 581.4,63.9 '/>
		<polygon fill = 'rgb( 31, 120, 180)' fill-opacity = '0.250000' points = '581.4,63.9 581.4,662.4 583.3,662.4 583.3,64.2 '/>
		<polygon fill = 'rgb( 31, 120, 180)' fill-opacity = '0.250000' points = '583.3,64.2 583.3,662.4 585.2,662.4 585.2,64.5 '/>
		<polygon fill = 'rgb( 31, 120, 180)' fill-opacity = '0.250000' points = '585.2,64.5 585.2,662.4 587.1,662.4 587.1,65.0 '/>
		<polygon fill = 'rgb( 31, 120, 180)' fill-opacity = '0.250000' points = '587.1,65.0 587.1,662.4 589.0,662.4 589.0,65.5 '/>
		<polygon fill = 'rgb( 31, 120, 180)' fill-opacity = '0.250000' points = '589.0,65.5 589.0,662.4 590.9,662.4 590.9,66.1 '/>
		<polygon fill = 'rgb( 31, 120, 180)' fill-opacity = '0.250000' points = '590.9,66.1 590.9,662.4 592.8,662.4 592.8,66.7 '/>
		<polygon fill = 'rgb( 31, 120, 180)' fill-opacity = '0.250000' points = '592.8,66.7 592.8,662.4 594.6,662.4 594.6,67.5 '/>
		<polygon fill = 'rgb( 31, 120, 180)' fill-opacity = '0.250000' points = '594.6,67.5 594.6,662.4 596.5,662.4 596.5,68.3 '/>
		<polygon fill = 'rgb( 31, 120, 180)' fill-opacity = '0.250000' points = '596.5,68.3 596.5,662.4 598.4,662.4 598.4,69.2 '/>
		<polygon fill = 'rgb( 31, 120, 180)' fill-opacity = '0.250000' points = '598.4,69.2 598.4,662.4 600.3,662.4 600.3,70.2 '/>
		<polygon fill = 'rgb( 31, 120, 180)' fill-opacity = '0.250000' points = '600.3,70.2 600.3,662.4 602.2,662.4 602.2,71.3 '/>
		<polygon fill = 'rgb( 31, 120, 180)' fill-opacity = '0.250000' points = '602.2,71.3 602.2,662.4 604.1,662.4 604.1,72.4 '/>
		<polygon fill = 'rgb( 31, 120, 180)' fill-opacity = '0.250000' points = '604.1,72.4 604.1,662.4 606.0,662.4 606.0,73.6 '/>
		<polygon fill = 'rgb( 31, 120, 180)' fill-opacity = '0.250000' points = '606.0,73.6 606.0,662.4 607.9,662.4 607.9,74.8 '/>
		<polygon fill = 'rgb( 31, 120, 180)' fill-opacity = '0.250000' points = '607.9,74.8 607.9,662.4 609.7,662.4 609.7,76.1 '/>
		<polygon fill = 'rgb( 31, 120, 180)' fill-opacity = '0.250000' points = '609.7,76.1 609.7,662.4 611.6,662.4 611.6,77.4 '/>
		<polygon fill = 'rgb( 31, 120, 180)' fill-opacity = '0.250000' points = '611.6,77.4 611.6,662.4 613.5,662.4 613.5,78.7 '/>
		<polygon fill = 'rgb( 31, 120, 180)' fill-opacity = '0.250000' points = '613.5,78.7 613.5,662.4 615.4,662.4 615.4,80.0 '/>
		<polygon fill = 'rgb( 31, 120, 180)' fill-opacity = '0.250000' points = '615.4,80.0 615.4,662.4 617.3,662.4 617.3,81.4 '/>
		<polygon fill = 'rgb( 31, 120, 180)' fill-opacity = '0.250000' points = '617.3,81.4 617.3,662.4 619.2,662.4 619.2,82.8 '/>
		<polygon fill = 'rgb( 31, 120, 180)' fill-opacity = '0.250000' points = '619.2,82.8 619.2,662.4 621.1,662.4 621.1,84.2 '/>
		<polygon fill = 'rgb( 31, 120, 180)' fill-opacity = '0.250000' points = '621.1,84.2 621.1,662.4 623.0,662.4 623.0,85.6 '/>
		<polygon fill = 'rgb( 31, 120, 180)' fill-opacity = '0.250000' points = '623.0,85.6 623.0,662.4 624.8,662.4 624.8,87.0 '/>
		<polygon fill = 'rgb( 31, 120, 180)' fill-opacity = '0.250000' points = '624.8,87.0 624.8,662.4 626.7,662.4 626.7,88.4 '/>
		<polygon fill = 'rgb( 31, 120, 180)' fill-opacity = '0.250000' points = '626.7,88.4 626.7,662.4 628.6,662.4 628.6,89.9 '/>
		<polygon fill = 'rgb( 31, 120, 180)' fill-opacity = '0.250000' points = '628.6,89.9 628.6,662.4 630.5,662.4 630.5,91.3 '/>
		<polygon fill = 'rgb( 31, 120, 180)' fill-opacity = '0.250000' points = '630.5,91.3 630.5,662.4 632.4,662.4 632.4,92.8 '/>
		<polygon fill = 'rgb( 31, 120, 180)' fill-opacity = '0.250000' points = '632.4,92.8 632.4,662.4 634.3,662.4 634.3,94.4 '/>
		<polygon fill = 'rgb( 31, 120, 180)' fill-opacity = '0.250000' points = '634.3,94.4 634.3,662.4 636.2,662.4 636.2,95.9 '/>
		<polygon fill = 'rgb( 31, 120, 180)' fill-opacity = '0.250000' points = '636.2,95.9 636.2,662.4 638.1,662.4 638.1,97.6 '/>
		<polygon fill = 'rgb( 31, 120, 180)' fill-opacity = '0.250000' points = '638.1,97.6 638.1,662.4 639.9,662.4 639.9,99.3 '/>
		<polygon fill = 'rgb( 31, 120, 180)' fill-opacity = '0.250000' points = '639.9,99.3 639.9,662.4 641.8,662.4 641.8,101.0 '/>
		<polygon fill = 'rgb( 31, 120, 180)' fill-opacity = '0.250000' points = '641.8,101.0 641.8,662.4 643.7,662.4 643.7,102.9 '/>
		<polygon fill = 'rgb( 31, 120, 180)' fill-opacity = '0.250000' points = '643.7,102.9 643.7,662.4 645.6,662.4 645.6,104.8 '/>
		<polygon fill = 'rgb( 31, 120, 180)' fill-opacity = '0.250000' points = '645.6,104.8 645.6,662.4 647.5,662.4 647.5,106.8 '/>
		<polygon fill = 'rgb( 31, 120, 180)' fill-opacity = '0.250000' points = '647.5,106.8 647.5,662.4 649.4,662.4 649.4,108.9 '/>
		<polygon fill = 'rgb( 31, 120, 180)' fill-opacity = '0.250000' points = '649.4,108.9 649.4,662.4 651.3,662.4 651.3,111.2 '/>
		<polygon fill = 'rgb( 31, 120, 180)' fill-opacity = '0.250000' points = '651.3,111.2 651.3,662.4 653.1,662.4 653.1,113.5 '/>
		<polygon fill = 'rgb( 31, 120, 180)' fill-opacity = '0.250000' points = '653.1,113.5 653.1,662.4 655.0,662.4 655.0,115.9 '/>
		<polygon fill = 'rgb( 31, 120, 180)' fill-opacity = '0.250000' points = '655.0,115.9 655.0,662.4 656.9,662.4 656.9,118.4 '/>
		<polygon fill = 'rgb( 31, 120, 180)' fill-opacity = '0.250000' points = '656.9,118.4 656.9,662.4 658.8,662.4 658.8,121.0 '/>
		<polygon fill = 'rgb( 31, 120, 180)' fill-opacity = '0.250000' points = '658.8,121.0 658.8,662.4 660.7,662.4 660.7,123.7 '/>
		<polygon fill = 'rgb( 31, 120, 180)' fill-opacity = '0.250000' points = '660.7,123.7 660.7,662.4 662.6,662.4 662.6,126.5 '/>
		<polygon fill = 'rgb( 31, 120, 180)' fill-opacity = '0.250000' points = '662.6,126.5 662.6,662.4 664.5,662.4 664.5,129.3 '/>
		<polygon fill = 'rgb( 31, 120, 180)' fill-opacity = '0.250000' points = '664.5,129.3 664.5,662.4 666.4,662.4 666.4,132.2 '/>
		<polygon fill = 'rgb( 31, 120, 180)' fill-opacity = '0.250000' points = '666.4,132.2 666.4,662.4 668.2,662.4 668.2,135.2 '/>
		<polygon fill = 'rgb( 31, 120, 180)' fill-opacity = '0.250000' points = '668.2,135.2 668.2,662.4 670.1,662.4 670.1,138.2 '/>
		<polygon fill = 'rgb( 31, 120, 180)' fill-opacity = '0.250000' points = '670.1,138.2 670.1,662.4 672.0,662.4 672.0,141.3 '/>
		<polygon fill = 'rgb( 31, 120, 180)' fill-opacity = '0.250000' points = '672.0,141.3 672.0,662.4 673.9,662.4 673.9,144.4 '/>
		<polygon fill = 'rgb( 31, 120, 180)' fill-opacity = '0.250000' points = '673.9,144.4 673.9,662.4 675.8,662.4 675.8,147.5 '/>
		<polygon fill = 'rgb( 31, 120, 180)' fill-opacity = '0.250000' points = '675.8,147.5 675.8,662.4 677.7,662.4 677.7,150.6 '/>
		<polygon fill = 'rgb( 31, 120, 180)' fill-opacity = '0.250000' points = '677.7,150.6 677.7,662.4 679.6,662.4 679.6,153.8 '/>
		<polygon fill = 'rgb( 31, 120, 180)' fill-opacity = '0.250000' points = '679.6,153.8 679.6,662.4 681.5,662.4 681.5,156.9 '/>
		<polygon fill = 'rgb( 31, 120, 180)' fill-opacity = '0.250000' points = '681.5,156.9 681.5,662.4 683.3,662.4 683.3,160.1 '/>
		<polygon fill = 'rgb( 31, 120, 180)' fill-opacity = '0.250000' points = '683.3,160.1 683.3,662.4 685.2,662.4 685.2,163.3 '/>
		<polygon fill = 'rgb( 31, 120, 180)' fill-opacity = '0.250000' points = '685.2,163.3 685.2,662.4 687.1,662.4 687.1,166.4 '/>
		<polygon fill = 'rgb( 31, 120, 180)' fill-opacity = '0.250000' points = '687.1,166.4 687.1,662.4 689.0,662.4 689.0,169.6 '/>
		<polygon fill = 'rgb( 31, 120, 180)' fill-opacity = '0.250000' points = '689.0,169.6 689.0,662.4 690.9,662.4 690.9,172.8 '/>
		<polygon fill = 'rgb( 31, 120, 180)' fill-opacity = '0.250000' points = '690.9,172.8 690.9,662.4 692.8,662.4 692.8,175.9 '/>
		<polygon fill = 'rgb( 31, 120, 180)' fill-opacity = '0.250000' points = '692.8,175.9 692.8,662.4 694.7,662.4 694.7,179.1 '/>
		<polygon fill = 'rgb( 31, 120, 180)' fill-opacity = '0.250000' points = '694.7,179.1 694.7,662.4 696.6,662.4 696.6,182.2 '/>
		<polygon fill = 'rgb( 31, 120, 180)' fill-opacity = '0.250000' points = '696.6,182.2 696.6,662.4 698.4,662.4 698.4,185.4 '/>
		<polygon fill = 'rgb( 31, 120, 180)' fill-opacity = '0.250000' points = '698.4,185.4 698.4,662.4 700.3,662.4 700.3,188.6 '/>
		<polygon fill = 'rgb( 31, 120, 180)' fill-opacity = '0.250000' points = '700.3,188.6 700.3,662.4 702.2,662.4 702.2,191.8 '/>
		<polygon fill = 'rgb( 31, 120, 180)' fill-opacity = '0.250000' points = '702.2,191.8 702.2,662.4 704.1,662.4 704.1,195.0 '/>
		<polygon fill = 'rgb( 31, 120, 180)' fill-opacity = '0.250000' points = '704.1,195.0 704.1,662.4 706.0,662.4 706.0,198.2 '/>
		<polygon fill = 'rgb( 31, 120, 180)' fill-opacity = '0.250000' points = '706.0,198.2 706.0,662.4 707.9,662.4 707.9,201.5 '/>
		<polygon fill = 'rgb( 31, 120, 180)' fill-opacity = '0.250000' points = '707.9,201.5 707.9,662.4 709.8,662.4 709.8,204.8 '/>
		<polygon fill = 'rgb( 31, 120, 180)' fill-opacity = '0.250000' points = '709.8,204.8 709.8,662.4 711.7,662.4 711.7,208.1 '/>
		<polygon fill = 'rgb( 31, 120, 180)' fill-opacity = '0.250000' points = '711.7,208.1 711.7,662.4 713.5,662.4 713.5,211.4 '/>
		<polygon fill = 'rgb( 31, 120, 180)' fill-opacity = '0.250000' points = '713.5,211.4 713.5,662.4 715.4,662.4 715.4,214.8 '/>
		<polygon fill = 'rgb( 31, 120, 180)' fill-opacity = '0.250000' points = '715.4,214.8 715.4,662.4 717.3,662.4 717.3,218.2 '/>
		<polygon fill = 'rgb( 31, 120, 180)' fill-opacity = '0.250000' points = '717.3,218.2 717.3,662.4 719.2,662.4 719.2,221.6 '/>
		<polygon fill = 'rgb( 31, 120, 180)' fill-opacity = '0.250000' points = '719.2,221.6 719.2,662.4 721.1,662.4 721.1,225.1 '/>
		<polygon fill = 'rgb( 31, 120, 180)' fill-opacity = '0.250000' points = '721.1,225.1 721.1,662.4 723.0,662.4 723.0,228.6 '/>
		<polygon fill = 'rgb( 31, 120, 180)' fill-opacity = '0.250000' points = '723.0,228.6 723.0,662.4 724.9,662.4 724.9,232.1 '/>
		<polygon fill = 'rgb( 31, 120, 180)' fill-opacity = '0.250000' points = '724.9,232.1 724.9,662.4 726.7,662.4 726.7,235.6 '/>
		<polygon fill = 'rgb( 31, 120, 180)' fill-opacity = '0.250000' points = '726.7,235.6 726.7,662.4 728.6,662.4 728.6,239.2 '/>
		<polygon fill = 'rgb( 31, 120, 180)' fill-opacity = '0.250000' points = '728.6,239.2 728.6,662.4 730.5,662.4 730.5,242.8 '/>
		<polygon fill = 'rgb( 31, 120, 180)' fill-opacity = '0.250000' points = '730.5,242.8 730.5,662.4 732.4,662.4 732.4,246.4 '/>
		<polygon fill = 'rgb( 31, 120, 180)' fill-opacity = '0.250000' points = '732.4,246.4 732.4,662.4 734.3,662.4 734.3,250.0 '/>
		<polygon fill = 'rgb( 31, 120, 180)' fill-opacity = '0.250000' points = '734.3,250.0 734.3,662.4 736.2,662.4 736.2,253.7 '/>
		<polygon fill = 'rgb( 31, 120, 180)' fill-opacity = '0.250000' points = '736.2,253.7 736.2,662.4 738.1,662.4 738.1,257.4 '/>
		<polygon fill = 'rgb( 31, 120, 180)' fill-opacity = '0.250000' points = '738.1,257.4 738.1,662.4 740.0,662.4 740.0,261.0 '/>
		<polygon fill = 'rgb( 31, 120, 180)' fill-opacity = '0.250000' points = '740.0,261.0 740.0,662.4 741.8,662.4 741.8,264.7 '/>
		<polygon fill = 'rgb( 31, 120, 180)' fill-opacity = '0.250000' points = '741.8,264.7 741.8,662.4 743.7,662.4 743.7,268.4 '/>
		<polygon fill = 'rgb( 31, 120, 180)' fill-opacity = '0.250000' points = '743.7,268.4 743.7,662.4 745.6,662.4 745.6,272.1 '/>
		<polygon fill = 'rgb( 31, 120, 180)' fill-opacity = '0.250000' points = '745.6,272.1 745.6,662.4 747.5,662.4 747.5,275.8 '/>
		<polygon fill = 'rgb( 31, 120, 180)' fill-opacity = '0.250000' points = '747.5,275.8 747.5,662.4 749.4,662.4 749.4,279.6 '/>
		<polygon fill = 'rgb( 31, 120, 180)' fill-opacity = '0.250000' points = '749.4,279.6 749.4,662.4 751.3,662.4 751.3,283.3 '/>
		<polygon fill = 'rgb( 31, 120, 180)' fill-opacity = '0.250000' points = '751.3,283.3 751.3,662.4 753.2,662.4 753.2,287.0 '/>
		<polygon fill = 'rgb( 31, 120, 180)' fill-opacity = '0.250000' points = '753.2,287.0 753.2,662.4 755.1,662.4 755.1,290.8 '/>
		<polygon fill = 'rgb( 31, 120, 180)' fill-opacity = '0.250000' points = '755.1,290.8 755.1,662.4 756.9,662.4 756.9,294.6 '/>
		<polygon fill = 'rgb( 31, 120, 180)' fill-opacity = '0.250000' points = '756.9,294.6 756.9,662.4 758.8,662.4 758.8,298.4 '/>
		<polygon fill = 'rgb( 31, 120, 180)' fill-opacity = '0.250000' points = '758.8,298.4 758.8,662.4 760.7,662.4 760.7,302.2 '/>
		<polygon fill = 'rgb( 31, 120, 180)' fill-opacity = '0.250000' points = '760.7,302.2 760.7,662.4 762.6,662.4 762.6,306.0 '/>
		<polygon fill = 'rgb( 31, 120, 180)' fill-opacity = '0.250000' points = '762.6,306.0 762.6,662.4 764.5,662.4 764.5,309.8 '/>
		<polygon fill = 'rgb( 31, 120, 180)' fill-opacity = '0.250000' points = '764.5,309.8 764.5,662.4 766.4,662.4 766.4,313.7 '/>
		<polygon fill = 'rgb( 31, 120, 180)' fill-opacity = '0.250000' points = '766.4,313.7 766.4,662.4 768.3,662.4 768.3,317.6 '/>
		<polygon fill = 'rgb( 31, 120, 180)' fill-opacity = '0.250000' points = '768.3,317.6 768.3,662.4 770.2,662.4 770.2,321.4 '/>
		<polygon fill = 'rgb( 31, 120, 180)' fill-opacity = '0.250000' points = '770.2,321.4 770.2,662.4 772.0,662.4 772.0,325.3 '/>
		<polygon fill = 'rgb( 31, 120, 180)' fill-opacity = '0.250000' points = '772.0,325.3 772.0,662.4 773.9,662.4 773.9,329.2 '/>
		<polygon fill = 'rgb( 31, 120, 180)' fill-opacity = '0.250000' points = '773.9,329.2 773.9,662.4 775.8,662.4 775.8,333.0 '/>
		<polygon fill = 'rgb( 31, 120, 180)' fill-opacity = '0.250000' points = '775.8,333.0 775.8,662.4 777.7,662.4 777.7,336.9 '/>
		<polygon fill = 'rgb( 31, 120, 180)' fill-opacity = '0.250000' points = '777.7,336.9 777.7,662.4 779.6,662.4 779.6,340.7 '/>
		<polygon fill = 'rgb( 31, 120, 180)' fill-opacity = '0.250000' points = '779.6,340.7 779.6,662.4 781.5,662.4 781.5,344.6 '/>
		<polygon fill = 'rgb( 31, 120, 180)' fill-opacity = '0.250000' points = '781.5,344.6 781.5,662.4 783.4,662.4 783.4,348.4 '/>
		<polygon fill = 'rgb( 31, 120, 180)' fill-opacity = '0.250000' points = '783.4,348.4 783.4,662.4 785.3,662.4 785.3,352.2 '/>
		<polygon fill = 'rgb( 31, 120, 180)' fill-opacity = '0.250000' points = '785.3,352.2 785.3,662.4 787.1,662.4 787.1,355.9 '/>
		<polygon fill = 'rgb( 31, 120, 180)' fill-opacity = '0.250000' points = '787.1,355.9 787.1,662.4 789.0,662.4 789.0,359.7 '/>
		<polygon fill = 'rgb( 31, 120, 180)' fill-opacity = '0.250000' points = '789.0,359.7 789.0,662.4 790.9,662.4 790.9,363.4 '/>
		<polygon fill = 'rgb( 31, 120, 180)' fill-opacity = '0.250000' points = '790.9,363.4 790.9,662.4 792.8,662.4 792.8,367.1 '/>
		<polygon fill = 'rgb( 31, 120, 180)' fill-opacity = '0.250000' points = '792.8,367.1 792.8,662.4 794.7,662.4 794.7,370.7 '/>
		<polygon fill = 'rgb( 31, 120, 180)' fill-opacity = '0.250000' points = '794.7,370.7 794.7,662.4 796.6,662.4 796.6,374.3 '/>
		<polygon fill = 'rgb( 31, 120, 180)' fill-opacity = '0.250000' points = '796.6,374.3 796.6,662.4 798.5,662.4 798.5,377.8 '/>
		<polygon fill = 'rgb( 31, 120, 180)' fill-opacity = '0.250000' points = '798.5,377.8 798.5,662.4 800.3,662.4 800.3,381.3 '/>
		<polygon fill = 'rgb( 31, 120, 180)' fill-opacity = '0.250000' points = '800.3,381.3 800.3,662.4 802.2,662.4 802.2,384.7 '/>
		<polygon fill = 'rgb( 31, 120, 180)' fill-opacity = '0.250000' points = '802.2,384.7 802.2,662.4 804.1,662.4 804.1,388.1 '/>
		<polygon fill = 'rgb( 31, 120, 180)' fill-opacity = '0.250000' points = '804.1,388.1 804.1,662.4 806.0,662.4 806.0,391.5 '/>
		<polygon fill = 'rgb( 31, 120, 180)' fill-opacity = '0.250000' points = '806.0,391.5 806.0,662.4 807.9,662.4 807.9,394.8 '/>
		<polygon fill = 'rgb( 31, 120, 180)' fill-opacity = '0.250000' points = '807.9,394.8 807.9,662.4 809.8,662.4 809.8,398.1 '/>
		<polygon fill = 'rgb( 31, 120, 180)' fill-opacity = '0.250000' points = '809.8,398.1 809.8,662.4 811.7,662.4 811.7,401.3 '/>
		<polygon fill = 'rgb( 31, 120, 180)' fill-opacity = '0.250000' points = '811.7,401.3 811.7,662.4 813.6,662.4 813.6,404.5 '/>
		<polygon fill = 'rgb( 31, 120, 180)' fill-opacity = '0.250000' points = '813.6,404.5 813.6,662.4 815.4,662.4 815.4,407.7 '/>
		<polygon fill = 'rgb( 31, 120, 180)' fill-opacity = '0.250000' points = '815.4,407.7 815.4,662.4 817.3,662.4 817.3,410.8 '/>
		<polygon fill = 'rgb( 31, 120, 180)' fill-opacity = '0.250000' points = '817.3,410.8 817.3,662.4 819.2,662.4 819.2,413.9 '/>
		<polygon fill = 'rgb( 31, 120, 180)' fill-opacity = '0.250000' points = '819.2,413.9 819.2,662.4 821.1,662.4 821.1,417.0 '/>
		<polygon fill = 'rgb( 31, 120, 180)' fill-opacity = '0.250000' points = '821.1,417.0 821.1,662.4 823.0,662.4 823.0,420.0 '/>
		<polygon fill = 'rgb( 31, 120, 180)' fill-opacity = '0.250000' points = '823.0,420.0 823.0,662.4 824.9,662.4 824.9,423.1 '/>
		<polygon fill = 'rgb( 31, 120, 180)' fill-opacity = '0.250000' points = '824.9,423.1 824.9,662.4 826.8,662.4 826.8,426.1 '/>
		<polygon fill = 'rgb( 31, 120, 180)' fill-opacity = '0.250000' points = '826.8,426.1 826.8,662.4 828.7,662.4 828.7,429.1 '/>
		<polygon fill = 'rgb( 31, 120, 180)' fill-opacity = '0.250000' points = '828.7,429.1 828.7,662.4 830.5,662.4 830.5,432.1 '/>
		<polygon fill = 'rgb( 31, 120, 180)' fill-opacity = '0.250000' points = '830.5,432.1 830.5,662.4 832.4,662.4 832.4,435.1 '/>
		<polygon fill = 'rgb( 31, 120, 180)' fill-opacity = '0.250000' points = '832.4,435.1 832.4,662.4 834.3,662.4 834.3,438.1 '/>
		<polygon fill = 'rgb( 31, 120, 180)' fill-opacity = '0.250000' points = '834.3,438.1 834.3,662.4 836.2,662.4 836.2,441.0 '/>
		<polygon fill = 'rgb( 31, 120, 180)' fill-opacity = '0.250000' points = '836.2,441.0 836.2,662.4 838.1,662.4 838.1,444.0 '/>
		<polygon fill = 'rgb( 31, 120, 180)' fill-opacity = '0.250000' points = '838.1,444.0 838.1,662.4 840.0,662.4 840.0,447.0 '/>
		<polygon fill = 'rgb( 31, 120, 180)' fill-opacity = '0.250000' points = '840.0,447.0 840.0,662.4 841.9,662.4 841.9,449.9 '/>
		<polygon fill = 'rgb( 31, 120, 180)' fill-opacity = '0.250000' points = '841.9,449.9 841.9,662.4 843.8,662.4 843.8,452.8 '/>
		<polygon fill = 'rgb( 31, 120, 180)' fill-opacity = '0.250000' points = '843.8,452.8 843.8,662.4 845.6,662.4 845.6,455.8 '/>
		<polygon fill = 'rgb( 31, 120, 180)' fill-opacity = '0.250000' points = '845.6,455.8 845.6,662.4 847.5,662.4 847.5,458.7 '/>
		<polygon fill = 'rgb( 31, 120, 180)' fill-opacity = '0.250000' points = '847.5,458.7 847.5,662.4 849.4,662.4 849.4,461.6 '/>
		<polygon fill = 'rgb( 31, 120, 180)' fill-opacity = '0.250000' points = '849.4,461.6 849.4,662.4 851.3,662.4 851.3,464.5 '/>
		<polygon fill = 'rgb( 31, 120, 180)' fill-opacity = '0.250000' points = '851.3,464.5 851.3,662.4 853.2,662.4 853.2,467.3 '/>
		<polygon fill = 'rgb( 31, 120, 180)' fill-opacity = '0.250000' points = '853.2,467.3 853.2,662.4 855.1,662.4 855.1,470.2 '/>
		<polygon fill = 'rgb( 31, 120, 180)' fill-opacity = '0.250000' points = '855.1,470.2 855.1,662.4 857.0,662.4 857.0,473.0 '/>
		<polygon fill = 'rgb( 31, 120, 180)' fill-opacity = '0.250000' points = '857.0,473.0 857.0,662.4 858.9,662.4 858.9,475.8 '/>
		<polygon fill = 'rgb( 31, 120, 180)' fill-opacity = '0.250000' points = '858.9,475.8 858.9,662.4 860.7,662.4 860.7,478.6 '/>
		<polygon fill = 'rgb( 31, 120, 180)' fill-opacity = '0.250000' points = '860.7,478.6 860.7,662.4 862.6,662.4 862.6,481.4 '/>
		<polygon fill = 'rgb( 31, 120, 180)' fill-opacity = '0.250000' points = '862.6,481.4 862.6,662.4 864.5,662.4 864.5,484.1 '/>
		<polygon fill = 'rgb( 31, 120, 180)' fill-opacity = '0.250000' points = '864.5,484.1 864.5,662.4 866.4,662.4 866.4,486.9 '/>
		<polygon fill = 'rgb( 31, 120, 180)' fill-opacity = '0.250000' points = '866.4,486.9 866.4,662.4 868.3,662.4 868.3,489.6 '/>
		<polygon fill = 'rgb( 31, 120, 180)' fill-opacity = '0.250000' points = '868.3,489.6 868.3,662.4 870.2,662.4 870.2,492.3 '/>
		<polygon fill = 'rgb( 31, 120, 180)' fill-opacity = '0.250000' points = '870.2,492.3 870.2,662.4 872.1,662.4 872.1,495.0 '/>
		<polygon fill = 'rgb( 31, 120, 180)' fill-opacity = '0.250000' points = '872.1,495.0 872.1,662.4 873.9,662.4 873.9,497.7 '/>
		<polygon fill = 'rgb( 31, 120, 180)' fill-opacity = '0.250000' points = '873.9,497.7 873.9,662.4 875.8,662.4 875.8,500.4 '/>
		<polygon fill = 'rgb( 31, 120, 180)' fill-opacity = '0.250000' points = '875.8,500.4 875.8,662.4 877.7,662.4 877.7,503.1 '/>
		<polygon fill = 'rgb( 31, 120, 180)' fill-opacity = '0.250000' points = '877.7,503.1 877.7,662.4 879.6,662.4 879.6,505.8 '/>
		<polygon fill = 'rgb( 31, 120, 180)' fill-opacity = '0.250000' points = '879.6,505.8 879.6,662.4 881.5,662.4 881.5,508.4 '/>
		<polygon fill = 'rgb( 31, 120, 180)' fill-opacity = '0.250000' points = '881.5,508.4 881.5,662.4 883.4,662.4 883.4,511.1 '/>
		<polygon fill = 'rgb( 31, 120, 180)' fill-opacity = '0.250000' points = '883.4,511.1 883.4,662.4 885.3,662.4 885.3,513.7 '/>
		<polygon fill = 'rgb( 31, 120, 180)' fill-opacity = '0.250000' points = '885.3,513.7 885.3,662.4 887.2,662.4 887.2,516.4 '/>
		<polygon fill = 'rgb( 31, 120, 180)' fill-opacity = '0.250000' points = '887.2,516.4 887.2,662.4 889.0,662.4 889.0,519.0 '/>
		<polygon fill = 'rgb( 31, 120, 180)' fill-opacity = '0.250000' points = '889.0,519.0 889.0,662.4 890.9,662.4 890.9,521.6 '/>
		<polygon fill = 'rgb( 31, 120, 180)' fill-opacity = '0.250000' points = '890.9,521.6 890.9,662.4 892.8,662.4 892.8,524.1 '/>
		<polygon fill = 'rgb( 31, 120, 180)' fill-opacity = '0.250000' points = '892.8,524.1 892.8,662.4 894.7,662.4 894.7,526.7 '/>
		<polygon fill = 'rgb( 31, 120, 180)' fill-opacity = '0.250000' points = '894.7,526.7 894.7,662.4 896.6,662.4 896.6,529.2 '/>
		<polygon fill = 'rgb( 31, 120, 180)' fill-opacity = '0.250000' points = '896.6,529.2 896.6,662.4 898.5,662.4 898.5,531.6 '/>
		<polygon fill = 'rgb( 31, 120, 180)' fill-opacity = '0.250000' points = '898.5,531.6 898.5,662.4 900.4,662.4 900.4,534.0 '/>
		<polygon fill = 'rgb( 31, 120, 180)' fill-opacity = '0.250000' points = '900.4,534.0 900.4,662.4 902.3,662.4 902.3,536.4 '/>
		<polygon fill = 'rgb( 31, 120, 180)' fill-opacity = '0.250000' points = '902.3,536.4 902.3,662.4 904.1,662.4 904.1,538.7 '/>
		<polygon fill = 'rgb( 31, 120, 180)' fill-opacity = '0.250000' points = '904.1,538.7 904.1,662.4 906.0,662.4 906.0,541.0 '/>
		<polygon fill = 'rgb( 31, 120, 180)' fill-opacity = '0.250000' points = '906.0,541.0 906.0,662.4 907.9,662.4 907.9,543.3 '/>
		<polygon fill = 'rgb( 31, 120, 180)' fill-opacity = '0.250000' points = '907.9,543.3 907.9,662.4 909.8,662.4 909.8,545.4 '/>
		<polygon fill = 'rgb( 31, 120, 180)' fill-opacity = '0.250000' points = '909.8,545.4 909.8,662.4 911.7,662.4 911.7,547.6 '/>
		<polygon fill = 'rgb( 31, 120, 180)' fill-opacity = '0.250000' points = '911.7,547.6 911.7,662.4 913.6,662.4 913.6,549.7 '/>
		<polygon fill = 'rgb( 31, 120, 180)' fill-opacity = '0.250000' points = '913.6,549.7 913.6,662.4 915.5,662.4 915.5,551.7 '/>
		<polygon fill = 'rgb( 31, 120, 180)' fill-opacity = '0.250000' points = '915.5,551.7 915.5,662.4 917.4,662.4 917.4,553.7 '/>
		<polygon fill = 'rgb( 31, 120, 180)' fill-opacity = '0.250000' points = '917.4,553.7 917.4,662.4 919.2,662.4 919.2,555.7 '/>
		<polygon fill = 'rgb( 31, 120, 180)' fill-opacity = '0.250000' points = '919.2,555.7 919.2,662.4 921.1,662.4 921.1,557.6 '/>
		<polygon fill = 'rgb( 31, 120, 180)' fill-opacity = '0.250000' points = '921.1,557.6 921.1,662.4 923.0,662.4 923.0,559.5 '/>
		<polygon fill = 'rgb( 31, 120, 180)' fill-opacity = '0.250000' points = '923.0,559.5 923.0,662.4 924.9,662.4 924.9,561.4 '/>
	</g>
</g>
	</g>
	<g id="gnuplot_plot_3" ><title>Point estimate</title>
<g fill="none" color="white" stroke="rgb( 31, 120, 180)" stroke-width="2.00" stroke-linecap="butt" stroke-linejoin="miter">
</g>
<g fill="none" color="black" stroke="currentColor" stroke-width="2.00" stroke-linecap="butt" stroke-linejoin="miter">
	<g transform="translate(1089.0,103.0)" stroke="none" fill="black" font-family="Helvetica" font-size="12.00"  text-anchor="start">
		<text><tspan font-family="Helvetica" >Point estimate</tspan></text>
	</g>
</g>
<g fill="none" color="black" stroke="currentColor" stroke-width="2.00" stroke-linecap="butt" stroke-linejoin="miter">
	<path stroke='rgb( 31, 120, 180)'  d='M1038.5,99.1 L1080.7,99.1 M563.1,662.4 L563.1,64.3  '/></g>
	</g>
	<g id="gnuplot_plot_4" ><title>Noise threshold</title>
<g fill="none" color="white" stroke="rgb( 31, 120, 180)" stroke-width="1.00" stroke-linecap="butt" stroke-linejoin="miter">
</g>
<g fill="none" color="black" stroke="currentColor" stroke-width="1.00" stroke-linecap="butt" stroke-linejoin="miter">
	<g transform="translate(1089.0,121.0)" stroke="none" fill="black" font-family="Helvetica" font-size="12.00"  text-anchor="start">
		<text><tspan font-family="Helvetica" >Noise threshold</tspan></text>
	</g>
</g>
<g fill="none" color="black" stroke="currentColor" stroke-width="1.00" stroke-linecap="butt" stroke-linejoin="miter">
	<g stroke='none' shape-rendering='crispEdges'>
		<polygon fill = 'rgb(227,  26,  28)' fill-opacity = '0.100000' points = '1038.5,121.6 1080.7,121.6 1080.7,112.6 1038.5,112.6 '/>
		<polygon fill = 'rgb(227,  26,  28)' fill-opacity = '0.100000' points = '71.9,54.1 71.9,662.4 1013.6,662.4 1013.6,54.1 '/>
	</g>
</g>
	</g>
<g fill="none" color="white" stroke="rgb(227,  26,  28)" stroke-width="2.00" stroke-linecap="butt" stroke-linejoin="miter">
</g>
<g fill="none" color="black" stroke="currentColor" stroke-width="2.00" stroke-linecap="butt" stroke-linejoin="miter">
</g>
<g fill="none" color="black" stroke="black" stroke-width="1.00" stroke-linecap="butt" stroke-linejoin="miter">
</g>
<g fill="none" color="black" stroke="currentColor" stroke-width="1.00" stroke-linecap="butt" stroke-linejoin="miter">
	<path stroke='black'  d='M71.9,54.1 L71.9,662.4 L1013.6,662.4 L1013.6,54.1 L71.9,54.1 Z  '/></g>
<g fill="none" color="black" stroke="currentColor" stroke-width="1.00" stroke-linecap="butt" stroke-linejoin="miter">
</g>
</g>
</svg>

