group,function,value,throughput_num,throughput_type,sample_measured_value,unit,iteration_count
dfs arena rwlock mut,,,,,6682755.0,ns,1
dfs arena rwlock mut,,,,,12880824.0,ns,2
dfs arena rwlock mut,,,,,19464228.0,ns,3
dfs arena rwlock mut,,,,,26121160.0,ns,4
dfs arena rwlock mut,,,,,32763159.0,ns,5
dfs arena rwlock mut,,,,,39020768.0,ns,6
dfs arena rwlock mut,,,,,45955628.0,ns,7
dfs arena rwlock mut,,,,,55687254.0,ns,8
dfs arena rwlock mut,,,,,60235369.0,ns,9
dfs arena rwlock mut,,,,,67277670.0,ns,10
dfs arena rwlock mut,,,,,73835286.0,ns,11
dfs arena rwlock mut,,,,,80638580.0,ns,12
dfs arena rwlock mut,,,,,88252395.0,ns,13
dfs arena rwlock mut,,,,,97016167.0,ns,14
dfs arena rwlock mut,,,,,103732748.0,ns,15
dfs arena rwlock mut,,,,,108818500.0,ns,16
dfs arena rwlock mut,,,,,117774609.0,ns,17
dfs arena rwlock mut,,,,,121971217.0,ns,18
dfs arena rwlock mut,,,,,131842999.0,ns,19
dfs arena rwlock mut,,,,,139064000.0,ns,20
dfs arena rwlock mut,,,,,141989956.0,ns,21
dfs arena rwlock mut,,,,,150209840.0,ns,22
dfs arena rwlock mut,,,,,156404106.0,ns,23
dfs arena rwlock mut,,,,,165030538.0,ns,24
dfs arena rwlock mut,,,,,170933005.0,ns,25
dfs arena rwlock mut,,,,,177290585.0,ns,26
dfs arena rwlock mut,,,,,185383301.0,ns,27
dfs arena rwlock mut,,,,,193264722.0,ns,28
dfs arena rwlock mut,,,,,196686921.0,ns,29
dfs arena rwlock mut,,,,,206366880.0,ns,30
dfs arena rwlock mut,,,,,214803320.0,ns,31
dfs arena rwlock mut,,,,,223982762.0,ns,32
dfs arena rwlock mut,,,,,227997799.0,ns,33
dfs arena rwlock mut,,,,,236541620.0,ns,34
dfs arena rwlock mut,,,,,240040643.0,ns,35
dfs arena rwlock mut,,,,,252675867.0,ns,36
dfs arena rwlock mut,,,,,257106020.0,ns,37
dfs arena rwlock mut,,,,,263987544.0,ns,38
dfs arena rwlock mut,,,,,272254511.0,ns,39
dfs arena rwlock mut,,,,,277822181.0,ns,40
dfs arena rwlock mut,,,,,282342210.0,ns,41
dfs arena rwlock mut,,,,,287066519.0,ns,42
dfs arena rwlock mut,,,,,292610090.0,ns,43
dfs arena rwlock mut,,,,,302519901.0,ns,44
dfs arena rwlock mut,,,,,309259436.0,ns,45
dfs arena rwlock mut,,,,,316847253.0,ns,46
dfs arena rwlock mut,,,,,326460611.0,ns,47
dfs arena rwlock mut,,,,,338100788.0,ns,48
dfs arena rwlock mut,,,,,335999792.0,ns,49
dfs arena rwlock mut,,,,,353213798.0,ns,50
dfs arena rwlock mut,,,,,358278146.0,ns,51
dfs arena rwlock mut,,,,,362732758.0,ns,52
dfs arena rwlock mut,,,,,365930997.0,ns,53
dfs arena rwlock mut,,,,,378922319.0,ns,54
dfs arena rwlock mut,,,,,382517146.0,ns,55
dfs arena rwlock mut,,,,,393465033.0,ns,56
dfs arena rwlock mut,,,,,395076898.0,ns,57
dfs arena rwlock mut,,,,,404904596.0,ns,58
dfs arena rwlock mut,,,,,414147574.0,ns,59
dfs arena rwlock mut,,,,,424934435.0,ns,60
dfs arena rwlock mut,,,,,430267618.0,ns,61
dfs arena rwlock mut,,,,,431545635.0,ns,62
dfs arena rwlock mut,,,,,435806664.0,ns,63
dfs arena rwlock mut,,,,,443163678.0,ns,64
dfs arena rwlock mut,,,,,456947193.0,ns,65
dfs arena rwlock mut,,,,,464235740.0,ns,66
dfs arena rwlock mut,,,,,470130819.0,ns,67
dfs arena rwlock mut,,,,,472627698.0,ns,68
dfs arena rwlock mut,,,,,477914685.0,ns,69
dfs arena rwlock mut,,,,,483944144.0,ns,70
dfs arena rwlock mut,,,,,492130107.0,ns,71
dfs arena rwlock mut,,,,,494632166.0,ns,72
dfs arena rwlock mut,,,,,509978856.0,ns,73
dfs arena rwlock mut,,,,,512810121.0,ns,74
dfs arena rwlock mut,,,,,524524762.0,ns,75
dfs arena rwlock mut,,,,,527516256.0,ns,76
dfs arena rwlock mut,,,,,533225434.0,ns,77
dfs arena rwlock mut,,,,,542795777.0,ns,78
dfs arena rwlock mut,,,,,546895744.0,ns,79
dfs arena rwlock mut,,,,,558851690.0,ns,80
dfs arena rwlock mut,,,,,561438521.0,ns,81
dfs arena rwlock mut,,,,,568047920.0,ns,82
dfs arena rwlock mut,,,,,575104032.0,ns,83
dfs arena rwlock mut,,,,,578697682.0,ns,84
dfs arena rwlock mut,,,,,590190269.0,ns,85
dfs arena rwlock mut,,,,,601575856.0,ns,86
dfs arena rwlock mut,,,,,598974001.0,ns,87
dfs arena rwlock mut,,,,,613216634.0,ns,88
dfs arena rwlock mut,,,,,611759140.0,ns,89
dfs arena rwlock mut,,,,,626695807.0,ns,90
dfs arena rwlock mut,,,,,632667533.0,ns,91
dfs arena rwlock mut,,,,,639701272.0,ns,92
dfs arena rwlock mut,,,,,640169376.0,ns,93
dfs arena rwlock mut,,,,,650219055.0,ns,94
dfs arena rwlock mut,,,,,655130815.0,ns,95
dfs arena rwlock mut,,,,,662927736.0,ns,96
dfs arena rwlock mut,,,,,680030126.0,ns,97
dfs arena rwlock mut,,,,,681790766.0,ns,98
dfs arena rwlock mut,,,,,679881390.0,ns,99
dfs arena rwlock mut,,,,,691091711.0,ns,100
