<?xml version="1.0" encoding="utf-8"  standalone="no"?>
<!DOCTYPE svg PUBLIC "-//W3C//DTD SVG 1.1//EN"
 "http://www.w3.org/Graphics/SVG/1.1/DTD/svg11.dtd">
<svg 
 viewBox="0 0 1280 720"
 xmlns="http://www.w3.org/2000/svg"
 xmlns:xlink="http://www.w3.org/1999/xlink"
>

<title>Gnuplot</title>
<desc>Produced by GNUPLOT 5.0 patchlevel 5 </desc>

<g id="gnuplot_canvas">

<rect x="0" y="0" width="1280" height="720" fill="none"/>
<defs>

	<circle id='gpDot' r='0.5' stroke-width='0.5'/>
	<path id='gpPt0' stroke-width='0.222' stroke='currentColor' d='M-1,0 h2 M0,-1 v2'/>
	<path id='gpPt1' stroke-width='0.222' stroke='currentColor' d='M-1,-1 L1,1 M1,-1 L-1,1'/>
	<path id='gpPt2' stroke-width='0.222' stroke='currentColor' d='M-1,0 L1,0 M0,-1 L0,1 M-1,-1 L1,1 M-1,1 L1,-1'/>
	<rect id='gpPt3' stroke-width='0.222' stroke='currentColor' x='-1' y='-1' width='2' height='2'/>
	<rect id='gpPt4' stroke-width='0.222' stroke='currentColor' fill='currentColor' x='-1' y='-1' width='2' height='2'/>
	<circle id='gpPt5' stroke-width='0.222' stroke='currentColor' cx='0' cy='0' r='1'/>
	<use xlink:href='#gpPt5' id='gpPt6' fill='currentColor' stroke='none'/>
	<path id='gpPt7' stroke-width='0.222' stroke='currentColor' d='M0,-1.33 L-1.33,0.67 L1.33,0.67 z'/>
	<use xlink:href='#gpPt7' id='gpPt8' fill='currentColor' stroke='none'/>
	<use xlink:href='#gpPt7' id='gpPt9' stroke='currentColor' transform='rotate(180)'/>
	<use xlink:href='#gpPt9' id='gpPt10' fill='currentColor' stroke='none'/>
	<use xlink:href='#gpPt3' id='gpPt11' stroke='currentColor' transform='rotate(45)'/>
	<use xlink:href='#gpPt11' id='gpPt12' fill='currentColor' stroke='none'/>
	<path id='gpPt13' stroke-width='0.222' stroke='currentColor' d='M0,1.330 L1.265,0.411 L0.782,-1.067 L-0.782,-1.076 L-1.265,0.411 z'/>
	<use xlink:href='#gpPt13' id='gpPt14' fill='currentColor' stroke='none'/>
	<filter id='textbox' filterUnits='objectBoundingBox' x='0' y='0' height='1' width='1'>
	  <feFlood flood-color='white' flood-opacity='1' result='bgnd'/>
	  <feComposite in='SourceGraphic' in2='bgnd' operator='atop'/>
	</filter>
	<filter id='greybox' filterUnits='objectBoundingBox' x='0' y='0' height='1' width='1'>
	  <feFlood flood-color='lightgrey' flood-opacity='1' result='grey'/>
	  <feComposite in='SourceGraphic' in2='grey' operator='atop'/>
	</filter>
</defs>
<g fill="none" color="white" stroke="currentColor" stroke-width="1.00" stroke-linecap="butt" stroke-linejoin="miter">
</g>
<g fill="none" color="black" stroke="currentColor" stroke-width="1.00" stroke-linecap="butt" stroke-linejoin="miter">
	<path stroke='black'  d='M71.9,662.4 L80.9,662.4  '/>	<g transform="translate(63.6,666.3)" stroke="none" fill="black" font-family="Helvetica" font-size="12.00"  text-anchor="end">
		<text><tspan font-family="Helvetica" > 0</tspan></text>
	</g>
</g>
<g fill="none" color="black" stroke="currentColor" stroke-width="1.00" stroke-linecap="butt" stroke-linejoin="miter">
	<path stroke='black'  d='M71.9,561.0 L80.9,561.0  '/>	<g transform="translate(63.6,564.9)" stroke="none" fill="black" font-family="Helvetica" font-size="12.00"  text-anchor="end">
		<text><tspan font-family="Helvetica" > 50</tspan></text>
	</g>
</g>
<g fill="none" color="black" stroke="currentColor" stroke-width="1.00" stroke-linecap="butt" stroke-linejoin="miter">
	<path stroke='black'  d='M71.9,459.6 L80.9,459.6  '/>	<g transform="translate(63.6,463.5)" stroke="none" fill="black" font-family="Helvetica" font-size="12.00"  text-anchor="end">
		<text><tspan font-family="Helvetica" > 100</tspan></text>
	</g>
</g>
<g fill="none" color="black" stroke="currentColor" stroke-width="1.00" stroke-linecap="butt" stroke-linejoin="miter">
	<path stroke='black'  d='M71.9,358.2 L80.9,358.2  '/>	<g transform="translate(63.6,362.1)" stroke="none" fill="black" font-family="Helvetica" font-size="12.00"  text-anchor="end">
		<text><tspan font-family="Helvetica" > 150</tspan></text>
	</g>
</g>
<g fill="none" color="black" stroke="currentColor" stroke-width="1.00" stroke-linecap="butt" stroke-linejoin="miter">
	<path stroke='black'  d='M71.9,256.9 L80.9,256.9  '/>	<g transform="translate(63.6,260.8)" stroke="none" fill="black" font-family="Helvetica" font-size="12.00"  text-anchor="end">
		<text><tspan font-family="Helvetica" > 200</tspan></text>
	</g>
</g>
<g fill="none" color="black" stroke="currentColor" stroke-width="1.00" stroke-linecap="butt" stroke-linejoin="miter">
	<path stroke='black'  d='M71.9,155.5 L80.9,155.5  '/>	<g transform="translate(63.6,159.4)" stroke="none" fill="black" font-family="Helvetica" font-size="12.00"  text-anchor="end">
		<text><tspan font-family="Helvetica" > 250</tspan></text>
	</g>
</g>
<g fill="none" color="black" stroke="currentColor" stroke-width="1.00" stroke-linecap="butt" stroke-linejoin="miter">
	<path stroke='black'  d='M71.9,54.1 L80.9,54.1  '/>	<g transform="translate(63.6,58.0)" stroke="none" fill="black" font-family="Helvetica" font-size="12.00"  text-anchor="end">
		<text><tspan font-family="Helvetica" > 300</tspan></text>
	</g>
</g>
<g fill="none" color="black" stroke="currentColor" stroke-width="1.00" stroke-linecap="butt" stroke-linejoin="miter">
	<path stroke='black'  d='M74.0,662.4 L74.0,653.4  '/>	<g transform="translate(74.0,684.3)" stroke="none" fill="black" font-family="Helvetica" font-size="12.00"  text-anchor="middle">
		<text><tspan font-family="Helvetica" > 1.327</tspan></text>
	</g>
</g>
<g fill="none" color="black" stroke="currentColor" stroke-width="1.00" stroke-linecap="butt" stroke-linejoin="miter">
	<path stroke='black'  d='M220.8,662.4 L220.8,653.4  '/>	<g transform="translate(220.8,684.3)" stroke="none" fill="black" font-family="Helvetica" font-size="12.00"  text-anchor="middle">
		<text><tspan font-family="Helvetica" > 1.328</tspan></text>
	</g>
</g>
<g fill="none" color="black" stroke="currentColor" stroke-width="1.00" stroke-linecap="butt" stroke-linejoin="miter">
	<path stroke='black'  d='M367.6,662.4 L367.6,653.4  '/>	<g transform="translate(367.6,684.3)" stroke="none" fill="black" font-family="Helvetica" font-size="12.00"  text-anchor="middle">
		<text><tspan font-family="Helvetica" > 1.329</tspan></text>
	</g>
</g>
<g fill="none" color="black" stroke="currentColor" stroke-width="1.00" stroke-linecap="butt" stroke-linejoin="miter">
	<path stroke='black'  d='M514.4,662.4 L514.4,653.4  '/>	<g transform="translate(514.4,684.3)" stroke="none" fill="black" font-family="Helvetica" font-size="12.00"  text-anchor="middle">
		<text><tspan font-family="Helvetica" > 1.33</tspan></text>
	</g>
</g>
<g fill="none" color="black" stroke="currentColor" stroke-width="1.00" stroke-linecap="butt" stroke-linejoin="miter">
	<path stroke='black'  d='M661.2,662.4 L661.2,653.4  '/>	<g transform="translate(661.2,684.3)" stroke="none" fill="black" font-family="Helvetica" font-size="12.00"  text-anchor="middle">
		<text><tspan font-family="Helvetica" > 1.331</tspan></text>
	</g>
</g>
<g fill="none" color="black" stroke="currentColor" stroke-width="1.00" stroke-linecap="butt" stroke-linejoin="miter">
	<path stroke='black'  d='M808.0,662.4 L808.0,653.4  '/>	<g transform="translate(808.0,684.3)" stroke="none" fill="black" font-family="Helvetica" font-size="12.00"  text-anchor="middle">
		<text><tspan font-family="Helvetica" > 1.332</tspan></text>
	</g>
</g>
<g fill="none" color="black" stroke="currentColor" stroke-width="1.00" stroke-linecap="butt" stroke-linejoin="miter">
	<path stroke='black'  d='M954.8,662.4 L954.8,653.4  '/>	<g transform="translate(954.8,684.3)" stroke="none" fill="black" font-family="Helvetica" font-size="12.00"  text-anchor="middle">
		<text><tspan font-family="Helvetica" > 1.333</tspan></text>
	</g>
</g>
<g fill="none" color="black" stroke="currentColor" stroke-width="1.00" stroke-linecap="butt" stroke-linejoin="miter">
</g>
<g fill="none" color="black" stroke="currentColor" stroke-width="1.00" stroke-linecap="butt" stroke-linejoin="miter">
	<path stroke='black'  d='M71.9,54.1 L71.9,662.4 L1013.6,662.4 L1013.6,54.1 L71.9,54.1 Z  '/></g>
<g fill="none" color="black" stroke="currentColor" stroke-width="1.00" stroke-linecap="butt" stroke-linejoin="miter">
	<g transform="translate(17.0,358.3) rotate(270)" stroke="none" fill="black" font-family="Helvetica" font-size="12.00"  text-anchor="middle">
		<text><tspan font-family="Helvetica" >Density (a.u.)</tspan></text>
	</g>
</g>
<g fill="none" color="black" stroke="currentColor" stroke-width="1.00" stroke-linecap="butt" stroke-linejoin="miter">
	<g transform="translate(542.7,711.3)" stroke="none" fill="black" font-family="Helvetica" font-size="12.00"  text-anchor="middle">
		<text><tspan font-family="Helvetica" >Average time (ms)</tspan></text>
	</g>
</g>
<g fill="none" color="black" stroke="currentColor" stroke-width="1.00" stroke-linecap="butt" stroke-linejoin="miter">
	<g transform="translate(542.7,31.0)" stroke="none" fill="black" font-family="Helvetica" font-size="12.00"  text-anchor="middle">
		<text><tspan font-family="Helvetica" >dfs arena ghostcell list init: mean</tspan></text>
	</g>
</g>
	<g id="gnuplot_plot_1" ><title>Bootstrap distribution</title>
<g fill="none" color="white" stroke="black" stroke-width="2.00" stroke-linecap="butt" stroke-linejoin="miter">
</g>
<g fill="none" color="black" stroke="currentColor" stroke-width="2.00" stroke-linecap="butt" stroke-linejoin="miter">
	<g transform="translate(1089.0,67.0)" stroke="none" fill="black" font-family="Helvetica" font-size="12.00"  text-anchor="start">
		<text><tspan font-family="Helvetica" >Bootstrap distribution</tspan></text>
	</g>
</g>
<g fill="none" color="black" stroke="currentColor" stroke-width="2.00" stroke-linecap="butt" stroke-linejoin="miter">
	<path stroke='rgb( 31, 120, 180)'  d='M1038.5,63.1 L1080.7,63.1 M71.9,629.0 L73.8,627.7 L75.7,626.4 L77.6,625.0 L79.4,623.6 L81.3,622.2
		L83.2,620.7 L85.1,619.2 L87.0,617.7 L88.9,616.1 L90.8,614.4 L92.7,612.8 L94.5,611.1 L96.4,609.4
		L98.3,607.6 L100.2,605.9 L102.1,604.1 L104.0,602.2 L105.9,600.4 L107.8,598.5 L109.6,596.6 L111.5,594.6
		L113.4,592.7 L115.3,590.6 L117.2,588.6 L119.1,586.5 L121.0,584.4 L122.9,582.2 L124.7,580.0 L126.6,577.8
		L128.5,575.5 L130.4,573.1 L132.3,570.7 L134.2,568.3 L136.1,565.8 L138.0,563.3 L139.8,560.7 L141.7,558.0
		L143.6,555.4 L145.5,552.7 L147.4,549.9 L149.3,547.1 L151.2,544.3 L153.0,541.5 L154.9,538.6 L156.8,535.7
		L158.7,532.8 L160.6,529.9 L162.5,527.0 L164.4,524.1 L166.3,521.1 L168.1,518.2 L170.0,515.2 L171.9,512.3
		L173.8,509.3 L175.7,506.4 L177.6,503.4 L179.5,500.5 L181.4,497.5 L183.2,494.6 L185.1,491.6 L187.0,488.6
		L188.9,485.5 L190.8,482.5 L192.7,479.4 L194.6,476.3 L196.5,473.1 L198.3,469.9 L200.2,466.7 L202.1,463.4
		L204.0,460.0 L205.9,456.6 L207.8,453.2 L209.7,449.7 L211.6,446.1 L213.4,442.5 L215.3,438.8 L217.2,435.1
		L219.1,431.4 L221.0,427.6 L222.9,423.7 L224.8,419.8 L226.6,415.9 L228.5,412.0 L230.4,408.0 L232.3,404.0
		L234.2,400.0 L236.1,395.9 L238.0,391.9 L239.9,387.8 L241.7,383.7 L243.6,379.6 L245.5,375.5 L247.4,371.4
		L249.3,367.3 L251.2,363.2 L253.1,359.1 L255.0,355.0 L256.8,350.9 L258.7,346.9 L260.6,342.8 L262.5,338.7
		L264.4,334.6 L266.3,330.5 L268.2,326.4 L270.1,322.4 L271.9,318.3 L273.8,314.2 L275.7,310.1 L277.6,306.0
		L279.5,301.9 L281.4,297.8 L283.3,293.7 L285.2,289.5 L287.0,285.4 L288.9,281.2 L290.8,277.0 L292.7,272.8
		L294.6,268.6 L296.5,264.4 L298.4,260.1 L300.2,255.9 L302.1,251.6 L304.0,247.4 L305.9,243.1 L307.8,238.9
		L309.7,234.7 L311.6,230.5 L313.5,226.3 L315.3,222.2 L317.2,218.1 L319.1,214.1 L321.0,210.2 L322.9,206.3
		L324.8,202.4 L326.7,198.7 L328.6,195.0 L330.4,191.4 L332.3,187.9 L334.2,184.4 L336.1,181.0 L338.0,177.7
		L339.9,174.4 L341.8,171.2 L343.7,168.1 L345.5,164.9 L347.4,161.9 L349.3,158.9 L351.2,155.9 L353.1,152.9
		L355.0,150.0 L356.9,147.0 L358.8,144.1 L360.6,141.2 L362.5,138.4 L364.4,135.5 L366.3,132.7 L368.2,129.8
		L370.1,127.0 L372.0,124.2 L373.8,121.5 L375.7,118.7 L377.6,116.0 L379.5,113.4 L381.4,110.7 L383.3,108.1
		L385.2,105.6 L387.1,103.1 L388.9,100.7 L390.8,98.3 L392.7,96.0 L394.6,93.8 L396.5,91.6 L398.4,89.5
		L400.3,87.5 L402.2,85.5 L404.0,83.6 L405.9,81.8 L407.8,80.1 L409.7,78.4 L411.6,76.7 L413.5,75.2
		L415.4,73.7 L417.3,72.2 L419.1,70.9 L421.0,69.6 L422.9,68.3 L424.8,67.1 L426.7,66.0 L428.6,65.0
		L430.5,64.0 L432.4,63.1 L434.2,62.3 L436.1,61.6 L438.0,60.9 L439.9,60.3 L441.8,59.8 L443.7,59.3
		L445.6,58.9 L447.4,58.5 L449.3,58.2 L451.2,57.9 L453.1,57.7 L455.0,57.5 L456.9,57.3 L458.8,57.1
		L460.7,57.0 L462.5,56.9 L464.4,56.8 L466.3,56.8 L468.2,56.8 L470.1,56.8 L472.0,56.8 L473.9,56.9
		L475.8,57.1 L477.6,57.3 L479.5,57.6 L481.4,57.9 L483.3,58.3 L485.2,58.9 L487.1,59.4 L489.0,60.1
		L490.9,60.9 L492.7,61.8 L494.6,62.8 L496.5,63.8 L498.4,65.0 L500.3,66.2 L502.2,67.5 L504.1,68.9
		L506.0,70.4 L507.8,71.9 L509.7,73.5 L511.6,75.2 L513.5,76.9 L515.4,78.7 L517.3,80.5 L519.2,82.3
		L521.0,84.2 L522.9,86.1 L524.8,88.0 L526.7,89.9 L528.6,91.9 L530.5,93.8 L532.4,95.8 L534.3,97.7
		L536.1,99.6 L538.0,101.6 L539.9,103.4 L541.8,105.3 L543.7,107.2 L545.6,109.0 L547.5,110.8 L549.4,112.6
		L551.2,114.4 L553.1,116.1 L555.0,117.9 L556.9,119.6 L558.8,121.4 L560.7,123.2 L562.6,125.0 L564.5,126.9
		L566.3,128.8 L568.2,130.7 L570.1,132.7 L572.0,134.8 L573.9,136.9 L575.8,139.1 L577.7,141.4 L579.5,143.8
		L581.4,146.3 L583.3,148.8 L585.2,151.4 L587.1,154.1 L589.0,156.9 L590.9,159.7 L592.8,162.7 L594.6,165.6
		L596.5,168.7 L598.4,171.8 L600.3,174.9 L602.2,178.1 L604.1,181.3 L606.0,184.5 L607.9,187.7 L609.7,190.9
		L611.6,194.1 L613.5,197.4 L615.4,200.5 L617.3,203.7 L619.2,206.8 L621.1,209.8 L623.0,212.8 L624.8,215.7
		L626.7,218.6 L628.6,221.4 L630.5,224.2 L632.4,226.9 L634.3,229.5 L636.2,232.1 L638.1,234.7 L639.9,237.2
		L641.8,239.7 L643.7,242.2 L645.6,244.7 L647.5,247.2 L649.4,249.6 L651.3,252.1 L653.1,254.6 L655.0,257.1
		L656.9,259.7 L658.8,262.2 L660.7,264.9 L662.6,267.5 L664.5,270.2 L666.4,273.0 L668.2,275.8 L670.1,278.7
		L672.0,281.6 L673.9,284.6 L675.8,287.6 L677.7,290.7 L679.6,293.9 L681.5,297.1 L683.3,300.4 L685.2,303.7
		L687.1,307.1 L689.0,310.5 L690.9,313.9 L692.8,317.4 L694.7,320.9 L696.6,324.5 L698.4,328.0 L700.3,331.5
		L702.2,335.0 L704.1,338.6 L706.0,342.1 L707.9,345.5 L709.8,349.0 L711.7,352.4 L713.5,355.8 L715.4,359.2
		L717.3,362.5 L719.2,365.9 L721.1,369.2 L723.0,372.4 L724.9,375.7 L726.7,378.9 L728.6,382.2 L730.5,385.4
		L732.4,388.6 L734.3,391.8 L736.2,394.9 L738.1,398.1 L740.0,401.3 L741.8,404.5 L743.7,407.6 L745.6,410.8
		L747.5,413.9 L749.4,417.0 L751.3,420.1 L753.2,423.2 L755.1,426.3 L756.9,429.3 L758.8,432.3 L760.7,435.3
		L762.6,438.2 L764.5,441.1 L766.4,443.9 L768.3,446.7 L770.2,449.5 L772.0,452.2 L773.9,454.8 L775.8,457.4
		L777.7,460.0 L779.6,462.5 L781.5,464.9 L783.4,467.3 L785.3,469.6 L787.1,471.9 L789.0,474.1 L790.9,476.3
		L792.8,478.4 L794.7,480.5 L796.6,482.5 L798.5,484.5 L800.3,486.4 L802.2,488.3 L804.1,490.2 L806.0,492.0
		L807.9,493.8 L809.8,495.5 L811.7,497.3 L813.6,499.0 L815.4,500.7 L817.3,502.3 L819.2,504.0 L821.1,505.7
		L823.0,507.3 L824.9,509.0 L826.8,510.6 L828.7,512.3 L830.5,514.0 L832.4,515.7 L834.3,517.5 L836.2,519.2
		L838.1,521.0 L840.0,522.8 L841.9,524.7 L843.8,526.5 L845.6,528.4 L847.5,530.3 L849.4,532.2 L851.3,534.1
		L853.2,536.1 L855.1,538.0 L857.0,539.9 L858.9,541.8 L860.7,543.7 L862.6,545.6 L864.5,547.4 L866.4,549.2
		L868.3,551.0 L870.2,552.7 L872.1,554.3 L873.9,555.9 L875.8,557.5 L877.7,559.0 L879.6,560.5 L881.5,561.9
		L883.4,563.3 L885.3,564.6 L887.2,565.9 L889.0,567.2 L890.9,568.4 L892.8,569.6 L894.7,570.8 L896.6,572.0
		L898.5,573.1 L900.4,574.3 L902.3,575.4 L904.1,576.6 L906.0,577.7 L907.9,578.9 L909.8,580.0 L911.7,581.2
		L913.6,582.3 L915.5,583.4 L917.4,584.6 L919.2,585.7 L921.1,586.8 L923.0,588.0 L924.9,589.1 L926.8,590.2
		L928.7,591.3 L930.6,592.4 L932.5,593.4 L934.3,594.5 L936.2,595.5 L938.1,596.6 L940.0,597.6 L941.9,598.6
		L943.8,599.6 L945.7,600.6 L947.5,601.6 L949.4,602.5 L951.3,603.5 L953.2,604.5 L955.1,605.4 L957.0,606.3
		L958.9,607.3 L960.8,608.2 L962.6,609.1 L964.5,610.0 L966.4,610.9 L968.3,611.8 L970.2,612.7 L972.1,613.6
		L974.0,614.4 L975.9,615.3 L977.7,616.1 L979.6,616.9 L981.5,617.7 L983.4,618.5 L985.3,619.3 L987.2,620.0
		L989.1,620.8 L991.0,621.5 L992.8,622.2 L994.7,622.8 L996.6,623.5 L998.5,624.1 L1000.4,624.8 L1002.3,625.4
		L1004.2,626.0 L1006.1,626.5 L1007.9,627.1 L1009.8,627.7 L1011.7,628.2 L1013.6,628.7  '/></g>
	</g>
	<g id="gnuplot_plot_2" ><title>Confidence interval</title>
<g fill="none" color="white" stroke="rgb( 31, 120, 180)" stroke-width="1.00" stroke-linecap="butt" stroke-linejoin="miter">
</g>
<g fill="none" color="black" stroke="currentColor" stroke-width="1.00" stroke-linecap="butt" stroke-linejoin="miter">
	<g transform="translate(1089.0,85.0)" stroke="none" fill="black" font-family="Helvetica" font-size="12.00"  text-anchor="start">
		<text><tspan font-family="Helvetica" >Confidence interval</tspan></text>
	</g>
</g>
<g fill="none" color="black" stroke="currentColor" stroke-width="1.00" stroke-linecap="butt" stroke-linejoin="miter">
	<g stroke='none' shape-rendering='crispEdges'>
		<polygon fill = 'rgb( 31, 120, 180)' fill-opacity = '0.250000' points = '1038.5,85.6 1080.7,85.6 1080.7,76.6 1038.5,76.6 '/>
		<polygon fill = 'rgb( 31, 120, 180)' fill-opacity = '0.250000' points = '158.7,532.8 158.7,662.4 160.6,662.4 160.6,529.9 '/>
		<polygon fill = 'rgb( 31, 120, 180)' fill-opacity = '0.250000' points = '160.6,529.9 160.6,662.4 162.5,662.4 162.5,527.0 '/>
		<polygon fill = 'rgb( 31, 120, 180)' fill-opacity = '0.250000' points = '162.5,527.0 162.5,662.4 164.4,662.4 164.4,524.1 '/>
		<polygon fill = 'rgb( 31, 120, 180)' fill-opacity = '0.250000' points = '164.4,524.1 164.4,662.4 166.3,662.4 166.3,521.1 '/>
		<polygon fill = 'rgb( 31, 120, 180)' fill-opacity = '0.250000' points = '166.3,521.1 166.3,662.4 168.1,662.4 168.1,518.2 '/>
		<polygon fill = 'rgb( 31, 120, 180)' fill-opacity = '0.250000' points = '168.1,518.2 168.1,662.4 170.0,662.4 170.0,515.2 '/>
		<polygon fill = 'rgb( 31, 120, 180)' fill-opacity = '0.250000' points = '170.0,515.2 170.0,662.4 171.9,662.4 171.9,512.3 '/>
		<polygon fill = 'rgb( 31, 120, 180)' fill-opacity = '0.250000' points = '171.9,512.3 171.9,662.4 173.8,662.4 173.8,509.3 '/>
		<polygon fill = 'rgb( 31, 120, 180)' fill-opacity = '0.250000' points = '173.8,509.3 173.8,662.4 175.7,662.4 175.7,506.4 '/>
		<polygon fill = 'rgb( 31, 120, 180)' fill-opacity = '0.250000' points = '175.7,506.4 175.7,662.4 177.6,662.4 177.6,503.4 '/>
		<polygon fill = 'rgb( 31, 120, 180)' fill-opacity = '0.250000' points = '177.6,503.4 177.6,662.4 179.5,662.4 179.5,500.5 '/>
		<polygon fill = 'rgb( 31, 120, 180)' fill-opacity = '0.250000' points = '179.5,500.5 179.5,662.4 181.4,662.4 181.4,497.5 '/>
		<polygon fill = 'rgb( 31, 120, 180)' fill-opacity = '0.250000' points = '181.4,497.5 181.4,662.4 183.2,662.4 183.2,494.6 '/>
		<polygon fill = 'rgb( 31, 120, 180)' fill-opacity = '0.250000' points = '183.2,494.6 183.2,662.4 185.1,662.4 185.1,491.6 '/>
		<polygon fill = 'rgb( 31, 120, 180)' fill-opacity = '0.250000' points = '185.1,491.6 185.1,662.4 187.0,662.4 187.0,488.6 '/>
		<polygon fill = 'rgb( 31, 120, 180)' fill-opacity = '0.250000' points = '187.0,488.6 187.0,662.4 188.9,662.4 188.9,485.5 '/>
		<polygon fill = 'rgb( 31, 120, 180)' fill-opacity = '0.250000' points = '188.9,485.5 188.9,662.4 190.8,662.4 190.8,482.5 '/>
		<polygon fill = 'rgb( 31, 120, 180)' fill-opacity = '0.250000' points = '190.8,482.5 190.8,662.4 192.7,662.4 192.7,479.4 '/>
		<polygon fill = 'rgb( 31, 120, 180)' fill-opacity = '0.250000' points = '192.7,479.4 192.7,662.4 194.6,662.4 194.6,476.3 '/>
		<polygon fill = 'rgb( 31, 120, 180)' fill-opacity = '0.250000' points = '194.6,476.3 194.6,662.4 196.5,662.4 196.5,473.1 '/>
		<polygon fill = 'rgb( 31, 120, 180)' fill-opacity = '0.250000' points = '196.5,473.1 196.5,662.4 198.3,662.4 198.3,469.9 '/>
		<polygon fill = 'rgb( 31, 120, 180)' fill-opacity = '0.250000' points = '198.3,469.9 198.3,662.4 200.2,662.4 200.2,466.7 '/>
		<polygon fill = 'rgb( 31, 120, 180)' fill-opacity = '0.250000' points = '200.2,466.7 200.2,662.4 202.1,662.4 202.1,463.4 '/>
		<polygon fill = 'rgb( 31, 120, 180)' fill-opacity = '0.250000' points = '202.1,463.4 202.1,662.4 204.0,662.4 204.0,460.0 '/>
		<polygon fill = 'rgb( 31, 120, 180)' fill-opacity = '0.250000' points = '204.0,460.0 204.0,662.4 205.9,662.4 205.9,456.6 '/>
		<polygon fill = 'rgb( 31, 120, 180)' fill-opacity = '0.250000' points = '205.9,456.6 205.9,662.4 207.8,662.4 207.8,453.2 '/>
		<polygon fill = 'rgb( 31, 120, 180)' fill-opacity = '0.250000' points = '207.8,453.2 207.8,662.4 209.7,662.4 209.7,449.7 '/>
		<polygon fill = 'rgb( 31, 120, 180)' fill-opacity = '0.250000' points = '209.7,449.7 209.7,662.4 211.6,662.4 211.6,446.1 '/>
		<polygon fill = 'rgb( 31, 120, 180)' fill-opacity = '0.250000' points = '211.6,446.1 211.6,662.4 213.4,662.4 213.4,442.5 '/>
		<polygon fill = 'rgb( 31, 120, 180)' fill-opacity = '0.250000' points = '213.4,442.5 213.4,662.4 215.3,662.4 215.3,438.8 '/>
		<polygon fill = 'rgb( 31, 120, 180)' fill-opacity = '0.250000' points = '215.3,438.8 215.3,662.4 217.2,662.4 217.2,435.1 '/>
		<polygon fill = 'rgb( 31, 120, 180)' fill-opacity = '0.250000' points = '217.2,435.1 217.2,662.4 219.1,662.4 219.1,431.4 '/>
		<polygon fill = 'rgb( 31, 120, 180)' fill-opacity = '0.250000' points = '219.1,431.4 219.1,662.4 221.0,662.4 221.0,427.6 '/>
		<polygon fill = 'rgb( 31, 120, 180)' fill-opacity = '0.250000' points = '221.0,427.6 221.0,662.4 222.9,662.4 222.9,423.7 '/>
		<polygon fill = 'rgb( 31, 120, 180)' fill-opacity = '0.250000' points = '222.9,423.7 222.9,662.4 224.8,662.4 224.8,419.8 '/>
		<polygon fill = 'rgb( 31, 120, 180)' fill-opacity = '0.250000' points = '224.8,419.8 224.8,662.4 226.6,662.4 226.6,415.9 '/>
		<polygon fill = 'rgb( 31, 120, 180)' fill-opacity = '0.250000' points = '226.6,415.9 226.6,662.4 228.5,662.4 228.5,412.0 '/>
		<polygon fill = 'rgb( 31, 120, 180)' fill-opacity = '0.250000' points = '228.5,412.0 228.5,662.4 230.4,662.4 230.4,408.0 '/>
		<polygon fill = 'rgb( 31, 120, 180)' fill-opacity = '0.250000' points = '230.4,408.0 230.4,662.4 232.3,662.4 232.3,404.0 '/>
		<polygon fill = 'rgb( 31, 120, 180)' fill-opacity = '0.250000' points = '232.3,404.0 232.3,662.4 234.2,662.4 234.2,400.0 '/>
		<polygon fill = 'rgb( 31, 120, 180)' fill-opacity = '0.250000' points = '234.2,400.0 234.2,662.4 236.1,662.4 236.1,395.9 '/>
		<polygon fill = 'rgb( 31, 120, 180)' fill-opacity = '0.250000' points = '236.1,395.9 236.1,662.4 238.0,662.4 238.0,391.9 '/>
		<polygon fill = 'rgb( 31, 120, 180)' fill-opacity = '0.250000' points = '238.0,391.9 238.0,662.4 239.9,662.4 239.9,387.8 '/>
		<polygon fill = 'rgb( 31, 120, 180)' fill-opacity = '0.250000' points = '239.9,387.8 239.9,662.4 241.7,662.4 241.7,383.7 '/>
		<polygon fill = 'rgb( 31, 120, 180)' fill-opacity = '0.250000' points = '241.7,383.7 241.7,662.4 243.6,662.4 243.6,379.6 '/>
		<polygon fill = 'rgb( 31, 120, 180)' fill-opacity = '0.250000' points = '243.6,379.6 243.6,662.4 245.5,662.4 245.5,375.5 '/>
		<polygon fill = 'rgb( 31, 120, 180)' fill-opacity = '0.250000' points = '245.5,375.5 245.5,662.4 247.4,662.4 247.4,371.4 '/>
		<polygon fill = 'rgb( 31, 120, 180)' fill-opacity = '0.250000' points = '247.4,371.4 247.4,662.4 249.3,662.4 249.3,367.3 '/>
		<polygon fill = 'rgb( 31, 120, 180)' fill-opacity = '0.250000' points = '249.3,367.3 249.3,662.4 251.2,662.4 251.2,363.2 '/>
		<polygon fill = 'rgb( 31, 120, 180)' fill-opacity = '0.250000' points = '251.2,363.2 251.2,662.4 253.1,662.4 253.1,359.1 '/>
		<polygon fill = 'rgb( 31, 120, 180)' fill-opacity = '0.250000' points = '253.1,359.1 253.1,662.4 255.0,662.4 255.0,355.0 '/>
		<polygon fill = 'rgb( 31, 120, 180)' fill-opacity = '0.250000' points = '255.0,355.0 255.0,662.4 256.8,662.4 256.8,350.9 '/>
		<polygon fill = 'rgb( 31, 120, 180)' fill-opacity = '0.250000' points = '256.8,350.9 256.8,662.4 258.7,662.4 258.7,346.9 '/>
		<polygon fill = 'rgb( 31, 120, 180)' fill-opacity = '0.250000' points = '258.7,346.9 258.7,662.4 260.6,662.4 260.6,342.8 '/>
		<polygon fill = 'rgb( 31, 120, 180)' fill-opacity = '0.250000' points = '260.6,342.8 260.6,662.4 262.5,662.4 262.5,338.7 '/>
		<polygon fill = 'rgb( 31, 120, 180)' fill-opacity = '0.250000' points = '262.5,338.7 262.5,662.4 264.4,662.4 264.4,334.6 '/>
		<polygon fill = 'rgb( 31, 120, 180)' fill-opacity = '0.250000' points = '264.4,334.6 264.4,662.4 266.3,662.4 266.3,330.5 '/>
		<polygon fill = 'rgb( 31, 120, 180)' fill-opacity = '0.250000' points = '266.3,330.5 266.3,662.4 268.2,662.4 268.2,326.4 '/>
		<polygon fill = 'rgb( 31, 120, 180)' fill-opacity = '0.250000' points = '268.2,326.4 268.2,662.4 270.1,662.4 270.1,322.4 '/>
		<polygon fill = 'rgb( 31, 120, 180)' fill-opacity = '0.250000' points = '270.1,322.4 270.1,662.4 271.9,662.4 271.9,318.3 '/>
		<polygon fill = 'rgb( 31, 120, 180)' fill-opacity = '0.250000' points = '271.9,318.3 271.9,662.4 273.8,662.4 273.8,314.2 '/>
		<polygon fill = 'rgb( 31, 120, 180)' fill-opacity = '0.250000' points = '273.8,314.2 273.8,662.4 275.7,662.4 275.7,310.1 '/>
		<polygon fill = 'rgb( 31, 120, 180)' fill-opacity = '0.250000' points = '275.7,310.1 275.7,662.4 277.6,662.4 277.6,306.0 '/>
		<polygon fill = 'rgb( 31, 120, 180)' fill-opacity = '0.250000' points = '277.6,306.0 277.6,662.4 279.5,662.4 279.5,301.9 '/>
		<polygon fill = 'rgb( 31, 120, 180)' fill-opacity = '0.250000' points = '279.5,301.9 279.5,662.4 281.4,662.4 281.4,297.8 '/>
		<polygon fill = 'rgb( 31, 120, 180)' fill-opacity = '0.250000' points = '281.4,297.8 281.4,662.4 283.3,662.4 283.3,293.7 '/>
		<polygon fill = 'rgb( 31, 120, 180)' fill-opacity = '0.250000' points = '283.3,293.7 283.3,662.4 285.2,662.4 285.2,289.5 '/>
		<polygon fill = 'rgb( 31, 120, 180)' fill-opacity = '0.250000' points = '285.2,289.5 285.2,662.4 287.0,662.4 287.0,285.4 '/>
		<polygon fill = 'rgb( 31, 120, 180)' fill-opacity = '0.250000' points = '287.0,285.4 287.0,662.4 288.9,662.4 288.9,281.2 '/>
		<polygon fill = 'rgb( 31, 120, 180)' fill-opacity = '0.250000' points = '288.9,281.2 288.9,662.4 290.8,662.4 290.8,277.0 '/>
		<polygon fill = 'rgb( 31, 120, 180)' fill-opacity = '0.250000' points = '290.8,277.0 290.8,662.4 292.7,662.4 292.7,272.8 '/>
		<polygon fill = 'rgb( 31, 120, 180)' fill-opacity = '0.250000' points = '292.7,272.8 292.7,662.4 294.6,662.4 294.6,268.6 '/>
		<polygon fill = 'rgb( 31, 120, 180)' fill-opacity = '0.250000' points = '294.6,268.6 294.6,662.4 296.5,662.4 296.5,264.4 '/>
		<polygon fill = 'rgb( 31, 120, 180)' fill-opacity = '0.250000' points = '296.5,264.4 296.5,662.4 298.4,662.4 298.4,260.1 '/>
		<polygon fill = 'rgb( 31, 120, 180)' fill-opacity = '0.250000' points = '298.4,260.1 298.4,662.4 300.2,662.4 300.2,255.9 '/>
		<polygon fill = 'rgb( 31, 120, 180)' fill-opacity = '0.250000' points = '300.2,255.9 300.2,662.4 302.1,662.4 302.1,251.6 '/>
		<polygon fill = 'rgb( 31, 120, 180)' fill-opacity = '0.250000' points = '302.1,251.6 302.1,662.4 304.0,662.4 304.0,247.4 '/>
		<polygon fill = 'rgb( 31, 120, 180)' fill-opacity = '0.250000' points = '304.0,247.4 304.0,662.4 305.9,662.4 305.9,243.1 '/>
		<polygon fill = 'rgb( 31, 120, 180)' fill-opacity = '0.250000' points = '305.9,243.1 305.9,662.4 307.8,662.4 307.8,238.9 '/>
		<polygon fill = 'rgb( 31, 120, 180)' fill-opacity = '0.250000' points = '307.8,238.9 307.8,662.4 309.7,662.4 309.7,234.7 '/>
		<polygon fill = 'rgb( 31, 120, 180)' fill-opacity = '0.250000' points = '309.7,234.7 309.7,662.4 311.6,662.4 311.6,230.5 '/>
		<polygon fill = 'rgb( 31, 120, 180)' fill-opacity = '0.250000' points = '311.6,230.5 311.6,662.4 313.5,662.4 313.5,226.3 '/>
		<polygon fill = 'rgb( 31, 120, 180)' fill-opacity = '0.250000' points = '313.5,226.3 313.5,662.4 315.3,662.4 315.3,222.2 '/>
		<polygon fill = 'rgb( 31, 120, 180)' fill-opacity = '0.250000' points = '315.3,222.2 315.3,662.4 317.2,662.4 317.2,218.1 '/>
		<polygon fill = 'rgb( 31, 120, 180)' fill-opacity = '0.250000' points = '317.2,218.1 317.2,662.4 319.1,662.4 319.1,214.1 '/>
		<polygon fill = 'rgb( 31, 120, 180)' fill-opacity = '0.250000' points = '319.1,214.1 319.1,662.4 321.0,662.4 321.0,210.2 '/>
		<polygon fill = 'rgb( 31, 120, 180)' fill-opacity = '0.250000' points = '321.0,210.2 321.0,662.4 322.9,662.4 322.9,206.3 '/>
		<polygon fill = 'rgb( 31, 120, 180)' fill-opacity = '0.250000' points = '322.9,206.3 322.9,662.4 324.8,662.4 324.8,202.4 '/>
		<polygon fill = 'rgb( 31, 120, 180)' fill-opacity = '0.250000' points = '324.8,202.4 324.8,662.4 326.7,662.4 326.7,198.7 '/>
		<polygon fill = 'rgb( 31, 120, 180)' fill-opacity = '0.250000' points = '326.7,198.7 326.7,662.4 328.6,662.4 328.6,195.0 '/>
		<polygon fill = 'rgb( 31, 120, 180)' fill-opacity = '0.250000' points = '328.6,195.0 328.6,662.4 330.4,662.4 330.4,191.4 '/>
		<polygon fill = 'rgb( 31, 120, 180)' fill-opacity = '0.250000' points = '330.4,191.4 330.4,662.4 332.3,662.4 332.3,187.9 '/>
		<polygon fill = 'rgb( 31, 120, 180)' fill-opacity = '0.250000' points = '332.3,187.9 332.3,662.4 334.2,662.4 334.2,184.4 '/>
		<polygon fill = 'rgb( 31, 120, 180)' fill-opacity = '0.250000' points = '334.2,184.4 334.2,662.4 336.1,662.4 336.1,181.0 '/>
		<polygon fill = 'rgb( 31, 120, 180)' fill-opacity = '0.250000' points = '336.1,181.0 336.1,662.4 338.0,662.4 338.0,177.7 '/>
		<polygon fill = 'rgb( 31, 120, 180)' fill-opacity = '0.250000' points = '338.0,177.7 338.0,662.4 339.9,662.4 339.9,174.4 '/>
		<polygon fill = 'rgb( 31, 120, 180)' fill-opacity = '0.250000' points = '339.9,174.4 339.9,662.4 341.8,662.4 341.8,171.2 '/>
		<polygon fill = 'rgb( 31, 120, 180)' fill-opacity = '0.250000' points = '341.8,171.2 341.8,662.4 343.7,662.4 343.7,168.1 '/>
		<polygon fill = 'rgb( 31, 120, 180)' fill-opacity = '0.250000' points = '343.7,168.1 343.7,662.4 345.5,662.4 345.5,164.9 '/>
		<polygon fill = 'rgb( 31, 120, 180)' fill-opacity = '0.250000' points = '345.5,164.9 345.5,662.4 347.4,662.4 347.4,161.9 '/>
		<polygon fill = 'rgb( 31, 120, 180)' fill-opacity = '0.250000' points = '347.4,161.9 347.4,662.4 349.3,662.4 349.3,158.9 '/>
		<polygon fill = 'rgb( 31, 120, 180)' fill-opacity = '0.250000' points = '349.3,158.9 349.3,662.4 351.2,662.4 351.2,155.9 '/>
		<polygon fill = 'rgb( 31, 120, 180)' fill-opacity = '0.250000' points = '351.2,155.9 351.2,662.4 353.1,662.4 353.1,152.9 '/>
		<polygon fill = 'rgb( 31, 120, 180)' fill-opacity = '0.250000' points = '353.1,152.9 353.1,662.4 355.0,662.4 355.0,150.0 '/>
		<polygon fill = 'rgb( 31, 120, 180)' fill-opacity = '0.250000' points = '355.0,150.0 355.0,662.4 356.9,662.4 356.9,147.0 '/>
		<polygon fill = 'rgb( 31, 120, 180)' fill-opacity = '0.250000' points = '356.9,147.0 356.9,662.4 358.8,662.4 358.8,144.1 '/>
		<polygon fill = 'rgb( 31, 120, 180)' fill-opacity = '0.250000' points = '358.8,144.1 358.8,662.4 360.6,662.4 360.6,141.2 '/>
		<polygon fill = 'rgb( 31, 120, 180)' fill-opacity = '0.250000' points = '360.6,141.2 360.6,662.4 362.5,662.4 362.5,138.4 '/>
		<polygon fill = 'rgb( 31, 120, 180)' fill-opacity = '0.250000' points = '362.5,138.4 362.5,662.4 364.4,662.4 364.4,135.5 '/>
		<polygon fill = 'rgb( 31, 120, 180)' fill-opacity = '0.250000' points = '364.4,135.5 364.4,662.4 366.3,662.4 366.3,132.7 '/>
		<polygon fill = 'rgb( 31, 120, 180)' fill-opacity = '0.250000' points = '366.3,132.7 366.3,662.4 368.2,662.4 368.2,129.8 '/>
		<polygon fill = 'rgb( 31, 120, 180)' fill-opacity = '0.250000' points = '368.2,129.8 368.2,662.4 370.1,662.4 370.1,127.0 '/>
		<polygon fill = 'rgb( 31, 120, 180)' fill-opacity = '0.250000' points = '370.1,127.0 370.1,662.4 372.0,662.4 372.0,124.2 '/>
		<polygon fill = 'rgb( 31, 120, 180)' fill-opacity = '0.250000' points = '372.0,124.2 372.0,662.4 373.8,662.4 373.8,121.5 '/>
		<polygon fill = 'rgb( 31, 120, 180)' fill-opacity = '0.250000' points = '373.8,121.5 373.8,662.4 375.7,662.4 375.7,118.7 '/>
		<polygon fill = 'rgb( 31, 120, 180)' fill-opacity = '0.250000' points = '375.7,118.7 375.7,662.4 377.6,662.4 377.6,116.0 '/>
		<polygon fill = 'rgb( 31, 120, 180)' fill-opacity = '0.250000' points = '377.6,116.0 377.6,662.4 379.5,662.4 379.5,113.4 '/>
		<polygon fill = 'rgb( 31, 120, 180)' fill-opacity = '0.250000' points = '379.5,113.4 379.5,662.4 381.4,662.4 381.4,110.7 '/>
		<polygon fill = 'rgb( 31, 120, 180)' fill-opacity = '0.250000' points = '381.4,110.7 381.4,662.4 383.3,662.4 383.3,108.1 '/>
		<polygon fill = 'rgb( 31, 120, 180)' fill-opacity = '0.250000' points = '383.3,108.1 383.3,662.4 385.2,662.4 385.2,105.6 '/>
		<polygon fill = 'rgb( 31, 120, 180)' fill-opacity = '0.250000' points = '385.2,105.6 385.2,662.4 387.1,662.4 387.1,103.1 '/>
		<polygon fill = 'rgb( 31, 120, 180)' fill-opacity = '0.250000' points = '387.1,103.1 387.1,662.4 388.9,662.4 388.9,100.7 '/>
		<polygon fill = 'rgb( 31, 120, 180)' fill-opacity = '0.250000' points = '388.9,100.7 388.9,662.4 390.8,662.4 390.8,98.3 '/>
		<polygon fill = 'rgb( 31, 120, 180)' fill-opacity = '0.250000' points = '390.8,98.3 390.8,662.4 392.7,662.4 392.7,96.0 '/>
		<polygon fill = 'rgb( 31, 120, 180)' fill-opacity = '0.250000' points = '392.7,96.0 392.7,662.4 394.6,662.4 394.6,93.8 '/>
		<polygon fill = 'rgb( 31, 120, 180)' fill-opacity = '0.250000' points = '394.6,93.8 394.6,662.4 396.5,662.4 396.5,91.6 '/>
		<polygon fill = 'rgb( 31, 120, 180)' fill-opacity = '0.250000' points = '396.5,91.6 396.5,662.4 398.4,662.4 398.4,89.5 '/>
		<polygon fill = 'rgb( 31, 120, 180)' fill-opacity = '0.250000' points = '398.4,89.5 398.4,662.4 400.3,662.4 400.3,87.5 '/>
		<polygon fill = 'rgb( 31, 120, 180)' fill-opacity = '0.250000' points = '400.3,87.5 400.3,662.4 402.2,662.4 402.2,85.5 '/>
		<polygon fill = 'rgb( 31, 120, 180)' fill-opacity = '0.250000' points = '402.2,85.5 402.2,662.4 404.0,662.4 404.0,83.6 '/>
		<polygon fill = 'rgb( 31, 120, 180)' fill-opacity = '0.250000' points = '404.0,83.6 404.0,662.4 405.9,662.4 405.9,81.8 '/>
		<polygon fill = 'rgb( 31, 120, 180)' fill-opacity = '0.250000' points = '405.9,81.8 405.9,662.4 407.8,662.4 407.8,80.1 '/>
		<polygon fill = 'rgb( 31, 120, 180)' fill-opacity = '0.250000' points = '407.8,80.1 407.8,662.4 409.7,662.4 409.7,78.4 '/>
		<polygon fill = 'rgb( 31, 120, 180)' fill-opacity = '0.250000' points = '409.7,78.4 409.7,662.4 411.6,662.4 411.6,76.7 '/>
		<polygon fill = 'rgb( 31, 120, 180)' fill-opacity = '0.250000' points = '411.6,76.7 411.6,662.4 413.5,662.4 413.5,75.2 '/>
		<polygon fill = 'rgb( 31, 120, 180)' fill-opacity = '0.250000' points = '413.5,75.2 413.5,662.4 415.4,662.4 415.4,73.7 '/>
		<polygon fill = 'rgb( 31, 120, 180)' fill-opacity = '0.250000' points = '415.4,73.7 415.4,662.4 417.3,662.4 417.3,72.2 '/>
		<polygon fill = 'rgb( 31, 120, 180)' fill-opacity = '0.250000' points = '417.3,72.2 417.3,662.4 419.1,662.4 419.1,70.9 '/>
		<polygon fill = 'rgb( 31, 120, 180)' fill-opacity = '0.250000' points = '419.1,70.9 419.1,662.4 421.0,662.4 421.0,69.6 '/>
		<polygon fill = 'rgb( 31, 120, 180)' fill-opacity = '0.250000' points = '421.0,69.6 421.0,662.4 422.9,662.4 422.9,68.3 '/>
		<polygon fill = 'rgb( 31, 120, 180)' fill-opacity = '0.250000' points = '422.9,68.3 422.9,662.4 424.8,662.4 424.8,67.1 '/>
		<polygon fill = 'rgb( 31, 120, 180)' fill-opacity = '0.250000' points = '424.8,67.1 424.8,662.4 426.7,662.4 426.7,66.0 '/>
		<polygon fill = 'rgb( 31, 120, 180)' fill-opacity = '0.250000' points = '426.7,66.0 426.7,662.4 428.6,662.4 428.6,65.0 '/>
		<polygon fill = 'rgb( 31, 120, 180)' fill-opacity = '0.250000' points = '428.6,65.0 428.6,662.4 430.5,662.4 430.5,64.0 '/>
		<polygon fill = 'rgb( 31, 120, 180)' fill-opacity = '0.250000' points = '430.5,64.0 430.5,662.4 432.4,662.4 432.4,63.1 '/>
		<polygon fill = 'rgb( 31, 120, 180)' fill-opacity = '0.250000' points = '432.4,63.1 432.4,662.4 434.2,662.4 434.2,62.3 '/>
		<polygon fill = 'rgb( 31, 120, 180)' fill-opacity = '0.250000' points = '434.2,62.3 434.2,662.4 436.1,662.4 436.1,61.6 '/>
		<polygon fill = 'rgb( 31, 120, 180)' fill-opacity = '0.250000' points = '436.1,61.6 436.1,662.4 438.0,662.4 438.0,60.9 '/>
		<polygon fill = 'rgb( 31, 120, 180)' fill-opacity = '0.250000' points = '438.0,60.9 438.0,662.4 439.9,662.4 439.9,60.3 '/>
		<polygon fill = 'rgb( 31, 120, 180)' fill-opacity = '0.250000' points = '439.9,60.3 439.9,662.4 441.8,662.4 441.8,59.8 '/>
		<polygon fill = 'rgb( 31, 120, 180)' fill-opacity = '0.250000' points = '441.8,59.8 441.8,662.4 443.7,662.4 443.7,59.3 '/>
		<polygon fill = 'rgb( 31, 120, 180)' fill-opacity = '0.250000' points = '443.7,59.3 443.7,662.4 445.6,662.4 445.6,58.9 '/>
		<polygon fill = 'rgb( 31, 120, 180)' fill-opacity = '0.250000' points = '445.6,58.9 445.6,662.4 447.4,662.4 447.4,58.5 '/>
		<polygon fill = 'rgb( 31, 120, 180)' fill-opacity = '0.250000' points = '447.4,58.5 447.4,662.4 449.3,662.4 449.3,58.2 '/>
		<polygon fill = 'rgb( 31, 120, 180)' fill-opacity = '0.250000' points = '449.3,58.2 449.3,662.4 451.2,662.4 451.2,57.9 '/>
		<polygon fill = 'rgb( 31, 120, 180)' fill-opacity = '0.250000' points = '451.2,57.9 451.2,662.4 453.1,662.4 453.1,57.7 '/>
		<polygon fill = 'rgb( 31, 120, 180)' fill-opacity = '0.250000' points = '453.1,57.7 453.1,662.4 455.0,662.4 455.0,57.5 '/>
		<polygon fill = 'rgb( 31, 120, 180)' fill-opacity = '0.250000' points = '455.0,57.5 455.0,662.4 456.9,662.4 456.9,57.3 '/>
		<polygon fill = 'rgb( 31, 120, 180)' fill-opacity = '0.250000' points = '456.9,57.3 456.9,662.4 458.8,662.4 458.8,57.1 '/>
		<polygon fill = 'rgb( 31, 120, 180)' fill-opacity = '0.250000' points = '458.8,57.1 458.8,662.4 460.7,662.4 460.7,57.0 '/>
		<polygon fill = 'rgb( 31, 120, 180)' fill-opacity = '0.250000' points = '460.7,57.0 460.7,662.4 462.5,662.4 462.5,56.9 '/>
		<polygon fill = 'rgb( 31, 120, 180)' fill-opacity = '0.250000' points = '462.5,56.9 462.5,662.4 464.4,662.4 464.4,56.8 '/>
		<polygon fill = 'rgb( 31, 120, 180)' fill-opacity = '0.250000' points = '464.4,56.8 464.4,662.4 466.3,662.4 466.3,56.8 '/>
		<polygon fill = 'rgb( 31, 120, 180)' fill-opacity = '0.250000' points = '466.3,56.8 466.3,662.4 468.2,662.4 468.2,56.8 '/>
		<polygon fill = 'rgb( 31, 120, 180)' fill-opacity = '0.250000' points = '468.2,56.8 468.2,662.4 470.1,662.4 470.1,56.8 '/>
		<polygon fill = 'rgb( 31, 120, 180)' fill-opacity = '0.250000' points = '470.1,56.8 470.1,662.4 472.0,662.4 472.0,56.8 '/>
		<polygon fill = 'rgb( 31, 120, 180)' fill-opacity = '0.250000' points = '472.0,56.8 472.0,662.4 473.9,662.4 473.9,56.9 '/>
		<polygon fill = 'rgb( 31, 120, 180)' fill-opacity = '0.250000' points = '473.9,56.9 473.9,662.4 475.8,662.4 475.8,57.1 '/>
		<polygon fill = 'rgb( 31, 120, 180)' fill-opacity = '0.250000' points = '475.8,57.1 475.8,662.4 477.6,662.4 477.6,57.3 '/>
		<polygon fill = 'rgb( 31, 120, 180)' fill-opacity = '0.250000' points = '477.6,57.3 477.6,662.4 479.5,662.4 479.5,57.6 '/>
		<polygon fill = 'rgb( 31, 120, 180)' fill-opacity = '0.250000' points = '479.5,57.6 479.5,662.4 481.4,662.4 481.4,57.9 '/>
		<polygon fill = 'rgb( 31, 120, 180)' fill-opacity = '0.250000' points = '481.4,57.9 481.4,662.4 483.3,662.4 483.3,58.3 '/>
		<polygon fill = 'rgb( 31, 120, 180)' fill-opacity = '0.250000' points = '483.3,58.3 483.3,662.4 485.2,662.4 485.2,58.9 '/>
		<polygon fill = 'rgb( 31, 120, 180)' fill-opacity = '0.250000' points = '485.2,58.9 485.2,662.4 487.1,662.4 487.1,59.4 '/>
		<polygon fill = 'rgb( 31, 120, 180)' fill-opacity = '0.250000' points = '487.1,59.4 487.1,662.4 489.0,662.4 489.0,60.1 '/>
		<polygon fill = 'rgb( 31, 120, 180)' fill-opacity = '0.250000' points = '489.0,60.1 489.0,662.4 490.9,662.4 490.9,60.9 '/>
		<polygon fill = 'rgb( 31, 120, 180)' fill-opacity = '0.250000' points = '490.9,60.9 490.9,662.4 492.7,662.4 492.7,61.8 '/>
		<polygon fill = 'rgb( 31, 120, 180)' fill-opacity = '0.250000' points = '492.7,61.8 492.7,662.4 494.6,662.4 494.6,62.8 '/>
		<polygon fill = 'rgb( 31, 120, 180)' fill-opacity = '0.250000' points = '494.6,62.8 494.6,662.4 496.5,662.4 496.5,63.8 '/>
		<polygon fill = 'rgb( 31, 120, 180)' fill-opacity = '0.250000' points = '496.5,63.8 496.5,662.4 498.4,662.4 498.4,65.0 '/>
		<polygon fill = 'rgb( 31, 120, 180)' fill-opacity = '0.250000' points = '498.4,65.0 498.4,662.4 500.3,662.4 500.3,66.2 '/>
		<polygon fill = 'rgb( 31, 120, 180)' fill-opacity = '0.250000' points = '500.3,66.2 500.3,662.4 502.2,662.4 502.2,67.5 '/>
		<polygon fill = 'rgb( 31, 120, 180)' fill-opacity = '0.250000' points = '502.2,67.5 502.2,662.4 504.1,662.4 504.1,68.9 '/>
		<polygon fill = 'rgb( 31, 120, 180)' fill-opacity = '0.250000' points = '504.1,68.9 504.1,662.4 506.0,662.4 506.0,70.4 '/>
		<polygon fill = 'rgb( 31, 120, 180)' fill-opacity = '0.250000' points = '506.0,70.4 506.0,662.4 507.8,662.4 507.8,71.9 '/>
		<polygon fill = 'rgb( 31, 120, 180)' fill-opacity = '0.250000' points = '507.8,71.9 507.8,662.4 509.7,662.4 509.7,73.5 '/>
		<polygon fill = 'rgb( 31, 120, 180)' fill-opacity = '0.250000' points = '509.7,73.5 509.7,662.4 511.6,662.4 511.6,75.2 '/>
		<polygon fill = 'rgb( 31, 120, 180)' fill-opacity = '0.250000' points = '511.6,75.2 511.6,662.4 513.5,662.4 513.5,76.9 '/>
		<polygon fill = 'rgb( 31, 120, 180)' fill-opacity = '0.250000' points = '513.5,76.9 513.5,662.4 515.4,662.4 515.4,78.7 '/>
		<polygon fill = 'rgb( 31, 120, 180)' fill-opacity = '0.250000' points = '515.4,78.7 515.4,662.4 517.3,662.4 517.3,80.5 '/>
		<polygon fill = 'rgb( 31, 120, 180)' fill-opacity = '0.250000' points = '517.3,80.5 517.3,662.4 519.2,662.4 519.2,82.3 '/>
		<polygon fill = 'rgb( 31, 120, 180)' fill-opacity = '0.250000' points = '519.2,82.3 519.2,662.4 521.0,662.4 521.0,84.2 '/>
		<polygon fill = 'rgb( 31, 120, 180)' fill-opacity = '0.250000' points = '521.0,84.2 521.0,662.4 522.9,662.4 522.9,86.1 '/>
		<polygon fill = 'rgb( 31, 120, 180)' fill-opacity = '0.250000' points = '522.9,86.1 522.9,662.4 524.8,662.4 524.8,88.0 '/>
		<polygon fill = 'rgb( 31, 120, 180)' fill-opacity = '0.250000' points = '524.8,88.0 524.8,662.4 526.7,662.4 526.7,89.9 '/>
		<polygon fill = 'rgb( 31, 120, 180)' fill-opacity = '0.250000' points = '526.7,89.9 526.7,662.4 528.6,662.4 528.6,91.9 '/>
		<polygon fill = 'rgb( 31, 120, 180)' fill-opacity = '0.250000' points = '528.6,91.9 528.6,662.4 530.5,662.4 530.5,93.8 '/>
		<polygon fill = 'rgb( 31, 120, 180)' fill-opacity = '0.250000' points = '530.5,93.8 530.5,662.4 532.4,662.4 532.4,95.8 '/>
		<polygon fill = 'rgb( 31, 120, 180)' fill-opacity = '0.250000' points = '532.4,95.8 532.4,662.4 534.3,662.4 534.3,97.7 '/>
		<polygon fill = 'rgb( 31, 120, 180)' fill-opacity = '0.250000' points = '534.3,97.7 534.3,662.4 536.1,662.4 536.1,99.6 '/>
		<polygon fill = 'rgb( 31, 120, 180)' fill-opacity = '0.250000' points = '536.1,99.6 536.1,662.4 538.0,662.4 538.0,101.6 '/>
		<polygon fill = 'rgb( 31, 120, 180)' fill-opacity = '0.250000' points = '538.0,101.6 538.0,662.4 539.9,662.4 539.9,103.4 '/>
		<polygon fill = 'rgb( 31, 120, 180)' fill-opacity = '0.250000' points = '539.9,103.4 539.9,662.4 541.8,662.4 541.8,105.3 '/>
		<polygon fill = 'rgb( 31, 120, 180)' fill-opacity = '0.250000' points = '541.8,105.3 541.8,662.4 543.7,662.4 543.7,107.2 '/>
		<polygon fill = 'rgb( 31, 120, 180)' fill-opacity = '0.250000' points = '543.7,107.2 543.7,662.4 545.6,662.4 545.6,109.0 '/>
		<polygon fill = 'rgb( 31, 120, 180)' fill-opacity = '0.250000' points = '545.6,109.0 545.6,662.4 547.5,662.4 547.5,110.8 '/>
		<polygon fill = 'rgb( 31, 120, 180)' fill-opacity = '0.250000' points = '547.5,110.8 547.5,662.4 549.4,662.4 549.4,112.6 '/>
		<polygon fill = 'rgb( 31, 120, 180)' fill-opacity = '0.250000' points = '549.4,112.6 549.4,662.4 551.2,662.4 551.2,114.4 '/>
		<polygon fill = 'rgb( 31, 120, 180)' fill-opacity = '0.250000' points = '551.2,114.4 551.2,662.4 553.1,662.4 553.1,116.1 '/>
		<polygon fill = 'rgb( 31, 120, 180)' fill-opacity = '0.250000' points = '553.1,116.1 553.1,662.4 555.0,662.4 555.0,117.9 '/>
		<polygon fill = 'rgb( 31, 120, 180)' fill-opacity = '0.250000' points = '555.0,117.9 555.0,662.4 556.9,662.4 556.9,119.6 '/>
		<polygon fill = 'rgb( 31, 120, 180)' fill-opacity = '0.250000' points = '556.9,119.6 556.9,662.4 558.8,662.4 558.8,121.4 '/>
		<polygon fill = 'rgb( 31, 120, 180)' fill-opacity = '0.250000' points = '558.8,121.4 558.8,662.4 560.7,662.4 560.7,123.2 '/>
		<polygon fill = 'rgb( 31, 120, 180)' fill-opacity = '0.250000' points = '560.7,123.2 560.7,662.4 562.6,662.4 562.6,125.0 '/>
		<polygon fill = 'rgb( 31, 120, 180)' fill-opacity = '0.250000' points = '562.6,125.0 562.6,662.4 564.5,662.4 564.5,126.9 '/>
		<polygon fill = 'rgb( 31, 120, 180)' fill-opacity = '0.250000' points = '564.5,126.9 564.5,662.4 566.3,662.4 566.3,128.8 '/>
		<polygon fill = 'rgb( 31, 120, 180)' fill-opacity = '0.250000' points = '566.3,128.8 566.3,662.4 568.2,662.4 568.2,130.7 '/>
		<polygon fill = 'rgb( 31, 120, 180)' fill-opacity = '0.250000' points = '568.2,130.7 568.2,662.4 570.1,662.4 570.1,132.7 '/>
		<polygon fill = 'rgb( 31, 120, 180)' fill-opacity = '0.250000' points = '570.1,132.7 570.1,662.4 572.0,662.4 572.0,134.8 '/>
		<polygon fill = 'rgb( 31, 120, 180)' fill-opacity = '0.250000' points = '572.0,134.8 572.0,662.4 573.9,662.4 573.9,136.9 '/>
		<polygon fill = 'rgb( 31, 120, 180)' fill-opacity = '0.250000' points = '573.9,136.9 573.9,662.4 575.8,662.4 575.8,139.1 '/>
		<polygon fill = 'rgb( 31, 120, 180)' fill-opacity = '0.250000' points = '575.8,139.1 575.8,662.4 577.7,662.4 577.7,141.4 '/>
		<polygon fill = 'rgb( 31, 120, 180)' fill-opacity = '0.250000' points = '577.7,141.4 577.7,662.4 579.5,662.4 579.5,143.8 '/>
		<polygon fill = 'rgb( 31, 120, 180)' fill-opacity = '0.250000' points = '579.5,143.8 579.5,662.4 581.4,662.4 581.4,146.3 '/>
		<polygon fill = 'rgb( 31, 120, 180)' fill-opacity = '0.250000' points = '581.4,146.3 581.4,662.4 583.3,662.4 583.3,148.8 '/>
		<polygon fill = 'rgb( 31, 120, 180)' fill-opacity = '0.250000' points = '583.3,148.8 583.3,662.4 585.2,662.4 585.2,151.4 '/>
		<polygon fill = 'rgb( 31, 120, 180)' fill-opacity = '0.250000' points = '585.2,151.4 585.2,662.4 587.1,662.4 587.1,154.1 '/>
		<polygon fill = 'rgb( 31, 120, 180)' fill-opacity = '0.250000' points = '587.1,154.1 587.1,662.4 589.0,662.4 589.0,156.9 '/>
		<polygon fill = 'rgb( 31, 120, 180)' fill-opacity = '0.250000' points = '589.0,156.9 589.0,662.4 590.9,662.4 590.9,159.7 '/>
		<polygon fill = 'rgb( 31, 120, 180)' fill-opacity = '0.250000' points = '590.9,159.7 590.9,662.4 592.8,662.4 592.8,162.7 '/>
		<polygon fill = 'rgb( 31, 120, 180)' fill-opacity = '0.250000' points = '592.8,162.7 592.8,662.4 594.6,662.4 594.6,165.6 '/>
		<polygon fill = 'rgb( 31, 120, 180)' fill-opacity = '0.250000' points = '594.6,165.6 594.6,662.4 596.5,662.4 596.5,168.7 '/>
		<polygon fill = 'rgb( 31, 120, 180)' fill-opacity = '0.250000' points = '596.5,168.7 596.5,662.4 598.4,662.4 598.4,171.8 '/>
		<polygon fill = 'rgb( 31, 120, 180)' fill-opacity = '0.250000' points = '598.4,171.8 598.4,662.4 600.3,662.4 600.3,174.9 '/>
		<polygon fill = 'rgb( 31, 120, 180)' fill-opacity = '0.250000' points = '600.3,174.9 600.3,662.4 602.2,662.4 602.2,178.1 '/>
		<polygon fill = 'rgb( 31, 120, 180)' fill-opacity = '0.250000' points = '602.2,178.1 602.2,662.4 604.1,662.4 604.1,181.3 '/>
		<polygon fill = 'rgb( 31, 120, 180)' fill-opacity = '0.250000' points = '604.1,181.3 604.1,662.4 606.0,662.4 606.0,184.5 '/>
		<polygon fill = 'rgb( 31, 120, 180)' fill-opacity = '0.250000' points = '606.0,184.5 606.0,662.4 607.9,662.4 607.9,187.7 '/>
		<polygon fill = 'rgb( 31, 120, 180)' fill-opacity = '0.250000' points = '607.9,187.7 607.9,662.4 609.7,662.4 609.7,190.9 '/>
		<polygon fill = 'rgb( 31, 120, 180)' fill-opacity = '0.250000' points = '609.7,190.9 609.7,662.4 611.6,662.4 611.6,194.1 '/>
		<polygon fill = 'rgb( 31, 120, 180)' fill-opacity = '0.250000' points = '611.6,194.1 611.6,662.4 613.5,662.4 613.5,197.4 '/>
		<polygon fill = 'rgb( 31, 120, 180)' fill-opacity = '0.250000' points = '613.5,197.4 613.5,662.4 615.4,662.4 615.4,200.5 '/>
		<polygon fill = 'rgb( 31, 120, 180)' fill-opacity = '0.250000' points = '615.4,200.5 615.4,662.4 617.3,662.4 617.3,203.7 '/>
		<polygon fill = 'rgb( 31, 120, 180)' fill-opacity = '0.250000' points = '617.3,203.7 617.3,662.4 619.2,662.4 619.2,206.8 '/>
		<polygon fill = 'rgb( 31, 120, 180)' fill-opacity = '0.250000' points = '619.2,206.8 619.2,662.4 621.1,662.4 621.1,209.8 '/>
		<polygon fill = 'rgb( 31, 120, 180)' fill-opacity = '0.250000' points = '621.1,209.8 621.1,662.4 623.0,662.4 623.0,212.8 '/>
		<polygon fill = 'rgb( 31, 120, 180)' fill-opacity = '0.250000' points = '623.0,212.8 623.0,662.4 624.8,662.4 624.8,215.7 '/>
		<polygon fill = 'rgb( 31, 120, 180)' fill-opacity = '0.250000' points = '624.8,215.7 624.8,662.4 626.7,662.4 626.7,218.6 '/>
		<polygon fill = 'rgb( 31, 120, 180)' fill-opacity = '0.250000' points = '626.7,218.6 626.7,662.4 628.6,662.4 628.6,221.4 '/>
		<polygon fill = 'rgb( 31, 120, 180)' fill-opacity = '0.250000' points = '628.6,221.4 628.6,662.4 630.5,662.4 630.5,224.2 '/>
		<polygon fill = 'rgb( 31, 120, 180)' fill-opacity = '0.250000' points = '630.5,224.2 630.5,662.4 632.4,662.4 632.4,226.9 '/>
		<polygon fill = 'rgb( 31, 120, 180)' fill-opacity = '0.250000' points = '632.4,226.9 632.4,662.4 634.3,662.4 634.3,229.5 '/>
		<polygon fill = 'rgb( 31, 120, 180)' fill-opacity = '0.250000' points = '634.3,229.5 634.3,662.4 636.2,662.4 636.2,232.1 '/>
		<polygon fill = 'rgb( 31, 120, 180)' fill-opacity = '0.250000' points = '636.2,232.1 636.2,662.4 638.1,662.4 638.1,234.7 '/>
		<polygon fill = 'rgb( 31, 120, 180)' fill-opacity = '0.250000' points = '638.1,234.7 638.1,662.4 639.9,662.4 639.9,237.2 '/>
		<polygon fill = 'rgb( 31, 120, 180)' fill-opacity = '0.250000' points = '639.9,237.2 639.9,662.4 641.8,662.4 641.8,239.7 '/>
		<polygon fill = 'rgb( 31, 120, 180)' fill-opacity = '0.250000' points = '641.8,239.7 641.8,662.4 643.7,662.4 643.7,242.2 '/>
		<polygon fill = 'rgb( 31, 120, 180)' fill-opacity = '0.250000' points = '643.7,242.2 643.7,662.4 645.6,662.4 645.6,244.7 '/>
		<polygon fill = 'rgb( 31, 120, 180)' fill-opacity = '0.250000' points = '645.6,244.7 645.6,662.4 647.5,662.4 647.5,247.2 '/>
		<polygon fill = 'rgb( 31, 120, 180)' fill-opacity = '0.250000' points = '647.5,247.2 647.5,662.4 649.4,662.4 649.4,249.6 '/>
		<polygon fill = 'rgb( 31, 120, 180)' fill-opacity = '0.250000' points = '649.4,249.6 649.4,662.4 651.3,662.4 651.3,252.1 '/>
		<polygon fill = 'rgb( 31, 120, 180)' fill-opacity = '0.250000' points = '651.3,252.1 651.3,662.4 653.1,662.4 653.1,254.6 '/>
		<polygon fill = 'rgb( 31, 120, 180)' fill-opacity = '0.250000' points = '653.1,254.6 653.1,662.4 655.0,662.4 655.0,257.1 '/>
		<polygon fill = 'rgb( 31, 120, 180)' fill-opacity = '0.250000' points = '655.0,257.1 655.0,662.4 656.9,662.4 656.9,259.7 '/>
		<polygon fill = 'rgb( 31, 120, 180)' fill-opacity = '0.250000' points = '656.9,259.7 656.9,662.4 658.8,662.4 658.8,262.2 '/>
		<polygon fill = 'rgb( 31, 120, 180)' fill-opacity = '0.250000' points = '658.8,262.2 658.8,662.4 660.7,662.4 660.7,264.9 '/>
		<polygon fill = 'rgb( 31, 120, 180)' fill-opacity = '0.250000' points = '660.7,264.9 660.7,662.4 662.6,662.4 662.6,267.5 '/>
		<polygon fill = 'rgb( 31, 120, 180)' fill-opacity = '0.250000' points = '662.6,267.5 662.6,662.4 664.5,662.4 664.5,270.2 '/>
		<polygon fill = 'rgb( 31, 120, 180)' fill-opacity = '0.250000' points = '664.5,270.2 664.5,662.4 666.4,662.4 666.4,273.0 '/>
		<polygon fill = 'rgb( 31, 120, 180)' fill-opacity = '0.250000' points = '666.4,273.0 666.4,662.4 668.2,662.4 668.2,275.8 '/>
		<polygon fill = 'rgb( 31, 120, 180)' fill-opacity = '0.250000' points = '668.2,275.8 668.2,662.4 670.1,662.4 670.1,278.7 '/>
		<polygon fill = 'rgb( 31, 120, 180)' fill-opacity = '0.250000' points = '670.1,278.7 670.1,662.4 672.0,662.4 672.0,281.6 '/>
		<polygon fill = 'rgb( 31, 120, 180)' fill-opacity = '0.250000' points = '672.0,281.6 672.0,662.4 673.9,662.4 673.9,284.6 '/>
		<polygon fill = 'rgb( 31, 120, 180)' fill-opacity = '0.250000' points = '673.9,284.6 673.9,662.4 675.8,662.4 675.8,287.6 '/>
		<polygon fill = 'rgb( 31, 120, 180)' fill-opacity = '0.250000' points = '675.8,287.6 675.8,662.4 677.7,662.4 677.7,290.7 '/>
		<polygon fill = 'rgb( 31, 120, 180)' fill-opacity = '0.250000' points = '677.7,290.7 677.7,662.4 679.6,662.4 679.6,293.9 '/>
		<polygon fill = 'rgb( 31, 120, 180)' fill-opacity = '0.250000' points = '679.6,293.9 679.6,662.4 681.5,662.4 681.5,297.1 '/>
		<polygon fill = 'rgb( 31, 120, 180)' fill-opacity = '0.250000' points = '681.5,297.1 681.5,662.4 683.3,662.4 683.3,300.4 '/>
		<polygon fill = 'rgb( 31, 120, 180)' fill-opacity = '0.250000' points = '683.3,300.4 683.3,662.4 685.2,662.4 685.2,303.7 '/>
		<polygon fill = 'rgb( 31, 120, 180)' fill-opacity = '0.250000' points = '685.2,303.7 685.2,662.4 687.1,662.4 687.1,307.1 '/>
		<polygon fill = 'rgb( 31, 120, 180)' fill-opacity = '0.250000' points = '687.1,307.1 687.1,662.4 689.0,662.4 689.0,310.5 '/>
		<polygon fill = 'rgb( 31, 120, 180)' fill-opacity = '0.250000' points = '689.0,310.5 689.0,662.4 690.9,662.4 690.9,313.9 '/>
		<polygon fill = 'rgb( 31, 120, 180)' fill-opacity = '0.250000' points = '690.9,313.9 690.9,662.4 692.8,662.4 692.8,317.4 '/>
		<polygon fill = 'rgb( 31, 120, 180)' fill-opacity = '0.250000' points = '692.8,317.4 692.8,662.4 694.7,662.4 694.7,320.9 '/>
		<polygon fill = 'rgb( 31, 120, 180)' fill-opacity = '0.250000' points = '694.7,320.9 694.7,662.4 696.6,662.4 696.6,324.5 '/>
		<polygon fill = 'rgb( 31, 120, 180)' fill-opacity = '0.250000' points = '696.6,324.5 696.6,662.4 698.4,662.4 698.4,328.0 '/>
		<polygon fill = 'rgb( 31, 120, 180)' fill-opacity = '0.250000' points = '698.4,328.0 698.4,662.4 700.3,662.4 700.3,331.5 '/>
		<polygon fill = 'rgb( 31, 120, 180)' fill-opacity = '0.250000' points = '700.3,331.5 700.3,662.4 702.2,662.4 702.2,335.0 '/>
		<polygon fill = 'rgb( 31, 120, 180)' fill-opacity = '0.250000' points = '702.2,335.0 702.2,662.4 704.1,662.4 704.1,338.6 '/>
		<polygon fill = 'rgb( 31, 120, 180)' fill-opacity = '0.250000' points = '704.1,338.6 704.1,662.4 706.0,662.4 706.0,342.1 '/>
		<polygon fill = 'rgb( 31, 120, 180)' fill-opacity = '0.250000' points = '706.0,342.1 706.0,662.4 707.9,662.4 707.9,345.5 '/>
		<polygon fill = 'rgb( 31, 120, 180)' fill-opacity = '0.250000' points = '707.9,345.5 707.9,662.4 709.8,662.4 709.8,349.0 '/>
		<polygon fill = 'rgb( 31, 120, 180)' fill-opacity = '0.250000' points = '709.8,349.0 709.8,662.4 711.7,662.4 711.7,352.4 '/>
		<polygon fill = 'rgb( 31, 120, 180)' fill-opacity = '0.250000' points = '711.7,352.4 711.7,662.4 713.5,662.4 713.5,355.8 '/>
		<polygon fill = 'rgb( 31, 120, 180)' fill-opacity = '0.250000' points = '713.5,355.8 713.5,662.4 715.4,662.4 715.4,359.2 '/>
		<polygon fill = 'rgb( 31, 120, 180)' fill-opacity = '0.250000' points = '715.4,359.2 715.4,662.4 717.3,662.4 717.3,362.5 '/>
		<polygon fill = 'rgb( 31, 120, 180)' fill-opacity = '0.250000' points = '717.3,362.5 717.3,662.4 719.2,662.4 719.2,365.9 '/>
		<polygon fill = 'rgb( 31, 120, 180)' fill-opacity = '0.250000' points = '719.2,365.9 719.2,662.4 721.1,662.4 721.1,369.2 '/>
		<polygon fill = 'rgb( 31, 120, 180)' fill-opacity = '0.250000' points = '721.1,369.2 721.1,662.4 723.0,662.4 723.0,372.4 '/>
		<polygon fill = 'rgb( 31, 120, 180)' fill-opacity = '0.250000' points = '723.0,372.4 723.0,662.4 724.9,662.4 724.9,375.7 '/>
		<polygon fill = 'rgb( 31, 120, 180)' fill-opacity = '0.250000' points = '724.9,375.7 724.9,662.4 726.7,662.4 726.7,378.9 '/>
		<polygon fill = 'rgb( 31, 120, 180)' fill-opacity = '0.250000' points = '726.7,378.9 726.7,662.4 728.6,662.4 728.6,382.2 '/>
		<polygon fill = 'rgb( 31, 120, 180)' fill-opacity = '0.250000' points = '728.6,382.2 728.6,662.4 730.5,662.4 730.5,385.4 '/>
		<polygon fill = 'rgb( 31, 120, 180)' fill-opacity = '0.250000' points = '730.5,385.4 730.5,662.4 732.4,662.4 732.4,388.6 '/>
		<polygon fill = 'rgb( 31, 120, 180)' fill-opacity = '0.250000' points = '732.4,388.6 732.4,662.4 734.3,662.4 734.3,391.8 '/>
		<polygon fill = 'rgb( 31, 120, 180)' fill-opacity = '0.250000' points = '734.3,391.8 734.3,662.4 736.2,662.4 736.2,394.9 '/>
		<polygon fill = 'rgb( 31, 120, 180)' fill-opacity = '0.250000' points = '736.2,394.9 736.2,662.4 738.1,662.4 738.1,398.1 '/>
		<polygon fill = 'rgb( 31, 120, 180)' fill-opacity = '0.250000' points = '738.1,398.1 738.1,662.4 740.0,662.4 740.0,401.3 '/>
		<polygon fill = 'rgb( 31, 120, 180)' fill-opacity = '0.250000' points = '740.0,401.3 740.0,662.4 741.8,662.4 741.8,404.5 '/>
		<polygon fill = 'rgb( 31, 120, 180)' fill-opacity = '0.250000' points = '741.8,404.5 741.8,662.4 743.7,662.4 743.7,407.6 '/>
		<polygon fill = 'rgb( 31, 120, 180)' fill-opacity = '0.250000' points = '743.7,407.6 743.7,662.4 745.6,662.4 745.6,410.8 '/>
		<polygon fill = 'rgb( 31, 120, 180)' fill-opacity = '0.250000' points = '745.6,410.8 745.6,662.4 747.5,662.4 747.5,413.9 '/>
		<polygon fill = 'rgb( 31, 120, 180)' fill-opacity = '0.250000' points = '747.5,413.9 747.5,662.4 749.4,662.4 749.4,417.0 '/>
		<polygon fill = 'rgb( 31, 120, 180)' fill-opacity = '0.250000' points = '749.4,417.0 749.4,662.4 751.3,662.4 751.3,420.1 '/>
		<polygon fill = 'rgb( 31, 120, 180)' fill-opacity = '0.250000' points = '751.3,420.1 751.3,662.4 753.2,662.4 753.2,423.2 '/>
		<polygon fill = 'rgb( 31, 120, 180)' fill-opacity = '0.250000' points = '753.2,423.2 753.2,662.4 755.1,662.4 755.1,426.3 '/>
		<polygon fill = 'rgb( 31, 120, 180)' fill-opacity = '0.250000' points = '755.1,426.3 755.1,662.4 756.9,662.4 756.9,429.3 '/>
		<polygon fill = 'rgb( 31, 120, 180)' fill-opacity = '0.250000' points = '756.9,429.3 756.9,662.4 758.8,662.4 758.8,432.3 '/>
		<polygon fill = 'rgb( 31, 120, 180)' fill-opacity = '0.250000' points = '758.8,432.3 758.8,662.4 760.7,662.4 760.7,435.3 '/>
		<polygon fill = 'rgb( 31, 120, 180)' fill-opacity = '0.250000' points = '760.7,435.3 760.7,662.4 762.6,662.4 762.6,438.2 '/>
		<polygon fill = 'rgb( 31, 120, 180)' fill-opacity = '0.250000' points = '762.6,438.2 762.6,662.4 764.5,662.4 764.5,441.1 '/>
		<polygon fill = 'rgb( 31, 120, 180)' fill-opacity = '0.250000' points = '764.5,441.1 764.5,662.4 766.4,662.4 766.4,443.9 '/>
		<polygon fill = 'rgb( 31, 120, 180)' fill-opacity = '0.250000' points = '766.4,443.9 766.4,662.4 768.3,662.4 768.3,446.7 '/>
		<polygon fill = 'rgb( 31, 120, 180)' fill-opacity = '0.250000' points = '768.3,446.7 768.3,662.4 770.2,662.4 770.2,449.5 '/>
		<polygon fill = 'rgb( 31, 120, 180)' fill-opacity = '0.250000' points = '770.2,449.5 770.2,662.4 772.0,662.4 772.0,452.2 '/>
		<polygon fill = 'rgb( 31, 120, 180)' fill-opacity = '0.250000' points = '772.0,452.2 772.0,662.4 773.9,662.4 773.9,454.8 '/>
		<polygon fill = 'rgb( 31, 120, 180)' fill-opacity = '0.250000' points = '773.9,454.8 773.9,662.4 775.8,662.4 775.8,457.4 '/>
		<polygon fill = 'rgb( 31, 120, 180)' fill-opacity = '0.250000' points = '775.8,457.4 775.8,662.4 777.7,662.4 777.7,460.0 '/>
		<polygon fill = 'rgb( 31, 120, 180)' fill-opacity = '0.250000' points = '777.7,460.0 777.7,662.4 779.6,662.4 779.6,462.5 '/>
		<polygon fill = 'rgb( 31, 120, 180)' fill-opacity = '0.250000' points = '779.6,462.5 779.6,662.4 781.5,662.4 781.5,464.9 '/>
		<polygon fill = 'rgb( 31, 120, 180)' fill-opacity = '0.250000' points = '781.5,464.9 781.5,662.4 783.4,662.4 783.4,467.3 '/>
		<polygon fill = 'rgb( 31, 120, 180)' fill-opacity = '0.250000' points = '783.4,467.3 783.4,662.4 785.3,662.4 785.3,469.6 '/>
		<polygon fill = 'rgb( 31, 120, 180)' fill-opacity = '0.250000' points = '785.3,469.6 785.3,662.4 787.1,662.4 787.1,471.9 '/>
		<polygon fill = 'rgb( 31, 120, 180)' fill-opacity = '0.250000' points = '787.1,471.9 787.1,662.4 789.0,662.4 789.0,474.1 '/>
		<polygon fill = 'rgb( 31, 120, 180)' fill-opacity = '0.250000' points = '789.0,474.1 789.0,662.4 790.9,662.4 790.9,476.3 '/>
		<polygon fill = 'rgb( 31, 120, 180)' fill-opacity = '0.250000' points = '790.9,476.3 790.9,662.4 792.8,662.4 792.8,478.4 '/>
		<polygon fill = 'rgb( 31, 120, 180)' fill-opacity = '0.250000' points = '792.8,478.4 792.8,662.4 794.7,662.4 794.7,480.5 '/>
		<polygon fill = 'rgb( 31, 120, 180)' fill-opacity = '0.250000' points = '794.7,480.5 794.7,662.4 796.6,662.4 796.6,482.5 '/>
		<polygon fill = 'rgb( 31, 120, 180)' fill-opacity = '0.250000' points = '796.6,482.5 796.6,662.4 798.5,662.4 798.5,484.5 '/>
		<polygon fill = 'rgb( 31, 120, 180)' fill-opacity = '0.250000' points = '798.5,484.5 798.5,662.4 800.3,662.4 800.3,486.4 '/>
		<polygon fill = 'rgb( 31, 120, 180)' fill-opacity = '0.250000' points = '800.3,486.4 800.3,662.4 802.2,662.4 802.2,488.3 '/>
		<polygon fill = 'rgb( 31, 120, 180)' fill-opacity = '0.250000' points = '802.2,488.3 802.2,662.4 804.1,662.4 804.1,490.2 '/>
		<polygon fill = 'rgb( 31, 120, 180)' fill-opacity = '0.250000' points = '804.1,490.2 804.1,662.4 806.0,662.4 806.0,492.0 '/>
		<polygon fill = 'rgb( 31, 120, 180)' fill-opacity = '0.250000' points = '806.0,492.0 806.0,662.4 807.9,662.4 807.9,493.8 '/>
		<polygon fill = 'rgb( 31, 120, 180)' fill-opacity = '0.250000' points = '807.9,493.8 807.9,662.4 809.8,662.4 809.8,495.5 '/>
		<polygon fill = 'rgb( 31, 120, 180)' fill-opacity = '0.250000' points = '809.8,495.5 809.8,662.4 811.7,662.4 811.7,497.3 '/>
		<polygon fill = 'rgb( 31, 120, 180)' fill-opacity = '0.250000' points = '811.7,497.3 811.7,662.4 813.6,662.4 813.6,499.0 '/>
		<polygon fill = 'rgb( 31, 120, 180)' fill-opacity = '0.250000' points = '813.6,499.0 813.6,662.4 815.4,662.4 815.4,500.7 '/>
		<polygon fill = 'rgb( 31, 120, 180)' fill-opacity = '0.250000' points = '815.4,500.7 815.4,662.4 817.3,662.4 817.3,502.3 '/>
		<polygon fill = 'rgb( 31, 120, 180)' fill-opacity = '0.250000' points = '817.3,502.3 817.3,662.4 819.2,662.4 819.2,504.0 '/>
		<polygon fill = 'rgb( 31, 120, 180)' fill-opacity = '0.250000' points = '819.2,504.0 819.2,662.4 821.1,662.4 821.1,505.7 '/>
		<polygon fill = 'rgb( 31, 120, 180)' fill-opacity = '0.250000' points = '821.1,505.7 821.1,662.4 823.0,662.4 823.0,507.3 '/>
		<polygon fill = 'rgb( 31, 120, 180)' fill-opacity = '0.250000' points = '823.0,507.3 823.0,662.4 824.9,662.4 824.9,509.0 '/>
		<polygon fill = 'rgb( 31, 120, 180)' fill-opacity = '0.250000' points = '824.9,509.0 824.9,662.4 826.8,662.4 826.8,510.6 '/>
		<polygon fill = 'rgb( 31, 120, 180)' fill-opacity = '0.250000' points = '826.8,510.6 826.8,662.4 828.7,662.4 828.7,512.3 '/>
		<polygon fill = 'rgb( 31, 120, 180)' fill-opacity = '0.250000' points = '828.7,512.3 828.7,662.4 830.5,662.4 830.5,514.0 '/>
		<polygon fill = 'rgb( 31, 120, 180)' fill-opacity = '0.250000' points = '830.5,514.0 830.5,662.4 832.4,662.4 832.4,515.7 '/>
		<polygon fill = 'rgb( 31, 120, 180)' fill-opacity = '0.250000' points = '832.4,515.7 832.4,662.4 834.3,662.4 834.3,517.5 '/>
		<polygon fill = 'rgb( 31, 120, 180)' fill-opacity = '0.250000' points = '834.3,517.5 834.3,662.4 836.2,662.4 836.2,519.2 '/>
		<polygon fill = 'rgb( 31, 120, 180)' fill-opacity = '0.250000' points = '836.2,519.2 836.2,662.4 838.1,662.4 838.1,521.0 '/>
		<polygon fill = 'rgb( 31, 120, 180)' fill-opacity = '0.250000' points = '838.1,521.0 838.1,662.4 840.0,662.4 840.0,522.8 '/>
		<polygon fill = 'rgb( 31, 120, 180)' fill-opacity = '0.250000' points = '840.0,522.8 840.0,662.4 841.9,662.4 841.9,524.7 '/>
		<polygon fill = 'rgb( 31, 120, 180)' fill-opacity = '0.250000' points = '841.9,524.7 841.9,662.4 843.8,662.4 843.8,526.5 '/>
		<polygon fill = 'rgb( 31, 120, 180)' fill-opacity = '0.250000' points = '843.8,526.5 843.8,662.4 845.6,662.4 845.6,528.4 '/>
		<polygon fill = 'rgb( 31, 120, 180)' fill-opacity = '0.250000' points = '845.6,528.4 845.6,662.4 847.5,662.4 847.5,530.3 '/>
		<polygon fill = 'rgb( 31, 120, 180)' fill-opacity = '0.250000' points = '847.5,530.3 847.5,662.4 849.4,662.4 849.4,532.2 '/>
		<polygon fill = 'rgb( 31, 120, 180)' fill-opacity = '0.250000' points = '849.4,532.2 849.4,662.4 851.3,662.4 851.3,534.1 '/>
		<polygon fill = 'rgb( 31, 120, 180)' fill-opacity = '0.250000' points = '851.3,534.1 851.3,662.4 853.2,662.4 853.2,536.1 '/>
		<polygon fill = 'rgb( 31, 120, 180)' fill-opacity = '0.250000' points = '853.2,536.1 853.2,662.4 855.1,662.4 855.1,538.0 '/>
		<polygon fill = 'rgb( 31, 120, 180)' fill-opacity = '0.250000' points = '855.1,538.0 855.1,662.4 857.0,662.4 857.0,539.9 '/>
		<polygon fill = 'rgb( 31, 120, 180)' fill-opacity = '0.250000' points = '857.0,539.9 857.0,662.4 858.9,662.4 858.9,541.8 '/>
		<polygon fill = 'rgb( 31, 120, 180)' fill-opacity = '0.250000' points = '858.9,541.8 858.9,662.4 860.7,662.4 860.7,543.7 '/>
		<polygon fill = 'rgb( 31, 120, 180)' fill-opacity = '0.250000' points = '860.7,543.7 860.7,662.4 862.6,662.4 862.6,545.6 '/>
		<polygon fill = 'rgb( 31, 120, 180)' fill-opacity = '0.250000' points = '862.6,545.6 862.6,662.4 864.5,662.4 864.5,547.4 '/>
		<polygon fill = 'rgb( 31, 120, 180)' fill-opacity = '0.250000' points = '864.5,547.4 864.5,662.4 866.4,662.4 866.4,549.2 '/>
		<polygon fill = 'rgb( 31, 120, 180)' fill-opacity = '0.250000' points = '866.4,549.2 866.4,662.4 868.3,662.4 868.3,551.0 '/>
		<polygon fill = 'rgb( 31, 120, 180)' fill-opacity = '0.250000' points = '868.3,551.0 868.3,662.4 870.2,662.4 870.2,552.7 '/>
		<polygon fill = 'rgb( 31, 120, 180)' fill-opacity = '0.250000' points = '870.2,552.7 870.2,662.4 872.1,662.4 872.1,554.3 '/>
		<polygon fill = 'rgb( 31, 120, 180)' fill-opacity = '0.250000' points = '872.1,554.3 872.1,662.4 873.9,662.4 873.9,555.9 '/>
		<polygon fill = 'rgb( 31, 120, 180)' fill-opacity = '0.250000' points = '873.9,555.9 873.9,662.4 875.8,662.4 875.8,557.5 '/>
		<polygon fill = 'rgb( 31, 120, 180)' fill-opacity = '0.250000' points = '875.8,557.5 875.8,662.4 877.7,662.4 877.7,559.0 '/>
		<polygon fill = 'rgb( 31, 120, 180)' fill-opacity = '0.250000' points = '877.7,559.0 877.7,662.4 879.6,662.4 879.6,560.5 '/>
		<polygon fill = 'rgb( 31, 120, 180)' fill-opacity = '0.250000' points = '879.6,560.5 879.6,662.4 881.5,662.4 881.5,561.9 '/>
		<polygon fill = 'rgb( 31, 120, 180)' fill-opacity = '0.250000' points = '881.5,561.9 881.5,662.4 883.4,662.4 883.4,563.3 '/>
		<polygon fill = 'rgb( 31, 120, 180)' fill-opacity = '0.250000' points = '883.4,563.3 883.4,662.4 885.3,662.4 885.3,564.6 '/>
		<polygon fill = 'rgb( 31, 120, 180)' fill-opacity = '0.250000' points = '885.3,564.6 885.3,662.4 887.2,662.4 887.2,565.9 '/>
		<polygon fill = 'rgb( 31, 120, 180)' fill-opacity = '0.250000' points = '887.2,565.9 887.2,662.4 889.0,662.4 889.0,567.2 '/>
		<polygon fill = 'rgb( 31, 120, 180)' fill-opacity = '0.250000' points = '889.0,567.2 889.0,662.4 890.9,662.4 890.9,568.4 '/>
		<polygon fill = 'rgb( 31, 120, 180)' fill-opacity = '0.250000' points = '890.9,568.4 890.9,662.4 892.8,662.4 892.8,569.6 '/>
		<polygon fill = 'rgb( 31, 120, 180)' fill-opacity = '0.250000' points = '892.8,569.6 892.8,662.4 894.7,662.4 894.7,570.8 '/>
		<polygon fill = 'rgb( 31, 120, 180)' fill-opacity = '0.250000' points = '894.7,570.8 894.7,662.4 896.6,662.4 896.6,572.0 '/>
		<polygon fill = 'rgb( 31, 120, 180)' fill-opacity = '0.250000' points = '896.6,572.0 896.6,662.4 898.5,662.4 898.5,573.1 '/>
		<polygon fill = 'rgb( 31, 120, 180)' fill-opacity = '0.250000' points = '898.5,573.1 898.5,662.4 900.4,662.4 900.4,574.3 '/>
		<polygon fill = 'rgb( 31, 120, 180)' fill-opacity = '0.250000' points = '900.4,574.3 900.4,662.4 902.3,662.4 902.3,575.4 '/>
		<polygon fill = 'rgb( 31, 120, 180)' fill-opacity = '0.250000' points = '902.3,575.4 902.3,662.4 904.1,662.4 904.1,576.6 '/>
		<polygon fill = 'rgb( 31, 120, 180)' fill-opacity = '0.250000' points = '904.1,576.6 904.1,662.4 906.0,662.4 906.0,577.7 '/>
		<polygon fill = 'rgb( 31, 120, 180)' fill-opacity = '0.250000' points = '906.0,577.7 906.0,662.4 907.9,662.4 907.9,578.9 '/>
		<polygon fill = 'rgb( 31, 120, 180)' fill-opacity = '0.250000' points = '907.9,578.9 907.9,662.4 909.8,662.4 909.8,580.0 '/>
		<polygon fill = 'rgb( 31, 120, 180)' fill-opacity = '0.250000' points = '909.8,580.0 909.8,662.4 911.7,662.4 911.7,581.2 '/>
		<polygon fill = 'rgb( 31, 120, 180)' fill-opacity = '0.250000' points = '911.7,581.2 911.7,662.4 913.6,662.4 913.6,582.3 '/>
		<polygon fill = 'rgb( 31, 120, 180)' fill-opacity = '0.250000' points = '913.6,582.3 913.6,662.4 915.5,662.4 915.5,583.4 '/>
		<polygon fill = 'rgb( 31, 120, 180)' fill-opacity = '0.250000' points = '915.5,583.4 915.5,662.4 917.4,662.4 917.4,584.6 '/>
		<polygon fill = 'rgb( 31, 120, 180)' fill-opacity = '0.250000' points = '917.4,584.6 917.4,662.4 919.2,662.4 919.2,585.7 '/>
		<polygon fill = 'rgb( 31, 120, 180)' fill-opacity = '0.250000' points = '919.2,585.7 919.2,662.4 921.1,662.4 921.1,586.8 '/>
		<polygon fill = 'rgb( 31, 120, 180)' fill-opacity = '0.250000' points = '921.1,586.8 921.1,662.4 923.0,662.4 923.0,588.0 '/>
		<polygon fill = 'rgb( 31, 120, 180)' fill-opacity = '0.250000' points = '923.0,588.0 923.0,662.4 924.9,662.4 924.9,589.1 '/>
	</g>
</g>
	</g>
	<g id="gnuplot_plot_3" ><title>Point estimate</title>
<g fill="none" color="white" stroke="rgb( 31, 120, 180)" stroke-width="2.00" stroke-linecap="butt" stroke-linejoin="miter">
</g>
<g fill="none" color="black" stroke="currentColor" stroke-width="2.00" stroke-linecap="butt" stroke-linejoin="miter">
	<g transform="translate(1089.0,103.0)" stroke="none" fill="black" font-family="Helvetica" font-size="12.00"  text-anchor="start">
		<text><tspan font-family="Helvetica" >Point estimate</tspan></text>
	</g>
</g>
<g fill="none" color="black" stroke="currentColor" stroke-width="2.00" stroke-linecap="butt" stroke-linejoin="miter">
	<path stroke='rgb( 31, 120, 180)'  d='M1038.5,99.1 L1080.7,99.1 M504.5,662.4 L504.5,69.3  '/></g>
	</g>
<g fill="none" color="black" stroke="currentColor" stroke-width="2.00" stroke-linecap="butt" stroke-linejoin="miter">
</g>
<g fill="none" color="black" stroke="black" stroke-width="1.00" stroke-linecap="butt" stroke-linejoin="miter">
</g>
<g fill="none" color="black" stroke="currentColor" stroke-width="1.00" stroke-linecap="butt" stroke-linejoin="miter">
	<path stroke='black'  d='M71.9,54.1 L71.9,662.4 L1013.6,662.4 L1013.6,54.1 L71.9,54.1 Z  '/></g>
<g fill="none" color="black" stroke="currentColor" stroke-width="1.00" stroke-linecap="butt" stroke-linejoin="miter">
</g>
</g>
</svg>

