<?xml version="1.0" encoding="utf-8"  standalone="no"?>
<!DOCTYPE svg PUBLIC "-//W3C//DTD SVG 1.1//EN"
 "http://www.w3.org/Graphics/SVG/1.1/DTD/svg11.dtd">
<svg 
 viewBox="0 0 1280 720"
 xmlns="http://www.w3.org/2000/svg"
 xmlns:xlink="http://www.w3.org/1999/xlink"
>

<title>Gnuplot</title>
<desc>Produced by GNUPLOT 5.0 patchlevel 5 </desc>

<g id="gnuplot_canvas">

<rect x="0" y="0" width="1280" height="720" fill="none"/>
<defs>

	<circle id='gpDot' r='0.5' stroke-width='0.5'/>
	<path id='gpPt0' stroke-width='0.222' stroke='currentColor' d='M-1,0 h2 M0,-1 v2'/>
	<path id='gpPt1' stroke-width='0.222' stroke='currentColor' d='M-1,-1 L1,1 M1,-1 L-1,1'/>
	<path id='gpPt2' stroke-width='0.222' stroke='currentColor' d='M-1,0 L1,0 M0,-1 L0,1 M-1,-1 L1,1 M-1,1 L1,-1'/>
	<rect id='gpPt3' stroke-width='0.222' stroke='currentColor' x='-1' y='-1' width='2' height='2'/>
	<rect id='gpPt4' stroke-width='0.222' stroke='currentColor' fill='currentColor' x='-1' y='-1' width='2' height='2'/>
	<circle id='gpPt5' stroke-width='0.222' stroke='currentColor' cx='0' cy='0' r='1'/>
	<use xlink:href='#gpPt5' id='gpPt6' fill='currentColor' stroke='none'/>
	<path id='gpPt7' stroke-width='0.222' stroke='currentColor' d='M0,-1.33 L-1.33,0.67 L1.33,0.67 z'/>
	<use xlink:href='#gpPt7' id='gpPt8' fill='currentColor' stroke='none'/>
	<use xlink:href='#gpPt7' id='gpPt9' stroke='currentColor' transform='rotate(180)'/>
	<use xlink:href='#gpPt9' id='gpPt10' fill='currentColor' stroke='none'/>
	<use xlink:href='#gpPt3' id='gpPt11' stroke='currentColor' transform='rotate(45)'/>
	<use xlink:href='#gpPt11' id='gpPt12' fill='currentColor' stroke='none'/>
	<path id='gpPt13' stroke-width='0.222' stroke='currentColor' d='M0,1.330 L1.265,0.411 L0.782,-1.067 L-0.782,-1.076 L-1.265,0.411 z'/>
	<use xlink:href='#gpPt13' id='gpPt14' fill='currentColor' stroke='none'/>
	<filter id='textbox' filterUnits='objectBoundingBox' x='0' y='0' height='1' width='1'>
	  <feFlood flood-color='white' flood-opacity='1' result='bgnd'/>
	  <feComposite in='SourceGraphic' in2='bgnd' operator='atop'/>
	</filter>
	<filter id='greybox' filterUnits='objectBoundingBox' x='0' y='0' height='1' width='1'>
	  <feFlood flood-color='lightgrey' flood-opacity='1' result='grey'/>
	  <feComposite in='SourceGraphic' in2='grey' operator='atop'/>
	</filter>
</defs>
<g fill="none" color="white" stroke="currentColor" stroke-width="1.00" stroke-linecap="butt" stroke-linejoin="miter">
</g>
<g fill="none" color="black" stroke="currentColor" stroke-width="1.00" stroke-linecap="butt" stroke-linejoin="miter">
	<path stroke='black'  d='M71.9,662.4 L80.9,662.4  '/>	<g transform="translate(63.6,666.3)" stroke="none" fill="black" font-family="Helvetica" font-size="12.00"  text-anchor="end">
		<text><tspan font-family="Helvetica" > 0</tspan></text>
	</g>
</g>
<g fill="none" color="black" stroke="currentColor" stroke-width="1.00" stroke-linecap="butt" stroke-linejoin="miter">
	<path stroke='black'  d='M71.9,601.6 L80.9,601.6  '/>	<g transform="translate(63.6,605.5)" stroke="none" fill="black" font-family="Helvetica" font-size="12.00"  text-anchor="end">
		<text><tspan font-family="Helvetica" > 10</tspan></text>
	</g>
</g>
<g fill="none" color="black" stroke="currentColor" stroke-width="1.00" stroke-linecap="butt" stroke-linejoin="miter">
	<path stroke='black'  d='M71.9,540.7 L80.9,540.7  '/>	<g transform="translate(63.6,544.6)" stroke="none" fill="black" font-family="Helvetica" font-size="12.00"  text-anchor="end">
		<text><tspan font-family="Helvetica" > 20</tspan></text>
	</g>
</g>
<g fill="none" color="black" stroke="currentColor" stroke-width="1.00" stroke-linecap="butt" stroke-linejoin="miter">
	<path stroke='black'  d='M71.9,479.9 L80.9,479.9  '/>	<g transform="translate(63.6,483.8)" stroke="none" fill="black" font-family="Helvetica" font-size="12.00"  text-anchor="end">
		<text><tspan font-family="Helvetica" > 30</tspan></text>
	</g>
</g>
<g fill="none" color="black" stroke="currentColor" stroke-width="1.00" stroke-linecap="butt" stroke-linejoin="miter">
	<path stroke='black'  d='M71.9,419.1 L80.9,419.1  '/>	<g transform="translate(63.6,423.0)" stroke="none" fill="black" font-family="Helvetica" font-size="12.00"  text-anchor="end">
		<text><tspan font-family="Helvetica" > 40</tspan></text>
	</g>
</g>
<g fill="none" color="black" stroke="currentColor" stroke-width="1.00" stroke-linecap="butt" stroke-linejoin="miter">
	<path stroke='black'  d='M71.9,358.2 L80.9,358.2  '/>	<g transform="translate(63.6,362.1)" stroke="none" fill="black" font-family="Helvetica" font-size="12.00"  text-anchor="end">
		<text><tspan font-family="Helvetica" > 50</tspan></text>
	</g>
</g>
<g fill="none" color="black" stroke="currentColor" stroke-width="1.00" stroke-linecap="butt" stroke-linejoin="miter">
	<path stroke='black'  d='M71.9,297.4 L80.9,297.4  '/>	<g transform="translate(63.6,301.3)" stroke="none" fill="black" font-family="Helvetica" font-size="12.00"  text-anchor="end">
		<text><tspan font-family="Helvetica" > 60</tspan></text>
	</g>
</g>
<g fill="none" color="black" stroke="currentColor" stroke-width="1.00" stroke-linecap="butt" stroke-linejoin="miter">
	<path stroke='black'  d='M71.9,236.6 L80.9,236.6  '/>	<g transform="translate(63.6,240.5)" stroke="none" fill="black" font-family="Helvetica" font-size="12.00"  text-anchor="end">
		<text><tspan font-family="Helvetica" > 70</tspan></text>
	</g>
</g>
<g fill="none" color="black" stroke="currentColor" stroke-width="1.00" stroke-linecap="butt" stroke-linejoin="miter">
	<path stroke='black'  d='M71.9,175.8 L80.9,175.8  '/>	<g transform="translate(63.6,179.7)" stroke="none" fill="black" font-family="Helvetica" font-size="12.00"  text-anchor="end">
		<text><tspan font-family="Helvetica" > 80</tspan></text>
	</g>
</g>
<g fill="none" color="black" stroke="currentColor" stroke-width="1.00" stroke-linecap="butt" stroke-linejoin="miter">
	<path stroke='black'  d='M71.9,114.9 L80.9,114.9  '/>	<g transform="translate(63.6,118.8)" stroke="none" fill="black" font-family="Helvetica" font-size="12.00"  text-anchor="end">
		<text><tspan font-family="Helvetica" > 90</tspan></text>
	</g>
</g>
<g fill="none" color="black" stroke="currentColor" stroke-width="1.00" stroke-linecap="butt" stroke-linejoin="miter">
	<path stroke='black'  d='M71.9,54.1 L80.9,54.1  '/>	<g transform="translate(63.6,58.0)" stroke="none" fill="black" font-family="Helvetica" font-size="12.00"  text-anchor="end">
		<text><tspan font-family="Helvetica" > 100</tspan></text>
	</g>
</g>
<g fill="none" color="black" stroke="currentColor" stroke-width="1.00" stroke-linecap="butt" stroke-linejoin="miter">
	<path stroke='black'  d='M213.6,662.4 L213.6,653.4  '/>	<g transform="translate(213.6,684.3)" stroke="none" fill="black" font-family="Helvetica" font-size="12.00"  text-anchor="middle">
		<text><tspan font-family="Helvetica" >-5.5</tspan></text>
	</g>
</g>
<g fill="none" color="black" stroke="currentColor" stroke-width="1.00" stroke-linecap="butt" stroke-linejoin="miter">
	<path stroke='black'  d='M439.5,662.4 L439.5,653.4  '/>	<g transform="translate(439.5,684.3)" stroke="none" fill="black" font-family="Helvetica" font-size="12.00"  text-anchor="middle">
		<text><tspan font-family="Helvetica" >-5</tspan></text>
	</g>
</g>
<g fill="none" color="black" stroke="currentColor" stroke-width="1.00" stroke-linecap="butt" stroke-linejoin="miter">
	<path stroke='black'  d='M665.5,662.4 L665.5,653.4  '/>	<g transform="translate(665.5,684.3)" stroke="none" fill="black" font-family="Helvetica" font-size="12.00"  text-anchor="middle">
		<text><tspan font-family="Helvetica" >-4.5</tspan></text>
	</g>
</g>
<g fill="none" color="black" stroke="currentColor" stroke-width="1.00" stroke-linecap="butt" stroke-linejoin="miter">
	<path stroke='black'  d='M891.4,662.4 L891.4,653.4  '/>	<g transform="translate(891.4,684.3)" stroke="none" fill="black" font-family="Helvetica" font-size="12.00"  text-anchor="middle">
		<text><tspan font-family="Helvetica" >-4</tspan></text>
	</g>
</g>
<g fill="none" color="black" stroke="currentColor" stroke-width="1.00" stroke-linecap="butt" stroke-linejoin="miter">
</g>
<g fill="none" color="black" stroke="currentColor" stroke-width="1.00" stroke-linecap="butt" stroke-linejoin="miter">
	<path stroke='black'  d='M71.9,54.1 L71.9,662.4 L1013.6,662.4 L1013.6,54.1 L71.9,54.1 Z  '/></g>
<g fill="none" color="black" stroke="currentColor" stroke-width="1.00" stroke-linecap="butt" stroke-linejoin="miter">
	<g transform="translate(17.0,358.3) rotate(270)" stroke="none" fill="black" font-family="Helvetica" font-size="12.00"  text-anchor="middle">
		<text><tspan font-family="Helvetica" >Density (a.u.)</tspan></text>
	</g>
</g>
<g fill="none" color="black" stroke="currentColor" stroke-width="1.00" stroke-linecap="butt" stroke-linejoin="miter">
	<g transform="translate(542.7,711.3)" stroke="none" fill="black" font-family="Helvetica" font-size="12.00"  text-anchor="middle">
		<text><tspan font-family="Helvetica" >Relative change (%)</tspan></text>
	</g>
</g>
<g fill="none" color="black" stroke="currentColor" stroke-width="1.00" stroke-linecap="butt" stroke-linejoin="miter">
	<g transform="translate(542.7,31.0)" stroke="none" fill="black" font-family="Helvetica" font-size="12.00"  text-anchor="middle">
		<text><tspan font-family="Helvetica" >dlist arc ghostcell par (×4): mean</tspan></text>
	</g>
</g>
	<g id="gnuplot_plot_1" ><title>Bootstrap distribution</title>
<g fill="none" color="white" stroke="black" stroke-width="2.00" stroke-linecap="butt" stroke-linejoin="miter">
</g>
<g fill="none" color="black" stroke="currentColor" stroke-width="2.00" stroke-linecap="butt" stroke-linejoin="miter">
	<g transform="translate(1089.0,67.0)" stroke="none" fill="black" font-family="Helvetica" font-size="12.00"  text-anchor="start">
		<text><tspan font-family="Helvetica" >Bootstrap distribution</tspan></text>
	</g>
</g>
<g fill="none" color="black" stroke="currentColor" stroke-width="2.00" stroke-linecap="butt" stroke-linejoin="miter">
	<path stroke='rgb( 31, 120, 180)'  d='M1038.5,63.1 L1080.7,63.1 M71.9,629.6 L73.8,628.9 L75.7,628.2 L77.6,627.5 L79.4,626.8 L81.3,626.0
		L83.2,625.3 L85.1,624.6 L87.0,623.8 L88.9,623.1 L90.8,622.3 L92.7,621.6 L94.5,620.8 L96.4,620.1
		L98.3,619.3 L100.2,618.6 L102.1,617.9 L104.0,617.1 L105.9,616.4 L107.8,615.7 L109.6,615.0 L111.5,614.2
		L113.4,613.5 L115.3,612.8 L117.2,612.0 L119.1,611.2 L121.0,610.5 L122.9,609.7 L124.7,608.8 L126.6,608.0
		L128.5,607.1 L130.4,606.2 L132.3,605.3 L134.2,604.3 L136.1,603.2 L138.0,602.2 L139.8,601.1 L141.7,599.9
		L143.6,598.7 L145.5,597.5 L147.4,596.2 L149.3,594.9 L151.2,593.6 L153.0,592.3 L154.9,590.9 L156.8,589.5
		L158.7,588.1 L160.6,586.6 L162.5,585.2 L164.4,583.7 L166.3,582.3 L168.1,580.8 L170.0,579.4 L171.9,577.9
		L173.8,576.4 L175.7,574.9 L177.6,573.4 L179.5,571.8 L181.4,570.3 L183.2,568.7 L185.1,567.1 L187.0,565.5
		L188.9,563.8 L190.8,562.1 L192.7,560.4 L194.6,558.6 L196.5,556.8 L198.3,554.9 L200.2,553.0 L202.1,551.1
		L204.0,549.1 L205.9,547.1 L207.8,545.0 L209.7,543.0 L211.6,540.9 L213.4,538.8 L215.3,536.8 L217.2,534.7
		L219.1,532.6 L221.0,530.5 L222.9,528.4 L224.8,526.4 L226.6,524.3 L228.5,522.3 L230.4,520.3 L232.3,518.2
		L234.2,516.2 L236.1,514.2 L238.0,512.2 L239.9,510.1 L241.7,508.1 L243.6,506.0 L245.5,503.9 L247.4,501.8
		L249.3,499.6 L251.2,497.4 L253.1,495.2 L255.0,492.9 L256.8,490.5 L258.7,488.1 L260.6,485.7 L262.5,483.2
		L264.4,480.7 L266.3,478.1 L268.2,475.5 L270.1,472.8 L271.9,470.1 L273.8,467.3 L275.7,464.6 L277.6,461.8
		L279.5,459.0 L281.4,456.2 L283.3,453.3 L285.2,450.5 L287.0,447.7 L288.9,444.9 L290.8,442.0 L292.7,439.2
		L294.6,436.4 L296.5,433.6 L298.4,430.8 L300.2,428.0 L302.1,425.2 L304.0,422.4 L305.9,419.5 L307.8,416.6
		L309.7,413.7 L311.6,410.8 L313.5,407.8 L315.3,404.7 L317.2,401.7 L319.1,398.5 L321.0,395.4 L322.9,392.2
		L324.8,389.0 L326.7,385.7 L328.6,382.5 L330.4,379.2 L332.3,376.0 L334.2,372.7 L336.1,369.5 L338.0,366.3
		L339.9,363.2 L341.8,360.0 L343.7,357.0 L345.5,354.0 L347.4,351.0 L349.3,348.1 L351.2,345.2 L353.1,342.4
		L355.0,339.6 L356.9,336.8 L358.8,334.0 L360.6,331.3 L362.5,328.5 L364.4,325.7 L366.3,322.9 L368.2,320.1
		L370.1,317.2 L372.0,314.2 L373.8,311.3 L375.7,308.2 L377.6,305.2 L379.5,302.0 L381.4,298.8 L383.3,295.6
		L385.2,292.4 L387.1,289.1 L388.9,285.8 L390.8,282.4 L392.7,279.1 L394.6,275.8 L396.5,272.6 L398.4,269.3
		L400.3,266.1 L402.2,263.0 L404.0,259.9 L405.9,256.9 L407.8,254.0 L409.7,251.1 L411.6,248.3 L413.5,245.6
		L415.4,243.0 L417.3,240.4 L419.1,237.8 L421.0,235.3 L422.9,232.8 L424.8,230.4 L426.7,227.9 L428.6,225.5
		L430.5,223.0 L432.4,220.5 L434.2,218.1 L436.1,215.5 L438.0,213.0 L439.9,210.4 L441.8,207.8 L443.7,205.1
		L445.6,202.4 L447.4,199.7 L449.3,197.0 L451.2,194.2 L453.1,191.5 L455.0,188.7 L456.9,185.9 L458.8,183.2
		L460.7,180.5 L462.5,177.8 L464.4,175.1 L466.3,172.5 L468.2,169.9 L470.1,167.4 L472.0,164.9 L473.9,162.5
		L475.8,160.1 L477.6,157.8 L479.5,155.5 L481.4,153.3 L483.3,151.2 L485.2,149.1 L487.1,147.1 L489.0,145.1
		L490.9,143.2 L492.7,141.3 L494.6,139.4 L496.5,137.5 L498.4,135.7 L500.3,133.9 L502.2,132.1 L504.1,130.2
		L506.0,128.4 L507.8,126.5 L509.7,124.7 L511.6,122.8 L513.5,120.9 L515.4,119.0 L517.3,117.1 L519.2,115.2
		L521.0,113.3 L522.9,111.4 L524.8,109.6 L526.7,107.7 L528.6,106.0 L530.5,104.3 L532.4,102.6 L534.3,101.0
		L536.1,99.6 L538.0,98.2 L539.9,97.0 L541.8,95.8 L543.7,94.9 L545.6,94.0 L547.5,93.3 L549.4,92.7
		L551.2,92.3 L553.1,92.0 L555.0,91.8 L556.9,91.8 L558.8,91.9 L560.7,92.1 L562.6,92.4 L564.5,92.8
		L566.3,93.3 L568.2,93.9 L570.1,94.6 L572.0,95.3 L573.9,96.1 L575.8,97.0 L577.7,97.9 L579.5,98.8
		L581.4,99.7 L583.3,100.7 L585.2,101.7 L587.1,102.7 L589.0,103.8 L590.9,104.8 L592.8,105.9 L594.6,106.9
		L596.5,108.0 L598.4,109.1 L600.3,110.1 L602.2,111.2 L604.1,112.3 L606.0,113.4 L607.9,114.6 L609.7,115.7
		L611.6,116.9 L613.5,118.2 L615.4,119.5 L617.3,120.9 L619.2,122.3 L621.1,123.8 L623.0,125.3 L624.8,127.0
		L626.7,128.7 L628.6,130.5 L630.5,132.3 L632.4,134.3 L634.3,136.3 L636.2,138.4 L638.1,140.5 L639.9,142.7
		L641.8,144.9 L643.7,147.1 L645.6,149.4 L647.5,151.7 L649.4,154.0 L651.3,156.3 L653.1,158.6 L655.0,160.9
		L656.9,163.2 L658.8,165.6 L660.7,167.9 L662.6,170.2 L664.5,172.5 L666.4,174.9 L668.2,177.2 L670.1,179.6
		L672.0,182.1 L673.9,184.5 L675.8,187.0 L677.7,189.5 L679.6,192.1 L681.5,194.8 L683.3,197.4 L685.2,200.2
		L687.1,203.0 L689.0,205.8 L690.9,208.7 L692.8,211.6 L694.7,214.5 L696.6,217.5 L698.4,220.4 L700.3,223.5
		L702.2,226.5 L704.1,229.5 L706.0,232.5 L707.9,235.6 L709.8,238.6 L711.7,241.7 L713.5,244.7 L715.4,247.8
		L717.3,250.9 L719.2,254.0 L721.1,257.1 L723.0,260.2 L724.9,263.4 L726.7,266.6 L728.6,269.8 L730.5,273.1
		L732.4,276.4 L734.3,279.8 L736.2,283.2 L738.1,286.6 L740.0,290.2 L741.8,293.7 L743.7,297.3 L745.6,301.0
		L747.5,304.7 L749.4,308.4 L751.3,312.2 L753.2,316.0 L755.1,319.8 L756.9,323.6 L758.8,327.5 L760.7,331.3
		L762.6,335.1 L764.5,338.9 L766.4,342.7 L768.3,346.5 L770.2,350.3 L772.0,354.0 L773.9,357.7 L775.8,361.3
		L777.7,365.0 L779.6,368.5 L781.5,372.1 L783.4,375.6 L785.3,379.0 L787.1,382.4 L789.0,385.8 L790.9,389.1
		L792.8,392.4 L794.7,395.7 L796.6,398.9 L798.5,402.0 L800.3,405.2 L802.2,408.3 L804.1,411.3 L806.0,414.4
		L807.9,417.4 L809.8,420.3 L811.7,423.3 L813.6,426.1 L815.4,429.0 L817.3,431.8 L819.2,434.6 L821.1,437.4
		L823.0,440.2 L824.9,442.9 L826.8,445.6 L828.7,448.4 L830.5,451.1 L832.4,453.8 L834.3,456.5 L836.2,459.3
		L838.1,462.0 L840.0,464.8 L841.9,467.6 L843.8,470.4 L845.6,473.3 L847.5,476.2 L849.4,479.1 L851.3,482.1
		L853.2,485.1 L855.1,488.1 L857.0,491.2 L858.9,494.2 L860.7,497.3 L862.6,500.3 L864.5,503.4 L866.4,506.4
		L868.3,509.5 L870.2,512.5 L872.1,515.4 L873.9,518.3 L875.8,521.2 L877.7,524.0 L879.6,526.7 L881.5,529.3
		L883.4,531.9 L885.3,534.4 L887.2,536.9 L889.0,539.2 L890.9,541.5 L892.8,543.8 L894.7,545.9 L896.6,548.0
		L898.5,550.0 L900.4,552.0 L902.3,553.9 L904.1,555.7 L906.0,557.5 L907.9,559.3 L909.8,561.1 L911.7,562.8
		L913.6,564.5 L915.5,566.1 L917.4,567.8 L919.2,569.5 L921.1,571.1 L923.0,572.7 L924.9,574.4 L926.8,576.0
		L928.7,577.6 L930.6,579.2 L932.5,580.9 L934.3,582.5 L936.2,584.1 L938.1,585.7 L940.0,587.3 L941.9,588.9
		L943.8,590.4 L945.7,592.0 L947.5,593.5 L949.4,595.0 L951.3,596.5 L953.2,598.0 L955.1,599.4 L957.0,600.8
		L958.9,602.1 L960.8,603.5 L962.6,604.8 L964.5,606.0 L966.4,607.2 L968.3,608.4 L970.2,609.5 L972.1,610.6
		L974.0,611.7 L975.9,612.7 L977.7,613.7 L979.6,614.6 L981.5,615.5 L983.4,616.4 L985.3,617.3 L987.2,618.1
		L989.1,618.9 L991.0,619.7 L992.8,620.5 L994.7,621.3 L996.6,622.1 L998.5,622.8 L1000.4,623.6 L1002.3,624.3
		L1004.2,625.1 L1006.1,625.9 L1007.9,626.6 L1009.8,627.4 L1011.7,628.2 L1013.6,629.0  '/></g>
	</g>
	<g id="gnuplot_plot_2" ><title>Confidence interval</title>
<g fill="none" color="white" stroke="rgb( 31, 120, 180)" stroke-width="1.00" stroke-linecap="butt" stroke-linejoin="miter">
</g>
<g fill="none" color="black" stroke="currentColor" stroke-width="1.00" stroke-linecap="butt" stroke-linejoin="miter">
	<g transform="translate(1089.0,85.0)" stroke="none" fill="black" font-family="Helvetica" font-size="12.00"  text-anchor="start">
		<text><tspan font-family="Helvetica" >Confidence interval</tspan></text>
	</g>
</g>
<g fill="none" color="black" stroke="currentColor" stroke-width="1.00" stroke-linecap="butt" stroke-linejoin="miter">
	<g stroke='none' shape-rendering='crispEdges'>
		<polygon fill = 'rgb( 31, 120, 180)' fill-opacity = '0.250000' points = '1038.5,85.6 1080.7,85.6 1080.7,76.6 1038.5,76.6 '/>
		<polygon fill = 'rgb( 31, 120, 180)' fill-opacity = '0.250000' points = '158.7,588.1 158.7,662.4 160.6,662.4 160.6,586.6 '/>
		<polygon fill = 'rgb( 31, 120, 180)' fill-opacity = '0.250000' points = '160.6,586.6 160.6,662.4 162.5,662.4 162.5,585.2 '/>
		<polygon fill = 'rgb( 31, 120, 180)' fill-opacity = '0.250000' points = '162.5,585.2 162.5,662.4 164.4,662.4 164.4,583.7 '/>
		<polygon fill = 'rgb( 31, 120, 180)' fill-opacity = '0.250000' points = '164.4,583.7 164.4,662.4 166.3,662.4 166.3,582.3 '/>
		<polygon fill = 'rgb( 31, 120, 180)' fill-opacity = '0.250000' points = '166.3,582.3 166.3,662.4 168.1,662.4 168.1,580.8 '/>
		<polygon fill = 'rgb( 31, 120, 180)' fill-opacity = '0.250000' points = '168.1,580.8 168.1,662.4 170.0,662.4 170.0,579.4 '/>
		<polygon fill = 'rgb( 31, 120, 180)' fill-opacity = '0.250000' points = '170.0,579.4 170.0,662.4 171.9,662.4 171.9,577.9 '/>
		<polygon fill = 'rgb( 31, 120, 180)' fill-opacity = '0.250000' points = '171.9,577.9 171.9,662.4 173.8,662.4 173.8,576.4 '/>
		<polygon fill = 'rgb( 31, 120, 180)' fill-opacity = '0.250000' points = '173.8,576.4 173.8,662.4 175.7,662.4 175.7,574.9 '/>
		<polygon fill = 'rgb( 31, 120, 180)' fill-opacity = '0.250000' points = '175.7,574.9 175.7,662.4 177.6,662.4 177.6,573.4 '/>
		<polygon fill = 'rgb( 31, 120, 180)' fill-opacity = '0.250000' points = '177.6,573.4 177.6,662.4 179.5,662.4 179.5,571.8 '/>
		<polygon fill = 'rgb( 31, 120, 180)' fill-opacity = '0.250000' points = '179.5,571.8 179.5,662.4 181.4,662.4 181.4,570.3 '/>
		<polygon fill = 'rgb( 31, 120, 180)' fill-opacity = '0.250000' points = '181.4,570.3 181.4,662.4 183.2,662.4 183.2,568.7 '/>
		<polygon fill = 'rgb( 31, 120, 180)' fill-opacity = '0.250000' points = '183.2,568.7 183.2,662.4 185.1,662.4 185.1,567.1 '/>
		<polygon fill = 'rgb( 31, 120, 180)' fill-opacity = '0.250000' points = '185.1,567.1 185.1,662.4 187.0,662.4 187.0,565.5 '/>
		<polygon fill = 'rgb( 31, 120, 180)' fill-opacity = '0.250000' points = '187.0,565.5 187.0,662.4 188.9,662.4 188.9,563.8 '/>
		<polygon fill = 'rgb( 31, 120, 180)' fill-opacity = '0.250000' points = '188.9,563.8 188.9,662.4 190.8,662.4 190.8,562.1 '/>
		<polygon fill = 'rgb( 31, 120, 180)' fill-opacity = '0.250000' points = '190.8,562.1 190.8,662.4 192.7,662.4 192.7,560.4 '/>
		<polygon fill = 'rgb( 31, 120, 180)' fill-opacity = '0.250000' points = '192.7,560.4 192.7,662.4 194.6,662.4 194.6,558.6 '/>
		<polygon fill = 'rgb( 31, 120, 180)' fill-opacity = '0.250000' points = '194.6,558.6 194.6,662.4 196.5,662.4 196.5,556.8 '/>
		<polygon fill = 'rgb( 31, 120, 180)' fill-opacity = '0.250000' points = '196.5,556.8 196.5,662.4 198.3,662.4 198.3,554.9 '/>
		<polygon fill = 'rgb( 31, 120, 180)' fill-opacity = '0.250000' points = '198.3,554.9 198.3,662.4 200.2,662.4 200.2,553.0 '/>
		<polygon fill = 'rgb( 31, 120, 180)' fill-opacity = '0.250000' points = '200.2,553.0 200.2,662.4 202.1,662.4 202.1,551.1 '/>
		<polygon fill = 'rgb( 31, 120, 180)' fill-opacity = '0.250000' points = '202.1,551.1 202.1,662.4 204.0,662.4 204.0,549.1 '/>
		<polygon fill = 'rgb( 31, 120, 180)' fill-opacity = '0.250000' points = '204.0,549.1 204.0,662.4 205.9,662.4 205.9,547.1 '/>
		<polygon fill = 'rgb( 31, 120, 180)' fill-opacity = '0.250000' points = '205.9,547.1 205.9,662.4 207.8,662.4 207.8,545.0 '/>
		<polygon fill = 'rgb( 31, 120, 180)' fill-opacity = '0.250000' points = '207.8,545.0 207.8,662.4 209.7,662.4 209.7,543.0 '/>
		<polygon fill = 'rgb( 31, 120, 180)' fill-opacity = '0.250000' points = '209.7,543.0 209.7,662.4 211.6,662.4 211.6,540.9 '/>
		<polygon fill = 'rgb( 31, 120, 180)' fill-opacity = '0.250000' points = '211.6,540.9 211.6,662.4 213.4,662.4 213.4,538.8 '/>
		<polygon fill = 'rgb( 31, 120, 180)' fill-opacity = '0.250000' points = '213.4,538.8 213.4,662.4 215.3,662.4 215.3,536.8 '/>
		<polygon fill = 'rgb( 31, 120, 180)' fill-opacity = '0.250000' points = '215.3,536.8 215.3,662.4 217.2,662.4 217.2,534.7 '/>
		<polygon fill = 'rgb( 31, 120, 180)' fill-opacity = '0.250000' points = '217.2,534.7 217.2,662.4 219.1,662.4 219.1,532.6 '/>
		<polygon fill = 'rgb( 31, 120, 180)' fill-opacity = '0.250000' points = '219.1,532.6 219.1,662.4 221.0,662.4 221.0,530.5 '/>
		<polygon fill = 'rgb( 31, 120, 180)' fill-opacity = '0.250000' points = '221.0,530.5 221.0,662.4 222.9,662.4 222.9,528.4 '/>
		<polygon fill = 'rgb( 31, 120, 180)' fill-opacity = '0.250000' points = '222.9,528.4 222.9,662.4 224.8,662.4 224.8,526.4 '/>
		<polygon fill = 'rgb( 31, 120, 180)' fill-opacity = '0.250000' points = '224.8,526.4 224.8,662.4 226.6,662.4 226.6,524.3 '/>
		<polygon fill = 'rgb( 31, 120, 180)' fill-opacity = '0.250000' points = '226.6,524.3 226.6,662.4 228.5,662.4 228.5,522.3 '/>
		<polygon fill = 'rgb( 31, 120, 180)' fill-opacity = '0.250000' points = '228.5,522.3 228.5,662.4 230.4,662.4 230.4,520.3 '/>
		<polygon fill = 'rgb( 31, 120, 180)' fill-opacity = '0.250000' points = '230.4,520.3 230.4,662.4 232.3,662.4 232.3,518.2 '/>
		<polygon fill = 'rgb( 31, 120, 180)' fill-opacity = '0.250000' points = '232.3,518.2 232.3,662.4 234.2,662.4 234.2,516.2 '/>
		<polygon fill = 'rgb( 31, 120, 180)' fill-opacity = '0.250000' points = '234.2,516.2 234.2,662.4 236.1,662.4 236.1,514.2 '/>
		<polygon fill = 'rgb( 31, 120, 180)' fill-opacity = '0.250000' points = '236.1,514.2 236.1,662.4 238.0,662.4 238.0,512.2 '/>
		<polygon fill = 'rgb( 31, 120, 180)' fill-opacity = '0.250000' points = '238.0,512.2 238.0,662.4 239.9,662.4 239.9,510.1 '/>
		<polygon fill = 'rgb( 31, 120, 180)' fill-opacity = '0.250000' points = '239.9,510.1 239.9,662.4 241.7,662.4 241.7,508.1 '/>
		<polygon fill = 'rgb( 31, 120, 180)' fill-opacity = '0.250000' points = '241.7,508.1 241.7,662.4 243.6,662.4 243.6,506.0 '/>
		<polygon fill = 'rgb( 31, 120, 180)' fill-opacity = '0.250000' points = '243.6,506.0 243.6,662.4 245.5,662.4 245.5,503.9 '/>
		<polygon fill = 'rgb( 31, 120, 180)' fill-opacity = '0.250000' points = '245.5,503.9 245.5,662.4 247.4,662.4 247.4,501.8 '/>
		<polygon fill = 'rgb( 31, 120, 180)' fill-opacity = '0.250000' points = '247.4,501.8 247.4,662.4 249.3,662.4 249.3,499.6 '/>
		<polygon fill = 'rgb( 31, 120, 180)' fill-opacity = '0.250000' points = '249.3,499.6 249.3,662.4 251.2,662.4 251.2,497.4 '/>
		<polygon fill = 'rgb( 31, 120, 180)' fill-opacity = '0.250000' points = '251.2,497.4 251.2,662.4 253.1,662.4 253.1,495.2 '/>
		<polygon fill = 'rgb( 31, 120, 180)' fill-opacity = '0.250000' points = '253.1,495.2 253.1,662.4 255.0,662.4 255.0,492.9 '/>
		<polygon fill = 'rgb( 31, 120, 180)' fill-opacity = '0.250000' points = '255.0,492.9 255.0,662.4 256.8,662.4 256.8,490.5 '/>
		<polygon fill = 'rgb( 31, 120, 180)' fill-opacity = '0.250000' points = '256.8,490.5 256.8,662.4 258.7,662.4 258.7,488.1 '/>
		<polygon fill = 'rgb( 31, 120, 180)' fill-opacity = '0.250000' points = '258.7,488.1 258.7,662.4 260.6,662.4 260.6,485.7 '/>
		<polygon fill = 'rgb( 31, 120, 180)' fill-opacity = '0.250000' points = '260.6,485.7 260.6,662.4 262.5,662.4 262.5,483.2 '/>
		<polygon fill = 'rgb( 31, 120, 180)' fill-opacity = '0.250000' points = '262.5,483.2 262.5,662.4 264.4,662.4 264.4,480.7 '/>
		<polygon fill = 'rgb( 31, 120, 180)' fill-opacity = '0.250000' points = '264.4,480.7 264.4,662.4 266.3,662.4 266.3,478.1 '/>
		<polygon fill = 'rgb( 31, 120, 180)' fill-opacity = '0.250000' points = '266.3,478.1 266.3,662.4 268.2,662.4 268.2,475.5 '/>
		<polygon fill = 'rgb( 31, 120, 180)' fill-opacity = '0.250000' points = '268.2,475.5 268.2,662.4 270.1,662.4 270.1,472.8 '/>
		<polygon fill = 'rgb( 31, 120, 180)' fill-opacity = '0.250000' points = '270.1,472.8 270.1,662.4 271.9,662.4 271.9,470.1 '/>
		<polygon fill = 'rgb( 31, 120, 180)' fill-opacity = '0.250000' points = '271.9,470.1 271.9,662.4 273.8,662.4 273.8,467.3 '/>
		<polygon fill = 'rgb( 31, 120, 180)' fill-opacity = '0.250000' points = '273.8,467.3 273.8,662.4 275.7,662.4 275.7,464.6 '/>
		<polygon fill = 'rgb( 31, 120, 180)' fill-opacity = '0.250000' points = '275.7,464.6 275.7,662.4 277.6,662.4 277.6,461.8 '/>
		<polygon fill = 'rgb( 31, 120, 180)' fill-opacity = '0.250000' points = '277.6,461.8 277.6,662.4 279.5,662.4 279.5,459.0 '/>
		<polygon fill = 'rgb( 31, 120, 180)' fill-opacity = '0.250000' points = '279.5,459.0 279.5,662.4 281.4,662.4 281.4,456.2 '/>
		<polygon fill = 'rgb( 31, 120, 180)' fill-opacity = '0.250000' points = '281.4,456.2 281.4,662.4 283.3,662.4 283.3,453.3 '/>
		<polygon fill = 'rgb( 31, 120, 180)' fill-opacity = '0.250000' points = '283.3,453.3 283.3,662.4 285.2,662.4 285.2,450.5 '/>
		<polygon fill = 'rgb( 31, 120, 180)' fill-opacity = '0.250000' points = '285.2,450.5 285.2,662.4 287.0,662.4 287.0,447.7 '/>
		<polygon fill = 'rgb( 31, 120, 180)' fill-opacity = '0.250000' points = '287.0,447.7 287.0,662.4 288.9,662.4 288.9,444.9 '/>
		<polygon fill = 'rgb( 31, 120, 180)' fill-opacity = '0.250000' points = '288.9,444.9 288.9,662.4 290.8,662.4 290.8,442.0 '/>
		<polygon fill = 'rgb( 31, 120, 180)' fill-opacity = '0.250000' points = '290.8,442.0 290.8,662.4 292.7,662.4 292.7,439.2 '/>
		<polygon fill = 'rgb( 31, 120, 180)' fill-opacity = '0.250000' points = '292.7,439.2 292.7,662.4 294.6,662.4 294.6,436.4 '/>
		<polygon fill = 'rgb( 31, 120, 180)' fill-opacity = '0.250000' points = '294.6,436.4 294.6,662.4 296.5,662.4 296.5,433.6 '/>
		<polygon fill = 'rgb( 31, 120, 180)' fill-opacity = '0.250000' points = '296.5,433.6 296.5,662.4 298.4,662.4 298.4,430.8 '/>
		<polygon fill = 'rgb( 31, 120, 180)' fill-opacity = '0.250000' points = '298.4,430.8 298.4,662.4 300.2,662.4 300.2,428.0 '/>
		<polygon fill = 'rgb( 31, 120, 180)' fill-opacity = '0.250000' points = '300.2,428.0 300.2,662.4 302.1,662.4 302.1,425.2 '/>
		<polygon fill = 'rgb( 31, 120, 180)' fill-opacity = '0.250000' points = '302.1,425.2 302.1,662.4 304.0,662.4 304.0,422.4 '/>
		<polygon fill = 'rgb( 31, 120, 180)' fill-opacity = '0.250000' points = '304.0,422.4 304.0,662.4 305.9,662.4 305.9,419.5 '/>
		<polygon fill = 'rgb( 31, 120, 180)' fill-opacity = '0.250000' points = '305.9,419.5 305.9,662.4 307.8,662.4 307.8,416.6 '/>
		<polygon fill = 'rgb( 31, 120, 180)' fill-opacity = '0.250000' points = '307.8,416.6 307.8,662.4 309.7,662.4 309.7,413.7 '/>
		<polygon fill = 'rgb( 31, 120, 180)' fill-opacity = '0.250000' points = '309.7,413.7 309.7,662.4 311.6,662.4 311.6,410.8 '/>
		<polygon fill = 'rgb( 31, 120, 180)' fill-opacity = '0.250000' points = '311.6,410.8 311.6,662.4 313.5,662.4 313.5,407.8 '/>
		<polygon fill = 'rgb( 31, 120, 180)' fill-opacity = '0.250000' points = '313.5,407.8 313.5,662.4 315.3,662.4 315.3,404.7 '/>
		<polygon fill = 'rgb( 31, 120, 180)' fill-opacity = '0.250000' points = '315.3,404.7 315.3,662.4 317.2,662.4 317.2,401.7 '/>
		<polygon fill = 'rgb( 31, 120, 180)' fill-opacity = '0.250000' points = '317.2,401.7 317.2,662.4 319.1,662.4 319.1,398.5 '/>
		<polygon fill = 'rgb( 31, 120, 180)' fill-opacity = '0.250000' points = '319.1,398.5 319.1,662.4 321.0,662.4 321.0,395.4 '/>
		<polygon fill = 'rgb( 31, 120, 180)' fill-opacity = '0.250000' points = '321.0,395.4 321.0,662.4 322.9,662.4 322.9,392.2 '/>
		<polygon fill = 'rgb( 31, 120, 180)' fill-opacity = '0.250000' points = '322.9,392.2 322.9,662.4 324.8,662.4 324.8,389.0 '/>
		<polygon fill = 'rgb( 31, 120, 180)' fill-opacity = '0.250000' points = '324.8,389.0 324.8,662.4 326.7,662.4 326.7,385.7 '/>
		<polygon fill = 'rgb( 31, 120, 180)' fill-opacity = '0.250000' points = '326.7,385.7 326.7,662.4 328.6,662.4 328.6,382.5 '/>
		<polygon fill = 'rgb( 31, 120, 180)' fill-opacity = '0.250000' points = '328.6,382.5 328.6,662.4 330.4,662.4 330.4,379.2 '/>
		<polygon fill = 'rgb( 31, 120, 180)' fill-opacity = '0.250000' points = '330.4,379.2 330.4,662.4 332.3,662.4 332.3,376.0 '/>
		<polygon fill = 'rgb( 31, 120, 180)' fill-opacity = '0.250000' points = '332.3,376.0 332.3,662.4 334.2,662.4 334.2,372.7 '/>
		<polygon fill = 'rgb( 31, 120, 180)' fill-opacity = '0.250000' points = '334.2,372.7 334.2,662.4 336.1,662.4 336.1,369.5 '/>
		<polygon fill = 'rgb( 31, 120, 180)' fill-opacity = '0.250000' points = '336.1,369.5 336.1,662.4 338.0,662.4 338.0,366.3 '/>
		<polygon fill = 'rgb( 31, 120, 180)' fill-opacity = '0.250000' points = '338.0,366.3 338.0,662.4 339.9,662.4 339.9,363.2 '/>
		<polygon fill = 'rgb( 31, 120, 180)' fill-opacity = '0.250000' points = '339.9,363.2 339.9,662.4 341.8,662.4 341.8,360.0 '/>
		<polygon fill = 'rgb( 31, 120, 180)' fill-opacity = '0.250000' points = '341.8,360.0 341.8,662.4 343.7,662.4 343.7,357.0 '/>
		<polygon fill = 'rgb( 31, 120, 180)' fill-opacity = '0.250000' points = '343.7,357.0 343.7,662.4 345.5,662.4 345.5,354.0 '/>
		<polygon fill = 'rgb( 31, 120, 180)' fill-opacity = '0.250000' points = '345.5,354.0 345.5,662.4 347.4,662.4 347.4,351.0 '/>
		<polygon fill = 'rgb( 31, 120, 180)' fill-opacity = '0.250000' points = '347.4,351.0 347.4,662.4 349.3,662.4 349.3,348.1 '/>
		<polygon fill = 'rgb( 31, 120, 180)' fill-opacity = '0.250000' points = '349.3,348.1 349.3,662.4 351.2,662.4 351.2,345.2 '/>
		<polygon fill = 'rgb( 31, 120, 180)' fill-opacity = '0.250000' points = '351.2,345.2 351.2,662.4 353.1,662.4 353.1,342.4 '/>
		<polygon fill = 'rgb( 31, 120, 180)' fill-opacity = '0.250000' points = '353.1,342.4 353.1,662.4 355.0,662.4 355.0,339.6 '/>
		<polygon fill = 'rgb( 31, 120, 180)' fill-opacity = '0.250000' points = '355.0,339.6 355.0,662.4 356.9,662.4 356.9,336.8 '/>
		<polygon fill = 'rgb( 31, 120, 180)' fill-opacity = '0.250000' points = '356.9,336.8 356.9,662.4 358.8,662.4 358.8,334.0 '/>
		<polygon fill = 'rgb( 31, 120, 180)' fill-opacity = '0.250000' points = '358.8,334.0 358.8,662.4 360.6,662.4 360.6,331.3 '/>
		<polygon fill = 'rgb( 31, 120, 180)' fill-opacity = '0.250000' points = '360.6,331.3 360.6,662.4 362.5,662.4 362.5,328.5 '/>
		<polygon fill = 'rgb( 31, 120, 180)' fill-opacity = '0.250000' points = '362.5,328.5 362.5,662.4 364.4,662.4 364.4,325.7 '/>
		<polygon fill = 'rgb( 31, 120, 180)' fill-opacity = '0.250000' points = '364.4,325.7 364.4,662.4 366.3,662.4 366.3,322.9 '/>
		<polygon fill = 'rgb( 31, 120, 180)' fill-opacity = '0.250000' points = '366.3,322.9 366.3,662.4 368.2,662.4 368.2,320.1 '/>
		<polygon fill = 'rgb( 31, 120, 180)' fill-opacity = '0.250000' points = '368.2,320.1 368.2,662.4 370.1,662.4 370.1,317.2 '/>
		<polygon fill = 'rgb( 31, 120, 180)' fill-opacity = '0.250000' points = '370.1,317.2 370.1,662.4 372.0,662.4 372.0,314.2 '/>
		<polygon fill = 'rgb( 31, 120, 180)' fill-opacity = '0.250000' points = '372.0,314.2 372.0,662.4 373.8,662.4 373.8,311.3 '/>
		<polygon fill = 'rgb( 31, 120, 180)' fill-opacity = '0.250000' points = '373.8,311.3 373.8,662.4 375.7,662.4 375.7,308.2 '/>
		<polygon fill = 'rgb( 31, 120, 180)' fill-opacity = '0.250000' points = '375.7,308.2 375.7,662.4 377.6,662.4 377.6,305.2 '/>
		<polygon fill = 'rgb( 31, 120, 180)' fill-opacity = '0.250000' points = '377.6,305.2 377.6,662.4 379.5,662.4 379.5,302.0 '/>
		<polygon fill = 'rgb( 31, 120, 180)' fill-opacity = '0.250000' points = '379.5,302.0 379.5,662.4 381.4,662.4 381.4,298.8 '/>
		<polygon fill = 'rgb( 31, 120, 180)' fill-opacity = '0.250000' points = '381.4,298.8 381.4,662.4 383.3,662.4 383.3,295.6 '/>
		<polygon fill = 'rgb( 31, 120, 180)' fill-opacity = '0.250000' points = '383.3,295.6 383.3,662.4 385.2,662.4 385.2,292.4 '/>
		<polygon fill = 'rgb( 31, 120, 180)' fill-opacity = '0.250000' points = '385.2,292.4 385.2,662.4 387.1,662.4 387.1,289.1 '/>
		<polygon fill = 'rgb( 31, 120, 180)' fill-opacity = '0.250000' points = '387.1,289.1 387.1,662.4 388.9,662.4 388.9,285.8 '/>
		<polygon fill = 'rgb( 31, 120, 180)' fill-opacity = '0.250000' points = '388.9,285.8 388.9,662.4 390.8,662.4 390.8,282.4 '/>
		<polygon fill = 'rgb( 31, 120, 180)' fill-opacity = '0.250000' points = '390.8,282.4 390.8,662.4 392.7,662.4 392.7,279.1 '/>
		<polygon fill = 'rgb( 31, 120, 180)' fill-opacity = '0.250000' points = '392.7,279.1 392.7,662.4 394.6,662.4 394.6,275.8 '/>
		<polygon fill = 'rgb( 31, 120, 180)' fill-opacity = '0.250000' points = '394.6,275.8 394.6,662.4 396.5,662.4 396.5,272.6 '/>
		<polygon fill = 'rgb( 31, 120, 180)' fill-opacity = '0.250000' points = '396.5,272.6 396.5,662.4 398.4,662.4 398.4,269.3 '/>
		<polygon fill = 'rgb( 31, 120, 180)' fill-opacity = '0.250000' points = '398.4,269.3 398.4,662.4 400.3,662.4 400.3,266.1 '/>
		<polygon fill = 'rgb( 31, 120, 180)' fill-opacity = '0.250000' points = '400.3,266.1 400.3,662.4 402.2,662.4 402.2,263.0 '/>
		<polygon fill = 'rgb( 31, 120, 180)' fill-opacity = '0.250000' points = '402.2,263.0 402.2,662.4 404.0,662.4 404.0,259.9 '/>
		<polygon fill = 'rgb( 31, 120, 180)' fill-opacity = '0.250000' points = '404.0,259.9 404.0,662.4 405.9,662.4 405.9,256.9 '/>
		<polygon fill = 'rgb( 31, 120, 180)' fill-opacity = '0.250000' points = '405.9,256.9 405.9,662.4 407.8,662.4 407.8,254.0 '/>
		<polygon fill = 'rgb( 31, 120, 180)' fill-opacity = '0.250000' points = '407.8,254.0 407.8,662.4 409.7,662.4 409.7,251.1 '/>
		<polygon fill = 'rgb( 31, 120, 180)' fill-opacity = '0.250000' points = '409.7,251.1 409.7,662.4 411.6,662.4 411.6,248.3 '/>
		<polygon fill = 'rgb( 31, 120, 180)' fill-opacity = '0.250000' points = '411.6,248.3 411.6,662.4 413.5,662.4 413.5,245.6 '/>
		<polygon fill = 'rgb( 31, 120, 180)' fill-opacity = '0.250000' points = '413.5,245.6 413.5,662.4 415.4,662.4 415.4,243.0 '/>
		<polygon fill = 'rgb( 31, 120, 180)' fill-opacity = '0.250000' points = '415.4,243.0 415.4,662.4 417.3,662.4 417.3,240.4 '/>
		<polygon fill = 'rgb( 31, 120, 180)' fill-opacity = '0.250000' points = '417.3,240.4 417.3,662.4 419.1,662.4 419.1,237.8 '/>
		<polygon fill = 'rgb( 31, 120, 180)' fill-opacity = '0.250000' points = '419.1,237.8 419.1,662.4 421.0,662.4 421.0,235.3 '/>
		<polygon fill = 'rgb( 31, 120, 180)' fill-opacity = '0.250000' points = '421.0,235.3 421.0,662.4 422.9,662.4 422.9,232.8 '/>
		<polygon fill = 'rgb( 31, 120, 180)' fill-opacity = '0.250000' points = '422.9,232.8 422.9,662.4 424.8,662.4 424.8,230.4 '/>
		<polygon fill = 'rgb( 31, 120, 180)' fill-opacity = '0.250000' points = '424.8,230.4 424.8,662.4 426.7,662.4 426.7,227.9 '/>
		<polygon fill = 'rgb( 31, 120, 180)' fill-opacity = '0.250000' points = '426.7,227.9 426.7,662.4 428.6,662.4 428.6,225.5 '/>
		<polygon fill = 'rgb( 31, 120, 180)' fill-opacity = '0.250000' points = '428.6,225.5 428.6,662.4 430.5,662.4 430.5,223.0 '/>
		<polygon fill = 'rgb( 31, 120, 180)' fill-opacity = '0.250000' points = '430.5,223.0 430.5,662.4 432.4,662.4 432.4,220.5 '/>
		<polygon fill = 'rgb( 31, 120, 180)' fill-opacity = '0.250000' points = '432.4,220.5 432.4,662.4 434.2,662.4 434.2,218.1 '/>
		<polygon fill = 'rgb( 31, 120, 180)' fill-opacity = '0.250000' points = '434.2,218.1 434.2,662.4 436.1,662.4 436.1,215.5 '/>
		<polygon fill = 'rgb( 31, 120, 180)' fill-opacity = '0.250000' points = '436.1,215.5 436.1,662.4 438.0,662.4 438.0,213.0 '/>
		<polygon fill = 'rgb( 31, 120, 180)' fill-opacity = '0.250000' points = '438.0,213.0 438.0,662.4 439.9,662.4 439.9,210.4 '/>
		<polygon fill = 'rgb( 31, 120, 180)' fill-opacity = '0.250000' points = '439.9,210.4 439.9,662.4 441.8,662.4 441.8,207.8 '/>
		<polygon fill = 'rgb( 31, 120, 180)' fill-opacity = '0.250000' points = '441.8,207.8 441.8,662.4 443.7,662.4 443.7,205.1 '/>
		<polygon fill = 'rgb( 31, 120, 180)' fill-opacity = '0.250000' points = '443.7,205.1 443.7,662.4 445.6,662.4 445.6,202.4 '/>
		<polygon fill = 'rgb( 31, 120, 180)' fill-opacity = '0.250000' points = '445.6,202.4 445.6,662.4 447.4,662.4 447.4,199.7 '/>
		<polygon fill = 'rgb( 31, 120, 180)' fill-opacity = '0.250000' points = '447.4,199.7 447.4,662.4 449.3,662.4 449.3,197.0 '/>
		<polygon fill = 'rgb( 31, 120, 180)' fill-opacity = '0.250000' points = '449.3,197.0 449.3,662.4 451.2,662.4 451.2,194.2 '/>
		<polygon fill = 'rgb( 31, 120, 180)' fill-opacity = '0.250000' points = '451.2,194.2 451.2,662.4 453.1,662.4 453.1,191.5 '/>
		<polygon fill = 'rgb( 31, 120, 180)' fill-opacity = '0.250000' points = '453.1,191.5 453.1,662.4 455.0,662.4 455.0,188.7 '/>
		<polygon fill = 'rgb( 31, 120, 180)' fill-opacity = '0.250000' points = '455.0,188.7 455.0,662.4 456.9,662.4 456.9,185.9 '/>
		<polygon fill = 'rgb( 31, 120, 180)' fill-opacity = '0.250000' points = '456.9,185.9 456.9,662.4 458.8,662.4 458.8,183.2 '/>
		<polygon fill = 'rgb( 31, 120, 180)' fill-opacity = '0.250000' points = '458.8,183.2 458.8,662.4 460.7,662.4 460.7,180.5 '/>
		<polygon fill = 'rgb( 31, 120, 180)' fill-opacity = '0.250000' points = '460.7,180.5 460.7,662.4 462.5,662.4 462.5,177.8 '/>
		<polygon fill = 'rgb( 31, 120, 180)' fill-opacity = '0.250000' points = '462.5,177.8 462.5,662.4 464.4,662.4 464.4,175.1 '/>
		<polygon fill = 'rgb( 31, 120, 180)' fill-opacity = '0.250000' points = '464.4,175.1 464.4,662.4 466.3,662.4 466.3,172.5 '/>
		<polygon fill = 'rgb( 31, 120, 180)' fill-opacity = '0.250000' points = '466.3,172.5 466.3,662.4 468.2,662.4 468.2,169.9 '/>
		<polygon fill = 'rgb( 31, 120, 180)' fill-opacity = '0.250000' points = '468.2,169.9 468.2,662.4 470.1,662.4 470.1,167.4 '/>
		<polygon fill = 'rgb( 31, 120, 180)' fill-opacity = '0.250000' points = '470.1,167.4 470.1,662.4 472.0,662.4 472.0,164.9 '/>
		<polygon fill = 'rgb( 31, 120, 180)' fill-opacity = '0.250000' points = '472.0,164.9 472.0,662.4 473.9,662.4 473.9,162.5 '/>
		<polygon fill = 'rgb( 31, 120, 180)' fill-opacity = '0.250000' points = '473.9,162.5 473.9,662.4 475.8,662.4 475.8,160.1 '/>
		<polygon fill = 'rgb( 31, 120, 180)' fill-opacity = '0.250000' points = '475.8,160.1 475.8,662.4 477.6,662.4 477.6,157.8 '/>
		<polygon fill = 'rgb( 31, 120, 180)' fill-opacity = '0.250000' points = '477.6,157.8 477.6,662.4 479.5,662.4 479.5,155.5 '/>
		<polygon fill = 'rgb( 31, 120, 180)' fill-opacity = '0.250000' points = '479.5,155.5 479.5,662.4 481.4,662.4 481.4,153.3 '/>
		<polygon fill = 'rgb( 31, 120, 180)' fill-opacity = '0.250000' points = '481.4,153.3 481.4,662.4 483.3,662.4 483.3,151.2 '/>
		<polygon fill = 'rgb( 31, 120, 180)' fill-opacity = '0.250000' points = '483.3,151.2 483.3,662.4 485.2,662.4 485.2,149.1 '/>
		<polygon fill = 'rgb( 31, 120, 180)' fill-opacity = '0.250000' points = '485.2,149.1 485.2,662.4 487.1,662.4 487.1,147.1 '/>
		<polygon fill = 'rgb( 31, 120, 180)' fill-opacity = '0.250000' points = '487.1,147.1 487.1,662.4 489.0,662.4 489.0,145.1 '/>
		<polygon fill = 'rgb( 31, 120, 180)' fill-opacity = '0.250000' points = '489.0,145.1 489.0,662.4 490.9,662.4 490.9,143.2 '/>
		<polygon fill = 'rgb( 31, 120, 180)' fill-opacity = '0.250000' points = '490.9,143.2 490.9,662.4 492.7,662.4 492.7,141.3 '/>
		<polygon fill = 'rgb( 31, 120, 180)' fill-opacity = '0.250000' points = '492.7,141.3 492.7,662.4 494.6,662.4 494.6,139.4 '/>
		<polygon fill = 'rgb( 31, 120, 180)' fill-opacity = '0.250000' points = '494.6,139.4 494.6,662.4 496.5,662.4 496.5,137.5 '/>
		<polygon fill = 'rgb( 31, 120, 180)' fill-opacity = '0.250000' points = '496.5,137.5 496.5,662.4 498.4,662.4 498.4,135.7 '/>
		<polygon fill = 'rgb( 31, 120, 180)' fill-opacity = '0.250000' points = '498.4,135.7 498.4,662.4 500.3,662.4 500.3,133.9 '/>
		<polygon fill = 'rgb( 31, 120, 180)' fill-opacity = '0.250000' points = '500.3,133.9 500.3,662.4 502.2,662.4 502.2,132.1 '/>
		<polygon fill = 'rgb( 31, 120, 180)' fill-opacity = '0.250000' points = '502.2,132.1 502.2,662.4 504.1,662.4 504.1,130.2 '/>
		<polygon fill = 'rgb( 31, 120, 180)' fill-opacity = '0.250000' points = '504.1,130.2 504.1,662.4 506.0,662.4 506.0,128.4 '/>
		<polygon fill = 'rgb( 31, 120, 180)' fill-opacity = '0.250000' points = '506.0,128.4 506.0,662.4 507.8,662.4 507.8,126.5 '/>
		<polygon fill = 'rgb( 31, 120, 180)' fill-opacity = '0.250000' points = '507.8,126.5 507.8,662.4 509.7,662.4 509.7,124.7 '/>
		<polygon fill = 'rgb( 31, 120, 180)' fill-opacity = '0.250000' points = '509.7,124.7 509.7,662.4 511.6,662.4 511.6,122.8 '/>
		<polygon fill = 'rgb( 31, 120, 180)' fill-opacity = '0.250000' points = '511.6,122.8 511.6,662.4 513.5,662.4 513.5,120.9 '/>
		<polygon fill = 'rgb( 31, 120, 180)' fill-opacity = '0.250000' points = '513.5,120.9 513.5,662.4 515.4,662.4 515.4,119.0 '/>
		<polygon fill = 'rgb( 31, 120, 180)' fill-opacity = '0.250000' points = '515.4,119.0 515.4,662.4 517.3,662.4 517.3,117.1 '/>
		<polygon fill = 'rgb( 31, 120, 180)' fill-opacity = '0.250000' points = '517.3,117.1 517.3,662.4 519.2,662.4 519.2,115.2 '/>
		<polygon fill = 'rgb( 31, 120, 180)' fill-opacity = '0.250000' points = '519.2,115.2 519.2,662.4 521.0,662.4 521.0,113.3 '/>
		<polygon fill = 'rgb( 31, 120, 180)' fill-opacity = '0.250000' points = '521.0,113.3 521.0,662.4 522.9,662.4 522.9,111.4 '/>
		<polygon fill = 'rgb( 31, 120, 180)' fill-opacity = '0.250000' points = '522.9,111.4 522.9,662.4 524.8,662.4 524.8,109.6 '/>
		<polygon fill = 'rgb( 31, 120, 180)' fill-opacity = '0.250000' points = '524.8,109.6 524.8,662.4 526.7,662.4 526.7,107.7 '/>
		<polygon fill = 'rgb( 31, 120, 180)' fill-opacity = '0.250000' points = '526.7,107.7 526.7,662.4 528.6,662.4 528.6,106.0 '/>
		<polygon fill = 'rgb( 31, 120, 180)' fill-opacity = '0.250000' points = '528.6,106.0 528.6,662.4 530.5,662.4 530.5,104.3 '/>
		<polygon fill = 'rgb( 31, 120, 180)' fill-opacity = '0.250000' points = '530.5,104.3 530.5,662.4 532.4,662.4 532.4,102.6 '/>
		<polygon fill = 'rgb( 31, 120, 180)' fill-opacity = '0.250000' points = '532.4,102.6 532.4,662.4 534.3,662.4 534.3,101.0 '/>
		<polygon fill = 'rgb( 31, 120, 180)' fill-opacity = '0.250000' points = '534.3,101.0 534.3,662.4 536.1,662.4 536.1,99.6 '/>
		<polygon fill = 'rgb( 31, 120, 180)' fill-opacity = '0.250000' points = '536.1,99.6 536.1,662.4 538.0,662.4 538.0,98.2 '/>
		<polygon fill = 'rgb( 31, 120, 180)' fill-opacity = '0.250000' points = '538.0,98.2 538.0,662.4 539.9,662.4 539.9,97.0 '/>
		<polygon fill = 'rgb( 31, 120, 180)' fill-opacity = '0.250000' points = '539.9,97.0 539.9,662.4 541.8,662.4 541.8,95.8 '/>
		<polygon fill = 'rgb( 31, 120, 180)' fill-opacity = '0.250000' points = '541.8,95.8 541.8,662.4 543.7,662.4 543.7,94.9 '/>
		<polygon fill = 'rgb( 31, 120, 180)' fill-opacity = '0.250000' points = '543.7,94.9 543.7,662.4 545.6,662.4 545.6,94.0 '/>
		<polygon fill = 'rgb( 31, 120, 180)' fill-opacity = '0.250000' points = '545.6,94.0 545.6,662.4 547.5,662.4 547.5,93.3 '/>
		<polygon fill = 'rgb( 31, 120, 180)' fill-opacity = '0.250000' points = '547.5,93.3 547.5,662.4 549.4,662.4 549.4,92.7 '/>
		<polygon fill = 'rgb( 31, 120, 180)' fill-opacity = '0.250000' points = '549.4,92.7 549.4,662.4 551.2,662.4 551.2,92.3 '/>
		<polygon fill = 'rgb( 31, 120, 180)' fill-opacity = '0.250000' points = '551.2,92.3 551.2,662.4 553.1,662.4 553.1,92.0 '/>
		<polygon fill = 'rgb( 31, 120, 180)' fill-opacity = '0.250000' points = '553.1,92.0 553.1,662.4 555.0,662.4 555.0,91.8 '/>
		<polygon fill = 'rgb( 31, 120, 180)' fill-opacity = '0.250000' points = '555.0,91.8 555.0,662.4 556.9,662.4 556.9,91.8 '/>
		<polygon fill = 'rgb( 31, 120, 180)' fill-opacity = '0.250000' points = '556.9,91.8 556.9,662.4 558.8,662.4 558.8,91.9 '/>
		<polygon fill = 'rgb( 31, 120, 180)' fill-opacity = '0.250000' points = '558.8,91.9 558.8,662.4 560.7,662.4 560.7,92.1 '/>
		<polygon fill = 'rgb( 31, 120, 180)' fill-opacity = '0.250000' points = '560.7,92.1 560.7,662.4 562.6,662.4 562.6,92.4 '/>
		<polygon fill = 'rgb( 31, 120, 180)' fill-opacity = '0.250000' points = '562.6,92.4 562.6,662.4 564.5,662.4 564.5,92.8 '/>
		<polygon fill = 'rgb( 31, 120, 180)' fill-opacity = '0.250000' points = '564.5,92.8 564.5,662.4 566.3,662.4 566.3,93.3 '/>
		<polygon fill = 'rgb( 31, 120, 180)' fill-opacity = '0.250000' points = '566.3,93.3 566.3,662.4 568.2,662.4 568.2,93.9 '/>
		<polygon fill = 'rgb( 31, 120, 180)' fill-opacity = '0.250000' points = '568.2,93.9 568.2,662.4 570.1,662.4 570.1,94.6 '/>
		<polygon fill = 'rgb( 31, 120, 180)' fill-opacity = '0.250000' points = '570.1,94.6 570.1,662.4 572.0,662.4 572.0,95.3 '/>
		<polygon fill = 'rgb( 31, 120, 180)' fill-opacity = '0.250000' points = '572.0,95.3 572.0,662.4 573.9,662.4 573.9,96.1 '/>
		<polygon fill = 'rgb( 31, 120, 180)' fill-opacity = '0.250000' points = '573.9,96.1 573.9,662.4 575.8,662.4 575.8,97.0 '/>
		<polygon fill = 'rgb( 31, 120, 180)' fill-opacity = '0.250000' points = '575.8,97.0 575.8,662.4 577.7,662.4 577.7,97.9 '/>
		<polygon fill = 'rgb( 31, 120, 180)' fill-opacity = '0.250000' points = '577.7,97.9 577.7,662.4 579.5,662.4 579.5,98.8 '/>
		<polygon fill = 'rgb( 31, 120, 180)' fill-opacity = '0.250000' points = '579.5,98.8 579.5,662.4 581.4,662.4 581.4,99.7 '/>
		<polygon fill = 'rgb( 31, 120, 180)' fill-opacity = '0.250000' points = '581.4,99.7 581.4,662.4 583.3,662.4 583.3,100.7 '/>
		<polygon fill = 'rgb( 31, 120, 180)' fill-opacity = '0.250000' points = '583.3,100.7 583.3,662.4 585.2,662.4 585.2,101.7 '/>
		<polygon fill = 'rgb( 31, 120, 180)' fill-opacity = '0.250000' points = '585.2,101.7 585.2,662.4 587.1,662.4 587.1,102.7 '/>
		<polygon fill = 'rgb( 31, 120, 180)' fill-opacity = '0.250000' points = '587.1,102.7 587.1,662.4 589.0,662.4 589.0,103.8 '/>
		<polygon fill = 'rgb( 31, 120, 180)' fill-opacity = '0.250000' points = '589.0,103.8 589.0,662.4 590.9,662.4 590.9,104.8 '/>
		<polygon fill = 'rgb( 31, 120, 180)' fill-opacity = '0.250000' points = '590.9,104.8 590.9,662.4 592.8,662.4 592.8,105.9 '/>
		<polygon fill = 'rgb( 31, 120, 180)' fill-opacity = '0.250000' points = '592.8,105.9 592.8,662.4 594.6,662.4 594.6,106.9 '/>
		<polygon fill = 'rgb( 31, 120, 180)' fill-opacity = '0.250000' points = '594.6,106.9 594.6,662.4 596.5,662.4 596.5,108.0 '/>
		<polygon fill = 'rgb( 31, 120, 180)' fill-opacity = '0.250000' points = '596.5,108.0 596.5,662.4 598.4,662.4 598.4,109.1 '/>
		<polygon fill = 'rgb( 31, 120, 180)' fill-opacity = '0.250000' points = '598.4,109.1 598.4,662.4 600.3,662.4 600.3,110.1 '/>
		<polygon fill = 'rgb( 31, 120, 180)' fill-opacity = '0.250000' points = '600.3,110.1 600.3,662.4 602.2,662.4 602.2,111.2 '/>
		<polygon fill = 'rgb( 31, 120, 180)' fill-opacity = '0.250000' points = '602.2,111.2 602.2,662.4 604.1,662.4 604.1,112.3 '/>
		<polygon fill = 'rgb( 31, 120, 180)' fill-opacity = '0.250000' points = '604.1,112.3 604.1,662.4 606.0,662.4 606.0,113.4 '/>
		<polygon fill = 'rgb( 31, 120, 180)' fill-opacity = '0.250000' points = '606.0,113.4 606.0,662.4 607.9,662.4 607.9,114.6 '/>
		<polygon fill = 'rgb( 31, 120, 180)' fill-opacity = '0.250000' points = '607.9,114.6 607.9,662.4 609.7,662.4 609.7,115.7 '/>
		<polygon fill = 'rgb( 31, 120, 180)' fill-opacity = '0.250000' points = '609.7,115.7 609.7,662.4 611.6,662.4 611.6,116.9 '/>
		<polygon fill = 'rgb( 31, 120, 180)' fill-opacity = '0.250000' points = '611.6,116.9 611.6,662.4 613.5,662.4 613.5,118.2 '/>
		<polygon fill = 'rgb( 31, 120, 180)' fill-opacity = '0.250000' points = '613.5,118.2 613.5,662.4 615.4,662.4 615.4,119.5 '/>
		<polygon fill = 'rgb( 31, 120, 180)' fill-opacity = '0.250000' points = '615.4,119.5 615.4,662.4 617.3,662.4 617.3,120.9 '/>
		<polygon fill = 'rgb( 31, 120, 180)' fill-opacity = '0.250000' points = '617.3,120.9 617.3,662.4 619.2,662.4 619.2,122.3 '/>
		<polygon fill = 'rgb( 31, 120, 180)' fill-opacity = '0.250000' points = '619.2,122.3 619.2,662.4 621.1,662.4 621.1,123.8 '/>
		<polygon fill = 'rgb( 31, 120, 180)' fill-opacity = '0.250000' points = '621.1,123.8 621.1,662.4 623.0,662.4 623.0,125.3 '/>
		<polygon fill = 'rgb( 31, 120, 180)' fill-opacity = '0.250000' points = '623.0,125.3 623.0,662.4 624.8,662.4 624.8,127.0 '/>
		<polygon fill = 'rgb( 31, 120, 180)' fill-opacity = '0.250000' points = '624.8,127.0 624.8,662.4 626.7,662.4 626.7,128.7 '/>
		<polygon fill = 'rgb( 31, 120, 180)' fill-opacity = '0.250000' points = '626.7,128.7 626.7,662.4 628.6,662.4 628.6,130.5 '/>
		<polygon fill = 'rgb( 31, 120, 180)' fill-opacity = '0.250000' points = '628.6,130.5 628.6,662.4 630.5,662.4 630.5,132.3 '/>
		<polygon fill = 'rgb( 31, 120, 180)' fill-opacity = '0.250000' points = '630.5,132.3 630.5,662.4 632.4,662.4 632.4,134.3 '/>
		<polygon fill = 'rgb( 31, 120, 180)' fill-opacity = '0.250000' points = '632.4,134.3 632.4,662.4 634.3,662.4 634.3,136.3 '/>
		<polygon fill = 'rgb( 31, 120, 180)' fill-opacity = '0.250000' points = '634.3,136.3 634.3,662.4 636.2,662.4 636.2,138.4 '/>
		<polygon fill = 'rgb( 31, 120, 180)' fill-opacity = '0.250000' points = '636.2,138.4 636.2,662.4 638.1,662.4 638.1,140.5 '/>
		<polygon fill = 'rgb( 31, 120, 180)' fill-opacity = '0.250000' points = '638.1,140.5 638.1,662.4 639.9,662.4 639.9,142.7 '/>
		<polygon fill = 'rgb( 31, 120, 180)' fill-opacity = '0.250000' points = '639.9,142.7 639.9,662.4 641.8,662.4 641.8,144.9 '/>
		<polygon fill = 'rgb( 31, 120, 180)' fill-opacity = '0.250000' points = '641.8,144.9 641.8,662.4 643.7,662.4 643.7,147.1 '/>
		<polygon fill = 'rgb( 31, 120, 180)' fill-opacity = '0.250000' points = '643.7,147.1 643.7,662.4 645.6,662.4 645.6,149.4 '/>
		<polygon fill = 'rgb( 31, 120, 180)' fill-opacity = '0.250000' points = '645.6,149.4 645.6,662.4 647.5,662.4 647.5,151.7 '/>
		<polygon fill = 'rgb( 31, 120, 180)' fill-opacity = '0.250000' points = '647.5,151.7 647.5,662.4 649.4,662.4 649.4,154.0 '/>
		<polygon fill = 'rgb( 31, 120, 180)' fill-opacity = '0.250000' points = '649.4,154.0 649.4,662.4 651.3,662.4 651.3,156.3 '/>
		<polygon fill = 'rgb( 31, 120, 180)' fill-opacity = '0.250000' points = '651.3,156.3 651.3,662.4 653.1,662.4 653.1,158.6 '/>
		<polygon fill = 'rgb( 31, 120, 180)' fill-opacity = '0.250000' points = '653.1,158.6 653.1,662.4 655.0,662.4 655.0,160.9 '/>
		<polygon fill = 'rgb( 31, 120, 180)' fill-opacity = '0.250000' points = '655.0,160.9 655.0,662.4 656.9,662.4 656.9,163.2 '/>
		<polygon fill = 'rgb( 31, 120, 180)' fill-opacity = '0.250000' points = '656.9,163.2 656.9,662.4 658.8,662.4 658.8,165.6 '/>
		<polygon fill = 'rgb( 31, 120, 180)' fill-opacity = '0.250000' points = '658.8,165.6 658.8,662.4 660.7,662.4 660.7,167.9 '/>
		<polygon fill = 'rgb( 31, 120, 180)' fill-opacity = '0.250000' points = '660.7,167.9 660.7,662.4 662.6,662.4 662.6,170.2 '/>
		<polygon fill = 'rgb( 31, 120, 180)' fill-opacity = '0.250000' points = '662.6,170.2 662.6,662.4 664.5,662.4 664.5,172.5 '/>
		<polygon fill = 'rgb( 31, 120, 180)' fill-opacity = '0.250000' points = '664.5,172.5 664.5,662.4 666.4,662.4 666.4,174.9 '/>
		<polygon fill = 'rgb( 31, 120, 180)' fill-opacity = '0.250000' points = '666.4,174.9 666.4,662.4 668.2,662.4 668.2,177.2 '/>
		<polygon fill = 'rgb( 31, 120, 180)' fill-opacity = '0.250000' points = '668.2,177.2 668.2,662.4 670.1,662.4 670.1,179.6 '/>
		<polygon fill = 'rgb( 31, 120, 180)' fill-opacity = '0.250000' points = '670.1,179.6 670.1,662.4 672.0,662.4 672.0,182.1 '/>
		<polygon fill = 'rgb( 31, 120, 180)' fill-opacity = '0.250000' points = '672.0,182.1 672.0,662.4 673.9,662.4 673.9,184.5 '/>
		<polygon fill = 'rgb( 31, 120, 180)' fill-opacity = '0.250000' points = '673.9,184.5 673.9,662.4 675.8,662.4 675.8,187.0 '/>
		<polygon fill = 'rgb( 31, 120, 180)' fill-opacity = '0.250000' points = '675.8,187.0 675.8,662.4 677.7,662.4 677.7,189.5 '/>
		<polygon fill = 'rgb( 31, 120, 180)' fill-opacity = '0.250000' points = '677.7,189.5 677.7,662.4 679.6,662.4 679.6,192.1 '/>
		<polygon fill = 'rgb( 31, 120, 180)' fill-opacity = '0.250000' points = '679.6,192.1 679.6,662.4 681.5,662.4 681.5,194.8 '/>
		<polygon fill = 'rgb( 31, 120, 180)' fill-opacity = '0.250000' points = '681.5,194.8 681.5,662.4 683.3,662.4 683.3,197.4 '/>
		<polygon fill = 'rgb( 31, 120, 180)' fill-opacity = '0.250000' points = '683.3,197.4 683.3,662.4 685.2,662.4 685.2,200.2 '/>
		<polygon fill = 'rgb( 31, 120, 180)' fill-opacity = '0.250000' points = '685.2,200.2 685.2,662.4 687.1,662.4 687.1,203.0 '/>
		<polygon fill = 'rgb( 31, 120, 180)' fill-opacity = '0.250000' points = '687.1,203.0 687.1,662.4 689.0,662.4 689.0,205.8 '/>
		<polygon fill = 'rgb( 31, 120, 180)' fill-opacity = '0.250000' points = '689.0,205.8 689.0,662.4 690.9,662.4 690.9,208.7 '/>
		<polygon fill = 'rgb( 31, 120, 180)' fill-opacity = '0.250000' points = '690.9,208.7 690.9,662.4 692.8,662.4 692.8,211.6 '/>
		<polygon fill = 'rgb( 31, 120, 180)' fill-opacity = '0.250000' points = '692.8,211.6 692.8,662.4 694.7,662.4 694.7,214.5 '/>
		<polygon fill = 'rgb( 31, 120, 180)' fill-opacity = '0.250000' points = '694.7,214.5 694.7,662.4 696.6,662.4 696.6,217.5 '/>
		<polygon fill = 'rgb( 31, 120, 180)' fill-opacity = '0.250000' points = '696.6,217.5 696.6,662.4 698.4,662.4 698.4,220.4 '/>
		<polygon fill = 'rgb( 31, 120, 180)' fill-opacity = '0.250000' points = '698.4,220.4 698.4,662.4 700.3,662.4 700.3,223.5 '/>
		<polygon fill = 'rgb( 31, 120, 180)' fill-opacity = '0.250000' points = '700.3,223.5 700.3,662.4 702.2,662.4 702.2,226.5 '/>
		<polygon fill = 'rgb( 31, 120, 180)' fill-opacity = '0.250000' points = '702.2,226.5 702.2,662.4 704.1,662.4 704.1,229.5 '/>
		<polygon fill = 'rgb( 31, 120, 180)' fill-opacity = '0.250000' points = '704.1,229.5 704.1,662.4 706.0,662.4 706.0,232.5 '/>
		<polygon fill = 'rgb( 31, 120, 180)' fill-opacity = '0.250000' points = '706.0,232.5 706.0,662.4 707.9,662.4 707.9,235.6 '/>
		<polygon fill = 'rgb( 31, 120, 180)' fill-opacity = '0.250000' points = '707.9,235.6 707.9,662.4 709.8,662.4 709.8,238.6 '/>
		<polygon fill = 'rgb( 31, 120, 180)' fill-opacity = '0.250000' points = '709.8,238.6 709.8,662.4 711.7,662.4 711.7,241.7 '/>
		<polygon fill = 'rgb( 31, 120, 180)' fill-opacity = '0.250000' points = '711.7,241.7 711.7,662.4 713.5,662.4 713.5,244.7 '/>
		<polygon fill = 'rgb( 31, 120, 180)' fill-opacity = '0.250000' points = '713.5,244.7 713.5,662.4 715.4,662.4 715.4,247.8 '/>
		<polygon fill = 'rgb( 31, 120, 180)' fill-opacity = '0.250000' points = '715.4,247.8 715.4,662.4 717.3,662.4 717.3,250.9 '/>
		<polygon fill = 'rgb( 31, 120, 180)' fill-opacity = '0.250000' points = '717.3,250.9 717.3,662.4 719.2,662.4 719.2,254.0 '/>
		<polygon fill = 'rgb( 31, 120, 180)' fill-opacity = '0.250000' points = '719.2,254.0 719.2,662.4 721.1,662.4 721.1,257.1 '/>
		<polygon fill = 'rgb( 31, 120, 180)' fill-opacity = '0.250000' points = '721.1,257.1 721.1,662.4 723.0,662.4 723.0,260.2 '/>
		<polygon fill = 'rgb( 31, 120, 180)' fill-opacity = '0.250000' points = '723.0,260.2 723.0,662.4 724.9,662.4 724.9,263.4 '/>
		<polygon fill = 'rgb( 31, 120, 180)' fill-opacity = '0.250000' points = '724.9,263.4 724.9,662.4 726.7,662.4 726.7,266.6 '/>
		<polygon fill = 'rgb( 31, 120, 180)' fill-opacity = '0.250000' points = '726.7,266.6 726.7,662.4 728.6,662.4 728.6,269.8 '/>
		<polygon fill = 'rgb( 31, 120, 180)' fill-opacity = '0.250000' points = '728.6,269.8 728.6,662.4 730.5,662.4 730.5,273.1 '/>
		<polygon fill = 'rgb( 31, 120, 180)' fill-opacity = '0.250000' points = '730.5,273.1 730.5,662.4 732.4,662.4 732.4,276.4 '/>
		<polygon fill = 'rgb( 31, 120, 180)' fill-opacity = '0.250000' points = '732.4,276.4 732.4,662.4 734.3,662.4 734.3,279.8 '/>
		<polygon fill = 'rgb( 31, 120, 180)' fill-opacity = '0.250000' points = '734.3,279.8 734.3,662.4 736.2,662.4 736.2,283.2 '/>
		<polygon fill = 'rgb( 31, 120, 180)' fill-opacity = '0.250000' points = '736.2,283.2 736.2,662.4 738.1,662.4 738.1,286.6 '/>
		<polygon fill = 'rgb( 31, 120, 180)' fill-opacity = '0.250000' points = '738.1,286.6 738.1,662.4 740.0,662.4 740.0,290.2 '/>
		<polygon fill = 'rgb( 31, 120, 180)' fill-opacity = '0.250000' points = '740.0,290.2 740.0,662.4 741.8,662.4 741.8,293.7 '/>
		<polygon fill = 'rgb( 31, 120, 180)' fill-opacity = '0.250000' points = '741.8,293.7 741.8,662.4 743.7,662.4 743.7,297.3 '/>
		<polygon fill = 'rgb( 31, 120, 180)' fill-opacity = '0.250000' points = '743.7,297.3 743.7,662.4 745.6,662.4 745.6,301.0 '/>
		<polygon fill = 'rgb( 31, 120, 180)' fill-opacity = '0.250000' points = '745.6,301.0 745.6,662.4 747.5,662.4 747.5,304.7 '/>
		<polygon fill = 'rgb( 31, 120, 180)' fill-opacity = '0.250000' points = '747.5,304.7 747.5,662.4 749.4,662.4 749.4,308.4 '/>
		<polygon fill = 'rgb( 31, 120, 180)' fill-opacity = '0.250000' points = '749.4,308.4 749.4,662.4 751.3,662.4 751.3,312.2 '/>
		<polygon fill = 'rgb( 31, 120, 180)' fill-opacity = '0.250000' points = '751.3,312.2 751.3,662.4 753.2,662.4 753.2,316.0 '/>
		<polygon fill = 'rgb( 31, 120, 180)' fill-opacity = '0.250000' points = '753.2,316.0 753.2,662.4 755.1,662.4 755.1,319.8 '/>
		<polygon fill = 'rgb( 31, 120, 180)' fill-opacity = '0.250000' points = '755.1,319.8 755.1,662.4 756.9,662.4 756.9,323.6 '/>
		<polygon fill = 'rgb( 31, 120, 180)' fill-opacity = '0.250000' points = '756.9,323.6 756.9,662.4 758.8,662.4 758.8,327.5 '/>
		<polygon fill = 'rgb( 31, 120, 180)' fill-opacity = '0.250000' points = '758.8,327.5 758.8,662.4 760.7,662.4 760.7,331.3 '/>
		<polygon fill = 'rgb( 31, 120, 180)' fill-opacity = '0.250000' points = '760.7,331.3 760.7,662.4 762.6,662.4 762.6,335.1 '/>
		<polygon fill = 'rgb( 31, 120, 180)' fill-opacity = '0.250000' points = '762.6,335.1 762.6,662.4 764.5,662.4 764.5,338.9 '/>
		<polygon fill = 'rgb( 31, 120, 180)' fill-opacity = '0.250000' points = '764.5,338.9 764.5,662.4 766.4,662.4 766.4,342.7 '/>
		<polygon fill = 'rgb( 31, 120, 180)' fill-opacity = '0.250000' points = '766.4,342.7 766.4,662.4 768.3,662.4 768.3,346.5 '/>
		<polygon fill = 'rgb( 31, 120, 180)' fill-opacity = '0.250000' points = '768.3,346.5 768.3,662.4 770.2,662.4 770.2,350.3 '/>
		<polygon fill = 'rgb( 31, 120, 180)' fill-opacity = '0.250000' points = '770.2,350.3 770.2,662.4 772.0,662.4 772.0,354.0 '/>
		<polygon fill = 'rgb( 31, 120, 180)' fill-opacity = '0.250000' points = '772.0,354.0 772.0,662.4 773.9,662.4 773.9,357.7 '/>
		<polygon fill = 'rgb( 31, 120, 180)' fill-opacity = '0.250000' points = '773.9,357.7 773.9,662.4 775.8,662.4 775.8,361.3 '/>
		<polygon fill = 'rgb( 31, 120, 180)' fill-opacity = '0.250000' points = '775.8,361.3 775.8,662.4 777.7,662.4 777.7,365.0 '/>
		<polygon fill = 'rgb( 31, 120, 180)' fill-opacity = '0.250000' points = '777.7,365.0 777.7,662.4 779.6,662.4 779.6,368.5 '/>
		<polygon fill = 'rgb( 31, 120, 180)' fill-opacity = '0.250000' points = '779.6,368.5 779.6,662.4 781.5,662.4 781.5,372.1 '/>
		<polygon fill = 'rgb( 31, 120, 180)' fill-opacity = '0.250000' points = '781.5,372.1 781.5,662.4 783.4,662.4 783.4,375.6 '/>
		<polygon fill = 'rgb( 31, 120, 180)' fill-opacity = '0.250000' points = '783.4,375.6 783.4,662.4 785.3,662.4 785.3,379.0 '/>
		<polygon fill = 'rgb( 31, 120, 180)' fill-opacity = '0.250000' points = '785.3,379.0 785.3,662.4 787.1,662.4 787.1,382.4 '/>
		<polygon fill = 'rgb( 31, 120, 180)' fill-opacity = '0.250000' points = '787.1,382.4 787.1,662.4 789.0,662.4 789.0,385.8 '/>
		<polygon fill = 'rgb( 31, 120, 180)' fill-opacity = '0.250000' points = '789.0,385.8 789.0,662.4 790.9,662.4 790.9,389.1 '/>
		<polygon fill = 'rgb( 31, 120, 180)' fill-opacity = '0.250000' points = '790.9,389.1 790.9,662.4 792.8,662.4 792.8,392.4 '/>
		<polygon fill = 'rgb( 31, 120, 180)' fill-opacity = '0.250000' points = '792.8,392.4 792.8,662.4 794.7,662.4 794.7,395.7 '/>
		<polygon fill = 'rgb( 31, 120, 180)' fill-opacity = '0.250000' points = '794.7,395.7 794.7,662.4 796.6,662.4 796.6,398.9 '/>
		<polygon fill = 'rgb( 31, 120, 180)' fill-opacity = '0.250000' points = '796.6,398.9 796.6,662.4 798.5,662.4 798.5,402.0 '/>
		<polygon fill = 'rgb( 31, 120, 180)' fill-opacity = '0.250000' points = '798.5,402.0 798.5,662.4 800.3,662.4 800.3,405.2 '/>
		<polygon fill = 'rgb( 31, 120, 180)' fill-opacity = '0.250000' points = '800.3,405.2 800.3,662.4 802.2,662.4 802.2,408.3 '/>
		<polygon fill = 'rgb( 31, 120, 180)' fill-opacity = '0.250000' points = '802.2,408.3 802.2,662.4 804.1,662.4 804.1,411.3 '/>
		<polygon fill = 'rgb( 31, 120, 180)' fill-opacity = '0.250000' points = '804.1,411.3 804.1,662.4 806.0,662.4 806.0,414.4 '/>
		<polygon fill = 'rgb( 31, 120, 180)' fill-opacity = '0.250000' points = '806.0,414.4 806.0,662.4 807.9,662.4 807.9,417.4 '/>
		<polygon fill = 'rgb( 31, 120, 180)' fill-opacity = '0.250000' points = '807.9,417.4 807.9,662.4 809.8,662.4 809.8,420.3 '/>
		<polygon fill = 'rgb( 31, 120, 180)' fill-opacity = '0.250000' points = '809.8,420.3 809.8,662.4 811.7,662.4 811.7,423.3 '/>
		<polygon fill = 'rgb( 31, 120, 180)' fill-opacity = '0.250000' points = '811.7,423.3 811.7,662.4 813.6,662.4 813.6,426.1 '/>
		<polygon fill = 'rgb( 31, 120, 180)' fill-opacity = '0.250000' points = '813.6,426.1 813.6,662.4 815.4,662.4 815.4,429.0 '/>
		<polygon fill = 'rgb( 31, 120, 180)' fill-opacity = '0.250000' points = '815.4,429.0 815.4,662.4 817.3,662.4 817.3,431.8 '/>
		<polygon fill = 'rgb( 31, 120, 180)' fill-opacity = '0.250000' points = '817.3,431.8 817.3,662.4 819.2,662.4 819.2,434.6 '/>
		<polygon fill = 'rgb( 31, 120, 180)' fill-opacity = '0.250000' points = '819.2,434.6 819.2,662.4 821.1,662.4 821.1,437.4 '/>
		<polygon fill = 'rgb( 31, 120, 180)' fill-opacity = '0.250000' points = '821.1,437.4 821.1,662.4 823.0,662.4 823.0,440.2 '/>
		<polygon fill = 'rgb( 31, 120, 180)' fill-opacity = '0.250000' points = '823.0,440.2 823.0,662.4 824.9,662.4 824.9,442.9 '/>
		<polygon fill = 'rgb( 31, 120, 180)' fill-opacity = '0.250000' points = '824.9,442.9 824.9,662.4 826.8,662.4 826.8,445.6 '/>
		<polygon fill = 'rgb( 31, 120, 180)' fill-opacity = '0.250000' points = '826.8,445.6 826.8,662.4 828.7,662.4 828.7,448.4 '/>
		<polygon fill = 'rgb( 31, 120, 180)' fill-opacity = '0.250000' points = '828.7,448.4 828.7,662.4 830.5,662.4 830.5,451.1 '/>
		<polygon fill = 'rgb( 31, 120, 180)' fill-opacity = '0.250000' points = '830.5,451.1 830.5,662.4 832.4,662.4 832.4,453.8 '/>
		<polygon fill = 'rgb( 31, 120, 180)' fill-opacity = '0.250000' points = '832.4,453.8 832.4,662.4 834.3,662.4 834.3,456.5 '/>
		<polygon fill = 'rgb( 31, 120, 180)' fill-opacity = '0.250000' points = '834.3,456.5 834.3,662.4 836.2,662.4 836.2,459.3 '/>
		<polygon fill = 'rgb( 31, 120, 180)' fill-opacity = '0.250000' points = '836.2,459.3 836.2,662.4 838.1,662.4 838.1,462.0 '/>
		<polygon fill = 'rgb( 31, 120, 180)' fill-opacity = '0.250000' points = '838.1,462.0 838.1,662.4 840.0,662.4 840.0,464.8 '/>
		<polygon fill = 'rgb( 31, 120, 180)' fill-opacity = '0.250000' points = '840.0,464.8 840.0,662.4 841.9,662.4 841.9,467.6 '/>
		<polygon fill = 'rgb( 31, 120, 180)' fill-opacity = '0.250000' points = '841.9,467.6 841.9,662.4 843.8,662.4 843.8,470.4 '/>
		<polygon fill = 'rgb( 31, 120, 180)' fill-opacity = '0.250000' points = '843.8,470.4 843.8,662.4 845.6,662.4 845.6,473.3 '/>
		<polygon fill = 'rgb( 31, 120, 180)' fill-opacity = '0.250000' points = '845.6,473.3 845.6,662.4 847.5,662.4 847.5,476.2 '/>
		<polygon fill = 'rgb( 31, 120, 180)' fill-opacity = '0.250000' points = '847.5,476.2 847.5,662.4 849.4,662.4 849.4,479.1 '/>
		<polygon fill = 'rgb( 31, 120, 180)' fill-opacity = '0.250000' points = '849.4,479.1 849.4,662.4 851.3,662.4 851.3,482.1 '/>
		<polygon fill = 'rgb( 31, 120, 180)' fill-opacity = '0.250000' points = '851.3,482.1 851.3,662.4 853.2,662.4 853.2,485.1 '/>
		<polygon fill = 'rgb( 31, 120, 180)' fill-opacity = '0.250000' points = '853.2,485.1 853.2,662.4 855.1,662.4 855.1,488.1 '/>
		<polygon fill = 'rgb( 31, 120, 180)' fill-opacity = '0.250000' points = '855.1,488.1 855.1,662.4 857.0,662.4 857.0,491.2 '/>
		<polygon fill = 'rgb( 31, 120, 180)' fill-opacity = '0.250000' points = '857.0,491.2 857.0,662.4 858.9,662.4 858.9,494.2 '/>
		<polygon fill = 'rgb( 31, 120, 180)' fill-opacity = '0.250000' points = '858.9,494.2 858.9,662.4 860.7,662.4 860.7,497.3 '/>
		<polygon fill = 'rgb( 31, 120, 180)' fill-opacity = '0.250000' points = '860.7,497.3 860.7,662.4 862.6,662.4 862.6,500.3 '/>
		<polygon fill = 'rgb( 31, 120, 180)' fill-opacity = '0.250000' points = '862.6,500.3 862.6,662.4 864.5,662.4 864.5,503.4 '/>
		<polygon fill = 'rgb( 31, 120, 180)' fill-opacity = '0.250000' points = '864.5,503.4 864.5,662.4 866.4,662.4 866.4,506.4 '/>
		<polygon fill = 'rgb( 31, 120, 180)' fill-opacity = '0.250000' points = '866.4,506.4 866.4,662.4 868.3,662.4 868.3,509.5 '/>
		<polygon fill = 'rgb( 31, 120, 180)' fill-opacity = '0.250000' points = '868.3,509.5 868.3,662.4 870.2,662.4 870.2,512.5 '/>
		<polygon fill = 'rgb( 31, 120, 180)' fill-opacity = '0.250000' points = '870.2,512.5 870.2,662.4 872.1,662.4 872.1,515.4 '/>
		<polygon fill = 'rgb( 31, 120, 180)' fill-opacity = '0.250000' points = '872.1,515.4 872.1,662.4 873.9,662.4 873.9,518.3 '/>
		<polygon fill = 'rgb( 31, 120, 180)' fill-opacity = '0.250000' points = '873.9,518.3 873.9,662.4 875.8,662.4 875.8,521.2 '/>
		<polygon fill = 'rgb( 31, 120, 180)' fill-opacity = '0.250000' points = '875.8,521.2 875.8,662.4 877.7,662.4 877.7,524.0 '/>
		<polygon fill = 'rgb( 31, 120, 180)' fill-opacity = '0.250000' points = '877.7,524.0 877.7,662.4 879.6,662.4 879.6,526.7 '/>
		<polygon fill = 'rgb( 31, 120, 180)' fill-opacity = '0.250000' points = '879.6,526.7 879.6,662.4 881.5,662.4 881.5,529.3 '/>
		<polygon fill = 'rgb( 31, 120, 180)' fill-opacity = '0.250000' points = '881.5,529.3 881.5,662.4 883.4,662.4 883.4,531.9 '/>
		<polygon fill = 'rgb( 31, 120, 180)' fill-opacity = '0.250000' points = '883.4,531.9 883.4,662.4 885.3,662.4 885.3,534.4 '/>
		<polygon fill = 'rgb( 31, 120, 180)' fill-opacity = '0.250000' points = '885.3,534.4 885.3,662.4 887.2,662.4 887.2,536.9 '/>
		<polygon fill = 'rgb( 31, 120, 180)' fill-opacity = '0.250000' points = '887.2,536.9 887.2,662.4 889.0,662.4 889.0,539.2 '/>
		<polygon fill = 'rgb( 31, 120, 180)' fill-opacity = '0.250000' points = '889.0,539.2 889.0,662.4 890.9,662.4 890.9,541.5 '/>
		<polygon fill = 'rgb( 31, 120, 180)' fill-opacity = '0.250000' points = '890.9,541.5 890.9,662.4 892.8,662.4 892.8,543.8 '/>
		<polygon fill = 'rgb( 31, 120, 180)' fill-opacity = '0.250000' points = '892.8,543.8 892.8,662.4 894.7,662.4 894.7,545.9 '/>
		<polygon fill = 'rgb( 31, 120, 180)' fill-opacity = '0.250000' points = '894.7,545.9 894.7,662.4 896.6,662.4 896.6,548.0 '/>
		<polygon fill = 'rgb( 31, 120, 180)' fill-opacity = '0.250000' points = '896.6,548.0 896.6,662.4 898.5,662.4 898.5,550.0 '/>
		<polygon fill = 'rgb( 31, 120, 180)' fill-opacity = '0.250000' points = '898.5,550.0 898.5,662.4 900.4,662.4 900.4,552.0 '/>
		<polygon fill = 'rgb( 31, 120, 180)' fill-opacity = '0.250000' points = '900.4,552.0 900.4,662.4 902.3,662.4 902.3,553.9 '/>
		<polygon fill = 'rgb( 31, 120, 180)' fill-opacity = '0.250000' points = '902.3,553.9 902.3,662.4 904.1,662.4 904.1,555.7 '/>
		<polygon fill = 'rgb( 31, 120, 180)' fill-opacity = '0.250000' points = '904.1,555.7 904.1,662.4 906.0,662.4 906.0,557.5 '/>
		<polygon fill = 'rgb( 31, 120, 180)' fill-opacity = '0.250000' points = '906.0,557.5 906.0,662.4 907.9,662.4 907.9,559.3 '/>
		<polygon fill = 'rgb( 31, 120, 180)' fill-opacity = '0.250000' points = '907.9,559.3 907.9,662.4 909.8,662.4 909.8,561.1 '/>
		<polygon fill = 'rgb( 31, 120, 180)' fill-opacity = '0.250000' points = '909.8,561.1 909.8,662.4 911.7,662.4 911.7,562.8 '/>
		<polygon fill = 'rgb( 31, 120, 180)' fill-opacity = '0.250000' points = '911.7,562.8 911.7,662.4 913.6,662.4 913.6,564.5 '/>
		<polygon fill = 'rgb( 31, 120, 180)' fill-opacity = '0.250000' points = '913.6,564.5 913.6,662.4 915.5,662.4 915.5,566.1 '/>
		<polygon fill = 'rgb( 31, 120, 180)' fill-opacity = '0.250000' points = '915.5,566.1 915.5,662.4 917.4,662.4 917.4,567.8 '/>
		<polygon fill = 'rgb( 31, 120, 180)' fill-opacity = '0.250000' points = '917.4,567.8 917.4,662.4 919.2,662.4 919.2,569.5 '/>
		<polygon fill = 'rgb( 31, 120, 180)' fill-opacity = '0.250000' points = '919.2,569.5 919.2,662.4 921.1,662.4 921.1,571.1 '/>
		<polygon fill = 'rgb( 31, 120, 180)' fill-opacity = '0.250000' points = '921.1,571.1 921.1,662.4 923.0,662.4 923.0,572.7 '/>
		<polygon fill = 'rgb( 31, 120, 180)' fill-opacity = '0.250000' points = '923.0,572.7 923.0,662.4 924.9,662.4 924.9,574.4 '/>
	</g>
</g>
	</g>
	<g id="gnuplot_plot_3" ><title>Point estimate</title>
<g fill="none" color="white" stroke="rgb( 31, 120, 180)" stroke-width="2.00" stroke-linecap="butt" stroke-linejoin="miter">
</g>
<g fill="none" color="black" stroke="currentColor" stroke-width="2.00" stroke-linecap="butt" stroke-linejoin="miter">
	<g transform="translate(1089.0,103.0)" stroke="none" fill="black" font-family="Helvetica" font-size="12.00"  text-anchor="start">
		<text><tspan font-family="Helvetica" >Point estimate</tspan></text>
	</g>
</g>
<g fill="none" color="black" stroke="currentColor" stroke-width="2.00" stroke-linecap="butt" stroke-linejoin="miter">
	<path stroke='rgb( 31, 120, 180)'  d='M1038.5,99.1 L1080.7,99.1 M565.8,662.4 L565.8,93.2  '/></g>
	</g>
	<g id="gnuplot_plot_4" ><title>Noise threshold</title>
<g fill="none" color="white" stroke="rgb( 31, 120, 180)" stroke-width="1.00" stroke-linecap="butt" stroke-linejoin="miter">
</g>
<g fill="none" color="black" stroke="currentColor" stroke-width="1.00" stroke-linecap="butt" stroke-linejoin="miter">
	<g transform="translate(1089.0,121.0)" stroke="none" fill="black" font-family="Helvetica" font-size="12.00"  text-anchor="start">
		<text><tspan font-family="Helvetica" >Noise threshold</tspan></text>
	</g>
</g>
<g fill="none" color="black" stroke="currentColor" stroke-width="1.00" stroke-linecap="butt" stroke-linejoin="miter">
	<g stroke='none' shape-rendering='crispEdges'>
		<polygon fill = 'rgb(227,  26,  28)' fill-opacity = '0.100000' points = '1038.5,121.6 1080.7,121.6 1080.7,112.6 1038.5,112.6 '/>
		<polygon fill = 'rgb(227,  26,  28)' fill-opacity = '0.100000' points = '542.8,54.1 542.8,662.4 542.8,662.4 542.8,54.1 '/>
	</g>
</g>
	</g>
<g fill="none" color="white" stroke="rgb(227,  26,  28)" stroke-width="2.00" stroke-linecap="butt" stroke-linejoin="miter">
</g>
<g fill="none" color="black" stroke="currentColor" stroke-width="2.00" stroke-linecap="butt" stroke-linejoin="miter">
</g>
<g fill="none" color="black" stroke="black" stroke-width="1.00" stroke-linecap="butt" stroke-linejoin="miter">
</g>
<g fill="none" color="black" stroke="currentColor" stroke-width="1.00" stroke-linecap="butt" stroke-linejoin="miter">
	<path stroke='black'  d='M71.9,54.1 L71.9,662.4 L1013.6,662.4 L1013.6,54.1 L71.9,54.1 Z  '/></g>
<g fill="none" color="black" stroke="currentColor" stroke-width="1.00" stroke-linecap="butt" stroke-linejoin="miter">
</g>
</g>
</svg>

