group,function,value,throughput_num,throughput_type,sample_measured_value,unit,iteration_count
dfs arena ghostcell list par immut (×4),,,,,1681004.0,ns,1
dfs arena ghostcell list par immut (×4),,,,,3257591.0,ns,2
dfs arena ghostcell list par immut (×4),,,,,4918144.0,ns,3
dfs arena ghostcell list par immut (×4),,,,,6666343.0,ns,4
dfs arena ghostcell list par immut (×4),,,,,8027916.0,ns,5
dfs arena ghostcell list par immut (×4),,,,,9587664.0,ns,6
dfs arena ghostcell list par immut (×4),,,,,11172095.0,ns,7
dfs arena ghostcell list par immut (×4),,,,,12723187.0,ns,8
dfs arena ghostcell list par immut (×4),,,,,14373130.0,ns,9
dfs arena ghostcell list par immut (×4),,,,,15964054.0,ns,10
dfs arena ghostcell list par immut (×4),,,,,17500448.0,ns,11
dfs arena ghostcell list par immut (×4),,,,,19641360.0,ns,12
dfs arena ghostcell list par immut (×4),,,,,20659419.0,ns,13
dfs arena ghostcell list par immut (×4),,,,,22279809.0,ns,14
dfs arena ghostcell list par immut (×4),,,,,23879298.0,ns,15
dfs arena ghostcell list par immut (×4),,,,,25360572.0,ns,16
dfs arena ghostcell list par immut (×4),,,,,26897542.0,ns,17
dfs arena ghostcell list par immut (×4),,,,,28485201.0,ns,18
dfs arena ghostcell list par immut (×4),,,,,30086102.0,ns,19
dfs arena ghostcell list par immut (×4),,,,,31712750.0,ns,20
dfs arena ghostcell list par immut (×4),,,,,33590398.0,ns,21
dfs arena ghostcell list par immut (×4),,,,,35311417.0,ns,22
dfs arena ghostcell list par immut (×4),,,,,36430994.0,ns,23
dfs arena ghostcell list par immut (×4),,,,,38075106.0,ns,24
dfs arena ghostcell list par immut (×4),,,,,43314797.0,ns,25
dfs arena ghostcell list par immut (×4),,,,,41101331.0,ns,26
dfs arena ghostcell list par immut (×4),,,,,42811302.0,ns,27
dfs arena ghostcell list par immut (×4),,,,,44268341.0,ns,28
dfs arena ghostcell list par immut (×4),,,,,45857123.0,ns,29
dfs arena ghostcell list par immut (×4),,,,,47423582.0,ns,30
dfs arena ghostcell list par immut (×4),,,,,49018375.0,ns,31
dfs arena ghostcell list par immut (×4),,,,,50588638.0,ns,32
dfs arena ghostcell list par immut (×4),,,,,52260219.0,ns,33
dfs arena ghostcell list par immut (×4),,,,,53798789.0,ns,34
dfs arena ghostcell list par immut (×4),,,,,55349580.0,ns,35
dfs arena ghostcell list par immut (×4),,,,,56939713.0,ns,36
dfs arena ghostcell list par immut (×4),,,,,58817642.0,ns,37
dfs arena ghostcell list par immut (×4),,,,,59982189.0,ns,38
dfs arena ghostcell list par immut (×4),,,,,61514896.0,ns,39
dfs arena ghostcell list par immut (×4),,,,,63180173.0,ns,40
dfs arena ghostcell list par immut (×4),,,,,64850027.0,ns,41
dfs arena ghostcell list par immut (×4),,,,,67823613.0,ns,42
dfs arena ghostcell list par immut (×4),,,,,71199062.0,ns,43
dfs arena ghostcell list par immut (×4),,,,,69469220.0,ns,44
dfs arena ghostcell list par immut (×4),,,,,71148670.0,ns,45
dfs arena ghostcell list par immut (×4),,,,,72739849.0,ns,46
dfs arena ghostcell list par immut (×4),,,,,74273844.0,ns,47
dfs arena ghostcell list par immut (×4),,,,,76177131.0,ns,48
dfs arena ghostcell list par immut (×4),,,,,77628265.0,ns,49
dfs arena ghostcell list par immut (×4),,,,,79199587.0,ns,50
dfs arena ghostcell list par immut (×4),,,,,80870035.0,ns,51
dfs arena ghostcell list par immut (×4),,,,,82421581.0,ns,52
dfs arena ghostcell list par immut (×4),,,,,83752399.0,ns,53
dfs arena ghostcell list par immut (×4),,,,,85800383.0,ns,54
dfs arena ghostcell list par immut (×4),,,,,88396890.0,ns,55
dfs arena ghostcell list par immut (×4),,,,,100764298.0,ns,56
dfs arena ghostcell list par immut (×4),,,,,90803910.0,ns,57
dfs arena ghostcell list par immut (×4),,,,,92508643.0,ns,58
dfs arena ghostcell list par immut (×4),,,,,93722984.0,ns,59
dfs arena ghostcell list par immut (×4),,,,,94954896.0,ns,60
dfs arena ghostcell list par immut (×4),,,,,98708397.0,ns,61
dfs arena ghostcell list par immut (×4),,,,,98149079.0,ns,62
dfs arena ghostcell list par immut (×4),,,,,99587028.0,ns,63
dfs arena ghostcell list par immut (×4),,,,,101411076.0,ns,64
dfs arena ghostcell list par immut (×4),,,,,102569108.0,ns,65
dfs arena ghostcell list par immut (×4),,,,,108674735.0,ns,66
dfs arena ghostcell list par immut (×4),,,,,106042348.0,ns,67
dfs arena ghostcell list par immut (×4),,,,,107456797.0,ns,68
dfs arena ghostcell list par immut (×4),,,,,109412445.0,ns,69
dfs arena ghostcell list par immut (×4),,,,,110546460.0,ns,70
dfs arena ghostcell list par immut (×4),,,,,112709615.0,ns,71
dfs arena ghostcell list par immut (×4),,,,,113500566.0,ns,72
dfs arena ghostcell list par immut (×4),,,,,115596339.0,ns,73
dfs arena ghostcell list par immut (×4),,,,,120873861.0,ns,74
dfs arena ghostcell list par immut (×4),,,,,119012606.0,ns,75
dfs arena ghostcell list par immut (×4),,,,,119800476.0,ns,76
dfs arena ghostcell list par immut (×4),,,,,121457136.0,ns,77
dfs arena ghostcell list par immut (×4),,,,,124562492.0,ns,78
dfs arena ghostcell list par immut (×4),,,,,124807626.0,ns,79
dfs arena ghostcell list par immut (×4),,,,,126454555.0,ns,80
dfs arena ghostcell list par immut (×4),,,,,128032019.0,ns,81
dfs arena ghostcell list par immut (×4),,,,,133068916.0,ns,82
dfs arena ghostcell list par immut (×4),,,,,131438104.0,ns,83
dfs arena ghostcell list par immut (×4),,,,,132562172.0,ns,84
dfs arena ghostcell list par immut (×4),,,,,134123783.0,ns,85
dfs arena ghostcell list par immut (×4),,,,,135961207.0,ns,86
dfs arena ghostcell list par immut (×4),,,,,137856569.0,ns,87
dfs arena ghostcell list par immut (×4),,,,,138795591.0,ns,88
dfs arena ghostcell list par immut (×4),,,,,140793137.0,ns,89
dfs arena ghostcell list par immut (×4),,,,,145747519.0,ns,90
dfs arena ghostcell list par immut (×4),,,,,143483501.0,ns,91
dfs arena ghostcell list par immut (×4),,,,,145245783.0,ns,92
dfs arena ghostcell list par immut (×4),,,,,147116888.0,ns,93
dfs arena ghostcell list par immut (×4),,,,,148538963.0,ns,94
dfs arena ghostcell list par immut (×4),,,,,149823090.0,ns,95
dfs arena ghostcell list par immut (×4),,,,,155529468.0,ns,96
dfs arena ghostcell list par immut (×4),,,,,153025190.0,ns,97
dfs arena ghostcell list par immut (×4),,,,,154822759.0,ns,98
dfs arena ghostcell list par immut (×4),,,,,156831101.0,ns,99
dfs arena ghostcell list par immut (×4),,,,,158520966.0,ns,100
