<?xml version="1.0" encoding="utf-8"  standalone="no"?>
<!DOCTYPE svg PUBLIC "-//W3C//DTD SVG 1.1//EN"
 "http://www.w3.org/Graphics/SVG/1.1/DTD/svg11.dtd">
<svg 
 viewBox="0 0 1280 720"
 xmlns="http://www.w3.org/2000/svg"
 xmlns:xlink="http://www.w3.org/1999/xlink"
>

<title>Gnuplot</title>
<desc>Produced by GNUPLOT 5.0 patchlevel 5 </desc>

<g id="gnuplot_canvas">

<rect x="0" y="0" width="1280" height="720" fill="none"/>
<defs>

	<circle id='gpDot' r='0.5' stroke-width='0.5'/>
	<path id='gpPt0' stroke-width='0.222' stroke='currentColor' d='M-1,0 h2 M0,-1 v2'/>
	<path id='gpPt1' stroke-width='0.222' stroke='currentColor' d='M-1,-1 L1,1 M1,-1 L-1,1'/>
	<path id='gpPt2' stroke-width='0.222' stroke='currentColor' d='M-1,0 L1,0 M0,-1 L0,1 M-1,-1 L1,1 M-1,1 L1,-1'/>
	<rect id='gpPt3' stroke-width='0.222' stroke='currentColor' x='-1' y='-1' width='2' height='2'/>
	<rect id='gpPt4' stroke-width='0.222' stroke='currentColor' fill='currentColor' x='-1' y='-1' width='2' height='2'/>
	<circle id='gpPt5' stroke-width='0.222' stroke='currentColor' cx='0' cy='0' r='1'/>
	<use xlink:href='#gpPt5' id='gpPt6' fill='currentColor' stroke='none'/>
	<path id='gpPt7' stroke-width='0.222' stroke='currentColor' d='M0,-1.33 L-1.33,0.67 L1.33,0.67 z'/>
	<use xlink:href='#gpPt7' id='gpPt8' fill='currentColor' stroke='none'/>
	<use xlink:href='#gpPt7' id='gpPt9' stroke='currentColor' transform='rotate(180)'/>
	<use xlink:href='#gpPt9' id='gpPt10' fill='currentColor' stroke='none'/>
	<use xlink:href='#gpPt3' id='gpPt11' stroke='currentColor' transform='rotate(45)'/>
	<use xlink:href='#gpPt11' id='gpPt12' fill='currentColor' stroke='none'/>
	<path id='gpPt13' stroke-width='0.222' stroke='currentColor' d='M0,1.330 L1.265,0.411 L0.782,-1.067 L-0.782,-1.076 L-1.265,0.411 z'/>
	<use xlink:href='#gpPt13' id='gpPt14' fill='currentColor' stroke='none'/>
	<filter id='textbox' filterUnits='objectBoundingBox' x='0' y='0' height='1' width='1'>
	  <feFlood flood-color='white' flood-opacity='1' result='bgnd'/>
	  <feComposite in='SourceGraphic' in2='bgnd' operator='atop'/>
	</filter>
	<filter id='greybox' filterUnits='objectBoundingBox' x='0' y='0' height='1' width='1'>
	  <feFlood flood-color='lightgrey' flood-opacity='1' result='grey'/>
	  <feComposite in='SourceGraphic' in2='grey' operator='atop'/>
	</filter>
</defs>
<g fill="none" color="white" stroke="currentColor" stroke-width="1.00" stroke-linecap="butt" stroke-linejoin="miter">
</g>
<g fill="none" color="black" stroke="currentColor" stroke-width="1.00" stroke-linecap="butt" stroke-linejoin="miter">
	<path stroke='black'  d='M80.2,662.4 L89.2,662.4  '/>	<g transform="translate(71.9,666.3)" stroke="none" fill="black" font-family="Helvetica" font-size="12.00"  text-anchor="end">
		<text><tspan font-family="Helvetica" > 0</tspan></text>
	</g>
</g>
<g fill="none" color="black" stroke="currentColor" stroke-width="1.00" stroke-linecap="butt" stroke-linejoin="miter">
	<path stroke='black'  d='M80.2,594.8 L89.2,594.8  '/>	<g transform="translate(71.9,598.7)" stroke="none" fill="black" font-family="Helvetica" font-size="12.00"  text-anchor="end">
		<text><tspan font-family="Helvetica" > 200</tspan></text>
	</g>
</g>
<g fill="none" color="black" stroke="currentColor" stroke-width="1.00" stroke-linecap="butt" stroke-linejoin="miter">
	<path stroke='black'  d='M80.2,527.2 L89.2,527.2  '/>	<g transform="translate(71.9,531.1)" stroke="none" fill="black" font-family="Helvetica" font-size="12.00"  text-anchor="end">
		<text><tspan font-family="Helvetica" > 400</tspan></text>
	</g>
</g>
<g fill="none" color="black" stroke="currentColor" stroke-width="1.00" stroke-linecap="butt" stroke-linejoin="miter">
	<path stroke='black'  d='M80.2,459.6 L89.2,459.6  '/>	<g transform="translate(71.9,463.5)" stroke="none" fill="black" font-family="Helvetica" font-size="12.00"  text-anchor="end">
		<text><tspan font-family="Helvetica" > 600</tspan></text>
	</g>
</g>
<g fill="none" color="black" stroke="currentColor" stroke-width="1.00" stroke-linecap="butt" stroke-linejoin="miter">
	<path stroke='black'  d='M80.2,392.0 L89.2,392.0  '/>	<g transform="translate(71.9,395.9)" stroke="none" fill="black" font-family="Helvetica" font-size="12.00"  text-anchor="end">
		<text><tspan font-family="Helvetica" > 800</tspan></text>
	</g>
</g>
<g fill="none" color="black" stroke="currentColor" stroke-width="1.00" stroke-linecap="butt" stroke-linejoin="miter">
	<path stroke='black'  d='M80.2,324.5 L89.2,324.5  '/>	<g transform="translate(71.9,328.4)" stroke="none" fill="black" font-family="Helvetica" font-size="12.00"  text-anchor="end">
		<text><tspan font-family="Helvetica" > 1000</tspan></text>
	</g>
</g>
<g fill="none" color="black" stroke="currentColor" stroke-width="1.00" stroke-linecap="butt" stroke-linejoin="miter">
	<path stroke='black'  d='M80.2,256.9 L89.2,256.9  '/>	<g transform="translate(71.9,260.8)" stroke="none" fill="black" font-family="Helvetica" font-size="12.00"  text-anchor="end">
		<text><tspan font-family="Helvetica" > 1200</tspan></text>
	</g>
</g>
<g fill="none" color="black" stroke="currentColor" stroke-width="1.00" stroke-linecap="butt" stroke-linejoin="miter">
	<path stroke='black'  d='M80.2,189.3 L89.2,189.3  '/>	<g transform="translate(71.9,193.2)" stroke="none" fill="black" font-family="Helvetica" font-size="12.00"  text-anchor="end">
		<text><tspan font-family="Helvetica" > 1400</tspan></text>
	</g>
</g>
<g fill="none" color="black" stroke="currentColor" stroke-width="1.00" stroke-linecap="butt" stroke-linejoin="miter">
	<path stroke='black'  d='M80.2,121.7 L89.2,121.7  '/>	<g transform="translate(71.9,125.6)" stroke="none" fill="black" font-family="Helvetica" font-size="12.00"  text-anchor="end">
		<text><tspan font-family="Helvetica" > 1600</tspan></text>
	</g>
</g>
<g fill="none" color="black" stroke="currentColor" stroke-width="1.00" stroke-linecap="butt" stroke-linejoin="miter">
	<path stroke='black'  d='M80.2,54.1 L89.2,54.1  '/>	<g transform="translate(71.9,58.0)" stroke="none" fill="black" font-family="Helvetica" font-size="12.00"  text-anchor="end">
		<text><tspan font-family="Helvetica" > 1800</tspan></text>
	</g>
</g>
<g fill="none" color="black" stroke="currentColor" stroke-width="1.00" stroke-linecap="butt" stroke-linejoin="miter">
	<path stroke='black'  d='M102.7,662.4 L102.7,653.4  '/>	<g transform="translate(102.7,684.3)" stroke="none" fill="black" font-family="Helvetica" font-size="12.00"  text-anchor="middle">
		<text><tspan font-family="Helvetica" >-0.3</tspan></text>
	</g>
</g>
<g fill="none" color="black" stroke="currentColor" stroke-width="1.00" stroke-linecap="butt" stroke-linejoin="miter">
	<path stroke='black'  d='M246.9,662.4 L246.9,653.4  '/>	<g transform="translate(246.9,684.3)" stroke="none" fill="black" font-family="Helvetica" font-size="12.00"  text-anchor="middle">
		<text><tspan font-family="Helvetica" >-0.28</tspan></text>
	</g>
</g>
<g fill="none" color="black" stroke="currentColor" stroke-width="1.00" stroke-linecap="butt" stroke-linejoin="miter">
	<path stroke='black'  d='M391.1,662.4 L391.1,653.4  '/>	<g transform="translate(391.1,684.3)" stroke="none" fill="black" font-family="Helvetica" font-size="12.00"  text-anchor="middle">
		<text><tspan font-family="Helvetica" >-0.26</tspan></text>
	</g>
</g>
<g fill="none" color="black" stroke="currentColor" stroke-width="1.00" stroke-linecap="butt" stroke-linejoin="miter">
	<path stroke='black'  d='M535.3,662.4 L535.3,653.4  '/>	<g transform="translate(535.3,684.3)" stroke="none" fill="black" font-family="Helvetica" font-size="12.00"  text-anchor="middle">
		<text><tspan font-family="Helvetica" >-0.24</tspan></text>
	</g>
</g>
<g fill="none" color="black" stroke="currentColor" stroke-width="1.00" stroke-linecap="butt" stroke-linejoin="miter">
	<path stroke='black'  d='M679.6,662.4 L679.6,653.4  '/>	<g transform="translate(679.6,684.3)" stroke="none" fill="black" font-family="Helvetica" font-size="12.00"  text-anchor="middle">
		<text><tspan font-family="Helvetica" >-0.22</tspan></text>
	</g>
</g>
<g fill="none" color="black" stroke="currentColor" stroke-width="1.00" stroke-linecap="butt" stroke-linejoin="miter">
	<path stroke='black'  d='M823.8,662.4 L823.8,653.4  '/>	<g transform="translate(823.8,684.3)" stroke="none" fill="black" font-family="Helvetica" font-size="12.00"  text-anchor="middle">
		<text><tspan font-family="Helvetica" >-0.2</tspan></text>
	</g>
</g>
<g fill="none" color="black" stroke="currentColor" stroke-width="1.00" stroke-linecap="butt" stroke-linejoin="miter">
	<path stroke='black'  d='M968.0,662.4 L968.0,653.4  '/>	<g transform="translate(968.0,684.3)" stroke="none" fill="black" font-family="Helvetica" font-size="12.00"  text-anchor="middle">
		<text><tspan font-family="Helvetica" >-0.18</tspan></text>
	</g>
</g>
<g fill="none" color="black" stroke="currentColor" stroke-width="1.00" stroke-linecap="butt" stroke-linejoin="miter">
</g>
<g fill="none" color="black" stroke="currentColor" stroke-width="1.00" stroke-linecap="butt" stroke-linejoin="miter">
	<path stroke='black'  d='M80.2,54.1 L80.2,662.4 L1013.6,662.4 L1013.6,54.1 L80.2,54.1 Z  '/></g>
<g fill="none" color="black" stroke="currentColor" stroke-width="1.00" stroke-linecap="butt" stroke-linejoin="miter">
	<g transform="translate(17.0,358.3) rotate(270)" stroke="none" fill="black" font-family="Helvetica" font-size="12.00"  text-anchor="middle">
		<text><tspan font-family="Helvetica" >Density (a.u.)</tspan></text>
	</g>
</g>
<g fill="none" color="black" stroke="currentColor" stroke-width="1.00" stroke-linecap="butt" stroke-linejoin="miter">
	<g transform="translate(546.9,711.3)" stroke="none" fill="black" font-family="Helvetica" font-size="12.00"  text-anchor="middle">
		<text><tspan font-family="Helvetica" >Relative change (%)</tspan></text>
	</g>
</g>
<g fill="none" color="black" stroke="currentColor" stroke-width="1.00" stroke-linecap="butt" stroke-linejoin="miter">
	<g transform="translate(546.9,31.0)" stroke="none" fill="black" font-family="Helvetica" font-size="12.00"  text-anchor="middle">
		<text><tspan font-family="Helvetica" >dfs arena ghostcell list mut: median</tspan></text>
	</g>
</g>
	<g id="gnuplot_plot_1" ><title>Bootstrap distribution</title>
<g fill="none" color="white" stroke="black" stroke-width="2.00" stroke-linecap="butt" stroke-linejoin="miter">
</g>
<g fill="none" color="black" stroke="currentColor" stroke-width="2.00" stroke-linecap="butt" stroke-linejoin="miter">
	<g transform="translate(1089.0,67.0)" stroke="none" fill="black" font-family="Helvetica" font-size="12.00"  text-anchor="start">
		<text><tspan font-family="Helvetica" >Bootstrap distribution</tspan></text>
	</g>
</g>
<g fill="none" color="black" stroke="currentColor" stroke-width="2.00" stroke-linecap="butt" stroke-linejoin="miter">
	<path stroke='rgb( 31, 120, 180)'  d='M1038.5,63.1 L1080.7,63.1 M80.2,635.7 L82.1,635.3 L83.9,634.8 L85.8,634.3 L87.7,633.8 L89.6,633.3
		L91.4,632.8 L93.3,632.2 L95.2,631.7 L97.0,631.2 L98.9,630.6 L100.8,630.0 L102.6,629.5 L104.5,628.9
		L106.4,628.2 L108.3,627.6 L110.1,626.9 L112.0,626.3 L113.9,625.6 L115.7,624.8 L117.6,624.1 L119.5,623.3
		L121.4,622.6 L123.2,621.8 L125.1,620.9 L127.0,620.1 L128.8,619.3 L130.7,618.4 L132.6,617.6 L134.4,616.7
		L136.3,615.9 L138.2,615.0 L140.1,614.2 L141.9,613.4 L143.8,612.6 L145.7,611.8 L147.5,611.1 L149.4,610.4
		L151.3,609.7 L153.2,609.0 L155.0,608.3 L156.9,607.6 L158.8,607.0 L160.6,606.3 L162.5,605.7 L164.4,605.1
		L166.2,604.4 L168.1,603.7 L170.0,603.0 L171.9,602.3 L173.7,601.5 L175.6,600.7 L177.5,599.9 L179.3,599.0
		L181.2,598.1 L183.1,597.1 L185.0,596.1 L186.8,595.0 L188.7,593.8 L190.6,592.6 L192.4,591.3 L194.3,590.0
		L196.2,588.6 L198.0,587.2 L199.9,585.7 L201.8,584.2 L203.7,582.7 L205.5,581.1 L207.4,579.5 L209.3,577.9
		L211.1,576.3 L213.0,574.6 L214.9,573.0 L216.7,571.4 L218.6,569.8 L220.5,568.2 L222.4,566.6 L224.2,565.0
		L226.1,563.4 L228.0,561.9 L229.8,560.4 L231.7,558.8 L233.6,557.3 L235.5,555.8 L237.3,554.3 L239.2,552.7
		L241.1,551.2 L242.9,549.6 L244.8,548.1 L246.7,546.5 L248.5,544.9 L250.4,543.2 L252.3,541.6 L254.2,539.9
		L256.0,538.2 L257.9,536.5 L259.8,534.7 L261.6,533.0 L263.5,531.2 L265.4,529.4 L267.3,527.6 L269.1,525.8
		L271.0,524.0 L272.9,522.1 L274.7,520.3 L276.6,518.4 L278.5,516.6 L280.3,514.7 L282.2,512.8 L284.1,511.0
		L286.0,509.1 L287.8,507.3 L289.7,505.5 L291.6,503.7 L293.4,501.9 L295.3,500.2 L297.2,498.5 L299.1,496.9
		L300.9,495.3 L302.8,493.8 L304.7,492.3 L306.5,490.9 L308.4,489.5 L310.3,488.2 L312.1,487.0 L314.0,485.7
		L315.9,484.4 L317.8,483.2 L319.6,481.9 L321.5,480.5 L323.4,479.1 L325.2,477.6 L327.1,475.9 L329.0,474.1
		L330.9,472.2 L332.7,470.0 L334.6,467.7 L336.5,465.1 L338.3,462.3 L340.2,459.3 L342.1,456.0 L343.9,452.5
		L345.8,448.7 L347.7,444.8 L349.6,440.6 L351.4,436.2 L353.3,431.6 L355.2,426.8 L357.0,422.0 L358.9,417.0
		L360.8,412.0 L362.7,407.0 L364.5,401.9 L366.4,396.9 L368.3,391.9 L370.1,387.0 L372.0,382.3 L373.9,377.6
		L375.7,373.1 L377.6,368.8 L379.5,364.6 L381.4,360.6 L383.2,356.8 L385.1,353.1 L387.0,349.6 L388.8,346.2
		L390.7,342.9 L392.6,339.7 L394.5,336.6 L396.3,333.5 L398.2,330.5 L400.1,327.6 L401.9,324.6 L403.8,321.7
		L405.7,318.7 L407.5,315.7 L409.4,312.7 L411.3,309.7 L413.2,306.7 L415.0,303.7 L416.9,300.7 L418.8,297.7
		L420.6,294.6 L422.5,291.6 L424.4,288.6 L426.3,285.7 L428.1,282.7 L430.0,279.8 L431.9,276.8 L433.7,273.9
		L435.6,271.0 L437.5,268.1 L439.3,265.2 L441.2,262.3 L443.1,259.3 L445.0,256.4 L446.8,253.4 L448.7,250.4
		L450.6,247.3 L452.4,244.2 L454.3,241.2 L456.2,238.0 L458.0,234.9 L459.9,231.8 L461.8,228.7 L463.7,225.6
		L465.5,222.6 L467.4,219.6 L469.3,216.6 L471.1,213.8 L473.0,210.9 L474.9,208.2 L476.8,205.5 L478.6,203.0
		L480.5,200.5 L482.4,198.1 L484.2,195.8 L486.1,193.5 L488.0,191.4 L489.8,189.3 L491.7,187.2 L493.6,185.2
		L495.5,183.3 L497.3,181.3 L499.2,179.4 L501.1,177.5 L502.9,175.6 L504.8,173.7 L506.7,171.7 L508.6,169.7
		L510.4,167.6 L512.3,165.5 L514.2,163.3 L516.0,161.1 L517.9,158.8 L519.8,156.4 L521.6,154.0 L523.5,151.6
		L525.4,149.2 L527.3,146.7 L529.1,144.3 L531.0,141.9 L532.9,139.6 L534.7,137.3 L536.6,135.1 L538.5,133.0
		L540.4,131.1 L542.2,129.3 L544.1,127.6 L546.0,126.0 L547.8,124.6 L549.7,123.4 L551.6,122.2 L553.4,121.2
		L555.3,120.3 L557.2,119.4 L559.1,118.6 L560.9,117.8 L562.8,117.0 L564.7,116.3 L566.5,115.4 L568.4,114.5
		L570.3,113.6 L572.2,112.5 L574.0,111.3 L575.9,110.0 L577.8,108.5 L579.6,106.9 L581.5,105.1 L583.4,103.3
		L585.2,101.3 L587.1,99.1 L589.0,96.9 L590.9,94.6 L592.7,92.3 L594.6,90.0 L596.5,87.6 L598.3,85.3
		L600.2,83.1 L602.1,81.0 L604.0,79.0 L605.8,77.1 L607.7,75.4 L609.6,73.9 L611.4,72.6 L613.3,71.5
		L615.2,70.7 L617.0,70.0 L618.9,69.6 L620.8,69.3 L622.7,69.2 L624.5,69.4 L626.4,69.7 L628.3,70.2
		L630.1,70.9 L632.0,71.7 L633.9,72.7 L635.8,73.9 L637.6,75.4 L639.5,77.0 L641.4,78.9 L643.2,81.0
		L645.1,83.5 L647.0,86.2 L648.8,89.2 L650.7,92.6 L652.6,96.4 L654.5,100.5 L656.3,104.9 L658.2,109.8
		L660.1,114.9 L661.9,120.3 L663.8,126.1 L665.7,132.0 L667.5,138.2 L669.4,144.5 L671.3,150.9 L673.2,157.4
		L675.0,163.8 L676.9,170.2 L678.8,176.5 L680.6,182.7 L682.5,188.6 L684.4,194.3 L686.3,199.8 L688.1,205.0
		L690.0,209.9 L691.9,214.5 L693.7,218.9 L695.6,223.1 L697.5,227.0 L699.3,230.7 L701.2,234.2 L703.1,237.6
		L705.0,240.9 L706.8,244.2 L708.7,247.5 L710.6,250.8 L712.4,254.2 L714.3,257.8 L716.2,261.5 L718.1,265.3
		L719.9,269.4 L721.8,273.7 L723.7,278.2 L725.5,283.0 L727.4,288.0 L729.3,293.3 L731.1,298.8 L733.0,304.4
		L734.9,310.3 L736.8,316.3 L738.6,322.4 L740.5,328.7 L742.4,335.0 L744.2,341.3 L746.1,347.7 L748.0,354.0
		L749.9,360.3 L751.7,366.5 L753.6,372.6 L755.5,378.6 L757.3,384.5 L759.2,390.2 L761.1,395.8 L762.9,401.2
		L764.8,406.4 L766.7,411.5 L768.6,416.4 L770.4,421.1 L772.3,425.7 L774.2,430.0 L776.0,434.2 L777.9,438.3
		L779.8,442.2 L781.7,446.0 L783.5,449.6 L785.4,453.1 L787.3,456.4 L789.1,459.7 L791.0,462.9 L792.9,465.9
		L794.7,468.9 L796.6,471.8 L798.5,474.7 L800.4,477.5 L802.2,480.2 L804.1,483.0 L806.0,485.7 L807.8,488.4
		L809.7,491.2 L811.6,493.9 L813.5,496.7 L815.3,499.5 L817.2,502.3 L819.1,505.2 L820.9,508.1 L822.8,511.0
		L824.7,514.0 L826.5,516.9 L828.4,519.9 L830.3,522.8 L832.2,525.8 L834.0,528.7 L835.9,531.6 L837.8,534.4
		L839.6,537.1 L841.5,539.8 L843.4,542.4 L845.3,545.0 L847.1,547.4 L849.0,549.7 L850.9,551.9 L852.7,554.0
		L854.6,556.0 L856.5,557.8 L858.3,559.6 L860.2,561.2 L862.1,562.7 L864.0,564.1 L865.8,565.4 L867.7,566.7
		L869.6,567.8 L871.4,568.9 L873.3,569.9 L875.2,570.9 L877.1,571.9 L878.9,572.9 L880.8,573.8 L882.7,574.8
		L884.5,575.8 L886.4,576.8 L888.3,577.9 L890.1,579.0 L892.0,580.1 L893.9,581.4 L895.8,582.7 L897.6,584.0
		L899.5,585.5 L901.4,586.9 L903.2,588.5 L905.1,590.0 L907.0,591.6 L908.8,593.3 L910.7,594.9 L912.6,596.5
		L914.5,598.2 L916.3,599.8 L918.2,601.4 L920.1,602.9 L921.9,604.5 L923.8,605.9 L925.7,607.3 L927.6,608.6
		L929.4,609.9 L931.3,611.1 L933.2,612.2 L935.0,613.2 L936.9,614.2 L938.8,615.1 L940.6,615.9 L942.5,616.6
		L944.4,617.3 L946.3,617.9 L948.1,618.4 L950.0,618.9 L951.9,619.3 L953.7,619.7 L955.6,620.1 L957.5,620.4
		L959.4,620.7 L961.2,621.0 L963.1,621.3 L965.0,621.6 L966.8,622.0 L968.7,622.3 L970.6,622.7 L972.4,623.1
		L974.3,623.6 L976.2,624.1 L978.1,624.6 L979.9,625.2 L981.8,625.8 L983.7,626.5 L985.5,627.2 L987.4,628.0
		L989.3,628.8 L991.2,629.6 L993.0,630.4 L994.9,631.2 L996.8,632.0 L998.6,632.8 L1000.5,633.7 L1002.4,634.4
		L1004.2,635.2 L1006.1,635.9 L1008.0,636.6 L1009.9,637.3 L1011.7,637.9 L1013.6,638.4  '/></g>
	</g>
	<g id="gnuplot_plot_2" ><title>Confidence interval</title>
<g fill="none" color="white" stroke="rgb( 31, 120, 180)" stroke-width="1.00" stroke-linecap="butt" stroke-linejoin="miter">
</g>
<g fill="none" color="black" stroke="currentColor" stroke-width="1.00" stroke-linecap="butt" stroke-linejoin="miter">
	<g transform="translate(1089.0,85.0)" stroke="none" fill="black" font-family="Helvetica" font-size="12.00"  text-anchor="start">
		<text><tspan font-family="Helvetica" >Confidence interval</tspan></text>
	</g>
</g>
<g fill="none" color="black" stroke="currentColor" stroke-width="1.00" stroke-linecap="butt" stroke-linejoin="miter">
	<g stroke='none' shape-rendering='crispEdges'>
		<polygon fill = 'rgb( 31, 120, 180)' fill-opacity = '0.250000' points = '1038.5,85.6 1080.7,85.6 1080.7,76.6 1038.5,76.6 '/>
		<polygon fill = 'rgb( 31, 120, 180)' fill-opacity = '0.250000' points = '166.2,604.4 166.2,662.4 168.1,662.4 168.1,603.7 '/>
		<polygon fill = 'rgb( 31, 120, 180)' fill-opacity = '0.250000' points = '168.1,603.7 168.1,662.4 170.0,662.4 170.0,603.0 '/>
		<polygon fill = 'rgb( 31, 120, 180)' fill-opacity = '0.250000' points = '170.0,603.0 170.0,662.4 171.9,662.4 171.9,602.3 '/>
		<polygon fill = 'rgb( 31, 120, 180)' fill-opacity = '0.250000' points = '171.9,602.3 171.9,662.4 173.7,662.4 173.7,601.5 '/>
		<polygon fill = 'rgb( 31, 120, 180)' fill-opacity = '0.250000' points = '173.7,601.5 173.7,662.4 175.6,662.4 175.6,600.7 '/>
		<polygon fill = 'rgb( 31, 120, 180)' fill-opacity = '0.250000' points = '175.6,600.7 175.6,662.4 177.5,662.4 177.5,599.9 '/>
		<polygon fill = 'rgb( 31, 120, 180)' fill-opacity = '0.250000' points = '177.5,599.9 177.5,662.4 179.3,662.4 179.3,599.0 '/>
		<polygon fill = 'rgb( 31, 120, 180)' fill-opacity = '0.250000' points = '179.3,599.0 179.3,662.4 181.2,662.4 181.2,598.1 '/>
		<polygon fill = 'rgb( 31, 120, 180)' fill-opacity = '0.250000' points = '181.2,598.1 181.2,662.4 183.1,662.4 183.1,597.1 '/>
		<polygon fill = 'rgb( 31, 120, 180)' fill-opacity = '0.250000' points = '183.1,597.1 183.1,662.4 185.0,662.4 185.0,596.1 '/>
		<polygon fill = 'rgb( 31, 120, 180)' fill-opacity = '0.250000' points = '185.0,596.1 185.0,662.4 186.8,662.4 186.8,595.0 '/>
		<polygon fill = 'rgb( 31, 120, 180)' fill-opacity = '0.250000' points = '186.8,595.0 186.8,662.4 188.7,662.4 188.7,593.8 '/>
		<polygon fill = 'rgb( 31, 120, 180)' fill-opacity = '0.250000' points = '188.7,593.8 188.7,662.4 190.6,662.4 190.6,592.6 '/>
		<polygon fill = 'rgb( 31, 120, 180)' fill-opacity = '0.250000' points = '190.6,592.6 190.6,662.4 192.4,662.4 192.4,591.3 '/>
		<polygon fill = 'rgb( 31, 120, 180)' fill-opacity = '0.250000' points = '192.4,591.3 192.4,662.4 194.3,662.4 194.3,590.0 '/>
		<polygon fill = 'rgb( 31, 120, 180)' fill-opacity = '0.250000' points = '194.3,590.0 194.3,662.4 196.2,662.4 196.2,588.6 '/>
		<polygon fill = 'rgb( 31, 120, 180)' fill-opacity = '0.250000' points = '196.2,588.6 196.2,662.4 198.0,662.4 198.0,587.2 '/>
		<polygon fill = 'rgb( 31, 120, 180)' fill-opacity = '0.250000' points = '198.0,587.2 198.0,662.4 199.9,662.4 199.9,585.7 '/>
		<polygon fill = 'rgb( 31, 120, 180)' fill-opacity = '0.250000' points = '199.9,585.7 199.9,662.4 201.8,662.4 201.8,584.2 '/>
		<polygon fill = 'rgb( 31, 120, 180)' fill-opacity = '0.250000' points = '201.8,584.2 201.8,662.4 203.7,662.4 203.7,582.7 '/>
		<polygon fill = 'rgb( 31, 120, 180)' fill-opacity = '0.250000' points = '203.7,582.7 203.7,662.4 205.5,662.4 205.5,581.1 '/>
		<polygon fill = 'rgb( 31, 120, 180)' fill-opacity = '0.250000' points = '205.5,581.1 205.5,662.4 207.4,662.4 207.4,579.5 '/>
		<polygon fill = 'rgb( 31, 120, 180)' fill-opacity = '0.250000' points = '207.4,579.5 207.4,662.4 209.3,662.4 209.3,577.9 '/>
		<polygon fill = 'rgb( 31, 120, 180)' fill-opacity = '0.250000' points = '209.3,577.9 209.3,662.4 211.1,662.4 211.1,576.3 '/>
		<polygon fill = 'rgb( 31, 120, 180)' fill-opacity = '0.250000' points = '211.1,576.3 211.1,662.4 213.0,662.4 213.0,574.6 '/>
		<polygon fill = 'rgb( 31, 120, 180)' fill-opacity = '0.250000' points = '213.0,574.6 213.0,662.4 214.9,662.4 214.9,573.0 '/>
		<polygon fill = 'rgb( 31, 120, 180)' fill-opacity = '0.250000' points = '214.9,573.0 214.9,662.4 216.7,662.4 216.7,571.4 '/>
		<polygon fill = 'rgb( 31, 120, 180)' fill-opacity = '0.250000' points = '216.7,571.4 216.7,662.4 218.6,662.4 218.6,569.8 '/>
		<polygon fill = 'rgb( 31, 120, 180)' fill-opacity = '0.250000' points = '218.6,569.8 218.6,662.4 220.5,662.4 220.5,568.2 '/>
		<polygon fill = 'rgb( 31, 120, 180)' fill-opacity = '0.250000' points = '220.5,568.2 220.5,662.4 222.4,662.4 222.4,566.6 '/>
		<polygon fill = 'rgb( 31, 120, 180)' fill-opacity = '0.250000' points = '222.4,566.6 222.4,662.4 224.2,662.4 224.2,565.0 '/>
		<polygon fill = 'rgb( 31, 120, 180)' fill-opacity = '0.250000' points = '224.2,565.0 224.2,662.4 226.1,662.4 226.1,563.4 '/>
		<polygon fill = 'rgb( 31, 120, 180)' fill-opacity = '0.250000' points = '226.1,563.4 226.1,662.4 228.0,662.4 228.0,561.9 '/>
		<polygon fill = 'rgb( 31, 120, 180)' fill-opacity = '0.250000' points = '228.0,561.9 228.0,662.4 229.8,662.4 229.8,560.4 '/>
		<polygon fill = 'rgb( 31, 120, 180)' fill-opacity = '0.250000' points = '229.8,560.4 229.8,662.4 231.7,662.4 231.7,558.8 '/>
		<polygon fill = 'rgb( 31, 120, 180)' fill-opacity = '0.250000' points = '231.7,558.8 231.7,662.4 233.6,662.4 233.6,557.3 '/>
		<polygon fill = 'rgb( 31, 120, 180)' fill-opacity = '0.250000' points = '233.6,557.3 233.6,662.4 235.5,662.4 235.5,555.8 '/>
		<polygon fill = 'rgb( 31, 120, 180)' fill-opacity = '0.250000' points = '235.5,555.8 235.5,662.4 237.3,662.4 237.3,554.3 '/>
		<polygon fill = 'rgb( 31, 120, 180)' fill-opacity = '0.250000' points = '237.3,554.3 237.3,662.4 239.2,662.4 239.2,552.7 '/>
		<polygon fill = 'rgb( 31, 120, 180)' fill-opacity = '0.250000' points = '239.2,552.7 239.2,662.4 241.1,662.4 241.1,551.2 '/>
		<polygon fill = 'rgb( 31, 120, 180)' fill-opacity = '0.250000' points = '241.1,551.2 241.1,662.4 242.9,662.4 242.9,549.6 '/>
		<polygon fill = 'rgb( 31, 120, 180)' fill-opacity = '0.250000' points = '242.9,549.6 242.9,662.4 244.8,662.4 244.8,548.1 '/>
		<polygon fill = 'rgb( 31, 120, 180)' fill-opacity = '0.250000' points = '244.8,548.1 244.8,662.4 246.7,662.4 246.7,546.5 '/>
		<polygon fill = 'rgb( 31, 120, 180)' fill-opacity = '0.250000' points = '246.7,546.5 246.7,662.4 248.5,662.4 248.5,544.9 '/>
		<polygon fill = 'rgb( 31, 120, 180)' fill-opacity = '0.250000' points = '248.5,544.9 248.5,662.4 250.4,662.4 250.4,543.2 '/>
		<polygon fill = 'rgb( 31, 120, 180)' fill-opacity = '0.250000' points = '250.4,543.2 250.4,662.4 252.3,662.4 252.3,541.6 '/>
		<polygon fill = 'rgb( 31, 120, 180)' fill-opacity = '0.250000' points = '252.3,541.6 252.3,662.4 254.2,662.4 254.2,539.9 '/>
		<polygon fill = 'rgb( 31, 120, 180)' fill-opacity = '0.250000' points = '254.2,539.9 254.2,662.4 256.0,662.4 256.0,538.2 '/>
		<polygon fill = 'rgb( 31, 120, 180)' fill-opacity = '0.250000' points = '256.0,538.2 256.0,662.4 257.9,662.4 257.9,536.5 '/>
		<polygon fill = 'rgb( 31, 120, 180)' fill-opacity = '0.250000' points = '257.9,536.5 257.9,662.4 259.8,662.4 259.8,534.7 '/>
		<polygon fill = 'rgb( 31, 120, 180)' fill-opacity = '0.250000' points = '259.8,534.7 259.8,662.4 261.6,662.4 261.6,533.0 '/>
		<polygon fill = 'rgb( 31, 120, 180)' fill-opacity = '0.250000' points = '261.6,533.0 261.6,662.4 263.5,662.4 263.5,531.2 '/>
		<polygon fill = 'rgb( 31, 120, 180)' fill-opacity = '0.250000' points = '263.5,531.2 263.5,662.4 265.4,662.4 265.4,529.4 '/>
		<polygon fill = 'rgb( 31, 120, 180)' fill-opacity = '0.250000' points = '265.4,529.4 265.4,662.4 267.3,662.4 267.3,527.6 '/>
		<polygon fill = 'rgb( 31, 120, 180)' fill-opacity = '0.250000' points = '267.3,527.6 267.3,662.4 269.1,662.4 269.1,525.8 '/>
		<polygon fill = 'rgb( 31, 120, 180)' fill-opacity = '0.250000' points = '269.1,525.8 269.1,662.4 271.0,662.4 271.0,524.0 '/>
		<polygon fill = 'rgb( 31, 120, 180)' fill-opacity = '0.250000' points = '271.0,524.0 271.0,662.4 272.9,662.4 272.9,522.1 '/>
		<polygon fill = 'rgb( 31, 120, 180)' fill-opacity = '0.250000' points = '272.9,522.1 272.9,662.4 274.7,662.4 274.7,520.3 '/>
		<polygon fill = 'rgb( 31, 120, 180)' fill-opacity = '0.250000' points = '274.7,520.3 274.7,662.4 276.6,662.4 276.6,518.4 '/>
		<polygon fill = 'rgb( 31, 120, 180)' fill-opacity = '0.250000' points = '276.6,518.4 276.6,662.4 278.5,662.4 278.5,516.6 '/>
		<polygon fill = 'rgb( 31, 120, 180)' fill-opacity = '0.250000' points = '278.5,516.6 278.5,662.4 280.3,662.4 280.3,514.7 '/>
		<polygon fill = 'rgb( 31, 120, 180)' fill-opacity = '0.250000' points = '280.3,514.7 280.3,662.4 282.2,662.4 282.2,512.8 '/>
		<polygon fill = 'rgb( 31, 120, 180)' fill-opacity = '0.250000' points = '282.2,512.8 282.2,662.4 284.1,662.4 284.1,511.0 '/>
		<polygon fill = 'rgb( 31, 120, 180)' fill-opacity = '0.250000' points = '284.1,511.0 284.1,662.4 286.0,662.4 286.0,509.1 '/>
		<polygon fill = 'rgb( 31, 120, 180)' fill-opacity = '0.250000' points = '286.0,509.1 286.0,662.4 287.8,662.4 287.8,507.3 '/>
		<polygon fill = 'rgb( 31, 120, 180)' fill-opacity = '0.250000' points = '287.8,507.3 287.8,662.4 289.7,662.4 289.7,505.5 '/>
		<polygon fill = 'rgb( 31, 120, 180)' fill-opacity = '0.250000' points = '289.7,505.5 289.7,662.4 291.6,662.4 291.6,503.7 '/>
		<polygon fill = 'rgb( 31, 120, 180)' fill-opacity = '0.250000' points = '291.6,503.7 291.6,662.4 293.4,662.4 293.4,501.9 '/>
		<polygon fill = 'rgb( 31, 120, 180)' fill-opacity = '0.250000' points = '293.4,501.9 293.4,662.4 295.3,662.4 295.3,500.2 '/>
		<polygon fill = 'rgb( 31, 120, 180)' fill-opacity = '0.250000' points = '295.3,500.2 295.3,662.4 297.2,662.4 297.2,498.5 '/>
		<polygon fill = 'rgb( 31, 120, 180)' fill-opacity = '0.250000' points = '297.2,498.5 297.2,662.4 299.1,662.4 299.1,496.9 '/>
		<polygon fill = 'rgb( 31, 120, 180)' fill-opacity = '0.250000' points = '299.1,496.9 299.1,662.4 300.9,662.4 300.9,495.3 '/>
		<polygon fill = 'rgb( 31, 120, 180)' fill-opacity = '0.250000' points = '300.9,495.3 300.9,662.4 302.8,662.4 302.8,493.8 '/>
		<polygon fill = 'rgb( 31, 120, 180)' fill-opacity = '0.250000' points = '302.8,493.8 302.8,662.4 304.7,662.4 304.7,492.3 '/>
		<polygon fill = 'rgb( 31, 120, 180)' fill-opacity = '0.250000' points = '304.7,492.3 304.7,662.4 306.5,662.4 306.5,490.9 '/>
		<polygon fill = 'rgb( 31, 120, 180)' fill-opacity = '0.250000' points = '306.5,490.9 306.5,662.4 308.4,662.4 308.4,489.5 '/>
		<polygon fill = 'rgb( 31, 120, 180)' fill-opacity = '0.250000' points = '308.4,489.5 308.4,662.4 310.3,662.4 310.3,488.2 '/>
		<polygon fill = 'rgb( 31, 120, 180)' fill-opacity = '0.250000' points = '310.3,488.2 310.3,662.4 312.1,662.4 312.1,487.0 '/>
		<polygon fill = 'rgb( 31, 120, 180)' fill-opacity = '0.250000' points = '312.1,487.0 312.1,662.4 314.0,662.4 314.0,485.7 '/>
		<polygon fill = 'rgb( 31, 120, 180)' fill-opacity = '0.250000' points = '314.0,485.7 314.0,662.4 315.9,662.4 315.9,484.4 '/>
		<polygon fill = 'rgb( 31, 120, 180)' fill-opacity = '0.250000' points = '315.9,484.4 315.9,662.4 317.8,662.4 317.8,483.2 '/>
		<polygon fill = 'rgb( 31, 120, 180)' fill-opacity = '0.250000' points = '317.8,483.2 317.8,662.4 319.6,662.4 319.6,481.9 '/>
		<polygon fill = 'rgb( 31, 120, 180)' fill-opacity = '0.250000' points = '319.6,481.9 319.6,662.4 321.5,662.4 321.5,480.5 '/>
		<polygon fill = 'rgb( 31, 120, 180)' fill-opacity = '0.250000' points = '321.5,480.5 321.5,662.4 323.4,662.4 323.4,479.1 '/>
		<polygon fill = 'rgb( 31, 120, 180)' fill-opacity = '0.250000' points = '323.4,479.1 323.4,662.4 325.2,662.4 325.2,477.6 '/>
		<polygon fill = 'rgb( 31, 120, 180)' fill-opacity = '0.250000' points = '325.2,477.6 325.2,662.4 327.1,662.4 327.1,475.9 '/>
		<polygon fill = 'rgb( 31, 120, 180)' fill-opacity = '0.250000' points = '327.1,475.9 327.1,662.4 329.0,662.4 329.0,474.1 '/>
		<polygon fill = 'rgb( 31, 120, 180)' fill-opacity = '0.250000' points = '329.0,474.1 329.0,662.4 330.9,662.4 330.9,472.2 '/>
		<polygon fill = 'rgb( 31, 120, 180)' fill-opacity = '0.250000' points = '330.9,472.2 330.9,662.4 332.7,662.4 332.7,470.0 '/>
		<polygon fill = 'rgb( 31, 120, 180)' fill-opacity = '0.250000' points = '332.7,470.0 332.7,662.4 334.6,662.4 334.6,467.7 '/>
		<polygon fill = 'rgb( 31, 120, 180)' fill-opacity = '0.250000' points = '334.6,467.7 334.6,662.4 336.5,662.4 336.5,465.1 '/>
		<polygon fill = 'rgb( 31, 120, 180)' fill-opacity = '0.250000' points = '336.5,465.1 336.5,662.4 338.3,662.4 338.3,462.3 '/>
		<polygon fill = 'rgb( 31, 120, 180)' fill-opacity = '0.250000' points = '338.3,462.3 338.3,662.4 340.2,662.4 340.2,459.3 '/>
		<polygon fill = 'rgb( 31, 120, 180)' fill-opacity = '0.250000' points = '340.2,459.3 340.2,662.4 342.1,662.4 342.1,456.0 '/>
		<polygon fill = 'rgb( 31, 120, 180)' fill-opacity = '0.250000' points = '342.1,456.0 342.1,662.4 343.9,662.4 343.9,452.5 '/>
		<polygon fill = 'rgb( 31, 120, 180)' fill-opacity = '0.250000' points = '343.9,452.5 343.9,662.4 345.8,662.4 345.8,448.7 '/>
		<polygon fill = 'rgb( 31, 120, 180)' fill-opacity = '0.250000' points = '345.8,448.7 345.8,662.4 347.7,662.4 347.7,444.8 '/>
		<polygon fill = 'rgb( 31, 120, 180)' fill-opacity = '0.250000' points = '347.7,444.8 347.7,662.4 349.6,662.4 349.6,440.6 '/>
		<polygon fill = 'rgb( 31, 120, 180)' fill-opacity = '0.250000' points = '349.6,440.6 349.6,662.4 351.4,662.4 351.4,436.2 '/>
		<polygon fill = 'rgb( 31, 120, 180)' fill-opacity = '0.250000' points = '351.4,436.2 351.4,662.4 353.3,662.4 353.3,431.6 '/>
		<polygon fill = 'rgb( 31, 120, 180)' fill-opacity = '0.250000' points = '353.3,431.6 353.3,662.4 355.2,662.4 355.2,426.8 '/>
		<polygon fill = 'rgb( 31, 120, 180)' fill-opacity = '0.250000' points = '355.2,426.8 355.2,662.4 357.0,662.4 357.0,422.0 '/>
		<polygon fill = 'rgb( 31, 120, 180)' fill-opacity = '0.250000' points = '357.0,422.0 357.0,662.4 358.9,662.4 358.9,417.0 '/>
		<polygon fill = 'rgb( 31, 120, 180)' fill-opacity = '0.250000' points = '358.9,417.0 358.9,662.4 360.8,662.4 360.8,412.0 '/>
		<polygon fill = 'rgb( 31, 120, 180)' fill-opacity = '0.250000' points = '360.8,412.0 360.8,662.4 362.7,662.4 362.7,407.0 '/>
		<polygon fill = 'rgb( 31, 120, 180)' fill-opacity = '0.250000' points = '362.7,407.0 362.7,662.4 364.5,662.4 364.5,401.9 '/>
		<polygon fill = 'rgb( 31, 120, 180)' fill-opacity = '0.250000' points = '364.5,401.9 364.5,662.4 366.4,662.4 366.4,396.9 '/>
		<polygon fill = 'rgb( 31, 120, 180)' fill-opacity = '0.250000' points = '366.4,396.9 366.4,662.4 368.3,662.4 368.3,391.9 '/>
		<polygon fill = 'rgb( 31, 120, 180)' fill-opacity = '0.250000' points = '368.3,391.9 368.3,662.4 370.1,662.4 370.1,387.0 '/>
		<polygon fill = 'rgb( 31, 120, 180)' fill-opacity = '0.250000' points = '370.1,387.0 370.1,662.4 372.0,662.4 372.0,382.3 '/>
		<polygon fill = 'rgb( 31, 120, 180)' fill-opacity = '0.250000' points = '372.0,382.3 372.0,662.4 373.9,662.4 373.9,377.6 '/>
		<polygon fill = 'rgb( 31, 120, 180)' fill-opacity = '0.250000' points = '373.9,377.6 373.9,662.4 375.7,662.4 375.7,373.1 '/>
		<polygon fill = 'rgb( 31, 120, 180)' fill-opacity = '0.250000' points = '375.7,373.1 375.7,662.4 377.6,662.4 377.6,368.8 '/>
		<polygon fill = 'rgb( 31, 120, 180)' fill-opacity = '0.250000' points = '377.6,368.8 377.6,662.4 379.5,662.4 379.5,364.6 '/>
		<polygon fill = 'rgb( 31, 120, 180)' fill-opacity = '0.250000' points = '379.5,364.6 379.5,662.4 381.4,662.4 381.4,360.6 '/>
		<polygon fill = 'rgb( 31, 120, 180)' fill-opacity = '0.250000' points = '381.4,360.6 381.4,662.4 383.2,662.4 383.2,356.8 '/>
		<polygon fill = 'rgb( 31, 120, 180)' fill-opacity = '0.250000' points = '383.2,356.8 383.2,662.4 385.1,662.4 385.1,353.1 '/>
		<polygon fill = 'rgb( 31, 120, 180)' fill-opacity = '0.250000' points = '385.1,353.1 385.1,662.4 387.0,662.4 387.0,349.6 '/>
		<polygon fill = 'rgb( 31, 120, 180)' fill-opacity = '0.250000' points = '387.0,349.6 387.0,662.4 388.8,662.4 388.8,346.2 '/>
		<polygon fill = 'rgb( 31, 120, 180)' fill-opacity = '0.250000' points = '388.8,346.2 388.8,662.4 390.7,662.4 390.7,342.9 '/>
		<polygon fill = 'rgb( 31, 120, 180)' fill-opacity = '0.250000' points = '390.7,342.9 390.7,662.4 392.6,662.4 392.6,339.7 '/>
		<polygon fill = 'rgb( 31, 120, 180)' fill-opacity = '0.250000' points = '392.6,339.7 392.6,662.4 394.5,662.4 394.5,336.6 '/>
		<polygon fill = 'rgb( 31, 120, 180)' fill-opacity = '0.250000' points = '394.5,336.6 394.5,662.4 396.3,662.4 396.3,333.5 '/>
		<polygon fill = 'rgb( 31, 120, 180)' fill-opacity = '0.250000' points = '396.3,333.5 396.3,662.4 398.2,662.4 398.2,330.5 '/>
		<polygon fill = 'rgb( 31, 120, 180)' fill-opacity = '0.250000' points = '398.2,330.5 398.2,662.4 400.1,662.4 400.1,327.6 '/>
		<polygon fill = 'rgb( 31, 120, 180)' fill-opacity = '0.250000' points = '400.1,327.6 400.1,662.4 401.9,662.4 401.9,324.6 '/>
		<polygon fill = 'rgb( 31, 120, 180)' fill-opacity = '0.250000' points = '401.9,324.6 401.9,662.4 403.8,662.4 403.8,321.7 '/>
		<polygon fill = 'rgb( 31, 120, 180)' fill-opacity = '0.250000' points = '403.8,321.7 403.8,662.4 405.7,662.4 405.7,318.7 '/>
		<polygon fill = 'rgb( 31, 120, 180)' fill-opacity = '0.250000' points = '405.7,318.7 405.7,662.4 407.5,662.4 407.5,315.7 '/>
		<polygon fill = 'rgb( 31, 120, 180)' fill-opacity = '0.250000' points = '407.5,315.7 407.5,662.4 409.4,662.4 409.4,312.7 '/>
		<polygon fill = 'rgb( 31, 120, 180)' fill-opacity = '0.250000' points = '409.4,312.7 409.4,662.4 411.3,662.4 411.3,309.7 '/>
		<polygon fill = 'rgb( 31, 120, 180)' fill-opacity = '0.250000' points = '411.3,309.7 411.3,662.4 413.2,662.4 413.2,306.7 '/>
		<polygon fill = 'rgb( 31, 120, 180)' fill-opacity = '0.250000' points = '413.2,306.7 413.2,662.4 415.0,662.4 415.0,303.7 '/>
		<polygon fill = 'rgb( 31, 120, 180)' fill-opacity = '0.250000' points = '415.0,303.7 415.0,662.4 416.9,662.4 416.9,300.7 '/>
		<polygon fill = 'rgb( 31, 120, 180)' fill-opacity = '0.250000' points = '416.9,300.7 416.9,662.4 418.8,662.4 418.8,297.7 '/>
		<polygon fill = 'rgb( 31, 120, 180)' fill-opacity = '0.250000' points = '418.8,297.7 418.8,662.4 420.6,662.4 420.6,294.6 '/>
		<polygon fill = 'rgb( 31, 120, 180)' fill-opacity = '0.250000' points = '420.6,294.6 420.6,662.4 422.5,662.4 422.5,291.6 '/>
		<polygon fill = 'rgb( 31, 120, 180)' fill-opacity = '0.250000' points = '422.5,291.6 422.5,662.4 424.4,662.4 424.4,288.6 '/>
		<polygon fill = 'rgb( 31, 120, 180)' fill-opacity = '0.250000' points = '424.4,288.6 424.4,662.4 426.3,662.4 426.3,285.7 '/>
		<polygon fill = 'rgb( 31, 120, 180)' fill-opacity = '0.250000' points = '426.3,285.7 426.3,662.4 428.1,662.4 428.1,282.7 '/>
		<polygon fill = 'rgb( 31, 120, 180)' fill-opacity = '0.250000' points = '428.1,282.7 428.1,662.4 430.0,662.4 430.0,279.8 '/>
		<polygon fill = 'rgb( 31, 120, 180)' fill-opacity = '0.250000' points = '430.0,279.8 430.0,662.4 431.9,662.4 431.9,276.8 '/>
		<polygon fill = 'rgb( 31, 120, 180)' fill-opacity = '0.250000' points = '431.9,276.8 431.9,662.4 433.7,662.4 433.7,273.9 '/>
		<polygon fill = 'rgb( 31, 120, 180)' fill-opacity = '0.250000' points = '433.7,273.9 433.7,662.4 435.6,662.4 435.6,271.0 '/>
		<polygon fill = 'rgb( 31, 120, 180)' fill-opacity = '0.250000' points = '435.6,271.0 435.6,662.4 437.5,662.4 437.5,268.1 '/>
		<polygon fill = 'rgb( 31, 120, 180)' fill-opacity = '0.250000' points = '437.5,268.1 437.5,662.4 439.3,662.4 439.3,265.2 '/>
		<polygon fill = 'rgb( 31, 120, 180)' fill-opacity = '0.250000' points = '439.3,265.2 439.3,662.4 441.2,662.4 441.2,262.3 '/>
		<polygon fill = 'rgb( 31, 120, 180)' fill-opacity = '0.250000' points = '441.2,262.3 441.2,662.4 443.1,662.4 443.1,259.3 '/>
		<polygon fill = 'rgb( 31, 120, 180)' fill-opacity = '0.250000' points = '443.1,259.3 443.1,662.4 445.0,662.4 445.0,256.4 '/>
		<polygon fill = 'rgb( 31, 120, 180)' fill-opacity = '0.250000' points = '445.0,256.4 445.0,662.4 446.8,662.4 446.8,253.4 '/>
		<polygon fill = 'rgb( 31, 120, 180)' fill-opacity = '0.250000' points = '446.8,253.4 446.8,662.4 448.7,662.4 448.7,250.4 '/>
		<polygon fill = 'rgb( 31, 120, 180)' fill-opacity = '0.250000' points = '448.7,250.4 448.7,662.4 450.6,662.4 450.6,247.3 '/>
		<polygon fill = 'rgb( 31, 120, 180)' fill-opacity = '0.250000' points = '450.6,247.3 450.6,662.4 452.4,662.4 452.4,244.2 '/>
		<polygon fill = 'rgb( 31, 120, 180)' fill-opacity = '0.250000' points = '452.4,244.2 452.4,662.4 454.3,662.4 454.3,241.2 '/>
		<polygon fill = 'rgb( 31, 120, 180)' fill-opacity = '0.250000' points = '454.3,241.2 454.3,662.4 456.2,662.4 456.2,238.0 '/>
		<polygon fill = 'rgb( 31, 120, 180)' fill-opacity = '0.250000' points = '456.2,238.0 456.2,662.4 458.0,662.4 458.0,234.9 '/>
		<polygon fill = 'rgb( 31, 120, 180)' fill-opacity = '0.250000' points = '458.0,234.9 458.0,662.4 459.9,662.4 459.9,231.8 '/>
		<polygon fill = 'rgb( 31, 120, 180)' fill-opacity = '0.250000' points = '459.9,231.8 459.9,662.4 461.8,662.4 461.8,228.7 '/>
		<polygon fill = 'rgb( 31, 120, 180)' fill-opacity = '0.250000' points = '461.8,228.7 461.8,662.4 463.7,662.4 463.7,225.6 '/>
		<polygon fill = 'rgb( 31, 120, 180)' fill-opacity = '0.250000' points = '463.7,225.6 463.7,662.4 465.5,662.4 465.5,222.6 '/>
		<polygon fill = 'rgb( 31, 120, 180)' fill-opacity = '0.250000' points = '465.5,222.6 465.5,662.4 467.4,662.4 467.4,219.6 '/>
		<polygon fill = 'rgb( 31, 120, 180)' fill-opacity = '0.250000' points = '467.4,219.6 467.4,662.4 469.3,662.4 469.3,216.6 '/>
		<polygon fill = 'rgb( 31, 120, 180)' fill-opacity = '0.250000' points = '469.3,216.6 469.3,662.4 471.1,662.4 471.1,213.8 '/>
		<polygon fill = 'rgb( 31, 120, 180)' fill-opacity = '0.250000' points = '471.1,213.8 471.1,662.4 473.0,662.4 473.0,210.9 '/>
		<polygon fill = 'rgb( 31, 120, 180)' fill-opacity = '0.250000' points = '473.0,210.9 473.0,662.4 474.9,662.4 474.9,208.2 '/>
		<polygon fill = 'rgb( 31, 120, 180)' fill-opacity = '0.250000' points = '474.9,208.2 474.9,662.4 476.8,662.4 476.8,205.5 '/>
		<polygon fill = 'rgb( 31, 120, 180)' fill-opacity = '0.250000' points = '476.8,205.5 476.8,662.4 478.6,662.4 478.6,203.0 '/>
		<polygon fill = 'rgb( 31, 120, 180)' fill-opacity = '0.250000' points = '478.6,203.0 478.6,662.4 480.5,662.4 480.5,200.5 '/>
		<polygon fill = 'rgb( 31, 120, 180)' fill-opacity = '0.250000' points = '480.5,200.5 480.5,662.4 482.4,662.4 482.4,198.1 '/>
		<polygon fill = 'rgb( 31, 120, 180)' fill-opacity = '0.250000' points = '482.4,198.1 482.4,662.4 484.2,662.4 484.2,195.8 '/>
		<polygon fill = 'rgb( 31, 120, 180)' fill-opacity = '0.250000' points = '484.2,195.8 484.2,662.4 486.1,662.4 486.1,193.5 '/>
		<polygon fill = 'rgb( 31, 120, 180)' fill-opacity = '0.250000' points = '486.1,193.5 486.1,662.4 488.0,662.4 488.0,191.4 '/>
		<polygon fill = 'rgb( 31, 120, 180)' fill-opacity = '0.250000' points = '488.0,191.4 488.0,662.4 489.8,662.4 489.8,189.3 '/>
		<polygon fill = 'rgb( 31, 120, 180)' fill-opacity = '0.250000' points = '489.8,189.3 489.8,662.4 491.7,662.4 491.7,187.2 '/>
		<polygon fill = 'rgb( 31, 120, 180)' fill-opacity = '0.250000' points = '491.7,187.2 491.7,662.4 493.6,662.4 493.6,185.2 '/>
		<polygon fill = 'rgb( 31, 120, 180)' fill-opacity = '0.250000' points = '493.6,185.2 493.6,662.4 495.5,662.4 495.5,183.3 '/>
		<polygon fill = 'rgb( 31, 120, 180)' fill-opacity = '0.250000' points = '495.5,183.3 495.5,662.4 497.3,662.4 497.3,181.3 '/>
		<polygon fill = 'rgb( 31, 120, 180)' fill-opacity = '0.250000' points = '497.3,181.3 497.3,662.4 499.2,662.4 499.2,179.4 '/>
		<polygon fill = 'rgb( 31, 120, 180)' fill-opacity = '0.250000' points = '499.2,179.4 499.2,662.4 501.1,662.4 501.1,177.5 '/>
		<polygon fill = 'rgb( 31, 120, 180)' fill-opacity = '0.250000' points = '501.1,177.5 501.1,662.4 502.9,662.4 502.9,175.6 '/>
		<polygon fill = 'rgb( 31, 120, 180)' fill-opacity = '0.250000' points = '502.9,175.6 502.9,662.4 504.8,662.4 504.8,173.7 '/>
		<polygon fill = 'rgb( 31, 120, 180)' fill-opacity = '0.250000' points = '504.8,173.7 504.8,662.4 506.7,662.4 506.7,171.7 '/>
		<polygon fill = 'rgb( 31, 120, 180)' fill-opacity = '0.250000' points = '506.7,171.7 506.7,662.4 508.6,662.4 508.6,169.7 '/>
		<polygon fill = 'rgb( 31, 120, 180)' fill-opacity = '0.250000' points = '508.6,169.7 508.6,662.4 510.4,662.4 510.4,167.6 '/>
		<polygon fill = 'rgb( 31, 120, 180)' fill-opacity = '0.250000' points = '510.4,167.6 510.4,662.4 512.3,662.4 512.3,165.5 '/>
		<polygon fill = 'rgb( 31, 120, 180)' fill-opacity = '0.250000' points = '512.3,165.5 512.3,662.4 514.2,662.4 514.2,163.3 '/>
		<polygon fill = 'rgb( 31, 120, 180)' fill-opacity = '0.250000' points = '514.2,163.3 514.2,662.4 516.0,662.4 516.0,161.1 '/>
		<polygon fill = 'rgb( 31, 120, 180)' fill-opacity = '0.250000' points = '516.0,161.1 516.0,662.4 517.9,662.4 517.9,158.8 '/>
		<polygon fill = 'rgb( 31, 120, 180)' fill-opacity = '0.250000' points = '517.9,158.8 517.9,662.4 519.8,662.4 519.8,156.4 '/>
		<polygon fill = 'rgb( 31, 120, 180)' fill-opacity = '0.250000' points = '519.8,156.4 519.8,662.4 521.6,662.4 521.6,154.0 '/>
		<polygon fill = 'rgb( 31, 120, 180)' fill-opacity = '0.250000' points = '521.6,154.0 521.6,662.4 523.5,662.4 523.5,151.6 '/>
		<polygon fill = 'rgb( 31, 120, 180)' fill-opacity = '0.250000' points = '523.5,151.6 523.5,662.4 525.4,662.4 525.4,149.2 '/>
		<polygon fill = 'rgb( 31, 120, 180)' fill-opacity = '0.250000' points = '525.4,149.2 525.4,662.4 527.3,662.4 527.3,146.7 '/>
		<polygon fill = 'rgb( 31, 120, 180)' fill-opacity = '0.250000' points = '527.3,146.7 527.3,662.4 529.1,662.4 529.1,144.3 '/>
		<polygon fill = 'rgb( 31, 120, 180)' fill-opacity = '0.250000' points = '529.1,144.3 529.1,662.4 531.0,662.4 531.0,141.9 '/>
		<polygon fill = 'rgb( 31, 120, 180)' fill-opacity = '0.250000' points = '531.0,141.9 531.0,662.4 532.9,662.4 532.9,139.6 '/>
		<polygon fill = 'rgb( 31, 120, 180)' fill-opacity = '0.250000' points = '532.9,139.6 532.9,662.4 534.7,662.4 534.7,137.3 '/>
		<polygon fill = 'rgb( 31, 120, 180)' fill-opacity = '0.250000' points = '534.7,137.3 534.7,662.4 536.6,662.4 536.6,135.1 '/>
		<polygon fill = 'rgb( 31, 120, 180)' fill-opacity = '0.250000' points = '536.6,135.1 536.6,662.4 538.5,662.4 538.5,133.0 '/>
		<polygon fill = 'rgb( 31, 120, 180)' fill-opacity = '0.250000' points = '538.5,133.0 538.5,662.4 540.4,662.4 540.4,131.1 '/>
		<polygon fill = 'rgb( 31, 120, 180)' fill-opacity = '0.250000' points = '540.4,131.1 540.4,662.4 542.2,662.4 542.2,129.3 '/>
		<polygon fill = 'rgb( 31, 120, 180)' fill-opacity = '0.250000' points = '542.2,129.3 542.2,662.4 544.1,662.4 544.1,127.6 '/>
		<polygon fill = 'rgb( 31, 120, 180)' fill-opacity = '0.250000' points = '544.1,127.6 544.1,662.4 546.0,662.4 546.0,126.0 '/>
		<polygon fill = 'rgb( 31, 120, 180)' fill-opacity = '0.250000' points = '546.0,126.0 546.0,662.4 547.8,662.4 547.8,124.6 '/>
		<polygon fill = 'rgb( 31, 120, 180)' fill-opacity = '0.250000' points = '547.8,124.6 547.8,662.4 549.7,662.4 549.7,123.4 '/>
		<polygon fill = 'rgb( 31, 120, 180)' fill-opacity = '0.250000' points = '549.7,123.4 549.7,662.4 551.6,662.4 551.6,122.2 '/>
		<polygon fill = 'rgb( 31, 120, 180)' fill-opacity = '0.250000' points = '551.6,122.2 551.6,662.4 553.4,662.4 553.4,121.2 '/>
		<polygon fill = 'rgb( 31, 120, 180)' fill-opacity = '0.250000' points = '553.4,121.2 553.4,662.4 555.3,662.4 555.3,120.3 '/>
		<polygon fill = 'rgb( 31, 120, 180)' fill-opacity = '0.250000' points = '555.3,120.3 555.3,662.4 557.2,662.4 557.2,119.4 '/>
		<polygon fill = 'rgb( 31, 120, 180)' fill-opacity = '0.250000' points = '557.2,119.4 557.2,662.4 559.1,662.4 559.1,118.6 '/>
		<polygon fill = 'rgb( 31, 120, 180)' fill-opacity = '0.250000' points = '559.1,118.6 559.1,662.4 560.9,662.4 560.9,117.8 '/>
		<polygon fill = 'rgb( 31, 120, 180)' fill-opacity = '0.250000' points = '560.9,117.8 560.9,662.4 562.8,662.4 562.8,117.0 '/>
		<polygon fill = 'rgb( 31, 120, 180)' fill-opacity = '0.250000' points = '562.8,117.0 562.8,662.4 564.7,662.4 564.7,116.3 '/>
		<polygon fill = 'rgb( 31, 120, 180)' fill-opacity = '0.250000' points = '564.7,116.3 564.7,662.4 566.5,662.4 566.5,115.4 '/>
		<polygon fill = 'rgb( 31, 120, 180)' fill-opacity = '0.250000' points = '566.5,115.4 566.5,662.4 568.4,662.4 568.4,114.5 '/>
		<polygon fill = 'rgb( 31, 120, 180)' fill-opacity = '0.250000' points = '568.4,114.5 568.4,662.4 570.3,662.4 570.3,113.6 '/>
		<polygon fill = 'rgb( 31, 120, 180)' fill-opacity = '0.250000' points = '570.3,113.6 570.3,662.4 572.2,662.4 572.2,112.5 '/>
		<polygon fill = 'rgb( 31, 120, 180)' fill-opacity = '0.250000' points = '572.2,112.5 572.2,662.4 574.0,662.4 574.0,111.3 '/>
		<polygon fill = 'rgb( 31, 120, 180)' fill-opacity = '0.250000' points = '574.0,111.3 574.0,662.4 575.9,662.4 575.9,110.0 '/>
		<polygon fill = 'rgb( 31, 120, 180)' fill-opacity = '0.250000' points = '575.9,110.0 575.9,662.4 577.8,662.4 577.8,108.5 '/>
		<polygon fill = 'rgb( 31, 120, 180)' fill-opacity = '0.250000' points = '577.8,108.5 577.8,662.4 579.6,662.4 579.6,106.9 '/>
		<polygon fill = 'rgb( 31, 120, 180)' fill-opacity = '0.250000' points = '579.6,106.9 579.6,662.4 581.5,662.4 581.5,105.1 '/>
		<polygon fill = 'rgb( 31, 120, 180)' fill-opacity = '0.250000' points = '581.5,105.1 581.5,662.4 583.4,662.4 583.4,103.3 '/>
		<polygon fill = 'rgb( 31, 120, 180)' fill-opacity = '0.250000' points = '583.4,103.3 583.4,662.4 585.2,662.4 585.2,101.3 '/>
		<polygon fill = 'rgb( 31, 120, 180)' fill-opacity = '0.250000' points = '585.2,101.3 585.2,662.4 587.1,662.4 587.1,99.1 '/>
		<polygon fill = 'rgb( 31, 120, 180)' fill-opacity = '0.250000' points = '587.1,99.1 587.1,662.4 589.0,662.4 589.0,96.9 '/>
		<polygon fill = 'rgb( 31, 120, 180)' fill-opacity = '0.250000' points = '589.0,96.9 589.0,662.4 590.9,662.4 590.9,94.6 '/>
		<polygon fill = 'rgb( 31, 120, 180)' fill-opacity = '0.250000' points = '590.9,94.6 590.9,662.4 592.7,662.4 592.7,92.3 '/>
		<polygon fill = 'rgb( 31, 120, 180)' fill-opacity = '0.250000' points = '592.7,92.3 592.7,662.4 594.6,662.4 594.6,90.0 '/>
		<polygon fill = 'rgb( 31, 120, 180)' fill-opacity = '0.250000' points = '594.6,90.0 594.6,662.4 596.5,662.4 596.5,87.6 '/>
		<polygon fill = 'rgb( 31, 120, 180)' fill-opacity = '0.250000' points = '596.5,87.6 596.5,662.4 598.3,662.4 598.3,85.3 '/>
		<polygon fill = 'rgb( 31, 120, 180)' fill-opacity = '0.250000' points = '598.3,85.3 598.3,662.4 600.2,662.4 600.2,83.1 '/>
		<polygon fill = 'rgb( 31, 120, 180)' fill-opacity = '0.250000' points = '600.2,83.1 600.2,662.4 602.1,662.4 602.1,81.0 '/>
		<polygon fill = 'rgb( 31, 120, 180)' fill-opacity = '0.250000' points = '602.1,81.0 602.1,662.4 604.0,662.4 604.0,79.0 '/>
		<polygon fill = 'rgb( 31, 120, 180)' fill-opacity = '0.250000' points = '604.0,79.0 604.0,662.4 605.8,662.4 605.8,77.1 '/>
		<polygon fill = 'rgb( 31, 120, 180)' fill-opacity = '0.250000' points = '605.8,77.1 605.8,662.4 607.7,662.4 607.7,75.4 '/>
		<polygon fill = 'rgb( 31, 120, 180)' fill-opacity = '0.250000' points = '607.7,75.4 607.7,662.4 609.6,662.4 609.6,73.9 '/>
		<polygon fill = 'rgb( 31, 120, 180)' fill-opacity = '0.250000' points = '609.6,73.9 609.6,662.4 611.4,662.4 611.4,72.6 '/>
		<polygon fill = 'rgb( 31, 120, 180)' fill-opacity = '0.250000' points = '611.4,72.6 611.4,662.4 613.3,662.4 613.3,71.5 '/>
		<polygon fill = 'rgb( 31, 120, 180)' fill-opacity = '0.250000' points = '613.3,71.5 613.3,662.4 615.2,662.4 615.2,70.7 '/>
		<polygon fill = 'rgb( 31, 120, 180)' fill-opacity = '0.250000' points = '615.2,70.7 615.2,662.4 617.0,662.4 617.0,70.0 '/>
		<polygon fill = 'rgb( 31, 120, 180)' fill-opacity = '0.250000' points = '617.0,70.0 617.0,662.4 618.9,662.4 618.9,69.6 '/>
		<polygon fill = 'rgb( 31, 120, 180)' fill-opacity = '0.250000' points = '618.9,69.6 618.9,662.4 620.8,662.4 620.8,69.3 '/>
		<polygon fill = 'rgb( 31, 120, 180)' fill-opacity = '0.250000' points = '620.8,69.3 620.8,662.4 622.7,662.4 622.7,69.2 '/>
		<polygon fill = 'rgb( 31, 120, 180)' fill-opacity = '0.250000' points = '622.7,69.2 622.7,662.4 624.5,662.4 624.5,69.4 '/>
		<polygon fill = 'rgb( 31, 120, 180)' fill-opacity = '0.250000' points = '624.5,69.4 624.5,662.4 626.4,662.4 626.4,69.7 '/>
		<polygon fill = 'rgb( 31, 120, 180)' fill-opacity = '0.250000' points = '626.4,69.7 626.4,662.4 628.3,662.4 628.3,70.2 '/>
		<polygon fill = 'rgb( 31, 120, 180)' fill-opacity = '0.250000' points = '628.3,70.2 628.3,662.4 630.1,662.4 630.1,70.9 '/>
		<polygon fill = 'rgb( 31, 120, 180)' fill-opacity = '0.250000' points = '630.1,70.9 630.1,662.4 632.0,662.4 632.0,71.7 '/>
		<polygon fill = 'rgb( 31, 120, 180)' fill-opacity = '0.250000' points = '632.0,71.7 632.0,662.4 633.9,662.4 633.9,72.7 '/>
		<polygon fill = 'rgb( 31, 120, 180)' fill-opacity = '0.250000' points = '633.9,72.7 633.9,662.4 635.8,662.4 635.8,73.9 '/>
		<polygon fill = 'rgb( 31, 120, 180)' fill-opacity = '0.250000' points = '635.8,73.9 635.8,662.4 637.6,662.4 637.6,75.4 '/>
		<polygon fill = 'rgb( 31, 120, 180)' fill-opacity = '0.250000' points = '637.6,75.4 637.6,662.4 639.5,662.4 639.5,77.0 '/>
		<polygon fill = 'rgb( 31, 120, 180)' fill-opacity = '0.250000' points = '639.5,77.0 639.5,662.4 641.4,662.4 641.4,78.9 '/>
		<polygon fill = 'rgb( 31, 120, 180)' fill-opacity = '0.250000' points = '641.4,78.9 641.4,662.4 643.2,662.4 643.2,81.0 '/>
		<polygon fill = 'rgb( 31, 120, 180)' fill-opacity = '0.250000' points = '643.2,81.0 643.2,662.4 645.1,662.4 645.1,83.5 '/>
		<polygon fill = 'rgb( 31, 120, 180)' fill-opacity = '0.250000' points = '645.1,83.5 645.1,662.4 647.0,662.4 647.0,86.2 '/>
		<polygon fill = 'rgb( 31, 120, 180)' fill-opacity = '0.250000' points = '647.0,86.2 647.0,662.4 648.8,662.4 648.8,89.2 '/>
		<polygon fill = 'rgb( 31, 120, 180)' fill-opacity = '0.250000' points = '648.8,89.2 648.8,662.4 650.7,662.4 650.7,92.6 '/>
		<polygon fill = 'rgb( 31, 120, 180)' fill-opacity = '0.250000' points = '650.7,92.6 650.7,662.4 652.6,662.4 652.6,96.4 '/>
		<polygon fill = 'rgb( 31, 120, 180)' fill-opacity = '0.250000' points = '652.6,96.4 652.6,662.4 654.5,662.4 654.5,100.5 '/>
		<polygon fill = 'rgb( 31, 120, 180)' fill-opacity = '0.250000' points = '654.5,100.5 654.5,662.4 656.3,662.4 656.3,104.9 '/>
		<polygon fill = 'rgb( 31, 120, 180)' fill-opacity = '0.250000' points = '656.3,104.9 656.3,662.4 658.2,662.4 658.2,109.8 '/>
		<polygon fill = 'rgb( 31, 120, 180)' fill-opacity = '0.250000' points = '658.2,109.8 658.2,662.4 660.1,662.4 660.1,114.9 '/>
		<polygon fill = 'rgb( 31, 120, 180)' fill-opacity = '0.250000' points = '660.1,114.9 660.1,662.4 661.9,662.4 661.9,120.3 '/>
		<polygon fill = 'rgb( 31, 120, 180)' fill-opacity = '0.250000' points = '661.9,120.3 661.9,662.4 663.8,662.4 663.8,126.1 '/>
		<polygon fill = 'rgb( 31, 120, 180)' fill-opacity = '0.250000' points = '663.8,126.1 663.8,662.4 665.7,662.4 665.7,132.0 '/>
		<polygon fill = 'rgb( 31, 120, 180)' fill-opacity = '0.250000' points = '665.7,132.0 665.7,662.4 667.5,662.4 667.5,138.2 '/>
		<polygon fill = 'rgb( 31, 120, 180)' fill-opacity = '0.250000' points = '667.5,138.2 667.5,662.4 669.4,662.4 669.4,144.5 '/>
		<polygon fill = 'rgb( 31, 120, 180)' fill-opacity = '0.250000' points = '669.4,144.5 669.4,662.4 671.3,662.4 671.3,150.9 '/>
		<polygon fill = 'rgb( 31, 120, 180)' fill-opacity = '0.250000' points = '671.3,150.9 671.3,662.4 673.2,662.4 673.2,157.4 '/>
		<polygon fill = 'rgb( 31, 120, 180)' fill-opacity = '0.250000' points = '673.2,157.4 673.2,662.4 675.0,662.4 675.0,163.8 '/>
		<polygon fill = 'rgb( 31, 120, 180)' fill-opacity = '0.250000' points = '675.0,163.8 675.0,662.4 676.9,662.4 676.9,170.2 '/>
		<polygon fill = 'rgb( 31, 120, 180)' fill-opacity = '0.250000' points = '676.9,170.2 676.9,662.4 678.8,662.4 678.8,176.5 '/>
		<polygon fill = 'rgb( 31, 120, 180)' fill-opacity = '0.250000' points = '678.8,176.5 678.8,662.4 680.6,662.4 680.6,182.7 '/>
		<polygon fill = 'rgb( 31, 120, 180)' fill-opacity = '0.250000' points = '680.6,182.7 680.6,662.4 682.5,662.4 682.5,188.6 '/>
		<polygon fill = 'rgb( 31, 120, 180)' fill-opacity = '0.250000' points = '682.5,188.6 682.5,662.4 684.4,662.4 684.4,194.3 '/>
		<polygon fill = 'rgb( 31, 120, 180)' fill-opacity = '0.250000' points = '684.4,194.3 684.4,662.4 686.3,662.4 686.3,199.8 '/>
		<polygon fill = 'rgb( 31, 120, 180)' fill-opacity = '0.250000' points = '686.3,199.8 686.3,662.4 688.1,662.4 688.1,205.0 '/>
		<polygon fill = 'rgb( 31, 120, 180)' fill-opacity = '0.250000' points = '688.1,205.0 688.1,662.4 690.0,662.4 690.0,209.9 '/>
		<polygon fill = 'rgb( 31, 120, 180)' fill-opacity = '0.250000' points = '690.0,209.9 690.0,662.4 691.9,662.4 691.9,214.5 '/>
		<polygon fill = 'rgb( 31, 120, 180)' fill-opacity = '0.250000' points = '691.9,214.5 691.9,662.4 693.7,662.4 693.7,218.9 '/>
		<polygon fill = 'rgb( 31, 120, 180)' fill-opacity = '0.250000' points = '693.7,218.9 693.7,662.4 695.6,662.4 695.6,223.1 '/>
		<polygon fill = 'rgb( 31, 120, 180)' fill-opacity = '0.250000' points = '695.6,223.1 695.6,662.4 697.5,662.4 697.5,227.0 '/>
		<polygon fill = 'rgb( 31, 120, 180)' fill-opacity = '0.250000' points = '697.5,227.0 697.5,662.4 699.3,662.4 699.3,230.7 '/>
		<polygon fill = 'rgb( 31, 120, 180)' fill-opacity = '0.250000' points = '699.3,230.7 699.3,662.4 701.2,662.4 701.2,234.2 '/>
		<polygon fill = 'rgb( 31, 120, 180)' fill-opacity = '0.250000' points = '701.2,234.2 701.2,662.4 703.1,662.4 703.1,237.6 '/>
		<polygon fill = 'rgb( 31, 120, 180)' fill-opacity = '0.250000' points = '703.1,237.6 703.1,662.4 705.0,662.4 705.0,240.9 '/>
		<polygon fill = 'rgb( 31, 120, 180)' fill-opacity = '0.250000' points = '705.0,240.9 705.0,662.4 706.8,662.4 706.8,244.2 '/>
		<polygon fill = 'rgb( 31, 120, 180)' fill-opacity = '0.250000' points = '706.8,244.2 706.8,662.4 708.7,662.4 708.7,247.5 '/>
		<polygon fill = 'rgb( 31, 120, 180)' fill-opacity = '0.250000' points = '708.7,247.5 708.7,662.4 710.6,662.4 710.6,250.8 '/>
		<polygon fill = 'rgb( 31, 120, 180)' fill-opacity = '0.250000' points = '710.6,250.8 710.6,662.4 712.4,662.4 712.4,254.2 '/>
		<polygon fill = 'rgb( 31, 120, 180)' fill-opacity = '0.250000' points = '712.4,254.2 712.4,662.4 714.3,662.4 714.3,257.8 '/>
		<polygon fill = 'rgb( 31, 120, 180)' fill-opacity = '0.250000' points = '714.3,257.8 714.3,662.4 716.2,662.4 716.2,261.5 '/>
		<polygon fill = 'rgb( 31, 120, 180)' fill-opacity = '0.250000' points = '716.2,261.5 716.2,662.4 718.1,662.4 718.1,265.3 '/>
		<polygon fill = 'rgb( 31, 120, 180)' fill-opacity = '0.250000' points = '718.1,265.3 718.1,662.4 719.9,662.4 719.9,269.4 '/>
		<polygon fill = 'rgb( 31, 120, 180)' fill-opacity = '0.250000' points = '719.9,269.4 719.9,662.4 721.8,662.4 721.8,273.7 '/>
		<polygon fill = 'rgb( 31, 120, 180)' fill-opacity = '0.250000' points = '721.8,273.7 721.8,662.4 723.7,662.4 723.7,278.2 '/>
		<polygon fill = 'rgb( 31, 120, 180)' fill-opacity = '0.250000' points = '723.7,278.2 723.7,662.4 725.5,662.4 725.5,283.0 '/>
		<polygon fill = 'rgb( 31, 120, 180)' fill-opacity = '0.250000' points = '725.5,283.0 725.5,662.4 727.4,662.4 727.4,288.0 '/>
		<polygon fill = 'rgb( 31, 120, 180)' fill-opacity = '0.250000' points = '727.4,288.0 727.4,662.4 729.3,662.4 729.3,293.3 '/>
		<polygon fill = 'rgb( 31, 120, 180)' fill-opacity = '0.250000' points = '729.3,293.3 729.3,662.4 731.1,662.4 731.1,298.8 '/>
		<polygon fill = 'rgb( 31, 120, 180)' fill-opacity = '0.250000' points = '731.1,298.8 731.1,662.4 733.0,662.4 733.0,304.4 '/>
		<polygon fill = 'rgb( 31, 120, 180)' fill-opacity = '0.250000' points = '733.0,304.4 733.0,662.4 734.9,662.4 734.9,310.3 '/>
		<polygon fill = 'rgb( 31, 120, 180)' fill-opacity = '0.250000' points = '734.9,310.3 734.9,662.4 736.8,662.4 736.8,316.3 '/>
		<polygon fill = 'rgb( 31, 120, 180)' fill-opacity = '0.250000' points = '736.8,316.3 736.8,662.4 738.6,662.4 738.6,322.4 '/>
		<polygon fill = 'rgb( 31, 120, 180)' fill-opacity = '0.250000' points = '738.6,322.4 738.6,662.4 740.5,662.4 740.5,328.7 '/>
		<polygon fill = 'rgb( 31, 120, 180)' fill-opacity = '0.250000' points = '740.5,328.7 740.5,662.4 742.4,662.4 742.4,335.0 '/>
		<polygon fill = 'rgb( 31, 120, 180)' fill-opacity = '0.250000' points = '742.4,335.0 742.4,662.4 744.2,662.4 744.2,341.3 '/>
		<polygon fill = 'rgb( 31, 120, 180)' fill-opacity = '0.250000' points = '744.2,341.3 744.2,662.4 746.1,662.4 746.1,347.7 '/>
		<polygon fill = 'rgb( 31, 120, 180)' fill-opacity = '0.250000' points = '746.1,347.7 746.1,662.4 748.0,662.4 748.0,354.0 '/>
		<polygon fill = 'rgb( 31, 120, 180)' fill-opacity = '0.250000' points = '748.0,354.0 748.0,662.4 749.9,662.4 749.9,360.3 '/>
		<polygon fill = 'rgb( 31, 120, 180)' fill-opacity = '0.250000' points = '749.9,360.3 749.9,662.4 751.7,662.4 751.7,366.5 '/>
		<polygon fill = 'rgb( 31, 120, 180)' fill-opacity = '0.250000' points = '751.7,366.5 751.7,662.4 753.6,662.4 753.6,372.6 '/>
		<polygon fill = 'rgb( 31, 120, 180)' fill-opacity = '0.250000' points = '753.6,372.6 753.6,662.4 755.5,662.4 755.5,378.6 '/>
		<polygon fill = 'rgb( 31, 120, 180)' fill-opacity = '0.250000' points = '755.5,378.6 755.5,662.4 757.3,662.4 757.3,384.5 '/>
		<polygon fill = 'rgb( 31, 120, 180)' fill-opacity = '0.250000' points = '757.3,384.5 757.3,662.4 759.2,662.4 759.2,390.2 '/>
		<polygon fill = 'rgb( 31, 120, 180)' fill-opacity = '0.250000' points = '759.2,390.2 759.2,662.4 761.1,662.4 761.1,395.8 '/>
		<polygon fill = 'rgb( 31, 120, 180)' fill-opacity = '0.250000' points = '761.1,395.8 761.1,662.4 762.9,662.4 762.9,401.2 '/>
		<polygon fill = 'rgb( 31, 120, 180)' fill-opacity = '0.250000' points = '762.9,401.2 762.9,662.4 764.8,662.4 764.8,406.4 '/>
		<polygon fill = 'rgb( 31, 120, 180)' fill-opacity = '0.250000' points = '764.8,406.4 764.8,662.4 766.7,662.4 766.7,411.5 '/>
		<polygon fill = 'rgb( 31, 120, 180)' fill-opacity = '0.250000' points = '766.7,411.5 766.7,662.4 768.6,662.4 768.6,416.4 '/>
		<polygon fill = 'rgb( 31, 120, 180)' fill-opacity = '0.250000' points = '768.6,416.4 768.6,662.4 770.4,662.4 770.4,421.1 '/>
		<polygon fill = 'rgb( 31, 120, 180)' fill-opacity = '0.250000' points = '770.4,421.1 770.4,662.4 772.3,662.4 772.3,425.7 '/>
		<polygon fill = 'rgb( 31, 120, 180)' fill-opacity = '0.250000' points = '772.3,425.7 772.3,662.4 774.2,662.4 774.2,430.0 '/>
		<polygon fill = 'rgb( 31, 120, 180)' fill-opacity = '0.250000' points = '774.2,430.0 774.2,662.4 776.0,662.4 776.0,434.2 '/>
		<polygon fill = 'rgb( 31, 120, 180)' fill-opacity = '0.250000' points = '776.0,434.2 776.0,662.4 777.9,662.4 777.9,438.3 '/>
		<polygon fill = 'rgb( 31, 120, 180)' fill-opacity = '0.250000' points = '777.9,438.3 777.9,662.4 779.8,662.4 779.8,442.2 '/>
		<polygon fill = 'rgb( 31, 120, 180)' fill-opacity = '0.250000' points = '779.8,442.2 779.8,662.4 781.7,662.4 781.7,446.0 '/>
		<polygon fill = 'rgb( 31, 120, 180)' fill-opacity = '0.250000' points = '781.7,446.0 781.7,662.4 783.5,662.4 783.5,449.6 '/>
		<polygon fill = 'rgb( 31, 120, 180)' fill-opacity = '0.250000' points = '783.5,449.6 783.5,662.4 785.4,662.4 785.4,453.1 '/>
		<polygon fill = 'rgb( 31, 120, 180)' fill-opacity = '0.250000' points = '785.4,453.1 785.4,662.4 787.3,662.4 787.3,456.4 '/>
		<polygon fill = 'rgb( 31, 120, 180)' fill-opacity = '0.250000' points = '787.3,456.4 787.3,662.4 789.1,662.4 789.1,459.7 '/>
		<polygon fill = 'rgb( 31, 120, 180)' fill-opacity = '0.250000' points = '789.1,459.7 789.1,662.4 791.0,662.4 791.0,462.9 '/>
		<polygon fill = 'rgb( 31, 120, 180)' fill-opacity = '0.250000' points = '791.0,462.9 791.0,662.4 792.9,662.4 792.9,465.9 '/>
		<polygon fill = 'rgb( 31, 120, 180)' fill-opacity = '0.250000' points = '792.9,465.9 792.9,662.4 794.7,662.4 794.7,468.9 '/>
		<polygon fill = 'rgb( 31, 120, 180)' fill-opacity = '0.250000' points = '794.7,468.9 794.7,662.4 796.6,662.4 796.6,471.8 '/>
		<polygon fill = 'rgb( 31, 120, 180)' fill-opacity = '0.250000' points = '796.6,471.8 796.6,662.4 798.5,662.4 798.5,474.7 '/>
		<polygon fill = 'rgb( 31, 120, 180)' fill-opacity = '0.250000' points = '798.5,474.7 798.5,662.4 800.4,662.4 800.4,477.5 '/>
		<polygon fill = 'rgb( 31, 120, 180)' fill-opacity = '0.250000' points = '800.4,477.5 800.4,662.4 802.2,662.4 802.2,480.2 '/>
		<polygon fill = 'rgb( 31, 120, 180)' fill-opacity = '0.250000' points = '802.2,480.2 802.2,662.4 804.1,662.4 804.1,483.0 '/>
		<polygon fill = 'rgb( 31, 120, 180)' fill-opacity = '0.250000' points = '804.1,483.0 804.1,662.4 806.0,662.4 806.0,485.7 '/>
		<polygon fill = 'rgb( 31, 120, 180)' fill-opacity = '0.250000' points = '806.0,485.7 806.0,662.4 807.8,662.4 807.8,488.4 '/>
		<polygon fill = 'rgb( 31, 120, 180)' fill-opacity = '0.250000' points = '807.8,488.4 807.8,662.4 809.7,662.4 809.7,491.2 '/>
		<polygon fill = 'rgb( 31, 120, 180)' fill-opacity = '0.250000' points = '809.7,491.2 809.7,662.4 811.6,662.4 811.6,493.9 '/>
		<polygon fill = 'rgb( 31, 120, 180)' fill-opacity = '0.250000' points = '811.6,493.9 811.6,662.4 813.5,662.4 813.5,496.7 '/>
		<polygon fill = 'rgb( 31, 120, 180)' fill-opacity = '0.250000' points = '813.5,496.7 813.5,662.4 815.3,662.4 815.3,499.5 '/>
		<polygon fill = 'rgb( 31, 120, 180)' fill-opacity = '0.250000' points = '815.3,499.5 815.3,662.4 817.2,662.4 817.2,502.3 '/>
		<polygon fill = 'rgb( 31, 120, 180)' fill-opacity = '0.250000' points = '817.2,502.3 817.2,662.4 819.1,662.4 819.1,505.2 '/>
		<polygon fill = 'rgb( 31, 120, 180)' fill-opacity = '0.250000' points = '819.1,505.2 819.1,662.4 820.9,662.4 820.9,508.1 '/>
		<polygon fill = 'rgb( 31, 120, 180)' fill-opacity = '0.250000' points = '820.9,508.1 820.9,662.4 822.8,662.4 822.8,511.0 '/>
		<polygon fill = 'rgb( 31, 120, 180)' fill-opacity = '0.250000' points = '822.8,511.0 822.8,662.4 824.7,662.4 824.7,514.0 '/>
		<polygon fill = 'rgb( 31, 120, 180)' fill-opacity = '0.250000' points = '824.7,514.0 824.7,662.4 826.5,662.4 826.5,516.9 '/>
		<polygon fill = 'rgb( 31, 120, 180)' fill-opacity = '0.250000' points = '826.5,516.9 826.5,662.4 828.4,662.4 828.4,519.9 '/>
		<polygon fill = 'rgb( 31, 120, 180)' fill-opacity = '0.250000' points = '828.4,519.9 828.4,662.4 830.3,662.4 830.3,522.8 '/>
		<polygon fill = 'rgb( 31, 120, 180)' fill-opacity = '0.250000' points = '830.3,522.8 830.3,662.4 832.2,662.4 832.2,525.8 '/>
		<polygon fill = 'rgb( 31, 120, 180)' fill-opacity = '0.250000' points = '832.2,525.8 832.2,662.4 834.0,662.4 834.0,528.7 '/>
		<polygon fill = 'rgb( 31, 120, 180)' fill-opacity = '0.250000' points = '834.0,528.7 834.0,662.4 835.9,662.4 835.9,531.6 '/>
		<polygon fill = 'rgb( 31, 120, 180)' fill-opacity = '0.250000' points = '835.9,531.6 835.9,662.4 837.8,662.4 837.8,534.4 '/>
		<polygon fill = 'rgb( 31, 120, 180)' fill-opacity = '0.250000' points = '837.8,534.4 837.8,662.4 839.6,662.4 839.6,537.1 '/>
		<polygon fill = 'rgb( 31, 120, 180)' fill-opacity = '0.250000' points = '839.6,537.1 839.6,662.4 841.5,662.4 841.5,539.8 '/>
		<polygon fill = 'rgb( 31, 120, 180)' fill-opacity = '0.250000' points = '841.5,539.8 841.5,662.4 843.4,662.4 843.4,542.4 '/>
		<polygon fill = 'rgb( 31, 120, 180)' fill-opacity = '0.250000' points = '843.4,542.4 843.4,662.4 845.3,662.4 845.3,545.0 '/>
		<polygon fill = 'rgb( 31, 120, 180)' fill-opacity = '0.250000' points = '845.3,545.0 845.3,662.4 847.1,662.4 847.1,547.4 '/>
		<polygon fill = 'rgb( 31, 120, 180)' fill-opacity = '0.250000' points = '847.1,547.4 847.1,662.4 849.0,662.4 849.0,549.7 '/>
		<polygon fill = 'rgb( 31, 120, 180)' fill-opacity = '0.250000' points = '849.0,549.7 849.0,662.4 850.9,662.4 850.9,551.9 '/>
		<polygon fill = 'rgb( 31, 120, 180)' fill-opacity = '0.250000' points = '850.9,551.9 850.9,662.4 852.7,662.4 852.7,554.0 '/>
		<polygon fill = 'rgb( 31, 120, 180)' fill-opacity = '0.250000' points = '852.7,554.0 852.7,662.4 854.6,662.4 854.6,556.0 '/>
		<polygon fill = 'rgb( 31, 120, 180)' fill-opacity = '0.250000' points = '854.6,556.0 854.6,662.4 856.5,662.4 856.5,557.8 '/>
		<polygon fill = 'rgb( 31, 120, 180)' fill-opacity = '0.250000' points = '856.5,557.8 856.5,662.4 858.3,662.4 858.3,559.6 '/>
		<polygon fill = 'rgb( 31, 120, 180)' fill-opacity = '0.250000' points = '858.3,559.6 858.3,662.4 860.2,662.4 860.2,561.2 '/>
		<polygon fill = 'rgb( 31, 120, 180)' fill-opacity = '0.250000' points = '860.2,561.2 860.2,662.4 862.1,662.4 862.1,562.7 '/>
		<polygon fill = 'rgb( 31, 120, 180)' fill-opacity = '0.250000' points = '862.1,562.7 862.1,662.4 864.0,662.4 864.0,564.1 '/>
		<polygon fill = 'rgb( 31, 120, 180)' fill-opacity = '0.250000' points = '864.0,564.1 864.0,662.4 865.8,662.4 865.8,565.4 '/>
		<polygon fill = 'rgb( 31, 120, 180)' fill-opacity = '0.250000' points = '865.8,565.4 865.8,662.4 867.7,662.4 867.7,566.7 '/>
		<polygon fill = 'rgb( 31, 120, 180)' fill-opacity = '0.250000' points = '867.7,566.7 867.7,662.4 869.6,662.4 869.6,567.8 '/>
		<polygon fill = 'rgb( 31, 120, 180)' fill-opacity = '0.250000' points = '869.6,567.8 869.6,662.4 871.4,662.4 871.4,568.9 '/>
		<polygon fill = 'rgb( 31, 120, 180)' fill-opacity = '0.250000' points = '871.4,568.9 871.4,662.4 873.3,662.4 873.3,569.9 '/>
		<polygon fill = 'rgb( 31, 120, 180)' fill-opacity = '0.250000' points = '873.3,569.9 873.3,662.4 875.2,662.4 875.2,570.9 '/>
		<polygon fill = 'rgb( 31, 120, 180)' fill-opacity = '0.250000' points = '875.2,570.9 875.2,662.4 877.1,662.4 877.1,571.9 '/>
		<polygon fill = 'rgb( 31, 120, 180)' fill-opacity = '0.250000' points = '877.1,571.9 877.1,662.4 878.9,662.4 878.9,572.9 '/>
		<polygon fill = 'rgb( 31, 120, 180)' fill-opacity = '0.250000' points = '878.9,572.9 878.9,662.4 880.8,662.4 880.8,573.8 '/>
		<polygon fill = 'rgb( 31, 120, 180)' fill-opacity = '0.250000' points = '880.8,573.8 880.8,662.4 882.7,662.4 882.7,574.8 '/>
		<polygon fill = 'rgb( 31, 120, 180)' fill-opacity = '0.250000' points = '882.7,574.8 882.7,662.4 884.5,662.4 884.5,575.8 '/>
		<polygon fill = 'rgb( 31, 120, 180)' fill-opacity = '0.250000' points = '884.5,575.8 884.5,662.4 886.4,662.4 886.4,576.8 '/>
		<polygon fill = 'rgb( 31, 120, 180)' fill-opacity = '0.250000' points = '886.4,576.8 886.4,662.4 888.3,662.4 888.3,577.9 '/>
		<polygon fill = 'rgb( 31, 120, 180)' fill-opacity = '0.250000' points = '888.3,577.9 888.3,662.4 890.1,662.4 890.1,579.0 '/>
		<polygon fill = 'rgb( 31, 120, 180)' fill-opacity = '0.250000' points = '890.1,579.0 890.1,662.4 892.0,662.4 892.0,580.1 '/>
		<polygon fill = 'rgb( 31, 120, 180)' fill-opacity = '0.250000' points = '892.0,580.1 892.0,662.4 893.9,662.4 893.9,581.4 '/>
		<polygon fill = 'rgb( 31, 120, 180)' fill-opacity = '0.250000' points = '893.9,581.4 893.9,662.4 895.8,662.4 895.8,582.7 '/>
		<polygon fill = 'rgb( 31, 120, 180)' fill-opacity = '0.250000' points = '895.8,582.7 895.8,662.4 897.6,662.4 897.6,584.0 '/>
		<polygon fill = 'rgb( 31, 120, 180)' fill-opacity = '0.250000' points = '897.6,584.0 897.6,662.4 899.5,662.4 899.5,585.5 '/>
		<polygon fill = 'rgb( 31, 120, 180)' fill-opacity = '0.250000' points = '899.5,585.5 899.5,662.4 901.4,662.4 901.4,586.9 '/>
		<polygon fill = 'rgb( 31, 120, 180)' fill-opacity = '0.250000' points = '901.4,586.9 901.4,662.4 903.2,662.4 903.2,588.5 '/>
		<polygon fill = 'rgb( 31, 120, 180)' fill-opacity = '0.250000' points = '903.2,588.5 903.2,662.4 905.1,662.4 905.1,590.0 '/>
		<polygon fill = 'rgb( 31, 120, 180)' fill-opacity = '0.250000' points = '905.1,590.0 905.1,662.4 907.0,662.4 907.0,591.6 '/>
		<polygon fill = 'rgb( 31, 120, 180)' fill-opacity = '0.250000' points = '907.0,591.6 907.0,662.4 908.8,662.4 908.8,593.3 '/>
		<polygon fill = 'rgb( 31, 120, 180)' fill-opacity = '0.250000' points = '908.8,593.3 908.8,662.4 910.7,662.4 910.7,594.9 '/>
		<polygon fill = 'rgb( 31, 120, 180)' fill-opacity = '0.250000' points = '910.7,594.9 910.7,662.4 912.6,662.4 912.6,596.5 '/>
		<polygon fill = 'rgb( 31, 120, 180)' fill-opacity = '0.250000' points = '912.6,596.5 912.6,662.4 914.5,662.4 914.5,598.2 '/>
		<polygon fill = 'rgb( 31, 120, 180)' fill-opacity = '0.250000' points = '914.5,598.2 914.5,662.4 916.3,662.4 916.3,599.8 '/>
		<polygon fill = 'rgb( 31, 120, 180)' fill-opacity = '0.250000' points = '916.3,599.8 916.3,662.4 918.2,662.4 918.2,601.4 '/>
		<polygon fill = 'rgb( 31, 120, 180)' fill-opacity = '0.250000' points = '918.2,601.4 918.2,662.4 920.1,662.4 920.1,602.9 '/>
		<polygon fill = 'rgb( 31, 120, 180)' fill-opacity = '0.250000' points = '920.1,602.9 920.1,662.4 921.9,662.4 921.9,604.5 '/>
		<polygon fill = 'rgb( 31, 120, 180)' fill-opacity = '0.250000' points = '921.9,604.5 921.9,662.4 923.8,662.4 923.8,605.9 '/>
		<polygon fill = 'rgb( 31, 120, 180)' fill-opacity = '0.250000' points = '923.8,605.9 923.8,662.4 925.7,662.4 925.7,607.3 '/>
	</g>
</g>
	</g>
	<g id="gnuplot_plot_3" ><title>Point estimate</title>
<g fill="none" color="white" stroke="rgb( 31, 120, 180)" stroke-width="2.00" stroke-linecap="butt" stroke-linejoin="miter">
</g>
<g fill="none" color="black" stroke="currentColor" stroke-width="2.00" stroke-linecap="butt" stroke-linejoin="miter">
	<g transform="translate(1089.0,103.0)" stroke="none" fill="black" font-family="Helvetica" font-size="12.00"  text-anchor="start">
		<text><tspan font-family="Helvetica" >Point estimate</tspan></text>
	</g>
</g>
<g fill="none" color="black" stroke="currentColor" stroke-width="2.00" stroke-linecap="butt" stroke-linejoin="miter">
	<path stroke='rgb( 31, 120, 180)'  d='M1038.5,99.1 L1080.7,99.1 M583.4,662.4 L583.4,103.2  '/></g>
	</g>
	<g id="gnuplot_plot_4" ><title>Noise threshold</title>
<g fill="none" color="white" stroke="rgb( 31, 120, 180)" stroke-width="1.00" stroke-linecap="butt" stroke-linejoin="miter">
</g>
<g fill="none" color="black" stroke="currentColor" stroke-width="1.00" stroke-linecap="butt" stroke-linejoin="miter">
	<g transform="translate(1089.0,121.0)" stroke="none" fill="black" font-family="Helvetica" font-size="12.00"  text-anchor="start">
		<text><tspan font-family="Helvetica" >Noise threshold</tspan></text>
	</g>
</g>
<g fill="none" color="black" stroke="currentColor" stroke-width="1.00" stroke-linecap="butt" stroke-linejoin="miter">
	<g stroke='none' shape-rendering='crispEdges'>
		<polygon fill = 'rgb(227,  26,  28)' fill-opacity = '0.100000' points = '1038.5,121.6 1080.7,121.6 1080.7,112.6 1038.5,112.6 '/>
		<polygon fill = 'rgb(227,  26,  28)' fill-opacity = '0.100000' points = '80.2,54.1 80.2,662.4 1013.6,662.4 1013.6,54.1 '/>
	</g>
</g>
	</g>
<g fill="none" color="white" stroke="rgb(227,  26,  28)" stroke-width="2.00" stroke-linecap="butt" stroke-linejoin="miter">
</g>
<g fill="none" color="black" stroke="currentColor" stroke-width="2.00" stroke-linecap="butt" stroke-linejoin="miter">
</g>
<g fill="none" color="black" stroke="black" stroke-width="1.00" stroke-linecap="butt" stroke-linejoin="miter">
</g>
<g fill="none" color="black" stroke="currentColor" stroke-width="1.00" stroke-linecap="butt" stroke-linejoin="miter">
	<path stroke='black'  d='M80.2,54.1 L80.2,662.4 L1013.6,662.4 L1013.6,54.1 L80.2,54.1 Z  '/></g>
<g fill="none" color="black" stroke="currentColor" stroke-width="1.00" stroke-linecap="butt" stroke-linejoin="miter">
</g>
</g>
</svg>

