<?xml version="1.0" encoding="utf-8"  standalone="no"?>
<!DOCTYPE svg PUBLIC "-//W3C//DTD SVG 1.1//EN"
 "http://www.w3.org/Graphics/SVG/1.1/DTD/svg11.dtd">
<svg 
 viewBox="0 0 1280 720"
 xmlns="http://www.w3.org/2000/svg"
 xmlns:xlink="http://www.w3.org/1999/xlink"
>

<title>Gnuplot</title>
<desc>Produced by GNUPLOT 5.0 patchlevel 5 </desc>

<g id="gnuplot_canvas">

<rect x="0" y="0" width="1280" height="720" fill="none"/>
<defs>

	<circle id='gpDot' r='0.5' stroke-width='0.5'/>
	<path id='gpPt0' stroke-width='0.222' stroke='currentColor' d='M-1,0 h2 M0,-1 v2'/>
	<path id='gpPt1' stroke-width='0.222' stroke='currentColor' d='M-1,-1 L1,1 M1,-1 L-1,1'/>
	<path id='gpPt2' stroke-width='0.222' stroke='currentColor' d='M-1,0 L1,0 M0,-1 L0,1 M-1,-1 L1,1 M-1,1 L1,-1'/>
	<rect id='gpPt3' stroke-width='0.222' stroke='currentColor' x='-1' y='-1' width='2' height='2'/>
	<rect id='gpPt4' stroke-width='0.222' stroke='currentColor' fill='currentColor' x='-1' y='-1' width='2' height='2'/>
	<circle id='gpPt5' stroke-width='0.222' stroke='currentColor' cx='0' cy='0' r='1'/>
	<use xlink:href='#gpPt5' id='gpPt6' fill='currentColor' stroke='none'/>
	<path id='gpPt7' stroke-width='0.222' stroke='currentColor' d='M0,-1.33 L-1.33,0.67 L1.33,0.67 z'/>
	<use xlink:href='#gpPt7' id='gpPt8' fill='currentColor' stroke='none'/>
	<use xlink:href='#gpPt7' id='gpPt9' stroke='currentColor' transform='rotate(180)'/>
	<use xlink:href='#gpPt9' id='gpPt10' fill='currentColor' stroke='none'/>
	<use xlink:href='#gpPt3' id='gpPt11' stroke='currentColor' transform='rotate(45)'/>
	<use xlink:href='#gpPt11' id='gpPt12' fill='currentColor' stroke='none'/>
	<path id='gpPt13' stroke-width='0.222' stroke='currentColor' d='M0,1.330 L1.265,0.411 L0.782,-1.067 L-0.782,-1.076 L-1.265,0.411 z'/>
	<use xlink:href='#gpPt13' id='gpPt14' fill='currentColor' stroke='none'/>
	<filter id='textbox' filterUnits='objectBoundingBox' x='0' y='0' height='1' width='1'>
	  <feFlood flood-color='white' flood-opacity='1' result='bgnd'/>
	  <feComposite in='SourceGraphic' in2='bgnd' operator='atop'/>
	</filter>
	<filter id='greybox' filterUnits='objectBoundingBox' x='0' y='0' height='1' width='1'>
	  <feFlood flood-color='lightgrey' flood-opacity='1' result='grey'/>
	  <feComposite in='SourceGraphic' in2='grey' operator='atop'/>
	</filter>
</defs>
<g fill="none" color="white" stroke="currentColor" stroke-width="1.00" stroke-linecap="butt" stroke-linejoin="miter">
</g>
<g fill="none" color="black" stroke="currentColor" stroke-width="1.00" stroke-linecap="butt" stroke-linejoin="miter">
	<path stroke='black'  d='M71.9,662.4 L80.9,662.4  '/>	<g transform="translate(63.6,666.3)" stroke="none" fill="black" font-family="Helvetica" font-size="12.00"  text-anchor="end">
		<text><tspan font-family="Helvetica" > 0</tspan></text>
	</g>
</g>
<g fill="none" color="black" stroke="currentColor" stroke-width="1.00" stroke-linecap="butt" stroke-linejoin="miter">
	<path stroke='black'  d='M71.9,575.5 L80.9,575.5  '/>	<g transform="translate(63.6,579.4)" stroke="none" fill="black" font-family="Helvetica" font-size="12.00"  text-anchor="end">
		<text><tspan font-family="Helvetica" > 50</tspan></text>
	</g>
</g>
<g fill="none" color="black" stroke="currentColor" stroke-width="1.00" stroke-linecap="butt" stroke-linejoin="miter">
	<path stroke='black'  d='M71.9,488.6 L80.9,488.6  '/>	<g transform="translate(63.6,492.5)" stroke="none" fill="black" font-family="Helvetica" font-size="12.00"  text-anchor="end">
		<text><tspan font-family="Helvetica" > 100</tspan></text>
	</g>
</g>
<g fill="none" color="black" stroke="currentColor" stroke-width="1.00" stroke-linecap="butt" stroke-linejoin="miter">
	<path stroke='black'  d='M71.9,401.7 L80.9,401.7  '/>	<g transform="translate(63.6,405.6)" stroke="none" fill="black" font-family="Helvetica" font-size="12.00"  text-anchor="end">
		<text><tspan font-family="Helvetica" > 150</tspan></text>
	</g>
</g>
<g fill="none" color="black" stroke="currentColor" stroke-width="1.00" stroke-linecap="butt" stroke-linejoin="miter">
	<path stroke='black'  d='M71.9,314.8 L80.9,314.8  '/>	<g transform="translate(63.6,318.7)" stroke="none" fill="black" font-family="Helvetica" font-size="12.00"  text-anchor="end">
		<text><tspan font-family="Helvetica" > 200</tspan></text>
	</g>
</g>
<g fill="none" color="black" stroke="currentColor" stroke-width="1.00" stroke-linecap="butt" stroke-linejoin="miter">
	<path stroke='black'  d='M71.9,227.9 L80.9,227.9  '/>	<g transform="translate(63.6,231.8)" stroke="none" fill="black" font-family="Helvetica" font-size="12.00"  text-anchor="end">
		<text><tspan font-family="Helvetica" > 250</tspan></text>
	</g>
</g>
<g fill="none" color="black" stroke="currentColor" stroke-width="1.00" stroke-linecap="butt" stroke-linejoin="miter">
	<path stroke='black'  d='M71.9,141.0 L80.9,141.0  '/>	<g transform="translate(63.6,144.9)" stroke="none" fill="black" font-family="Helvetica" font-size="12.00"  text-anchor="end">
		<text><tspan font-family="Helvetica" > 300</tspan></text>
	</g>
</g>
<g fill="none" color="black" stroke="currentColor" stroke-width="1.00" stroke-linecap="butt" stroke-linejoin="miter">
	<path stroke='black'  d='M71.9,54.1 L80.9,54.1  '/>	<g transform="translate(63.6,58.0)" stroke="none" fill="black" font-family="Helvetica" font-size="12.00"  text-anchor="end">
		<text><tspan font-family="Helvetica" > 350</tspan></text>
	</g>
</g>
<g fill="none" color="black" stroke="currentColor" stroke-width="1.00" stroke-linecap="butt" stroke-linejoin="miter">
	<path stroke='black'  d='M96.4,662.4 L96.4,653.4  '/>	<g transform="translate(96.4,684.3)" stroke="none" fill="black" font-family="Helvetica" font-size="12.00"  text-anchor="middle">
		<text><tspan font-family="Helvetica" > 1.057</tspan></text>
	</g>
</g>
<g fill="none" color="black" stroke="currentColor" stroke-width="1.00" stroke-linecap="butt" stroke-linejoin="miter">
	<path stroke='black'  d='M246.3,662.4 L246.3,653.4  '/>	<g transform="translate(246.3,684.3)" stroke="none" fill="black" font-family="Helvetica" font-size="12.00"  text-anchor="middle">
		<text><tspan font-family="Helvetica" > 1.058</tspan></text>
	</g>
</g>
<g fill="none" color="black" stroke="currentColor" stroke-width="1.00" stroke-linecap="butt" stroke-linejoin="miter">
	<path stroke='black'  d='M396.3,662.4 L396.3,653.4  '/>	<g transform="translate(396.3,684.3)" stroke="none" fill="black" font-family="Helvetica" font-size="12.00"  text-anchor="middle">
		<text><tspan font-family="Helvetica" > 1.059</tspan></text>
	</g>
</g>
<g fill="none" color="black" stroke="currentColor" stroke-width="1.00" stroke-linecap="butt" stroke-linejoin="miter">
	<path stroke='black'  d='M546.3,662.4 L546.3,653.4  '/>	<g transform="translate(546.3,684.3)" stroke="none" fill="black" font-family="Helvetica" font-size="12.00"  text-anchor="middle">
		<text><tspan font-family="Helvetica" > 1.06</tspan></text>
	</g>
</g>
<g fill="none" color="black" stroke="currentColor" stroke-width="1.00" stroke-linecap="butt" stroke-linejoin="miter">
	<path stroke='black'  d='M696.2,662.4 L696.2,653.4  '/>	<g transform="translate(696.2,684.3)" stroke="none" fill="black" font-family="Helvetica" font-size="12.00"  text-anchor="middle">
		<text><tspan font-family="Helvetica" > 1.061</tspan></text>
	</g>
</g>
<g fill="none" color="black" stroke="currentColor" stroke-width="1.00" stroke-linecap="butt" stroke-linejoin="miter">
	<path stroke='black'  d='M846.2,662.4 L846.2,653.4  '/>	<g transform="translate(846.2,684.3)" stroke="none" fill="black" font-family="Helvetica" font-size="12.00"  text-anchor="middle">
		<text><tspan font-family="Helvetica" > 1.062</tspan></text>
	</g>
</g>
<g fill="none" color="black" stroke="currentColor" stroke-width="1.00" stroke-linecap="butt" stroke-linejoin="miter">
	<path stroke='black'  d='M996.1,662.4 L996.1,653.4  '/>	<g transform="translate(996.1,684.3)" stroke="none" fill="black" font-family="Helvetica" font-size="12.00"  text-anchor="middle">
		<text><tspan font-family="Helvetica" > 1.063</tspan></text>
	</g>
</g>
<g fill="none" color="black" stroke="currentColor" stroke-width="1.00" stroke-linecap="butt" stroke-linejoin="miter">
</g>
<g fill="none" color="black" stroke="currentColor" stroke-width="1.00" stroke-linecap="butt" stroke-linejoin="miter">
	<path stroke='black'  d='M71.9,54.1 L71.9,662.4 L1013.6,662.4 L1013.6,54.1 L71.9,54.1 Z  '/></g>
<g fill="none" color="black" stroke="currentColor" stroke-width="1.00" stroke-linecap="butt" stroke-linejoin="miter">
	<g transform="translate(17.0,358.3) rotate(270)" stroke="none" fill="black" font-family="Helvetica" font-size="12.00"  text-anchor="middle">
		<text><tspan font-family="Helvetica" >Density (a.u.)</tspan></text>
	</g>
</g>
<g fill="none" color="black" stroke="currentColor" stroke-width="1.00" stroke-linecap="butt" stroke-linejoin="miter">
	<g transform="translate(542.7,711.3)" stroke="none" fill="black" font-family="Helvetica" font-size="12.00"  text-anchor="middle">
		<text><tspan font-family="Helvetica" >Average time (ms)</tspan></text>
	</g>
</g>
<g fill="none" color="black" stroke="currentColor" stroke-width="1.00" stroke-linecap="butt" stroke-linejoin="miter">
	<g transform="translate(542.7,31.0)" stroke="none" fill="black" font-family="Helvetica" font-size="12.00"  text-anchor="middle">
		<text><tspan font-family="Helvetica" >dfs petgraph init #2: mean</tspan></text>
	</g>
</g>
	<g id="gnuplot_plot_1" ><title>Bootstrap distribution</title>
<g fill="none" color="white" stroke="black" stroke-width="2.00" stroke-linecap="butt" stroke-linejoin="miter">
</g>
<g fill="none" color="black" stroke="currentColor" stroke-width="2.00" stroke-linecap="butt" stroke-linejoin="miter">
	<g transform="translate(1089.0,67.0)" stroke="none" fill="black" font-family="Helvetica" font-size="12.00"  text-anchor="start">
		<text><tspan font-family="Helvetica" >Bootstrap distribution</tspan></text>
	</g>
</g>
<g fill="none" color="black" stroke="currentColor" stroke-width="2.00" stroke-linecap="butt" stroke-linejoin="miter">
	<path stroke='rgb( 31, 120, 180)'  d='M1038.5,63.1 L1080.7,63.1 M71.9,638.2 L73.8,636.9 L75.7,635.5 L77.6,634.0 L79.4,632.5 L81.3,630.9
		L83.2,629.3 L85.1,627.7 L87.0,625.9 L88.9,624.2 L90.8,622.3 L92.7,620.4 L94.5,618.4 L96.4,616.4
		L98.3,614.3 L100.2,612.2 L102.1,610.0 L104.0,607.7 L105.9,605.4 L107.8,603.0 L109.6,600.5 L111.5,598.0
		L113.4,595.4 L115.3,592.8 L117.2,590.1 L119.1,587.3 L121.0,584.5 L122.9,581.7 L124.7,578.8 L126.6,575.8
		L128.5,572.8 L130.4,569.8 L132.3,566.7 L134.2,563.5 L136.1,560.4 L138.0,557.2 L139.8,553.9 L141.7,550.6
		L143.6,547.3 L145.5,544.0 L147.4,540.6 L149.3,537.2 L151.2,533.7 L153.0,530.3 L154.9,526.8 L156.8,523.3
		L158.7,519.7 L160.6,516.1 L162.5,512.5 L164.4,508.9 L166.3,505.3 L168.1,501.6 L170.0,497.8 L171.9,494.1
		L173.8,490.3 L175.7,486.4 L177.6,482.6 L179.5,478.6 L181.4,474.7 L183.2,470.7 L185.1,466.6 L187.0,462.5
		L188.9,458.3 L190.8,454.1 L192.7,449.9 L194.6,445.6 L196.5,441.2 L198.3,436.8 L200.2,432.4 L202.1,427.9
		L204.0,423.5 L205.9,419.0 L207.8,414.4 L209.7,409.9 L211.6,405.4 L213.4,400.9 L215.3,396.4 L217.2,392.0
		L219.1,387.5 L221.0,383.1 L222.9,378.8 L224.8,374.5 L226.6,370.3 L228.5,366.2 L230.4,362.1 L232.3,358.0
		L234.2,354.1 L236.1,350.1 L238.0,346.3 L239.9,342.5 L241.7,338.8 L243.6,335.1 L245.5,331.4 L247.4,327.8
		L249.3,324.2 L251.2,320.7 L253.1,317.2 L255.0,313.6 L256.8,310.1 L258.7,306.6 L260.6,303.1 L262.5,299.5
		L264.4,296.0 L266.3,292.4 L268.2,288.8 L270.1,285.3 L271.9,281.6 L273.8,278.0 L275.7,274.4 L277.6,270.7
		L279.5,267.1 L281.4,263.4 L283.3,259.8 L285.2,256.2 L287.0,252.6 L288.9,249.0 L290.8,245.4 L292.7,241.9
		L294.6,238.4 L296.5,235.0 L298.4,231.6 L300.2,228.3 L302.1,225.1 L304.0,221.9 L305.9,218.8 L307.8,215.7
		L309.7,212.7 L311.6,209.7 L313.5,206.8 L315.3,204.0 L317.2,201.2 L319.1,198.5 L321.0,195.9 L322.9,193.3
		L324.8,190.8 L326.7,188.4 L328.6,186.0 L330.4,183.7 L332.3,181.4 L334.2,179.2 L336.1,177.1 L338.0,175.1
		L339.9,173.2 L341.8,171.3 L343.7,169.5 L345.5,167.8 L347.4,166.2 L349.3,164.6 L351.2,163.1 L353.1,161.7
		L355.0,160.4 L356.9,159.1 L358.8,157.9 L360.6,156.8 L362.5,155.6 L364.4,154.6 L366.3,153.6 L368.2,152.6
		L370.1,151.6 L372.0,150.6 L373.8,149.7 L375.7,148.8 L377.6,147.8 L379.5,146.9 L381.4,145.9 L383.3,145.0
		L385.2,144.0 L387.1,143.0 L388.9,142.0 L390.8,141.0 L392.7,140.0 L394.6,139.1 L396.5,138.1 L398.4,137.1
		L400.3,136.2 L402.2,135.3 L404.0,134.5 L405.9,133.7 L407.8,132.9 L409.7,132.3 L411.6,131.6 L413.5,131.1
		L415.4,130.6 L417.3,130.1 L419.1,129.8 L421.0,129.4 L422.9,129.2 L424.8,129.0 L426.7,128.9 L428.6,128.9
		L430.5,128.9 L432.4,128.9 L434.2,129.0 L436.1,129.2 L438.0,129.5 L439.9,129.8 L441.8,130.2 L443.7,130.7
		L445.6,131.2 L447.4,131.8 L449.3,132.6 L451.2,133.4 L453.1,134.3 L455.0,135.3 L456.9,136.5 L458.8,137.7
		L460.7,139.0 L462.5,140.5 L464.4,142.0 L466.3,143.6 L468.2,145.3 L470.1,147.1 L472.0,148.9 L473.9,150.8
		L475.8,152.8 L477.6,154.7 L479.5,156.6 L481.4,158.6 L483.3,160.5 L485.2,162.4 L487.1,164.3 L489.0,166.1
		L490.9,167.9 L492.7,169.6 L494.6,171.3 L496.5,172.9 L498.4,174.4 L500.3,175.9 L502.2,177.3 L504.1,178.7
		L506.0,180.0 L507.8,181.3 L509.7,182.6 L511.6,183.9 L513.5,185.2 L515.4,186.4 L517.3,187.7 L519.2,189.1
		L521.0,190.4 L522.9,191.9 L524.8,193.3 L526.7,194.9 L528.6,196.5 L530.5,198.1 L532.4,199.9 L534.3,201.7
		L536.1,203.6 L538.0,205.5 L539.9,207.6 L541.8,209.7 L543.7,211.9 L545.6,214.1 L547.5,216.4 L549.4,218.7
		L551.2,221.1 L553.1,223.6 L555.0,226.1 L556.9,228.6 L558.8,231.2 L560.7,233.7 L562.6,236.4 L564.5,239.0
		L566.3,241.6 L568.2,244.3 L570.1,246.9 L572.0,249.6 L573.9,252.2 L575.8,254.9 L577.7,257.5 L579.5,260.1
		L581.4,262.7 L583.3,265.2 L585.2,267.7 L587.1,270.2 L589.0,272.7 L590.9,275.1 L592.8,277.5 L594.6,279.8
		L596.5,282.1 L598.4,284.4 L600.3,286.7 L602.2,288.9 L604.1,291.1 L606.0,293.4 L607.9,295.6 L609.7,297.8
		L611.6,300.0 L613.5,302.2 L615.4,304.4 L617.3,306.6 L619.2,308.9 L621.1,311.2 L623.0,313.5 L624.8,315.8
		L626.7,318.1 L628.6,320.5 L630.5,322.9 L632.4,325.3 L634.3,327.7 L636.2,330.2 L638.1,332.7 L639.9,335.2
		L641.8,337.8 L643.7,340.3 L645.6,342.9 L647.5,345.6 L649.4,348.2 L651.3,350.9 L653.1,353.6 L655.0,356.3
		L656.9,359.1 L658.8,361.9 L660.7,364.7 L662.6,367.5 L664.5,370.3 L666.4,373.2 L668.2,376.1 L670.1,379.0
		L672.0,381.9 L673.9,384.8 L675.8,387.7 L677.7,390.5 L679.6,393.4 L681.5,396.3 L683.3,399.2 L685.2,402.0
		L687.1,404.8 L689.0,407.6 L690.9,410.4 L692.8,413.2 L694.7,415.9 L696.6,418.6 L698.4,421.2 L700.3,423.8
		L702.2,426.4 L704.1,429.0 L706.0,431.5 L707.9,433.9 L709.8,436.4 L711.7,438.8 L713.5,441.1 L715.4,443.4
		L717.3,445.7 L719.2,447.9 L721.1,450.2 L723.0,452.3 L724.9,454.5 L726.7,456.6 L728.6,458.7 L730.5,460.8
		L732.4,462.8 L734.3,464.9 L736.2,466.9 L738.1,468.9 L740.0,471.0 L741.8,473.0 L743.7,475.0 L745.6,477.0
		L747.5,479.1 L749.4,481.1 L751.3,483.2 L753.2,485.3 L755.1,487.4 L756.9,489.5 L758.8,491.6 L760.7,493.7
		L762.6,495.9 L764.5,498.0 L766.4,500.2 L768.3,502.3 L770.2,504.5 L772.0,506.6 L773.9,508.7 L775.8,510.8
		L777.7,512.8 L779.6,514.9 L781.5,516.8 L783.4,518.8 L785.3,520.7 L787.1,522.5 L789.0,524.3 L790.9,526.0
		L792.8,527.7 L794.7,529.3 L796.6,530.9 L798.5,532.4 L800.3,533.8 L802.2,535.2 L804.1,536.6 L806.0,537.9
		L807.9,539.2 L809.8,540.4 L811.7,541.7 L813.6,542.9 L815.4,544.1 L817.3,545.3 L819.2,546.4 L821.1,547.6
		L823.0,548.8 L824.9,550.0 L826.8,551.2 L828.7,552.4 L830.5,553.6 L832.4,554.8 L834.3,556.0 L836.2,557.2
		L838.1,558.4 L840.0,559.7 L841.9,560.9 L843.8,562.2 L845.6,563.4 L847.5,564.6 L849.4,565.9 L851.3,567.1
		L853.2,568.4 L855.1,569.6 L857.0,570.8 L858.9,572.0 L860.7,573.2 L862.6,574.4 L864.5,575.6 L866.4,576.8
		L868.3,577.9 L870.2,579.1 L872.1,580.2 L873.9,581.3 L875.8,582.4 L877.7,583.5 L879.6,584.5 L881.5,585.6
		L883.4,586.6 L885.3,587.5 L887.2,588.5 L889.0,589.4 L890.9,590.4 L892.8,591.3 L894.7,592.1 L896.6,593.0
		L898.5,593.8 L900.4,594.7 L902.3,595.5 L904.1,596.3 L906.0,597.1 L907.9,597.9 L909.8,598.6 L911.7,599.4
		L913.6,600.1 L915.5,600.9 L917.4,601.6 L919.2,602.4 L921.1,603.1 L923.0,603.9 L924.9,604.6 L926.8,605.3
		L928.7,606.1 L930.6,606.8 L932.5,607.5 L934.3,608.2 L936.2,608.9 L938.1,609.6 L940.0,610.3 L941.9,611.0
		L943.8,611.7 L945.7,612.4 L947.5,613.1 L949.4,613.7 L951.3,614.4 L953.2,615.0 L955.1,615.7 L957.0,616.3
		L958.9,617.0 L960.8,617.6 L962.6,618.3 L964.5,618.9 L966.4,619.5 L968.3,620.1 L970.2,620.7 L972.1,621.3
		L974.0,621.9 L975.9,622.5 L977.7,623.1 L979.6,623.7 L981.5,624.3 L983.4,624.9 L985.3,625.5 L987.2,626.1
		L989.1,626.6 L991.0,627.2 L992.8,627.8 L994.7,628.4 L996.6,629.0 L998.5,629.6 L1000.4,630.2 L1002.3,630.8
		L1004.2,631.4 L1006.1,632.0 L1007.9,632.6 L1009.8,633.1 L1011.7,633.7 L1013.6,634.3  '/></g>
	</g>
	<g id="gnuplot_plot_2" ><title>Confidence interval</title>
<g fill="none" color="white" stroke="rgb( 31, 120, 180)" stroke-width="1.00" stroke-linecap="butt" stroke-linejoin="miter">
</g>
<g fill="none" color="black" stroke="currentColor" stroke-width="1.00" stroke-linecap="butt" stroke-linejoin="miter">
	<g transform="translate(1089.0,85.0)" stroke="none" fill="black" font-family="Helvetica" font-size="12.00"  text-anchor="start">
		<text><tspan font-family="Helvetica" >Confidence interval</tspan></text>
	</g>
</g>
<g fill="none" color="black" stroke="currentColor" stroke-width="1.00" stroke-linecap="butt" stroke-linejoin="miter">
	<g stroke='none' shape-rendering='crispEdges'>
		<polygon fill = 'rgb( 31, 120, 180)' fill-opacity = '0.250000' points = '1038.5,85.6 1080.7,85.6 1080.7,76.6 1038.5,76.6 '/>
		<polygon fill = 'rgb( 31, 120, 180)' fill-opacity = '0.250000' points = '158.7,519.7 158.7,662.4 160.6,662.4 160.6,516.1 '/>
		<polygon fill = 'rgb( 31, 120, 180)' fill-opacity = '0.250000' points = '160.6,516.1 160.6,662.4 162.5,662.4 162.5,512.5 '/>
		<polygon fill = 'rgb( 31, 120, 180)' fill-opacity = '0.250000' points = '162.5,512.5 162.5,662.4 164.4,662.4 164.4,508.9 '/>
		<polygon fill = 'rgb( 31, 120, 180)' fill-opacity = '0.250000' points = '164.4,508.9 164.4,662.4 166.3,662.4 166.3,505.3 '/>
		<polygon fill = 'rgb( 31, 120, 180)' fill-opacity = '0.250000' points = '166.3,505.3 166.3,662.4 168.1,662.4 168.1,501.6 '/>
		<polygon fill = 'rgb( 31, 120, 180)' fill-opacity = '0.250000' points = '168.1,501.6 168.1,662.4 170.0,662.4 170.0,497.8 '/>
		<polygon fill = 'rgb( 31, 120, 180)' fill-opacity = '0.250000' points = '170.0,497.8 170.0,662.4 171.9,662.4 171.9,494.1 '/>
		<polygon fill = 'rgb( 31, 120, 180)' fill-opacity = '0.250000' points = '171.9,494.1 171.9,662.4 173.8,662.4 173.8,490.3 '/>
		<polygon fill = 'rgb( 31, 120, 180)' fill-opacity = '0.250000' points = '173.8,490.3 173.8,662.4 175.7,662.4 175.7,486.4 '/>
		<polygon fill = 'rgb( 31, 120, 180)' fill-opacity = '0.250000' points = '175.7,486.4 175.7,662.4 177.6,662.4 177.6,482.6 '/>
		<polygon fill = 'rgb( 31, 120, 180)' fill-opacity = '0.250000' points = '177.6,482.6 177.6,662.4 179.5,662.4 179.5,478.6 '/>
		<polygon fill = 'rgb( 31, 120, 180)' fill-opacity = '0.250000' points = '179.5,478.6 179.5,662.4 181.4,662.4 181.4,474.7 '/>
		<polygon fill = 'rgb( 31, 120, 180)' fill-opacity = '0.250000' points = '181.4,474.7 181.4,662.4 183.2,662.4 183.2,470.7 '/>
		<polygon fill = 'rgb( 31, 120, 180)' fill-opacity = '0.250000' points = '183.2,470.7 183.2,662.4 185.1,662.4 185.1,466.6 '/>
		<polygon fill = 'rgb( 31, 120, 180)' fill-opacity = '0.250000' points = '185.1,466.6 185.1,662.4 187.0,662.4 187.0,462.5 '/>
		<polygon fill = 'rgb( 31, 120, 180)' fill-opacity = '0.250000' points = '187.0,462.5 187.0,662.4 188.9,662.4 188.9,458.3 '/>
		<polygon fill = 'rgb( 31, 120, 180)' fill-opacity = '0.250000' points = '188.9,458.3 188.9,662.4 190.8,662.4 190.8,454.1 '/>
		<polygon fill = 'rgb( 31, 120, 180)' fill-opacity = '0.250000' points = '190.8,454.1 190.8,662.4 192.7,662.4 192.7,449.9 '/>
		<polygon fill = 'rgb( 31, 120, 180)' fill-opacity = '0.250000' points = '192.7,449.9 192.7,662.4 194.6,662.4 194.6,445.6 '/>
		<polygon fill = 'rgb( 31, 120, 180)' fill-opacity = '0.250000' points = '194.6,445.6 194.6,662.4 196.5,662.4 196.5,441.2 '/>
		<polygon fill = 'rgb( 31, 120, 180)' fill-opacity = '0.250000' points = '196.5,441.2 196.5,662.4 198.3,662.4 198.3,436.8 '/>
		<polygon fill = 'rgb( 31, 120, 180)' fill-opacity = '0.250000' points = '198.3,436.8 198.3,662.4 200.2,662.4 200.2,432.4 '/>
		<polygon fill = 'rgb( 31, 120, 180)' fill-opacity = '0.250000' points = '200.2,432.4 200.2,662.4 202.1,662.4 202.1,427.9 '/>
		<polygon fill = 'rgb( 31, 120, 180)' fill-opacity = '0.250000' points = '202.1,427.9 202.1,662.4 204.0,662.4 204.0,423.5 '/>
		<polygon fill = 'rgb( 31, 120, 180)' fill-opacity = '0.250000' points = '204.0,423.5 204.0,662.4 205.9,662.4 205.9,419.0 '/>
		<polygon fill = 'rgb( 31, 120, 180)' fill-opacity = '0.250000' points = '205.9,419.0 205.9,662.4 207.8,662.4 207.8,414.4 '/>
		<polygon fill = 'rgb( 31, 120, 180)' fill-opacity = '0.250000' points = '207.8,414.4 207.8,662.4 209.7,662.4 209.7,409.9 '/>
		<polygon fill = 'rgb( 31, 120, 180)' fill-opacity = '0.250000' points = '209.7,409.9 209.7,662.4 211.6,662.4 211.6,405.4 '/>
		<polygon fill = 'rgb( 31, 120, 180)' fill-opacity = '0.250000' points = '211.6,405.4 211.6,662.4 213.4,662.4 213.4,400.9 '/>
		<polygon fill = 'rgb( 31, 120, 180)' fill-opacity = '0.250000' points = '213.4,400.9 213.4,662.4 215.3,662.4 215.3,396.4 '/>
		<polygon fill = 'rgb( 31, 120, 180)' fill-opacity = '0.250000' points = '215.3,396.4 215.3,662.4 217.2,662.4 217.2,392.0 '/>
		<polygon fill = 'rgb( 31, 120, 180)' fill-opacity = '0.250000' points = '217.2,392.0 217.2,662.4 219.1,662.4 219.1,387.5 '/>
		<polygon fill = 'rgb( 31, 120, 180)' fill-opacity = '0.250000' points = '219.1,387.5 219.1,662.4 221.0,662.4 221.0,383.1 '/>
		<polygon fill = 'rgb( 31, 120, 180)' fill-opacity = '0.250000' points = '221.0,383.1 221.0,662.4 222.9,662.4 222.9,378.8 '/>
		<polygon fill = 'rgb( 31, 120, 180)' fill-opacity = '0.250000' points = '222.9,378.8 222.9,662.4 224.8,662.4 224.8,374.5 '/>
		<polygon fill = 'rgb( 31, 120, 180)' fill-opacity = '0.250000' points = '224.8,374.5 224.8,662.4 226.6,662.4 226.6,370.3 '/>
		<polygon fill = 'rgb( 31, 120, 180)' fill-opacity = '0.250000' points = '226.6,370.3 226.6,662.4 228.5,662.4 228.5,366.2 '/>
		<polygon fill = 'rgb( 31, 120, 180)' fill-opacity = '0.250000' points = '228.5,366.2 228.5,662.4 230.4,662.4 230.4,362.1 '/>
		<polygon fill = 'rgb( 31, 120, 180)' fill-opacity = '0.250000' points = '230.4,362.1 230.4,662.4 232.3,662.4 232.3,358.0 '/>
		<polygon fill = 'rgb( 31, 120, 180)' fill-opacity = '0.250000' points = '232.3,358.0 232.3,662.4 234.2,662.4 234.2,354.1 '/>
		<polygon fill = 'rgb( 31, 120, 180)' fill-opacity = '0.250000' points = '234.2,354.1 234.2,662.4 236.1,662.4 236.1,350.1 '/>
		<polygon fill = 'rgb( 31, 120, 180)' fill-opacity = '0.250000' points = '236.1,350.1 236.1,662.4 238.0,662.4 238.0,346.3 '/>
		<polygon fill = 'rgb( 31, 120, 180)' fill-opacity = '0.250000' points = '238.0,346.3 238.0,662.4 239.9,662.4 239.9,342.5 '/>
		<polygon fill = 'rgb( 31, 120, 180)' fill-opacity = '0.250000' points = '239.9,342.5 239.9,662.4 241.7,662.4 241.7,338.8 '/>
		<polygon fill = 'rgb( 31, 120, 180)' fill-opacity = '0.250000' points = '241.7,338.8 241.7,662.4 243.6,662.4 243.6,335.1 '/>
		<polygon fill = 'rgb( 31, 120, 180)' fill-opacity = '0.250000' points = '243.6,335.1 243.6,662.4 245.5,662.4 245.5,331.4 '/>
		<polygon fill = 'rgb( 31, 120, 180)' fill-opacity = '0.250000' points = '245.5,331.4 245.5,662.4 247.4,662.4 247.4,327.8 '/>
		<polygon fill = 'rgb( 31, 120, 180)' fill-opacity = '0.250000' points = '247.4,327.8 247.4,662.4 249.3,662.4 249.3,324.2 '/>
		<polygon fill = 'rgb( 31, 120, 180)' fill-opacity = '0.250000' points = '249.3,324.2 249.3,662.4 251.2,662.4 251.2,320.7 '/>
		<polygon fill = 'rgb( 31, 120, 180)' fill-opacity = '0.250000' points = '251.2,320.7 251.2,662.4 253.1,662.4 253.1,317.2 '/>
		<polygon fill = 'rgb( 31, 120, 180)' fill-opacity = '0.250000' points = '253.1,317.2 253.1,662.4 255.0,662.4 255.0,313.6 '/>
		<polygon fill = 'rgb( 31, 120, 180)' fill-opacity = '0.250000' points = '255.0,313.6 255.0,662.4 256.8,662.4 256.8,310.1 '/>
		<polygon fill = 'rgb( 31, 120, 180)' fill-opacity = '0.250000' points = '256.8,310.1 256.8,662.4 258.7,662.4 258.7,306.6 '/>
		<polygon fill = 'rgb( 31, 120, 180)' fill-opacity = '0.250000' points = '258.7,306.6 258.7,662.4 260.6,662.4 260.6,303.1 '/>
		<polygon fill = 'rgb( 31, 120, 180)' fill-opacity = '0.250000' points = '260.6,303.1 260.6,662.4 262.5,662.4 262.5,299.5 '/>
		<polygon fill = 'rgb( 31, 120, 180)' fill-opacity = '0.250000' points = '262.5,299.5 262.5,662.4 264.4,662.4 264.4,296.0 '/>
		<polygon fill = 'rgb( 31, 120, 180)' fill-opacity = '0.250000' points = '264.4,296.0 264.4,662.4 266.3,662.4 266.3,292.4 '/>
		<polygon fill = 'rgb( 31, 120, 180)' fill-opacity = '0.250000' points = '266.3,292.4 266.3,662.4 268.2,662.4 268.2,288.8 '/>
		<polygon fill = 'rgb( 31, 120, 180)' fill-opacity = '0.250000' points = '268.2,288.8 268.2,662.4 270.1,662.4 270.1,285.3 '/>
		<polygon fill = 'rgb( 31, 120, 180)' fill-opacity = '0.250000' points = '270.1,285.3 270.1,662.4 271.9,662.4 271.9,281.6 '/>
		<polygon fill = 'rgb( 31, 120, 180)' fill-opacity = '0.250000' points = '271.9,281.6 271.9,662.4 273.8,662.4 273.8,278.0 '/>
		<polygon fill = 'rgb( 31, 120, 180)' fill-opacity = '0.250000' points = '273.8,278.0 273.8,662.4 275.7,662.4 275.7,274.4 '/>
		<polygon fill = 'rgb( 31, 120, 180)' fill-opacity = '0.250000' points = '275.7,274.4 275.7,662.4 277.6,662.4 277.6,270.7 '/>
		<polygon fill = 'rgb( 31, 120, 180)' fill-opacity = '0.250000' points = '277.6,270.7 277.6,662.4 279.5,662.4 279.5,267.1 '/>
		<polygon fill = 'rgb( 31, 120, 180)' fill-opacity = '0.250000' points = '279.5,267.1 279.5,662.4 281.4,662.4 281.4,263.4 '/>
		<polygon fill = 'rgb( 31, 120, 180)' fill-opacity = '0.250000' points = '281.4,263.4 281.4,662.4 283.3,662.4 283.3,259.8 '/>
		<polygon fill = 'rgb( 31, 120, 180)' fill-opacity = '0.250000' points = '283.3,259.8 283.3,662.4 285.2,662.4 285.2,256.2 '/>
		<polygon fill = 'rgb( 31, 120, 180)' fill-opacity = '0.250000' points = '285.2,256.2 285.2,662.4 287.0,662.4 287.0,252.6 '/>
		<polygon fill = 'rgb( 31, 120, 180)' fill-opacity = '0.250000' points = '287.0,252.6 287.0,662.4 288.9,662.4 288.9,249.0 '/>
		<polygon fill = 'rgb( 31, 120, 180)' fill-opacity = '0.250000' points = '288.9,249.0 288.9,662.4 290.8,662.4 290.8,245.4 '/>
		<polygon fill = 'rgb( 31, 120, 180)' fill-opacity = '0.250000' points = '290.8,245.4 290.8,662.4 292.7,662.4 292.7,241.9 '/>
		<polygon fill = 'rgb( 31, 120, 180)' fill-opacity = '0.250000' points = '292.7,241.9 292.7,662.4 294.6,662.4 294.6,238.4 '/>
		<polygon fill = 'rgb( 31, 120, 180)' fill-opacity = '0.250000' points = '294.6,238.4 294.6,662.4 296.5,662.4 296.5,235.0 '/>
		<polygon fill = 'rgb( 31, 120, 180)' fill-opacity = '0.250000' points = '296.5,235.0 296.5,662.4 298.4,662.4 298.4,231.6 '/>
		<polygon fill = 'rgb( 31, 120, 180)' fill-opacity = '0.250000' points = '298.4,231.6 298.4,662.4 300.2,662.4 300.2,228.3 '/>
		<polygon fill = 'rgb( 31, 120, 180)' fill-opacity = '0.250000' points = '300.2,228.3 300.2,662.4 302.1,662.4 302.1,225.1 '/>
		<polygon fill = 'rgb( 31, 120, 180)' fill-opacity = '0.250000' points = '302.1,225.1 302.1,662.4 304.0,662.4 304.0,221.9 '/>
		<polygon fill = 'rgb( 31, 120, 180)' fill-opacity = '0.250000' points = '304.0,221.9 304.0,662.4 305.9,662.4 305.9,218.8 '/>
		<polygon fill = 'rgb( 31, 120, 180)' fill-opacity = '0.250000' points = '305.9,218.8 305.9,662.4 307.8,662.4 307.8,215.7 '/>
		<polygon fill = 'rgb( 31, 120, 180)' fill-opacity = '0.250000' points = '307.8,215.7 307.8,662.4 309.7,662.4 309.7,212.7 '/>
		<polygon fill = 'rgb( 31, 120, 180)' fill-opacity = '0.250000' points = '309.7,212.7 309.7,662.4 311.6,662.4 311.6,209.7 '/>
		<polygon fill = 'rgb( 31, 120, 180)' fill-opacity = '0.250000' points = '311.6,209.7 311.6,662.4 313.5,662.4 313.5,206.8 '/>
		<polygon fill = 'rgb( 31, 120, 180)' fill-opacity = '0.250000' points = '313.5,206.8 313.5,662.4 315.3,662.4 315.3,204.0 '/>
		<polygon fill = 'rgb( 31, 120, 180)' fill-opacity = '0.250000' points = '315.3,204.0 315.3,662.4 317.2,662.4 317.2,201.2 '/>
		<polygon fill = 'rgb( 31, 120, 180)' fill-opacity = '0.250000' points = '317.2,201.2 317.2,662.4 319.1,662.4 319.1,198.5 '/>
		<polygon fill = 'rgb( 31, 120, 180)' fill-opacity = '0.250000' points = '319.1,198.5 319.1,662.4 321.0,662.4 321.0,195.9 '/>
		<polygon fill = 'rgb( 31, 120, 180)' fill-opacity = '0.250000' points = '321.0,195.9 321.0,662.4 322.9,662.4 322.9,193.3 '/>
		<polygon fill = 'rgb( 31, 120, 180)' fill-opacity = '0.250000' points = '322.9,193.3 322.9,662.4 324.8,662.4 324.8,190.8 '/>
		<polygon fill = 'rgb( 31, 120, 180)' fill-opacity = '0.250000' points = '324.8,190.8 324.8,662.4 326.7,662.4 326.7,188.4 '/>
		<polygon fill = 'rgb( 31, 120, 180)' fill-opacity = '0.250000' points = '326.7,188.4 326.7,662.4 328.6,662.4 328.6,186.0 '/>
		<polygon fill = 'rgb( 31, 120, 180)' fill-opacity = '0.250000' points = '328.6,186.0 328.6,662.4 330.4,662.4 330.4,183.7 '/>
		<polygon fill = 'rgb( 31, 120, 180)' fill-opacity = '0.250000' points = '330.4,183.7 330.4,662.4 332.3,662.4 332.3,181.4 '/>
		<polygon fill = 'rgb( 31, 120, 180)' fill-opacity = '0.250000' points = '332.3,181.4 332.3,662.4 334.2,662.4 334.2,179.2 '/>
		<polygon fill = 'rgb( 31, 120, 180)' fill-opacity = '0.250000' points = '334.2,179.2 334.2,662.4 336.1,662.4 336.1,177.1 '/>
		<polygon fill = 'rgb( 31, 120, 180)' fill-opacity = '0.250000' points = '336.1,177.1 336.1,662.4 338.0,662.4 338.0,175.1 '/>
		<polygon fill = 'rgb( 31, 120, 180)' fill-opacity = '0.250000' points = '338.0,175.1 338.0,662.4 339.9,662.4 339.9,173.2 '/>
		<polygon fill = 'rgb( 31, 120, 180)' fill-opacity = '0.250000' points = '339.9,173.2 339.9,662.4 341.8,662.4 341.8,171.3 '/>
		<polygon fill = 'rgb( 31, 120, 180)' fill-opacity = '0.250000' points = '341.8,171.3 341.8,662.4 343.7,662.4 343.7,169.5 '/>
		<polygon fill = 'rgb( 31, 120, 180)' fill-opacity = '0.250000' points = '343.7,169.5 343.7,662.4 345.5,662.4 345.5,167.8 '/>
		<polygon fill = 'rgb( 31, 120, 180)' fill-opacity = '0.250000' points = '345.5,167.8 345.5,662.4 347.4,662.4 347.4,166.2 '/>
		<polygon fill = 'rgb( 31, 120, 180)' fill-opacity = '0.250000' points = '347.4,166.2 347.4,662.4 349.3,662.4 349.3,164.6 '/>
		<polygon fill = 'rgb( 31, 120, 180)' fill-opacity = '0.250000' points = '349.3,164.6 349.3,662.4 351.2,662.4 351.2,163.1 '/>
		<polygon fill = 'rgb( 31, 120, 180)' fill-opacity = '0.250000' points = '351.2,163.1 351.2,662.4 353.1,662.4 353.1,161.7 '/>
		<polygon fill = 'rgb( 31, 120, 180)' fill-opacity = '0.250000' points = '353.1,161.7 353.1,662.4 355.0,662.4 355.0,160.4 '/>
		<polygon fill = 'rgb( 31, 120, 180)' fill-opacity = '0.250000' points = '355.0,160.4 355.0,662.4 356.9,662.4 356.9,159.1 '/>
		<polygon fill = 'rgb( 31, 120, 180)' fill-opacity = '0.250000' points = '356.9,159.1 356.9,662.4 358.8,662.4 358.8,157.9 '/>
		<polygon fill = 'rgb( 31, 120, 180)' fill-opacity = '0.250000' points = '358.8,157.9 358.8,662.4 360.6,662.4 360.6,156.8 '/>
		<polygon fill = 'rgb( 31, 120, 180)' fill-opacity = '0.250000' points = '360.6,156.8 360.6,662.4 362.5,662.4 362.5,155.6 '/>
		<polygon fill = 'rgb( 31, 120, 180)' fill-opacity = '0.250000' points = '362.5,155.6 362.5,662.4 364.4,662.4 364.4,154.6 '/>
		<polygon fill = 'rgb( 31, 120, 180)' fill-opacity = '0.250000' points = '364.4,154.6 364.4,662.4 366.3,662.4 366.3,153.6 '/>
		<polygon fill = 'rgb( 31, 120, 180)' fill-opacity = '0.250000' points = '366.3,153.6 366.3,662.4 368.2,662.4 368.2,152.6 '/>
		<polygon fill = 'rgb( 31, 120, 180)' fill-opacity = '0.250000' points = '368.2,152.6 368.2,662.4 370.1,662.4 370.1,151.6 '/>
		<polygon fill = 'rgb( 31, 120, 180)' fill-opacity = '0.250000' points = '370.1,151.6 370.1,662.4 372.0,662.4 372.0,150.6 '/>
		<polygon fill = 'rgb( 31, 120, 180)' fill-opacity = '0.250000' points = '372.0,150.6 372.0,662.4 373.8,662.4 373.8,149.7 '/>
		<polygon fill = 'rgb( 31, 120, 180)' fill-opacity = '0.250000' points = '373.8,149.7 373.8,662.4 375.7,662.4 375.7,148.8 '/>
		<polygon fill = 'rgb( 31, 120, 180)' fill-opacity = '0.250000' points = '375.7,148.8 375.7,662.4 377.6,662.4 377.6,147.8 '/>
		<polygon fill = 'rgb( 31, 120, 180)' fill-opacity = '0.250000' points = '377.6,147.8 377.6,662.4 379.5,662.4 379.5,146.9 '/>
		<polygon fill = 'rgb( 31, 120, 180)' fill-opacity = '0.250000' points = '379.5,146.9 379.5,662.4 381.4,662.4 381.4,145.9 '/>
		<polygon fill = 'rgb( 31, 120, 180)' fill-opacity = '0.250000' points = '381.4,145.9 381.4,662.4 383.3,662.4 383.3,145.0 '/>
		<polygon fill = 'rgb( 31, 120, 180)' fill-opacity = '0.250000' points = '383.3,145.0 383.3,662.4 385.2,662.4 385.2,144.0 '/>
		<polygon fill = 'rgb( 31, 120, 180)' fill-opacity = '0.250000' points = '385.2,144.0 385.2,662.4 387.1,662.4 387.1,143.0 '/>
		<polygon fill = 'rgb( 31, 120, 180)' fill-opacity = '0.250000' points = '387.1,143.0 387.1,662.4 388.9,662.4 388.9,142.0 '/>
		<polygon fill = 'rgb( 31, 120, 180)' fill-opacity = '0.250000' points = '388.9,142.0 388.9,662.4 390.8,662.4 390.8,141.0 '/>
		<polygon fill = 'rgb( 31, 120, 180)' fill-opacity = '0.250000' points = '390.8,141.0 390.8,662.4 392.7,662.4 392.7,140.0 '/>
		<polygon fill = 'rgb( 31, 120, 180)' fill-opacity = '0.250000' points = '392.7,140.0 392.7,662.4 394.6,662.4 394.6,139.1 '/>
		<polygon fill = 'rgb( 31, 120, 180)' fill-opacity = '0.250000' points = '394.6,139.1 394.6,662.4 396.5,662.4 396.5,138.1 '/>
		<polygon fill = 'rgb( 31, 120, 180)' fill-opacity = '0.250000' points = '396.5,138.1 396.5,662.4 398.4,662.4 398.4,137.1 '/>
		<polygon fill = 'rgb( 31, 120, 180)' fill-opacity = '0.250000' points = '398.4,137.1 398.4,662.4 400.3,662.4 400.3,136.2 '/>
		<polygon fill = 'rgb( 31, 120, 180)' fill-opacity = '0.250000' points = '400.3,136.2 400.3,662.4 402.2,662.4 402.2,135.3 '/>
		<polygon fill = 'rgb( 31, 120, 180)' fill-opacity = '0.250000' points = '402.2,135.3 402.2,662.4 404.0,662.4 404.0,134.5 '/>
		<polygon fill = 'rgb( 31, 120, 180)' fill-opacity = '0.250000' points = '404.0,134.5 404.0,662.4 405.9,662.4 405.9,133.7 '/>
		<polygon fill = 'rgb( 31, 120, 180)' fill-opacity = '0.250000' points = '405.9,133.7 405.9,662.4 407.8,662.4 407.8,132.9 '/>
		<polygon fill = 'rgb( 31, 120, 180)' fill-opacity = '0.250000' points = '407.8,132.9 407.8,662.4 409.7,662.4 409.7,132.3 '/>
		<polygon fill = 'rgb( 31, 120, 180)' fill-opacity = '0.250000' points = '409.7,132.3 409.7,662.4 411.6,662.4 411.6,131.6 '/>
		<polygon fill = 'rgb( 31, 120, 180)' fill-opacity = '0.250000' points = '411.6,131.6 411.6,662.4 413.5,662.4 413.5,131.1 '/>
		<polygon fill = 'rgb( 31, 120, 180)' fill-opacity = '0.250000' points = '413.5,131.1 413.5,662.4 415.4,662.4 415.4,130.6 '/>
		<polygon fill = 'rgb( 31, 120, 180)' fill-opacity = '0.250000' points = '415.4,130.6 415.4,662.4 417.3,662.4 417.3,130.1 '/>
		<polygon fill = 'rgb( 31, 120, 180)' fill-opacity = '0.250000' points = '417.3,130.1 417.3,662.4 419.1,662.4 419.1,129.8 '/>
		<polygon fill = 'rgb( 31, 120, 180)' fill-opacity = '0.250000' points = '419.1,129.8 419.1,662.4 421.0,662.4 421.0,129.4 '/>
		<polygon fill = 'rgb( 31, 120, 180)' fill-opacity = '0.250000' points = '421.0,129.4 421.0,662.4 422.9,662.4 422.9,129.2 '/>
		<polygon fill = 'rgb( 31, 120, 180)' fill-opacity = '0.250000' points = '422.9,129.2 422.9,662.4 424.8,662.4 424.8,129.0 '/>
		<polygon fill = 'rgb( 31, 120, 180)' fill-opacity = '0.250000' points = '424.8,129.0 424.8,662.4 426.7,662.4 426.7,128.9 '/>
		<polygon fill = 'rgb( 31, 120, 180)' fill-opacity = '0.250000' points = '426.7,128.9 426.7,662.4 428.6,662.4 428.6,128.9 '/>
		<polygon fill = 'rgb( 31, 120, 180)' fill-opacity = '0.250000' points = '428.6,128.9 428.6,662.4 430.5,662.4 430.5,128.9 '/>
		<polygon fill = 'rgb( 31, 120, 180)' fill-opacity = '0.250000' points = '430.5,128.9 430.5,662.4 432.4,662.4 432.4,128.9 '/>
		<polygon fill = 'rgb( 31, 120, 180)' fill-opacity = '0.250000' points = '432.4,128.9 432.4,662.4 434.2,662.4 434.2,129.0 '/>
		<polygon fill = 'rgb( 31, 120, 180)' fill-opacity = '0.250000' points = '434.2,129.0 434.2,662.4 436.1,662.4 436.1,129.2 '/>
		<polygon fill = 'rgb( 31, 120, 180)' fill-opacity = '0.250000' points = '436.1,129.2 436.1,662.4 438.0,662.4 438.0,129.5 '/>
		<polygon fill = 'rgb( 31, 120, 180)' fill-opacity = '0.250000' points = '438.0,129.5 438.0,662.4 439.9,662.4 439.9,129.8 '/>
		<polygon fill = 'rgb( 31, 120, 180)' fill-opacity = '0.250000' points = '439.9,129.8 439.9,662.4 441.8,662.4 441.8,130.2 '/>
		<polygon fill = 'rgb( 31, 120, 180)' fill-opacity = '0.250000' points = '441.8,130.2 441.8,662.4 443.7,662.4 443.7,130.7 '/>
		<polygon fill = 'rgb( 31, 120, 180)' fill-opacity = '0.250000' points = '443.7,130.7 443.7,662.4 445.6,662.4 445.6,131.2 '/>
		<polygon fill = 'rgb( 31, 120, 180)' fill-opacity = '0.250000' points = '445.6,131.2 445.6,662.4 447.4,662.4 447.4,131.8 '/>
		<polygon fill = 'rgb( 31, 120, 180)' fill-opacity = '0.250000' points = '447.4,131.8 447.4,662.4 449.3,662.4 449.3,132.6 '/>
		<polygon fill = 'rgb( 31, 120, 180)' fill-opacity = '0.250000' points = '449.3,132.6 449.3,662.4 451.2,662.4 451.2,133.4 '/>
		<polygon fill = 'rgb( 31, 120, 180)' fill-opacity = '0.250000' points = '451.2,133.4 451.2,662.4 453.1,662.4 453.1,134.3 '/>
		<polygon fill = 'rgb( 31, 120, 180)' fill-opacity = '0.250000' points = '453.1,134.3 453.1,662.4 455.0,662.4 455.0,135.3 '/>
		<polygon fill = 'rgb( 31, 120, 180)' fill-opacity = '0.250000' points = '455.0,135.3 455.0,662.4 456.9,662.4 456.9,136.5 '/>
		<polygon fill = 'rgb( 31, 120, 180)' fill-opacity = '0.250000' points = '456.9,136.5 456.9,662.4 458.8,662.4 458.8,137.7 '/>
		<polygon fill = 'rgb( 31, 120, 180)' fill-opacity = '0.250000' points = '458.8,137.7 458.8,662.4 460.7,662.4 460.7,139.0 '/>
		<polygon fill = 'rgb( 31, 120, 180)' fill-opacity = '0.250000' points = '460.7,139.0 460.7,662.4 462.5,662.4 462.5,140.5 '/>
		<polygon fill = 'rgb( 31, 120, 180)' fill-opacity = '0.250000' points = '462.5,140.5 462.5,662.4 464.4,662.4 464.4,142.0 '/>
		<polygon fill = 'rgb( 31, 120, 180)' fill-opacity = '0.250000' points = '464.4,142.0 464.4,662.4 466.3,662.4 466.3,143.6 '/>
		<polygon fill = 'rgb( 31, 120, 180)' fill-opacity = '0.250000' points = '466.3,143.6 466.3,662.4 468.2,662.4 468.2,145.3 '/>
		<polygon fill = 'rgb( 31, 120, 180)' fill-opacity = '0.250000' points = '468.2,145.3 468.2,662.4 470.1,662.4 470.1,147.1 '/>
		<polygon fill = 'rgb( 31, 120, 180)' fill-opacity = '0.250000' points = '470.1,147.1 470.1,662.4 472.0,662.4 472.0,148.9 '/>
		<polygon fill = 'rgb( 31, 120, 180)' fill-opacity = '0.250000' points = '472.0,148.9 472.0,662.4 473.9,662.4 473.9,150.8 '/>
		<polygon fill = 'rgb( 31, 120, 180)' fill-opacity = '0.250000' points = '473.9,150.8 473.9,662.4 475.8,662.4 475.8,152.8 '/>
		<polygon fill = 'rgb( 31, 120, 180)' fill-opacity = '0.250000' points = '475.8,152.8 475.8,662.4 477.6,662.4 477.6,154.7 '/>
		<polygon fill = 'rgb( 31, 120, 180)' fill-opacity = '0.250000' points = '477.6,154.7 477.6,662.4 479.5,662.4 479.5,156.6 '/>
		<polygon fill = 'rgb( 31, 120, 180)' fill-opacity = '0.250000' points = '479.5,156.6 479.5,662.4 481.4,662.4 481.4,158.6 '/>
		<polygon fill = 'rgb( 31, 120, 180)' fill-opacity = '0.250000' points = '481.4,158.6 481.4,662.4 483.3,662.4 483.3,160.5 '/>
		<polygon fill = 'rgb( 31, 120, 180)' fill-opacity = '0.250000' points = '483.3,160.5 483.3,662.4 485.2,662.4 485.2,162.4 '/>
		<polygon fill = 'rgb( 31, 120, 180)' fill-opacity = '0.250000' points = '485.2,162.4 485.2,662.4 487.1,662.4 487.1,164.3 '/>
		<polygon fill = 'rgb( 31, 120, 180)' fill-opacity = '0.250000' points = '487.1,164.3 487.1,662.4 489.0,662.4 489.0,166.1 '/>
		<polygon fill = 'rgb( 31, 120, 180)' fill-opacity = '0.250000' points = '489.0,166.1 489.0,662.4 490.9,662.4 490.9,167.9 '/>
		<polygon fill = 'rgb( 31, 120, 180)' fill-opacity = '0.250000' points = '490.9,167.9 490.9,662.4 492.7,662.4 492.7,169.6 '/>
		<polygon fill = 'rgb( 31, 120, 180)' fill-opacity = '0.250000' points = '492.7,169.6 492.7,662.4 494.6,662.4 494.6,171.3 '/>
		<polygon fill = 'rgb( 31, 120, 180)' fill-opacity = '0.250000' points = '494.6,171.3 494.6,662.4 496.5,662.4 496.5,172.9 '/>
		<polygon fill = 'rgb( 31, 120, 180)' fill-opacity = '0.250000' points = '496.5,172.9 496.5,662.4 498.4,662.4 498.4,174.4 '/>
		<polygon fill = 'rgb( 31, 120, 180)' fill-opacity = '0.250000' points = '498.4,174.4 498.4,662.4 500.3,662.4 500.3,175.9 '/>
		<polygon fill = 'rgb( 31, 120, 180)' fill-opacity = '0.250000' points = '500.3,175.9 500.3,662.4 502.2,662.4 502.2,177.3 '/>
		<polygon fill = 'rgb( 31, 120, 180)' fill-opacity = '0.250000' points = '502.2,177.3 502.2,662.4 504.1,662.4 504.1,178.7 '/>
		<polygon fill = 'rgb( 31, 120, 180)' fill-opacity = '0.250000' points = '504.1,178.7 504.1,662.4 506.0,662.4 506.0,180.0 '/>
		<polygon fill = 'rgb( 31, 120, 180)' fill-opacity = '0.250000' points = '506.0,180.0 506.0,662.4 507.8,662.4 507.8,181.3 '/>
		<polygon fill = 'rgb( 31, 120, 180)' fill-opacity = '0.250000' points = '507.8,181.3 507.8,662.4 509.7,662.4 509.7,182.6 '/>
		<polygon fill = 'rgb( 31, 120, 180)' fill-opacity = '0.250000' points = '509.7,182.6 509.7,662.4 511.6,662.4 511.6,183.9 '/>
		<polygon fill = 'rgb( 31, 120, 180)' fill-opacity = '0.250000' points = '511.6,183.9 511.6,662.4 513.5,662.4 513.5,185.2 '/>
		<polygon fill = 'rgb( 31, 120, 180)' fill-opacity = '0.250000' points = '513.5,185.2 513.5,662.4 515.4,662.4 515.4,186.4 '/>
		<polygon fill = 'rgb( 31, 120, 180)' fill-opacity = '0.250000' points = '515.4,186.4 515.4,662.4 517.3,662.4 517.3,187.7 '/>
		<polygon fill = 'rgb( 31, 120, 180)' fill-opacity = '0.250000' points = '517.3,187.7 517.3,662.4 519.2,662.4 519.2,189.1 '/>
		<polygon fill = 'rgb( 31, 120, 180)' fill-opacity = '0.250000' points = '519.2,189.1 519.2,662.4 521.0,662.4 521.0,190.4 '/>
		<polygon fill = 'rgb( 31, 120, 180)' fill-opacity = '0.250000' points = '521.0,190.4 521.0,662.4 522.9,662.4 522.9,191.9 '/>
		<polygon fill = 'rgb( 31, 120, 180)' fill-opacity = '0.250000' points = '522.9,191.9 522.9,662.4 524.8,662.4 524.8,193.3 '/>
		<polygon fill = 'rgb( 31, 120, 180)' fill-opacity = '0.250000' points = '524.8,193.3 524.8,662.4 526.7,662.4 526.7,194.9 '/>
		<polygon fill = 'rgb( 31, 120, 180)' fill-opacity = '0.250000' points = '526.7,194.9 526.7,662.4 528.6,662.4 528.6,196.5 '/>
		<polygon fill = 'rgb( 31, 120, 180)' fill-opacity = '0.250000' points = '528.6,196.5 528.6,662.4 530.5,662.4 530.5,198.1 '/>
		<polygon fill = 'rgb( 31, 120, 180)' fill-opacity = '0.250000' points = '530.5,198.1 530.5,662.4 532.4,662.4 532.4,199.9 '/>
		<polygon fill = 'rgb( 31, 120, 180)' fill-opacity = '0.250000' points = '532.4,199.9 532.4,662.4 534.3,662.4 534.3,201.7 '/>
		<polygon fill = 'rgb( 31, 120, 180)' fill-opacity = '0.250000' points = '534.3,201.7 534.3,662.4 536.1,662.4 536.1,203.6 '/>
		<polygon fill = 'rgb( 31, 120, 180)' fill-opacity = '0.250000' points = '536.1,203.6 536.1,662.4 538.0,662.4 538.0,205.5 '/>
		<polygon fill = 'rgb( 31, 120, 180)' fill-opacity = '0.250000' points = '538.0,205.5 538.0,662.4 539.9,662.4 539.9,207.6 '/>
		<polygon fill = 'rgb( 31, 120, 180)' fill-opacity = '0.250000' points = '539.9,207.6 539.9,662.4 541.8,662.4 541.8,209.7 '/>
		<polygon fill = 'rgb( 31, 120, 180)' fill-opacity = '0.250000' points = '541.8,209.7 541.8,662.4 543.7,662.4 543.7,211.9 '/>
		<polygon fill = 'rgb( 31, 120, 180)' fill-opacity = '0.250000' points = '543.7,211.9 543.7,662.4 545.6,662.4 545.6,214.1 '/>
		<polygon fill = 'rgb( 31, 120, 180)' fill-opacity = '0.250000' points = '545.6,214.1 545.6,662.4 547.5,662.4 547.5,216.4 '/>
		<polygon fill = 'rgb( 31, 120, 180)' fill-opacity = '0.250000' points = '547.5,216.4 547.5,662.4 549.4,662.4 549.4,218.7 '/>
		<polygon fill = 'rgb( 31, 120, 180)' fill-opacity = '0.250000' points = '549.4,218.7 549.4,662.4 551.2,662.4 551.2,221.1 '/>
		<polygon fill = 'rgb( 31, 120, 180)' fill-opacity = '0.250000' points = '551.2,221.1 551.2,662.4 553.1,662.4 553.1,223.6 '/>
		<polygon fill = 'rgb( 31, 120, 180)' fill-opacity = '0.250000' points = '553.1,223.6 553.1,662.4 555.0,662.4 555.0,226.1 '/>
		<polygon fill = 'rgb( 31, 120, 180)' fill-opacity = '0.250000' points = '555.0,226.1 555.0,662.4 556.9,662.4 556.9,228.6 '/>
		<polygon fill = 'rgb( 31, 120, 180)' fill-opacity = '0.250000' points = '556.9,228.6 556.9,662.4 558.8,662.4 558.8,231.2 '/>
		<polygon fill = 'rgb( 31, 120, 180)' fill-opacity = '0.250000' points = '558.8,231.2 558.8,662.4 560.7,662.4 560.7,233.7 '/>
		<polygon fill = 'rgb( 31, 120, 180)' fill-opacity = '0.250000' points = '560.7,233.7 560.7,662.4 562.6,662.4 562.6,236.4 '/>
		<polygon fill = 'rgb( 31, 120, 180)' fill-opacity = '0.250000' points = '562.6,236.4 562.6,662.4 564.5,662.4 564.5,239.0 '/>
		<polygon fill = 'rgb( 31, 120, 180)' fill-opacity = '0.250000' points = '564.5,239.0 564.5,662.4 566.3,662.4 566.3,241.6 '/>
		<polygon fill = 'rgb( 31, 120, 180)' fill-opacity = '0.250000' points = '566.3,241.6 566.3,662.4 568.2,662.4 568.2,244.3 '/>
		<polygon fill = 'rgb( 31, 120, 180)' fill-opacity = '0.250000' points = '568.2,244.3 568.2,662.4 570.1,662.4 570.1,246.9 '/>
		<polygon fill = 'rgb( 31, 120, 180)' fill-opacity = '0.250000' points = '570.1,246.9 570.1,662.4 572.0,662.4 572.0,249.6 '/>
		<polygon fill = 'rgb( 31, 120, 180)' fill-opacity = '0.250000' points = '572.0,249.6 572.0,662.4 573.9,662.4 573.9,252.2 '/>
		<polygon fill = 'rgb( 31, 120, 180)' fill-opacity = '0.250000' points = '573.9,252.2 573.9,662.4 575.8,662.4 575.8,254.9 '/>
		<polygon fill = 'rgb( 31, 120, 180)' fill-opacity = '0.250000' points = '575.8,254.9 575.8,662.4 577.7,662.4 577.7,257.5 '/>
		<polygon fill = 'rgb( 31, 120, 180)' fill-opacity = '0.250000' points = '577.7,257.5 577.7,662.4 579.5,662.4 579.5,260.1 '/>
		<polygon fill = 'rgb( 31, 120, 180)' fill-opacity = '0.250000' points = '579.5,260.1 579.5,662.4 581.4,662.4 581.4,262.7 '/>
		<polygon fill = 'rgb( 31, 120, 180)' fill-opacity = '0.250000' points = '581.4,262.7 581.4,662.4 583.3,662.4 583.3,265.2 '/>
		<polygon fill = 'rgb( 31, 120, 180)' fill-opacity = '0.250000' points = '583.3,265.2 583.3,662.4 585.2,662.4 585.2,267.7 '/>
		<polygon fill = 'rgb( 31, 120, 180)' fill-opacity = '0.250000' points = '585.2,267.7 585.2,662.4 587.1,662.4 587.1,270.2 '/>
		<polygon fill = 'rgb( 31, 120, 180)' fill-opacity = '0.250000' points = '587.1,270.2 587.1,662.4 589.0,662.4 589.0,272.7 '/>
		<polygon fill = 'rgb( 31, 120, 180)' fill-opacity = '0.250000' points = '589.0,272.7 589.0,662.4 590.9,662.4 590.9,275.1 '/>
		<polygon fill = 'rgb( 31, 120, 180)' fill-opacity = '0.250000' points = '590.9,275.1 590.9,662.4 592.8,662.4 592.8,277.5 '/>
		<polygon fill = 'rgb( 31, 120, 180)' fill-opacity = '0.250000' points = '592.8,277.5 592.8,662.4 594.6,662.4 594.6,279.8 '/>
		<polygon fill = 'rgb( 31, 120, 180)' fill-opacity = '0.250000' points = '594.6,279.8 594.6,662.4 596.5,662.4 596.5,282.1 '/>
		<polygon fill = 'rgb( 31, 120, 180)' fill-opacity = '0.250000' points = '596.5,282.1 596.5,662.4 598.4,662.4 598.4,284.4 '/>
		<polygon fill = 'rgb( 31, 120, 180)' fill-opacity = '0.250000' points = '598.4,284.4 598.4,662.4 600.3,662.4 600.3,286.7 '/>
		<polygon fill = 'rgb( 31, 120, 180)' fill-opacity = '0.250000' points = '600.3,286.7 600.3,662.4 602.2,662.4 602.2,288.9 '/>
		<polygon fill = 'rgb( 31, 120, 180)' fill-opacity = '0.250000' points = '602.2,288.9 602.2,662.4 604.1,662.4 604.1,291.1 '/>
		<polygon fill = 'rgb( 31, 120, 180)' fill-opacity = '0.250000' points = '604.1,291.1 604.1,662.4 606.0,662.4 606.0,293.4 '/>
		<polygon fill = 'rgb( 31, 120, 180)' fill-opacity = '0.250000' points = '606.0,293.4 606.0,662.4 607.9,662.4 607.9,295.6 '/>
		<polygon fill = 'rgb( 31, 120, 180)' fill-opacity = '0.250000' points = '607.9,295.6 607.9,662.4 609.7,662.4 609.7,297.8 '/>
		<polygon fill = 'rgb( 31, 120, 180)' fill-opacity = '0.250000' points = '609.7,297.8 609.7,662.4 611.6,662.4 611.6,300.0 '/>
		<polygon fill = 'rgb( 31, 120, 180)' fill-opacity = '0.250000' points = '611.6,300.0 611.6,662.4 613.5,662.4 613.5,302.2 '/>
		<polygon fill = 'rgb( 31, 120, 180)' fill-opacity = '0.250000' points = '613.5,302.2 613.5,662.4 615.4,662.4 615.4,304.4 '/>
		<polygon fill = 'rgb( 31, 120, 180)' fill-opacity = '0.250000' points = '615.4,304.4 615.4,662.4 617.3,662.4 617.3,306.6 '/>
		<polygon fill = 'rgb( 31, 120, 180)' fill-opacity = '0.250000' points = '617.3,306.6 617.3,662.4 619.2,662.4 619.2,308.9 '/>
		<polygon fill = 'rgb( 31, 120, 180)' fill-opacity = '0.250000' points = '619.2,308.9 619.2,662.4 621.1,662.4 621.1,311.2 '/>
		<polygon fill = 'rgb( 31, 120, 180)' fill-opacity = '0.250000' points = '621.1,311.2 621.1,662.4 623.0,662.4 623.0,313.5 '/>
		<polygon fill = 'rgb( 31, 120, 180)' fill-opacity = '0.250000' points = '623.0,313.5 623.0,662.4 624.8,662.4 624.8,315.8 '/>
		<polygon fill = 'rgb( 31, 120, 180)' fill-opacity = '0.250000' points = '624.8,315.8 624.8,662.4 626.7,662.4 626.7,318.1 '/>
		<polygon fill = 'rgb( 31, 120, 180)' fill-opacity = '0.250000' points = '626.7,318.1 626.7,662.4 628.6,662.4 628.6,320.5 '/>
		<polygon fill = 'rgb( 31, 120, 180)' fill-opacity = '0.250000' points = '628.6,320.5 628.6,662.4 630.5,662.4 630.5,322.9 '/>
		<polygon fill = 'rgb( 31, 120, 180)' fill-opacity = '0.250000' points = '630.5,322.9 630.5,662.4 632.4,662.4 632.4,325.3 '/>
		<polygon fill = 'rgb( 31, 120, 180)' fill-opacity = '0.250000' points = '632.4,325.3 632.4,662.4 634.3,662.4 634.3,327.7 '/>
		<polygon fill = 'rgb( 31, 120, 180)' fill-opacity = '0.250000' points = '634.3,327.7 634.3,662.4 636.2,662.4 636.2,330.2 '/>
		<polygon fill = 'rgb( 31, 120, 180)' fill-opacity = '0.250000' points = '636.2,330.2 636.2,662.4 638.1,662.4 638.1,332.7 '/>
		<polygon fill = 'rgb( 31, 120, 180)' fill-opacity = '0.250000' points = '638.1,332.7 638.1,662.4 639.9,662.4 639.9,335.2 '/>
		<polygon fill = 'rgb( 31, 120, 180)' fill-opacity = '0.250000' points = '639.9,335.2 639.9,662.4 641.8,662.4 641.8,337.8 '/>
		<polygon fill = 'rgb( 31, 120, 180)' fill-opacity = '0.250000' points = '641.8,337.8 641.8,662.4 643.7,662.4 643.7,340.3 '/>
		<polygon fill = 'rgb( 31, 120, 180)' fill-opacity = '0.250000' points = '643.7,340.3 643.7,662.4 645.6,662.4 645.6,342.9 '/>
		<polygon fill = 'rgb( 31, 120, 180)' fill-opacity = '0.250000' points = '645.6,342.9 645.6,662.4 647.5,662.4 647.5,345.6 '/>
		<polygon fill = 'rgb( 31, 120, 180)' fill-opacity = '0.250000' points = '647.5,345.6 647.5,662.4 649.4,662.4 649.4,348.2 '/>
		<polygon fill = 'rgb( 31, 120, 180)' fill-opacity = '0.250000' points = '649.4,348.2 649.4,662.4 651.3,662.4 651.3,350.9 '/>
		<polygon fill = 'rgb( 31, 120, 180)' fill-opacity = '0.250000' points = '651.3,350.9 651.3,662.4 653.1,662.4 653.1,353.6 '/>
		<polygon fill = 'rgb( 31, 120, 180)' fill-opacity = '0.250000' points = '653.1,353.6 653.1,662.4 655.0,662.4 655.0,356.3 '/>
		<polygon fill = 'rgb( 31, 120, 180)' fill-opacity = '0.250000' points = '655.0,356.3 655.0,662.4 656.9,662.4 656.9,359.1 '/>
		<polygon fill = 'rgb( 31, 120, 180)' fill-opacity = '0.250000' points = '656.9,359.1 656.9,662.4 658.8,662.4 658.8,361.9 '/>
		<polygon fill = 'rgb( 31, 120, 180)' fill-opacity = '0.250000' points = '658.8,361.9 658.8,662.4 660.7,662.4 660.7,364.7 '/>
		<polygon fill = 'rgb( 31, 120, 180)' fill-opacity = '0.250000' points = '660.7,364.7 660.7,662.4 662.6,662.4 662.6,367.5 '/>
		<polygon fill = 'rgb( 31, 120, 180)' fill-opacity = '0.250000' points = '662.6,367.5 662.6,662.4 664.5,662.4 664.5,370.3 '/>
		<polygon fill = 'rgb( 31, 120, 180)' fill-opacity = '0.250000' points = '664.5,370.3 664.5,662.4 666.4,662.4 666.4,373.2 '/>
		<polygon fill = 'rgb( 31, 120, 180)' fill-opacity = '0.250000' points = '666.4,373.2 666.4,662.4 668.2,662.4 668.2,376.1 '/>
		<polygon fill = 'rgb( 31, 120, 180)' fill-opacity = '0.250000' points = '668.2,376.1 668.2,662.4 670.1,662.4 670.1,379.0 '/>
		<polygon fill = 'rgb( 31, 120, 180)' fill-opacity = '0.250000' points = '670.1,379.0 670.1,662.4 672.0,662.4 672.0,381.9 '/>
		<polygon fill = 'rgb( 31, 120, 180)' fill-opacity = '0.250000' points = '672.0,381.9 672.0,662.4 673.9,662.4 673.9,384.8 '/>
		<polygon fill = 'rgb( 31, 120, 180)' fill-opacity = '0.250000' points = '673.9,384.8 673.9,662.4 675.8,662.4 675.8,387.7 '/>
		<polygon fill = 'rgb( 31, 120, 180)' fill-opacity = '0.250000' points = '675.8,387.7 675.8,662.4 677.7,662.4 677.7,390.5 '/>
		<polygon fill = 'rgb( 31, 120, 180)' fill-opacity = '0.250000' points = '677.7,390.5 677.7,662.4 679.6,662.4 679.6,393.4 '/>
		<polygon fill = 'rgb( 31, 120, 180)' fill-opacity = '0.250000' points = '679.6,393.4 679.6,662.4 681.5,662.4 681.5,396.3 '/>
		<polygon fill = 'rgb( 31, 120, 180)' fill-opacity = '0.250000' points = '681.5,396.3 681.5,662.4 683.3,662.4 683.3,399.2 '/>
		<polygon fill = 'rgb( 31, 120, 180)' fill-opacity = '0.250000' points = '683.3,399.2 683.3,662.4 685.2,662.4 685.2,402.0 '/>
		<polygon fill = 'rgb( 31, 120, 180)' fill-opacity = '0.250000' points = '685.2,402.0 685.2,662.4 687.1,662.4 687.1,404.8 '/>
		<polygon fill = 'rgb( 31, 120, 180)' fill-opacity = '0.250000' points = '687.1,404.8 687.1,662.4 689.0,662.4 689.0,407.6 '/>
		<polygon fill = 'rgb( 31, 120, 180)' fill-opacity = '0.250000' points = '689.0,407.6 689.0,662.4 690.9,662.4 690.9,410.4 '/>
		<polygon fill = 'rgb( 31, 120, 180)' fill-opacity = '0.250000' points = '690.9,410.4 690.9,662.4 692.8,662.4 692.8,413.2 '/>
		<polygon fill = 'rgb( 31, 120, 180)' fill-opacity = '0.250000' points = '692.8,413.2 692.8,662.4 694.7,662.4 694.7,415.9 '/>
		<polygon fill = 'rgb( 31, 120, 180)' fill-opacity = '0.250000' points = '694.7,415.9 694.7,662.4 696.6,662.4 696.6,418.6 '/>
		<polygon fill = 'rgb( 31, 120, 180)' fill-opacity = '0.250000' points = '696.6,418.6 696.6,662.4 698.4,662.4 698.4,421.2 '/>
		<polygon fill = 'rgb( 31, 120, 180)' fill-opacity = '0.250000' points = '698.4,421.2 698.4,662.4 700.3,662.4 700.3,423.8 '/>
		<polygon fill = 'rgb( 31, 120, 180)' fill-opacity = '0.250000' points = '700.3,423.8 700.3,662.4 702.2,662.4 702.2,426.4 '/>
		<polygon fill = 'rgb( 31, 120, 180)' fill-opacity = '0.250000' points = '702.2,426.4 702.2,662.4 704.1,662.4 704.1,429.0 '/>
		<polygon fill = 'rgb( 31, 120, 180)' fill-opacity = '0.250000' points = '704.1,429.0 704.1,662.4 706.0,662.4 706.0,431.5 '/>
		<polygon fill = 'rgb( 31, 120, 180)' fill-opacity = '0.250000' points = '706.0,431.5 706.0,662.4 707.9,662.4 707.9,433.9 '/>
		<polygon fill = 'rgb( 31, 120, 180)' fill-opacity = '0.250000' points = '707.9,433.9 707.9,662.4 709.8,662.4 709.8,436.4 '/>
		<polygon fill = 'rgb( 31, 120, 180)' fill-opacity = '0.250000' points = '709.8,436.4 709.8,662.4 711.7,662.4 711.7,438.8 '/>
		<polygon fill = 'rgb( 31, 120, 180)' fill-opacity = '0.250000' points = '711.7,438.8 711.7,662.4 713.5,662.4 713.5,441.1 '/>
		<polygon fill = 'rgb( 31, 120, 180)' fill-opacity = '0.250000' points = '713.5,441.1 713.5,662.4 715.4,662.4 715.4,443.4 '/>
		<polygon fill = 'rgb( 31, 120, 180)' fill-opacity = '0.250000' points = '715.4,443.4 715.4,662.4 717.3,662.4 717.3,445.7 '/>
		<polygon fill = 'rgb( 31, 120, 180)' fill-opacity = '0.250000' points = '717.3,445.7 717.3,662.4 719.2,662.4 719.2,447.9 '/>
		<polygon fill = 'rgb( 31, 120, 180)' fill-opacity = '0.250000' points = '719.2,447.9 719.2,662.4 721.1,662.4 721.1,450.2 '/>
		<polygon fill = 'rgb( 31, 120, 180)' fill-opacity = '0.250000' points = '721.1,450.2 721.1,662.4 723.0,662.4 723.0,452.3 '/>
		<polygon fill = 'rgb( 31, 120, 180)' fill-opacity = '0.250000' points = '723.0,452.3 723.0,662.4 724.9,662.4 724.9,454.5 '/>
		<polygon fill = 'rgb( 31, 120, 180)' fill-opacity = '0.250000' points = '724.9,454.5 724.9,662.4 726.7,662.4 726.7,456.6 '/>
		<polygon fill = 'rgb( 31, 120, 180)' fill-opacity = '0.250000' points = '726.7,456.6 726.7,662.4 728.6,662.4 728.6,458.7 '/>
		<polygon fill = 'rgb( 31, 120, 180)' fill-opacity = '0.250000' points = '728.6,458.7 728.6,662.4 730.5,662.4 730.5,460.8 '/>
		<polygon fill = 'rgb( 31, 120, 180)' fill-opacity = '0.250000' points = '730.5,460.8 730.5,662.4 732.4,662.4 732.4,462.8 '/>
		<polygon fill = 'rgb( 31, 120, 180)' fill-opacity = '0.250000' points = '732.4,462.8 732.4,662.4 734.3,662.4 734.3,464.9 '/>
		<polygon fill = 'rgb( 31, 120, 180)' fill-opacity = '0.250000' points = '734.3,464.9 734.3,662.4 736.2,662.4 736.2,466.9 '/>
		<polygon fill = 'rgb( 31, 120, 180)' fill-opacity = '0.250000' points = '736.2,466.9 736.2,662.4 738.1,662.4 738.1,468.9 '/>
		<polygon fill = 'rgb( 31, 120, 180)' fill-opacity = '0.250000' points = '738.1,468.9 738.1,662.4 740.0,662.4 740.0,471.0 '/>
		<polygon fill = 'rgb( 31, 120, 180)' fill-opacity = '0.250000' points = '740.0,471.0 740.0,662.4 741.8,662.4 741.8,473.0 '/>
		<polygon fill = 'rgb( 31, 120, 180)' fill-opacity = '0.250000' points = '741.8,473.0 741.8,662.4 743.7,662.4 743.7,475.0 '/>
		<polygon fill = 'rgb( 31, 120, 180)' fill-opacity = '0.250000' points = '743.7,475.0 743.7,662.4 745.6,662.4 745.6,477.0 '/>
		<polygon fill = 'rgb( 31, 120, 180)' fill-opacity = '0.250000' points = '745.6,477.0 745.6,662.4 747.5,662.4 747.5,479.1 '/>
		<polygon fill = 'rgb( 31, 120, 180)' fill-opacity = '0.250000' points = '747.5,479.1 747.5,662.4 749.4,662.4 749.4,481.1 '/>
		<polygon fill = 'rgb( 31, 120, 180)' fill-opacity = '0.250000' points = '749.4,481.1 749.4,662.4 751.3,662.4 751.3,483.2 '/>
		<polygon fill = 'rgb( 31, 120, 180)' fill-opacity = '0.250000' points = '751.3,483.2 751.3,662.4 753.2,662.4 753.2,485.3 '/>
		<polygon fill = 'rgb( 31, 120, 180)' fill-opacity = '0.250000' points = '753.2,485.3 753.2,662.4 755.1,662.4 755.1,487.4 '/>
		<polygon fill = 'rgb( 31, 120, 180)' fill-opacity = '0.250000' points = '755.1,487.4 755.1,662.4 756.9,662.4 756.9,489.5 '/>
		<polygon fill = 'rgb( 31, 120, 180)' fill-opacity = '0.250000' points = '756.9,489.5 756.9,662.4 758.8,662.4 758.8,491.6 '/>
		<polygon fill = 'rgb( 31, 120, 180)' fill-opacity = '0.250000' points = '758.8,491.6 758.8,662.4 760.7,662.4 760.7,493.7 '/>
		<polygon fill = 'rgb( 31, 120, 180)' fill-opacity = '0.250000' points = '760.7,493.7 760.7,662.4 762.6,662.4 762.6,495.9 '/>
		<polygon fill = 'rgb( 31, 120, 180)' fill-opacity = '0.250000' points = '762.6,495.9 762.6,662.4 764.5,662.4 764.5,498.0 '/>
		<polygon fill = 'rgb( 31, 120, 180)' fill-opacity = '0.250000' points = '764.5,498.0 764.5,662.4 766.4,662.4 766.4,500.2 '/>
		<polygon fill = 'rgb( 31, 120, 180)' fill-opacity = '0.250000' points = '766.4,500.2 766.4,662.4 768.3,662.4 768.3,502.3 '/>
		<polygon fill = 'rgb( 31, 120, 180)' fill-opacity = '0.250000' points = '768.3,502.3 768.3,662.4 770.2,662.4 770.2,504.5 '/>
		<polygon fill = 'rgb( 31, 120, 180)' fill-opacity = '0.250000' points = '770.2,504.5 770.2,662.4 772.0,662.4 772.0,506.6 '/>
		<polygon fill = 'rgb( 31, 120, 180)' fill-opacity = '0.250000' points = '772.0,506.6 772.0,662.4 773.9,662.4 773.9,508.7 '/>
		<polygon fill = 'rgb( 31, 120, 180)' fill-opacity = '0.250000' points = '773.9,508.7 773.9,662.4 775.8,662.4 775.8,510.8 '/>
		<polygon fill = 'rgb( 31, 120, 180)' fill-opacity = '0.250000' points = '775.8,510.8 775.8,662.4 777.7,662.4 777.7,512.8 '/>
		<polygon fill = 'rgb( 31, 120, 180)' fill-opacity = '0.250000' points = '777.7,512.8 777.7,662.4 779.6,662.4 779.6,514.9 '/>
		<polygon fill = 'rgb( 31, 120, 180)' fill-opacity = '0.250000' points = '779.6,514.9 779.6,662.4 781.5,662.4 781.5,516.8 '/>
		<polygon fill = 'rgb( 31, 120, 180)' fill-opacity = '0.250000' points = '781.5,516.8 781.5,662.4 783.4,662.4 783.4,518.8 '/>
		<polygon fill = 'rgb( 31, 120, 180)' fill-opacity = '0.250000' points = '783.4,518.8 783.4,662.4 785.3,662.4 785.3,520.7 '/>
		<polygon fill = 'rgb( 31, 120, 180)' fill-opacity = '0.250000' points = '785.3,520.7 785.3,662.4 787.1,662.4 787.1,522.5 '/>
		<polygon fill = 'rgb( 31, 120, 180)' fill-opacity = '0.250000' points = '787.1,522.5 787.1,662.4 789.0,662.4 789.0,524.3 '/>
		<polygon fill = 'rgb( 31, 120, 180)' fill-opacity = '0.250000' points = '789.0,524.3 789.0,662.4 790.9,662.4 790.9,526.0 '/>
		<polygon fill = 'rgb( 31, 120, 180)' fill-opacity = '0.250000' points = '790.9,526.0 790.9,662.4 792.8,662.4 792.8,527.7 '/>
		<polygon fill = 'rgb( 31, 120, 180)' fill-opacity = '0.250000' points = '792.8,527.7 792.8,662.4 794.7,662.4 794.7,529.3 '/>
		<polygon fill = 'rgb( 31, 120, 180)' fill-opacity = '0.250000' points = '794.7,529.3 794.7,662.4 796.6,662.4 796.6,530.9 '/>
		<polygon fill = 'rgb( 31, 120, 180)' fill-opacity = '0.250000' points = '796.6,530.9 796.6,662.4 798.5,662.4 798.5,532.4 '/>
		<polygon fill = 'rgb( 31, 120, 180)' fill-opacity = '0.250000' points = '798.5,532.4 798.5,662.4 800.3,662.4 800.3,533.8 '/>
		<polygon fill = 'rgb( 31, 120, 180)' fill-opacity = '0.250000' points = '800.3,533.8 800.3,662.4 802.2,662.4 802.2,535.2 '/>
		<polygon fill = 'rgb( 31, 120, 180)' fill-opacity = '0.250000' points = '802.2,535.2 802.2,662.4 804.1,662.4 804.1,536.6 '/>
		<polygon fill = 'rgb( 31, 120, 180)' fill-opacity = '0.250000' points = '804.1,536.6 804.1,662.4 806.0,662.4 806.0,537.9 '/>
		<polygon fill = 'rgb( 31, 120, 180)' fill-opacity = '0.250000' points = '806.0,537.9 806.0,662.4 807.9,662.4 807.9,539.2 '/>
		<polygon fill = 'rgb( 31, 120, 180)' fill-opacity = '0.250000' points = '807.9,539.2 807.9,662.4 809.8,662.4 809.8,540.4 '/>
		<polygon fill = 'rgb( 31, 120, 180)' fill-opacity = '0.250000' points = '809.8,540.4 809.8,662.4 811.7,662.4 811.7,541.7 '/>
		<polygon fill = 'rgb( 31, 120, 180)' fill-opacity = '0.250000' points = '811.7,541.7 811.7,662.4 813.6,662.4 813.6,542.9 '/>
		<polygon fill = 'rgb( 31, 120, 180)' fill-opacity = '0.250000' points = '813.6,542.9 813.6,662.4 815.4,662.4 815.4,544.1 '/>
		<polygon fill = 'rgb( 31, 120, 180)' fill-opacity = '0.250000' points = '815.4,544.1 815.4,662.4 817.3,662.4 817.3,545.3 '/>
		<polygon fill = 'rgb( 31, 120, 180)' fill-opacity = '0.250000' points = '817.3,545.3 817.3,662.4 819.2,662.4 819.2,546.4 '/>
		<polygon fill = 'rgb( 31, 120, 180)' fill-opacity = '0.250000' points = '819.2,546.4 819.2,662.4 821.1,662.4 821.1,547.6 '/>
		<polygon fill = 'rgb( 31, 120, 180)' fill-opacity = '0.250000' points = '821.1,547.6 821.1,662.4 823.0,662.4 823.0,548.8 '/>
		<polygon fill = 'rgb( 31, 120, 180)' fill-opacity = '0.250000' points = '823.0,548.8 823.0,662.4 824.9,662.4 824.9,550.0 '/>
		<polygon fill = 'rgb( 31, 120, 180)' fill-opacity = '0.250000' points = '824.9,550.0 824.9,662.4 826.8,662.4 826.8,551.2 '/>
		<polygon fill = 'rgb( 31, 120, 180)' fill-opacity = '0.250000' points = '826.8,551.2 826.8,662.4 828.7,662.4 828.7,552.4 '/>
		<polygon fill = 'rgb( 31, 120, 180)' fill-opacity = '0.250000' points = '828.7,552.4 828.7,662.4 830.5,662.4 830.5,553.6 '/>
		<polygon fill = 'rgb( 31, 120, 180)' fill-opacity = '0.250000' points = '830.5,553.6 830.5,662.4 832.4,662.4 832.4,554.8 '/>
		<polygon fill = 'rgb( 31, 120, 180)' fill-opacity = '0.250000' points = '832.4,554.8 832.4,662.4 834.3,662.4 834.3,556.0 '/>
		<polygon fill = 'rgb( 31, 120, 180)' fill-opacity = '0.250000' points = '834.3,556.0 834.3,662.4 836.2,662.4 836.2,557.2 '/>
		<polygon fill = 'rgb( 31, 120, 180)' fill-opacity = '0.250000' points = '836.2,557.2 836.2,662.4 838.1,662.4 838.1,558.4 '/>
		<polygon fill = 'rgb( 31, 120, 180)' fill-opacity = '0.250000' points = '838.1,558.4 838.1,662.4 840.0,662.4 840.0,559.7 '/>
		<polygon fill = 'rgb( 31, 120, 180)' fill-opacity = '0.250000' points = '840.0,559.7 840.0,662.4 841.9,662.4 841.9,560.9 '/>
		<polygon fill = 'rgb( 31, 120, 180)' fill-opacity = '0.250000' points = '841.9,560.9 841.9,662.4 843.8,662.4 843.8,562.2 '/>
		<polygon fill = 'rgb( 31, 120, 180)' fill-opacity = '0.250000' points = '843.8,562.2 843.8,662.4 845.6,662.4 845.6,563.4 '/>
		<polygon fill = 'rgb( 31, 120, 180)' fill-opacity = '0.250000' points = '845.6,563.4 845.6,662.4 847.5,662.4 847.5,564.6 '/>
		<polygon fill = 'rgb( 31, 120, 180)' fill-opacity = '0.250000' points = '847.5,564.6 847.5,662.4 849.4,662.4 849.4,565.9 '/>
		<polygon fill = 'rgb( 31, 120, 180)' fill-opacity = '0.250000' points = '849.4,565.9 849.4,662.4 851.3,662.4 851.3,567.1 '/>
		<polygon fill = 'rgb( 31, 120, 180)' fill-opacity = '0.250000' points = '851.3,567.1 851.3,662.4 853.2,662.4 853.2,568.4 '/>
		<polygon fill = 'rgb( 31, 120, 180)' fill-opacity = '0.250000' points = '853.2,568.4 853.2,662.4 855.1,662.4 855.1,569.6 '/>
		<polygon fill = 'rgb( 31, 120, 180)' fill-opacity = '0.250000' points = '855.1,569.6 855.1,662.4 857.0,662.4 857.0,570.8 '/>
		<polygon fill = 'rgb( 31, 120, 180)' fill-opacity = '0.250000' points = '857.0,570.8 857.0,662.4 858.9,662.4 858.9,572.0 '/>
		<polygon fill = 'rgb( 31, 120, 180)' fill-opacity = '0.250000' points = '858.9,572.0 858.9,662.4 860.7,662.4 860.7,573.2 '/>
		<polygon fill = 'rgb( 31, 120, 180)' fill-opacity = '0.250000' points = '860.7,573.2 860.7,662.4 862.6,662.4 862.6,574.4 '/>
		<polygon fill = 'rgb( 31, 120, 180)' fill-opacity = '0.250000' points = '862.6,574.4 862.6,662.4 864.5,662.4 864.5,575.6 '/>
		<polygon fill = 'rgb( 31, 120, 180)' fill-opacity = '0.250000' points = '864.5,575.6 864.5,662.4 866.4,662.4 866.4,576.8 '/>
		<polygon fill = 'rgb( 31, 120, 180)' fill-opacity = '0.250000' points = '866.4,576.8 866.4,662.4 868.3,662.4 868.3,577.9 '/>
		<polygon fill = 'rgb( 31, 120, 180)' fill-opacity = '0.250000' points = '868.3,577.9 868.3,662.4 870.2,662.4 870.2,579.1 '/>
		<polygon fill = 'rgb( 31, 120, 180)' fill-opacity = '0.250000' points = '870.2,579.1 870.2,662.4 872.1,662.4 872.1,580.2 '/>
		<polygon fill = 'rgb( 31, 120, 180)' fill-opacity = '0.250000' points = '872.1,580.2 872.1,662.4 873.9,662.4 873.9,581.3 '/>
		<polygon fill = 'rgb( 31, 120, 180)' fill-opacity = '0.250000' points = '873.9,581.3 873.9,662.4 875.8,662.4 875.8,582.4 '/>
		<polygon fill = 'rgb( 31, 120, 180)' fill-opacity = '0.250000' points = '875.8,582.4 875.8,662.4 877.7,662.4 877.7,583.5 '/>
		<polygon fill = 'rgb( 31, 120, 180)' fill-opacity = '0.250000' points = '877.7,583.5 877.7,662.4 879.6,662.4 879.6,584.5 '/>
		<polygon fill = 'rgb( 31, 120, 180)' fill-opacity = '0.250000' points = '879.6,584.5 879.6,662.4 881.5,662.4 881.5,585.6 '/>
		<polygon fill = 'rgb( 31, 120, 180)' fill-opacity = '0.250000' points = '881.5,585.6 881.5,662.4 883.4,662.4 883.4,586.6 '/>
		<polygon fill = 'rgb( 31, 120, 180)' fill-opacity = '0.250000' points = '883.4,586.6 883.4,662.4 885.3,662.4 885.3,587.5 '/>
		<polygon fill = 'rgb( 31, 120, 180)' fill-opacity = '0.250000' points = '885.3,587.5 885.3,662.4 887.2,662.4 887.2,588.5 '/>
		<polygon fill = 'rgb( 31, 120, 180)' fill-opacity = '0.250000' points = '887.2,588.5 887.2,662.4 889.0,662.4 889.0,589.4 '/>
		<polygon fill = 'rgb( 31, 120, 180)' fill-opacity = '0.250000' points = '889.0,589.4 889.0,662.4 890.9,662.4 890.9,590.4 '/>
		<polygon fill = 'rgb( 31, 120, 180)' fill-opacity = '0.250000' points = '890.9,590.4 890.9,662.4 892.8,662.4 892.8,591.3 '/>
		<polygon fill = 'rgb( 31, 120, 180)' fill-opacity = '0.250000' points = '892.8,591.3 892.8,662.4 894.7,662.4 894.7,592.1 '/>
		<polygon fill = 'rgb( 31, 120, 180)' fill-opacity = '0.250000' points = '894.7,592.1 894.7,662.4 896.6,662.4 896.6,593.0 '/>
		<polygon fill = 'rgb( 31, 120, 180)' fill-opacity = '0.250000' points = '896.6,593.0 896.6,662.4 898.5,662.4 898.5,593.8 '/>
		<polygon fill = 'rgb( 31, 120, 180)' fill-opacity = '0.250000' points = '898.5,593.8 898.5,662.4 900.4,662.4 900.4,594.7 '/>
		<polygon fill = 'rgb( 31, 120, 180)' fill-opacity = '0.250000' points = '900.4,594.7 900.4,662.4 902.3,662.4 902.3,595.5 '/>
		<polygon fill = 'rgb( 31, 120, 180)' fill-opacity = '0.250000' points = '902.3,595.5 902.3,662.4 904.1,662.4 904.1,596.3 '/>
		<polygon fill = 'rgb( 31, 120, 180)' fill-opacity = '0.250000' points = '904.1,596.3 904.1,662.4 906.0,662.4 906.0,597.1 '/>
		<polygon fill = 'rgb( 31, 120, 180)' fill-opacity = '0.250000' points = '906.0,597.1 906.0,662.4 907.9,662.4 907.9,597.9 '/>
		<polygon fill = 'rgb( 31, 120, 180)' fill-opacity = '0.250000' points = '907.9,597.9 907.9,662.4 909.8,662.4 909.8,598.6 '/>
		<polygon fill = 'rgb( 31, 120, 180)' fill-opacity = '0.250000' points = '909.8,598.6 909.8,662.4 911.7,662.4 911.7,599.4 '/>
		<polygon fill = 'rgb( 31, 120, 180)' fill-opacity = '0.250000' points = '911.7,599.4 911.7,662.4 913.6,662.4 913.6,600.1 '/>
		<polygon fill = 'rgb( 31, 120, 180)' fill-opacity = '0.250000' points = '913.6,600.1 913.6,662.4 915.5,662.4 915.5,600.9 '/>
		<polygon fill = 'rgb( 31, 120, 180)' fill-opacity = '0.250000' points = '915.5,600.9 915.5,662.4 917.4,662.4 917.4,601.6 '/>
		<polygon fill = 'rgb( 31, 120, 180)' fill-opacity = '0.250000' points = '917.4,601.6 917.4,662.4 919.2,662.4 919.2,602.4 '/>
		<polygon fill = 'rgb( 31, 120, 180)' fill-opacity = '0.250000' points = '919.2,602.4 919.2,662.4 921.1,662.4 921.1,603.1 '/>
		<polygon fill = 'rgb( 31, 120, 180)' fill-opacity = '0.250000' points = '921.1,603.1 921.1,662.4 923.0,662.4 923.0,603.9 '/>
		<polygon fill = 'rgb( 31, 120, 180)' fill-opacity = '0.250000' points = '923.0,603.9 923.0,662.4 924.9,662.4 924.9,604.6 '/>
	</g>
</g>
	</g>
	<g id="gnuplot_plot_3" ><title>Point estimate</title>
<g fill="none" color="white" stroke="rgb( 31, 120, 180)" stroke-width="2.00" stroke-linecap="butt" stroke-linejoin="miter">
</g>
<g fill="none" color="black" stroke="currentColor" stroke-width="2.00" stroke-linecap="butt" stroke-linejoin="miter">
	<g transform="translate(1089.0,103.0)" stroke="none" fill="black" font-family="Helvetica" font-size="12.00"  text-anchor="start">
		<text><tspan font-family="Helvetica" >Point estimate</tspan></text>
	</g>
</g>
<g fill="none" color="black" stroke="currentColor" stroke-width="2.00" stroke-linecap="butt" stroke-linejoin="miter">
	<path stroke='rgb( 31, 120, 180)'  d='M1038.5,99.1 L1080.7,99.1 M482.0,662.4 L482.0,159.2  '/></g>
	</g>
<g fill="none" color="black" stroke="currentColor" stroke-width="2.00" stroke-linecap="butt" stroke-linejoin="miter">
</g>
<g fill="none" color="black" stroke="black" stroke-width="1.00" stroke-linecap="butt" stroke-linejoin="miter">
</g>
<g fill="none" color="black" stroke="currentColor" stroke-width="1.00" stroke-linecap="butt" stroke-linejoin="miter">
	<path stroke='black'  d='M71.9,54.1 L71.9,662.4 L1013.6,662.4 L1013.6,54.1 L71.9,54.1 Z  '/></g>
<g fill="none" color="black" stroke="currentColor" stroke-width="1.00" stroke-linecap="butt" stroke-linejoin="miter">
</g>
</g>
</svg>

