<?xml version="1.0" encoding="utf-8"  standalone="no"?>
<!DOCTYPE svg PUBLIC "-//W3C//DTD SVG 1.1//EN"
 "http://www.w3.org/Graphics/SVG/1.1/DTD/svg11.dtd">
<svg 
 viewBox="0 0 450 300"
 xmlns="http://www.w3.org/2000/svg"
 xmlns:xlink="http://www.w3.org/1999/xlink"
>

<title>Gnuplot</title>
<desc>Produced by GNUPLOT 5.0 patchlevel 5 </desc>

<g id="gnuplot_canvas">

<rect x="0" y="0" width="450" height="300" fill="none"/>
<defs>

	<circle id='gpDot' r='0.5' stroke-width='0.5'/>
	<path id='gpPt0' stroke-width='0.222' stroke='currentColor' d='M-1,0 h2 M0,-1 v2'/>
	<path id='gpPt1' stroke-width='0.222' stroke='currentColor' d='M-1,-1 L1,1 M1,-1 L-1,1'/>
	<path id='gpPt2' stroke-width='0.222' stroke='currentColor' d='M-1,0 L1,0 M0,-1 L0,1 M-1,-1 L1,1 M-1,1 L1,-1'/>
	<rect id='gpPt3' stroke-width='0.222' stroke='currentColor' x='-1' y='-1' width='2' height='2'/>
	<rect id='gpPt4' stroke-width='0.222' stroke='currentColor' fill='currentColor' x='-1' y='-1' width='2' height='2'/>
	<circle id='gpPt5' stroke-width='0.222' stroke='currentColor' cx='0' cy='0' r='1'/>
	<use xlink:href='#gpPt5' id='gpPt6' fill='currentColor' stroke='none'/>
	<path id='gpPt7' stroke-width='0.222' stroke='currentColor' d='M0,-1.33 L-1.33,0.67 L1.33,0.67 z'/>
	<use xlink:href='#gpPt7' id='gpPt8' fill='currentColor' stroke='none'/>
	<use xlink:href='#gpPt7' id='gpPt9' stroke='currentColor' transform='rotate(180)'/>
	<use xlink:href='#gpPt9' id='gpPt10' fill='currentColor' stroke='none'/>
	<use xlink:href='#gpPt3' id='gpPt11' stroke='currentColor' transform='rotate(45)'/>
	<use xlink:href='#gpPt11' id='gpPt12' fill='currentColor' stroke='none'/>
	<path id='gpPt13' stroke-width='0.222' stroke='currentColor' d='M0,1.330 L1.265,0.411 L0.782,-1.067 L-0.782,-1.076 L-1.265,0.411 z'/>
	<use xlink:href='#gpPt13' id='gpPt14' fill='currentColor' stroke='none'/>
	<filter id='textbox' filterUnits='objectBoundingBox' x='0' y='0' height='1' width='1'>
	  <feFlood flood-color='white' flood-opacity='1' result='bgnd'/>
	  <feComposite in='SourceGraphic' in2='bgnd' operator='atop'/>
	</filter>
	<filter id='greybox' filterUnits='objectBoundingBox' x='0' y='0' height='1' width='1'>
	  <feFlood flood-color='lightgrey' flood-opacity='1' result='grey'/>
	  <feComposite in='SourceGraphic' in2='grey' operator='atop'/>
	</filter>
</defs>
<g fill="none" color="white" stroke="currentColor" stroke-width="1.00" stroke-linecap="butt" stroke-linejoin="miter">
</g>
<g fill="none" color="black" stroke="currentColor" stroke-width="1.00" stroke-linecap="butt" stroke-linejoin="miter">
	<path stroke='black'  d='M63.6,242.4 L72.6,242.4  '/>	<g transform="translate(55.3,246.3)" stroke="none" fill="black" font-family="Helvetica" font-size="12.00"  text-anchor="end">
		<text><tspan font-family="Helvetica" > 0</tspan></text>
	</g>
</g>
<g fill="none" color="black" stroke="currentColor" stroke-width="1.00" stroke-linecap="butt" stroke-linejoin="miter">
	<path stroke='black'  d='M63.6,209.2 L72.6,209.2  '/>	<g transform="translate(55.3,213.1)" stroke="none" fill="black" font-family="Helvetica" font-size="12.00"  text-anchor="end">
		<text><tspan font-family="Helvetica" > 10</tspan></text>
	</g>
</g>
<g fill="none" color="black" stroke="currentColor" stroke-width="1.00" stroke-linecap="butt" stroke-linejoin="miter">
	<path stroke='black'  d='M63.6,176.0 L72.6,176.0  '/>	<g transform="translate(55.3,179.9)" stroke="none" fill="black" font-family="Helvetica" font-size="12.00"  text-anchor="end">
		<text><tspan font-family="Helvetica" > 20</tspan></text>
	</g>
</g>
<g fill="none" color="black" stroke="currentColor" stroke-width="1.00" stroke-linecap="butt" stroke-linejoin="miter">
	<path stroke='black'  d='M63.6,142.8 L72.6,142.8  '/>	<g transform="translate(55.3,146.7)" stroke="none" fill="black" font-family="Helvetica" font-size="12.00"  text-anchor="end">
		<text><tspan font-family="Helvetica" > 30</tspan></text>
	</g>
</g>
<g fill="none" color="black" stroke="currentColor" stroke-width="1.00" stroke-linecap="butt" stroke-linejoin="miter">
	<path stroke='black'  d='M63.6,109.6 L72.6,109.6  '/>	<g transform="translate(55.3,113.5)" stroke="none" fill="black" font-family="Helvetica" font-size="12.00"  text-anchor="end">
		<text><tspan font-family="Helvetica" > 40</tspan></text>
	</g>
</g>
<g fill="none" color="black" stroke="currentColor" stroke-width="1.00" stroke-linecap="butt" stroke-linejoin="miter">
	<path stroke='black'  d='M63.6,76.3 L72.6,76.3  '/>	<g transform="translate(55.3,80.2)" stroke="none" fill="black" font-family="Helvetica" font-size="12.00"  text-anchor="end">
		<text><tspan font-family="Helvetica" > 50</tspan></text>
	</g>
</g>
<g fill="none" color="black" stroke="currentColor" stroke-width="1.00" stroke-linecap="butt" stroke-linejoin="miter">
	<path stroke='black'  d='M63.6,43.1 L72.6,43.1  '/>	<g transform="translate(55.3,47.0)" stroke="none" fill="black" font-family="Helvetica" font-size="12.00"  text-anchor="end">
		<text><tspan font-family="Helvetica" > 60</tspan></text>
	</g>
</g>
<g fill="none" color="black" stroke="currentColor" stroke-width="1.00" stroke-linecap="butt" stroke-linejoin="miter">
	<path stroke='black'  d='M67.1,242.4 L67.1,233.4  '/>	<g transform="translate(67.1,264.3)" stroke="none" fill="black" font-family="Helvetica" font-size="12.00"  text-anchor="middle">
		<text><tspan font-family="Helvetica" > 1.04</tspan></text>
	</g>
</g>
<g fill="none" color="black" stroke="currentColor" stroke-width="1.00" stroke-linecap="butt" stroke-linejoin="miter">
	<path stroke='black'  d='M117.1,242.4 L117.1,233.4  '/>	<g transform="translate(117.1,264.3)" stroke="none" fill="black" font-family="Helvetica" font-size="12.00"  text-anchor="middle">
		<text><tspan font-family="Helvetica" > 1.06</tspan></text>
	</g>
</g>
<g fill="none" color="black" stroke="currentColor" stroke-width="1.00" stroke-linecap="butt" stroke-linejoin="miter">
	<path stroke='black'  d='M167.0,242.4 L167.0,233.4  '/>	<g transform="translate(167.0,264.3)" stroke="none" fill="black" font-family="Helvetica" font-size="12.00"  text-anchor="middle">
		<text><tspan font-family="Helvetica" > 1.08</tspan></text>
	</g>
</g>
<g fill="none" color="black" stroke="currentColor" stroke-width="1.00" stroke-linecap="butt" stroke-linejoin="miter">
	<path stroke='black'  d='M217.0,242.4 L217.0,233.4  '/>	<g transform="translate(217.0,264.3)" stroke="none" fill="black" font-family="Helvetica" font-size="12.00"  text-anchor="middle">
		<text><tspan font-family="Helvetica" > 1.1</tspan></text>
	</g>
</g>
<g fill="none" color="black" stroke="currentColor" stroke-width="1.00" stroke-linecap="butt" stroke-linejoin="miter">
	<path stroke='black'  d='M266.9,242.4 L266.9,233.4  '/>	<g transform="translate(266.9,264.3)" stroke="none" fill="black" font-family="Helvetica" font-size="12.00"  text-anchor="middle">
		<text><tspan font-family="Helvetica" > 1.12</tspan></text>
	</g>
</g>
<g fill="none" color="black" stroke="currentColor" stroke-width="1.00" stroke-linecap="butt" stroke-linejoin="miter">
	<path stroke='black'  d='M316.8,242.4 L316.8,233.4  '/>	<g transform="translate(316.8,264.3)" stroke="none" fill="black" font-family="Helvetica" font-size="12.00"  text-anchor="middle">
		<text><tspan font-family="Helvetica" > 1.14</tspan></text>
	</g>
</g>
<g fill="none" color="black" stroke="currentColor" stroke-width="1.00" stroke-linecap="butt" stroke-linejoin="miter">
	<path stroke='black'  d='M366.8,242.4 L366.8,233.4  '/>	<g transform="translate(366.8,264.3)" stroke="none" fill="black" font-family="Helvetica" font-size="12.00"  text-anchor="middle">
		<text><tspan font-family="Helvetica" > 1.16</tspan></text>
	</g>
</g>
<g fill="none" color="black" stroke="currentColor" stroke-width="1.00" stroke-linecap="butt" stroke-linejoin="miter">
	<path stroke='black'  d='M416.7,242.4 L416.7,233.4  '/>	<g transform="translate(416.7,264.3)" stroke="none" fill="black" font-family="Helvetica" font-size="12.00"  text-anchor="middle">
		<text><tspan font-family="Helvetica" > 1.18</tspan></text>
	</g>
</g>
<g fill="none" color="black" stroke="currentColor" stroke-width="1.00" stroke-linecap="butt" stroke-linejoin="miter">
</g>
<g fill="none" color="black" stroke="currentColor" stroke-width="1.00" stroke-linecap="butt" stroke-linejoin="miter">
	<path stroke='black'  d='M63.6,16.7 L63.6,242.4 L425.0,242.4 L425.0,16.7 L63.6,16.7 Z  '/></g>
<g fill="none" color="black" stroke="currentColor" stroke-width="1.00" stroke-linecap="butt" stroke-linejoin="miter">
	<g transform="translate(17.0,129.6) rotate(270)" stroke="none" fill="black" font-family="Helvetica" font-size="12.00"  text-anchor="middle">
		<text><tspan font-family="Helvetica" >Density (a.u.)</tspan></text>
	</g>
</g>
<g fill="none" color="black" stroke="currentColor" stroke-width="1.00" stroke-linecap="butt" stroke-linejoin="miter">
	<g transform="translate(244.3,291.3)" stroke="none" fill="black" font-family="Helvetica" font-size="12.00"  text-anchor="middle">
		<text><tspan font-family="Helvetica" >Average time (ms)</tspan></text>
	</g>
</g>
<g fill="none" color="black" stroke="currentColor" stroke-width="1.00" stroke-linecap="butt" stroke-linejoin="miter">
</g>
	<g id="gnuplot_plot_1" ><title>PDF</title>
<g fill="none" color="black" stroke="currentColor" stroke-width="1.00" stroke-linecap="butt" stroke-linejoin="miter">
	<g stroke='none' shape-rendering='crispEdges'>
		<polygon fill = 'rgb( 31, 120, 180)' fill-opacity = '0.250000' points = '63.6,240.5 63.6,242.4 64.3,242.4 64.3,240.2 '/>
		<polygon fill = 'rgb( 31, 120, 180)' fill-opacity = '0.250000' points = '64.3,240.2 64.3,242.4 65.0,242.4 65.0,239.9 '/>
		<polygon fill = 'rgb( 31, 120, 180)' fill-opacity = '0.250000' points = '65.0,239.9 65.0,242.4 65.8,242.4 65.8,239.5 '/>
		<polygon fill = 'rgb( 31, 120, 180)' fill-opacity = '0.250000' points = '65.8,239.5 65.8,242.4 66.5,242.4 66.5,239.0 '/>
		<polygon fill = 'rgb( 31, 120, 180)' fill-opacity = '0.250000' points = '66.5,239.0 66.5,242.4 67.2,242.4 67.2,238.4 '/>
		<polygon fill = 'rgb( 31, 120, 180)' fill-opacity = '0.250000' points = '67.2,238.4 67.2,242.4 67.9,242.4 67.9,237.8 '/>
		<polygon fill = 'rgb( 31, 120, 180)' fill-opacity = '0.250000' points = '67.9,237.8 67.9,242.4 68.7,242.4 68.7,237.1 '/>
		<polygon fill = 'rgb( 31, 120, 180)' fill-opacity = '0.250000' points = '68.7,237.1 68.7,242.4 69.4,242.4 69.4,236.4 '/>
		<polygon fill = 'rgb( 31, 120, 180)' fill-opacity = '0.250000' points = '69.4,236.4 69.4,242.4 70.1,242.4 70.1,235.5 '/>
		<polygon fill = 'rgb( 31, 120, 180)' fill-opacity = '0.250000' points = '70.1,235.5 70.1,242.4 70.8,242.4 70.8,234.5 '/>
		<polygon fill = 'rgb( 31, 120, 180)' fill-opacity = '0.250000' points = '70.8,234.5 70.8,242.4 71.6,242.4 71.6,233.4 '/>
		<polygon fill = 'rgb( 31, 120, 180)' fill-opacity = '0.250000' points = '71.6,233.4 71.6,242.4 72.3,242.4 72.3,232.2 '/>
		<polygon fill = 'rgb( 31, 120, 180)' fill-opacity = '0.250000' points = '72.3,232.2 72.3,242.4 73.0,242.4 73.0,230.8 '/>
		<polygon fill = 'rgb( 31, 120, 180)' fill-opacity = '0.250000' points = '73.0,230.8 73.0,242.4 73.7,242.4 73.7,229.3 '/>
		<polygon fill = 'rgb( 31, 120, 180)' fill-opacity = '0.250000' points = '73.7,229.3 73.7,242.4 74.5,242.4 74.5,227.6 '/>
		<polygon fill = 'rgb( 31, 120, 180)' fill-opacity = '0.250000' points = '74.5,227.6 74.5,242.4 75.2,242.4 75.2,225.8 '/>
		<polygon fill = 'rgb( 31, 120, 180)' fill-opacity = '0.250000' points = '75.2,225.8 75.2,242.4 75.9,242.4 75.9,223.7 '/>
		<polygon fill = 'rgb( 31, 120, 180)' fill-opacity = '0.250000' points = '75.9,223.7 75.9,242.4 76.6,242.4 76.6,221.5 '/>
		<polygon fill = 'rgb( 31, 120, 180)' fill-opacity = '0.250000' points = '76.6,221.5 76.6,242.4 77.4,242.4 77.4,219.1 '/>
		<polygon fill = 'rgb( 31, 120, 180)' fill-opacity = '0.250000' points = '77.4,219.1 77.4,242.4 78.1,242.4 78.1,216.5 '/>
		<polygon fill = 'rgb( 31, 120, 180)' fill-opacity = '0.250000' points = '78.1,216.5 78.1,242.4 78.8,242.4 78.8,213.6 '/>
		<polygon fill = 'rgb( 31, 120, 180)' fill-opacity = '0.250000' points = '78.8,213.6 78.8,242.4 79.5,242.4 79.5,210.6 '/>
		<polygon fill = 'rgb( 31, 120, 180)' fill-opacity = '0.250000' points = '79.5,210.6 79.5,242.4 80.3,242.4 80.3,207.2 '/>
		<polygon fill = 'rgb( 31, 120, 180)' fill-opacity = '0.250000' points = '80.3,207.2 80.3,242.4 81.0,242.4 81.0,203.7 '/>
		<polygon fill = 'rgb( 31, 120, 180)' fill-opacity = '0.250000' points = '81.0,203.7 81.0,242.4 81.7,242.4 81.7,199.9 '/>
		<polygon fill = 'rgb( 31, 120, 180)' fill-opacity = '0.250000' points = '81.7,199.9 81.7,242.4 82.4,242.4 82.4,195.8 '/>
		<polygon fill = 'rgb( 31, 120, 180)' fill-opacity = '0.250000' points = '82.4,195.8 82.4,242.4 83.2,242.4 83.2,191.5 '/>
		<polygon fill = 'rgb( 31, 120, 180)' fill-opacity = '0.250000' points = '83.2,191.5 83.2,242.4 83.9,242.4 83.9,186.9 '/>
		<polygon fill = 'rgb( 31, 120, 180)' fill-opacity = '0.250000' points = '83.9,186.9 83.9,242.4 84.6,242.4 84.6,182.1 '/>
		<polygon fill = 'rgb( 31, 120, 180)' fill-opacity = '0.250000' points = '84.6,182.1 84.6,242.4 85.3,242.4 85.3,177.0 '/>
		<polygon fill = 'rgb( 31, 120, 180)' fill-opacity = '0.250000' points = '85.3,177.0 85.3,242.4 86.1,242.4 86.1,171.7 '/>
		<polygon fill = 'rgb( 31, 120, 180)' fill-opacity = '0.250000' points = '86.1,171.7 86.1,242.4 86.8,242.4 86.8,166.1 '/>
		<polygon fill = 'rgb( 31, 120, 180)' fill-opacity = '0.250000' points = '86.8,166.1 86.8,242.4 87.5,242.4 87.5,160.3 '/>
		<polygon fill = 'rgb( 31, 120, 180)' fill-opacity = '0.250000' points = '87.5,160.3 87.5,242.4 88.2,242.4 88.2,154.3 '/>
		<polygon fill = 'rgb( 31, 120, 180)' fill-opacity = '0.250000' points = '88.2,154.3 88.2,242.4 88.9,242.4 88.9,148.1 '/>
		<polygon fill = 'rgb( 31, 120, 180)' fill-opacity = '0.250000' points = '88.9,148.1 88.9,242.4 89.7,242.4 89.7,141.7 '/>
		<polygon fill = 'rgb( 31, 120, 180)' fill-opacity = '0.250000' points = '89.7,141.7 89.7,242.4 90.4,242.4 90.4,135.2 '/>
		<polygon fill = 'rgb( 31, 120, 180)' fill-opacity = '0.250000' points = '90.4,135.2 90.4,242.4 91.1,242.4 91.1,128.6 '/>
		<polygon fill = 'rgb( 31, 120, 180)' fill-opacity = '0.250000' points = '91.1,128.6 91.1,242.4 91.8,242.4 91.8,121.8 '/>
		<polygon fill = 'rgb( 31, 120, 180)' fill-opacity = '0.250000' points = '91.8,121.8 91.8,242.4 92.6,242.4 92.6,115.0 '/>
		<polygon fill = 'rgb( 31, 120, 180)' fill-opacity = '0.250000' points = '92.6,115.0 92.6,242.4 93.3,242.4 93.3,108.1 '/>
		<polygon fill = 'rgb( 31, 120, 180)' fill-opacity = '0.250000' points = '93.3,108.1 93.3,242.4 94.0,242.4 94.0,101.3 '/>
		<polygon fill = 'rgb( 31, 120, 180)' fill-opacity = '0.250000' points = '94.0,101.3 94.0,242.4 94.7,242.4 94.7,94.4 '/>
		<polygon fill = 'rgb( 31, 120, 180)' fill-opacity = '0.250000' points = '94.7,94.4 94.7,242.4 95.5,242.4 95.5,87.6 '/>
		<polygon fill = 'rgb( 31, 120, 180)' fill-opacity = '0.250000' points = '95.5,87.6 95.5,242.4 96.2,242.4 96.2,81.0 '/>
		<polygon fill = 'rgb( 31, 120, 180)' fill-opacity = '0.250000' points = '96.2,81.0 96.2,242.4 96.9,242.4 96.9,74.4 '/>
		<polygon fill = 'rgb( 31, 120, 180)' fill-opacity = '0.250000' points = '96.9,74.4 96.9,242.4 97.6,242.4 97.6,68.1 '/>
		<polygon fill = 'rgb( 31, 120, 180)' fill-opacity = '0.250000' points = '97.6,68.1 97.6,242.4 98.4,242.4 98.4,61.9 '/>
		<polygon fill = 'rgb( 31, 120, 180)' fill-opacity = '0.250000' points = '98.4,61.9 98.4,242.4 99.1,242.4 99.1,56.0 '/>
		<polygon fill = 'rgb( 31, 120, 180)' fill-opacity = '0.250000' points = '99.1,56.0 99.1,242.4 99.8,242.4 99.8,50.4 '/>
		<polygon fill = 'rgb( 31, 120, 180)' fill-opacity = '0.250000' points = '99.8,50.4 99.8,242.4 100.5,242.4 100.5,45.1 '/>
		<polygon fill = 'rgb( 31, 120, 180)' fill-opacity = '0.250000' points = '100.5,45.1 100.5,242.4 101.3,242.4 101.3,40.2 '/>
		<polygon fill = 'rgb( 31, 120, 180)' fill-opacity = '0.250000' points = '101.3,40.2 101.3,242.4 102.0,242.4 102.0,35.7 '/>
		<polygon fill = 'rgb( 31, 120, 180)' fill-opacity = '0.250000' points = '102.0,35.7 102.0,242.4 102.7,242.4 102.7,31.6 '/>
		<polygon fill = 'rgb( 31, 120, 180)' fill-opacity = '0.250000' points = '102.7,31.6 102.7,242.4 103.4,242.4 103.4,28.0 '/>
		<polygon fill = 'rgb( 31, 120, 180)' fill-opacity = '0.250000' points = '103.4,28.0 103.4,242.4 104.2,242.4 104.2,24.8 '/>
		<polygon fill = 'rgb( 31, 120, 180)' fill-opacity = '0.250000' points = '104.2,24.8 104.2,242.4 104.9,242.4 104.9,22.2 '/>
		<polygon fill = 'rgb( 31, 120, 180)' fill-opacity = '0.250000' points = '104.9,22.2 104.9,242.4 105.6,242.4 105.6,20.0 '/>
		<polygon fill = 'rgb( 31, 120, 180)' fill-opacity = '0.250000' points = '105.6,20.0 105.6,242.4 106.3,242.4 106.3,18.4 '/>
		<polygon fill = 'rgb( 31, 120, 180)' fill-opacity = '0.250000' points = '106.3,18.4 106.3,242.4 107.1,242.4 107.1,17.3 '/>
		<polygon fill = 'rgb( 31, 120, 180)' fill-opacity = '0.250000' points = '107.1,17.3 107.1,242.4 107.8,242.4 107.8,16.7 '/>
		<polygon fill = 'rgb( 31, 120, 180)' fill-opacity = '0.250000' points = '107.8,16.7 107.8,242.4 108.5,242.4 108.5,16.7 '/>
		<polygon fill = 'rgb( 31, 120, 180)' fill-opacity = '0.250000' points = '108.5,16.7 108.5,242.4 109.2,242.4 109.2,17.2 '/>
		<polygon fill = 'rgb( 31, 120, 180)' fill-opacity = '0.250000' points = '109.2,17.2 109.2,242.4 110.0,242.4 110.0,18.3 '/>
		<polygon fill = 'rgb( 31, 120, 180)' fill-opacity = '0.250000' points = '110.0,18.3 110.0,242.4 110.7,242.4 110.7,19.8 '/>
		<polygon fill = 'rgb( 31, 120, 180)' fill-opacity = '0.250000' points = '110.7,19.8 110.7,242.4 111.4,242.4 111.4,21.9 '/>
		<polygon fill = 'rgb( 31, 120, 180)' fill-opacity = '0.250000' points = '111.4,21.9 111.4,242.4 112.1,242.4 112.1,24.5 '/>
		<polygon fill = 'rgb( 31, 120, 180)' fill-opacity = '0.250000' points = '112.1,24.5 112.1,242.4 112.8,242.4 112.8,27.5 '/>
		<polygon fill = 'rgb( 31, 120, 180)' fill-opacity = '0.250000' points = '112.8,27.5 112.8,242.4 113.6,242.4 113.6,31.0 '/>
		<polygon fill = 'rgb( 31, 120, 180)' fill-opacity = '0.250000' points = '113.6,31.0 113.6,242.4 114.3,242.4 114.3,34.8 '/>
		<polygon fill = 'rgb( 31, 120, 180)' fill-opacity = '0.250000' points = '114.3,34.8 114.3,242.4 115.0,242.4 115.0,39.1 '/>
		<polygon fill = 'rgb( 31, 120, 180)' fill-opacity = '0.250000' points = '115.0,39.1 115.0,242.4 115.7,242.4 115.7,43.7 '/>
		<polygon fill = 'rgb( 31, 120, 180)' fill-opacity = '0.250000' points = '115.7,43.7 115.7,242.4 116.5,242.4 116.5,48.6 '/>
		<polygon fill = 'rgb( 31, 120, 180)' fill-opacity = '0.250000' points = '116.5,48.6 116.5,242.4 117.2,242.4 117.2,53.8 '/>
		<polygon fill = 'rgb( 31, 120, 180)' fill-opacity = '0.250000' points = '117.2,53.8 117.2,242.4 117.9,242.4 117.9,59.3 '/>
		<polygon fill = 'rgb( 31, 120, 180)' fill-opacity = '0.250000' points = '117.9,59.3 117.9,242.4 118.6,242.4 118.6,64.9 '/>
		<polygon fill = 'rgb( 31, 120, 180)' fill-opacity = '0.250000' points = '118.6,64.9 118.6,242.4 119.4,242.4 119.4,70.7 '/>
		<polygon fill = 'rgb( 31, 120, 180)' fill-opacity = '0.250000' points = '119.4,70.7 119.4,242.4 120.1,242.4 120.1,76.7 '/>
		<polygon fill = 'rgb( 31, 120, 180)' fill-opacity = '0.250000' points = '120.1,76.7 120.1,242.4 120.8,242.4 120.8,82.8 '/>
		<polygon fill = 'rgb( 31, 120, 180)' fill-opacity = '0.250000' points = '120.8,82.8 120.8,242.4 121.5,242.4 121.5,88.9 '/>
		<polygon fill = 'rgb( 31, 120, 180)' fill-opacity = '0.250000' points = '121.5,88.9 121.5,242.4 122.3,242.4 122.3,95.1 '/>
		<polygon fill = 'rgb( 31, 120, 180)' fill-opacity = '0.250000' points = '122.3,95.1 122.3,242.4 123.0,242.4 123.0,101.3 '/>
		<polygon fill = 'rgb( 31, 120, 180)' fill-opacity = '0.250000' points = '123.0,101.3 123.0,242.4 123.7,242.4 123.7,107.5 '/>
		<polygon fill = 'rgb( 31, 120, 180)' fill-opacity = '0.250000' points = '123.7,107.5 123.7,242.4 124.4,242.4 124.4,113.6 '/>
		<polygon fill = 'rgb( 31, 120, 180)' fill-opacity = '0.250000' points = '124.4,113.6 124.4,242.4 125.2,242.4 125.2,119.6 '/>
		<polygon fill = 'rgb( 31, 120, 180)' fill-opacity = '0.250000' points = '125.2,119.6 125.2,242.4 125.9,242.4 125.9,125.5 '/>
		<polygon fill = 'rgb( 31, 120, 180)' fill-opacity = '0.250000' points = '125.9,125.5 125.9,242.4 126.6,242.4 126.6,131.4 '/>
		<polygon fill = 'rgb( 31, 120, 180)' fill-opacity = '0.250000' points = '126.6,131.4 126.6,242.4 127.3,242.4 127.3,137.0 '/>
		<polygon fill = 'rgb( 31, 120, 180)' fill-opacity = '0.250000' points = '127.3,137.0 127.3,242.4 128.1,242.4 128.1,142.6 '/>
		<polygon fill = 'rgb( 31, 120, 180)' fill-opacity = '0.250000' points = '128.1,142.6 128.1,242.4 128.8,242.4 128.8,147.9 '/>
		<polygon fill = 'rgb( 31, 120, 180)' fill-opacity = '0.250000' points = '128.8,147.9 128.8,242.4 129.5,242.4 129.5,153.1 '/>
		<polygon fill = 'rgb( 31, 120, 180)' fill-opacity = '0.250000' points = '129.5,153.1 129.5,242.4 130.2,242.4 130.2,158.1 '/>
		<polygon fill = 'rgb( 31, 120, 180)' fill-opacity = '0.250000' points = '130.2,158.1 130.2,242.4 131.0,242.4 131.0,162.9 '/>
		<polygon fill = 'rgb( 31, 120, 180)' fill-opacity = '0.250000' points = '131.0,162.9 131.0,242.4 131.7,242.4 131.7,167.5 '/>
		<polygon fill = 'rgb( 31, 120, 180)' fill-opacity = '0.250000' points = '131.7,167.5 131.7,242.4 132.4,242.4 132.4,171.9 '/>
		<polygon fill = 'rgb( 31, 120, 180)' fill-opacity = '0.250000' points = '132.4,171.9 132.4,242.4 133.1,242.4 133.1,176.1 '/>
		<polygon fill = 'rgb( 31, 120, 180)' fill-opacity = '0.250000' points = '133.1,176.1 133.1,242.4 133.9,242.4 133.9,180.1 '/>
		<polygon fill = 'rgb( 31, 120, 180)' fill-opacity = '0.250000' points = '133.9,180.1 133.9,242.4 134.6,242.4 134.6,183.8 '/>
		<polygon fill = 'rgb( 31, 120, 180)' fill-opacity = '0.250000' points = '134.6,183.8 134.6,242.4 135.3,242.4 135.3,187.4 '/>
		<polygon fill = 'rgb( 31, 120, 180)' fill-opacity = '0.250000' points = '135.3,187.4 135.3,242.4 136.0,242.4 136.0,190.8 '/>
		<polygon fill = 'rgb( 31, 120, 180)' fill-opacity = '0.250000' points = '136.0,190.8 136.0,242.4 136.7,242.4 136.7,194.0 '/>
		<polygon fill = 'rgb( 31, 120, 180)' fill-opacity = '0.250000' points = '136.7,194.0 136.7,242.4 137.5,242.4 137.5,197.0 '/>
		<polygon fill = 'rgb( 31, 120, 180)' fill-opacity = '0.250000' points = '137.5,197.0 137.5,242.4 138.2,242.4 138.2,199.8 '/>
		<polygon fill = 'rgb( 31, 120, 180)' fill-opacity = '0.250000' points = '138.2,199.8 138.2,242.4 138.9,242.4 138.9,202.5 '/>
		<polygon fill = 'rgb( 31, 120, 180)' fill-opacity = '0.250000' points = '138.9,202.5 138.9,242.4 139.6,242.4 139.6,205.0 '/>
		<polygon fill = 'rgb( 31, 120, 180)' fill-opacity = '0.250000' points = '139.6,205.0 139.6,242.4 140.4,242.4 140.4,207.3 '/>
		<polygon fill = 'rgb( 31, 120, 180)' fill-opacity = '0.250000' points = '140.4,207.3 140.4,242.4 141.1,242.4 141.1,209.5 '/>
		<polygon fill = 'rgb( 31, 120, 180)' fill-opacity = '0.250000' points = '141.1,209.5 141.1,242.4 141.8,242.4 141.8,211.6 '/>
		<polygon fill = 'rgb( 31, 120, 180)' fill-opacity = '0.250000' points = '141.8,211.6 141.8,242.4 142.5,242.4 142.5,213.5 '/>
		<polygon fill = 'rgb( 31, 120, 180)' fill-opacity = '0.250000' points = '142.5,213.5 142.5,242.4 143.3,242.4 143.3,215.3 '/>
		<polygon fill = 'rgb( 31, 120, 180)' fill-opacity = '0.250000' points = '143.3,215.3 143.3,242.4 144.0,242.4 144.0,216.9 '/>
		<polygon fill = 'rgb( 31, 120, 180)' fill-opacity = '0.250000' points = '144.0,216.9 144.0,242.4 144.7,242.4 144.7,218.5 '/>
		<polygon fill = 'rgb( 31, 120, 180)' fill-opacity = '0.250000' points = '144.7,218.5 144.7,242.4 145.4,242.4 145.4,220.0 '/>
		<polygon fill = 'rgb( 31, 120, 180)' fill-opacity = '0.250000' points = '145.4,220.0 145.4,242.4 146.2,242.4 146.2,221.3 '/>
		<polygon fill = 'rgb( 31, 120, 180)' fill-opacity = '0.250000' points = '146.2,221.3 146.2,242.4 146.9,242.4 146.9,222.6 '/>
		<polygon fill = 'rgb( 31, 120, 180)' fill-opacity = '0.250000' points = '146.9,222.6 146.9,242.4 147.6,242.4 147.6,223.8 '/>
		<polygon fill = 'rgb( 31, 120, 180)' fill-opacity = '0.250000' points = '147.6,223.8 147.6,242.4 148.3,242.4 148.3,224.9 '/>
		<polygon fill = 'rgb( 31, 120, 180)' fill-opacity = '0.250000' points = '148.3,224.9 148.3,242.4 149.1,242.4 149.1,226.0 '/>
		<polygon fill = 'rgb( 31, 120, 180)' fill-opacity = '0.250000' points = '149.1,226.0 149.1,242.4 149.8,242.4 149.8,226.9 '/>
		<polygon fill = 'rgb( 31, 120, 180)' fill-opacity = '0.250000' points = '149.8,226.9 149.8,242.4 150.5,242.4 150.5,227.9 '/>
		<polygon fill = 'rgb( 31, 120, 180)' fill-opacity = '0.250000' points = '150.5,227.9 150.5,242.4 151.2,242.4 151.2,228.7 '/>
		<polygon fill = 'rgb( 31, 120, 180)' fill-opacity = '0.250000' points = '151.2,228.7 151.2,242.4 152.0,242.4 152.0,229.5 '/>
		<polygon fill = 'rgb( 31, 120, 180)' fill-opacity = '0.250000' points = '152.0,229.5 152.0,242.4 152.7,242.4 152.7,230.3 '/>
		<polygon fill = 'rgb( 31, 120, 180)' fill-opacity = '0.250000' points = '152.7,230.3 152.7,242.4 153.4,242.4 153.4,231.0 '/>
		<polygon fill = 'rgb( 31, 120, 180)' fill-opacity = '0.250000' points = '153.4,231.0 153.4,242.4 154.1,242.4 154.1,231.7 '/>
		<polygon fill = 'rgb( 31, 120, 180)' fill-opacity = '0.250000' points = '154.1,231.7 154.1,242.4 154.9,242.4 154.9,232.3 '/>
		<polygon fill = 'rgb( 31, 120, 180)' fill-opacity = '0.250000' points = '154.9,232.3 154.9,242.4 155.6,242.4 155.6,232.9 '/>
		<polygon fill = 'rgb( 31, 120, 180)' fill-opacity = '0.250000' points = '155.6,232.9 155.6,242.4 156.3,242.4 156.3,233.4 '/>
		<polygon fill = 'rgb( 31, 120, 180)' fill-opacity = '0.250000' points = '156.3,233.4 156.3,242.4 157.0,242.4 157.0,233.9 '/>
		<polygon fill = 'rgb( 31, 120, 180)' fill-opacity = '0.250000' points = '157.0,233.9 157.0,242.4 157.8,242.4 157.8,234.4 '/>
		<polygon fill = 'rgb( 31, 120, 180)' fill-opacity = '0.250000' points = '157.8,234.4 157.8,242.4 158.5,242.4 158.5,234.9 '/>
		<polygon fill = 'rgb( 31, 120, 180)' fill-opacity = '0.250000' points = '158.5,234.9 158.5,242.4 159.2,242.4 159.2,235.3 '/>
		<polygon fill = 'rgb( 31, 120, 180)' fill-opacity = '0.250000' points = '159.2,235.3 159.2,242.4 159.9,242.4 159.9,235.7 '/>
		<polygon fill = 'rgb( 31, 120, 180)' fill-opacity = '0.250000' points = '159.9,235.7 159.9,242.4 160.6,242.4 160.6,236.1 '/>
		<polygon fill = 'rgb( 31, 120, 180)' fill-opacity = '0.250000' points = '160.6,236.1 160.6,242.4 161.4,242.4 161.4,236.5 '/>
		<polygon fill = 'rgb( 31, 120, 180)' fill-opacity = '0.250000' points = '161.4,236.5 161.4,242.4 162.1,242.4 162.1,236.8 '/>
		<polygon fill = 'rgb( 31, 120, 180)' fill-opacity = '0.250000' points = '162.1,236.8 162.1,242.4 162.8,242.4 162.8,237.1 '/>
		<polygon fill = 'rgb( 31, 120, 180)' fill-opacity = '0.250000' points = '162.8,237.1 162.8,242.4 163.5,242.4 163.5,237.4 '/>
		<polygon fill = 'rgb( 31, 120, 180)' fill-opacity = '0.250000' points = '163.5,237.4 163.5,242.4 164.3,242.4 164.3,237.6 '/>
		<polygon fill = 'rgb( 31, 120, 180)' fill-opacity = '0.250000' points = '164.3,237.6 164.3,242.4 165.0,242.4 165.0,237.9 '/>
		<polygon fill = 'rgb( 31, 120, 180)' fill-opacity = '0.250000' points = '165.0,237.9 165.0,242.4 165.7,242.4 165.7,238.1 '/>
		<polygon fill = 'rgb( 31, 120, 180)' fill-opacity = '0.250000' points = '165.7,238.1 165.7,242.4 166.4,242.4 166.4,238.3 '/>
		<polygon fill = 'rgb( 31, 120, 180)' fill-opacity = '0.250000' points = '166.4,238.3 166.4,242.4 167.2,242.4 167.2,238.5 '/>
		<polygon fill = 'rgb( 31, 120, 180)' fill-opacity = '0.250000' points = '167.2,238.5 167.2,242.4 167.9,242.4 167.9,238.7 '/>
		<polygon fill = 'rgb( 31, 120, 180)' fill-opacity = '0.250000' points = '167.9,238.7 167.9,242.4 168.6,242.4 168.6,238.8 '/>
		<polygon fill = 'rgb( 31, 120, 180)' fill-opacity = '0.250000' points = '168.6,238.8 168.6,242.4 169.3,242.4 169.3,239.0 '/>
		<polygon fill = 'rgb( 31, 120, 180)' fill-opacity = '0.250000' points = '169.3,239.0 169.3,242.4 170.1,242.4 170.1,239.1 '/>
		<polygon fill = 'rgb( 31, 120, 180)' fill-opacity = '0.250000' points = '170.1,239.1 170.1,242.4 170.8,242.4 170.8,239.2 '/>
		<polygon fill = 'rgb( 31, 120, 180)' fill-opacity = '0.250000' points = '170.8,239.2 170.8,242.4 171.5,242.4 171.5,239.3 '/>
		<polygon fill = 'rgb( 31, 120, 180)' fill-opacity = '0.250000' points = '171.5,239.3 171.5,242.4 172.2,242.4 172.2,239.4 '/>
		<polygon fill = 'rgb( 31, 120, 180)' fill-opacity = '0.250000' points = '172.2,239.4 172.2,242.4 173.0,242.4 173.0,239.4 '/>
		<polygon fill = 'rgb( 31, 120, 180)' fill-opacity = '0.250000' points = '173.0,239.4 173.0,242.4 173.7,242.4 173.7,239.5 '/>
		<polygon fill = 'rgb( 31, 120, 180)' fill-opacity = '0.250000' points = '173.7,239.5 173.7,242.4 174.4,242.4 174.4,239.5 '/>
		<polygon fill = 'rgb( 31, 120, 180)' fill-opacity = '0.250000' points = '174.4,239.5 174.4,242.4 175.1,242.4 175.1,239.6 '/>
		<polygon fill = 'rgb( 31, 120, 180)' fill-opacity = '0.250000' points = '175.1,239.6 175.1,242.4 175.9,242.4 175.9,239.6 '/>
		<polygon fill = 'rgb( 31, 120, 180)' fill-opacity = '0.250000' points = '175.9,239.6 175.9,242.4 176.6,242.4 176.6,239.6 '/>
		<polygon fill = 'rgb( 31, 120, 180)' fill-opacity = '0.250000' points = '176.6,239.6 176.6,242.4 177.3,242.4 177.3,239.6 '/>
		<polygon fill = 'rgb( 31, 120, 180)' fill-opacity = '0.250000' points = '177.3,239.6 177.3,242.4 178.0,242.4 178.0,239.6 '/>
		<polygon fill = 'rgb( 31, 120, 180)' fill-opacity = '0.250000' points = '178.0,239.6 178.0,242.4 178.8,242.4 178.8,239.6 '/>
		<polygon fill = 'rgb( 31, 120, 180)' fill-opacity = '0.250000' points = '178.8,239.6 178.8,242.4 179.5,242.4 179.5,239.5 '/>
		<polygon fill = 'rgb( 31, 120, 180)' fill-opacity = '0.250000' points = '179.5,239.5 179.5,242.4 180.2,242.4 180.2,239.5 '/>
		<polygon fill = 'rgb( 31, 120, 180)' fill-opacity = '0.250000' points = '180.2,239.5 180.2,242.4 180.9,242.4 180.9,239.5 '/>
		<polygon fill = 'rgb( 31, 120, 180)' fill-opacity = '0.250000' points = '180.9,239.5 180.9,242.4 181.7,242.4 181.7,239.5 '/>
		<polygon fill = 'rgb( 31, 120, 180)' fill-opacity = '0.250000' points = '181.7,239.5 181.7,242.4 182.4,242.4 182.4,239.4 '/>
		<polygon fill = 'rgb( 31, 120, 180)' fill-opacity = '0.250000' points = '182.4,239.4 182.4,242.4 183.1,242.4 183.1,239.4 '/>
		<polygon fill = 'rgb( 31, 120, 180)' fill-opacity = '0.250000' points = '183.1,239.4 183.1,242.4 183.8,242.4 183.8,239.3 '/>
		<polygon fill = 'rgb( 31, 120, 180)' fill-opacity = '0.250000' points = '183.8,239.3 183.8,242.4 184.5,242.4 184.5,239.3 '/>
		<polygon fill = 'rgb( 31, 120, 180)' fill-opacity = '0.250000' points = '184.5,239.3 184.5,242.4 185.3,242.4 185.3,239.2 '/>
		<polygon fill = 'rgb( 31, 120, 180)' fill-opacity = '0.250000' points = '185.3,239.2 185.3,242.4 186.0,242.4 186.0,239.2 '/>
		<polygon fill = 'rgb( 31, 120, 180)' fill-opacity = '0.250000' points = '186.0,239.2 186.0,242.4 186.7,242.4 186.7,239.1 '/>
		<polygon fill = 'rgb( 31, 120, 180)' fill-opacity = '0.250000' points = '186.7,239.1 186.7,242.4 187.4,242.4 187.4,239.1 '/>
		<polygon fill = 'rgb( 31, 120, 180)' fill-opacity = '0.250000' points = '187.4,239.1 187.4,242.4 188.2,242.4 188.2,239.1 '/>
		<polygon fill = 'rgb( 31, 120, 180)' fill-opacity = '0.250000' points = '188.2,239.1 188.2,242.4 188.9,242.4 188.9,239.0 '/>
		<polygon fill = 'rgb( 31, 120, 180)' fill-opacity = '0.250000' points = '188.9,239.0 188.9,242.4 189.6,242.4 189.6,239.0 '/>
		<polygon fill = 'rgb( 31, 120, 180)' fill-opacity = '0.250000' points = '189.6,239.0 189.6,242.4 190.3,242.4 190.3,238.9 '/>
		<polygon fill = 'rgb( 31, 120, 180)' fill-opacity = '0.250000' points = '190.3,238.9 190.3,242.4 191.1,242.4 191.1,238.9 '/>
		<polygon fill = 'rgb( 31, 120, 180)' fill-opacity = '0.250000' points = '191.1,238.9 191.1,242.4 191.8,242.4 191.8,238.8 '/>
		<polygon fill = 'rgb( 31, 120, 180)' fill-opacity = '0.250000' points = '191.8,238.8 191.8,242.4 192.5,242.4 192.5,238.8 '/>
		<polygon fill = 'rgb( 31, 120, 180)' fill-opacity = '0.250000' points = '192.5,238.8 192.5,242.4 193.2,242.4 193.2,238.7 '/>
		<polygon fill = 'rgb( 31, 120, 180)' fill-opacity = '0.250000' points = '193.2,238.7 193.2,242.4 194.0,242.4 194.0,238.7 '/>
		<polygon fill = 'rgb( 31, 120, 180)' fill-opacity = '0.250000' points = '194.0,238.7 194.0,242.4 194.7,242.4 194.7,238.7 '/>
		<polygon fill = 'rgb( 31, 120, 180)' fill-opacity = '0.250000' points = '194.7,238.7 194.7,242.4 195.4,242.4 195.4,238.6 '/>
		<polygon fill = 'rgb( 31, 120, 180)' fill-opacity = '0.250000' points = '195.4,238.6 195.4,242.4 196.1,242.4 196.1,238.6 '/>
		<polygon fill = 'rgb( 31, 120, 180)' fill-opacity = '0.250000' points = '196.1,238.6 196.1,242.4 196.9,242.4 196.9,238.5 '/>
		<polygon fill = 'rgb( 31, 120, 180)' fill-opacity = '0.250000' points = '196.9,238.5 196.9,242.4 197.6,242.4 197.6,238.5 '/>
		<polygon fill = 'rgb( 31, 120, 180)' fill-opacity = '0.250000' points = '197.6,238.5 197.6,242.4 198.3,242.4 198.3,238.5 '/>
		<polygon fill = 'rgb( 31, 120, 180)' fill-opacity = '0.250000' points = '198.3,238.5 198.3,242.4 199.0,242.4 199.0,238.4 '/>
		<polygon fill = 'rgb( 31, 120, 180)' fill-opacity = '0.250000' points = '199.0,238.4 199.0,242.4 199.8,242.4 199.8,238.4 '/>
		<polygon fill = 'rgb( 31, 120, 180)' fill-opacity = '0.250000' points = '199.8,238.4 199.8,242.4 200.5,242.4 200.5,238.4 '/>
		<polygon fill = 'rgb( 31, 120, 180)' fill-opacity = '0.250000' points = '200.5,238.4 200.5,242.4 201.2,242.4 201.2,238.3 '/>
		<polygon fill = 'rgb( 31, 120, 180)' fill-opacity = '0.250000' points = '201.2,238.3 201.2,242.4 201.9,242.4 201.9,238.3 '/>
		<polygon fill = 'rgb( 31, 120, 180)' fill-opacity = '0.250000' points = '201.9,238.3 201.9,242.4 202.7,242.4 202.7,238.3 '/>
		<polygon fill = 'rgb( 31, 120, 180)' fill-opacity = '0.250000' points = '202.7,238.3 202.7,242.4 203.4,242.4 203.4,238.2 '/>
		<polygon fill = 'rgb( 31, 120, 180)' fill-opacity = '0.250000' points = '203.4,238.2 203.4,242.4 204.1,242.4 204.1,238.2 '/>
		<polygon fill = 'rgb( 31, 120, 180)' fill-opacity = '0.250000' points = '204.1,238.2 204.1,242.4 204.8,242.4 204.8,238.2 '/>
		<polygon fill = 'rgb( 31, 120, 180)' fill-opacity = '0.250000' points = '204.8,238.2 204.8,242.4 205.6,242.4 205.6,238.1 '/>
		<polygon fill = 'rgb( 31, 120, 180)' fill-opacity = '0.250000' points = '205.6,238.1 205.6,242.4 206.3,242.4 206.3,238.1 '/>
		<polygon fill = 'rgb( 31, 120, 180)' fill-opacity = '0.250000' points = '206.3,238.1 206.3,242.4 207.0,242.4 207.0,238.1 '/>
		<polygon fill = 'rgb( 31, 120, 180)' fill-opacity = '0.250000' points = '207.0,238.1 207.0,242.4 207.7,242.4 207.7,238.0 '/>
		<polygon fill = 'rgb( 31, 120, 180)' fill-opacity = '0.250000' points = '207.7,238.0 207.7,242.4 208.4,242.4 208.4,238.0 '/>
		<polygon fill = 'rgb( 31, 120, 180)' fill-opacity = '0.250000' points = '208.4,238.0 208.4,242.4 209.2,242.4 209.2,238.0 '/>
		<polygon fill = 'rgb( 31, 120, 180)' fill-opacity = '0.250000' points = '209.2,238.0 209.2,242.4 209.9,242.4 209.9,237.9 '/>
		<polygon fill = 'rgb( 31, 120, 180)' fill-opacity = '0.250000' points = '209.9,237.9 209.9,242.4 210.6,242.4 210.6,237.9 '/>
		<polygon fill = 'rgb( 31, 120, 180)' fill-opacity = '0.250000' points = '210.6,237.9 210.6,242.4 211.3,242.4 211.3,237.9 '/>
		<polygon fill = 'rgb( 31, 120, 180)' fill-opacity = '0.250000' points = '211.3,237.9 211.3,242.4 212.1,242.4 212.1,237.9 '/>
		<polygon fill = 'rgb( 31, 120, 180)' fill-opacity = '0.250000' points = '212.1,237.9 212.1,242.4 212.8,242.4 212.8,237.8 '/>
		<polygon fill = 'rgb( 31, 120, 180)' fill-opacity = '0.250000' points = '212.8,237.8 212.8,242.4 213.5,242.4 213.5,237.8 '/>
		<polygon fill = 'rgb( 31, 120, 180)' fill-opacity = '0.250000' points = '213.5,237.8 213.5,242.4 214.2,242.4 214.2,237.8 '/>
		<polygon fill = 'rgb( 31, 120, 180)' fill-opacity = '0.250000' points = '214.2,237.8 214.2,242.4 215.0,242.4 215.0,237.8 '/>
		<polygon fill = 'rgb( 31, 120, 180)' fill-opacity = '0.250000' points = '215.0,237.8 215.0,242.4 215.7,242.4 215.7,237.8 '/>
		<polygon fill = 'rgb( 31, 120, 180)' fill-opacity = '0.250000' points = '215.7,237.8 215.7,242.4 216.4,242.4 216.4,237.8 '/>
		<polygon fill = 'rgb( 31, 120, 180)' fill-opacity = '0.250000' points = '216.4,237.8 216.4,242.4 217.1,242.4 217.1,237.8 '/>
		<polygon fill = 'rgb( 31, 120, 180)' fill-opacity = '0.250000' points = '217.1,237.8 217.1,242.4 217.9,242.4 217.9,237.8 '/>
		<polygon fill = 'rgb( 31, 120, 180)' fill-opacity = '0.250000' points = '217.9,237.8 217.9,242.4 218.6,242.4 218.6,237.8 '/>
		<polygon fill = 'rgb( 31, 120, 180)' fill-opacity = '0.250000' points = '218.6,237.8 218.6,242.4 219.3,242.4 219.3,237.8 '/>
		<polygon fill = 'rgb( 31, 120, 180)' fill-opacity = '0.250000' points = '219.3,237.8 219.3,242.4 220.0,242.4 220.0,237.8 '/>
		<polygon fill = 'rgb( 31, 120, 180)' fill-opacity = '0.250000' points = '220.0,237.8 220.0,242.4 220.8,242.4 220.8,237.8 '/>
		<polygon fill = 'rgb( 31, 120, 180)' fill-opacity = '0.250000' points = '220.8,237.8 220.8,242.4 221.5,242.4 221.5,237.8 '/>
		<polygon fill = 'rgb( 31, 120, 180)' fill-opacity = '0.250000' points = '221.5,237.8 221.5,242.4 222.2,242.4 222.2,237.9 '/>
		<polygon fill = 'rgb( 31, 120, 180)' fill-opacity = '0.250000' points = '222.2,237.9 222.2,242.4 222.9,242.4 222.9,237.9 '/>
		<polygon fill = 'rgb( 31, 120, 180)' fill-opacity = '0.250000' points = '222.9,237.9 222.9,242.4 223.7,242.4 223.7,238.0 '/>
		<polygon fill = 'rgb( 31, 120, 180)' fill-opacity = '0.250000' points = '223.7,238.0 223.7,242.4 224.4,242.4 224.4,238.0 '/>
		<polygon fill = 'rgb( 31, 120, 180)' fill-opacity = '0.250000' points = '224.4,238.0 224.4,242.4 225.1,242.4 225.1,238.1 '/>
		<polygon fill = 'rgb( 31, 120, 180)' fill-opacity = '0.250000' points = '225.1,238.1 225.1,242.4 225.8,242.4 225.8,238.1 '/>
		<polygon fill = 'rgb( 31, 120, 180)' fill-opacity = '0.250000' points = '225.8,238.1 225.8,242.4 226.6,242.4 226.6,238.2 '/>
		<polygon fill = 'rgb( 31, 120, 180)' fill-opacity = '0.250000' points = '226.6,238.2 226.6,242.4 227.3,242.4 227.3,238.3 '/>
		<polygon fill = 'rgb( 31, 120, 180)' fill-opacity = '0.250000' points = '227.3,238.3 227.3,242.4 228.0,242.4 228.0,238.3 '/>
		<polygon fill = 'rgb( 31, 120, 180)' fill-opacity = '0.250000' points = '228.0,238.3 228.0,242.4 228.7,242.4 228.7,238.4 '/>
		<polygon fill = 'rgb( 31, 120, 180)' fill-opacity = '0.250000' points = '228.7,238.4 228.7,242.4 229.5,242.4 229.5,238.5 '/>
		<polygon fill = 'rgb( 31, 120, 180)' fill-opacity = '0.250000' points = '229.5,238.5 229.5,242.4 230.2,242.4 230.2,238.6 '/>
		<polygon fill = 'rgb( 31, 120, 180)' fill-opacity = '0.250000' points = '230.2,238.6 230.2,242.4 230.9,242.4 230.9,238.7 '/>
		<polygon fill = 'rgb( 31, 120, 180)' fill-opacity = '0.250000' points = '230.9,238.7 230.9,242.4 231.6,242.4 231.6,238.8 '/>
		<polygon fill = 'rgb( 31, 120, 180)' fill-opacity = '0.250000' points = '231.6,238.8 231.6,242.4 232.3,242.4 232.3,238.9 '/>
		<polygon fill = 'rgb( 31, 120, 180)' fill-opacity = '0.250000' points = '232.3,238.9 232.3,242.4 233.1,242.4 233.1,239.0 '/>
		<polygon fill = 'rgb( 31, 120, 180)' fill-opacity = '0.250000' points = '233.1,239.0 233.1,242.4 233.8,242.4 233.8,239.1 '/>
		<polygon fill = 'rgb( 31, 120, 180)' fill-opacity = '0.250000' points = '233.8,239.1 233.8,242.4 234.5,242.4 234.5,239.2 '/>
		<polygon fill = 'rgb( 31, 120, 180)' fill-opacity = '0.250000' points = '234.5,239.2 234.5,242.4 235.2,242.4 235.2,239.3 '/>
		<polygon fill = 'rgb( 31, 120, 180)' fill-opacity = '0.250000' points = '235.2,239.3 235.2,242.4 236.0,242.4 236.0,239.4 '/>
		<polygon fill = 'rgb( 31, 120, 180)' fill-opacity = '0.250000' points = '236.0,239.4 236.0,242.4 236.7,242.4 236.7,239.5 '/>
		<polygon fill = 'rgb( 31, 120, 180)' fill-opacity = '0.250000' points = '236.7,239.5 236.7,242.4 237.4,242.4 237.4,239.7 '/>
		<polygon fill = 'rgb( 31, 120, 180)' fill-opacity = '0.250000' points = '237.4,239.7 237.4,242.4 238.1,242.4 238.1,239.8 '/>
		<polygon fill = 'rgb( 31, 120, 180)' fill-opacity = '0.250000' points = '238.1,239.8 238.1,242.4 238.9,242.4 238.9,239.9 '/>
		<polygon fill = 'rgb( 31, 120, 180)' fill-opacity = '0.250000' points = '238.9,239.9 238.9,242.4 239.6,242.4 239.6,240.0 '/>
		<polygon fill = 'rgb( 31, 120, 180)' fill-opacity = '0.250000' points = '239.6,240.0 239.6,242.4 240.3,242.4 240.3,240.1 '/>
		<polygon fill = 'rgb( 31, 120, 180)' fill-opacity = '0.250000' points = '240.3,240.1 240.3,242.4 241.0,242.4 241.0,240.2 '/>
		<polygon fill = 'rgb( 31, 120, 180)' fill-opacity = '0.250000' points = '241.0,240.2 241.0,242.4 241.8,242.4 241.8,240.4 '/>
		<polygon fill = 'rgb( 31, 120, 180)' fill-opacity = '0.250000' points = '241.8,240.4 241.8,242.4 242.5,242.4 242.5,240.5 '/>
		<polygon fill = 'rgb( 31, 120, 180)' fill-opacity = '0.250000' points = '242.5,240.5 242.5,242.4 243.2,242.4 243.2,240.6 '/>
		<polygon fill = 'rgb( 31, 120, 180)' fill-opacity = '0.250000' points = '243.2,240.6 243.2,242.4 243.9,242.4 243.9,240.7 '/>
		<polygon fill = 'rgb( 31, 120, 180)' fill-opacity = '0.250000' points = '243.9,240.7 243.9,242.4 244.7,242.4 244.7,240.8 '/>
		<polygon fill = 'rgb( 31, 120, 180)' fill-opacity = '0.250000' points = '244.7,240.8 244.7,242.4 245.4,242.4 245.4,240.9 '/>
		<polygon fill = 'rgb( 31, 120, 180)' fill-opacity = '0.250000' points = '245.4,240.9 245.4,242.4 246.1,242.4 246.1,241.0 '/>
		<polygon fill = 'rgb( 31, 120, 180)' fill-opacity = '0.250000' points = '246.1,241.0 246.1,242.4 246.8,242.4 246.8,241.1 '/>
		<polygon fill = 'rgb( 31, 120, 180)' fill-opacity = '0.250000' points = '246.8,241.1 246.8,242.4 247.6,242.4 247.6,241.2 '/>
		<polygon fill = 'rgb( 31, 120, 180)' fill-opacity = '0.250000' points = '247.6,241.2 247.6,242.4 248.3,242.4 248.3,241.3 '/>
		<polygon fill = 'rgb( 31, 120, 180)' fill-opacity = '0.250000' points = '248.3,241.3 248.3,242.4 249.0,242.4 249.0,241.3 '/>
		<polygon fill = 'rgb( 31, 120, 180)' fill-opacity = '0.250000' points = '249.0,241.3 249.0,242.4 249.7,242.4 249.7,241.4 '/>
		<polygon fill = 'rgb( 31, 120, 180)' fill-opacity = '0.250000' points = '249.7,241.4 249.7,242.4 250.5,242.4 250.5,241.5 '/>
		<polygon fill = 'rgb( 31, 120, 180)' fill-opacity = '0.250000' points = '250.5,241.5 250.5,242.4 251.2,242.4 251.2,241.6 '/>
		<polygon fill = 'rgb( 31, 120, 180)' fill-opacity = '0.250000' points = '251.2,241.6 251.2,242.4 251.9,242.4 251.9,241.6 '/>
		<polygon fill = 'rgb( 31, 120, 180)' fill-opacity = '0.250000' points = '251.9,241.6 251.9,242.4 252.6,242.4 252.6,241.7 '/>
		<polygon fill = 'rgb( 31, 120, 180)' fill-opacity = '0.250000' points = '252.6,241.7 252.6,242.4 253.4,242.4 253.4,241.8 '/>
		<polygon fill = 'rgb( 31, 120, 180)' fill-opacity = '0.250000' points = '253.4,241.8 253.4,242.4 254.1,242.4 254.1,241.8 '/>
		<polygon fill = 'rgb( 31, 120, 180)' fill-opacity = '0.250000' points = '254.1,241.8 254.1,242.4 254.8,242.4 254.8,241.9 '/>
		<polygon fill = 'rgb( 31, 120, 180)' fill-opacity = '0.250000' points = '254.8,241.9 254.8,242.4 255.5,242.4 255.5,241.9 '/>
		<polygon fill = 'rgb( 31, 120, 180)' fill-opacity = '0.250000' points = '255.5,241.9 255.5,242.4 256.3,242.4 256.3,242.0 '/>
		<polygon fill = 'rgb( 31, 120, 180)' fill-opacity = '0.250000' points = '256.3,242.0 256.3,242.4 257.0,242.4 257.0,242.0 '/>
		<polygon fill = 'rgb( 31, 120, 180)' fill-opacity = '0.250000' points = '257.0,242.0 257.0,242.4 257.7,242.4 257.7,242.1 '/>
		<polygon fill = 'rgb( 31, 120, 180)' fill-opacity = '0.250000' points = '257.7,242.1 257.7,242.4 258.4,242.4 258.4,242.1 '/>
		<polygon fill = 'rgb( 31, 120, 180)' fill-opacity = '0.250000' points = '258.4,242.1 258.4,242.4 259.1,242.4 259.1,242.1 '/>
		<polygon fill = 'rgb( 31, 120, 180)' fill-opacity = '0.250000' points = '259.1,242.1 259.1,242.4 259.9,242.4 259.9,242.2 '/>
		<polygon fill = 'rgb( 31, 120, 180)' fill-opacity = '0.250000' points = '259.9,242.2 259.9,242.4 260.6,242.4 260.6,242.2 '/>
		<polygon fill = 'rgb( 31, 120, 180)' fill-opacity = '0.250000' points = '260.6,242.2 260.6,242.4 261.3,242.4 261.3,242.2 '/>
		<polygon fill = 'rgb( 31, 120, 180)' fill-opacity = '0.250000' points = '261.3,242.2 261.3,242.4 262.0,242.4 262.0,242.2 '/>
		<polygon fill = 'rgb( 31, 120, 180)' fill-opacity = '0.250000' points = '262.0,242.2 262.0,242.4 262.8,242.4 262.8,242.2 '/>
		<polygon fill = 'rgb( 31, 120, 180)' fill-opacity = '0.250000' points = '262.8,242.2 262.8,242.4 263.5,242.4 263.5,242.3 '/>
		<polygon fill = 'rgb( 31, 120, 180)' fill-opacity = '0.250000' points = '263.5,242.3 263.5,242.4 264.2,242.4 264.2,242.3 '/>
		<polygon fill = 'rgb( 31, 120, 180)' fill-opacity = '0.250000' points = '264.2,242.3 264.2,242.4 264.9,242.4 264.9,242.3 '/>
		<polygon fill = 'rgb( 31, 120, 180)' fill-opacity = '0.250000' points = '264.9,242.3 264.9,242.4 265.7,242.4 265.7,242.3 '/>
		<polygon fill = 'rgb( 31, 120, 180)' fill-opacity = '0.250000' points = '265.7,242.3 265.7,242.4 266.4,242.4 266.4,242.3 '/>
		<polygon fill = 'rgb( 31, 120, 180)' fill-opacity = '0.250000' points = '266.4,242.3 266.4,242.4 267.1,242.4 267.1,242.3 '/>
		<polygon fill = 'rgb( 31, 120, 180)' fill-opacity = '0.250000' points = '267.1,242.3 267.1,242.4 267.8,242.4 267.8,242.3 '/>
		<polygon fill = 'rgb( 31, 120, 180)' fill-opacity = '0.250000' points = '267.8,242.3 267.8,242.4 268.6,242.4 268.6,242.3 '/>
		<polygon fill = 'rgb( 31, 120, 180)' fill-opacity = '0.250000' points = '268.6,242.3 268.6,242.4 269.3,242.4 269.3,242.4 '/>
		<polygon fill = 'rgb( 31, 120, 180)' fill-opacity = '0.250000' points = '269.3,242.4 269.3,242.4 270.0,242.4 270.0,242.4 '/>
		<polygon fill = 'rgb( 31, 120, 180)' fill-opacity = '0.250000' points = '270.0,242.4 270.0,242.4 270.7,242.4 270.7,242.4 '/>
		<polygon fill = 'rgb( 31, 120, 180)' fill-opacity = '0.250000' points = '270.7,242.4 270.7,242.4 271.5,242.4 271.5,242.4 '/>
		<polygon fill = 'rgb( 31, 120, 180)' fill-opacity = '0.250000' points = '271.5,242.4 271.5,242.4 272.2,242.4 272.2,242.4 '/>
		<polygon fill = 'rgb( 31, 120, 180)' fill-opacity = '0.250000' points = '272.2,242.4 272.2,242.4 272.9,242.4 272.9,242.4 '/>
		<polygon fill = 'rgb( 31, 120, 180)' fill-opacity = '0.250000' points = '272.9,242.4 272.9,242.4 273.6,242.4 273.6,242.4 '/>
		<polygon fill = 'rgb( 31, 120, 180)' fill-opacity = '0.250000' points = '273.6,242.4 273.6,242.4 274.4,242.4 274.4,242.4 '/>
		<polygon fill = 'rgb( 31, 120, 180)' fill-opacity = '0.250000' points = '274.4,242.4 274.4,242.4 275.1,242.4 275.1,242.4 '/>
		<polygon fill = 'rgb( 31, 120, 180)' fill-opacity = '0.250000' points = '275.1,242.4 275.1,242.4 275.8,242.4 275.8,242.4 '/>
		<polygon fill = 'rgb( 31, 120, 180)' fill-opacity = '0.250000' points = '275.8,242.4 275.8,242.4 276.5,242.4 276.5,242.4 '/>
		<polygon fill = 'rgb( 31, 120, 180)' fill-opacity = '0.250000' points = '276.5,242.4 276.5,242.4 277.3,242.4 277.3,242.4 '/>
		<polygon fill = 'rgb( 31, 120, 180)' fill-opacity = '0.250000' points = '277.3,242.4 277.3,242.4 278.0,242.4 278.0,242.4 '/>
		<polygon fill = 'rgb( 31, 120, 180)' fill-opacity = '0.250000' points = '278.0,242.4 278.0,242.4 278.7,242.4 278.7,242.4 '/>
		<polygon fill = 'rgb( 31, 120, 180)' fill-opacity = '0.250000' points = '278.7,242.4 278.7,242.4 279.4,242.4 279.4,242.4 '/>
		<polygon fill = 'rgb( 31, 120, 180)' fill-opacity = '0.250000' points = '279.4,242.4 279.4,242.4 280.2,242.4 280.2,242.4 '/>
		<polygon fill = 'rgb( 31, 120, 180)' fill-opacity = '0.250000' points = '280.2,242.4 280.2,242.4 280.9,242.4 280.9,242.4 '/>
		<polygon fill = 'rgb( 31, 120, 180)' fill-opacity = '0.250000' points = '280.9,242.4 280.9,242.4 281.6,242.4 281.6,242.4 '/>
		<polygon fill = 'rgb( 31, 120, 180)' fill-opacity = '0.250000' points = '281.6,242.4 281.6,242.4 282.3,242.4 282.3,242.4 '/>
		<polygon fill = 'rgb( 31, 120, 180)' fill-opacity = '0.250000' points = '282.3,242.4 282.3,242.4 283.0,242.4 283.0,242.4 '/>
		<polygon fill = 'rgb( 31, 120, 180)' fill-opacity = '0.250000' points = '283.0,242.4 283.0,242.4 283.8,242.4 283.8,242.4 '/>
		<polygon fill = 'rgb( 31, 120, 180)' fill-opacity = '0.250000' points = '283.8,242.4 283.8,242.4 284.5,242.4 284.5,242.4 '/>
		<polygon fill = 'rgb( 31, 120, 180)' fill-opacity = '0.250000' points = '284.5,242.4 284.5,242.4 285.2,242.4 285.2,242.4 '/>
		<polygon fill = 'rgb( 31, 120, 180)' fill-opacity = '0.250000' points = '285.2,242.4 285.2,242.4 285.9,242.4 285.9,242.4 '/>
		<polygon fill = 'rgb( 31, 120, 180)' fill-opacity = '0.250000' points = '285.9,242.4 285.9,242.4 286.7,242.4 286.7,242.4 '/>
		<polygon fill = 'rgb( 31, 120, 180)' fill-opacity = '0.250000' points = '286.7,242.4 286.7,242.4 287.4,242.4 287.4,242.4 '/>
		<polygon fill = 'rgb( 31, 120, 180)' fill-opacity = '0.250000' points = '287.4,242.4 287.4,242.4 288.1,242.4 288.1,242.4 '/>
		<polygon fill = 'rgb( 31, 120, 180)' fill-opacity = '0.250000' points = '288.1,242.4 288.1,242.4 288.8,242.4 288.8,242.4 '/>
		<polygon fill = 'rgb( 31, 120, 180)' fill-opacity = '0.250000' points = '288.8,242.4 288.8,242.4 289.6,242.4 289.6,242.4 '/>
		<polygon fill = 'rgb( 31, 120, 180)' fill-opacity = '0.250000' points = '289.6,242.4 289.6,242.4 290.3,242.4 290.3,242.4 '/>
		<polygon fill = 'rgb( 31, 120, 180)' fill-opacity = '0.250000' points = '290.3,242.4 290.3,242.4 291.0,242.4 291.0,242.4 '/>
		<polygon fill = 'rgb( 31, 120, 180)' fill-opacity = '0.250000' points = '291.0,242.4 291.0,242.4 291.7,242.4 291.7,242.4 '/>
		<polygon fill = 'rgb( 31, 120, 180)' fill-opacity = '0.250000' points = '291.7,242.4 291.7,242.4 292.5,242.4 292.5,242.4 '/>
		<polygon fill = 'rgb( 31, 120, 180)' fill-opacity = '0.250000' points = '292.5,242.4 292.5,242.4 293.2,242.4 293.2,242.4 '/>
		<polygon fill = 'rgb( 31, 120, 180)' fill-opacity = '0.250000' points = '293.2,242.4 293.2,242.4 293.9,242.4 293.9,242.4 '/>
		<polygon fill = 'rgb( 31, 120, 180)' fill-opacity = '0.250000' points = '293.9,242.4 293.9,242.4 294.6,242.4 294.6,242.4 '/>
		<polygon fill = 'rgb( 31, 120, 180)' fill-opacity = '0.250000' points = '294.6,242.4 294.6,242.4 295.4,242.4 295.4,242.4 '/>
		<polygon fill = 'rgb( 31, 120, 180)' fill-opacity = '0.250000' points = '295.4,242.4 295.4,242.4 296.1,242.4 296.1,242.4 '/>
		<polygon fill = 'rgb( 31, 120, 180)' fill-opacity = '0.250000' points = '296.1,242.4 296.1,242.4 296.8,242.4 296.8,242.4 '/>
		<polygon fill = 'rgb( 31, 120, 180)' fill-opacity = '0.250000' points = '296.8,242.4 296.8,242.4 297.5,242.4 297.5,242.4 '/>
		<polygon fill = 'rgb( 31, 120, 180)' fill-opacity = '0.250000' points = '297.5,242.4 297.5,242.4 298.3,242.4 298.3,242.4 '/>
		<polygon fill = 'rgb( 31, 120, 180)' fill-opacity = '0.250000' points = '298.3,242.4 298.3,242.4 299.0,242.4 299.0,242.4 '/>
		<polygon fill = 'rgb( 31, 120, 180)' fill-opacity = '0.250000' points = '299.0,242.4 299.0,242.4 299.7,242.4 299.7,242.4 '/>
		<polygon fill = 'rgb( 31, 120, 180)' fill-opacity = '0.250000' points = '299.7,242.4 299.7,242.4 300.4,242.4 300.4,242.4 '/>
		<polygon fill = 'rgb( 31, 120, 180)' fill-opacity = '0.250000' points = '300.4,242.4 300.4,242.4 301.2,242.4 301.2,242.4 '/>
		<polygon fill = 'rgb( 31, 120, 180)' fill-opacity = '0.250000' points = '301.2,242.4 301.2,242.4 301.9,242.4 301.9,242.4 '/>
		<polygon fill = 'rgb( 31, 120, 180)' fill-opacity = '0.250000' points = '301.9,242.4 301.9,242.4 302.6,242.4 302.6,242.4 '/>
		<polygon fill = 'rgb( 31, 120, 180)' fill-opacity = '0.250000' points = '302.6,242.4 302.6,242.4 303.3,242.4 303.3,242.4 '/>
		<polygon fill = 'rgb( 31, 120, 180)' fill-opacity = '0.250000' points = '303.3,242.4 303.3,242.4 304.1,242.4 304.1,242.4 '/>
		<polygon fill = 'rgb( 31, 120, 180)' fill-opacity = '0.250000' points = '304.1,242.4 304.1,242.4 304.8,242.4 304.8,242.4 '/>
		<polygon fill = 'rgb( 31, 120, 180)' fill-opacity = '0.250000' points = '304.8,242.4 304.8,242.4 305.5,242.4 305.5,242.4 '/>
		<polygon fill = 'rgb( 31, 120, 180)' fill-opacity = '0.250000' points = '305.5,242.4 305.5,242.4 306.2,242.4 306.2,242.4 '/>
		<polygon fill = 'rgb( 31, 120, 180)' fill-opacity = '0.250000' points = '306.2,242.4 306.2,242.4 306.9,242.4 306.9,242.4 '/>
		<polygon fill = 'rgb( 31, 120, 180)' fill-opacity = '0.250000' points = '306.9,242.4 306.9,242.4 307.7,242.4 307.7,242.4 '/>
		<polygon fill = 'rgb( 31, 120, 180)' fill-opacity = '0.250000' points = '307.7,242.4 307.7,242.4 308.4,242.4 308.4,242.4 '/>
		<polygon fill = 'rgb( 31, 120, 180)' fill-opacity = '0.250000' points = '308.4,242.4 308.4,242.4 309.1,242.4 309.1,242.4 '/>
		<polygon fill = 'rgb( 31, 120, 180)' fill-opacity = '0.250000' points = '309.1,242.4 309.1,242.4 309.8,242.4 309.8,242.4 '/>
		<polygon fill = 'rgb( 31, 120, 180)' fill-opacity = '0.250000' points = '309.8,242.4 309.8,242.4 310.6,242.4 310.6,242.4 '/>
		<polygon fill = 'rgb( 31, 120, 180)' fill-opacity = '0.250000' points = '310.6,242.4 310.6,242.4 311.3,242.4 311.3,242.4 '/>
		<polygon fill = 'rgb( 31, 120, 180)' fill-opacity = '0.250000' points = '311.3,242.4 311.3,242.4 312.0,242.4 312.0,242.4 '/>
		<polygon fill = 'rgb( 31, 120, 180)' fill-opacity = '0.250000' points = '312.0,242.4 312.0,242.4 312.7,242.4 312.7,242.4 '/>
		<polygon fill = 'rgb( 31, 120, 180)' fill-opacity = '0.250000' points = '312.7,242.4 312.7,242.4 313.5,242.4 313.5,242.4 '/>
		<polygon fill = 'rgb( 31, 120, 180)' fill-opacity = '0.250000' points = '313.5,242.4 313.5,242.4 314.2,242.4 314.2,242.4 '/>
		<polygon fill = 'rgb( 31, 120, 180)' fill-opacity = '0.250000' points = '314.2,242.4 314.2,242.4 314.9,242.4 314.9,242.4 '/>
		<polygon fill = 'rgb( 31, 120, 180)' fill-opacity = '0.250000' points = '314.9,242.4 314.9,242.4 315.6,242.4 315.6,242.4 '/>
		<polygon fill = 'rgb( 31, 120, 180)' fill-opacity = '0.250000' points = '315.6,242.4 315.6,242.4 316.4,242.4 316.4,242.4 '/>
		<polygon fill = 'rgb( 31, 120, 180)' fill-opacity = '0.250000' points = '316.4,242.4 316.4,242.4 317.1,242.4 317.1,242.4 '/>
		<polygon fill = 'rgb( 31, 120, 180)' fill-opacity = '0.250000' points = '317.1,242.4 317.1,242.4 317.8,242.4 317.8,242.4 '/>
		<polygon fill = 'rgb( 31, 120, 180)' fill-opacity = '0.250000' points = '317.8,242.4 317.8,242.4 318.5,242.4 318.5,242.4 '/>
		<polygon fill = 'rgb( 31, 120, 180)' fill-opacity = '0.250000' points = '318.5,242.4 318.5,242.4 319.3,242.4 319.3,242.4 '/>
		<polygon fill = 'rgb( 31, 120, 180)' fill-opacity = '0.250000' points = '319.3,242.4 319.3,242.4 320.0,242.4 320.0,242.4 '/>
		<polygon fill = 'rgb( 31, 120, 180)' fill-opacity = '0.250000' points = '320.0,242.4 320.0,242.4 320.7,242.4 320.7,242.4 '/>
		<polygon fill = 'rgb( 31, 120, 180)' fill-opacity = '0.250000' points = '320.7,242.4 320.7,242.4 321.4,242.4 321.4,242.4 '/>
		<polygon fill = 'rgb( 31, 120, 180)' fill-opacity = '0.250000' points = '321.4,242.4 321.4,242.4 322.2,242.4 322.2,242.4 '/>
		<polygon fill = 'rgb( 31, 120, 180)' fill-opacity = '0.250000' points = '322.2,242.4 322.2,242.4 322.9,242.4 322.9,242.4 '/>
		<polygon fill = 'rgb( 31, 120, 180)' fill-opacity = '0.250000' points = '322.9,242.4 322.9,242.4 323.6,242.4 323.6,242.4 '/>
		<polygon fill = 'rgb( 31, 120, 180)' fill-opacity = '0.250000' points = '323.6,242.4 323.6,242.4 324.3,242.4 324.3,242.4 '/>
		<polygon fill = 'rgb( 31, 120, 180)' fill-opacity = '0.250000' points = '324.3,242.4 324.3,242.4 325.1,242.4 325.1,242.4 '/>
		<polygon fill = 'rgb( 31, 120, 180)' fill-opacity = '0.250000' points = '325.1,242.4 325.1,242.4 325.8,242.4 325.8,242.4 '/>
		<polygon fill = 'rgb( 31, 120, 180)' fill-opacity = '0.250000' points = '325.8,242.4 325.8,242.4 326.5,242.4 326.5,242.4 '/>
		<polygon fill = 'rgb( 31, 120, 180)' fill-opacity = '0.250000' points = '326.5,242.4 326.5,242.4 327.2,242.4 327.2,242.4 '/>
		<polygon fill = 'rgb( 31, 120, 180)' fill-opacity = '0.250000' points = '327.2,242.4 327.2,242.4 328.0,242.4 328.0,242.4 '/>
		<polygon fill = 'rgb( 31, 120, 180)' fill-opacity = '0.250000' points = '328.0,242.4 328.0,242.4 328.7,242.4 328.7,242.4 '/>
		<polygon fill = 'rgb( 31, 120, 180)' fill-opacity = '0.250000' points = '328.7,242.4 328.7,242.4 329.4,242.4 329.4,242.4 '/>
		<polygon fill = 'rgb( 31, 120, 180)' fill-opacity = '0.250000' points = '329.4,242.4 329.4,242.4 330.1,242.4 330.1,242.4 '/>
		<polygon fill = 'rgb( 31, 120, 180)' fill-opacity = '0.250000' points = '330.1,242.4 330.1,242.4 330.8,242.4 330.8,242.4 '/>
		<polygon fill = 'rgb( 31, 120, 180)' fill-opacity = '0.250000' points = '330.8,242.4 330.8,242.4 331.6,242.4 331.6,242.4 '/>
		<polygon fill = 'rgb( 31, 120, 180)' fill-opacity = '0.250000' points = '331.6,242.4 331.6,242.4 332.3,242.4 332.3,242.4 '/>
		<polygon fill = 'rgb( 31, 120, 180)' fill-opacity = '0.250000' points = '332.3,242.4 332.3,242.4 333.0,242.4 333.0,242.4 '/>
		<polygon fill = 'rgb( 31, 120, 180)' fill-opacity = '0.250000' points = '333.0,242.4 333.0,242.4 333.7,242.4 333.7,242.4 '/>
		<polygon fill = 'rgb( 31, 120, 180)' fill-opacity = '0.250000' points = '333.7,242.4 333.7,242.4 334.5,242.4 334.5,242.4 '/>
		<polygon fill = 'rgb( 31, 120, 180)' fill-opacity = '0.250000' points = '334.5,242.4 334.5,242.4 335.2,242.4 335.2,242.4 '/>
		<polygon fill = 'rgb( 31, 120, 180)' fill-opacity = '0.250000' points = '335.2,242.4 335.2,242.4 335.9,242.4 335.9,242.4 '/>
		<polygon fill = 'rgb( 31, 120, 180)' fill-opacity = '0.250000' points = '335.9,242.4 335.9,242.4 336.6,242.4 336.6,242.4 '/>
		<polygon fill = 'rgb( 31, 120, 180)' fill-opacity = '0.250000' points = '336.6,242.4 336.6,242.4 337.4,242.4 337.4,242.4 '/>
		<polygon fill = 'rgb( 31, 120, 180)' fill-opacity = '0.250000' points = '337.4,242.4 337.4,242.4 338.1,242.4 338.1,242.4 '/>
		<polygon fill = 'rgb( 31, 120, 180)' fill-opacity = '0.250000' points = '338.1,242.4 338.1,242.4 338.8,242.4 338.8,242.4 '/>
		<polygon fill = 'rgb( 31, 120, 180)' fill-opacity = '0.250000' points = '338.8,242.4 338.8,242.4 339.5,242.4 339.5,242.4 '/>
		<polygon fill = 'rgb( 31, 120, 180)' fill-opacity = '0.250000' points = '339.5,242.4 339.5,242.4 340.3,242.4 340.3,242.4 '/>
		<polygon fill = 'rgb( 31, 120, 180)' fill-opacity = '0.250000' points = '340.3,242.4 340.3,242.4 341.0,242.4 341.0,242.4 '/>
		<polygon fill = 'rgb( 31, 120, 180)' fill-opacity = '0.250000' points = '341.0,242.4 341.0,242.4 341.7,242.4 341.7,242.4 '/>
		<polygon fill = 'rgb( 31, 120, 180)' fill-opacity = '0.250000' points = '341.7,242.4 341.7,242.4 342.4,242.4 342.4,242.4 '/>
		<polygon fill = 'rgb( 31, 120, 180)' fill-opacity = '0.250000' points = '342.4,242.4 342.4,242.4 343.2,242.4 343.2,242.4 '/>
		<polygon fill = 'rgb( 31, 120, 180)' fill-opacity = '0.250000' points = '343.2,242.4 343.2,242.4 343.9,242.4 343.9,242.3 '/>
		<polygon fill = 'rgb( 31, 120, 180)' fill-opacity = '0.250000' points = '343.9,242.3 343.9,242.4 344.6,242.4 344.6,242.3 '/>
		<polygon fill = 'rgb( 31, 120, 180)' fill-opacity = '0.250000' points = '344.6,242.3 344.6,242.4 345.3,242.4 345.3,242.3 '/>
		<polygon fill = 'rgb( 31, 120, 180)' fill-opacity = '0.250000' points = '345.3,242.3 345.3,242.4 346.1,242.4 346.1,242.3 '/>
		<polygon fill = 'rgb( 31, 120, 180)' fill-opacity = '0.250000' points = '346.1,242.3 346.1,242.4 346.8,242.4 346.8,242.3 '/>
		<polygon fill = 'rgb( 31, 120, 180)' fill-opacity = '0.250000' points = '346.8,242.3 346.8,242.4 347.5,242.4 347.5,242.3 '/>
		<polygon fill = 'rgb( 31, 120, 180)' fill-opacity = '0.250000' points = '347.5,242.3 347.5,242.4 348.2,242.4 348.2,242.3 '/>
		<polygon fill = 'rgb( 31, 120, 180)' fill-opacity = '0.250000' points = '348.2,242.3 348.2,242.4 349.0,242.4 349.0,242.3 '/>
		<polygon fill = 'rgb( 31, 120, 180)' fill-opacity = '0.250000' points = '349.0,242.3 349.0,242.4 349.7,242.4 349.7,242.2 '/>
		<polygon fill = 'rgb( 31, 120, 180)' fill-opacity = '0.250000' points = '349.7,242.2 349.7,242.4 350.4,242.4 350.4,242.2 '/>
		<polygon fill = 'rgb( 31, 120, 180)' fill-opacity = '0.250000' points = '350.4,242.2 350.4,242.4 351.1,242.4 351.1,242.2 '/>
		<polygon fill = 'rgb( 31, 120, 180)' fill-opacity = '0.250000' points = '351.1,242.2 351.1,242.4 351.9,242.4 351.9,242.2 '/>
		<polygon fill = 'rgb( 31, 120, 180)' fill-opacity = '0.250000' points = '351.9,242.2 351.9,242.4 352.6,242.4 352.6,242.2 '/>
		<polygon fill = 'rgb( 31, 120, 180)' fill-opacity = '0.250000' points = '352.6,242.2 352.6,242.4 353.3,242.4 353.3,242.1 '/>
		<polygon fill = 'rgb( 31, 120, 180)' fill-opacity = '0.250000' points = '353.3,242.1 353.3,242.4 354.0,242.4 354.0,242.1 '/>
		<polygon fill = 'rgb( 31, 120, 180)' fill-opacity = '0.250000' points = '354.0,242.1 354.0,242.4 354.7,242.4 354.7,242.1 '/>
		<polygon fill = 'rgb( 31, 120, 180)' fill-opacity = '0.250000' points = '354.7,242.1 354.7,242.4 355.5,242.4 355.5,242.0 '/>
		<polygon fill = 'rgb( 31, 120, 180)' fill-opacity = '0.250000' points = '355.5,242.0 355.5,242.4 356.2,242.4 356.2,242.0 '/>
		<polygon fill = 'rgb( 31, 120, 180)' fill-opacity = '0.250000' points = '356.2,242.0 356.2,242.4 356.9,242.4 356.9,241.9 '/>
		<polygon fill = 'rgb( 31, 120, 180)' fill-opacity = '0.250000' points = '356.9,241.9 356.9,242.4 357.6,242.4 357.6,241.9 '/>
		<polygon fill = 'rgb( 31, 120, 180)' fill-opacity = '0.250000' points = '357.6,241.9 357.6,242.4 358.4,242.4 358.4,241.8 '/>
		<polygon fill = 'rgb( 31, 120, 180)' fill-opacity = '0.250000' points = '358.4,241.8 358.4,242.4 359.1,242.4 359.1,241.8 '/>
		<polygon fill = 'rgb( 31, 120, 180)' fill-opacity = '0.250000' points = '359.1,241.8 359.1,242.4 359.8,242.4 359.8,241.7 '/>
		<polygon fill = 'rgb( 31, 120, 180)' fill-opacity = '0.250000' points = '359.8,241.7 359.8,242.4 360.5,242.4 360.5,241.7 '/>
		<polygon fill = 'rgb( 31, 120, 180)' fill-opacity = '0.250000' points = '360.5,241.7 360.5,242.4 361.3,242.4 361.3,241.6 '/>
		<polygon fill = 'rgb( 31, 120, 180)' fill-opacity = '0.250000' points = '361.3,241.6 361.3,242.4 362.0,242.4 362.0,241.5 '/>
		<polygon fill = 'rgb( 31, 120, 180)' fill-opacity = '0.250000' points = '362.0,241.5 362.0,242.4 362.7,242.4 362.7,241.5 '/>
		<polygon fill = 'rgb( 31, 120, 180)' fill-opacity = '0.250000' points = '362.7,241.5 362.7,242.4 363.4,242.4 363.4,241.4 '/>
		<polygon fill = 'rgb( 31, 120, 180)' fill-opacity = '0.250000' points = '363.4,241.4 363.4,242.4 364.2,242.4 364.2,241.3 '/>
		<polygon fill = 'rgb( 31, 120, 180)' fill-opacity = '0.250000' points = '364.2,241.3 364.2,242.4 364.9,242.4 364.9,241.3 '/>
		<polygon fill = 'rgb( 31, 120, 180)' fill-opacity = '0.250000' points = '364.9,241.3 364.9,242.4 365.6,242.4 365.6,241.2 '/>
		<polygon fill = 'rgb( 31, 120, 180)' fill-opacity = '0.250000' points = '365.6,241.2 365.6,242.4 366.3,242.4 366.3,241.1 '/>
		<polygon fill = 'rgb( 31, 120, 180)' fill-opacity = '0.250000' points = '366.3,241.1 366.3,242.4 367.1,242.4 367.1,241.0 '/>
		<polygon fill = 'rgb( 31, 120, 180)' fill-opacity = '0.250000' points = '367.1,241.0 367.1,242.4 367.8,242.4 367.8,241.0 '/>
		<polygon fill = 'rgb( 31, 120, 180)' fill-opacity = '0.250000' points = '367.8,241.0 367.8,242.4 368.5,242.4 368.5,240.9 '/>
		<polygon fill = 'rgb( 31, 120, 180)' fill-opacity = '0.250000' points = '368.5,240.9 368.5,242.4 369.2,242.4 369.2,240.8 '/>
		<polygon fill = 'rgb( 31, 120, 180)' fill-opacity = '0.250000' points = '369.2,240.8 369.2,242.4 370.0,242.4 370.0,240.7 '/>
		<polygon fill = 'rgb( 31, 120, 180)' fill-opacity = '0.250000' points = '370.0,240.7 370.0,242.4 370.7,242.4 370.7,240.6 '/>
		<polygon fill = 'rgb( 31, 120, 180)' fill-opacity = '0.250000' points = '370.7,240.6 370.7,242.4 371.4,242.4 371.4,240.5 '/>
		<polygon fill = 'rgb( 31, 120, 180)' fill-opacity = '0.250000' points = '371.4,240.5 371.4,242.4 372.1,242.4 372.1,240.5 '/>
		<polygon fill = 'rgb( 31, 120, 180)' fill-opacity = '0.250000' points = '372.1,240.5 372.1,242.4 372.9,242.4 372.9,240.4 '/>
		<polygon fill = 'rgb( 31, 120, 180)' fill-opacity = '0.250000' points = '372.9,240.4 372.9,242.4 373.6,242.4 373.6,240.3 '/>
		<polygon fill = 'rgb( 31, 120, 180)' fill-opacity = '0.250000' points = '373.6,240.3 373.6,242.4 374.3,242.4 374.3,240.3 '/>
		<polygon fill = 'rgb( 31, 120, 180)' fill-opacity = '0.250000' points = '374.3,240.3 374.3,242.4 375.0,242.4 375.0,240.2 '/>
		<polygon fill = 'rgb( 31, 120, 180)' fill-opacity = '0.250000' points = '375.0,240.2 375.0,242.4 375.8,242.4 375.8,240.1 '/>
		<polygon fill = 'rgb( 31, 120, 180)' fill-opacity = '0.250000' points = '375.8,240.1 375.8,242.4 376.5,242.4 376.5,240.1 '/>
		<polygon fill = 'rgb( 31, 120, 180)' fill-opacity = '0.250000' points = '376.5,240.1 376.5,242.4 377.2,242.4 377.2,240.0 '/>
		<polygon fill = 'rgb( 31, 120, 180)' fill-opacity = '0.250000' points = '377.2,240.0 377.2,242.4 377.9,242.4 377.9,240.0 '/>
		<polygon fill = 'rgb( 31, 120, 180)' fill-opacity = '0.250000' points = '377.9,240.0 377.9,242.4 378.6,242.4 378.6,239.9 '/>
		<polygon fill = 'rgb( 31, 120, 180)' fill-opacity = '0.250000' points = '378.6,239.9 378.6,242.4 379.4,242.4 379.4,239.9 '/>
		<polygon fill = 'rgb( 31, 120, 180)' fill-opacity = '0.250000' points = '379.4,239.9 379.4,242.4 380.1,242.4 380.1,239.9 '/>
		<polygon fill = 'rgb( 31, 120, 180)' fill-opacity = '0.250000' points = '380.1,239.9 380.1,242.4 380.8,242.4 380.8,239.8 '/>
		<polygon fill = 'rgb( 31, 120, 180)' fill-opacity = '0.250000' points = '380.8,239.8 380.8,242.4 381.5,242.4 381.5,239.8 '/>
		<polygon fill = 'rgb( 31, 120, 180)' fill-opacity = '0.250000' points = '381.5,239.8 381.5,242.4 382.3,242.4 382.3,239.8 '/>
		<polygon fill = 'rgb( 31, 120, 180)' fill-opacity = '0.250000' points = '382.3,239.8 382.3,242.4 383.0,242.4 383.0,239.8 '/>
		<polygon fill = 'rgb( 31, 120, 180)' fill-opacity = '0.250000' points = '383.0,239.8 383.0,242.4 383.7,242.4 383.7,239.8 '/>
		<polygon fill = 'rgb( 31, 120, 180)' fill-opacity = '0.250000' points = '383.7,239.8 383.7,242.4 384.4,242.4 384.4,239.8 '/>
		<polygon fill = 'rgb( 31, 120, 180)' fill-opacity = '0.250000' points = '384.4,239.8 384.4,242.4 385.2,242.4 385.2,239.8 '/>
		<polygon fill = 'rgb( 31, 120, 180)' fill-opacity = '0.250000' points = '385.2,239.8 385.2,242.4 385.9,242.4 385.9,239.9 '/>
		<polygon fill = 'rgb( 31, 120, 180)' fill-opacity = '0.250000' points = '385.9,239.9 385.9,242.4 386.6,242.4 386.6,239.9 '/>
		<polygon fill = 'rgb( 31, 120, 180)' fill-opacity = '0.250000' points = '386.6,239.9 386.6,242.4 387.3,242.4 387.3,239.9 '/>
		<polygon fill = 'rgb( 31, 120, 180)' fill-opacity = '0.250000' points = '387.3,239.9 387.3,242.4 388.1,242.4 388.1,240.0 '/>
		<polygon fill = 'rgb( 31, 120, 180)' fill-opacity = '0.250000' points = '388.1,240.0 388.1,242.4 388.8,242.4 388.8,240.0 '/>
		<polygon fill = 'rgb( 31, 120, 180)' fill-opacity = '0.250000' points = '388.8,240.0 388.8,242.4 389.5,242.4 389.5,240.1 '/>
		<polygon fill = 'rgb( 31, 120, 180)' fill-opacity = '0.250000' points = '389.5,240.1 389.5,242.4 390.2,242.4 390.2,240.1 '/>
		<polygon fill = 'rgb( 31, 120, 180)' fill-opacity = '0.250000' points = '390.2,240.1 390.2,242.4 391.0,242.4 391.0,240.2 '/>
		<polygon fill = 'rgb( 31, 120, 180)' fill-opacity = '0.250000' points = '391.0,240.2 391.0,242.4 391.7,242.4 391.7,240.3 '/>
		<polygon fill = 'rgb( 31, 120, 180)' fill-opacity = '0.250000' points = '391.7,240.3 391.7,242.4 392.4,242.4 392.4,240.3 '/>
		<polygon fill = 'rgb( 31, 120, 180)' fill-opacity = '0.250000' points = '392.4,240.3 392.4,242.4 393.1,242.4 393.1,240.4 '/>
		<polygon fill = 'rgb( 31, 120, 180)' fill-opacity = '0.250000' points = '393.1,240.4 393.1,242.4 393.9,242.4 393.9,240.5 '/>
		<polygon fill = 'rgb( 31, 120, 180)' fill-opacity = '0.250000' points = '393.9,240.5 393.9,242.4 394.6,242.4 394.6,240.6 '/>
		<polygon fill = 'rgb( 31, 120, 180)' fill-opacity = '0.250000' points = '394.6,240.6 394.6,242.4 395.3,242.4 395.3,240.6 '/>
		<polygon fill = 'rgb( 31, 120, 180)' fill-opacity = '0.250000' points = '395.3,240.6 395.3,242.4 396.0,242.4 396.0,240.7 '/>
		<polygon fill = 'rgb( 31, 120, 180)' fill-opacity = '0.250000' points = '396.0,240.7 396.0,242.4 396.8,242.4 396.8,240.8 '/>
		<polygon fill = 'rgb( 31, 120, 180)' fill-opacity = '0.250000' points = '396.8,240.8 396.8,242.4 397.5,242.4 397.5,240.9 '/>
		<polygon fill = 'rgb( 31, 120, 180)' fill-opacity = '0.250000' points = '397.5,240.9 397.5,242.4 398.2,242.4 398.2,241.0 '/>
		<polygon fill = 'rgb( 31, 120, 180)' fill-opacity = '0.250000' points = '398.2,241.0 398.2,242.4 398.9,242.4 398.9,241.0 '/>
		<polygon fill = 'rgb( 31, 120, 180)' fill-opacity = '0.250000' points = '398.9,241.0 398.9,242.4 399.7,242.4 399.7,241.1 '/>
		<polygon fill = 'rgb( 31, 120, 180)' fill-opacity = '0.250000' points = '399.7,241.1 399.7,242.4 400.4,242.4 400.4,241.2 '/>
		<polygon fill = 'rgb( 31, 120, 180)' fill-opacity = '0.250000' points = '400.4,241.2 400.4,242.4 401.1,242.4 401.1,241.3 '/>
		<polygon fill = 'rgb( 31, 120, 180)' fill-opacity = '0.250000' points = '401.1,241.3 401.1,242.4 401.8,242.4 401.8,241.4 '/>
		<polygon fill = 'rgb( 31, 120, 180)' fill-opacity = '0.250000' points = '401.8,241.4 401.8,242.4 402.5,242.4 402.5,241.4 '/>
		<polygon fill = 'rgb( 31, 120, 180)' fill-opacity = '0.250000' points = '402.5,241.4 402.5,242.4 403.3,242.4 403.3,241.5 '/>
		<polygon fill = 'rgb( 31, 120, 180)' fill-opacity = '0.250000' points = '403.3,241.5 403.3,242.4 404.0,242.4 404.0,241.6 '/>
		<polygon fill = 'rgb( 31, 120, 180)' fill-opacity = '0.250000' points = '404.0,241.6 404.0,242.4 404.7,242.4 404.7,241.6 '/>
		<polygon fill = 'rgb( 31, 120, 180)' fill-opacity = '0.250000' points = '404.7,241.6 404.7,242.4 405.4,242.4 405.4,241.7 '/>
		<polygon fill = 'rgb( 31, 120, 180)' fill-opacity = '0.250000' points = '405.4,241.7 405.4,242.4 406.2,242.4 406.2,241.7 '/>
		<polygon fill = 'rgb( 31, 120, 180)' fill-opacity = '0.250000' points = '406.2,241.7 406.2,242.4 406.9,242.4 406.9,241.8 '/>
		<polygon fill = 'rgb( 31, 120, 180)' fill-opacity = '0.250000' points = '406.9,241.8 406.9,242.4 407.6,242.4 407.6,241.8 '/>
		<polygon fill = 'rgb( 31, 120, 180)' fill-opacity = '0.250000' points = '407.6,241.8 407.6,242.4 408.3,242.4 408.3,241.9 '/>
		<polygon fill = 'rgb( 31, 120, 180)' fill-opacity = '0.250000' points = '408.3,241.9 408.3,242.4 409.1,242.4 409.1,241.9 '/>
		<polygon fill = 'rgb( 31, 120, 180)' fill-opacity = '0.250000' points = '409.1,241.9 409.1,242.4 409.8,242.4 409.8,242.0 '/>
		<polygon fill = 'rgb( 31, 120, 180)' fill-opacity = '0.250000' points = '409.8,242.0 409.8,242.4 410.5,242.4 410.5,242.0 '/>
		<polygon fill = 'rgb( 31, 120, 180)' fill-opacity = '0.250000' points = '410.5,242.0 410.5,242.4 411.2,242.4 411.2,242.1 '/>
		<polygon fill = 'rgb( 31, 120, 180)' fill-opacity = '0.250000' points = '411.2,242.1 411.2,242.4 412.0,242.4 412.0,242.1 '/>
		<polygon fill = 'rgb( 31, 120, 180)' fill-opacity = '0.250000' points = '412.0,242.1 412.0,242.4 412.7,242.4 412.7,242.1 '/>
		<polygon fill = 'rgb( 31, 120, 180)' fill-opacity = '0.250000' points = '412.7,242.1 412.7,242.4 413.4,242.4 413.4,242.2 '/>
		<polygon fill = 'rgb( 31, 120, 180)' fill-opacity = '0.250000' points = '413.4,242.2 413.4,242.4 414.1,242.4 414.1,242.2 '/>
		<polygon fill = 'rgb( 31, 120, 180)' fill-opacity = '0.250000' points = '414.1,242.2 414.1,242.4 414.9,242.4 414.9,242.2 '/>
		<polygon fill = 'rgb( 31, 120, 180)' fill-opacity = '0.250000' points = '414.9,242.2 414.9,242.4 415.6,242.4 415.6,242.2 '/>
		<polygon fill = 'rgb( 31, 120, 180)' fill-opacity = '0.250000' points = '415.6,242.2 415.6,242.4 416.3,242.4 416.3,242.2 '/>
		<polygon fill = 'rgb( 31, 120, 180)' fill-opacity = '0.250000' points = '416.3,242.2 416.3,242.4 417.0,242.4 417.0,242.3 '/>
		<polygon fill = 'rgb( 31, 120, 180)' fill-opacity = '0.250000' points = '417.0,242.3 417.0,242.4 417.8,242.4 417.8,242.3 '/>
		<polygon fill = 'rgb( 31, 120, 180)' fill-opacity = '0.250000' points = '417.8,242.3 417.8,242.4 418.5,242.4 418.5,242.3 '/>
		<polygon fill = 'rgb( 31, 120, 180)' fill-opacity = '0.250000' points = '418.5,242.3 418.5,242.4 419.2,242.4 419.2,242.3 '/>
		<polygon fill = 'rgb( 31, 120, 180)' fill-opacity = '0.250000' points = '419.2,242.3 419.2,242.4 419.9,242.4 419.9,242.3 '/>
		<polygon fill = 'rgb( 31, 120, 180)' fill-opacity = '0.250000' points = '419.9,242.3 419.9,242.4 420.7,242.4 420.7,242.3 '/>
		<polygon fill = 'rgb( 31, 120, 180)' fill-opacity = '0.250000' points = '420.7,242.3 420.7,242.4 421.4,242.4 421.4,242.3 '/>
		<polygon fill = 'rgb( 31, 120, 180)' fill-opacity = '0.250000' points = '421.4,242.3 421.4,242.4 422.1,242.4 422.1,242.3 '/>
		<polygon fill = 'rgb( 31, 120, 180)' fill-opacity = '0.250000' points = '422.1,242.3 422.1,242.4 422.8,242.4 422.8,242.4 '/>
		<polygon fill = 'rgb( 31, 120, 180)' fill-opacity = '0.250000' points = '422.8,242.4 422.8,242.4 423.6,242.4 423.6,242.4 '/>
		<polygon fill = 'rgb( 31, 120, 180)' fill-opacity = '0.250000' points = '423.6,242.4 423.6,242.4 424.3,242.4 424.3,242.4 '/>
		<polygon fill = 'rgb( 31, 120, 180)' fill-opacity = '0.250000' points = '424.3,242.4 424.3,242.4 425.0,242.4 425.0,242.4 '/>
	</g>
</g>
	</g>
	<g id="gnuplot_plot_2" ><title>Mean</title>
<g fill="none" color="white" stroke="rgb( 31, 120, 180)" stroke-width="2.00" stroke-linecap="butt" stroke-linejoin="miter">
</g>
<g fill="none" color="black" stroke="currentColor" stroke-width="2.00" stroke-linecap="butt" stroke-linejoin="miter">
	<path stroke='rgb( 31, 120, 180)'  d='M116.0,242.4 L116.0,63.4  '/></g>
	</g>
<g fill="none" color="black" stroke="currentColor" stroke-width="2.00" stroke-linecap="butt" stroke-linejoin="miter">
</g>
<g fill="none" color="black" stroke="black" stroke-width="1.00" stroke-linecap="butt" stroke-linejoin="miter">
</g>
<g fill="none" color="black" stroke="currentColor" stroke-width="1.00" stroke-linecap="butt" stroke-linejoin="miter">
	<path stroke='black'  d='M63.6,16.7 L63.6,242.4 L425.0,242.4 L425.0,16.7 L63.6,16.7 Z  '/></g>
<g fill="none" color="black" stroke="currentColor" stroke-width="1.00" stroke-linecap="butt" stroke-linejoin="miter">
</g>
</g>
</svg>

