<?xml version="1.0" encoding="utf-8"  standalone="no"?>
<!DOCTYPE svg PUBLIC "-//W3C//DTD SVG 1.1//EN"
 "http://www.w3.org/Graphics/SVG/1.1/DTD/svg11.dtd">
<svg 
 viewBox="0 0 450 300"
 xmlns="http://www.w3.org/2000/svg"
 xmlns:xlink="http://www.w3.org/1999/xlink"
>

<title>Gnuplot</title>
<desc>Produced by GNUPLOT 5.0 patchlevel 5 </desc>

<g id="gnuplot_canvas">

<rect x="0" y="0" width="450" height="300" fill="none"/>
<defs>

	<circle id='gpDot' r='0.5' stroke-width='0.5'/>
	<path id='gpPt0' stroke-width='0.222' stroke='currentColor' d='M-1,0 h2 M0,-1 v2'/>
	<path id='gpPt1' stroke-width='0.222' stroke='currentColor' d='M-1,-1 L1,1 M1,-1 L-1,1'/>
	<path id='gpPt2' stroke-width='0.222' stroke='currentColor' d='M-1,0 L1,0 M0,-1 L0,1 M-1,-1 L1,1 M-1,1 L1,-1'/>
	<rect id='gpPt3' stroke-width='0.222' stroke='currentColor' x='-1' y='-1' width='2' height='2'/>
	<rect id='gpPt4' stroke-width='0.222' stroke='currentColor' fill='currentColor' x='-1' y='-1' width='2' height='2'/>
	<circle id='gpPt5' stroke-width='0.222' stroke='currentColor' cx='0' cy='0' r='1'/>
	<use xlink:href='#gpPt5' id='gpPt6' fill='currentColor' stroke='none'/>
	<path id='gpPt7' stroke-width='0.222' stroke='currentColor' d='M0,-1.33 L-1.33,0.67 L1.33,0.67 z'/>
	<use xlink:href='#gpPt7' id='gpPt8' fill='currentColor' stroke='none'/>
	<use xlink:href='#gpPt7' id='gpPt9' stroke='currentColor' transform='rotate(180)'/>
	<use xlink:href='#gpPt9' id='gpPt10' fill='currentColor' stroke='none'/>
	<use xlink:href='#gpPt3' id='gpPt11' stroke='currentColor' transform='rotate(45)'/>
	<use xlink:href='#gpPt11' id='gpPt12' fill='currentColor' stroke='none'/>
	<path id='gpPt13' stroke-width='0.222' stroke='currentColor' d='M0,1.330 L1.265,0.411 L0.782,-1.067 L-0.782,-1.076 L-1.265,0.411 z'/>
	<use xlink:href='#gpPt13' id='gpPt14' fill='currentColor' stroke='none'/>
	<filter id='textbox' filterUnits='objectBoundingBox' x='0' y='0' height='1' width='1'>
	  <feFlood flood-color='white' flood-opacity='1' result='bgnd'/>
	  <feComposite in='SourceGraphic' in2='bgnd' operator='atop'/>
	</filter>
	<filter id='greybox' filterUnits='objectBoundingBox' x='0' y='0' height='1' width='1'>
	  <feFlood flood-color='lightgrey' flood-opacity='1' result='grey'/>
	  <feComposite in='SourceGraphic' in2='grey' operator='atop'/>
	</filter>
</defs>
<g fill="none" color="white" stroke="currentColor" stroke-width="1.00" stroke-linecap="butt" stroke-linejoin="miter">
</g>
<g fill="none" color="black" stroke="currentColor" stroke-width="1.00" stroke-linecap="butt" stroke-linejoin="miter">
</g>
<g fill="none" color="black" stroke="black" stroke-width="0.50" stroke-linecap="butt" stroke-linejoin="miter">
</g>
<g fill="none" color="gray" stroke="currentColor" stroke-width="0.50" stroke-linecap="butt" stroke-linejoin="miter">
	<path stroke='gray' stroke-dasharray='2,4' class="gridline"  d='M71.9,242.4 L425.0,242.4  '/></g>
<g fill="none" color="gray" stroke="gray" stroke-width="1.00" stroke-linecap="butt" stroke-linejoin="miter">
</g>
<g fill="none" color="black" stroke="currentColor" stroke-width="1.00" stroke-linecap="butt" stroke-linejoin="miter">
	<path stroke='black'  d='M71.9,242.4 L80.9,242.4  '/>	<g transform="translate(63.6,246.3)" stroke="none" fill="black" font-family="Helvetica" font-size="12.00"  text-anchor="end">
		<text><tspan font-family="Helvetica" > 0</tspan></text>
	</g>
</g>
<g fill="none" color="black" stroke="currentColor" stroke-width="1.00" stroke-linecap="butt" stroke-linejoin="miter">
</g>
<g fill="none" color="black" stroke="black" stroke-width="0.50" stroke-linecap="butt" stroke-linejoin="miter">
</g>
<g fill="none" color="gray" stroke="currentColor" stroke-width="0.50" stroke-linecap="butt" stroke-linejoin="miter">
	<path stroke='gray' stroke-dasharray='2,4' class="gridline"  d='M71.9,204.8 L425.0,204.8  '/></g>
<g fill="none" color="gray" stroke="gray" stroke-width="1.00" stroke-linecap="butt" stroke-linejoin="miter">
</g>
<g fill="none" color="black" stroke="currentColor" stroke-width="1.00" stroke-linecap="butt" stroke-linejoin="miter">
	<path stroke='black'  d='M71.9,204.8 L80.9,204.8  '/>	<g transform="translate(63.6,208.7)" stroke="none" fill="black" font-family="Helvetica" font-size="12.00"  text-anchor="end">
		<text><tspan font-family="Helvetica" > 20</tspan></text>
	</g>
</g>
<g fill="none" color="black" stroke="currentColor" stroke-width="1.00" stroke-linecap="butt" stroke-linejoin="miter">
</g>
<g fill="none" color="black" stroke="black" stroke-width="0.50" stroke-linecap="butt" stroke-linejoin="miter">
</g>
<g fill="none" color="gray" stroke="currentColor" stroke-width="0.50" stroke-linecap="butt" stroke-linejoin="miter">
	<path stroke='gray' stroke-dasharray='2,4' class="gridline"  d='M71.9,167.2 L425.0,167.2  '/></g>
<g fill="none" color="gray" stroke="gray" stroke-width="1.00" stroke-linecap="butt" stroke-linejoin="miter">
</g>
<g fill="none" color="black" stroke="currentColor" stroke-width="1.00" stroke-linecap="butt" stroke-linejoin="miter">
	<path stroke='black'  d='M71.9,167.2 L80.9,167.2  '/>	<g transform="translate(63.6,171.1)" stroke="none" fill="black" font-family="Helvetica" font-size="12.00"  text-anchor="end">
		<text><tspan font-family="Helvetica" > 40</tspan></text>
	</g>
</g>
<g fill="none" color="black" stroke="currentColor" stroke-width="1.00" stroke-linecap="butt" stroke-linejoin="miter">
</g>
<g fill="none" color="black" stroke="black" stroke-width="0.50" stroke-linecap="butt" stroke-linejoin="miter">
</g>
<g fill="none" color="gray" stroke="currentColor" stroke-width="0.50" stroke-linecap="butt" stroke-linejoin="miter">
	<path stroke='gray' stroke-dasharray='2,4' class="gridline"  d='M71.9,129.5 L425.0,129.5  '/></g>
<g fill="none" color="gray" stroke="gray" stroke-width="1.00" stroke-linecap="butt" stroke-linejoin="miter">
</g>
<g fill="none" color="black" stroke="currentColor" stroke-width="1.00" stroke-linecap="butt" stroke-linejoin="miter">
	<path stroke='black'  d='M71.9,129.5 L80.9,129.5  '/>	<g transform="translate(63.6,133.4)" stroke="none" fill="black" font-family="Helvetica" font-size="12.00"  text-anchor="end">
		<text><tspan font-family="Helvetica" > 60</tspan></text>
	</g>
</g>
<g fill="none" color="black" stroke="currentColor" stroke-width="1.00" stroke-linecap="butt" stroke-linejoin="miter">
</g>
<g fill="none" color="black" stroke="black" stroke-width="0.50" stroke-linecap="butt" stroke-linejoin="miter">
</g>
<g fill="none" color="gray" stroke="currentColor" stroke-width="0.50" stroke-linecap="butt" stroke-linejoin="miter">
	<path stroke='gray' stroke-dasharray='2,4' class="gridline"  d='M71.9,91.9 L425.0,91.9  '/></g>
<g fill="none" color="gray" stroke="gray" stroke-width="1.00" stroke-linecap="butt" stroke-linejoin="miter">
</g>
<g fill="none" color="black" stroke="currentColor" stroke-width="1.00" stroke-linecap="butt" stroke-linejoin="miter">
	<path stroke='black'  d='M71.9,91.9 L80.9,91.9  '/>	<g transform="translate(63.6,95.8)" stroke="none" fill="black" font-family="Helvetica" font-size="12.00"  text-anchor="end">
		<text><tspan font-family="Helvetica" > 80</tspan></text>
	</g>
</g>
<g fill="none" color="black" stroke="currentColor" stroke-width="1.00" stroke-linecap="butt" stroke-linejoin="miter">
</g>
<g fill="none" color="black" stroke="black" stroke-width="0.50" stroke-linecap="butt" stroke-linejoin="miter">
</g>
<g fill="none" color="gray" stroke="currentColor" stroke-width="0.50" stroke-linecap="butt" stroke-linejoin="miter">
	<path stroke='gray' stroke-dasharray='2,4' class="gridline"  d='M71.9,54.3 L425.0,54.3  '/></g>
<g fill="none" color="gray" stroke="gray" stroke-width="1.00" stroke-linecap="butt" stroke-linejoin="miter">
</g>
<g fill="none" color="black" stroke="currentColor" stroke-width="1.00" stroke-linecap="butt" stroke-linejoin="miter">
	<path stroke='black'  d='M71.9,54.3 L80.9,54.3  '/>	<g transform="translate(63.6,58.2)" stroke="none" fill="black" font-family="Helvetica" font-size="12.00"  text-anchor="end">
		<text><tspan font-family="Helvetica" > 100</tspan></text>
	</g>
</g>
<g fill="none" color="black" stroke="currentColor" stroke-width="1.00" stroke-linecap="butt" stroke-linejoin="miter">
</g>
<g fill="none" color="black" stroke="black" stroke-width="0.50" stroke-linecap="butt" stroke-linejoin="miter">
</g>
<g fill="none" color="gray" stroke="currentColor" stroke-width="0.50" stroke-linecap="butt" stroke-linejoin="miter">
	<path stroke='gray' stroke-dasharray='2,4' class="gridline"  d='M71.9,16.7 L425.0,16.7  '/></g>
<g fill="none" color="gray" stroke="gray" stroke-width="1.00" stroke-linecap="butt" stroke-linejoin="miter">
</g>
<g fill="none" color="black" stroke="currentColor" stroke-width="1.00" stroke-linecap="butt" stroke-linejoin="miter">
	<path stroke='black'  d='M71.9,16.7 L80.9,16.7  '/>	<g transform="translate(63.6,20.6)" stroke="none" fill="black" font-family="Helvetica" font-size="12.00"  text-anchor="end">
		<text><tspan font-family="Helvetica" > 120</tspan></text>
	</g>
</g>
<g fill="none" color="black" stroke="currentColor" stroke-width="1.00" stroke-linecap="butt" stroke-linejoin="miter">
</g>
<g fill="none" color="black" stroke="black" stroke-width="0.50" stroke-linecap="butt" stroke-linejoin="miter">
</g>
<g fill="none" color="gray" stroke="currentColor" stroke-width="0.50" stroke-linecap="butt" stroke-linejoin="miter">
	<path stroke='gray' stroke-dasharray='2,4' class="gridline"  d='M71.9,242.4 L71.9,16.7  '/></g>
<g fill="none" color="gray" stroke="gray" stroke-width="1.00" stroke-linecap="butt" stroke-linejoin="miter">
</g>
<g fill="none" color="black" stroke="currentColor" stroke-width="1.00" stroke-linecap="butt" stroke-linejoin="miter">
	<path stroke='black'  d='M71.9,242.4 L71.9,233.4  '/>	<g transform="translate(71.9,264.3)" stroke="none" fill="black" font-family="Helvetica" font-size="12.00"  text-anchor="middle">
		<text><tspan font-family="Helvetica" > 0</tspan></text>
	</g>
</g>
<g fill="none" color="black" stroke="currentColor" stroke-width="1.00" stroke-linecap="butt" stroke-linejoin="miter">
</g>
<g fill="none" color="black" stroke="black" stroke-width="0.50" stroke-linecap="butt" stroke-linejoin="miter">
</g>
<g fill="none" color="gray" stroke="currentColor" stroke-width="0.50" stroke-linecap="butt" stroke-linejoin="miter">
	<path stroke='gray' stroke-dasharray='2,4' class="gridline"  d='M142.5,242.4 L142.5,16.7  '/></g>
<g fill="none" color="gray" stroke="gray" stroke-width="1.00" stroke-linecap="butt" stroke-linejoin="miter">
</g>
<g fill="none" color="black" stroke="currentColor" stroke-width="1.00" stroke-linecap="butt" stroke-linejoin="miter">
	<path stroke='black'  d='M142.5,242.4 L142.5,233.4  '/>	<g transform="translate(142.5,264.3)" stroke="none" fill="black" font-family="Helvetica" font-size="12.00"  text-anchor="middle">
		<text><tspan font-family="Helvetica" > 20</tspan></text>
	</g>
</g>
<g fill="none" color="black" stroke="currentColor" stroke-width="1.00" stroke-linecap="butt" stroke-linejoin="miter">
</g>
<g fill="none" color="black" stroke="black" stroke-width="0.50" stroke-linecap="butt" stroke-linejoin="miter">
</g>
<g fill="none" color="gray" stroke="currentColor" stroke-width="0.50" stroke-linecap="butt" stroke-linejoin="miter">
	<path stroke='gray' stroke-dasharray='2,4' class="gridline"  d='M213.1,242.4 L213.1,16.7  '/></g>
<g fill="none" color="gray" stroke="gray" stroke-width="1.00" stroke-linecap="butt" stroke-linejoin="miter">
</g>
<g fill="none" color="black" stroke="currentColor" stroke-width="1.00" stroke-linecap="butt" stroke-linejoin="miter">
	<path stroke='black'  d='M213.1,242.4 L213.1,233.4  '/>	<g transform="translate(213.1,264.3)" stroke="none" fill="black" font-family="Helvetica" font-size="12.00"  text-anchor="middle">
		<text><tspan font-family="Helvetica" > 40</tspan></text>
	</g>
</g>
<g fill="none" color="black" stroke="currentColor" stroke-width="1.00" stroke-linecap="butt" stroke-linejoin="miter">
</g>
<g fill="none" color="black" stroke="black" stroke-width="0.50" stroke-linecap="butt" stroke-linejoin="miter">
</g>
<g fill="none" color="gray" stroke="currentColor" stroke-width="0.50" stroke-linecap="butt" stroke-linejoin="miter">
	<path stroke='gray' stroke-dasharray='2,4' class="gridline"  d='M283.8,242.4 L283.8,16.7  '/></g>
<g fill="none" color="gray" stroke="gray" stroke-width="1.00" stroke-linecap="butt" stroke-linejoin="miter">
</g>
<g fill="none" color="black" stroke="currentColor" stroke-width="1.00" stroke-linecap="butt" stroke-linejoin="miter">
	<path stroke='black'  d='M283.8,242.4 L283.8,233.4  '/>	<g transform="translate(283.8,264.3)" stroke="none" fill="black" font-family="Helvetica" font-size="12.00"  text-anchor="middle">
		<text><tspan font-family="Helvetica" > 60</tspan></text>
	</g>
</g>
<g fill="none" color="black" stroke="currentColor" stroke-width="1.00" stroke-linecap="butt" stroke-linejoin="miter">
</g>
<g fill="none" color="black" stroke="black" stroke-width="0.50" stroke-linecap="butt" stroke-linejoin="miter">
</g>
<g fill="none" color="gray" stroke="currentColor" stroke-width="0.50" stroke-linecap="butt" stroke-linejoin="miter">
	<path stroke='gray' stroke-dasharray='2,4' class="gridline"  d='M354.4,242.4 L354.4,16.7  '/></g>
<g fill="none" color="gray" stroke="gray" stroke-width="1.00" stroke-linecap="butt" stroke-linejoin="miter">
</g>
<g fill="none" color="black" stroke="currentColor" stroke-width="1.00" stroke-linecap="butt" stroke-linejoin="miter">
	<path stroke='black'  d='M354.4,242.4 L354.4,233.4  '/>	<g transform="translate(354.4,264.3)" stroke="none" fill="black" font-family="Helvetica" font-size="12.00"  text-anchor="middle">
		<text><tspan font-family="Helvetica" > 80</tspan></text>
	</g>
</g>
<g fill="none" color="black" stroke="currentColor" stroke-width="1.00" stroke-linecap="butt" stroke-linejoin="miter">
</g>
<g fill="none" color="black" stroke="black" stroke-width="0.50" stroke-linecap="butt" stroke-linejoin="miter">
</g>
<g fill="none" color="gray" stroke="currentColor" stroke-width="0.50" stroke-linecap="butt" stroke-linejoin="miter">
	<path stroke='gray' stroke-dasharray='2,4' class="gridline"  d='M425.0,242.4 L425.0,16.7  '/></g>
<g fill="none" color="gray" stroke="gray" stroke-width="1.00" stroke-linecap="butt" stroke-linejoin="miter">
</g>
<g fill="none" color="black" stroke="currentColor" stroke-width="1.00" stroke-linecap="butt" stroke-linejoin="miter">
	<path stroke='black'  d='M425.0,242.4 L425.0,233.4  '/>	<g transform="translate(425.0,264.3)" stroke="none" fill="black" font-family="Helvetica" font-size="12.00"  text-anchor="middle">
		<text><tspan font-family="Helvetica" > 100</tspan></text>
	</g>
</g>
<g fill="none" color="black" stroke="currentColor" stroke-width="1.00" stroke-linecap="butt" stroke-linejoin="miter">
</g>
<g fill="none" color="black" stroke="currentColor" stroke-width="1.00" stroke-linecap="butt" stroke-linejoin="miter">
	<path stroke='black'  d='M71.9,16.7 L71.9,242.4 L425.0,242.4 L425.0,16.7 L71.9,16.7 Z  '/></g>
<g fill="none" color="black" stroke="currentColor" stroke-width="1.00" stroke-linecap="butt" stroke-linejoin="miter">
	<g transform="translate(17.0,129.6) rotate(270)" stroke="none" fill="black" font-family="Helvetica" font-size="12.00"  text-anchor="middle">
		<text><tspan font-family="Helvetica" >Total sample time (ms)</tspan></text>
	</g>
</g>
<g fill="none" color="black" stroke="currentColor" stroke-width="1.00" stroke-linecap="butt" stroke-linejoin="miter">
	<g transform="translate(248.4,291.3)" stroke="none" fill="black" font-family="Helvetica" font-size="12.00"  text-anchor="middle">
		<text><tspan font-family="Helvetica" >Iterations</tspan></text>
	</g>
</g>
<g fill="none" color="black" stroke="currentColor" stroke-width="1.00" stroke-linecap="butt" stroke-linejoin="miter">
</g>
	<g id="gnuplot_plot_1" ><title>Sample</title>
<g fill="none" color="black" stroke="currentColor" stroke-width="1.00" stroke-linecap="butt" stroke-linejoin="miter">
	<use xlink:href='#gpPt6' transform='translate(75.4,240.4) scale(2.25)' color='rgb( 31, 120, 180)'/>
	<use xlink:href='#gpPt6' transform='translate(79.0,238.4) scale(2.25)' color='rgb( 31, 120, 180)'/>
	<use xlink:href='#gpPt6' transform='translate(82.5,236.4) scale(2.25)' color='rgb( 31, 120, 180)'/>
	<use xlink:href='#gpPt6' transform='translate(86.0,234.1) scale(2.25)' color='rgb( 31, 120, 180)'/>
	<use xlink:href='#gpPt6' transform='translate(89.6,232.5) scale(2.25)' color='rgb( 31, 120, 180)'/>
	<use xlink:href='#gpPt6' transform='translate(93.1,230.4) scale(2.25)' color='rgb( 31, 120, 180)'/>
	<use xlink:href='#gpPt6' transform='translate(96.6,228.5) scale(2.25)' color='rgb( 31, 120, 180)'/>
	<use xlink:href='#gpPt6' transform='translate(100.1,226.5) scale(2.25)' color='rgb( 31, 120, 180)'/>
	<use xlink:href='#gpPt6' transform='translate(103.7,224.5) scale(2.25)' color='rgb( 31, 120, 180)'/>
	<use xlink:href='#gpPt6' transform='translate(107.2,222.4) scale(2.25)' color='rgb( 31, 120, 180)'/>
	<use xlink:href='#gpPt6' transform='translate(110.7,220.6) scale(2.25)' color='rgb( 31, 120, 180)'/>
	<use xlink:href='#gpPt6' transform='translate(114.3,218.6) scale(2.25)' color='rgb( 31, 120, 180)'/>
	<use xlink:href='#gpPt6' transform='translate(117.8,216.6) scale(2.25)' color='rgb( 31, 120, 180)'/>
	<use xlink:href='#gpPt6' transform='translate(121.3,214.6) scale(2.25)' color='rgb( 31, 120, 180)'/>
	<use xlink:href='#gpPt6' transform='translate(124.9,212.6) scale(2.25)' color='rgb( 31, 120, 180)'/>
	<use xlink:href='#gpPt6' transform='translate(128.4,210.6) scale(2.25)' color='rgb( 31, 120, 180)'/>
	<use xlink:href='#gpPt6' transform='translate(131.9,208.6) scale(2.25)' color='rgb( 31, 120, 180)'/>
	<use xlink:href='#gpPt6' transform='translate(135.5,206.4) scale(2.25)' color='rgb( 31, 120, 180)'/>
	<use xlink:href='#gpPt6' transform='translate(139.0,204.7) scale(2.25)' color='rgb( 31, 120, 180)'/>
	<use xlink:href='#gpPt6' transform='translate(142.5,202.7) scale(2.25)' color='rgb( 31, 120, 180)'/>
	<use xlink:href='#gpPt6' transform='translate(146.1,200.7) scale(2.25)' color='rgb( 31, 120, 180)'/>
	<use xlink:href='#gpPt6' transform='translate(149.6,198.7) scale(2.25)' color='rgb( 31, 120, 180)'/>
	<use xlink:href='#gpPt6' transform='translate(153.1,196.7) scale(2.25)' color='rgb( 31, 120, 180)'/>
	<use xlink:href='#gpPt6' transform='translate(156.6,194.6) scale(2.25)' color='rgb( 31, 120, 180)'/>
	<use xlink:href='#gpPt6' transform='translate(160.2,192.8) scale(2.25)' color='rgb( 31, 120, 180)'/>
	<use xlink:href='#gpPt6' transform='translate(163.7,190.8) scale(2.25)' color='rgb( 31, 120, 180)'/>
	<use xlink:href='#gpPt6' transform='translate(167.2,188.6) scale(2.25)' color='rgb( 31, 120, 180)'/>
	<use xlink:href='#gpPt6' transform='translate(170.8,186.8) scale(2.25)' color='rgb( 31, 120, 180)'/>
	<use xlink:href='#gpPt6' transform='translate(174.3,184.8) scale(2.25)' color='rgb( 31, 120, 180)'/>
	<use xlink:href='#gpPt6' transform='translate(177.8,182.8) scale(2.25)' color='rgb( 31, 120, 180)'/>
	<use xlink:href='#gpPt6' transform='translate(181.4,180.9) scale(2.25)' color='rgb( 31, 120, 180)'/>
	<use xlink:href='#gpPt6' transform='translate(184.9,178.7) scale(2.25)' color='rgb( 31, 120, 180)'/>
	<use xlink:href='#gpPt6' transform='translate(188.4,176.9) scale(2.25)' color='rgb( 31, 120, 180)'/>
	<use xlink:href='#gpPt6' transform='translate(192.0,174.9) scale(2.25)' color='rgb( 31, 120, 180)'/>
	<use xlink:href='#gpPt6' transform='translate(195.5,172.9) scale(2.25)' color='rgb( 31, 120, 180)'/>
	<use xlink:href='#gpPt6' transform='translate(199.0,170.9) scale(2.25)' color='rgb( 31, 120, 180)'/>
	<use xlink:href='#gpPt6' transform='translate(202.5,161.2) scale(2.25)' color='rgb( 31, 120, 180)'/>
	<use xlink:href='#gpPt6' transform='translate(206.1,166.3) scale(2.25)' color='rgb( 31, 120, 180)'/>
	<use xlink:href='#gpPt6' transform='translate(209.6,161.4) scale(2.25)' color='rgb( 31, 120, 180)'/>
	<use xlink:href='#gpPt6' transform='translate(213.1,163.0) scale(2.25)' color='rgb( 31, 120, 180)'/>
	<use xlink:href='#gpPt6' transform='translate(216.7,161.0) scale(2.25)' color='rgb( 31, 120, 180)'/>
	<use xlink:href='#gpPt6' transform='translate(220.2,158.9) scale(2.25)' color='rgb( 31, 120, 180)'/>
	<use xlink:href='#gpPt6' transform='translate(223.7,157.0) scale(2.25)' color='rgb( 31, 120, 180)'/>
	<use xlink:href='#gpPt6' transform='translate(227.3,154.1) scale(2.25)' color='rgb( 31, 120, 180)'/>
	<use xlink:href='#gpPt6' transform='translate(230.8,153.1) scale(2.25)' color='rgb( 31, 120, 180)'/>
	<use xlink:href='#gpPt6' transform='translate(234.3,151.1) scale(2.25)' color='rgb( 31, 120, 180)'/>
	<use xlink:href='#gpPt6' transform='translate(237.9,149.1) scale(2.25)' color='rgb( 31, 120, 180)'/>
	<use xlink:href='#gpPt6' transform='translate(241.4,146.5) scale(2.25)' color='rgb( 31, 120, 180)'/>
	<use xlink:href='#gpPt6' transform='translate(244.9,144.9) scale(2.25)' color='rgb( 31, 120, 180)'/>
	<use xlink:href='#gpPt6' transform='translate(248.5,143.0) scale(2.25)' color='rgb( 31, 120, 180)'/>
	<use xlink:href='#gpPt6' transform='translate(252.0,141.0) scale(2.25)' color='rgb( 31, 120, 180)'/>
	<use xlink:href='#gpPt6' transform='translate(255.5,139.1) scale(2.25)' color='rgb( 31, 120, 180)'/>
	<use xlink:href='#gpPt6' transform='translate(259.0,137.2) scale(2.25)' color='rgb( 31, 120, 180)'/>
	<use xlink:href='#gpPt6' transform='translate(262.6,135.2) scale(2.25)' color='rgb( 31, 120, 180)'/>
	<use xlink:href='#gpPt6' transform='translate(266.1,133.2) scale(2.25)' color='rgb( 31, 120, 180)'/>
	<use xlink:href='#gpPt6' transform='translate(269.6,131.2) scale(2.25)' color='rgb( 31, 120, 180)'/>
	<use xlink:href='#gpPt6' transform='translate(273.2,127.2) scale(2.25)' color='rgb( 31, 120, 180)'/>
	<use xlink:href='#gpPt6' transform='translate(276.7,127.2) scale(2.25)' color='rgb( 31, 120, 180)'/>
	<use xlink:href='#gpPt6' transform='translate(280.2,125.3) scale(2.25)' color='rgb( 31, 120, 180)'/>
	<use xlink:href='#gpPt6' transform='translate(283.8,123.3) scale(2.25)' color='rgb( 31, 120, 180)'/>
	<use xlink:href='#gpPt6' transform='translate(287.3,121.3) scale(2.25)' color='rgb( 31, 120, 180)'/>
	<use xlink:href='#gpPt6' transform='translate(290.8,119.3) scale(2.25)' color='rgb( 31, 120, 180)'/>
	<use xlink:href='#gpPt6' transform='translate(294.4,117.3) scale(2.25)' color='rgb( 31, 120, 180)'/>
	<use xlink:href='#gpPt6' transform='translate(297.9,115.3) scale(2.25)' color='rgb( 31, 120, 180)'/>
	<use xlink:href='#gpPt6' transform='translate(301.4,113.4) scale(2.25)' color='rgb( 31, 120, 180)'/>
	<use xlink:href='#gpPt6' transform='translate(304.9,111.2) scale(2.25)' color='rgb( 31, 120, 180)'/>
	<use xlink:href='#gpPt6' transform='translate(308.5,109.4) scale(2.25)' color='rgb( 31, 120, 180)'/>
	<use xlink:href='#gpPt6' transform='translate(312.0,107.4) scale(2.25)' color='rgb( 31, 120, 180)'/>
	<use xlink:href='#gpPt6' transform='translate(315.5,105.4) scale(2.25)' color='rgb( 31, 120, 180)'/>
	<use xlink:href='#gpPt6' transform='translate(319.1,103.4) scale(2.25)' color='rgb( 31, 120, 180)'/>
	<use xlink:href='#gpPt6' transform='translate(322.6,101.5) scale(2.25)' color='rgb( 31, 120, 180)'/>
	<use xlink:href='#gpPt6' transform='translate(326.1,97.5) scale(2.25)' color='rgb( 31, 120, 180)'/>
	<use xlink:href='#gpPt6' transform='translate(329.7,97.5) scale(2.25)' color='rgb( 31, 120, 180)'/>
	<use xlink:href='#gpPt6' transform='translate(333.2,95.4) scale(2.25)' color='rgb( 31, 120, 180)'/>
	<use xlink:href='#gpPt6' transform='translate(336.7,93.0) scale(2.25)' color='rgb( 31, 120, 180)'/>
	<use xlink:href='#gpPt6' transform='translate(340.3,91.5) scale(2.25)' color='rgb( 31, 120, 180)'/>
	<use xlink:href='#gpPt6' transform='translate(343.8,89.4) scale(2.25)' color='rgb( 31, 120, 180)'/>
	<use xlink:href='#gpPt6' transform='translate(347.3,87.5) scale(2.25)' color='rgb( 31, 120, 180)'/>
	<use xlink:href='#gpPt6' transform='translate(350.8,85.3) scale(2.25)' color='rgb( 31, 120, 180)'/>
	<use xlink:href='#gpPt6' transform='translate(354.4,82.6) scale(2.25)' color='rgb( 31, 120, 180)'/>
	<use xlink:href='#gpPt6' transform='translate(357.9,81.6) scale(2.25)' color='rgb( 31, 120, 180)'/>
	<use xlink:href='#gpPt6' transform='translate(361.4,79.4) scale(2.25)' color='rgb( 31, 120, 180)'/>
	<use xlink:href='#gpPt6' transform='translate(365.0,77.6) scale(2.25)' color='rgb( 31, 120, 180)'/>
	<use xlink:href='#gpPt6' transform='translate(368.5,73.7) scale(2.25)' color='rgb( 31, 120, 180)'/>
	<use xlink:href='#gpPt6' transform='translate(372.0,73.4) scale(2.25)' color='rgb( 31, 120, 180)'/>
	<use xlink:href='#gpPt6' transform='translate(375.6,71.7) scale(2.25)' color='rgb( 31, 120, 180)'/>
	<use xlink:href='#gpPt6' transform='translate(379.1,69.4) scale(2.25)' color='rgb( 31, 120, 180)'/>
	<use xlink:href='#gpPt6' transform='translate(382.6,67.5) scale(2.25)' color='rgb( 31, 120, 180)'/>
	<use xlink:href='#gpPt6' transform='translate(386.2,65.7) scale(2.25)' color='rgb( 31, 120, 180)'/>
	<use xlink:href='#gpPt6' transform='translate(389.7,63.2) scale(2.25)' color='rgb( 31, 120, 180)'/>
	<use xlink:href='#gpPt6' transform='translate(393.2,61.7) scale(2.25)' color='rgb( 31, 120, 180)'/>
	<use xlink:href='#gpPt6' transform='translate(396.8,59.7) scale(2.25)' color='rgb( 31, 120, 180)'/>
	<use xlink:href='#gpPt6' transform='translate(400.3,57.6) scale(2.25)' color='rgb( 31, 120, 180)'/>
	<use xlink:href='#gpPt6' transform='translate(403.8,53.5) scale(2.25)' color='rgb( 31, 120, 180)'/>
	<use xlink:href='#gpPt6' transform='translate(407.3,53.7) scale(2.25)' color='rgb( 31, 120, 180)'/>
	<use xlink:href='#gpPt6' transform='translate(410.9,51.7) scale(2.25)' color='rgb( 31, 120, 180)'/>
	<use xlink:href='#gpPt6' transform='translate(414.4,49.0) scale(2.25)' color='rgb( 31, 120, 180)'/>
	<use xlink:href='#gpPt6' transform='translate(417.9,47.6) scale(2.25)' color='rgb( 31, 120, 180)'/>
	<use xlink:href='#gpPt6' transform='translate(421.5,45.8) scale(2.25)' color='rgb( 31, 120, 180)'/>
	<use xlink:href='#gpPt6' transform='translate(425.0,43.5) scale(2.25)' color='rgb( 31, 120, 180)'/>
</g>
	</g>
	<g id="gnuplot_plot_2" ><title>Linear regression</title>
<g fill="none" color="white" stroke="rgb( 31, 120, 180)" stroke-width="2.00" stroke-linecap="butt" stroke-linejoin="miter">
</g>
<g fill="none" color="black" stroke="currentColor" stroke-width="2.00" stroke-linecap="butt" stroke-linejoin="miter">
	<path stroke='rgb( 31, 120, 180)'  d='M71.9,242.4 L425.0,43.4  '/></g>
	</g>
	<g id="gnuplot_plot_3" ><title>Confidence interval</title>
<g fill="none" color="white" stroke="rgb( 31, 120, 180)" stroke-width="1.00" stroke-linecap="butt" stroke-linejoin="miter">
</g>
<g fill="none" color="black" stroke="currentColor" stroke-width="1.00" stroke-linecap="butt" stroke-linejoin="miter">
	<g stroke='none' shape-rendering='crispEdges'>
		<polygon fill = 'rgb( 31, 120, 180)' fill-opacity = '0.250000' points = '71.9,242.4 71.9,242.4 425.0,43.1 425.0,43.6 '/>
	</g>
</g>
	</g>
<g fill="none" color="white" stroke="rgb( 31, 120, 180)" stroke-width="2.00" stroke-linecap="butt" stroke-linejoin="miter">
</g>
<g fill="none" color="black" stroke="currentColor" stroke-width="2.00" stroke-linecap="butt" stroke-linejoin="miter">
</g>
<g fill="none" color="black" stroke="black" stroke-width="1.00" stroke-linecap="butt" stroke-linejoin="miter">
</g>
<g fill="none" color="black" stroke="currentColor" stroke-width="1.00" stroke-linecap="butt" stroke-linejoin="miter">
	<path stroke='black'  d='M71.9,16.7 L71.9,242.4 L425.0,242.4 L425.0,16.7 L71.9,16.7 Z  '/></g>
<g fill="none" color="black" stroke="currentColor" stroke-width="1.00" stroke-linecap="butt" stroke-linejoin="miter">
</g>
</g>
</svg>

