group,function,value,throughput_num,throughput_type,sample_measured_value,unit,iteration_count
dfs petgraph par immut (×4),,,,,1778809.0,ns,1
dfs petgraph par immut (×4),,,,,3521459.0,ns,2
dfs petgraph par immut (×4),,,,,5245062.0,ns,3
dfs petgraph par immut (×4),,,,,7011510.0,ns,4
dfs petgraph par immut (×4),,,,,8709994.0,ns,5
dfs petgraph par immut (×4),,,,,10498137.0,ns,6
dfs petgraph par immut (×4),,,,,12287664.0,ns,7
dfs petgraph par immut (×4),,,,,13935811.0,ns,8
dfs petgraph par immut (×4),,,,,15656996.0,ns,9
dfs petgraph par immut (×4),,,,,18635390.0,ns,10
dfs petgraph par immut (×4),,,,,19151873.0,ns,11
dfs petgraph par immut (×4),,,,,20860893.0,ns,12
dfs petgraph par immut (×4),,,,,22567311.0,ns,13
dfs petgraph par immut (×4),,,,,24242799.0,ns,14
dfs petgraph par immut (×4),,,,,25951105.0,ns,15
dfs petgraph par immut (×4),,,,,27743324.0,ns,16
dfs petgraph par immut (×4),,,,,29470945.0,ns,17
dfs petgraph par immut (×4),,,,,31113040.0,ns,18
dfs petgraph par immut (×4),,,,,32878105.0,ns,19
dfs petgraph par immut (×4),,,,,34631757.0,ns,20
dfs petgraph par immut (×4),,,,,36380945.0,ns,21
dfs petgraph par immut (×4),,,,,38077737.0,ns,22
dfs petgraph par immut (×4),,,,,39906999.0,ns,23
dfs petgraph par immut (×4),,,,,41561449.0,ns,24
dfs petgraph par immut (×4),,,,,43239676.0,ns,25
dfs petgraph par immut (×4),,,,,44973778.0,ns,26
dfs petgraph par immut (×4),,,,,46767641.0,ns,27
dfs petgraph par immut (×4),,,,,48562935.0,ns,28
dfs petgraph par immut (×4),,,,,50238978.0,ns,29
dfs petgraph par immut (×4),,,,,52005886.0,ns,30
dfs petgraph par immut (×4),,,,,53629051.0,ns,31
dfs petgraph par immut (×4),,,,,55400959.0,ns,32
dfs petgraph par immut (×4),,,,,57584332.0,ns,33
dfs petgraph par immut (×4),,,,,59569678.0,ns,34
dfs petgraph par immut (×4),,,,,61984693.0,ns,35
dfs petgraph par immut (×4),,,,,62412977.0,ns,36
dfs petgraph par immut (×4),,,,,64007402.0,ns,37
dfs petgraph par immut (×4),,,,,65720697.0,ns,38
dfs petgraph par immut (×4),,,,,67462839.0,ns,39
dfs petgraph par immut (×4),,,,,69158784.0,ns,40
dfs petgraph par immut (×4),,,,,71344532.0,ns,41
dfs petgraph par immut (×4),,,,,72677449.0,ns,42
dfs petgraph par immut (×4),,,,,74677560.0,ns,43
dfs petgraph par immut (×4),,,,,76541641.0,ns,44
dfs petgraph par immut (×4),,,,,77841938.0,ns,45
dfs petgraph par immut (×4),,,,,79571874.0,ns,46
dfs petgraph par immut (×4),,,,,81415039.0,ns,47
dfs petgraph par immut (×4),,,,,84412615.0,ns,48
dfs petgraph par immut (×4),,,,,84705982.0,ns,49
dfs petgraph par immut (×4),,,,,86572803.0,ns,50
dfs petgraph par immut (×4),,,,,88173965.0,ns,51
dfs petgraph par immut (×4),,,,,89891618.0,ns,52
dfs petgraph par immut (×4),,,,,91627273.0,ns,53
dfs petgraph par immut (×4),,,,,93584251.0,ns,54
dfs petgraph par immut (×4),,,,,95126156.0,ns,55
dfs petgraph par immut (×4),,,,,96736051.0,ns,56
dfs petgraph par immut (×4),,,,,98633982.0,ns,57
dfs petgraph par immut (×4),,,,,100736809.0,ns,58
dfs petgraph par immut (×4),,,,,103910124.0,ns,59
dfs petgraph par immut (×4),,,,,104341863.0,ns,60
dfs petgraph par immut (×4),,,,,105550578.0,ns,61
dfs petgraph par immut (×4),,,,,107494772.0,ns,62
dfs petgraph par immut (×4),,,,,108935113.0,ns,63
dfs petgraph par immut (×4),,,,,110669552.0,ns,64
dfs petgraph par immut (×4),,,,,112557845.0,ns,65
dfs petgraph par immut (×4),,,,,114056788.0,ns,66
dfs petgraph par immut (×4),,,,,115901317.0,ns,67
dfs petgraph par immut (×4),,,,,119967811.0,ns,68
dfs petgraph par immut (×4),,,,,119566989.0,ns,69
dfs petgraph par immut (×4),,,,,121365410.0,ns,70
dfs petgraph par immut (×4),,,,,122886705.0,ns,71
dfs petgraph par immut (×4),,,,,124481842.0,ns,72
dfs petgraph par immut (×4),,,,,126681416.0,ns,73
dfs petgraph par immut (×4),,,,,127916657.0,ns,74
dfs petgraph par immut (×4),,,,,130177584.0,ns,75
dfs petgraph par immut (×4),,,,,133264092.0,ns,76
dfs petgraph par immut (×4),,,,,133232078.0,ns,77
dfs petgraph par immut (×4),,,,,135097640.0,ns,78
dfs petgraph par immut (×4),,,,,136561126.0,ns,79
dfs petgraph par immut (×4),,,,,138403773.0,ns,80
dfs petgraph par immut (×4),,,,,139932799.0,ns,81
dfs petgraph par immut (×4),,,,,141917054.0,ns,82
dfs petgraph par immut (×4),,,,,145623708.0,ns,83
dfs petgraph par immut (×4),,,,,145248392.0,ns,84
dfs petgraph par immut (×4),,,,,147026602.0,ns,85
dfs petgraph par immut (×4),,,,,148793208.0,ns,86
dfs petgraph par immut (×4),,,,,150804636.0,ns,87
dfs petgraph par immut (×4),,,,,152094324.0,ns,88
dfs petgraph par immut (×4),,,,,156438218.0,ns,89
dfs petgraph par immut (×4),,,,,155555455.0,ns,90
dfs petgraph par immut (×4),,,,,157314329.0,ns,91
dfs petgraph par immut (×4),,,,,159262561.0,ns,92
dfs petgraph par immut (×4),,,,,161368970.0,ns,93
dfs petgraph par immut (×4),,,,,162651809.0,ns,94
dfs petgraph par immut (×4),,,,,166338783.0,ns,95
dfs petgraph par immut (×4),,,,,166147081.0,ns,96
dfs petgraph par immut (×4),,,,,167613364.0,ns,97
dfs petgraph par immut (×4),,,,,169673014.0,ns,98
dfs petgraph par immut (×4),,,,,171502727.0,ns,99
dfs petgraph par immut (×4),,,,,172653626.0,ns,100
