<?xml version="1.0" encoding="utf-8"  standalone="no"?>
<!DOCTYPE svg PUBLIC "-//W3C//DTD SVG 1.1//EN"
 "http://www.w3.org/Graphics/SVG/1.1/DTD/svg11.dtd">
<svg 
 viewBox="0 0 1280 720"
 xmlns="http://www.w3.org/2000/svg"
 xmlns:xlink="http://www.w3.org/1999/xlink"
>

<title>Gnuplot</title>
<desc>Produced by GNUPLOT 5.0 patchlevel 5 </desc>

<g id="gnuplot_canvas">

<rect x="0" y="0" width="1280" height="720" fill="none"/>
<defs>

	<circle id='gpDot' r='0.5' stroke-width='0.5'/>
	<path id='gpPt0' stroke-width='0.222' stroke='currentColor' d='M-1,0 h2 M0,-1 v2'/>
	<path id='gpPt1' stroke-width='0.222' stroke='currentColor' d='M-1,-1 L1,1 M1,-1 L-1,1'/>
	<path id='gpPt2' stroke-width='0.222' stroke='currentColor' d='M-1,0 L1,0 M0,-1 L0,1 M-1,-1 L1,1 M-1,1 L1,-1'/>
	<rect id='gpPt3' stroke-width='0.222' stroke='currentColor' x='-1' y='-1' width='2' height='2'/>
	<rect id='gpPt4' stroke-width='0.222' stroke='currentColor' fill='currentColor' x='-1' y='-1' width='2' height='2'/>
	<circle id='gpPt5' stroke-width='0.222' stroke='currentColor' cx='0' cy='0' r='1'/>
	<use xlink:href='#gpPt5' id='gpPt6' fill='currentColor' stroke='none'/>
	<path id='gpPt7' stroke-width='0.222' stroke='currentColor' d='M0,-1.33 L-1.33,0.67 L1.33,0.67 z'/>
	<use xlink:href='#gpPt7' id='gpPt8' fill='currentColor' stroke='none'/>
	<use xlink:href='#gpPt7' id='gpPt9' stroke='currentColor' transform='rotate(180)'/>
	<use xlink:href='#gpPt9' id='gpPt10' fill='currentColor' stroke='none'/>
	<use xlink:href='#gpPt3' id='gpPt11' stroke='currentColor' transform='rotate(45)'/>
	<use xlink:href='#gpPt11' id='gpPt12' fill='currentColor' stroke='none'/>
	<path id='gpPt13' stroke-width='0.222' stroke='currentColor' d='M0,1.330 L1.265,0.411 L0.782,-1.067 L-0.782,-1.076 L-1.265,0.411 z'/>
	<use xlink:href='#gpPt13' id='gpPt14' fill='currentColor' stroke='none'/>
	<filter id='textbox' filterUnits='objectBoundingBox' x='0' y='0' height='1' width='1'>
	  <feFlood flood-color='white' flood-opacity='1' result='bgnd'/>
	  <feComposite in='SourceGraphic' in2='bgnd' operator='atop'/>
	</filter>
	<filter id='greybox' filterUnits='objectBoundingBox' x='0' y='0' height='1' width='1'>
	  <feFlood flood-color='lightgrey' flood-opacity='1' result='grey'/>
	  <feComposite in='SourceGraphic' in2='grey' operator='atop'/>
	</filter>
</defs>
<g fill="none" color="white" stroke="currentColor" stroke-width="1.00" stroke-linecap="butt" stroke-linejoin="miter">
</g>
<g fill="none" color="black" stroke="currentColor" stroke-width="1.00" stroke-linecap="butt" stroke-linejoin="miter">
	<path stroke='black'  d='M71.9,662.4 L80.9,662.4  '/>	<g transform="translate(63.6,666.3)" stroke="none" fill="black" font-family="Helvetica" font-size="12.00"  text-anchor="end">
		<text><tspan font-family="Helvetica" > 0</tspan></text>
	</g>
</g>
<g fill="none" color="black" stroke="currentColor" stroke-width="1.00" stroke-linecap="butt" stroke-linejoin="miter">
	<path stroke='black'  d='M71.9,586.4 L80.9,586.4  '/>	<g transform="translate(63.6,590.3)" stroke="none" fill="black" font-family="Helvetica" font-size="12.00"  text-anchor="end">
		<text><tspan font-family="Helvetica" > 20</tspan></text>
	</g>
</g>
<g fill="none" color="black" stroke="currentColor" stroke-width="1.00" stroke-linecap="butt" stroke-linejoin="miter">
	<path stroke='black'  d='M71.9,510.3 L80.9,510.3  '/>	<g transform="translate(63.6,514.2)" stroke="none" fill="black" font-family="Helvetica" font-size="12.00"  text-anchor="end">
		<text><tspan font-family="Helvetica" > 40</tspan></text>
	</g>
</g>
<g fill="none" color="black" stroke="currentColor" stroke-width="1.00" stroke-linecap="butt" stroke-linejoin="miter">
	<path stroke='black'  d='M71.9,434.3 L80.9,434.3  '/>	<g transform="translate(63.6,438.2)" stroke="none" fill="black" font-family="Helvetica" font-size="12.00"  text-anchor="end">
		<text><tspan font-family="Helvetica" > 60</tspan></text>
	</g>
</g>
<g fill="none" color="black" stroke="currentColor" stroke-width="1.00" stroke-linecap="butt" stroke-linejoin="miter">
	<path stroke='black'  d='M71.9,358.2 L80.9,358.2  '/>	<g transform="translate(63.6,362.1)" stroke="none" fill="black" font-family="Helvetica" font-size="12.00"  text-anchor="end">
		<text><tspan font-family="Helvetica" > 80</tspan></text>
	</g>
</g>
<g fill="none" color="black" stroke="currentColor" stroke-width="1.00" stroke-linecap="butt" stroke-linejoin="miter">
	<path stroke='black'  d='M71.9,282.2 L80.9,282.2  '/>	<g transform="translate(63.6,286.1)" stroke="none" fill="black" font-family="Helvetica" font-size="12.00"  text-anchor="end">
		<text><tspan font-family="Helvetica" > 100</tspan></text>
	</g>
</g>
<g fill="none" color="black" stroke="currentColor" stroke-width="1.00" stroke-linecap="butt" stroke-linejoin="miter">
	<path stroke='black'  d='M71.9,206.2 L80.9,206.2  '/>	<g transform="translate(63.6,210.1)" stroke="none" fill="black" font-family="Helvetica" font-size="12.00"  text-anchor="end">
		<text><tspan font-family="Helvetica" > 120</tspan></text>
	</g>
</g>
<g fill="none" color="black" stroke="currentColor" stroke-width="1.00" stroke-linecap="butt" stroke-linejoin="miter">
	<path stroke='black'  d='M71.9,130.1 L80.9,130.1  '/>	<g transform="translate(63.6,134.0)" stroke="none" fill="black" font-family="Helvetica" font-size="12.00"  text-anchor="end">
		<text><tspan font-family="Helvetica" > 140</tspan></text>
	</g>
</g>
<g fill="none" color="black" stroke="currentColor" stroke-width="1.00" stroke-linecap="butt" stroke-linejoin="miter">
	<path stroke='black'  d='M71.9,54.1 L80.9,54.1  '/>	<g transform="translate(63.6,58.0)" stroke="none" fill="black" font-family="Helvetica" font-size="12.00"  text-anchor="end">
		<text><tspan font-family="Helvetica" > 160</tspan></text>
	</g>
</g>
<g fill="none" color="black" stroke="currentColor" stroke-width="1.00" stroke-linecap="butt" stroke-linejoin="miter">
	<path stroke='black'  d='M89.6,662.4 L89.6,653.4  '/>	<g transform="translate(89.6,684.3)" stroke="none" fill="black" font-family="Helvetica" font-size="12.00"  text-anchor="middle">
		<text><tspan font-family="Helvetica" > 1.584</tspan></text>
	</g>
</g>
<g fill="none" color="black" stroke="currentColor" stroke-width="1.00" stroke-linecap="butt" stroke-linejoin="miter">
	<path stroke='black'  d='M227.6,662.4 L227.6,653.4  '/>	<g transform="translate(227.6,684.3)" stroke="none" fill="black" font-family="Helvetica" font-size="12.00"  text-anchor="middle">
		<text><tspan font-family="Helvetica" > 1.586</tspan></text>
	</g>
</g>
<g fill="none" color="black" stroke="currentColor" stroke-width="1.00" stroke-linecap="butt" stroke-linejoin="miter">
	<path stroke='black'  d='M365.6,662.4 L365.6,653.4  '/>	<g transform="translate(365.6,684.3)" stroke="none" fill="black" font-family="Helvetica" font-size="12.00"  text-anchor="middle">
		<text><tspan font-family="Helvetica" > 1.588</tspan></text>
	</g>
</g>
<g fill="none" color="black" stroke="currentColor" stroke-width="1.00" stroke-linecap="butt" stroke-linejoin="miter">
	<path stroke='black'  d='M503.6,662.4 L503.6,653.4  '/>	<g transform="translate(503.6,684.3)" stroke="none" fill="black" font-family="Helvetica" font-size="12.00"  text-anchor="middle">
		<text><tspan font-family="Helvetica" > 1.59</tspan></text>
	</g>
</g>
<g fill="none" color="black" stroke="currentColor" stroke-width="1.00" stroke-linecap="butt" stroke-linejoin="miter">
	<path stroke='black'  d='M641.6,662.4 L641.6,653.4  '/>	<g transform="translate(641.6,684.3)" stroke="none" fill="black" font-family="Helvetica" font-size="12.00"  text-anchor="middle">
		<text><tspan font-family="Helvetica" > 1.592</tspan></text>
	</g>
</g>
<g fill="none" color="black" stroke="currentColor" stroke-width="1.00" stroke-linecap="butt" stroke-linejoin="miter">
	<path stroke='black'  d='M779.6,662.4 L779.6,653.4  '/>	<g transform="translate(779.6,684.3)" stroke="none" fill="black" font-family="Helvetica" font-size="12.00"  text-anchor="middle">
		<text><tspan font-family="Helvetica" > 1.594</tspan></text>
	</g>
</g>
<g fill="none" color="black" stroke="currentColor" stroke-width="1.00" stroke-linecap="butt" stroke-linejoin="miter">
	<path stroke='black'  d='M917.6,662.4 L917.6,653.4  '/>	<g transform="translate(917.6,684.3)" stroke="none" fill="black" font-family="Helvetica" font-size="12.00"  text-anchor="middle">
		<text><tspan font-family="Helvetica" > 1.596</tspan></text>
	</g>
</g>
<g fill="none" color="black" stroke="currentColor" stroke-width="1.00" stroke-linecap="butt" stroke-linejoin="miter">
</g>
<g fill="none" color="black" stroke="currentColor" stroke-width="1.00" stroke-linecap="butt" stroke-linejoin="miter">
	<path stroke='black'  d='M71.9,54.1 L71.9,662.4 L1013.6,662.4 L1013.6,54.1 L71.9,54.1 Z  '/></g>
<g fill="none" color="black" stroke="currentColor" stroke-width="1.00" stroke-linecap="butt" stroke-linejoin="miter">
	<g transform="translate(17.0,358.3) rotate(270)" stroke="none" fill="black" font-family="Helvetica" font-size="12.00"  text-anchor="middle">
		<text><tspan font-family="Helvetica" >Density (a.u.)</tspan></text>
	</g>
</g>
<g fill="none" color="black" stroke="currentColor" stroke-width="1.00" stroke-linecap="butt" stroke-linejoin="miter">
	<g transform="translate(542.7,711.3)" stroke="none" fill="black" font-family="Helvetica" font-size="12.00"  text-anchor="middle">
		<text><tspan font-family="Helvetica" >Average time (ms)</tspan></text>
	</g>
</g>
<g fill="none" color="black" stroke="currentColor" stroke-width="1.00" stroke-linecap="butt" stroke-linejoin="miter">
	<g transform="translate(542.7,31.0)" stroke="none" fill="black" font-family="Helvetica" font-size="12.00"  text-anchor="middle">
		<text><tspan font-family="Helvetica" >dfs arena ghostcell list par immut (×4): slope</tspan></text>
	</g>
</g>
	<g id="gnuplot_plot_1" ><title>Bootstrap distribution</title>
<g fill="none" color="white" stroke="black" stroke-width="2.00" stroke-linecap="butt" stroke-linejoin="miter">
</g>
<g fill="none" color="black" stroke="currentColor" stroke-width="2.00" stroke-linecap="butt" stroke-linejoin="miter">
	<g transform="translate(1089.0,67.0)" stroke="none" fill="black" font-family="Helvetica" font-size="12.00"  text-anchor="start">
		<text><tspan font-family="Helvetica" >Bootstrap distribution</tspan></text>
	</g>
</g>
<g fill="none" color="black" stroke="currentColor" stroke-width="2.00" stroke-linecap="butt" stroke-linejoin="miter">
	<path stroke='rgb( 31, 120, 180)'  d='M1038.5,63.1 L1080.7,63.1 M71.9,632.0 L73.8,631.0 L75.7,630.1 L77.6,629.1 L79.4,628.0 L81.3,627.0
		L83.2,625.8 L85.1,624.7 L87.0,623.5 L88.9,622.3 L90.8,621.0 L92.7,619.7 L94.5,618.3 L96.4,616.9
		L98.3,615.4 L100.2,613.9 L102.1,612.4 L104.0,610.8 L105.9,609.1 L107.8,607.5 L109.6,605.8 L111.5,604.0
		L113.4,602.2 L115.3,600.4 L117.2,598.6 L119.1,596.7 L121.0,594.7 L122.9,592.7 L124.7,590.7 L126.6,588.6
		L128.5,586.5 L130.4,584.3 L132.3,582.1 L134.2,579.8 L136.1,577.5 L138.0,575.2 L139.8,572.7 L141.7,570.3
		L143.6,567.8 L145.5,565.2 L147.4,562.7 L149.3,560.1 L151.2,557.4 L153.0,554.7 L154.9,552.0 L156.8,549.3
		L158.7,546.5 L160.6,543.7 L162.5,540.9 L164.4,538.0 L166.3,535.2 L168.1,532.3 L170.0,529.4 L171.9,526.5
		L173.8,523.5 L175.7,520.5 L177.6,517.5 L179.5,514.4 L181.4,511.4 L183.2,508.3 L185.1,505.1 L187.0,501.9
		L188.9,498.7 L190.8,495.5 L192.7,492.2 L194.6,488.9 L196.5,485.5 L198.3,482.1 L200.2,478.7 L202.1,475.3
		L204.0,471.8 L205.9,468.4 L207.8,464.8 L209.7,461.3 L211.6,457.8 L213.4,454.2 L215.3,450.6 L217.2,447.0
		L219.1,443.3 L221.0,439.7 L222.9,436.0 L224.8,432.3 L226.6,428.5 L228.5,424.7 L230.4,420.9 L232.3,417.1
		L234.2,413.2 L236.1,409.4 L238.0,405.4 L239.9,401.5 L241.7,397.5 L243.6,393.5 L245.5,389.5 L247.4,385.4
		L249.3,381.4 L251.2,377.3 L253.1,373.3 L255.0,369.2 L256.8,365.1 L258.7,361.1 L260.6,357.1 L262.5,353.0
		L264.4,349.0 L266.3,345.1 L268.2,341.1 L270.1,337.2 L271.9,333.3 L273.8,329.5 L275.7,325.6 L277.6,321.8
		L279.5,318.0 L281.4,314.3 L283.3,310.6 L285.2,306.9 L287.0,303.2 L288.9,299.6 L290.8,296.0 L292.7,292.4
		L294.6,288.9 L296.5,285.4 L298.4,281.9 L300.2,278.5 L302.1,275.1 L304.0,271.8 L305.9,268.5 L307.8,265.3
		L309.7,262.1 L311.6,258.9 L313.5,255.8 L315.3,252.8 L317.2,249.8 L319.1,246.9 L321.0,244.0 L322.9,241.2
		L324.8,238.4 L326.7,235.7 L328.6,233.0 L330.4,230.4 L332.3,227.9 L334.2,225.4 L336.1,222.9 L338.0,220.5
		L339.9,218.2 L341.8,215.9 L343.7,213.6 L345.5,211.4 L347.4,209.3 L349.3,207.1 L351.2,205.1 L353.1,203.0
		L355.0,201.0 L356.9,199.0 L358.8,197.0 L360.6,195.1 L362.5,193.2 L364.4,191.3 L366.3,189.4 L368.2,187.5
		L370.1,185.6 L372.0,183.7 L373.8,181.8 L375.7,180.0 L377.6,178.1 L379.5,176.2 L381.4,174.3 L383.3,172.5
		L385.2,170.6 L387.1,168.7 L388.9,166.8 L390.8,164.9 L392.7,163.1 L394.6,161.2 L396.5,159.3 L398.4,157.4
		L400.3,155.6 L402.2,153.7 L404.0,151.9 L405.9,150.1 L407.8,148.3 L409.7,146.6 L411.6,144.8 L413.5,143.2
		L415.4,141.5 L417.3,139.9 L419.1,138.4 L421.0,136.9 L422.9,135.4 L424.8,134.0 L426.7,132.7 L428.6,131.4
		L430.5,130.2 L432.4,129.1 L434.2,128.0 L436.1,127.0 L438.0,126.1 L439.9,125.2 L441.8,124.4 L443.7,123.8
		L445.6,123.2 L447.4,122.7 L449.3,122.3 L451.2,122.0 L453.1,121.8 L455.0,121.7 L456.9,121.7 L458.8,121.8
		L460.7,122.1 L462.5,122.4 L464.4,122.9 L466.3,123.5 L468.2,124.1 L470.1,124.9 L472.0,125.8 L473.9,126.7
		L475.8,127.7 L477.6,128.8 L479.5,129.9 L481.4,131.1 L483.3,132.3 L485.2,133.6 L487.1,134.9 L489.0,136.2
		L490.9,137.5 L492.7,138.9 L494.6,140.2 L496.5,141.6 L498.4,143.0 L500.3,144.4 L502.2,145.8 L504.1,147.2
		L506.0,148.6 L507.8,150.0 L509.7,151.4 L511.6,152.8 L513.5,154.3 L515.4,155.7 L517.3,157.2 L519.2,158.6
		L521.0,160.1 L522.9,161.6 L524.8,163.1 L526.7,164.6 L528.6,166.1 L530.5,167.7 L532.4,169.2 L534.3,170.7
		L536.1,172.2 L538.0,173.7 L539.9,175.2 L541.8,176.7 L543.7,178.2 L545.6,179.7 L547.5,181.2 L549.4,182.7
		L551.2,184.2 L553.1,185.8 L555.0,187.3 L556.9,188.9 L558.8,190.4 L560.7,192.1 L562.6,193.7 L564.5,195.5
		L566.3,197.2 L568.2,199.1 L570.1,201.0 L572.0,203.0 L573.9,205.1 L575.8,207.2 L577.7,209.5 L579.5,211.8
		L581.4,214.2 L583.3,216.7 L585.2,219.3 L587.1,221.9 L589.0,224.6 L590.9,227.4 L592.8,230.2 L594.6,233.1
		L596.5,236.1 L598.4,239.0 L600.3,242.0 L602.2,245.1 L604.1,248.1 L606.0,251.2 L607.9,254.3 L609.7,257.3
		L611.6,260.4 L613.5,263.5 L615.4,266.6 L617.3,269.6 L619.2,272.7 L621.1,275.7 L623.0,278.7 L624.8,281.7
		L626.7,284.6 L628.6,287.5 L630.5,290.4 L632.4,293.2 L634.3,296.0 L636.2,298.8 L638.1,301.5 L639.9,304.2
		L641.8,306.9 L643.7,309.5 L645.6,312.1 L647.5,314.7 L649.4,317.2 L651.3,319.7 L653.1,322.3 L655.0,324.7
		L656.9,327.2 L658.8,329.7 L660.7,332.2 L662.6,334.6 L664.5,337.1 L666.4,339.6 L668.2,342.1 L670.1,344.5
		L672.0,347.0 L673.9,349.5 L675.8,352.1 L677.7,354.6 L679.6,357.2 L681.5,359.8 L683.3,362.4 L685.2,365.0
		L687.1,367.6 L689.0,370.3 L690.9,373.0 L692.8,375.7 L694.7,378.5 L696.6,381.2 L698.4,384.0 L700.3,386.8
		L702.2,389.6 L704.1,392.4 L706.0,395.3 L707.9,398.1 L709.8,400.9 L711.7,403.8 L713.5,406.6 L715.4,409.4
		L717.3,412.1 L719.2,414.8 L721.1,417.5 L723.0,420.2 L724.9,422.8 L726.7,425.4 L728.6,427.9 L730.5,430.4
		L732.4,432.8 L734.3,435.2 L736.2,437.5 L738.1,439.8 L740.0,442.1 L741.8,444.4 L743.7,446.7 L745.6,448.9
		L747.5,451.1 L749.4,453.4 L751.3,455.6 L753.2,457.9 L755.1,460.2 L756.9,462.5 L758.8,464.8 L760.7,467.1
		L762.6,469.4 L764.5,471.8 L766.4,474.2 L768.3,476.5 L770.2,478.9 L772.0,481.3 L773.9,483.7 L775.8,486.0
		L777.7,488.4 L779.6,490.7 L781.5,493.0 L783.4,495.2 L785.3,497.5 L787.1,499.6 L789.0,501.8 L790.9,503.9
		L792.8,506.0 L794.7,508.0 L796.6,510.0 L798.5,512.0 L800.3,513.9 L802.2,515.8 L804.1,517.6 L806.0,519.5
		L807.9,521.3 L809.8,523.0 L811.7,524.8 L813.6,526.5 L815.4,528.2 L817.3,529.8 L819.2,531.5 L821.1,533.1
		L823.0,534.8 L824.9,536.4 L826.8,537.9 L828.7,539.5 L830.5,541.1 L832.4,542.6 L834.3,544.1 L836.2,545.6
		L838.1,547.1 L840.0,548.5 L841.9,550.0 L843.8,551.4 L845.6,552.7 L847.5,554.1 L849.4,555.4 L851.3,556.7
		L853.2,557.9 L855.1,559.1 L857.0,560.4 L858.9,561.5 L860.7,562.7 L862.6,563.9 L864.5,565.0 L866.4,566.1
		L868.3,567.2 L870.2,568.4 L872.1,569.5 L873.9,570.6 L875.8,571.7 L877.7,572.8 L879.6,574.0 L881.5,575.1
		L883.4,576.3 L885.3,577.4 L887.2,578.6 L889.0,579.8 L890.9,580.9 L892.8,582.1 L894.7,583.3 L896.6,584.4
		L898.5,585.6 L900.4,586.7 L902.3,587.8 L904.1,588.9 L906.0,590.0 L907.9,591.1 L909.8,592.1 L911.7,593.1
		L913.6,594.1 L915.5,595.0 L917.4,595.9 L919.2,596.8 L921.1,597.7 L923.0,598.6 L924.9,599.4 L926.8,600.2
		L928.7,601.0 L930.6,601.8 L932.5,602.6 L934.3,603.4 L936.2,604.3 L938.1,605.1 L940.0,605.9 L941.9,606.7
		L943.8,607.5 L945.7,608.4 L947.5,609.3 L949.4,610.1 L951.3,611.0 L953.2,611.9 L955.1,612.7 L957.0,613.6
		L958.9,614.5 L960.8,615.4 L962.6,616.2 L964.5,617.1 L966.4,617.9 L968.3,618.7 L970.2,619.5 L972.1,620.2
		L974.0,621.0 L975.9,621.7 L977.7,622.3 L979.6,623.0 L981.5,623.6 L983.4,624.2 L985.3,624.8 L987.2,625.3
		L989.1,625.8 L991.0,626.4 L992.8,626.9 L994.7,627.4 L996.6,627.9 L998.5,628.4 L1000.4,628.9 L1002.3,629.4
		L1004.2,629.9 L1006.1,630.4 L1007.9,630.9 L1009.8,631.4 L1011.7,631.9 L1013.6,632.5  '/></g>
	</g>
	<g id="gnuplot_plot_2" ><title>Confidence interval</title>
<g fill="none" color="white" stroke="rgb( 31, 120, 180)" stroke-width="1.00" stroke-linecap="butt" stroke-linejoin="miter">
</g>
<g fill="none" color="black" stroke="currentColor" stroke-width="1.00" stroke-linecap="butt" stroke-linejoin="miter">
	<g transform="translate(1089.0,85.0)" stroke="none" fill="black" font-family="Helvetica" font-size="12.00"  text-anchor="start">
		<text><tspan font-family="Helvetica" >Confidence interval</tspan></text>
	</g>
</g>
<g fill="none" color="black" stroke="currentColor" stroke-width="1.00" stroke-linecap="butt" stroke-linejoin="miter">
	<g stroke='none' shape-rendering='crispEdges'>
		<polygon fill = 'rgb( 31, 120, 180)' fill-opacity = '0.250000' points = '1038.5,85.6 1080.7,85.6 1080.7,76.6 1038.5,76.6 '/>
		<polygon fill = 'rgb( 31, 120, 180)' fill-opacity = '0.250000' points = '158.7,546.5 158.7,662.4 160.6,662.4 160.6,543.7 '/>
		<polygon fill = 'rgb( 31, 120, 180)' fill-opacity = '0.250000' points = '160.6,543.7 160.6,662.4 162.5,662.4 162.5,540.9 '/>
		<polygon fill = 'rgb( 31, 120, 180)' fill-opacity = '0.250000' points = '162.5,540.9 162.5,662.4 164.4,662.4 164.4,538.0 '/>
		<polygon fill = 'rgb( 31, 120, 180)' fill-opacity = '0.250000' points = '164.4,538.0 164.4,662.4 166.3,662.4 166.3,535.2 '/>
		<polygon fill = 'rgb( 31, 120, 180)' fill-opacity = '0.250000' points = '166.3,535.2 166.3,662.4 168.1,662.4 168.1,532.3 '/>
		<polygon fill = 'rgb( 31, 120, 180)' fill-opacity = '0.250000' points = '168.1,532.3 168.1,662.4 170.0,662.4 170.0,529.4 '/>
		<polygon fill = 'rgb( 31, 120, 180)' fill-opacity = '0.250000' points = '170.0,529.4 170.0,662.4 171.9,662.4 171.9,526.5 '/>
		<polygon fill = 'rgb( 31, 120, 180)' fill-opacity = '0.250000' points = '171.9,526.5 171.9,662.4 173.8,662.4 173.8,523.5 '/>
		<polygon fill = 'rgb( 31, 120, 180)' fill-opacity = '0.250000' points = '173.8,523.5 173.8,662.4 175.7,662.4 175.7,520.5 '/>
		<polygon fill = 'rgb( 31, 120, 180)' fill-opacity = '0.250000' points = '175.7,520.5 175.7,662.4 177.6,662.4 177.6,517.5 '/>
		<polygon fill = 'rgb( 31, 120, 180)' fill-opacity = '0.250000' points = '177.6,517.5 177.6,662.4 179.5,662.4 179.5,514.4 '/>
		<polygon fill = 'rgb( 31, 120, 180)' fill-opacity = '0.250000' points = '179.5,514.4 179.5,662.4 181.4,662.4 181.4,511.4 '/>
		<polygon fill = 'rgb( 31, 120, 180)' fill-opacity = '0.250000' points = '181.4,511.4 181.4,662.4 183.2,662.4 183.2,508.3 '/>
		<polygon fill = 'rgb( 31, 120, 180)' fill-opacity = '0.250000' points = '183.2,508.3 183.2,662.4 185.1,662.4 185.1,505.1 '/>
		<polygon fill = 'rgb( 31, 120, 180)' fill-opacity = '0.250000' points = '185.1,505.1 185.1,662.4 187.0,662.4 187.0,501.9 '/>
		<polygon fill = 'rgb( 31, 120, 180)' fill-opacity = '0.250000' points = '187.0,501.9 187.0,662.4 188.9,662.4 188.9,498.7 '/>
		<polygon fill = 'rgb( 31, 120, 180)' fill-opacity = '0.250000' points = '188.9,498.7 188.9,662.4 190.8,662.4 190.8,495.5 '/>
		<polygon fill = 'rgb( 31, 120, 180)' fill-opacity = '0.250000' points = '190.8,495.5 190.8,662.4 192.7,662.4 192.7,492.2 '/>
		<polygon fill = 'rgb( 31, 120, 180)' fill-opacity = '0.250000' points = '192.7,492.2 192.7,662.4 194.6,662.4 194.6,488.9 '/>
		<polygon fill = 'rgb( 31, 120, 180)' fill-opacity = '0.250000' points = '194.6,488.9 194.6,662.4 196.5,662.4 196.5,485.5 '/>
		<polygon fill = 'rgb( 31, 120, 180)' fill-opacity = '0.250000' points = '196.5,485.5 196.5,662.4 198.3,662.4 198.3,482.1 '/>
		<polygon fill = 'rgb( 31, 120, 180)' fill-opacity = '0.250000' points = '198.3,482.1 198.3,662.4 200.2,662.4 200.2,478.7 '/>
		<polygon fill = 'rgb( 31, 120, 180)' fill-opacity = '0.250000' points = '200.2,478.7 200.2,662.4 202.1,662.4 202.1,475.3 '/>
		<polygon fill = 'rgb( 31, 120, 180)' fill-opacity = '0.250000' points = '202.1,475.3 202.1,662.4 204.0,662.4 204.0,471.8 '/>
		<polygon fill = 'rgb( 31, 120, 180)' fill-opacity = '0.250000' points = '204.0,471.8 204.0,662.4 205.9,662.4 205.9,468.4 '/>
		<polygon fill = 'rgb( 31, 120, 180)' fill-opacity = '0.250000' points = '205.9,468.4 205.9,662.4 207.8,662.4 207.8,464.8 '/>
		<polygon fill = 'rgb( 31, 120, 180)' fill-opacity = '0.250000' points = '207.8,464.8 207.8,662.4 209.7,662.4 209.7,461.3 '/>
		<polygon fill = 'rgb( 31, 120, 180)' fill-opacity = '0.250000' points = '209.7,461.3 209.7,662.4 211.6,662.4 211.6,457.8 '/>
		<polygon fill = 'rgb( 31, 120, 180)' fill-opacity = '0.250000' points = '211.6,457.8 211.6,662.4 213.4,662.4 213.4,454.2 '/>
		<polygon fill = 'rgb( 31, 120, 180)' fill-opacity = '0.250000' points = '213.4,454.2 213.4,662.4 215.3,662.4 215.3,450.6 '/>
		<polygon fill = 'rgb( 31, 120, 180)' fill-opacity = '0.250000' points = '215.3,450.6 215.3,662.4 217.2,662.4 217.2,447.0 '/>
		<polygon fill = 'rgb( 31, 120, 180)' fill-opacity = '0.250000' points = '217.2,447.0 217.2,662.4 219.1,662.4 219.1,443.3 '/>
		<polygon fill = 'rgb( 31, 120, 180)' fill-opacity = '0.250000' points = '219.1,443.3 219.1,662.4 221.0,662.4 221.0,439.7 '/>
		<polygon fill = 'rgb( 31, 120, 180)' fill-opacity = '0.250000' points = '221.0,439.7 221.0,662.4 222.9,662.4 222.9,436.0 '/>
		<polygon fill = 'rgb( 31, 120, 180)' fill-opacity = '0.250000' points = '222.9,436.0 222.9,662.4 224.8,662.4 224.8,432.3 '/>
		<polygon fill = 'rgb( 31, 120, 180)' fill-opacity = '0.250000' points = '224.8,432.3 224.8,662.4 226.6,662.4 226.6,428.5 '/>
		<polygon fill = 'rgb( 31, 120, 180)' fill-opacity = '0.250000' points = '226.6,428.5 226.6,662.4 228.5,662.4 228.5,424.7 '/>
		<polygon fill = 'rgb( 31, 120, 180)' fill-opacity = '0.250000' points = '228.5,424.7 228.5,662.4 230.4,662.4 230.4,420.9 '/>
		<polygon fill = 'rgb( 31, 120, 180)' fill-opacity = '0.250000' points = '230.4,420.9 230.4,662.4 232.3,662.4 232.3,417.1 '/>
		<polygon fill = 'rgb( 31, 120, 180)' fill-opacity = '0.250000' points = '232.3,417.1 232.3,662.4 234.2,662.4 234.2,413.2 '/>
		<polygon fill = 'rgb( 31, 120, 180)' fill-opacity = '0.250000' points = '234.2,413.2 234.2,662.4 236.1,662.4 236.1,409.4 '/>
		<polygon fill = 'rgb( 31, 120, 180)' fill-opacity = '0.250000' points = '236.1,409.4 236.1,662.4 238.0,662.4 238.0,405.4 '/>
		<polygon fill = 'rgb( 31, 120, 180)' fill-opacity = '0.250000' points = '238.0,405.4 238.0,662.4 239.9,662.4 239.9,401.5 '/>
		<polygon fill = 'rgb( 31, 120, 180)' fill-opacity = '0.250000' points = '239.9,401.5 239.9,662.4 241.7,662.4 241.7,397.5 '/>
		<polygon fill = 'rgb( 31, 120, 180)' fill-opacity = '0.250000' points = '241.7,397.5 241.7,662.4 243.6,662.4 243.6,393.5 '/>
		<polygon fill = 'rgb( 31, 120, 180)' fill-opacity = '0.250000' points = '243.6,393.5 243.6,662.4 245.5,662.4 245.5,389.5 '/>
		<polygon fill = 'rgb( 31, 120, 180)' fill-opacity = '0.250000' points = '245.5,389.5 245.5,662.4 247.4,662.4 247.4,385.4 '/>
		<polygon fill = 'rgb( 31, 120, 180)' fill-opacity = '0.250000' points = '247.4,385.4 247.4,662.4 249.3,662.4 249.3,381.4 '/>
		<polygon fill = 'rgb( 31, 120, 180)' fill-opacity = '0.250000' points = '249.3,381.4 249.3,662.4 251.2,662.4 251.2,377.3 '/>
		<polygon fill = 'rgb( 31, 120, 180)' fill-opacity = '0.250000' points = '251.2,377.3 251.2,662.4 253.1,662.4 253.1,373.3 '/>
		<polygon fill = 'rgb( 31, 120, 180)' fill-opacity = '0.250000' points = '253.1,373.3 253.1,662.4 255.0,662.4 255.0,369.2 '/>
		<polygon fill = 'rgb( 31, 120, 180)' fill-opacity = '0.250000' points = '255.0,369.2 255.0,662.4 256.8,662.4 256.8,365.1 '/>
		<polygon fill = 'rgb( 31, 120, 180)' fill-opacity = '0.250000' points = '256.8,365.1 256.8,662.4 258.7,662.4 258.7,361.1 '/>
		<polygon fill = 'rgb( 31, 120, 180)' fill-opacity = '0.250000' points = '258.7,361.1 258.7,662.4 260.6,662.4 260.6,357.1 '/>
		<polygon fill = 'rgb( 31, 120, 180)' fill-opacity = '0.250000' points = '260.6,357.1 260.6,662.4 262.5,662.4 262.5,353.0 '/>
		<polygon fill = 'rgb( 31, 120, 180)' fill-opacity = '0.250000' points = '262.5,353.0 262.5,662.4 264.4,662.4 264.4,349.0 '/>
		<polygon fill = 'rgb( 31, 120, 180)' fill-opacity = '0.250000' points = '264.4,349.0 264.4,662.4 266.3,662.4 266.3,345.1 '/>
		<polygon fill = 'rgb( 31, 120, 180)' fill-opacity = '0.250000' points = '266.3,345.1 266.3,662.4 268.2,662.4 268.2,341.1 '/>
		<polygon fill = 'rgb( 31, 120, 180)' fill-opacity = '0.250000' points = '268.2,341.1 268.2,662.4 270.1,662.4 270.1,337.2 '/>
		<polygon fill = 'rgb( 31, 120, 180)' fill-opacity = '0.250000' points = '270.1,337.2 270.1,662.4 271.9,662.4 271.9,333.3 '/>
		<polygon fill = 'rgb( 31, 120, 180)' fill-opacity = '0.250000' points = '271.9,333.3 271.9,662.4 273.8,662.4 273.8,329.5 '/>
		<polygon fill = 'rgb( 31, 120, 180)' fill-opacity = '0.250000' points = '273.8,329.5 273.8,662.4 275.7,662.4 275.7,325.6 '/>
		<polygon fill = 'rgb( 31, 120, 180)' fill-opacity = '0.250000' points = '275.7,325.6 275.7,662.4 277.6,662.4 277.6,321.8 '/>
		<polygon fill = 'rgb( 31, 120, 180)' fill-opacity = '0.250000' points = '277.6,321.8 277.6,662.4 279.5,662.4 279.5,318.0 '/>
		<polygon fill = 'rgb( 31, 120, 180)' fill-opacity = '0.250000' points = '279.5,318.0 279.5,662.4 281.4,662.4 281.4,314.3 '/>
		<polygon fill = 'rgb( 31, 120, 180)' fill-opacity = '0.250000' points = '281.4,314.3 281.4,662.4 283.3,662.4 283.3,310.6 '/>
		<polygon fill = 'rgb( 31, 120, 180)' fill-opacity = '0.250000' points = '283.3,310.6 283.3,662.4 285.2,662.4 285.2,306.9 '/>
		<polygon fill = 'rgb( 31, 120, 180)' fill-opacity = '0.250000' points = '285.2,306.9 285.2,662.4 287.0,662.4 287.0,303.2 '/>
		<polygon fill = 'rgb( 31, 120, 180)' fill-opacity = '0.250000' points = '287.0,303.2 287.0,662.4 288.9,662.4 288.9,299.6 '/>
		<polygon fill = 'rgb( 31, 120, 180)' fill-opacity = '0.250000' points = '288.9,299.6 288.9,662.4 290.8,662.4 290.8,296.0 '/>
		<polygon fill = 'rgb( 31, 120, 180)' fill-opacity = '0.250000' points = '290.8,296.0 290.8,662.4 292.7,662.4 292.7,292.4 '/>
		<polygon fill = 'rgb( 31, 120, 180)' fill-opacity = '0.250000' points = '292.7,292.4 292.7,662.4 294.6,662.4 294.6,288.9 '/>
		<polygon fill = 'rgb( 31, 120, 180)' fill-opacity = '0.250000' points = '294.6,288.9 294.6,662.4 296.5,662.4 296.5,285.4 '/>
		<polygon fill = 'rgb( 31, 120, 180)' fill-opacity = '0.250000' points = '296.5,285.4 296.5,662.4 298.4,662.4 298.4,281.9 '/>
		<polygon fill = 'rgb( 31, 120, 180)' fill-opacity = '0.250000' points = '298.4,281.9 298.4,662.4 300.2,662.4 300.2,278.5 '/>
		<polygon fill = 'rgb( 31, 120, 180)' fill-opacity = '0.250000' points = '300.2,278.5 300.2,662.4 302.1,662.4 302.1,275.1 '/>
		<polygon fill = 'rgb( 31, 120, 180)' fill-opacity = '0.250000' points = '302.1,275.1 302.1,662.4 304.0,662.4 304.0,271.8 '/>
		<polygon fill = 'rgb( 31, 120, 180)' fill-opacity = '0.250000' points = '304.0,271.8 304.0,662.4 305.9,662.4 305.9,268.5 '/>
		<polygon fill = 'rgb( 31, 120, 180)' fill-opacity = '0.250000' points = '305.9,268.5 305.9,662.4 307.8,662.4 307.8,265.3 '/>
		<polygon fill = 'rgb( 31, 120, 180)' fill-opacity = '0.250000' points = '307.8,265.3 307.8,662.4 309.7,662.4 309.7,262.1 '/>
		<polygon fill = 'rgb( 31, 120, 180)' fill-opacity = '0.250000' points = '309.7,262.1 309.7,662.4 311.6,662.4 311.6,258.9 '/>
		<polygon fill = 'rgb( 31, 120, 180)' fill-opacity = '0.250000' points = '311.6,258.9 311.6,662.4 313.5,662.4 313.5,255.8 '/>
		<polygon fill = 'rgb( 31, 120, 180)' fill-opacity = '0.250000' points = '313.5,255.8 313.5,662.4 315.3,662.4 315.3,252.8 '/>
		<polygon fill = 'rgb( 31, 120, 180)' fill-opacity = '0.250000' points = '315.3,252.8 315.3,662.4 317.2,662.4 317.2,249.8 '/>
		<polygon fill = 'rgb( 31, 120, 180)' fill-opacity = '0.250000' points = '317.2,249.8 317.2,662.4 319.1,662.4 319.1,246.9 '/>
		<polygon fill = 'rgb( 31, 120, 180)' fill-opacity = '0.250000' points = '319.1,246.9 319.1,662.4 321.0,662.4 321.0,244.0 '/>
		<polygon fill = 'rgb( 31, 120, 180)' fill-opacity = '0.250000' points = '321.0,244.0 321.0,662.4 322.9,662.4 322.9,241.2 '/>
		<polygon fill = 'rgb( 31, 120, 180)' fill-opacity = '0.250000' points = '322.9,241.2 322.9,662.4 324.8,662.4 324.8,238.4 '/>
		<polygon fill = 'rgb( 31, 120, 180)' fill-opacity = '0.250000' points = '324.8,238.4 324.8,662.4 326.7,662.4 326.7,235.7 '/>
		<polygon fill = 'rgb( 31, 120, 180)' fill-opacity = '0.250000' points = '326.7,235.7 326.7,662.4 328.6,662.4 328.6,233.0 '/>
		<polygon fill = 'rgb( 31, 120, 180)' fill-opacity = '0.250000' points = '328.6,233.0 328.6,662.4 330.4,662.4 330.4,230.4 '/>
		<polygon fill = 'rgb( 31, 120, 180)' fill-opacity = '0.250000' points = '330.4,230.4 330.4,662.4 332.3,662.4 332.3,227.9 '/>
		<polygon fill = 'rgb( 31, 120, 180)' fill-opacity = '0.250000' points = '332.3,227.9 332.3,662.4 334.2,662.4 334.2,225.4 '/>
		<polygon fill = 'rgb( 31, 120, 180)' fill-opacity = '0.250000' points = '334.2,225.4 334.2,662.4 336.1,662.4 336.1,222.9 '/>
		<polygon fill = 'rgb( 31, 120, 180)' fill-opacity = '0.250000' points = '336.1,222.9 336.1,662.4 338.0,662.4 338.0,220.5 '/>
		<polygon fill = 'rgb( 31, 120, 180)' fill-opacity = '0.250000' points = '338.0,220.5 338.0,662.4 339.9,662.4 339.9,218.2 '/>
		<polygon fill = 'rgb( 31, 120, 180)' fill-opacity = '0.250000' points = '339.9,218.2 339.9,662.4 341.8,662.4 341.8,215.9 '/>
		<polygon fill = 'rgb( 31, 120, 180)' fill-opacity = '0.250000' points = '341.8,215.9 341.8,662.4 343.7,662.4 343.7,213.6 '/>
		<polygon fill = 'rgb( 31, 120, 180)' fill-opacity = '0.250000' points = '343.7,213.6 343.7,662.4 345.5,662.4 345.5,211.4 '/>
		<polygon fill = 'rgb( 31, 120, 180)' fill-opacity = '0.250000' points = '345.5,211.4 345.5,662.4 347.4,662.4 347.4,209.3 '/>
		<polygon fill = 'rgb( 31, 120, 180)' fill-opacity = '0.250000' points = '347.4,209.3 347.4,662.4 349.3,662.4 349.3,207.1 '/>
		<polygon fill = 'rgb( 31, 120, 180)' fill-opacity = '0.250000' points = '349.3,207.1 349.3,662.4 351.2,662.4 351.2,205.1 '/>
		<polygon fill = 'rgb( 31, 120, 180)' fill-opacity = '0.250000' points = '351.2,205.1 351.2,662.4 353.1,662.4 353.1,203.0 '/>
		<polygon fill = 'rgb( 31, 120, 180)' fill-opacity = '0.250000' points = '353.1,203.0 353.1,662.4 355.0,662.4 355.0,201.0 '/>
		<polygon fill = 'rgb( 31, 120, 180)' fill-opacity = '0.250000' points = '355.0,201.0 355.0,662.4 356.9,662.4 356.9,199.0 '/>
		<polygon fill = 'rgb( 31, 120, 180)' fill-opacity = '0.250000' points = '356.9,199.0 356.9,662.4 358.8,662.4 358.8,197.0 '/>
		<polygon fill = 'rgb( 31, 120, 180)' fill-opacity = '0.250000' points = '358.8,197.0 358.8,662.4 360.6,662.4 360.6,195.1 '/>
		<polygon fill = 'rgb( 31, 120, 180)' fill-opacity = '0.250000' points = '360.6,195.1 360.6,662.4 362.5,662.4 362.5,193.2 '/>
		<polygon fill = 'rgb( 31, 120, 180)' fill-opacity = '0.250000' points = '362.5,193.2 362.5,662.4 364.4,662.4 364.4,191.3 '/>
		<polygon fill = 'rgb( 31, 120, 180)' fill-opacity = '0.250000' points = '364.4,191.3 364.4,662.4 366.3,662.4 366.3,189.4 '/>
		<polygon fill = 'rgb( 31, 120, 180)' fill-opacity = '0.250000' points = '366.3,189.4 366.3,662.4 368.2,662.4 368.2,187.5 '/>
		<polygon fill = 'rgb( 31, 120, 180)' fill-opacity = '0.250000' points = '368.2,187.5 368.2,662.4 370.1,662.4 370.1,185.6 '/>
		<polygon fill = 'rgb( 31, 120, 180)' fill-opacity = '0.250000' points = '370.1,185.6 370.1,662.4 372.0,662.4 372.0,183.7 '/>
		<polygon fill = 'rgb( 31, 120, 180)' fill-opacity = '0.250000' points = '372.0,183.7 372.0,662.4 373.8,662.4 373.8,181.8 '/>
		<polygon fill = 'rgb( 31, 120, 180)' fill-opacity = '0.250000' points = '373.8,181.8 373.8,662.4 375.7,662.4 375.7,180.0 '/>
		<polygon fill = 'rgb( 31, 120, 180)' fill-opacity = '0.250000' points = '375.7,180.0 375.7,662.4 377.6,662.4 377.6,178.1 '/>
		<polygon fill = 'rgb( 31, 120, 180)' fill-opacity = '0.250000' points = '377.6,178.1 377.6,662.4 379.5,662.4 379.5,176.2 '/>
		<polygon fill = 'rgb( 31, 120, 180)' fill-opacity = '0.250000' points = '379.5,176.2 379.5,662.4 381.4,662.4 381.4,174.3 '/>
		<polygon fill = 'rgb( 31, 120, 180)' fill-opacity = '0.250000' points = '381.4,174.3 381.4,662.4 383.3,662.4 383.3,172.5 '/>
		<polygon fill = 'rgb( 31, 120, 180)' fill-opacity = '0.250000' points = '383.3,172.5 383.3,662.4 385.2,662.4 385.2,170.6 '/>
		<polygon fill = 'rgb( 31, 120, 180)' fill-opacity = '0.250000' points = '385.2,170.6 385.2,662.4 387.1,662.4 387.1,168.7 '/>
		<polygon fill = 'rgb( 31, 120, 180)' fill-opacity = '0.250000' points = '387.1,168.7 387.1,662.4 388.9,662.4 388.9,166.8 '/>
		<polygon fill = 'rgb( 31, 120, 180)' fill-opacity = '0.250000' points = '388.9,166.8 388.9,662.4 390.8,662.4 390.8,164.9 '/>
		<polygon fill = 'rgb( 31, 120, 180)' fill-opacity = '0.250000' points = '390.8,164.9 390.8,662.4 392.7,662.4 392.7,163.1 '/>
		<polygon fill = 'rgb( 31, 120, 180)' fill-opacity = '0.250000' points = '392.7,163.1 392.7,662.4 394.6,662.4 394.6,161.2 '/>
		<polygon fill = 'rgb( 31, 120, 180)' fill-opacity = '0.250000' points = '394.6,161.2 394.6,662.4 396.5,662.4 396.5,159.3 '/>
		<polygon fill = 'rgb( 31, 120, 180)' fill-opacity = '0.250000' points = '396.5,159.3 396.5,662.4 398.4,662.4 398.4,157.4 '/>
		<polygon fill = 'rgb( 31, 120, 180)' fill-opacity = '0.250000' points = '398.4,157.4 398.4,662.4 400.3,662.4 400.3,155.6 '/>
		<polygon fill = 'rgb( 31, 120, 180)' fill-opacity = '0.250000' points = '400.3,155.6 400.3,662.4 402.2,662.4 402.2,153.7 '/>
		<polygon fill = 'rgb( 31, 120, 180)' fill-opacity = '0.250000' points = '402.2,153.7 402.2,662.4 404.0,662.4 404.0,151.9 '/>
		<polygon fill = 'rgb( 31, 120, 180)' fill-opacity = '0.250000' points = '404.0,151.9 404.0,662.4 405.9,662.4 405.9,150.1 '/>
		<polygon fill = 'rgb( 31, 120, 180)' fill-opacity = '0.250000' points = '405.9,150.1 405.9,662.4 407.8,662.4 407.8,148.3 '/>
		<polygon fill = 'rgb( 31, 120, 180)' fill-opacity = '0.250000' points = '407.8,148.3 407.8,662.4 409.7,662.4 409.7,146.6 '/>
		<polygon fill = 'rgb( 31, 120, 180)' fill-opacity = '0.250000' points = '409.7,146.6 409.7,662.4 411.6,662.4 411.6,144.8 '/>
		<polygon fill = 'rgb( 31, 120, 180)' fill-opacity = '0.250000' points = '411.6,144.8 411.6,662.4 413.5,662.4 413.5,143.2 '/>
		<polygon fill = 'rgb( 31, 120, 180)' fill-opacity = '0.250000' points = '413.5,143.2 413.5,662.4 415.4,662.4 415.4,141.5 '/>
		<polygon fill = 'rgb( 31, 120, 180)' fill-opacity = '0.250000' points = '415.4,141.5 415.4,662.4 417.3,662.4 417.3,139.9 '/>
		<polygon fill = 'rgb( 31, 120, 180)' fill-opacity = '0.250000' points = '417.3,139.9 417.3,662.4 419.1,662.4 419.1,138.4 '/>
		<polygon fill = 'rgb( 31, 120, 180)' fill-opacity = '0.250000' points = '419.1,138.4 419.1,662.4 421.0,662.4 421.0,136.9 '/>
		<polygon fill = 'rgb( 31, 120, 180)' fill-opacity = '0.250000' points = '421.0,136.9 421.0,662.4 422.9,662.4 422.9,135.4 '/>
		<polygon fill = 'rgb( 31, 120, 180)' fill-opacity = '0.250000' points = '422.9,135.4 422.9,662.4 424.8,662.4 424.8,134.0 '/>
		<polygon fill = 'rgb( 31, 120, 180)' fill-opacity = '0.250000' points = '424.8,134.0 424.8,662.4 426.7,662.4 426.7,132.7 '/>
		<polygon fill = 'rgb( 31, 120, 180)' fill-opacity = '0.250000' points = '426.7,132.7 426.7,662.4 428.6,662.4 428.6,131.4 '/>
		<polygon fill = 'rgb( 31, 120, 180)' fill-opacity = '0.250000' points = '428.6,131.4 428.6,662.4 430.5,662.4 430.5,130.2 '/>
		<polygon fill = 'rgb( 31, 120, 180)' fill-opacity = '0.250000' points = '430.5,130.2 430.5,662.4 432.4,662.4 432.4,129.1 '/>
		<polygon fill = 'rgb( 31, 120, 180)' fill-opacity = '0.250000' points = '432.4,129.1 432.4,662.4 434.2,662.4 434.2,128.0 '/>
		<polygon fill = 'rgb( 31, 120, 180)' fill-opacity = '0.250000' points = '434.2,128.0 434.2,662.4 436.1,662.4 436.1,127.0 '/>
		<polygon fill = 'rgb( 31, 120, 180)' fill-opacity = '0.250000' points = '436.1,127.0 436.1,662.4 438.0,662.4 438.0,126.1 '/>
		<polygon fill = 'rgb( 31, 120, 180)' fill-opacity = '0.250000' points = '438.0,126.1 438.0,662.4 439.9,662.4 439.9,125.2 '/>
		<polygon fill = 'rgb( 31, 120, 180)' fill-opacity = '0.250000' points = '439.9,125.2 439.9,662.4 441.8,662.4 441.8,124.4 '/>
		<polygon fill = 'rgb( 31, 120, 180)' fill-opacity = '0.250000' points = '441.8,124.4 441.8,662.4 443.7,662.4 443.7,123.8 '/>
		<polygon fill = 'rgb( 31, 120, 180)' fill-opacity = '0.250000' points = '443.7,123.8 443.7,662.4 445.6,662.4 445.6,123.2 '/>
		<polygon fill = 'rgb( 31, 120, 180)' fill-opacity = '0.250000' points = '445.6,123.2 445.6,662.4 447.4,662.4 447.4,122.7 '/>
		<polygon fill = 'rgb( 31, 120, 180)' fill-opacity = '0.250000' points = '447.4,122.7 447.4,662.4 449.3,662.4 449.3,122.3 '/>
		<polygon fill = 'rgb( 31, 120, 180)' fill-opacity = '0.250000' points = '449.3,122.3 449.3,662.4 451.2,662.4 451.2,122.0 '/>
		<polygon fill = 'rgb( 31, 120, 180)' fill-opacity = '0.250000' points = '451.2,122.0 451.2,662.4 453.1,662.4 453.1,121.8 '/>
		<polygon fill = 'rgb( 31, 120, 180)' fill-opacity = '0.250000' points = '453.1,121.8 453.1,662.4 455.0,662.4 455.0,121.7 '/>
		<polygon fill = 'rgb( 31, 120, 180)' fill-opacity = '0.250000' points = '455.0,121.7 455.0,662.4 456.9,662.4 456.9,121.7 '/>
		<polygon fill = 'rgb( 31, 120, 180)' fill-opacity = '0.250000' points = '456.9,121.7 456.9,662.4 458.8,662.4 458.8,121.8 '/>
		<polygon fill = 'rgb( 31, 120, 180)' fill-opacity = '0.250000' points = '458.8,121.8 458.8,662.4 460.7,662.4 460.7,122.1 '/>
		<polygon fill = 'rgb( 31, 120, 180)' fill-opacity = '0.250000' points = '460.7,122.1 460.7,662.4 462.5,662.4 462.5,122.4 '/>
		<polygon fill = 'rgb( 31, 120, 180)' fill-opacity = '0.250000' points = '462.5,122.4 462.5,662.4 464.4,662.4 464.4,122.9 '/>
		<polygon fill = 'rgb( 31, 120, 180)' fill-opacity = '0.250000' points = '464.4,122.9 464.4,662.4 466.3,662.4 466.3,123.5 '/>
		<polygon fill = 'rgb( 31, 120, 180)' fill-opacity = '0.250000' points = '466.3,123.5 466.3,662.4 468.2,662.4 468.2,124.1 '/>
		<polygon fill = 'rgb( 31, 120, 180)' fill-opacity = '0.250000' points = '468.2,124.1 468.2,662.4 470.1,662.4 470.1,124.9 '/>
		<polygon fill = 'rgb( 31, 120, 180)' fill-opacity = '0.250000' points = '470.1,124.9 470.1,662.4 472.0,662.4 472.0,125.8 '/>
		<polygon fill = 'rgb( 31, 120, 180)' fill-opacity = '0.250000' points = '472.0,125.8 472.0,662.4 473.9,662.4 473.9,126.7 '/>
		<polygon fill = 'rgb( 31, 120, 180)' fill-opacity = '0.250000' points = '473.9,126.7 473.9,662.4 475.8,662.4 475.8,127.7 '/>
		<polygon fill = 'rgb( 31, 120, 180)' fill-opacity = '0.250000' points = '475.8,127.7 475.8,662.4 477.6,662.4 477.6,128.8 '/>
		<polygon fill = 'rgb( 31, 120, 180)' fill-opacity = '0.250000' points = '477.6,128.8 477.6,662.4 479.5,662.4 479.5,129.9 '/>
		<polygon fill = 'rgb( 31, 120, 180)' fill-opacity = '0.250000' points = '479.5,129.9 479.5,662.4 481.4,662.4 481.4,131.1 '/>
		<polygon fill = 'rgb( 31, 120, 180)' fill-opacity = '0.250000' points = '481.4,131.1 481.4,662.4 483.3,662.4 483.3,132.3 '/>
		<polygon fill = 'rgb( 31, 120, 180)' fill-opacity = '0.250000' points = '483.3,132.3 483.3,662.4 485.2,662.4 485.2,133.6 '/>
		<polygon fill = 'rgb( 31, 120, 180)' fill-opacity = '0.250000' points = '485.2,133.6 485.2,662.4 487.1,662.4 487.1,134.9 '/>
		<polygon fill = 'rgb( 31, 120, 180)' fill-opacity = '0.250000' points = '487.1,134.9 487.1,662.4 489.0,662.4 489.0,136.2 '/>
		<polygon fill = 'rgb( 31, 120, 180)' fill-opacity = '0.250000' points = '489.0,136.2 489.0,662.4 490.9,662.4 490.9,137.5 '/>
		<polygon fill = 'rgb( 31, 120, 180)' fill-opacity = '0.250000' points = '490.9,137.5 490.9,662.4 492.7,662.4 492.7,138.9 '/>
		<polygon fill = 'rgb( 31, 120, 180)' fill-opacity = '0.250000' points = '492.7,138.9 492.7,662.4 494.6,662.4 494.6,140.2 '/>
		<polygon fill = 'rgb( 31, 120, 180)' fill-opacity = '0.250000' points = '494.6,140.2 494.6,662.4 496.5,662.4 496.5,141.6 '/>
		<polygon fill = 'rgb( 31, 120, 180)' fill-opacity = '0.250000' points = '496.5,141.6 496.5,662.4 498.4,662.4 498.4,143.0 '/>
		<polygon fill = 'rgb( 31, 120, 180)' fill-opacity = '0.250000' points = '498.4,143.0 498.4,662.4 500.3,662.4 500.3,144.4 '/>
		<polygon fill = 'rgb( 31, 120, 180)' fill-opacity = '0.250000' points = '500.3,144.4 500.3,662.4 502.2,662.4 502.2,145.8 '/>
		<polygon fill = 'rgb( 31, 120, 180)' fill-opacity = '0.250000' points = '502.2,145.8 502.2,662.4 504.1,662.4 504.1,147.2 '/>
		<polygon fill = 'rgb( 31, 120, 180)' fill-opacity = '0.250000' points = '504.1,147.2 504.1,662.4 506.0,662.4 506.0,148.6 '/>
		<polygon fill = 'rgb( 31, 120, 180)' fill-opacity = '0.250000' points = '506.0,148.6 506.0,662.4 507.8,662.4 507.8,150.0 '/>
		<polygon fill = 'rgb( 31, 120, 180)' fill-opacity = '0.250000' points = '507.8,150.0 507.8,662.4 509.7,662.4 509.7,151.4 '/>
		<polygon fill = 'rgb( 31, 120, 180)' fill-opacity = '0.250000' points = '509.7,151.4 509.7,662.4 511.6,662.4 511.6,152.8 '/>
		<polygon fill = 'rgb( 31, 120, 180)' fill-opacity = '0.250000' points = '511.6,152.8 511.6,662.4 513.5,662.4 513.5,154.3 '/>
		<polygon fill = 'rgb( 31, 120, 180)' fill-opacity = '0.250000' points = '513.5,154.3 513.5,662.4 515.4,662.4 515.4,155.7 '/>
		<polygon fill = 'rgb( 31, 120, 180)' fill-opacity = '0.250000' points = '515.4,155.7 515.4,662.4 517.3,662.4 517.3,157.2 '/>
		<polygon fill = 'rgb( 31, 120, 180)' fill-opacity = '0.250000' points = '517.3,157.2 517.3,662.4 519.2,662.4 519.2,158.6 '/>
		<polygon fill = 'rgb( 31, 120, 180)' fill-opacity = '0.250000' points = '519.2,158.6 519.2,662.4 521.0,662.4 521.0,160.1 '/>
		<polygon fill = 'rgb( 31, 120, 180)' fill-opacity = '0.250000' points = '521.0,160.1 521.0,662.4 522.9,662.4 522.9,161.6 '/>
		<polygon fill = 'rgb( 31, 120, 180)' fill-opacity = '0.250000' points = '522.9,161.6 522.9,662.4 524.8,662.4 524.8,163.1 '/>
		<polygon fill = 'rgb( 31, 120, 180)' fill-opacity = '0.250000' points = '524.8,163.1 524.8,662.4 526.7,662.4 526.7,164.6 '/>
		<polygon fill = 'rgb( 31, 120, 180)' fill-opacity = '0.250000' points = '526.7,164.6 526.7,662.4 528.6,662.4 528.6,166.1 '/>
		<polygon fill = 'rgb( 31, 120, 180)' fill-opacity = '0.250000' points = '528.6,166.1 528.6,662.4 530.5,662.4 530.5,167.7 '/>
		<polygon fill = 'rgb( 31, 120, 180)' fill-opacity = '0.250000' points = '530.5,167.7 530.5,662.4 532.4,662.4 532.4,169.2 '/>
		<polygon fill = 'rgb( 31, 120, 180)' fill-opacity = '0.250000' points = '532.4,169.2 532.4,662.4 534.3,662.4 534.3,170.7 '/>
		<polygon fill = 'rgb( 31, 120, 180)' fill-opacity = '0.250000' points = '534.3,170.7 534.3,662.4 536.1,662.4 536.1,172.2 '/>
		<polygon fill = 'rgb( 31, 120, 180)' fill-opacity = '0.250000' points = '536.1,172.2 536.1,662.4 538.0,662.4 538.0,173.7 '/>
		<polygon fill = 'rgb( 31, 120, 180)' fill-opacity = '0.250000' points = '538.0,173.7 538.0,662.4 539.9,662.4 539.9,175.2 '/>
		<polygon fill = 'rgb( 31, 120, 180)' fill-opacity = '0.250000' points = '539.9,175.2 539.9,662.4 541.8,662.4 541.8,176.7 '/>
		<polygon fill = 'rgb( 31, 120, 180)' fill-opacity = '0.250000' points = '541.8,176.7 541.8,662.4 543.7,662.4 543.7,178.2 '/>
		<polygon fill = 'rgb( 31, 120, 180)' fill-opacity = '0.250000' points = '543.7,178.2 543.7,662.4 545.6,662.4 545.6,179.7 '/>
		<polygon fill = 'rgb( 31, 120, 180)' fill-opacity = '0.250000' points = '545.6,179.7 545.6,662.4 547.5,662.4 547.5,181.2 '/>
		<polygon fill = 'rgb( 31, 120, 180)' fill-opacity = '0.250000' points = '547.5,181.2 547.5,662.4 549.4,662.4 549.4,182.7 '/>
		<polygon fill = 'rgb( 31, 120, 180)' fill-opacity = '0.250000' points = '549.4,182.7 549.4,662.4 551.2,662.4 551.2,184.2 '/>
		<polygon fill = 'rgb( 31, 120, 180)' fill-opacity = '0.250000' points = '551.2,184.2 551.2,662.4 553.1,662.4 553.1,185.8 '/>
		<polygon fill = 'rgb( 31, 120, 180)' fill-opacity = '0.250000' points = '553.1,185.8 553.1,662.4 555.0,662.4 555.0,187.3 '/>
		<polygon fill = 'rgb( 31, 120, 180)' fill-opacity = '0.250000' points = '555.0,187.3 555.0,662.4 556.9,662.4 556.9,188.9 '/>
		<polygon fill = 'rgb( 31, 120, 180)' fill-opacity = '0.250000' points = '556.9,188.9 556.9,662.4 558.8,662.4 558.8,190.4 '/>
		<polygon fill = 'rgb( 31, 120, 180)' fill-opacity = '0.250000' points = '558.8,190.4 558.8,662.4 560.7,662.4 560.7,192.1 '/>
		<polygon fill = 'rgb( 31, 120, 180)' fill-opacity = '0.250000' points = '560.7,192.1 560.7,662.4 562.6,662.4 562.6,193.7 '/>
		<polygon fill = 'rgb( 31, 120, 180)' fill-opacity = '0.250000' points = '562.6,193.7 562.6,662.4 564.5,662.4 564.5,195.5 '/>
		<polygon fill = 'rgb( 31, 120, 180)' fill-opacity = '0.250000' points = '564.5,195.5 564.5,662.4 566.3,662.4 566.3,197.2 '/>
		<polygon fill = 'rgb( 31, 120, 180)' fill-opacity = '0.250000' points = '566.3,197.2 566.3,662.4 568.2,662.4 568.2,199.1 '/>
		<polygon fill = 'rgb( 31, 120, 180)' fill-opacity = '0.250000' points = '568.2,199.1 568.2,662.4 570.1,662.4 570.1,201.0 '/>
		<polygon fill = 'rgb( 31, 120, 180)' fill-opacity = '0.250000' points = '570.1,201.0 570.1,662.4 572.0,662.4 572.0,203.0 '/>
		<polygon fill = 'rgb( 31, 120, 180)' fill-opacity = '0.250000' points = '572.0,203.0 572.0,662.4 573.9,662.4 573.9,205.1 '/>
		<polygon fill = 'rgb( 31, 120, 180)' fill-opacity = '0.250000' points = '573.9,205.1 573.9,662.4 575.8,662.4 575.8,207.2 '/>
		<polygon fill = 'rgb( 31, 120, 180)' fill-opacity = '0.250000' points = '575.8,207.2 575.8,662.4 577.7,662.4 577.7,209.5 '/>
		<polygon fill = 'rgb( 31, 120, 180)' fill-opacity = '0.250000' points = '577.7,209.5 577.7,662.4 579.5,662.4 579.5,211.8 '/>
		<polygon fill = 'rgb( 31, 120, 180)' fill-opacity = '0.250000' points = '579.5,211.8 579.5,662.4 581.4,662.4 581.4,214.2 '/>
		<polygon fill = 'rgb( 31, 120, 180)' fill-opacity = '0.250000' points = '581.4,214.2 581.4,662.4 583.3,662.4 583.3,216.7 '/>
		<polygon fill = 'rgb( 31, 120, 180)' fill-opacity = '0.250000' points = '583.3,216.7 583.3,662.4 585.2,662.4 585.2,219.3 '/>
		<polygon fill = 'rgb( 31, 120, 180)' fill-opacity = '0.250000' points = '585.2,219.3 585.2,662.4 587.1,662.4 587.1,221.9 '/>
		<polygon fill = 'rgb( 31, 120, 180)' fill-opacity = '0.250000' points = '587.1,221.9 587.1,662.4 589.0,662.4 589.0,224.6 '/>
		<polygon fill = 'rgb( 31, 120, 180)' fill-opacity = '0.250000' points = '589.0,224.6 589.0,662.4 590.9,662.4 590.9,227.4 '/>
		<polygon fill = 'rgb( 31, 120, 180)' fill-opacity = '0.250000' points = '590.9,227.4 590.9,662.4 592.8,662.4 592.8,230.2 '/>
		<polygon fill = 'rgb( 31, 120, 180)' fill-opacity = '0.250000' points = '592.8,230.2 592.8,662.4 594.6,662.4 594.6,233.1 '/>
		<polygon fill = 'rgb( 31, 120, 180)' fill-opacity = '0.250000' points = '594.6,233.1 594.6,662.4 596.5,662.4 596.5,236.1 '/>
		<polygon fill = 'rgb( 31, 120, 180)' fill-opacity = '0.250000' points = '596.5,236.1 596.5,662.4 598.4,662.4 598.4,239.0 '/>
		<polygon fill = 'rgb( 31, 120, 180)' fill-opacity = '0.250000' points = '598.4,239.0 598.4,662.4 600.3,662.4 600.3,242.0 '/>
		<polygon fill = 'rgb( 31, 120, 180)' fill-opacity = '0.250000' points = '600.3,242.0 600.3,662.4 602.2,662.4 602.2,245.1 '/>
		<polygon fill = 'rgb( 31, 120, 180)' fill-opacity = '0.250000' points = '602.2,245.1 602.2,662.4 604.1,662.4 604.1,248.1 '/>
		<polygon fill = 'rgb( 31, 120, 180)' fill-opacity = '0.250000' points = '604.1,248.1 604.1,662.4 606.0,662.4 606.0,251.2 '/>
		<polygon fill = 'rgb( 31, 120, 180)' fill-opacity = '0.250000' points = '606.0,251.2 606.0,662.4 607.9,662.4 607.9,254.3 '/>
		<polygon fill = 'rgb( 31, 120, 180)' fill-opacity = '0.250000' points = '607.9,254.3 607.9,662.4 609.7,662.4 609.7,257.3 '/>
		<polygon fill = 'rgb( 31, 120, 180)' fill-opacity = '0.250000' points = '609.7,257.3 609.7,662.4 611.6,662.4 611.6,260.4 '/>
		<polygon fill = 'rgb( 31, 120, 180)' fill-opacity = '0.250000' points = '611.6,260.4 611.6,662.4 613.5,662.4 613.5,263.5 '/>
		<polygon fill = 'rgb( 31, 120, 180)' fill-opacity = '0.250000' points = '613.5,263.5 613.5,662.4 615.4,662.4 615.4,266.6 '/>
		<polygon fill = 'rgb( 31, 120, 180)' fill-opacity = '0.250000' points = '615.4,266.6 615.4,662.4 617.3,662.4 617.3,269.6 '/>
		<polygon fill = 'rgb( 31, 120, 180)' fill-opacity = '0.250000' points = '617.3,269.6 617.3,662.4 619.2,662.4 619.2,272.7 '/>
		<polygon fill = 'rgb( 31, 120, 180)' fill-opacity = '0.250000' points = '619.2,272.7 619.2,662.4 621.1,662.4 621.1,275.7 '/>
		<polygon fill = 'rgb( 31, 120, 180)' fill-opacity = '0.250000' points = '621.1,275.7 621.1,662.4 623.0,662.4 623.0,278.7 '/>
		<polygon fill = 'rgb( 31, 120, 180)' fill-opacity = '0.250000' points = '623.0,278.7 623.0,662.4 624.8,662.4 624.8,281.7 '/>
		<polygon fill = 'rgb( 31, 120, 180)' fill-opacity = '0.250000' points = '624.8,281.7 624.8,662.4 626.7,662.4 626.7,284.6 '/>
		<polygon fill = 'rgb( 31, 120, 180)' fill-opacity = '0.250000' points = '626.7,284.6 626.7,662.4 628.6,662.4 628.6,287.5 '/>
		<polygon fill = 'rgb( 31, 120, 180)' fill-opacity = '0.250000' points = '628.6,287.5 628.6,662.4 630.5,662.4 630.5,290.4 '/>
		<polygon fill = 'rgb( 31, 120, 180)' fill-opacity = '0.250000' points = '630.5,290.4 630.5,662.4 632.4,662.4 632.4,293.2 '/>
		<polygon fill = 'rgb( 31, 120, 180)' fill-opacity = '0.250000' points = '632.4,293.2 632.4,662.4 634.3,662.4 634.3,296.0 '/>
		<polygon fill = 'rgb( 31, 120, 180)' fill-opacity = '0.250000' points = '634.3,296.0 634.3,662.4 636.2,662.4 636.2,298.8 '/>
		<polygon fill = 'rgb( 31, 120, 180)' fill-opacity = '0.250000' points = '636.2,298.8 636.2,662.4 638.1,662.4 638.1,301.5 '/>
		<polygon fill = 'rgb( 31, 120, 180)' fill-opacity = '0.250000' points = '638.1,301.5 638.1,662.4 639.9,662.4 639.9,304.2 '/>
		<polygon fill = 'rgb( 31, 120, 180)' fill-opacity = '0.250000' points = '639.9,304.2 639.9,662.4 641.8,662.4 641.8,306.9 '/>
		<polygon fill = 'rgb( 31, 120, 180)' fill-opacity = '0.250000' points = '641.8,306.9 641.8,662.4 643.7,662.4 643.7,309.5 '/>
		<polygon fill = 'rgb( 31, 120, 180)' fill-opacity = '0.250000' points = '643.7,309.5 643.7,662.4 645.6,662.4 645.6,312.1 '/>
		<polygon fill = 'rgb( 31, 120, 180)' fill-opacity = '0.250000' points = '645.6,312.1 645.6,662.4 647.5,662.4 647.5,314.7 '/>
		<polygon fill = 'rgb( 31, 120, 180)' fill-opacity = '0.250000' points = '647.5,314.7 647.5,662.4 649.4,662.4 649.4,317.2 '/>
		<polygon fill = 'rgb( 31, 120, 180)' fill-opacity = '0.250000' points = '649.4,317.2 649.4,662.4 651.3,662.4 651.3,319.7 '/>
		<polygon fill = 'rgb( 31, 120, 180)' fill-opacity = '0.250000' points = '651.3,319.7 651.3,662.4 653.1,662.4 653.1,322.3 '/>
		<polygon fill = 'rgb( 31, 120, 180)' fill-opacity = '0.250000' points = '653.1,322.3 653.1,662.4 655.0,662.4 655.0,324.7 '/>
		<polygon fill = 'rgb( 31, 120, 180)' fill-opacity = '0.250000' points = '655.0,324.7 655.0,662.4 656.9,662.4 656.9,327.2 '/>
		<polygon fill = 'rgb( 31, 120, 180)' fill-opacity = '0.250000' points = '656.9,327.2 656.9,662.4 658.8,662.4 658.8,329.7 '/>
		<polygon fill = 'rgb( 31, 120, 180)' fill-opacity = '0.250000' points = '658.8,329.7 658.8,662.4 660.7,662.4 660.7,332.2 '/>
		<polygon fill = 'rgb( 31, 120, 180)' fill-opacity = '0.250000' points = '660.7,332.2 660.7,662.4 662.6,662.4 662.6,334.6 '/>
		<polygon fill = 'rgb( 31, 120, 180)' fill-opacity = '0.250000' points = '662.6,334.6 662.6,662.4 664.5,662.4 664.5,337.1 '/>
		<polygon fill = 'rgb( 31, 120, 180)' fill-opacity = '0.250000' points = '664.5,337.1 664.5,662.4 666.4,662.4 666.4,339.6 '/>
		<polygon fill = 'rgb( 31, 120, 180)' fill-opacity = '0.250000' points = '666.4,339.6 666.4,662.4 668.2,662.4 668.2,342.1 '/>
		<polygon fill = 'rgb( 31, 120, 180)' fill-opacity = '0.250000' points = '668.2,342.1 668.2,662.4 670.1,662.4 670.1,344.5 '/>
		<polygon fill = 'rgb( 31, 120, 180)' fill-opacity = '0.250000' points = '670.1,344.5 670.1,662.4 672.0,662.4 672.0,347.0 '/>
		<polygon fill = 'rgb( 31, 120, 180)' fill-opacity = '0.250000' points = '672.0,347.0 672.0,662.4 673.9,662.4 673.9,349.5 '/>
		<polygon fill = 'rgb( 31, 120, 180)' fill-opacity = '0.250000' points = '673.9,349.5 673.9,662.4 675.8,662.4 675.8,352.1 '/>
		<polygon fill = 'rgb( 31, 120, 180)' fill-opacity = '0.250000' points = '675.8,352.1 675.8,662.4 677.7,662.4 677.7,354.6 '/>
		<polygon fill = 'rgb( 31, 120, 180)' fill-opacity = '0.250000' points = '677.7,354.6 677.7,662.4 679.6,662.4 679.6,357.2 '/>
		<polygon fill = 'rgb( 31, 120, 180)' fill-opacity = '0.250000' points = '679.6,357.2 679.6,662.4 681.5,662.4 681.5,359.8 '/>
		<polygon fill = 'rgb( 31, 120, 180)' fill-opacity = '0.250000' points = '681.5,359.8 681.5,662.4 683.3,662.4 683.3,362.4 '/>
		<polygon fill = 'rgb( 31, 120, 180)' fill-opacity = '0.250000' points = '683.3,362.4 683.3,662.4 685.2,662.4 685.2,365.0 '/>
		<polygon fill = 'rgb( 31, 120, 180)' fill-opacity = '0.250000' points = '685.2,365.0 685.2,662.4 687.1,662.4 687.1,367.6 '/>
		<polygon fill = 'rgb( 31, 120, 180)' fill-opacity = '0.250000' points = '687.1,367.6 687.1,662.4 689.0,662.4 689.0,370.3 '/>
		<polygon fill = 'rgb( 31, 120, 180)' fill-opacity = '0.250000' points = '689.0,370.3 689.0,662.4 690.9,662.4 690.9,373.0 '/>
		<polygon fill = 'rgb( 31, 120, 180)' fill-opacity = '0.250000' points = '690.9,373.0 690.9,662.4 692.8,662.4 692.8,375.7 '/>
		<polygon fill = 'rgb( 31, 120, 180)' fill-opacity = '0.250000' points = '692.8,375.7 692.8,662.4 694.7,662.4 694.7,378.5 '/>
		<polygon fill = 'rgb( 31, 120, 180)' fill-opacity = '0.250000' points = '694.7,378.5 694.7,662.4 696.6,662.4 696.6,381.2 '/>
		<polygon fill = 'rgb( 31, 120, 180)' fill-opacity = '0.250000' points = '696.6,381.2 696.6,662.4 698.4,662.4 698.4,384.0 '/>
		<polygon fill = 'rgb( 31, 120, 180)' fill-opacity = '0.250000' points = '698.4,384.0 698.4,662.4 700.3,662.4 700.3,386.8 '/>
		<polygon fill = 'rgb( 31, 120, 180)' fill-opacity = '0.250000' points = '700.3,386.8 700.3,662.4 702.2,662.4 702.2,389.6 '/>
		<polygon fill = 'rgb( 31, 120, 180)' fill-opacity = '0.250000' points = '702.2,389.6 702.2,662.4 704.1,662.4 704.1,392.4 '/>
		<polygon fill = 'rgb( 31, 120, 180)' fill-opacity = '0.250000' points = '704.1,392.4 704.1,662.4 706.0,662.4 706.0,395.3 '/>
		<polygon fill = 'rgb( 31, 120, 180)' fill-opacity = '0.250000' points = '706.0,395.3 706.0,662.4 707.9,662.4 707.9,398.1 '/>
		<polygon fill = 'rgb( 31, 120, 180)' fill-opacity = '0.250000' points = '707.9,398.1 707.9,662.4 709.8,662.4 709.8,400.9 '/>
		<polygon fill = 'rgb( 31, 120, 180)' fill-opacity = '0.250000' points = '709.8,400.9 709.8,662.4 711.7,662.4 711.7,403.8 '/>
		<polygon fill = 'rgb( 31, 120, 180)' fill-opacity = '0.250000' points = '711.7,403.8 711.7,662.4 713.5,662.4 713.5,406.6 '/>
		<polygon fill = 'rgb( 31, 120, 180)' fill-opacity = '0.250000' points = '713.5,406.6 713.5,662.4 715.4,662.4 715.4,409.4 '/>
		<polygon fill = 'rgb( 31, 120, 180)' fill-opacity = '0.250000' points = '715.4,409.4 715.4,662.4 717.3,662.4 717.3,412.1 '/>
		<polygon fill = 'rgb( 31, 120, 180)' fill-opacity = '0.250000' points = '717.3,412.1 717.3,662.4 719.2,662.4 719.2,414.8 '/>
		<polygon fill = 'rgb( 31, 120, 180)' fill-opacity = '0.250000' points = '719.2,414.8 719.2,662.4 721.1,662.4 721.1,417.5 '/>
		<polygon fill = 'rgb( 31, 120, 180)' fill-opacity = '0.250000' points = '721.1,417.5 721.1,662.4 723.0,662.4 723.0,420.2 '/>
		<polygon fill = 'rgb( 31, 120, 180)' fill-opacity = '0.250000' points = '723.0,420.2 723.0,662.4 724.9,662.4 724.9,422.8 '/>
		<polygon fill = 'rgb( 31, 120, 180)' fill-opacity = '0.250000' points = '724.9,422.8 724.9,662.4 726.7,662.4 726.7,425.4 '/>
		<polygon fill = 'rgb( 31, 120, 180)' fill-opacity = '0.250000' points = '726.7,425.4 726.7,662.4 728.6,662.4 728.6,427.9 '/>
		<polygon fill = 'rgb( 31, 120, 180)' fill-opacity = '0.250000' points = '728.6,427.9 728.6,662.4 730.5,662.4 730.5,430.4 '/>
		<polygon fill = 'rgb( 31, 120, 180)' fill-opacity = '0.250000' points = '730.5,430.4 730.5,662.4 732.4,662.4 732.4,432.8 '/>
		<polygon fill = 'rgb( 31, 120, 180)' fill-opacity = '0.250000' points = '732.4,432.8 732.4,662.4 734.3,662.4 734.3,435.2 '/>
		<polygon fill = 'rgb( 31, 120, 180)' fill-opacity = '0.250000' points = '734.3,435.2 734.3,662.4 736.2,662.4 736.2,437.5 '/>
		<polygon fill = 'rgb( 31, 120, 180)' fill-opacity = '0.250000' points = '736.2,437.5 736.2,662.4 738.1,662.4 738.1,439.8 '/>
		<polygon fill = 'rgb( 31, 120, 180)' fill-opacity = '0.250000' points = '738.1,439.8 738.1,662.4 740.0,662.4 740.0,442.1 '/>
		<polygon fill = 'rgb( 31, 120, 180)' fill-opacity = '0.250000' points = '740.0,442.1 740.0,662.4 741.8,662.4 741.8,444.4 '/>
		<polygon fill = 'rgb( 31, 120, 180)' fill-opacity = '0.250000' points = '741.8,444.4 741.8,662.4 743.7,662.4 743.7,446.7 '/>
		<polygon fill = 'rgb( 31, 120, 180)' fill-opacity = '0.250000' points = '743.7,446.7 743.7,662.4 745.6,662.4 745.6,448.9 '/>
		<polygon fill = 'rgb( 31, 120, 180)' fill-opacity = '0.250000' points = '745.6,448.9 745.6,662.4 747.5,662.4 747.5,451.1 '/>
		<polygon fill = 'rgb( 31, 120, 180)' fill-opacity = '0.250000' points = '747.5,451.1 747.5,662.4 749.4,662.4 749.4,453.4 '/>
		<polygon fill = 'rgb( 31, 120, 180)' fill-opacity = '0.250000' points = '749.4,453.4 749.4,662.4 751.3,662.4 751.3,455.6 '/>
		<polygon fill = 'rgb( 31, 120, 180)' fill-opacity = '0.250000' points = '751.3,455.6 751.3,662.4 753.2,662.4 753.2,457.9 '/>
		<polygon fill = 'rgb( 31, 120, 180)' fill-opacity = '0.250000' points = '753.2,457.9 753.2,662.4 755.1,662.4 755.1,460.2 '/>
		<polygon fill = 'rgb( 31, 120, 180)' fill-opacity = '0.250000' points = '755.1,460.2 755.1,662.4 756.9,662.4 756.9,462.5 '/>
		<polygon fill = 'rgb( 31, 120, 180)' fill-opacity = '0.250000' points = '756.9,462.5 756.9,662.4 758.8,662.4 758.8,464.8 '/>
		<polygon fill = 'rgb( 31, 120, 180)' fill-opacity = '0.250000' points = '758.8,464.8 758.8,662.4 760.7,662.4 760.7,467.1 '/>
		<polygon fill = 'rgb( 31, 120, 180)' fill-opacity = '0.250000' points = '760.7,467.1 760.7,662.4 762.6,662.4 762.6,469.4 '/>
		<polygon fill = 'rgb( 31, 120, 180)' fill-opacity = '0.250000' points = '762.6,469.4 762.6,662.4 764.5,662.4 764.5,471.8 '/>
		<polygon fill = 'rgb( 31, 120, 180)' fill-opacity = '0.250000' points = '764.5,471.8 764.5,662.4 766.4,662.4 766.4,474.2 '/>
		<polygon fill = 'rgb( 31, 120, 180)' fill-opacity = '0.250000' points = '766.4,474.2 766.4,662.4 768.3,662.4 768.3,476.5 '/>
		<polygon fill = 'rgb( 31, 120, 180)' fill-opacity = '0.250000' points = '768.3,476.5 768.3,662.4 770.2,662.4 770.2,478.9 '/>
		<polygon fill = 'rgb( 31, 120, 180)' fill-opacity = '0.250000' points = '770.2,478.9 770.2,662.4 772.0,662.4 772.0,481.3 '/>
		<polygon fill = 'rgb( 31, 120, 180)' fill-opacity = '0.250000' points = '772.0,481.3 772.0,662.4 773.9,662.4 773.9,483.7 '/>
		<polygon fill = 'rgb( 31, 120, 180)' fill-opacity = '0.250000' points = '773.9,483.7 773.9,662.4 775.8,662.4 775.8,486.0 '/>
		<polygon fill = 'rgb( 31, 120, 180)' fill-opacity = '0.250000' points = '775.8,486.0 775.8,662.4 777.7,662.4 777.7,488.4 '/>
		<polygon fill = 'rgb( 31, 120, 180)' fill-opacity = '0.250000' points = '777.7,488.4 777.7,662.4 779.6,662.4 779.6,490.7 '/>
		<polygon fill = 'rgb( 31, 120, 180)' fill-opacity = '0.250000' points = '779.6,490.7 779.6,662.4 781.5,662.4 781.5,493.0 '/>
		<polygon fill = 'rgb( 31, 120, 180)' fill-opacity = '0.250000' points = '781.5,493.0 781.5,662.4 783.4,662.4 783.4,495.2 '/>
		<polygon fill = 'rgb( 31, 120, 180)' fill-opacity = '0.250000' points = '783.4,495.2 783.4,662.4 785.3,662.4 785.3,497.5 '/>
		<polygon fill = 'rgb( 31, 120, 180)' fill-opacity = '0.250000' points = '785.3,497.5 785.3,662.4 787.1,662.4 787.1,499.6 '/>
		<polygon fill = 'rgb( 31, 120, 180)' fill-opacity = '0.250000' points = '787.1,499.6 787.1,662.4 789.0,662.4 789.0,501.8 '/>
		<polygon fill = 'rgb( 31, 120, 180)' fill-opacity = '0.250000' points = '789.0,501.8 789.0,662.4 790.9,662.4 790.9,503.9 '/>
		<polygon fill = 'rgb( 31, 120, 180)' fill-opacity = '0.250000' points = '790.9,503.9 790.9,662.4 792.8,662.4 792.8,506.0 '/>
		<polygon fill = 'rgb( 31, 120, 180)' fill-opacity = '0.250000' points = '792.8,506.0 792.8,662.4 794.7,662.4 794.7,508.0 '/>
		<polygon fill = 'rgb( 31, 120, 180)' fill-opacity = '0.250000' points = '794.7,508.0 794.7,662.4 796.6,662.4 796.6,510.0 '/>
		<polygon fill = 'rgb( 31, 120, 180)' fill-opacity = '0.250000' points = '796.6,510.0 796.6,662.4 798.5,662.4 798.5,512.0 '/>
		<polygon fill = 'rgb( 31, 120, 180)' fill-opacity = '0.250000' points = '798.5,512.0 798.5,662.4 800.3,662.4 800.3,513.9 '/>
		<polygon fill = 'rgb( 31, 120, 180)' fill-opacity = '0.250000' points = '800.3,513.9 800.3,662.4 802.2,662.4 802.2,515.8 '/>
		<polygon fill = 'rgb( 31, 120, 180)' fill-opacity = '0.250000' points = '802.2,515.8 802.2,662.4 804.1,662.4 804.1,517.6 '/>
		<polygon fill = 'rgb( 31, 120, 180)' fill-opacity = '0.250000' points = '804.1,517.6 804.1,662.4 806.0,662.4 806.0,519.5 '/>
		<polygon fill = 'rgb( 31, 120, 180)' fill-opacity = '0.250000' points = '806.0,519.5 806.0,662.4 807.9,662.4 807.9,521.3 '/>
		<polygon fill = 'rgb( 31, 120, 180)' fill-opacity = '0.250000' points = '807.9,521.3 807.9,662.4 809.8,662.4 809.8,523.0 '/>
		<polygon fill = 'rgb( 31, 120, 180)' fill-opacity = '0.250000' points = '809.8,523.0 809.8,662.4 811.7,662.4 811.7,524.8 '/>
		<polygon fill = 'rgb( 31, 120, 180)' fill-opacity = '0.250000' points = '811.7,524.8 811.7,662.4 813.6,662.4 813.6,526.5 '/>
		<polygon fill = 'rgb( 31, 120, 180)' fill-opacity = '0.250000' points = '813.6,526.5 813.6,662.4 815.4,662.4 815.4,528.2 '/>
		<polygon fill = 'rgb( 31, 120, 180)' fill-opacity = '0.250000' points = '815.4,528.2 815.4,662.4 817.3,662.4 817.3,529.8 '/>
		<polygon fill = 'rgb( 31, 120, 180)' fill-opacity = '0.250000' points = '817.3,529.8 817.3,662.4 819.2,662.4 819.2,531.5 '/>
		<polygon fill = 'rgb( 31, 120, 180)' fill-opacity = '0.250000' points = '819.2,531.5 819.2,662.4 821.1,662.4 821.1,533.1 '/>
		<polygon fill = 'rgb( 31, 120, 180)' fill-opacity = '0.250000' points = '821.1,533.1 821.1,662.4 823.0,662.4 823.0,534.8 '/>
		<polygon fill = 'rgb( 31, 120, 180)' fill-opacity = '0.250000' points = '823.0,534.8 823.0,662.4 824.9,662.4 824.9,536.4 '/>
		<polygon fill = 'rgb( 31, 120, 180)' fill-opacity = '0.250000' points = '824.9,536.4 824.9,662.4 826.8,662.4 826.8,537.9 '/>
		<polygon fill = 'rgb( 31, 120, 180)' fill-opacity = '0.250000' points = '826.8,537.9 826.8,662.4 828.7,662.4 828.7,539.5 '/>
		<polygon fill = 'rgb( 31, 120, 180)' fill-opacity = '0.250000' points = '828.7,539.5 828.7,662.4 830.5,662.4 830.5,541.1 '/>
		<polygon fill = 'rgb( 31, 120, 180)' fill-opacity = '0.250000' points = '830.5,541.1 830.5,662.4 832.4,662.4 832.4,542.6 '/>
		<polygon fill = 'rgb( 31, 120, 180)' fill-opacity = '0.250000' points = '832.4,542.6 832.4,662.4 834.3,662.4 834.3,544.1 '/>
		<polygon fill = 'rgb( 31, 120, 180)' fill-opacity = '0.250000' points = '834.3,544.1 834.3,662.4 836.2,662.4 836.2,545.6 '/>
		<polygon fill = 'rgb( 31, 120, 180)' fill-opacity = '0.250000' points = '836.2,545.6 836.2,662.4 838.1,662.4 838.1,547.1 '/>
		<polygon fill = 'rgb( 31, 120, 180)' fill-opacity = '0.250000' points = '838.1,547.1 838.1,662.4 840.0,662.4 840.0,548.5 '/>
		<polygon fill = 'rgb( 31, 120, 180)' fill-opacity = '0.250000' points = '840.0,548.5 840.0,662.4 841.9,662.4 841.9,550.0 '/>
		<polygon fill = 'rgb( 31, 120, 180)' fill-opacity = '0.250000' points = '841.9,550.0 841.9,662.4 843.8,662.4 843.8,551.4 '/>
		<polygon fill = 'rgb( 31, 120, 180)' fill-opacity = '0.250000' points = '843.8,551.4 843.8,662.4 845.6,662.4 845.6,552.7 '/>
		<polygon fill = 'rgb( 31, 120, 180)' fill-opacity = '0.250000' points = '845.6,552.7 845.6,662.4 847.5,662.4 847.5,554.1 '/>
		<polygon fill = 'rgb( 31, 120, 180)' fill-opacity = '0.250000' points = '847.5,554.1 847.5,662.4 849.4,662.4 849.4,555.4 '/>
		<polygon fill = 'rgb( 31, 120, 180)' fill-opacity = '0.250000' points = '849.4,555.4 849.4,662.4 851.3,662.4 851.3,556.7 '/>
		<polygon fill = 'rgb( 31, 120, 180)' fill-opacity = '0.250000' points = '851.3,556.7 851.3,662.4 853.2,662.4 853.2,557.9 '/>
		<polygon fill = 'rgb( 31, 120, 180)' fill-opacity = '0.250000' points = '853.2,557.9 853.2,662.4 855.1,662.4 855.1,559.1 '/>
		<polygon fill = 'rgb( 31, 120, 180)' fill-opacity = '0.250000' points = '855.1,559.1 855.1,662.4 857.0,662.4 857.0,560.4 '/>
		<polygon fill = 'rgb( 31, 120, 180)' fill-opacity = '0.250000' points = '857.0,560.4 857.0,662.4 858.9,662.4 858.9,561.5 '/>
		<polygon fill = 'rgb( 31, 120, 180)' fill-opacity = '0.250000' points = '858.9,561.5 858.9,662.4 860.7,662.4 860.7,562.7 '/>
		<polygon fill = 'rgb( 31, 120, 180)' fill-opacity = '0.250000' points = '860.7,562.7 860.7,662.4 862.6,662.4 862.6,563.9 '/>
		<polygon fill = 'rgb( 31, 120, 180)' fill-opacity = '0.250000' points = '862.6,563.9 862.6,662.4 864.5,662.4 864.5,565.0 '/>
		<polygon fill = 'rgb( 31, 120, 180)' fill-opacity = '0.250000' points = '864.5,565.0 864.5,662.4 866.4,662.4 866.4,566.1 '/>
		<polygon fill = 'rgb( 31, 120, 180)' fill-opacity = '0.250000' points = '866.4,566.1 866.4,662.4 868.3,662.4 868.3,567.2 '/>
		<polygon fill = 'rgb( 31, 120, 180)' fill-opacity = '0.250000' points = '868.3,567.2 868.3,662.4 870.2,662.4 870.2,568.4 '/>
		<polygon fill = 'rgb( 31, 120, 180)' fill-opacity = '0.250000' points = '870.2,568.4 870.2,662.4 872.1,662.4 872.1,569.5 '/>
		<polygon fill = 'rgb( 31, 120, 180)' fill-opacity = '0.250000' points = '872.1,569.5 872.1,662.4 873.9,662.4 873.9,570.6 '/>
		<polygon fill = 'rgb( 31, 120, 180)' fill-opacity = '0.250000' points = '873.9,570.6 873.9,662.4 875.8,662.4 875.8,571.7 '/>
		<polygon fill = 'rgb( 31, 120, 180)' fill-opacity = '0.250000' points = '875.8,571.7 875.8,662.4 877.7,662.4 877.7,572.8 '/>
		<polygon fill = 'rgb( 31, 120, 180)' fill-opacity = '0.250000' points = '877.7,572.8 877.7,662.4 879.6,662.4 879.6,574.0 '/>
		<polygon fill = 'rgb( 31, 120, 180)' fill-opacity = '0.250000' points = '879.6,574.0 879.6,662.4 881.5,662.4 881.5,575.1 '/>
		<polygon fill = 'rgb( 31, 120, 180)' fill-opacity = '0.250000' points = '881.5,575.1 881.5,662.4 883.4,662.4 883.4,576.3 '/>
		<polygon fill = 'rgb( 31, 120, 180)' fill-opacity = '0.250000' points = '883.4,576.3 883.4,662.4 885.3,662.4 885.3,577.4 '/>
		<polygon fill = 'rgb( 31, 120, 180)' fill-opacity = '0.250000' points = '885.3,577.4 885.3,662.4 887.2,662.4 887.2,578.6 '/>
		<polygon fill = 'rgb( 31, 120, 180)' fill-opacity = '0.250000' points = '887.2,578.6 887.2,662.4 889.0,662.4 889.0,579.8 '/>
		<polygon fill = 'rgb( 31, 120, 180)' fill-opacity = '0.250000' points = '889.0,579.8 889.0,662.4 890.9,662.4 890.9,580.9 '/>
		<polygon fill = 'rgb( 31, 120, 180)' fill-opacity = '0.250000' points = '890.9,580.9 890.9,662.4 892.8,662.4 892.8,582.1 '/>
		<polygon fill = 'rgb( 31, 120, 180)' fill-opacity = '0.250000' points = '892.8,582.1 892.8,662.4 894.7,662.4 894.7,583.3 '/>
		<polygon fill = 'rgb( 31, 120, 180)' fill-opacity = '0.250000' points = '894.7,583.3 894.7,662.4 896.6,662.4 896.6,584.4 '/>
		<polygon fill = 'rgb( 31, 120, 180)' fill-opacity = '0.250000' points = '896.6,584.4 896.6,662.4 898.5,662.4 898.5,585.6 '/>
		<polygon fill = 'rgb( 31, 120, 180)' fill-opacity = '0.250000' points = '898.5,585.6 898.5,662.4 900.4,662.4 900.4,586.7 '/>
		<polygon fill = 'rgb( 31, 120, 180)' fill-opacity = '0.250000' points = '900.4,586.7 900.4,662.4 902.3,662.4 902.3,587.8 '/>
		<polygon fill = 'rgb( 31, 120, 180)' fill-opacity = '0.250000' points = '902.3,587.8 902.3,662.4 904.1,662.4 904.1,588.9 '/>
		<polygon fill = 'rgb( 31, 120, 180)' fill-opacity = '0.250000' points = '904.1,588.9 904.1,662.4 906.0,662.4 906.0,590.0 '/>
		<polygon fill = 'rgb( 31, 120, 180)' fill-opacity = '0.250000' points = '906.0,590.0 906.0,662.4 907.9,662.4 907.9,591.1 '/>
		<polygon fill = 'rgb( 31, 120, 180)' fill-opacity = '0.250000' points = '907.9,591.1 907.9,662.4 909.8,662.4 909.8,592.1 '/>
		<polygon fill = 'rgb( 31, 120, 180)' fill-opacity = '0.250000' points = '909.8,592.1 909.8,662.4 911.7,662.4 911.7,593.1 '/>
		<polygon fill = 'rgb( 31, 120, 180)' fill-opacity = '0.250000' points = '911.7,593.1 911.7,662.4 913.6,662.4 913.6,594.1 '/>
		<polygon fill = 'rgb( 31, 120, 180)' fill-opacity = '0.250000' points = '913.6,594.1 913.6,662.4 915.5,662.4 915.5,595.0 '/>
		<polygon fill = 'rgb( 31, 120, 180)' fill-opacity = '0.250000' points = '915.5,595.0 915.5,662.4 917.4,662.4 917.4,595.9 '/>
		<polygon fill = 'rgb( 31, 120, 180)' fill-opacity = '0.250000' points = '917.4,595.9 917.4,662.4 919.2,662.4 919.2,596.8 '/>
		<polygon fill = 'rgb( 31, 120, 180)' fill-opacity = '0.250000' points = '919.2,596.8 919.2,662.4 921.1,662.4 921.1,597.7 '/>
		<polygon fill = 'rgb( 31, 120, 180)' fill-opacity = '0.250000' points = '921.1,597.7 921.1,662.4 923.0,662.4 923.0,598.6 '/>
		<polygon fill = 'rgb( 31, 120, 180)' fill-opacity = '0.250000' points = '923.0,598.6 923.0,662.4 924.9,662.4 924.9,599.4 '/>
	</g>
</g>
	</g>
	<g id="gnuplot_plot_3" ><title>Point estimate</title>
<g fill="none" color="white" stroke="rgb( 31, 120, 180)" stroke-width="2.00" stroke-linecap="butt" stroke-linejoin="miter">
</g>
<g fill="none" color="black" stroke="currentColor" stroke-width="2.00" stroke-linecap="butt" stroke-linejoin="miter">
	<g transform="translate(1089.0,103.0)" stroke="none" fill="black" font-family="Helvetica" font-size="12.00"  text-anchor="start">
		<text><tspan font-family="Helvetica" >Point estimate</tspan></text>
	</g>
</g>
<g fill="none" color="black" stroke="currentColor" stroke-width="2.00" stroke-linecap="butt" stroke-linejoin="miter">
	<path stroke='rgb( 31, 120, 180)'  d='M1038.5,99.1 L1080.7,99.1 M496.1,662.4 L496.1,141.3  '/></g>
	</g>
<g fill="none" color="black" stroke="currentColor" stroke-width="2.00" stroke-linecap="butt" stroke-linejoin="miter">
</g>
<g fill="none" color="black" stroke="black" stroke-width="1.00" stroke-linecap="butt" stroke-linejoin="miter">
</g>
<g fill="none" color="black" stroke="currentColor" stroke-width="1.00" stroke-linecap="butt" stroke-linejoin="miter">
	<path stroke='black'  d='M71.9,54.1 L71.9,662.4 L1013.6,662.4 L1013.6,54.1 L71.9,54.1 Z  '/></g>
<g fill="none" color="black" stroke="currentColor" stroke-width="1.00" stroke-linecap="butt" stroke-linejoin="miter">
</g>
</g>
</svg>

