<?xml version="1.0" encoding="utf-8"  standalone="no"?>
<!DOCTYPE svg PUBLIC "-//W3C//DTD SVG 1.1//EN"
 "http://www.w3.org/Graphics/SVG/1.1/DTD/svg11.dtd">
<svg 
 viewBox="0 0 1280 720"
 xmlns="http://www.w3.org/2000/svg"
 xmlns:xlink="http://www.w3.org/1999/xlink"
>

<title>Gnuplot</title>
<desc>Produced by GNUPLOT 5.0 patchlevel 5 </desc>

<g id="gnuplot_canvas">

<rect x="0" y="0" width="1280" height="720" fill="none"/>
<defs>

	<circle id='gpDot' r='0.5' stroke-width='0.5'/>
	<path id='gpPt0' stroke-width='0.222' stroke='currentColor' d='M-1,0 h2 M0,-1 v2'/>
	<path id='gpPt1' stroke-width='0.222' stroke='currentColor' d='M-1,-1 L1,1 M1,-1 L-1,1'/>
	<path id='gpPt2' stroke-width='0.222' stroke='currentColor' d='M-1,0 L1,0 M0,-1 L0,1 M-1,-1 L1,1 M-1,1 L1,-1'/>
	<rect id='gpPt3' stroke-width='0.222' stroke='currentColor' x='-1' y='-1' width='2' height='2'/>
	<rect id='gpPt4' stroke-width='0.222' stroke='currentColor' fill='currentColor' x='-1' y='-1' width='2' height='2'/>
	<circle id='gpPt5' stroke-width='0.222' stroke='currentColor' cx='0' cy='0' r='1'/>
	<use xlink:href='#gpPt5' id='gpPt6' fill='currentColor' stroke='none'/>
	<path id='gpPt7' stroke-width='0.222' stroke='currentColor' d='M0,-1.33 L-1.33,0.67 L1.33,0.67 z'/>
	<use xlink:href='#gpPt7' id='gpPt8' fill='currentColor' stroke='none'/>
	<use xlink:href='#gpPt7' id='gpPt9' stroke='currentColor' transform='rotate(180)'/>
	<use xlink:href='#gpPt9' id='gpPt10' fill='currentColor' stroke='none'/>
	<use xlink:href='#gpPt3' id='gpPt11' stroke='currentColor' transform='rotate(45)'/>
	<use xlink:href='#gpPt11' id='gpPt12' fill='currentColor' stroke='none'/>
	<path id='gpPt13' stroke-width='0.222' stroke='currentColor' d='M0,1.330 L1.265,0.411 L0.782,-1.067 L-0.782,-1.076 L-1.265,0.411 z'/>
	<use xlink:href='#gpPt13' id='gpPt14' fill='currentColor' stroke='none'/>
	<filter id='textbox' filterUnits='objectBoundingBox' x='0' y='0' height='1' width='1'>
	  <feFlood flood-color='white' flood-opacity='1' result='bgnd'/>
	  <feComposite in='SourceGraphic' in2='bgnd' operator='atop'/>
	</filter>
	<filter id='greybox' filterUnits='objectBoundingBox' x='0' y='0' height='1' width='1'>
	  <feFlood flood-color='lightgrey' flood-opacity='1' result='grey'/>
	  <feComposite in='SourceGraphic' in2='grey' operator='atop'/>
	</filter>
</defs>
<g fill="none" color="white" stroke="currentColor" stroke-width="1.00" stroke-linecap="butt" stroke-linejoin="miter">
</g>
<g fill="none" color="black" stroke="currentColor" stroke-width="1.00" stroke-linecap="butt" stroke-linejoin="miter">
	<path stroke='black'  d='M88.5,662.4 L97.5,662.4  '/>	<g transform="translate(80.2,666.3)" stroke="none" fill="black" font-family="Helvetica" font-size="12.00"  text-anchor="end">
		<text><tspan font-family="Helvetica" > 0</tspan></text>
	</g>
</g>
<g fill="none" color="black" stroke="currentColor" stroke-width="1.00" stroke-linecap="butt" stroke-linejoin="miter">
	<path stroke='black'  d='M88.5,575.5 L97.5,575.5  '/>	<g transform="translate(80.2,579.4)" stroke="none" fill="black" font-family="Helvetica" font-size="12.00"  text-anchor="end">
		<text><tspan font-family="Helvetica" > 0.005</tspan></text>
	</g>
</g>
<g fill="none" color="black" stroke="currentColor" stroke-width="1.00" stroke-linecap="butt" stroke-linejoin="miter">
	<path stroke='black'  d='M88.5,488.6 L97.5,488.6  '/>	<g transform="translate(80.2,492.5)" stroke="none" fill="black" font-family="Helvetica" font-size="12.00"  text-anchor="end">
		<text><tspan font-family="Helvetica" > 0.01</tspan></text>
	</g>
</g>
<g fill="none" color="black" stroke="currentColor" stroke-width="1.00" stroke-linecap="butt" stroke-linejoin="miter">
	<path stroke='black'  d='M88.5,401.7 L97.5,401.7  '/>	<g transform="translate(80.2,405.6)" stroke="none" fill="black" font-family="Helvetica" font-size="12.00"  text-anchor="end">
		<text><tspan font-family="Helvetica" > 0.015</tspan></text>
	</g>
</g>
<g fill="none" color="black" stroke="currentColor" stroke-width="1.00" stroke-linecap="butt" stroke-linejoin="miter">
	<path stroke='black'  d='M88.5,314.8 L97.5,314.8  '/>	<g transform="translate(80.2,318.7)" stroke="none" fill="black" font-family="Helvetica" font-size="12.00"  text-anchor="end">
		<text><tspan font-family="Helvetica" > 0.02</tspan></text>
	</g>
</g>
<g fill="none" color="black" stroke="currentColor" stroke-width="1.00" stroke-linecap="butt" stroke-linejoin="miter">
	<path stroke='black'  d='M88.5,227.9 L97.5,227.9  '/>	<g transform="translate(80.2,231.8)" stroke="none" fill="black" font-family="Helvetica" font-size="12.00"  text-anchor="end">
		<text><tspan font-family="Helvetica" > 0.025</tspan></text>
	</g>
</g>
<g fill="none" color="black" stroke="currentColor" stroke-width="1.00" stroke-linecap="butt" stroke-linejoin="miter">
	<path stroke='black'  d='M88.5,141.0 L97.5,141.0  '/>	<g transform="translate(80.2,144.9)" stroke="none" fill="black" font-family="Helvetica" font-size="12.00"  text-anchor="end">
		<text><tspan font-family="Helvetica" > 0.03</tspan></text>
	</g>
</g>
<g fill="none" color="black" stroke="currentColor" stroke-width="1.00" stroke-linecap="butt" stroke-linejoin="miter">
	<path stroke='black'  d='M88.5,54.1 L97.5,54.1  '/>	<g transform="translate(80.2,58.0)" stroke="none" fill="black" font-family="Helvetica" font-size="12.00"  text-anchor="end">
		<text><tspan font-family="Helvetica" > 0.035</tspan></text>
	</g>
</g>
<g fill="none" color="black" stroke="currentColor" stroke-width="1.00" stroke-linecap="butt" stroke-linejoin="miter">
	<path stroke='black'  d='M191.6,662.4 L191.6,653.4  '/>	<g transform="translate(191.6,684.3)" stroke="none" fill="black" font-family="Helvetica" font-size="12.00"  text-anchor="middle">
		<text><tspan font-family="Helvetica" > 70</tspan></text>
	</g>
</g>
<g fill="none" color="black" stroke="currentColor" stroke-width="1.00" stroke-linecap="butt" stroke-linejoin="miter">
	<path stroke='black'  d='M357.5,662.4 L357.5,653.4  '/>	<g transform="translate(357.5,684.3)" stroke="none" fill="black" font-family="Helvetica" font-size="12.00"  text-anchor="middle">
		<text><tspan font-family="Helvetica" > 80</tspan></text>
	</g>
</g>
<g fill="none" color="black" stroke="currentColor" stroke-width="1.00" stroke-linecap="butt" stroke-linejoin="miter">
	<path stroke='black'  d='M523.4,662.4 L523.4,653.4  '/>	<g transform="translate(523.4,684.3)" stroke="none" fill="black" font-family="Helvetica" font-size="12.00"  text-anchor="middle">
		<text><tspan font-family="Helvetica" > 90</tspan></text>
	</g>
</g>
<g fill="none" color="black" stroke="currentColor" stroke-width="1.00" stroke-linecap="butt" stroke-linejoin="miter">
	<path stroke='black'  d='M689.3,662.4 L689.3,653.4  '/>	<g transform="translate(689.3,684.3)" stroke="none" fill="black" font-family="Helvetica" font-size="12.00"  text-anchor="middle">
		<text><tspan font-family="Helvetica" > 100</tspan></text>
	</g>
</g>
<g fill="none" color="black" stroke="currentColor" stroke-width="1.00" stroke-linecap="butt" stroke-linejoin="miter">
	<path stroke='black'  d='M855.1,662.4 L855.1,653.4  '/>	<g transform="translate(855.1,684.3)" stroke="none" fill="black" font-family="Helvetica" font-size="12.00"  text-anchor="middle">
		<text><tspan font-family="Helvetica" > 110</tspan></text>
	</g>
</g>
<g fill="none" color="black" stroke="currentColor" stroke-width="1.00" stroke-linecap="butt" stroke-linejoin="miter">
</g>
<g fill="none" color="black" stroke="currentColor" stroke-width="1.00" stroke-linecap="butt" stroke-linejoin="miter">
	<path stroke='black'  d='M88.5,54.1 L88.5,662.4 L1013.6,662.4 L1013.6,54.1 L88.5,54.1 Z  '/></g>
<g fill="none" color="black" stroke="currentColor" stroke-width="1.00" stroke-linecap="butt" stroke-linejoin="miter">
	<g transform="translate(17.0,358.3) rotate(270)" stroke="none" fill="black" font-family="Helvetica" font-size="12.00"  text-anchor="middle">
		<text><tspan font-family="Helvetica" >Density (a.u.)</tspan></text>
	</g>
</g>
<g fill="none" color="black" stroke="currentColor" stroke-width="1.00" stroke-linecap="butt" stroke-linejoin="miter">
	<g transform="translate(551.0,711.3)" stroke="none" fill="black" font-family="Helvetica" font-size="12.00"  text-anchor="middle">
		<text><tspan font-family="Helvetica" >Average time (us)</tspan></text>
	</g>
</g>
<g fill="none" color="black" stroke="currentColor" stroke-width="1.00" stroke-linecap="butt" stroke-linejoin="miter">
	<g transform="translate(551.0,31.0)" stroke="none" fill="black" font-family="Helvetica" font-size="12.00"  text-anchor="middle">
		<text><tspan font-family="Helvetica" >dfs arena mutex mut: MAD</tspan></text>
	</g>
</g>
	<g id="gnuplot_plot_1" ><title>Bootstrap distribution</title>
<g fill="none" color="white" stroke="black" stroke-width="2.00" stroke-linecap="butt" stroke-linejoin="miter">
</g>
<g fill="none" color="black" stroke="currentColor" stroke-width="2.00" stroke-linecap="butt" stroke-linejoin="miter">
	<g transform="translate(1089.0,67.0)" stroke="none" fill="black" font-family="Helvetica" font-size="12.00"  text-anchor="start">
		<text><tspan font-family="Helvetica" >Bootstrap distribution</tspan></text>
	</g>
</g>
<g fill="none" color="black" stroke="currentColor" stroke-width="2.00" stroke-linecap="butt" stroke-linejoin="miter">
	<path stroke='rgb( 31, 120, 180)'  d='M1038.5,63.1 L1080.7,63.1 M88.5,631.4 L90.4,630.3 L92.2,629.1 L94.1,627.9 L95.9,626.6 L97.8,625.3
		L99.6,624.0 L101.5,622.6 L103.3,621.2 L105.2,619.7 L107.0,618.2 L108.9,616.7 L110.7,615.1 L112.6,613.5
		L114.5,611.9 L116.3,610.2 L118.2,608.5 L120.0,606.8 L121.9,605.0 L123.7,603.2 L125.6,601.3 L127.4,599.5
		L129.3,597.6 L131.1,595.7 L133.0,593.7 L134.8,591.7 L136.7,589.7 L138.6,587.7 L140.4,585.6 L142.3,583.5
		L144.1,581.4 L146.0,579.2 L147.8,577.1 L149.7,574.8 L151.5,572.6 L153.4,570.3 L155.2,568.0 L157.1,565.7
		L158.9,563.4 L160.8,561.0 L162.7,558.6 L164.5,556.2 L166.4,553.8 L168.2,551.3 L170.1,548.8 L171.9,546.3
		L173.8,543.8 L175.6,541.3 L177.5,538.8 L179.3,536.2 L181.2,533.6 L183.0,530.9 L184.9,528.2 L186.8,525.5
		L188.6,522.6 L190.5,519.7 L192.3,516.7 L194.2,513.6 L196.0,510.4 L197.9,507.0 L199.7,503.5 L201.6,499.8
		L203.4,496.0 L205.3,492.0 L207.2,487.8 L209.0,483.5 L210.9,478.9 L212.7,474.2 L214.6,469.4 L216.4,464.4
		L218.3,459.3 L220.1,454.1 L222.0,448.8 L223.8,443.5 L225.7,438.2 L227.5,432.9 L229.4,427.7 L231.3,422.6
		L233.1,417.6 L235.0,412.7 L236.8,408.0 L238.7,403.5 L240.5,399.2 L242.4,395.1 L244.2,391.1 L246.1,387.4
		L247.9,383.9 L249.8,380.5 L251.6,377.3 L253.5,374.2 L255.4,371.2 L257.2,368.2 L259.1,365.3 L260.9,362.4
		L262.8,359.5 L264.6,356.6 L266.5,353.7 L268.3,350.8 L270.2,347.8 L272.0,344.8 L273.9,341.8 L275.7,338.8
		L277.6,335.8 L279.5,332.9 L281.3,330.1 L283.2,327.3 L285.0,324.8 L286.9,322.4 L288.7,320.2 L290.6,318.2
		L292.4,316.5 L294.3,315.0 L296.1,313.9 L298.0,312.9 L299.8,312.3 L301.7,311.9 L303.6,311.7 L305.4,311.7
		L307.3,311.9 L309.1,312.2 L311.0,312.6 L312.8,313.0 L314.7,313.4 L316.5,313.8 L318.4,314.0 L320.2,314.1
		L322.1,314.0 L323.9,313.6 L325.8,313.0 L327.7,312.1 L329.5,310.8 L331.4,309.3 L333.2,307.4 L335.1,305.2
		L336.9,302.7 L338.8,299.9 L340.6,296.9 L342.5,293.7 L344.3,290.3 L346.2,286.8 L348.0,283.3 L349.9,279.7
		L351.8,276.1 L353.6,272.6 L355.5,269.1 L357.3,265.8 L359.2,262.6 L361.0,259.6 L362.9,256.7 L364.7,253.9
		L366.6,251.2 L368.4,248.7 L370.3,246.2 L372.1,243.7 L374.0,241.1 L375.9,238.5 L377.7,235.8 L379.6,233.0
		L381.4,230.0 L383.3,226.7 L385.1,223.2 L387.0,219.4 L388.8,215.3 L390.7,211.0 L392.5,206.4 L394.4,201.5
		L396.2,196.3 L398.1,191.0 L400.0,185.5 L401.8,179.8 L403.7,174.0 L405.5,168.2 L407.4,162.4 L409.2,156.6
		L411.1,150.9 L412.9,145.3 L414.8,139.9 L416.6,134.6 L418.5,129.6 L420.3,124.8 L422.2,120.3 L424.1,116.1
		L425.9,112.2 L427.8,108.6 L429.6,105.4 L431.5,102.4 L433.3,99.9 L435.2,97.7 L437.0,95.8 L438.9,94.2
		L440.7,93.1 L442.6,92.2 L444.5,91.7 L446.3,91.4 L448.2,91.5 L450.0,91.7 L451.9,92.3 L453.7,93.0
		L455.6,93.8 L457.4,94.9 L459.3,96.0 L461.1,97.1 L463.0,98.4 L464.8,99.6 L466.7,100.9 L468.6,102.1
		L470.4,103.3 L472.3,104.5 L474.1,105.6 L476.0,106.7 L477.8,107.7 L479.7,108.7 L481.5,109.6 L483.4,110.5
		L485.2,111.4 L487.1,112.2 L488.9,113.0 L490.8,113.7 L492.7,114.3 L494.5,114.8 L496.4,115.3 L498.2,115.6
		L500.1,115.8 L501.9,115.8 L503.8,115.7 L505.6,115.5 L507.5,115.1 L509.3,114.5 L511.2,113.8 L513.0,113.0
		L514.9,112.1 L516.8,111.1 L518.6,110.0 L520.5,108.9 L522.3,107.9 L524.2,106.9 L526.0,106.0 L527.9,105.3
		L529.7,104.8 L531.6,104.4 L533.4,104.3 L535.3,104.4 L537.1,104.7 L539.0,105.3 L540.9,106.2 L542.7,107.3
		L544.6,108.6 L546.4,110.2 L548.3,111.9 L550.1,113.7 L552.0,115.7 L553.8,117.8 L555.7,119.9 L557.5,122.1
		L559.4,124.3 L561.2,126.5 L563.1,128.6 L565.0,130.7 L566.8,132.8 L568.7,134.8 L570.5,136.7 L572.4,138.5
		L574.2,140.3 L576.1,142.0 L577.9,143.6 L579.8,145.2 L581.6,146.7 L583.5,148.2 L585.3,149.6 L587.2,151.0
		L589.1,152.3 L590.9,153.7 L592.8,155.1 L594.6,156.5 L596.5,158.0 L598.3,159.5 L600.2,161.1 L602.0,162.9
		L603.9,164.7 L605.7,166.8 L607.6,168.9 L609.4,171.3 L611.3,173.8 L613.2,176.6 L615.0,179.5 L616.9,182.6
		L618.7,185.9 L620.6,189.4 L622.4,193.0 L624.3,196.7 L626.1,200.4 L628.0,204.3 L629.8,208.2 L631.7,212.0
		L633.5,215.9 L635.4,219.6 L637.3,223.3 L639.1,226.9 L641.0,230.4 L642.8,233.8 L644.7,237.1 L646.5,240.3
		L648.4,243.5 L650.2,246.6 L652.1,249.6 L653.9,252.6 L655.8,255.7 L657.6,258.8 L659.5,261.9 L661.4,265.1
		L663.2,268.5 L665.1,271.9 L666.9,275.4 L668.8,279.1 L670.6,282.8 L672.5,286.6 L674.3,290.4 L676.2,294.3
		L678.0,298.1 L679.9,301.9 L681.8,305.5 L683.6,309.1 L685.5,312.5 L687.3,315.7 L689.2,318.7 L691.0,321.4
		L692.9,323.9 L694.7,326.1 L696.6,328.0 L698.4,329.6 L700.3,331.0 L702.1,332.1 L704.0,332.9 L705.9,333.5
		L707.7,334.0 L709.6,334.2 L711.4,334.3 L713.3,334.3 L715.1,334.1 L717.0,333.9 L718.8,333.6 L720.7,333.4
		L722.5,333.1 L724.4,332.8 L726.2,332.7 L728.1,332.6 L730.0,332.6 L731.8,332.7 L733.7,333.0 L735.5,333.5
		L737.4,334.3 L739.2,335.3 L741.1,336.5 L742.9,338.0 L744.8,339.9 L746.6,342.1 L748.5,344.6 L750.3,347.4
		L752.2,350.6 L754.1,354.1 L755.9,357.9 L757.8,362.0 L759.6,366.3 L761.5,370.8 L763.3,375.5 L765.2,380.3
		L767.0,385.1 L768.9,390.0 L770.7,394.9 L772.6,399.7 L774.4,404.4 L776.3,408.9 L778.2,413.2 L780.0,417.3
		L781.9,421.2 L783.7,424.7 L785.6,428.0 L787.4,430.9 L789.3,433.5 L791.1,435.8 L793.0,437.8 L794.8,439.4
		L796.7,440.7 L798.5,441.7 L800.4,442.4 L802.3,442.9 L804.1,443.0 L806.0,442.9 L807.8,442.6 L809.7,442.0
		L811.5,441.3 L813.4,440.4 L815.2,439.3 L817.1,438.2 L818.9,437.0 L820.8,435.7 L822.6,434.5 L824.5,433.3
		L826.4,432.2 L828.2,431.2 L830.1,430.3 L831.9,429.7 L833.8,429.3 L835.6,429.2 L837.5,429.3 L839.3,429.8
		L841.2,430.6 L843.0,431.7 L844.9,433.1 L846.7,434.9 L848.6,437.0 L850.5,439.4 L852.3,442.0 L854.2,444.9
		L856.0,448.0 L857.9,451.3 L859.7,454.7 L861.6,458.2 L863.4,461.8 L865.3,465.5 L867.1,469.2 L869.0,472.8
		L870.8,476.4 L872.7,480.0 L874.6,483.5 L876.4,487.0 L878.3,490.4 L880.1,493.7 L882.0,496.9 L883.8,500.1
		L885.7,503.2 L887.5,506.3 L889.4,509.3 L891.2,512.2 L893.1,515.2 L894.9,518.1 L896.8,521.0 L898.7,523.8
		L900.5,526.7 L902.4,529.5 L904.2,532.3 L906.1,535.0 L907.9,537.8 L909.8,540.4 L911.6,543.1 L913.5,545.6
		L915.3,548.1 L917.2,550.6 L919.1,553.0 L920.9,555.3 L922.8,557.6 L924.6,559.8 L926.5,561.9 L928.3,564.0
		L930.2,566.1 L932.0,568.1 L933.9,570.1 L935.7,572.1 L937.6,574.1 L939.4,576.0 L941.3,578.0 L943.2,580.0
		L945.0,582.0 L946.9,584.0 L948.7,586.1 L950.6,588.1 L952.4,590.2 L954.3,592.3 L956.1,594.5 L958.0,596.6
		L959.8,598.7 L961.7,600.8 L963.5,603.0 L965.4,605.1 L967.3,607.1 L969.1,609.2 L971.0,611.2 L972.8,613.1
		L974.7,615.0 L976.5,616.9 L978.4,618.7 L980.2,620.4 L982.1,622.0 L983.9,623.6 L985.8,625.1 L987.6,626.5
		L989.5,627.8 L991.4,629.0 L993.2,630.2 L995.1,631.2 L996.9,632.2 L998.8,633.1 L1000.6,633.9 L1002.5,634.7
		L1004.3,635.4 L1006.2,636.0 L1008.0,636.6 L1009.9,637.1 L1011.7,637.6 L1013.6,638.0  '/></g>
	</g>
	<g id="gnuplot_plot_2" ><title>Confidence interval</title>
<g fill="none" color="white" stroke="rgb( 31, 120, 180)" stroke-width="1.00" stroke-linecap="butt" stroke-linejoin="miter">
</g>
<g fill="none" color="black" stroke="currentColor" stroke-width="1.00" stroke-linecap="butt" stroke-linejoin="miter">
	<g transform="translate(1089.0,85.0)" stroke="none" fill="black" font-family="Helvetica" font-size="12.00"  text-anchor="start">
		<text><tspan font-family="Helvetica" >Confidence interval</tspan></text>
	</g>
</g>
<g fill="none" color="black" stroke="currentColor" stroke-width="1.00" stroke-linecap="butt" stroke-linejoin="miter">
	<g stroke='none' shape-rendering='crispEdges'>
		<polygon fill = 'rgb( 31, 120, 180)' fill-opacity = '0.250000' points = '1038.5,85.6 1080.7,85.6 1080.7,76.6 1038.5,76.6 '/>
		<polygon fill = 'rgb( 31, 120, 180)' fill-opacity = '0.250000' points = '173.8,543.8 173.8,662.4 175.6,662.4 175.6,541.3 '/>
		<polygon fill = 'rgb( 31, 120, 180)' fill-opacity = '0.250000' points = '175.6,541.3 175.6,662.4 177.5,662.4 177.5,538.8 '/>
		<polygon fill = 'rgb( 31, 120, 180)' fill-opacity = '0.250000' points = '177.5,538.8 177.5,662.4 179.3,662.4 179.3,536.2 '/>
		<polygon fill = 'rgb( 31, 120, 180)' fill-opacity = '0.250000' points = '179.3,536.2 179.3,662.4 181.2,662.4 181.2,533.6 '/>
		<polygon fill = 'rgb( 31, 120, 180)' fill-opacity = '0.250000' points = '181.2,533.6 181.2,662.4 183.0,662.4 183.0,530.9 '/>
		<polygon fill = 'rgb( 31, 120, 180)' fill-opacity = '0.250000' points = '183.0,530.9 183.0,662.4 184.9,662.4 184.9,528.2 '/>
		<polygon fill = 'rgb( 31, 120, 180)' fill-opacity = '0.250000' points = '184.9,528.2 184.9,662.4 186.8,662.4 186.8,525.5 '/>
		<polygon fill = 'rgb( 31, 120, 180)' fill-opacity = '0.250000' points = '186.8,525.5 186.8,662.4 188.6,662.4 188.6,522.6 '/>
		<polygon fill = 'rgb( 31, 120, 180)' fill-opacity = '0.250000' points = '188.6,522.6 188.6,662.4 190.5,662.4 190.5,519.7 '/>
		<polygon fill = 'rgb( 31, 120, 180)' fill-opacity = '0.250000' points = '190.5,519.7 190.5,662.4 192.3,662.4 192.3,516.7 '/>
		<polygon fill = 'rgb( 31, 120, 180)' fill-opacity = '0.250000' points = '192.3,516.7 192.3,662.4 194.2,662.4 194.2,513.6 '/>
		<polygon fill = 'rgb( 31, 120, 180)' fill-opacity = '0.250000' points = '194.2,513.6 194.2,662.4 196.0,662.4 196.0,510.4 '/>
		<polygon fill = 'rgb( 31, 120, 180)' fill-opacity = '0.250000' points = '196.0,510.4 196.0,662.4 197.9,662.4 197.9,507.0 '/>
		<polygon fill = 'rgb( 31, 120, 180)' fill-opacity = '0.250000' points = '197.9,507.0 197.9,662.4 199.7,662.4 199.7,503.5 '/>
		<polygon fill = 'rgb( 31, 120, 180)' fill-opacity = '0.250000' points = '199.7,503.5 199.7,662.4 201.6,662.4 201.6,499.8 '/>
		<polygon fill = 'rgb( 31, 120, 180)' fill-opacity = '0.250000' points = '201.6,499.8 201.6,662.4 203.4,662.4 203.4,496.0 '/>
		<polygon fill = 'rgb( 31, 120, 180)' fill-opacity = '0.250000' points = '203.4,496.0 203.4,662.4 205.3,662.4 205.3,492.0 '/>
		<polygon fill = 'rgb( 31, 120, 180)' fill-opacity = '0.250000' points = '205.3,492.0 205.3,662.4 207.2,662.4 207.2,487.8 '/>
		<polygon fill = 'rgb( 31, 120, 180)' fill-opacity = '0.250000' points = '207.2,487.8 207.2,662.4 209.0,662.4 209.0,483.5 '/>
		<polygon fill = 'rgb( 31, 120, 180)' fill-opacity = '0.250000' points = '209.0,483.5 209.0,662.4 210.9,662.4 210.9,478.9 '/>
		<polygon fill = 'rgb( 31, 120, 180)' fill-opacity = '0.250000' points = '210.9,478.9 210.9,662.4 212.7,662.4 212.7,474.2 '/>
		<polygon fill = 'rgb( 31, 120, 180)' fill-opacity = '0.250000' points = '212.7,474.2 212.7,662.4 214.6,662.4 214.6,469.4 '/>
		<polygon fill = 'rgb( 31, 120, 180)' fill-opacity = '0.250000' points = '214.6,469.4 214.6,662.4 216.4,662.4 216.4,464.4 '/>
		<polygon fill = 'rgb( 31, 120, 180)' fill-opacity = '0.250000' points = '216.4,464.4 216.4,662.4 218.3,662.4 218.3,459.3 '/>
		<polygon fill = 'rgb( 31, 120, 180)' fill-opacity = '0.250000' points = '218.3,459.3 218.3,662.4 220.1,662.4 220.1,454.1 '/>
		<polygon fill = 'rgb( 31, 120, 180)' fill-opacity = '0.250000' points = '220.1,454.1 220.1,662.4 222.0,662.4 222.0,448.8 '/>
		<polygon fill = 'rgb( 31, 120, 180)' fill-opacity = '0.250000' points = '222.0,448.8 222.0,662.4 223.8,662.4 223.8,443.5 '/>
		<polygon fill = 'rgb( 31, 120, 180)' fill-opacity = '0.250000' points = '223.8,443.5 223.8,662.4 225.7,662.4 225.7,438.2 '/>
		<polygon fill = 'rgb( 31, 120, 180)' fill-opacity = '0.250000' points = '225.7,438.2 225.7,662.4 227.5,662.4 227.5,432.9 '/>
		<polygon fill = 'rgb( 31, 120, 180)' fill-opacity = '0.250000' points = '227.5,432.9 227.5,662.4 229.4,662.4 229.4,427.7 '/>
		<polygon fill = 'rgb( 31, 120, 180)' fill-opacity = '0.250000' points = '229.4,427.7 229.4,662.4 231.3,662.4 231.3,422.6 '/>
		<polygon fill = 'rgb( 31, 120, 180)' fill-opacity = '0.250000' points = '231.3,422.6 231.3,662.4 233.1,662.4 233.1,417.6 '/>
		<polygon fill = 'rgb( 31, 120, 180)' fill-opacity = '0.250000' points = '233.1,417.6 233.1,662.4 235.0,662.4 235.0,412.7 '/>
		<polygon fill = 'rgb( 31, 120, 180)' fill-opacity = '0.250000' points = '235.0,412.7 235.0,662.4 236.8,662.4 236.8,408.0 '/>
		<polygon fill = 'rgb( 31, 120, 180)' fill-opacity = '0.250000' points = '236.8,408.0 236.8,662.4 238.7,662.4 238.7,403.5 '/>
		<polygon fill = 'rgb( 31, 120, 180)' fill-opacity = '0.250000' points = '238.7,403.5 238.7,662.4 240.5,662.4 240.5,399.2 '/>
		<polygon fill = 'rgb( 31, 120, 180)' fill-opacity = '0.250000' points = '240.5,399.2 240.5,662.4 242.4,662.4 242.4,395.1 '/>
		<polygon fill = 'rgb( 31, 120, 180)' fill-opacity = '0.250000' points = '242.4,395.1 242.4,662.4 244.2,662.4 244.2,391.1 '/>
		<polygon fill = 'rgb( 31, 120, 180)' fill-opacity = '0.250000' points = '244.2,391.1 244.2,662.4 246.1,662.4 246.1,387.4 '/>
		<polygon fill = 'rgb( 31, 120, 180)' fill-opacity = '0.250000' points = '246.1,387.4 246.1,662.4 247.9,662.4 247.9,383.9 '/>
		<polygon fill = 'rgb( 31, 120, 180)' fill-opacity = '0.250000' points = '247.9,383.9 247.9,662.4 249.8,662.4 249.8,380.5 '/>
		<polygon fill = 'rgb( 31, 120, 180)' fill-opacity = '0.250000' points = '249.8,380.5 249.8,662.4 251.6,662.4 251.6,377.3 '/>
		<polygon fill = 'rgb( 31, 120, 180)' fill-opacity = '0.250000' points = '251.6,377.3 251.6,662.4 253.5,662.4 253.5,374.2 '/>
		<polygon fill = 'rgb( 31, 120, 180)' fill-opacity = '0.250000' points = '253.5,374.2 253.5,662.4 255.4,662.4 255.4,371.2 '/>
		<polygon fill = 'rgb( 31, 120, 180)' fill-opacity = '0.250000' points = '255.4,371.2 255.4,662.4 257.2,662.4 257.2,368.2 '/>
		<polygon fill = 'rgb( 31, 120, 180)' fill-opacity = '0.250000' points = '257.2,368.2 257.2,662.4 259.1,662.4 259.1,365.3 '/>
		<polygon fill = 'rgb( 31, 120, 180)' fill-opacity = '0.250000' points = '259.1,365.3 259.1,662.4 260.9,662.4 260.9,362.4 '/>
		<polygon fill = 'rgb( 31, 120, 180)' fill-opacity = '0.250000' points = '260.9,362.4 260.9,662.4 262.8,662.4 262.8,359.5 '/>
		<polygon fill = 'rgb( 31, 120, 180)' fill-opacity = '0.250000' points = '262.8,359.5 262.8,662.4 264.6,662.4 264.6,356.6 '/>
		<polygon fill = 'rgb( 31, 120, 180)' fill-opacity = '0.250000' points = '264.6,356.6 264.6,662.4 266.5,662.4 266.5,353.7 '/>
		<polygon fill = 'rgb( 31, 120, 180)' fill-opacity = '0.250000' points = '266.5,353.7 266.5,662.4 268.3,662.4 268.3,350.8 '/>
		<polygon fill = 'rgb( 31, 120, 180)' fill-opacity = '0.250000' points = '268.3,350.8 268.3,662.4 270.2,662.4 270.2,347.8 '/>
		<polygon fill = 'rgb( 31, 120, 180)' fill-opacity = '0.250000' points = '270.2,347.8 270.2,662.4 272.0,662.4 272.0,344.8 '/>
		<polygon fill = 'rgb( 31, 120, 180)' fill-opacity = '0.250000' points = '272.0,344.8 272.0,662.4 273.9,662.4 273.9,341.8 '/>
		<polygon fill = 'rgb( 31, 120, 180)' fill-opacity = '0.250000' points = '273.9,341.8 273.9,662.4 275.7,662.4 275.7,338.8 '/>
		<polygon fill = 'rgb( 31, 120, 180)' fill-opacity = '0.250000' points = '275.7,338.8 275.7,662.4 277.6,662.4 277.6,335.8 '/>
		<polygon fill = 'rgb( 31, 120, 180)' fill-opacity = '0.250000' points = '277.6,335.8 277.6,662.4 279.5,662.4 279.5,332.9 '/>
		<polygon fill = 'rgb( 31, 120, 180)' fill-opacity = '0.250000' points = '279.5,332.9 279.5,662.4 281.3,662.4 281.3,330.1 '/>
		<polygon fill = 'rgb( 31, 120, 180)' fill-opacity = '0.250000' points = '281.3,330.1 281.3,662.4 283.2,662.4 283.2,327.3 '/>
		<polygon fill = 'rgb( 31, 120, 180)' fill-opacity = '0.250000' points = '283.2,327.3 283.2,662.4 285.0,662.4 285.0,324.8 '/>
		<polygon fill = 'rgb( 31, 120, 180)' fill-opacity = '0.250000' points = '285.0,324.8 285.0,662.4 286.9,662.4 286.9,322.4 '/>
		<polygon fill = 'rgb( 31, 120, 180)' fill-opacity = '0.250000' points = '286.9,322.4 286.9,662.4 288.7,662.4 288.7,320.2 '/>
		<polygon fill = 'rgb( 31, 120, 180)' fill-opacity = '0.250000' points = '288.7,320.2 288.7,662.4 290.6,662.4 290.6,318.2 '/>
		<polygon fill = 'rgb( 31, 120, 180)' fill-opacity = '0.250000' points = '290.6,318.2 290.6,662.4 292.4,662.4 292.4,316.5 '/>
		<polygon fill = 'rgb( 31, 120, 180)' fill-opacity = '0.250000' points = '292.4,316.5 292.4,662.4 294.3,662.4 294.3,315.0 '/>
		<polygon fill = 'rgb( 31, 120, 180)' fill-opacity = '0.250000' points = '294.3,315.0 294.3,662.4 296.1,662.4 296.1,313.9 '/>
		<polygon fill = 'rgb( 31, 120, 180)' fill-opacity = '0.250000' points = '296.1,313.9 296.1,662.4 298.0,662.4 298.0,312.9 '/>
		<polygon fill = 'rgb( 31, 120, 180)' fill-opacity = '0.250000' points = '298.0,312.9 298.0,662.4 299.8,662.4 299.8,312.3 '/>
		<polygon fill = 'rgb( 31, 120, 180)' fill-opacity = '0.250000' points = '299.8,312.3 299.8,662.4 301.7,662.4 301.7,311.9 '/>
		<polygon fill = 'rgb( 31, 120, 180)' fill-opacity = '0.250000' points = '301.7,311.9 301.7,662.4 303.6,662.4 303.6,311.7 '/>
		<polygon fill = 'rgb( 31, 120, 180)' fill-opacity = '0.250000' points = '303.6,311.7 303.6,662.4 305.4,662.4 305.4,311.7 '/>
		<polygon fill = 'rgb( 31, 120, 180)' fill-opacity = '0.250000' points = '305.4,311.7 305.4,662.4 307.3,662.4 307.3,311.9 '/>
		<polygon fill = 'rgb( 31, 120, 180)' fill-opacity = '0.250000' points = '307.3,311.9 307.3,662.4 309.1,662.4 309.1,312.2 '/>
		<polygon fill = 'rgb( 31, 120, 180)' fill-opacity = '0.250000' points = '309.1,312.2 309.1,662.4 311.0,662.4 311.0,312.6 '/>
		<polygon fill = 'rgb( 31, 120, 180)' fill-opacity = '0.250000' points = '311.0,312.6 311.0,662.4 312.8,662.4 312.8,313.0 '/>
		<polygon fill = 'rgb( 31, 120, 180)' fill-opacity = '0.250000' points = '312.8,313.0 312.8,662.4 314.7,662.4 314.7,313.4 '/>
		<polygon fill = 'rgb( 31, 120, 180)' fill-opacity = '0.250000' points = '314.7,313.4 314.7,662.4 316.5,662.4 316.5,313.8 '/>
		<polygon fill = 'rgb( 31, 120, 180)' fill-opacity = '0.250000' points = '316.5,313.8 316.5,662.4 318.4,662.4 318.4,314.0 '/>
		<polygon fill = 'rgb( 31, 120, 180)' fill-opacity = '0.250000' points = '318.4,314.0 318.4,662.4 320.2,662.4 320.2,314.1 '/>
		<polygon fill = 'rgb( 31, 120, 180)' fill-opacity = '0.250000' points = '320.2,314.1 320.2,662.4 322.1,662.4 322.1,314.0 '/>
		<polygon fill = 'rgb( 31, 120, 180)' fill-opacity = '0.250000' points = '322.1,314.0 322.1,662.4 323.9,662.4 323.9,313.6 '/>
		<polygon fill = 'rgb( 31, 120, 180)' fill-opacity = '0.250000' points = '323.9,313.6 323.9,662.4 325.8,662.4 325.8,313.0 '/>
		<polygon fill = 'rgb( 31, 120, 180)' fill-opacity = '0.250000' points = '325.8,313.0 325.8,662.4 327.7,662.4 327.7,312.1 '/>
		<polygon fill = 'rgb( 31, 120, 180)' fill-opacity = '0.250000' points = '327.7,312.1 327.7,662.4 329.5,662.4 329.5,310.8 '/>
		<polygon fill = 'rgb( 31, 120, 180)' fill-opacity = '0.250000' points = '329.5,310.8 329.5,662.4 331.4,662.4 331.4,309.3 '/>
		<polygon fill = 'rgb( 31, 120, 180)' fill-opacity = '0.250000' points = '331.4,309.3 331.4,662.4 333.2,662.4 333.2,307.4 '/>
		<polygon fill = 'rgb( 31, 120, 180)' fill-opacity = '0.250000' points = '333.2,307.4 333.2,662.4 335.1,662.4 335.1,305.2 '/>
		<polygon fill = 'rgb( 31, 120, 180)' fill-opacity = '0.250000' points = '335.1,305.2 335.1,662.4 336.9,662.4 336.9,302.7 '/>
		<polygon fill = 'rgb( 31, 120, 180)' fill-opacity = '0.250000' points = '336.9,302.7 336.9,662.4 338.8,662.4 338.8,299.9 '/>
		<polygon fill = 'rgb( 31, 120, 180)' fill-opacity = '0.250000' points = '338.8,299.9 338.8,662.4 340.6,662.4 340.6,296.9 '/>
		<polygon fill = 'rgb( 31, 120, 180)' fill-opacity = '0.250000' points = '340.6,296.9 340.6,662.4 342.5,662.4 342.5,293.7 '/>
		<polygon fill = 'rgb( 31, 120, 180)' fill-opacity = '0.250000' points = '342.5,293.7 342.5,662.4 344.3,662.4 344.3,290.3 '/>
		<polygon fill = 'rgb( 31, 120, 180)' fill-opacity = '0.250000' points = '344.3,290.3 344.3,662.4 346.2,662.4 346.2,286.8 '/>
		<polygon fill = 'rgb( 31, 120, 180)' fill-opacity = '0.250000' points = '346.2,286.8 346.2,662.4 348.0,662.4 348.0,283.3 '/>
		<polygon fill = 'rgb( 31, 120, 180)' fill-opacity = '0.250000' points = '348.0,283.3 348.0,662.4 349.9,662.4 349.9,279.7 '/>
		<polygon fill = 'rgb( 31, 120, 180)' fill-opacity = '0.250000' points = '349.9,279.7 349.9,662.4 351.8,662.4 351.8,276.1 '/>
		<polygon fill = 'rgb( 31, 120, 180)' fill-opacity = '0.250000' points = '351.8,276.1 351.8,662.4 353.6,662.4 353.6,272.6 '/>
		<polygon fill = 'rgb( 31, 120, 180)' fill-opacity = '0.250000' points = '353.6,272.6 353.6,662.4 355.5,662.4 355.5,269.1 '/>
		<polygon fill = 'rgb( 31, 120, 180)' fill-opacity = '0.250000' points = '355.5,269.1 355.5,662.4 357.3,662.4 357.3,265.8 '/>
		<polygon fill = 'rgb( 31, 120, 180)' fill-opacity = '0.250000' points = '357.3,265.8 357.3,662.4 359.2,662.4 359.2,262.6 '/>
		<polygon fill = 'rgb( 31, 120, 180)' fill-opacity = '0.250000' points = '359.2,262.6 359.2,662.4 361.0,662.4 361.0,259.6 '/>
		<polygon fill = 'rgb( 31, 120, 180)' fill-opacity = '0.250000' points = '361.0,259.6 361.0,662.4 362.9,662.4 362.9,256.7 '/>
		<polygon fill = 'rgb( 31, 120, 180)' fill-opacity = '0.250000' points = '362.9,256.7 362.9,662.4 364.7,662.4 364.7,253.9 '/>
		<polygon fill = 'rgb( 31, 120, 180)' fill-opacity = '0.250000' points = '364.7,253.9 364.7,662.4 366.6,662.4 366.6,251.2 '/>
		<polygon fill = 'rgb( 31, 120, 180)' fill-opacity = '0.250000' points = '366.6,251.2 366.6,662.4 368.4,662.4 368.4,248.7 '/>
		<polygon fill = 'rgb( 31, 120, 180)' fill-opacity = '0.250000' points = '368.4,248.7 368.4,662.4 370.3,662.4 370.3,246.2 '/>
		<polygon fill = 'rgb( 31, 120, 180)' fill-opacity = '0.250000' points = '370.3,246.2 370.3,662.4 372.1,662.4 372.1,243.7 '/>
		<polygon fill = 'rgb( 31, 120, 180)' fill-opacity = '0.250000' points = '372.1,243.7 372.1,662.4 374.0,662.4 374.0,241.1 '/>
		<polygon fill = 'rgb( 31, 120, 180)' fill-opacity = '0.250000' points = '374.0,241.1 374.0,662.4 375.9,662.4 375.9,238.5 '/>
		<polygon fill = 'rgb( 31, 120, 180)' fill-opacity = '0.250000' points = '375.9,238.5 375.9,662.4 377.7,662.4 377.7,235.8 '/>
		<polygon fill = 'rgb( 31, 120, 180)' fill-opacity = '0.250000' points = '377.7,235.8 377.7,662.4 379.6,662.4 379.6,233.0 '/>
		<polygon fill = 'rgb( 31, 120, 180)' fill-opacity = '0.250000' points = '379.6,233.0 379.6,662.4 381.4,662.4 381.4,230.0 '/>
		<polygon fill = 'rgb( 31, 120, 180)' fill-opacity = '0.250000' points = '381.4,230.0 381.4,662.4 383.3,662.4 383.3,226.7 '/>
		<polygon fill = 'rgb( 31, 120, 180)' fill-opacity = '0.250000' points = '383.3,226.7 383.3,662.4 385.1,662.4 385.1,223.2 '/>
		<polygon fill = 'rgb( 31, 120, 180)' fill-opacity = '0.250000' points = '385.1,223.2 385.1,662.4 387.0,662.4 387.0,219.4 '/>
		<polygon fill = 'rgb( 31, 120, 180)' fill-opacity = '0.250000' points = '387.0,219.4 387.0,662.4 388.8,662.4 388.8,215.3 '/>
		<polygon fill = 'rgb( 31, 120, 180)' fill-opacity = '0.250000' points = '388.8,215.3 388.8,662.4 390.7,662.4 390.7,211.0 '/>
		<polygon fill = 'rgb( 31, 120, 180)' fill-opacity = '0.250000' points = '390.7,211.0 390.7,662.4 392.5,662.4 392.5,206.4 '/>
		<polygon fill = 'rgb( 31, 120, 180)' fill-opacity = '0.250000' points = '392.5,206.4 392.5,662.4 394.4,662.4 394.4,201.5 '/>
		<polygon fill = 'rgb( 31, 120, 180)' fill-opacity = '0.250000' points = '394.4,201.5 394.4,662.4 396.2,662.4 396.2,196.3 '/>
		<polygon fill = 'rgb( 31, 120, 180)' fill-opacity = '0.250000' points = '396.2,196.3 396.2,662.4 398.1,662.4 398.1,191.0 '/>
		<polygon fill = 'rgb( 31, 120, 180)' fill-opacity = '0.250000' points = '398.1,191.0 398.1,662.4 400.0,662.4 400.0,185.5 '/>
		<polygon fill = 'rgb( 31, 120, 180)' fill-opacity = '0.250000' points = '400.0,185.5 400.0,662.4 401.8,662.4 401.8,179.8 '/>
		<polygon fill = 'rgb( 31, 120, 180)' fill-opacity = '0.250000' points = '401.8,179.8 401.8,662.4 403.7,662.4 403.7,174.0 '/>
		<polygon fill = 'rgb( 31, 120, 180)' fill-opacity = '0.250000' points = '403.7,174.0 403.7,662.4 405.5,662.4 405.5,168.2 '/>
		<polygon fill = 'rgb( 31, 120, 180)' fill-opacity = '0.250000' points = '405.5,168.2 405.5,662.4 407.4,662.4 407.4,162.4 '/>
		<polygon fill = 'rgb( 31, 120, 180)' fill-opacity = '0.250000' points = '407.4,162.4 407.4,662.4 409.2,662.4 409.2,156.6 '/>
		<polygon fill = 'rgb( 31, 120, 180)' fill-opacity = '0.250000' points = '409.2,156.6 409.2,662.4 411.1,662.4 411.1,150.9 '/>
		<polygon fill = 'rgb( 31, 120, 180)' fill-opacity = '0.250000' points = '411.1,150.9 411.1,662.4 412.9,662.4 412.9,145.3 '/>
		<polygon fill = 'rgb( 31, 120, 180)' fill-opacity = '0.250000' points = '412.9,145.3 412.9,662.4 414.8,662.4 414.8,139.9 '/>
		<polygon fill = 'rgb( 31, 120, 180)' fill-opacity = '0.250000' points = '414.8,139.9 414.8,662.4 416.6,662.4 416.6,134.6 '/>
		<polygon fill = 'rgb( 31, 120, 180)' fill-opacity = '0.250000' points = '416.6,134.6 416.6,662.4 418.5,662.4 418.5,129.6 '/>
		<polygon fill = 'rgb( 31, 120, 180)' fill-opacity = '0.250000' points = '418.5,129.6 418.5,662.4 420.3,662.4 420.3,124.8 '/>
		<polygon fill = 'rgb( 31, 120, 180)' fill-opacity = '0.250000' points = '420.3,124.8 420.3,662.4 422.2,662.4 422.2,120.3 '/>
		<polygon fill = 'rgb( 31, 120, 180)' fill-opacity = '0.250000' points = '422.2,120.3 422.2,662.4 424.1,662.4 424.1,116.1 '/>
		<polygon fill = 'rgb( 31, 120, 180)' fill-opacity = '0.250000' points = '424.1,116.1 424.1,662.4 425.9,662.4 425.9,112.2 '/>
		<polygon fill = 'rgb( 31, 120, 180)' fill-opacity = '0.250000' points = '425.9,112.2 425.9,662.4 427.8,662.4 427.8,108.6 '/>
		<polygon fill = 'rgb( 31, 120, 180)' fill-opacity = '0.250000' points = '427.8,108.6 427.8,662.4 429.6,662.4 429.6,105.4 '/>
		<polygon fill = 'rgb( 31, 120, 180)' fill-opacity = '0.250000' points = '429.6,105.4 429.6,662.4 431.5,662.4 431.5,102.4 '/>
		<polygon fill = 'rgb( 31, 120, 180)' fill-opacity = '0.250000' points = '431.5,102.4 431.5,662.4 433.3,662.4 433.3,99.9 '/>
		<polygon fill = 'rgb( 31, 120, 180)' fill-opacity = '0.250000' points = '433.3,99.9 433.3,662.4 435.2,662.4 435.2,97.7 '/>
		<polygon fill = 'rgb( 31, 120, 180)' fill-opacity = '0.250000' points = '435.2,97.7 435.2,662.4 437.0,662.4 437.0,95.8 '/>
		<polygon fill = 'rgb( 31, 120, 180)' fill-opacity = '0.250000' points = '437.0,95.8 437.0,662.4 438.9,662.4 438.9,94.2 '/>
		<polygon fill = 'rgb( 31, 120, 180)' fill-opacity = '0.250000' points = '438.9,94.2 438.9,662.4 440.7,662.4 440.7,93.1 '/>
		<polygon fill = 'rgb( 31, 120, 180)' fill-opacity = '0.250000' points = '440.7,93.1 440.7,662.4 442.6,662.4 442.6,92.2 '/>
		<polygon fill = 'rgb( 31, 120, 180)' fill-opacity = '0.250000' points = '442.6,92.2 442.6,662.4 444.5,662.4 444.5,91.7 '/>
		<polygon fill = 'rgb( 31, 120, 180)' fill-opacity = '0.250000' points = '444.5,91.7 444.5,662.4 446.3,662.4 446.3,91.4 '/>
		<polygon fill = 'rgb( 31, 120, 180)' fill-opacity = '0.250000' points = '446.3,91.4 446.3,662.4 448.2,662.4 448.2,91.5 '/>
		<polygon fill = 'rgb( 31, 120, 180)' fill-opacity = '0.250000' points = '448.2,91.5 448.2,662.4 450.0,662.4 450.0,91.7 '/>
		<polygon fill = 'rgb( 31, 120, 180)' fill-opacity = '0.250000' points = '450.0,91.7 450.0,662.4 451.9,662.4 451.9,92.3 '/>
		<polygon fill = 'rgb( 31, 120, 180)' fill-opacity = '0.250000' points = '451.9,92.3 451.9,662.4 453.7,662.4 453.7,93.0 '/>
		<polygon fill = 'rgb( 31, 120, 180)' fill-opacity = '0.250000' points = '453.7,93.0 453.7,662.4 455.6,662.4 455.6,93.8 '/>
		<polygon fill = 'rgb( 31, 120, 180)' fill-opacity = '0.250000' points = '455.6,93.8 455.6,662.4 457.4,662.4 457.4,94.9 '/>
		<polygon fill = 'rgb( 31, 120, 180)' fill-opacity = '0.250000' points = '457.4,94.9 457.4,662.4 459.3,662.4 459.3,96.0 '/>
		<polygon fill = 'rgb( 31, 120, 180)' fill-opacity = '0.250000' points = '459.3,96.0 459.3,662.4 461.1,662.4 461.1,97.1 '/>
		<polygon fill = 'rgb( 31, 120, 180)' fill-opacity = '0.250000' points = '461.1,97.1 461.1,662.4 463.0,662.4 463.0,98.4 '/>
		<polygon fill = 'rgb( 31, 120, 180)' fill-opacity = '0.250000' points = '463.0,98.4 463.0,662.4 464.8,662.4 464.8,99.6 '/>
		<polygon fill = 'rgb( 31, 120, 180)' fill-opacity = '0.250000' points = '464.8,99.6 464.8,662.4 466.7,662.4 466.7,100.9 '/>
		<polygon fill = 'rgb( 31, 120, 180)' fill-opacity = '0.250000' points = '466.7,100.9 466.7,662.4 468.6,662.4 468.6,102.1 '/>
		<polygon fill = 'rgb( 31, 120, 180)' fill-opacity = '0.250000' points = '468.6,102.1 468.6,662.4 470.4,662.4 470.4,103.3 '/>
		<polygon fill = 'rgb( 31, 120, 180)' fill-opacity = '0.250000' points = '470.4,103.3 470.4,662.4 472.3,662.4 472.3,104.5 '/>
		<polygon fill = 'rgb( 31, 120, 180)' fill-opacity = '0.250000' points = '472.3,104.5 472.3,662.4 474.1,662.4 474.1,105.6 '/>
		<polygon fill = 'rgb( 31, 120, 180)' fill-opacity = '0.250000' points = '474.1,105.6 474.1,662.4 476.0,662.4 476.0,106.7 '/>
		<polygon fill = 'rgb( 31, 120, 180)' fill-opacity = '0.250000' points = '476.0,106.7 476.0,662.4 477.8,662.4 477.8,107.7 '/>
		<polygon fill = 'rgb( 31, 120, 180)' fill-opacity = '0.250000' points = '477.8,107.7 477.8,662.4 479.7,662.4 479.7,108.7 '/>
		<polygon fill = 'rgb( 31, 120, 180)' fill-opacity = '0.250000' points = '479.7,108.7 479.7,662.4 481.5,662.4 481.5,109.6 '/>
		<polygon fill = 'rgb( 31, 120, 180)' fill-opacity = '0.250000' points = '481.5,109.6 481.5,662.4 483.4,662.4 483.4,110.5 '/>
		<polygon fill = 'rgb( 31, 120, 180)' fill-opacity = '0.250000' points = '483.4,110.5 483.4,662.4 485.2,662.4 485.2,111.4 '/>
		<polygon fill = 'rgb( 31, 120, 180)' fill-opacity = '0.250000' points = '485.2,111.4 485.2,662.4 487.1,662.4 487.1,112.2 '/>
		<polygon fill = 'rgb( 31, 120, 180)' fill-opacity = '0.250000' points = '487.1,112.2 487.1,662.4 488.9,662.4 488.9,113.0 '/>
		<polygon fill = 'rgb( 31, 120, 180)' fill-opacity = '0.250000' points = '488.9,113.0 488.9,662.4 490.8,662.4 490.8,113.7 '/>
		<polygon fill = 'rgb( 31, 120, 180)' fill-opacity = '0.250000' points = '490.8,113.7 490.8,662.4 492.7,662.4 492.7,114.3 '/>
		<polygon fill = 'rgb( 31, 120, 180)' fill-opacity = '0.250000' points = '492.7,114.3 492.7,662.4 494.5,662.4 494.5,114.8 '/>
		<polygon fill = 'rgb( 31, 120, 180)' fill-opacity = '0.250000' points = '494.5,114.8 494.5,662.4 496.4,662.4 496.4,115.3 '/>
		<polygon fill = 'rgb( 31, 120, 180)' fill-opacity = '0.250000' points = '496.4,115.3 496.4,662.4 498.2,662.4 498.2,115.6 '/>
		<polygon fill = 'rgb( 31, 120, 180)' fill-opacity = '0.250000' points = '498.2,115.6 498.2,662.4 500.1,662.4 500.1,115.8 '/>
		<polygon fill = 'rgb( 31, 120, 180)' fill-opacity = '0.250000' points = '500.1,115.8 500.1,662.4 501.9,662.4 501.9,115.8 '/>
		<polygon fill = 'rgb( 31, 120, 180)' fill-opacity = '0.250000' points = '501.9,115.8 501.9,662.4 503.8,662.4 503.8,115.7 '/>
		<polygon fill = 'rgb( 31, 120, 180)' fill-opacity = '0.250000' points = '503.8,115.7 503.8,662.4 505.6,662.4 505.6,115.5 '/>
		<polygon fill = 'rgb( 31, 120, 180)' fill-opacity = '0.250000' points = '505.6,115.5 505.6,662.4 507.5,662.4 507.5,115.1 '/>
		<polygon fill = 'rgb( 31, 120, 180)' fill-opacity = '0.250000' points = '507.5,115.1 507.5,662.4 509.3,662.4 509.3,114.5 '/>
		<polygon fill = 'rgb( 31, 120, 180)' fill-opacity = '0.250000' points = '509.3,114.5 509.3,662.4 511.2,662.4 511.2,113.8 '/>
		<polygon fill = 'rgb( 31, 120, 180)' fill-opacity = '0.250000' points = '511.2,113.8 511.2,662.4 513.0,662.4 513.0,113.0 '/>
		<polygon fill = 'rgb( 31, 120, 180)' fill-opacity = '0.250000' points = '513.0,113.0 513.0,662.4 514.9,662.4 514.9,112.1 '/>
		<polygon fill = 'rgb( 31, 120, 180)' fill-opacity = '0.250000' points = '514.9,112.1 514.9,662.4 516.8,662.4 516.8,111.1 '/>
		<polygon fill = 'rgb( 31, 120, 180)' fill-opacity = '0.250000' points = '516.8,111.1 516.8,662.4 518.6,662.4 518.6,110.0 '/>
		<polygon fill = 'rgb( 31, 120, 180)' fill-opacity = '0.250000' points = '518.6,110.0 518.6,662.4 520.5,662.4 520.5,108.9 '/>
		<polygon fill = 'rgb( 31, 120, 180)' fill-opacity = '0.250000' points = '520.5,108.9 520.5,662.4 522.3,662.4 522.3,107.9 '/>
		<polygon fill = 'rgb( 31, 120, 180)' fill-opacity = '0.250000' points = '522.3,107.9 522.3,662.4 524.2,662.4 524.2,106.9 '/>
		<polygon fill = 'rgb( 31, 120, 180)' fill-opacity = '0.250000' points = '524.2,106.9 524.2,662.4 526.0,662.4 526.0,106.0 '/>
		<polygon fill = 'rgb( 31, 120, 180)' fill-opacity = '0.250000' points = '526.0,106.0 526.0,662.4 527.9,662.4 527.9,105.3 '/>
		<polygon fill = 'rgb( 31, 120, 180)' fill-opacity = '0.250000' points = '527.9,105.3 527.9,662.4 529.7,662.4 529.7,104.8 '/>
		<polygon fill = 'rgb( 31, 120, 180)' fill-opacity = '0.250000' points = '529.7,104.8 529.7,662.4 531.6,662.4 531.6,104.4 '/>
		<polygon fill = 'rgb( 31, 120, 180)' fill-opacity = '0.250000' points = '531.6,104.4 531.6,662.4 533.4,662.4 533.4,104.3 '/>
		<polygon fill = 'rgb( 31, 120, 180)' fill-opacity = '0.250000' points = '533.4,104.3 533.4,662.4 535.3,662.4 535.3,104.4 '/>
		<polygon fill = 'rgb( 31, 120, 180)' fill-opacity = '0.250000' points = '535.3,104.4 535.3,662.4 537.1,662.4 537.1,104.7 '/>
		<polygon fill = 'rgb( 31, 120, 180)' fill-opacity = '0.250000' points = '537.1,104.7 537.1,662.4 539.0,662.4 539.0,105.3 '/>
		<polygon fill = 'rgb( 31, 120, 180)' fill-opacity = '0.250000' points = '539.0,105.3 539.0,662.4 540.9,662.4 540.9,106.2 '/>
		<polygon fill = 'rgb( 31, 120, 180)' fill-opacity = '0.250000' points = '540.9,106.2 540.9,662.4 542.7,662.4 542.7,107.3 '/>
		<polygon fill = 'rgb( 31, 120, 180)' fill-opacity = '0.250000' points = '542.7,107.3 542.7,662.4 544.6,662.4 544.6,108.6 '/>
		<polygon fill = 'rgb( 31, 120, 180)' fill-opacity = '0.250000' points = '544.6,108.6 544.6,662.4 546.4,662.4 546.4,110.2 '/>
		<polygon fill = 'rgb( 31, 120, 180)' fill-opacity = '0.250000' points = '546.4,110.2 546.4,662.4 548.3,662.4 548.3,111.9 '/>
		<polygon fill = 'rgb( 31, 120, 180)' fill-opacity = '0.250000' points = '548.3,111.9 548.3,662.4 550.1,662.4 550.1,113.7 '/>
		<polygon fill = 'rgb( 31, 120, 180)' fill-opacity = '0.250000' points = '550.1,113.7 550.1,662.4 552.0,662.4 552.0,115.7 '/>
		<polygon fill = 'rgb( 31, 120, 180)' fill-opacity = '0.250000' points = '552.0,115.7 552.0,662.4 553.8,662.4 553.8,117.8 '/>
		<polygon fill = 'rgb( 31, 120, 180)' fill-opacity = '0.250000' points = '553.8,117.8 553.8,662.4 555.7,662.4 555.7,119.9 '/>
		<polygon fill = 'rgb( 31, 120, 180)' fill-opacity = '0.250000' points = '555.7,119.9 555.7,662.4 557.5,662.4 557.5,122.1 '/>
		<polygon fill = 'rgb( 31, 120, 180)' fill-opacity = '0.250000' points = '557.5,122.1 557.5,662.4 559.4,662.4 559.4,124.3 '/>
		<polygon fill = 'rgb( 31, 120, 180)' fill-opacity = '0.250000' points = '559.4,124.3 559.4,662.4 561.2,662.4 561.2,126.5 '/>
		<polygon fill = 'rgb( 31, 120, 180)' fill-opacity = '0.250000' points = '561.2,126.5 561.2,662.4 563.1,662.4 563.1,128.6 '/>
		<polygon fill = 'rgb( 31, 120, 180)' fill-opacity = '0.250000' points = '563.1,128.6 563.1,662.4 565.0,662.4 565.0,130.7 '/>
		<polygon fill = 'rgb( 31, 120, 180)' fill-opacity = '0.250000' points = '565.0,130.7 565.0,662.4 566.8,662.4 566.8,132.8 '/>
		<polygon fill = 'rgb( 31, 120, 180)' fill-opacity = '0.250000' points = '566.8,132.8 566.8,662.4 568.7,662.4 568.7,134.8 '/>
		<polygon fill = 'rgb( 31, 120, 180)' fill-opacity = '0.250000' points = '568.7,134.8 568.7,662.4 570.5,662.4 570.5,136.7 '/>
		<polygon fill = 'rgb( 31, 120, 180)' fill-opacity = '0.250000' points = '570.5,136.7 570.5,662.4 572.4,662.4 572.4,138.5 '/>
		<polygon fill = 'rgb( 31, 120, 180)' fill-opacity = '0.250000' points = '572.4,138.5 572.4,662.4 574.2,662.4 574.2,140.3 '/>
		<polygon fill = 'rgb( 31, 120, 180)' fill-opacity = '0.250000' points = '574.2,140.3 574.2,662.4 576.1,662.4 576.1,142.0 '/>
		<polygon fill = 'rgb( 31, 120, 180)' fill-opacity = '0.250000' points = '576.1,142.0 576.1,662.4 577.9,662.4 577.9,143.6 '/>
		<polygon fill = 'rgb( 31, 120, 180)' fill-opacity = '0.250000' points = '577.9,143.6 577.9,662.4 579.8,662.4 579.8,145.2 '/>
		<polygon fill = 'rgb( 31, 120, 180)' fill-opacity = '0.250000' points = '579.8,145.2 579.8,662.4 581.6,662.4 581.6,146.7 '/>
		<polygon fill = 'rgb( 31, 120, 180)' fill-opacity = '0.250000' points = '581.6,146.7 581.6,662.4 583.5,662.4 583.5,148.2 '/>
		<polygon fill = 'rgb( 31, 120, 180)' fill-opacity = '0.250000' points = '583.5,148.2 583.5,662.4 585.3,662.4 585.3,149.6 '/>
		<polygon fill = 'rgb( 31, 120, 180)' fill-opacity = '0.250000' points = '585.3,149.6 585.3,662.4 587.2,662.4 587.2,151.0 '/>
		<polygon fill = 'rgb( 31, 120, 180)' fill-opacity = '0.250000' points = '587.2,151.0 587.2,662.4 589.1,662.4 589.1,152.3 '/>
		<polygon fill = 'rgb( 31, 120, 180)' fill-opacity = '0.250000' points = '589.1,152.3 589.1,662.4 590.9,662.4 590.9,153.7 '/>
		<polygon fill = 'rgb( 31, 120, 180)' fill-opacity = '0.250000' points = '590.9,153.7 590.9,662.4 592.8,662.4 592.8,155.1 '/>
		<polygon fill = 'rgb( 31, 120, 180)' fill-opacity = '0.250000' points = '592.8,155.1 592.8,662.4 594.6,662.4 594.6,156.5 '/>
		<polygon fill = 'rgb( 31, 120, 180)' fill-opacity = '0.250000' points = '594.6,156.5 594.6,662.4 596.5,662.4 596.5,158.0 '/>
		<polygon fill = 'rgb( 31, 120, 180)' fill-opacity = '0.250000' points = '596.5,158.0 596.5,662.4 598.3,662.4 598.3,159.5 '/>
		<polygon fill = 'rgb( 31, 120, 180)' fill-opacity = '0.250000' points = '598.3,159.5 598.3,662.4 600.2,662.4 600.2,161.1 '/>
		<polygon fill = 'rgb( 31, 120, 180)' fill-opacity = '0.250000' points = '600.2,161.1 600.2,662.4 602.0,662.4 602.0,162.9 '/>
		<polygon fill = 'rgb( 31, 120, 180)' fill-opacity = '0.250000' points = '602.0,162.9 602.0,662.4 603.9,662.4 603.9,164.7 '/>
		<polygon fill = 'rgb( 31, 120, 180)' fill-opacity = '0.250000' points = '603.9,164.7 603.9,662.4 605.7,662.4 605.7,166.8 '/>
		<polygon fill = 'rgb( 31, 120, 180)' fill-opacity = '0.250000' points = '605.7,166.8 605.7,662.4 607.6,662.4 607.6,168.9 '/>
		<polygon fill = 'rgb( 31, 120, 180)' fill-opacity = '0.250000' points = '607.6,168.9 607.6,662.4 609.4,662.4 609.4,171.3 '/>
		<polygon fill = 'rgb( 31, 120, 180)' fill-opacity = '0.250000' points = '609.4,171.3 609.4,662.4 611.3,662.4 611.3,173.8 '/>
		<polygon fill = 'rgb( 31, 120, 180)' fill-opacity = '0.250000' points = '611.3,173.8 611.3,662.4 613.2,662.4 613.2,176.6 '/>
		<polygon fill = 'rgb( 31, 120, 180)' fill-opacity = '0.250000' points = '613.2,176.6 613.2,662.4 615.0,662.4 615.0,179.5 '/>
		<polygon fill = 'rgb( 31, 120, 180)' fill-opacity = '0.250000' points = '615.0,179.5 615.0,662.4 616.9,662.4 616.9,182.6 '/>
		<polygon fill = 'rgb( 31, 120, 180)' fill-opacity = '0.250000' points = '616.9,182.6 616.9,662.4 618.7,662.4 618.7,185.9 '/>
		<polygon fill = 'rgb( 31, 120, 180)' fill-opacity = '0.250000' points = '618.7,185.9 618.7,662.4 620.6,662.4 620.6,189.4 '/>
		<polygon fill = 'rgb( 31, 120, 180)' fill-opacity = '0.250000' points = '620.6,189.4 620.6,662.4 622.4,662.4 622.4,193.0 '/>
		<polygon fill = 'rgb( 31, 120, 180)' fill-opacity = '0.250000' points = '622.4,193.0 622.4,662.4 624.3,662.4 624.3,196.7 '/>
		<polygon fill = 'rgb( 31, 120, 180)' fill-opacity = '0.250000' points = '624.3,196.7 624.3,662.4 626.1,662.4 626.1,200.4 '/>
		<polygon fill = 'rgb( 31, 120, 180)' fill-opacity = '0.250000' points = '626.1,200.4 626.1,662.4 628.0,662.4 628.0,204.3 '/>
		<polygon fill = 'rgb( 31, 120, 180)' fill-opacity = '0.250000' points = '628.0,204.3 628.0,662.4 629.8,662.4 629.8,208.2 '/>
		<polygon fill = 'rgb( 31, 120, 180)' fill-opacity = '0.250000' points = '629.8,208.2 629.8,662.4 631.7,662.4 631.7,212.0 '/>
		<polygon fill = 'rgb( 31, 120, 180)' fill-opacity = '0.250000' points = '631.7,212.0 631.7,662.4 633.5,662.4 633.5,215.9 '/>
		<polygon fill = 'rgb( 31, 120, 180)' fill-opacity = '0.250000' points = '633.5,215.9 633.5,662.4 635.4,662.4 635.4,219.6 '/>
		<polygon fill = 'rgb( 31, 120, 180)' fill-opacity = '0.250000' points = '635.4,219.6 635.4,662.4 637.3,662.4 637.3,223.3 '/>
		<polygon fill = 'rgb( 31, 120, 180)' fill-opacity = '0.250000' points = '637.3,223.3 637.3,662.4 639.1,662.4 639.1,226.9 '/>
		<polygon fill = 'rgb( 31, 120, 180)' fill-opacity = '0.250000' points = '639.1,226.9 639.1,662.4 641.0,662.4 641.0,230.4 '/>
		<polygon fill = 'rgb( 31, 120, 180)' fill-opacity = '0.250000' points = '641.0,230.4 641.0,662.4 642.8,662.4 642.8,233.8 '/>
		<polygon fill = 'rgb( 31, 120, 180)' fill-opacity = '0.250000' points = '642.8,233.8 642.8,662.4 644.7,662.4 644.7,237.1 '/>
		<polygon fill = 'rgb( 31, 120, 180)' fill-opacity = '0.250000' points = '644.7,237.1 644.7,662.4 646.5,662.4 646.5,240.3 '/>
		<polygon fill = 'rgb( 31, 120, 180)' fill-opacity = '0.250000' points = '646.5,240.3 646.5,662.4 648.4,662.4 648.4,243.5 '/>
		<polygon fill = 'rgb( 31, 120, 180)' fill-opacity = '0.250000' points = '648.4,243.5 648.4,662.4 650.2,662.4 650.2,246.6 '/>
		<polygon fill = 'rgb( 31, 120, 180)' fill-opacity = '0.250000' points = '650.2,246.6 650.2,662.4 652.1,662.4 652.1,249.6 '/>
		<polygon fill = 'rgb( 31, 120, 180)' fill-opacity = '0.250000' points = '652.1,249.6 652.1,662.4 653.9,662.4 653.9,252.6 '/>
		<polygon fill = 'rgb( 31, 120, 180)' fill-opacity = '0.250000' points = '653.9,252.6 653.9,662.4 655.8,662.4 655.8,255.7 '/>
		<polygon fill = 'rgb( 31, 120, 180)' fill-opacity = '0.250000' points = '655.8,255.7 655.8,662.4 657.6,662.4 657.6,258.8 '/>
		<polygon fill = 'rgb( 31, 120, 180)' fill-opacity = '0.250000' points = '657.6,258.8 657.6,662.4 659.5,662.4 659.5,261.9 '/>
		<polygon fill = 'rgb( 31, 120, 180)' fill-opacity = '0.250000' points = '659.5,261.9 659.5,662.4 661.4,662.4 661.4,265.1 '/>
		<polygon fill = 'rgb( 31, 120, 180)' fill-opacity = '0.250000' points = '661.4,265.1 661.4,662.4 663.2,662.4 663.2,268.5 '/>
		<polygon fill = 'rgb( 31, 120, 180)' fill-opacity = '0.250000' points = '663.2,268.5 663.2,662.4 665.1,662.4 665.1,271.9 '/>
		<polygon fill = 'rgb( 31, 120, 180)' fill-opacity = '0.250000' points = '665.1,271.9 665.1,662.4 666.9,662.4 666.9,275.4 '/>
		<polygon fill = 'rgb( 31, 120, 180)' fill-opacity = '0.250000' points = '666.9,275.4 666.9,662.4 668.8,662.4 668.8,279.1 '/>
		<polygon fill = 'rgb( 31, 120, 180)' fill-opacity = '0.250000' points = '668.8,279.1 668.8,662.4 670.6,662.4 670.6,282.8 '/>
		<polygon fill = 'rgb( 31, 120, 180)' fill-opacity = '0.250000' points = '670.6,282.8 670.6,662.4 672.5,662.4 672.5,286.6 '/>
		<polygon fill = 'rgb( 31, 120, 180)' fill-opacity = '0.250000' points = '672.5,286.6 672.5,662.4 674.3,662.4 674.3,290.4 '/>
		<polygon fill = 'rgb( 31, 120, 180)' fill-opacity = '0.250000' points = '674.3,290.4 674.3,662.4 676.2,662.4 676.2,294.3 '/>
		<polygon fill = 'rgb( 31, 120, 180)' fill-opacity = '0.250000' points = '676.2,294.3 676.2,662.4 678.0,662.4 678.0,298.1 '/>
		<polygon fill = 'rgb( 31, 120, 180)' fill-opacity = '0.250000' points = '678.0,298.1 678.0,662.4 679.9,662.4 679.9,301.9 '/>
		<polygon fill = 'rgb( 31, 120, 180)' fill-opacity = '0.250000' points = '679.9,301.9 679.9,662.4 681.8,662.4 681.8,305.5 '/>
		<polygon fill = 'rgb( 31, 120, 180)' fill-opacity = '0.250000' points = '681.8,305.5 681.8,662.4 683.6,662.4 683.6,309.1 '/>
		<polygon fill = 'rgb( 31, 120, 180)' fill-opacity = '0.250000' points = '683.6,309.1 683.6,662.4 685.5,662.4 685.5,312.5 '/>
		<polygon fill = 'rgb( 31, 120, 180)' fill-opacity = '0.250000' points = '685.5,312.5 685.5,662.4 687.3,662.4 687.3,315.7 '/>
		<polygon fill = 'rgb( 31, 120, 180)' fill-opacity = '0.250000' points = '687.3,315.7 687.3,662.4 689.2,662.4 689.2,318.7 '/>
		<polygon fill = 'rgb( 31, 120, 180)' fill-opacity = '0.250000' points = '689.2,318.7 689.2,662.4 691.0,662.4 691.0,321.4 '/>
		<polygon fill = 'rgb( 31, 120, 180)' fill-opacity = '0.250000' points = '691.0,321.4 691.0,662.4 692.9,662.4 692.9,323.9 '/>
		<polygon fill = 'rgb( 31, 120, 180)' fill-opacity = '0.250000' points = '692.9,323.9 692.9,662.4 694.7,662.4 694.7,326.1 '/>
		<polygon fill = 'rgb( 31, 120, 180)' fill-opacity = '0.250000' points = '694.7,326.1 694.7,662.4 696.6,662.4 696.6,328.0 '/>
		<polygon fill = 'rgb( 31, 120, 180)' fill-opacity = '0.250000' points = '696.6,328.0 696.6,662.4 698.4,662.4 698.4,329.6 '/>
		<polygon fill = 'rgb( 31, 120, 180)' fill-opacity = '0.250000' points = '698.4,329.6 698.4,662.4 700.3,662.4 700.3,331.0 '/>
		<polygon fill = 'rgb( 31, 120, 180)' fill-opacity = '0.250000' points = '700.3,331.0 700.3,662.4 702.1,662.4 702.1,332.1 '/>
		<polygon fill = 'rgb( 31, 120, 180)' fill-opacity = '0.250000' points = '702.1,332.1 702.1,662.4 704.0,662.4 704.0,332.9 '/>
		<polygon fill = 'rgb( 31, 120, 180)' fill-opacity = '0.250000' points = '704.0,332.9 704.0,662.4 705.9,662.4 705.9,333.5 '/>
		<polygon fill = 'rgb( 31, 120, 180)' fill-opacity = '0.250000' points = '705.9,333.5 705.9,662.4 707.7,662.4 707.7,334.0 '/>
		<polygon fill = 'rgb( 31, 120, 180)' fill-opacity = '0.250000' points = '707.7,334.0 707.7,662.4 709.6,662.4 709.6,334.2 '/>
		<polygon fill = 'rgb( 31, 120, 180)' fill-opacity = '0.250000' points = '709.6,334.2 709.6,662.4 711.4,662.4 711.4,334.3 '/>
		<polygon fill = 'rgb( 31, 120, 180)' fill-opacity = '0.250000' points = '711.4,334.3 711.4,662.4 713.3,662.4 713.3,334.3 '/>
		<polygon fill = 'rgb( 31, 120, 180)' fill-opacity = '0.250000' points = '713.3,334.3 713.3,662.4 715.1,662.4 715.1,334.1 '/>
		<polygon fill = 'rgb( 31, 120, 180)' fill-opacity = '0.250000' points = '715.1,334.1 715.1,662.4 717.0,662.4 717.0,333.9 '/>
		<polygon fill = 'rgb( 31, 120, 180)' fill-opacity = '0.250000' points = '717.0,333.9 717.0,662.4 718.8,662.4 718.8,333.6 '/>
		<polygon fill = 'rgb( 31, 120, 180)' fill-opacity = '0.250000' points = '718.8,333.6 718.8,662.4 720.7,662.4 720.7,333.4 '/>
		<polygon fill = 'rgb( 31, 120, 180)' fill-opacity = '0.250000' points = '720.7,333.4 720.7,662.4 722.5,662.4 722.5,333.1 '/>
		<polygon fill = 'rgb( 31, 120, 180)' fill-opacity = '0.250000' points = '722.5,333.1 722.5,662.4 724.4,662.4 724.4,332.8 '/>
		<polygon fill = 'rgb( 31, 120, 180)' fill-opacity = '0.250000' points = '724.4,332.8 724.4,662.4 726.2,662.4 726.2,332.7 '/>
		<polygon fill = 'rgb( 31, 120, 180)' fill-opacity = '0.250000' points = '726.2,332.7 726.2,662.4 728.1,662.4 728.1,332.6 '/>
		<polygon fill = 'rgb( 31, 120, 180)' fill-opacity = '0.250000' points = '728.1,332.6 728.1,662.4 730.0,662.4 730.0,332.6 '/>
		<polygon fill = 'rgb( 31, 120, 180)' fill-opacity = '0.250000' points = '730.0,332.6 730.0,662.4 731.8,662.4 731.8,332.7 '/>
		<polygon fill = 'rgb( 31, 120, 180)' fill-opacity = '0.250000' points = '731.8,332.7 731.8,662.4 733.7,662.4 733.7,333.0 '/>
		<polygon fill = 'rgb( 31, 120, 180)' fill-opacity = '0.250000' points = '733.7,333.0 733.7,662.4 735.5,662.4 735.5,333.5 '/>
		<polygon fill = 'rgb( 31, 120, 180)' fill-opacity = '0.250000' points = '735.5,333.5 735.5,662.4 737.4,662.4 737.4,334.3 '/>
		<polygon fill = 'rgb( 31, 120, 180)' fill-opacity = '0.250000' points = '737.4,334.3 737.4,662.4 739.2,662.4 739.2,335.3 '/>
		<polygon fill = 'rgb( 31, 120, 180)' fill-opacity = '0.250000' points = '739.2,335.3 739.2,662.4 741.1,662.4 741.1,336.5 '/>
		<polygon fill = 'rgb( 31, 120, 180)' fill-opacity = '0.250000' points = '741.1,336.5 741.1,662.4 742.9,662.4 742.9,338.0 '/>
		<polygon fill = 'rgb( 31, 120, 180)' fill-opacity = '0.250000' points = '742.9,338.0 742.9,662.4 744.8,662.4 744.8,339.9 '/>
		<polygon fill = 'rgb( 31, 120, 180)' fill-opacity = '0.250000' points = '744.8,339.9 744.8,662.4 746.6,662.4 746.6,342.1 '/>
		<polygon fill = 'rgb( 31, 120, 180)' fill-opacity = '0.250000' points = '746.6,342.1 746.6,662.4 748.5,662.4 748.5,344.6 '/>
		<polygon fill = 'rgb( 31, 120, 180)' fill-opacity = '0.250000' points = '748.5,344.6 748.5,662.4 750.3,662.4 750.3,347.4 '/>
		<polygon fill = 'rgb( 31, 120, 180)' fill-opacity = '0.250000' points = '750.3,347.4 750.3,662.4 752.2,662.4 752.2,350.6 '/>
		<polygon fill = 'rgb( 31, 120, 180)' fill-opacity = '0.250000' points = '752.2,350.6 752.2,662.4 754.1,662.4 754.1,354.1 '/>
		<polygon fill = 'rgb( 31, 120, 180)' fill-opacity = '0.250000' points = '754.1,354.1 754.1,662.4 755.9,662.4 755.9,357.9 '/>
		<polygon fill = 'rgb( 31, 120, 180)' fill-opacity = '0.250000' points = '755.9,357.9 755.9,662.4 757.8,662.4 757.8,362.0 '/>
		<polygon fill = 'rgb( 31, 120, 180)' fill-opacity = '0.250000' points = '757.8,362.0 757.8,662.4 759.6,662.4 759.6,366.3 '/>
		<polygon fill = 'rgb( 31, 120, 180)' fill-opacity = '0.250000' points = '759.6,366.3 759.6,662.4 761.5,662.4 761.5,370.8 '/>
		<polygon fill = 'rgb( 31, 120, 180)' fill-opacity = '0.250000' points = '761.5,370.8 761.5,662.4 763.3,662.4 763.3,375.5 '/>
		<polygon fill = 'rgb( 31, 120, 180)' fill-opacity = '0.250000' points = '763.3,375.5 763.3,662.4 765.2,662.4 765.2,380.3 '/>
		<polygon fill = 'rgb( 31, 120, 180)' fill-opacity = '0.250000' points = '765.2,380.3 765.2,662.4 767.0,662.4 767.0,385.1 '/>
		<polygon fill = 'rgb( 31, 120, 180)' fill-opacity = '0.250000' points = '767.0,385.1 767.0,662.4 768.9,662.4 768.9,390.0 '/>
		<polygon fill = 'rgb( 31, 120, 180)' fill-opacity = '0.250000' points = '768.9,390.0 768.9,662.4 770.7,662.4 770.7,394.9 '/>
		<polygon fill = 'rgb( 31, 120, 180)' fill-opacity = '0.250000' points = '770.7,394.9 770.7,662.4 772.6,662.4 772.6,399.7 '/>
		<polygon fill = 'rgb( 31, 120, 180)' fill-opacity = '0.250000' points = '772.6,399.7 772.6,662.4 774.4,662.4 774.4,404.4 '/>
		<polygon fill = 'rgb( 31, 120, 180)' fill-opacity = '0.250000' points = '774.4,404.4 774.4,662.4 776.3,662.4 776.3,408.9 '/>
		<polygon fill = 'rgb( 31, 120, 180)' fill-opacity = '0.250000' points = '776.3,408.9 776.3,662.4 778.2,662.4 778.2,413.2 '/>
		<polygon fill = 'rgb( 31, 120, 180)' fill-opacity = '0.250000' points = '778.2,413.2 778.2,662.4 780.0,662.4 780.0,417.3 '/>
		<polygon fill = 'rgb( 31, 120, 180)' fill-opacity = '0.250000' points = '780.0,417.3 780.0,662.4 781.9,662.4 781.9,421.2 '/>
		<polygon fill = 'rgb( 31, 120, 180)' fill-opacity = '0.250000' points = '781.9,421.2 781.9,662.4 783.7,662.4 783.7,424.7 '/>
		<polygon fill = 'rgb( 31, 120, 180)' fill-opacity = '0.250000' points = '783.7,424.7 783.7,662.4 785.6,662.4 785.6,428.0 '/>
		<polygon fill = 'rgb( 31, 120, 180)' fill-opacity = '0.250000' points = '785.6,428.0 785.6,662.4 787.4,662.4 787.4,430.9 '/>
		<polygon fill = 'rgb( 31, 120, 180)' fill-opacity = '0.250000' points = '787.4,430.9 787.4,662.4 789.3,662.4 789.3,433.5 '/>
		<polygon fill = 'rgb( 31, 120, 180)' fill-opacity = '0.250000' points = '789.3,433.5 789.3,662.4 791.1,662.4 791.1,435.8 '/>
		<polygon fill = 'rgb( 31, 120, 180)' fill-opacity = '0.250000' points = '791.1,435.8 791.1,662.4 793.0,662.4 793.0,437.8 '/>
		<polygon fill = 'rgb( 31, 120, 180)' fill-opacity = '0.250000' points = '793.0,437.8 793.0,662.4 794.8,662.4 794.8,439.4 '/>
		<polygon fill = 'rgb( 31, 120, 180)' fill-opacity = '0.250000' points = '794.8,439.4 794.8,662.4 796.7,662.4 796.7,440.7 '/>
		<polygon fill = 'rgb( 31, 120, 180)' fill-opacity = '0.250000' points = '796.7,440.7 796.7,662.4 798.5,662.4 798.5,441.7 '/>
		<polygon fill = 'rgb( 31, 120, 180)' fill-opacity = '0.250000' points = '798.5,441.7 798.5,662.4 800.4,662.4 800.4,442.4 '/>
		<polygon fill = 'rgb( 31, 120, 180)' fill-opacity = '0.250000' points = '800.4,442.4 800.4,662.4 802.3,662.4 802.3,442.9 '/>
		<polygon fill = 'rgb( 31, 120, 180)' fill-opacity = '0.250000' points = '802.3,442.9 802.3,662.4 804.1,662.4 804.1,443.0 '/>
		<polygon fill = 'rgb( 31, 120, 180)' fill-opacity = '0.250000' points = '804.1,443.0 804.1,662.4 806.0,662.4 806.0,442.9 '/>
		<polygon fill = 'rgb( 31, 120, 180)' fill-opacity = '0.250000' points = '806.0,442.9 806.0,662.4 807.8,662.4 807.8,442.6 '/>
		<polygon fill = 'rgb( 31, 120, 180)' fill-opacity = '0.250000' points = '807.8,442.6 807.8,662.4 809.7,662.4 809.7,442.0 '/>
		<polygon fill = 'rgb( 31, 120, 180)' fill-opacity = '0.250000' points = '809.7,442.0 809.7,662.4 811.5,662.4 811.5,441.3 '/>
		<polygon fill = 'rgb( 31, 120, 180)' fill-opacity = '0.250000' points = '811.5,441.3 811.5,662.4 813.4,662.4 813.4,440.4 '/>
		<polygon fill = 'rgb( 31, 120, 180)' fill-opacity = '0.250000' points = '813.4,440.4 813.4,662.4 815.2,662.4 815.2,439.3 '/>
		<polygon fill = 'rgb( 31, 120, 180)' fill-opacity = '0.250000' points = '815.2,439.3 815.2,662.4 817.1,662.4 817.1,438.2 '/>
		<polygon fill = 'rgb( 31, 120, 180)' fill-opacity = '0.250000' points = '817.1,438.2 817.1,662.4 818.9,662.4 818.9,437.0 '/>
		<polygon fill = 'rgb( 31, 120, 180)' fill-opacity = '0.250000' points = '818.9,437.0 818.9,662.4 820.8,662.4 820.8,435.7 '/>
		<polygon fill = 'rgb( 31, 120, 180)' fill-opacity = '0.250000' points = '820.8,435.7 820.8,662.4 822.6,662.4 822.6,434.5 '/>
		<polygon fill = 'rgb( 31, 120, 180)' fill-opacity = '0.250000' points = '822.6,434.5 822.6,662.4 824.5,662.4 824.5,433.3 '/>
		<polygon fill = 'rgb( 31, 120, 180)' fill-opacity = '0.250000' points = '824.5,433.3 824.5,662.4 826.4,662.4 826.4,432.2 '/>
		<polygon fill = 'rgb( 31, 120, 180)' fill-opacity = '0.250000' points = '826.4,432.2 826.4,662.4 828.2,662.4 828.2,431.2 '/>
		<polygon fill = 'rgb( 31, 120, 180)' fill-opacity = '0.250000' points = '828.2,431.2 828.2,662.4 830.1,662.4 830.1,430.3 '/>
		<polygon fill = 'rgb( 31, 120, 180)' fill-opacity = '0.250000' points = '830.1,430.3 830.1,662.4 831.9,662.4 831.9,429.7 '/>
		<polygon fill = 'rgb( 31, 120, 180)' fill-opacity = '0.250000' points = '831.9,429.7 831.9,662.4 833.8,662.4 833.8,429.3 '/>
		<polygon fill = 'rgb( 31, 120, 180)' fill-opacity = '0.250000' points = '833.8,429.3 833.8,662.4 835.6,662.4 835.6,429.2 '/>
		<polygon fill = 'rgb( 31, 120, 180)' fill-opacity = '0.250000' points = '835.6,429.2 835.6,662.4 837.5,662.4 837.5,429.3 '/>
		<polygon fill = 'rgb( 31, 120, 180)' fill-opacity = '0.250000' points = '837.5,429.3 837.5,662.4 839.3,662.4 839.3,429.8 '/>
		<polygon fill = 'rgb( 31, 120, 180)' fill-opacity = '0.250000' points = '839.3,429.8 839.3,662.4 841.2,662.4 841.2,430.6 '/>
		<polygon fill = 'rgb( 31, 120, 180)' fill-opacity = '0.250000' points = '841.2,430.6 841.2,662.4 843.0,662.4 843.0,431.7 '/>
		<polygon fill = 'rgb( 31, 120, 180)' fill-opacity = '0.250000' points = '843.0,431.7 843.0,662.4 844.9,662.4 844.9,433.1 '/>
		<polygon fill = 'rgb( 31, 120, 180)' fill-opacity = '0.250000' points = '844.9,433.1 844.9,662.4 846.7,662.4 846.7,434.9 '/>
		<polygon fill = 'rgb( 31, 120, 180)' fill-opacity = '0.250000' points = '846.7,434.9 846.7,662.4 848.6,662.4 848.6,437.0 '/>
		<polygon fill = 'rgb( 31, 120, 180)' fill-opacity = '0.250000' points = '848.6,437.0 848.6,662.4 850.5,662.4 850.5,439.4 '/>
		<polygon fill = 'rgb( 31, 120, 180)' fill-opacity = '0.250000' points = '850.5,439.4 850.5,662.4 852.3,662.4 852.3,442.0 '/>
		<polygon fill = 'rgb( 31, 120, 180)' fill-opacity = '0.250000' points = '852.3,442.0 852.3,662.4 854.2,662.4 854.2,444.9 '/>
		<polygon fill = 'rgb( 31, 120, 180)' fill-opacity = '0.250000' points = '854.2,444.9 854.2,662.4 856.0,662.4 856.0,448.0 '/>
		<polygon fill = 'rgb( 31, 120, 180)' fill-opacity = '0.250000' points = '856.0,448.0 856.0,662.4 857.9,662.4 857.9,451.3 '/>
		<polygon fill = 'rgb( 31, 120, 180)' fill-opacity = '0.250000' points = '857.9,451.3 857.9,662.4 859.7,662.4 859.7,454.7 '/>
		<polygon fill = 'rgb( 31, 120, 180)' fill-opacity = '0.250000' points = '859.7,454.7 859.7,662.4 861.6,662.4 861.6,458.2 '/>
		<polygon fill = 'rgb( 31, 120, 180)' fill-opacity = '0.250000' points = '861.6,458.2 861.6,662.4 863.4,662.4 863.4,461.8 '/>
		<polygon fill = 'rgb( 31, 120, 180)' fill-opacity = '0.250000' points = '863.4,461.8 863.4,662.4 865.3,662.4 865.3,465.5 '/>
		<polygon fill = 'rgb( 31, 120, 180)' fill-opacity = '0.250000' points = '865.3,465.5 865.3,662.4 867.1,662.4 867.1,469.2 '/>
		<polygon fill = 'rgb( 31, 120, 180)' fill-opacity = '0.250000' points = '867.1,469.2 867.1,662.4 869.0,662.4 869.0,472.8 '/>
		<polygon fill = 'rgb( 31, 120, 180)' fill-opacity = '0.250000' points = '869.0,472.8 869.0,662.4 870.8,662.4 870.8,476.4 '/>
		<polygon fill = 'rgb( 31, 120, 180)' fill-opacity = '0.250000' points = '870.8,476.4 870.8,662.4 872.7,662.4 872.7,480.0 '/>
		<polygon fill = 'rgb( 31, 120, 180)' fill-opacity = '0.250000' points = '872.7,480.0 872.7,662.4 874.6,662.4 874.6,483.5 '/>
		<polygon fill = 'rgb( 31, 120, 180)' fill-opacity = '0.250000' points = '874.6,483.5 874.6,662.4 876.4,662.4 876.4,487.0 '/>
		<polygon fill = 'rgb( 31, 120, 180)' fill-opacity = '0.250000' points = '876.4,487.0 876.4,662.4 878.3,662.4 878.3,490.4 '/>
		<polygon fill = 'rgb( 31, 120, 180)' fill-opacity = '0.250000' points = '878.3,490.4 878.3,662.4 880.1,662.4 880.1,493.7 '/>
		<polygon fill = 'rgb( 31, 120, 180)' fill-opacity = '0.250000' points = '880.1,493.7 880.1,662.4 882.0,662.4 882.0,496.9 '/>
		<polygon fill = 'rgb( 31, 120, 180)' fill-opacity = '0.250000' points = '882.0,496.9 882.0,662.4 883.8,662.4 883.8,500.1 '/>
		<polygon fill = 'rgb( 31, 120, 180)' fill-opacity = '0.250000' points = '883.8,500.1 883.8,662.4 885.7,662.4 885.7,503.2 '/>
		<polygon fill = 'rgb( 31, 120, 180)' fill-opacity = '0.250000' points = '885.7,503.2 885.7,662.4 887.5,662.4 887.5,506.3 '/>
		<polygon fill = 'rgb( 31, 120, 180)' fill-opacity = '0.250000' points = '887.5,506.3 887.5,662.4 889.4,662.4 889.4,509.3 '/>
		<polygon fill = 'rgb( 31, 120, 180)' fill-opacity = '0.250000' points = '889.4,509.3 889.4,662.4 891.2,662.4 891.2,512.2 '/>
		<polygon fill = 'rgb( 31, 120, 180)' fill-opacity = '0.250000' points = '891.2,512.2 891.2,662.4 893.1,662.4 893.1,515.2 '/>
		<polygon fill = 'rgb( 31, 120, 180)' fill-opacity = '0.250000' points = '893.1,515.2 893.1,662.4 894.9,662.4 894.9,518.1 '/>
		<polygon fill = 'rgb( 31, 120, 180)' fill-opacity = '0.250000' points = '894.9,518.1 894.9,662.4 896.8,662.4 896.8,521.0 '/>
		<polygon fill = 'rgb( 31, 120, 180)' fill-opacity = '0.250000' points = '896.8,521.0 896.8,662.4 898.7,662.4 898.7,523.8 '/>
		<polygon fill = 'rgb( 31, 120, 180)' fill-opacity = '0.250000' points = '898.7,523.8 898.7,662.4 900.5,662.4 900.5,526.7 '/>
		<polygon fill = 'rgb( 31, 120, 180)' fill-opacity = '0.250000' points = '900.5,526.7 900.5,662.4 902.4,662.4 902.4,529.5 '/>
		<polygon fill = 'rgb( 31, 120, 180)' fill-opacity = '0.250000' points = '902.4,529.5 902.4,662.4 904.2,662.4 904.2,532.3 '/>
		<polygon fill = 'rgb( 31, 120, 180)' fill-opacity = '0.250000' points = '904.2,532.3 904.2,662.4 906.1,662.4 906.1,535.0 '/>
		<polygon fill = 'rgb( 31, 120, 180)' fill-opacity = '0.250000' points = '906.1,535.0 906.1,662.4 907.9,662.4 907.9,537.8 '/>
		<polygon fill = 'rgb( 31, 120, 180)' fill-opacity = '0.250000' points = '907.9,537.8 907.9,662.4 909.8,662.4 909.8,540.4 '/>
		<polygon fill = 'rgb( 31, 120, 180)' fill-opacity = '0.250000' points = '909.8,540.4 909.8,662.4 911.6,662.4 911.6,543.1 '/>
		<polygon fill = 'rgb( 31, 120, 180)' fill-opacity = '0.250000' points = '911.6,543.1 911.6,662.4 913.5,662.4 913.5,545.6 '/>
		<polygon fill = 'rgb( 31, 120, 180)' fill-opacity = '0.250000' points = '913.5,545.6 913.5,662.4 915.3,662.4 915.3,548.1 '/>
		<polygon fill = 'rgb( 31, 120, 180)' fill-opacity = '0.250000' points = '915.3,548.1 915.3,662.4 917.2,662.4 917.2,550.6 '/>
		<polygon fill = 'rgb( 31, 120, 180)' fill-opacity = '0.250000' points = '917.2,550.6 917.2,662.4 919.1,662.4 919.1,553.0 '/>
		<polygon fill = 'rgb( 31, 120, 180)' fill-opacity = '0.250000' points = '919.1,553.0 919.1,662.4 920.9,662.4 920.9,555.3 '/>
		<polygon fill = 'rgb( 31, 120, 180)' fill-opacity = '0.250000' points = '920.9,555.3 920.9,662.4 922.8,662.4 922.8,557.6 '/>
		<polygon fill = 'rgb( 31, 120, 180)' fill-opacity = '0.250000' points = '922.8,557.6 922.8,662.4 924.6,662.4 924.6,559.8 '/>
		<polygon fill = 'rgb( 31, 120, 180)' fill-opacity = '0.250000' points = '924.6,559.8 924.6,662.4 926.5,662.4 926.5,561.9 '/>
	</g>
</g>
	</g>
	<g id="gnuplot_plot_3" ><title>Point estimate</title>
<g fill="none" color="white" stroke="rgb( 31, 120, 180)" stroke-width="2.00" stroke-linecap="butt" stroke-linejoin="miter">
</g>
<g fill="none" color="black" stroke="currentColor" stroke-width="2.00" stroke-linecap="butt" stroke-linejoin="miter">
	<g transform="translate(1089.0,103.0)" stroke="none" fill="black" font-family="Helvetica" font-size="12.00"  text-anchor="start">
		<text><tspan font-family="Helvetica" >Point estimate</tspan></text>
	</g>
</g>
<g fill="none" color="black" stroke="currentColor" stroke-width="2.00" stroke-linecap="butt" stroke-linejoin="miter">
	<path stroke='rgb( 31, 120, 180)'  d='M1038.5,99.1 L1080.7,99.1 M557.5,662.4 L557.5,122.0  '/></g>
	</g>
<g fill="none" color="black" stroke="currentColor" stroke-width="2.00" stroke-linecap="butt" stroke-linejoin="miter">
</g>
<g fill="none" color="black" stroke="black" stroke-width="1.00" stroke-linecap="butt" stroke-linejoin="miter">
</g>
<g fill="none" color="black" stroke="currentColor" stroke-width="1.00" stroke-linecap="butt" stroke-linejoin="miter">
	<path stroke='black'  d='M88.5,54.1 L88.5,662.4 L1013.6,662.4 L1013.6,54.1 L88.5,54.1 Z  '/></g>
<g fill="none" color="black" stroke="currentColor" stroke-width="1.00" stroke-linecap="butt" stroke-linejoin="miter">
</g>
</g>
</svg>

