<?xml version="1.0" encoding="utf-8"  standalone="no"?>
<!DOCTYPE svg PUBLIC "-//W3C//DTD SVG 1.1//EN"
 "http://www.w3.org/Graphics/SVG/1.1/DTD/svg11.dtd">
<svg 
 viewBox="0 0 450 300"
 xmlns="http://www.w3.org/2000/svg"
 xmlns:xlink="http://www.w3.org/1999/xlink"
>

<title>Gnuplot</title>
<desc>Produced by GNUPLOT 5.0 patchlevel 5 </desc>

<g id="gnuplot_canvas">

<rect x="0" y="0" width="450" height="300" fill="none"/>
<defs>

	<circle id='gpDot' r='0.5' stroke-width='0.5'/>
	<path id='gpPt0' stroke-width='0.222' stroke='currentColor' d='M-1,0 h2 M0,-1 v2'/>
	<path id='gpPt1' stroke-width='0.222' stroke='currentColor' d='M-1,-1 L1,1 M1,-1 L-1,1'/>
	<path id='gpPt2' stroke-width='0.222' stroke='currentColor' d='M-1,0 L1,0 M0,-1 L0,1 M-1,-1 L1,1 M-1,1 L1,-1'/>
	<rect id='gpPt3' stroke-width='0.222' stroke='currentColor' x='-1' y='-1' width='2' height='2'/>
	<rect id='gpPt4' stroke-width='0.222' stroke='currentColor' fill='currentColor' x='-1' y='-1' width='2' height='2'/>
	<circle id='gpPt5' stroke-width='0.222' stroke='currentColor' cx='0' cy='0' r='1'/>
	<use xlink:href='#gpPt5' id='gpPt6' fill='currentColor' stroke='none'/>
	<path id='gpPt7' stroke-width='0.222' stroke='currentColor' d='M0,-1.33 L-1.33,0.67 L1.33,0.67 z'/>
	<use xlink:href='#gpPt7' id='gpPt8' fill='currentColor' stroke='none'/>
	<use xlink:href='#gpPt7' id='gpPt9' stroke='currentColor' transform='rotate(180)'/>
	<use xlink:href='#gpPt9' id='gpPt10' fill='currentColor' stroke='none'/>
	<use xlink:href='#gpPt3' id='gpPt11' stroke='currentColor' transform='rotate(45)'/>
	<use xlink:href='#gpPt11' id='gpPt12' fill='currentColor' stroke='none'/>
	<path id='gpPt13' stroke-width='0.222' stroke='currentColor' d='M0,1.330 L1.265,0.411 L0.782,-1.067 L-0.782,-1.076 L-1.265,0.411 z'/>
	<use xlink:href='#gpPt13' id='gpPt14' fill='currentColor' stroke='none'/>
	<filter id='textbox' filterUnits='objectBoundingBox' x='0' y='0' height='1' width='1'>
	  <feFlood flood-color='white' flood-opacity='1' result='bgnd'/>
	  <feComposite in='SourceGraphic' in2='bgnd' operator='atop'/>
	</filter>
	<filter id='greybox' filterUnits='objectBoundingBox' x='0' y='0' height='1' width='1'>
	  <feFlood flood-color='lightgrey' flood-opacity='1' result='grey'/>
	  <feComposite in='SourceGraphic' in2='grey' operator='atop'/>
	</filter>
</defs>
<g fill="none" color="white" stroke="currentColor" stroke-width="1.00" stroke-linecap="butt" stroke-linejoin="miter">
</g>
<g fill="none" color="black" stroke="currentColor" stroke-width="1.00" stroke-linecap="butt" stroke-linejoin="miter">
	<path stroke='black'  d='M71.9,242.4 L80.9,242.4  '/>	<g transform="translate(63.6,246.3)" stroke="none" fill="black" font-family="Helvetica" font-size="12.00"  text-anchor="end">
		<text><tspan font-family="Helvetica" > 0</tspan></text>
	</g>
</g>
<g fill="none" color="black" stroke="currentColor" stroke-width="1.00" stroke-linecap="butt" stroke-linejoin="miter">
	<path stroke='black'  d='M71.9,215.2 L80.9,215.2  '/>	<g transform="translate(63.6,219.1)" stroke="none" fill="black" font-family="Helvetica" font-size="12.00"  text-anchor="end">
		<text><tspan font-family="Helvetica" > 0.5</tspan></text>
	</g>
</g>
<g fill="none" color="black" stroke="currentColor" stroke-width="1.00" stroke-linecap="butt" stroke-linejoin="miter">
	<path stroke='black'  d='M71.9,188.0 L80.9,188.0  '/>	<g transform="translate(63.6,191.9)" stroke="none" fill="black" font-family="Helvetica" font-size="12.00"  text-anchor="end">
		<text><tspan font-family="Helvetica" > 1</tspan></text>
	</g>
</g>
<g fill="none" color="black" stroke="currentColor" stroke-width="1.00" stroke-linecap="butt" stroke-linejoin="miter">
	<path stroke='black'  d='M71.9,160.8 L80.9,160.8  '/>	<g transform="translate(63.6,164.7)" stroke="none" fill="black" font-family="Helvetica" font-size="12.00"  text-anchor="end">
		<text><tspan font-family="Helvetica" > 1.5</tspan></text>
	</g>
</g>
<g fill="none" color="black" stroke="currentColor" stroke-width="1.00" stroke-linecap="butt" stroke-linejoin="miter">
	<path stroke='black'  d='M71.9,133.6 L80.9,133.6  '/>	<g transform="translate(63.6,137.5)" stroke="none" fill="black" font-family="Helvetica" font-size="12.00"  text-anchor="end">
		<text><tspan font-family="Helvetica" > 2</tspan></text>
	</g>
</g>
<g fill="none" color="black" stroke="currentColor" stroke-width="1.00" stroke-linecap="butt" stroke-linejoin="miter">
	<path stroke='black'  d='M71.9,106.3 L80.9,106.3  '/>	<g transform="translate(63.6,110.2)" stroke="none" fill="black" font-family="Helvetica" font-size="12.00"  text-anchor="end">
		<text><tspan font-family="Helvetica" > 2.5</tspan></text>
	</g>
</g>
<g fill="none" color="black" stroke="currentColor" stroke-width="1.00" stroke-linecap="butt" stroke-linejoin="miter">
	<path stroke='black'  d='M71.9,79.1 L80.9,79.1  '/>	<g transform="translate(63.6,83.0)" stroke="none" fill="black" font-family="Helvetica" font-size="12.00"  text-anchor="end">
		<text><tspan font-family="Helvetica" > 3</tspan></text>
	</g>
</g>
<g fill="none" color="black" stroke="currentColor" stroke-width="1.00" stroke-linecap="butt" stroke-linejoin="miter">
	<path stroke='black'  d='M71.9,51.9 L80.9,51.9  '/>	<g transform="translate(63.6,55.8)" stroke="none" fill="black" font-family="Helvetica" font-size="12.00"  text-anchor="end">
		<text><tspan font-family="Helvetica" > 3.5</tspan></text>
	</g>
</g>
<g fill="none" color="black" stroke="currentColor" stroke-width="1.00" stroke-linecap="butt" stroke-linejoin="miter">
	<path stroke='black'  d='M71.9,24.7 L80.9,24.7  '/>	<g transform="translate(63.6,28.6)" stroke="none" fill="black" font-family="Helvetica" font-size="12.00"  text-anchor="end">
		<text><tspan font-family="Helvetica" > 4</tspan></text>
	</g>
</g>
<g fill="none" color="black" stroke="currentColor" stroke-width="1.00" stroke-linecap="butt" stroke-linejoin="miter">
	<path stroke='black'  d='M89.3,242.4 L89.3,233.4  '/>	<g transform="translate(89.3,264.3)" stroke="none" fill="black" font-family="Helvetica" font-size="12.00"  text-anchor="middle">
		<text><tspan font-family="Helvetica" > 4.6</tspan></text>
	</g>
</g>
<g fill="none" color="black" stroke="currentColor" stroke-width="1.00" stroke-linecap="butt" stroke-linejoin="miter">
	<path stroke='black'  d='M126.9,242.4 L126.9,233.4  '/>	<g transform="translate(126.9,264.3)" stroke="none" fill="black" font-family="Helvetica" font-size="12.00"  text-anchor="middle">
		<text><tspan font-family="Helvetica" > 4.7</tspan></text>
	</g>
</g>
<g fill="none" color="black" stroke="currentColor" stroke-width="1.00" stroke-linecap="butt" stroke-linejoin="miter">
	<path stroke='black'  d='M164.6,242.4 L164.6,233.4  '/>	<g transform="translate(164.6,264.3)" stroke="none" fill="black" font-family="Helvetica" font-size="12.00"  text-anchor="middle">
		<text><tspan font-family="Helvetica" > 4.8</tspan></text>
	</g>
</g>
<g fill="none" color="black" stroke="currentColor" stroke-width="1.00" stroke-linecap="butt" stroke-linejoin="miter">
	<path stroke='black'  d='M202.3,242.4 L202.3,233.4  '/>	<g transform="translate(202.3,264.3)" stroke="none" fill="black" font-family="Helvetica" font-size="12.00"  text-anchor="middle">
		<text><tspan font-family="Helvetica" > 4.9</tspan></text>
	</g>
</g>
<g fill="none" color="black" stroke="currentColor" stroke-width="1.00" stroke-linecap="butt" stroke-linejoin="miter">
	<path stroke='black'  d='M240.0,242.4 L240.0,233.4  '/>	<g transform="translate(240.0,264.3)" stroke="none" fill="black" font-family="Helvetica" font-size="12.00"  text-anchor="middle">
		<text><tspan font-family="Helvetica" > 5</tspan></text>
	</g>
</g>
<g fill="none" color="black" stroke="currentColor" stroke-width="1.00" stroke-linecap="butt" stroke-linejoin="miter">
	<path stroke='black'  d='M277.6,242.4 L277.6,233.4  '/>	<g transform="translate(277.6,264.3)" stroke="none" fill="black" font-family="Helvetica" font-size="12.00"  text-anchor="middle">
		<text><tspan font-family="Helvetica" > 5.1</tspan></text>
	</g>
</g>
<g fill="none" color="black" stroke="currentColor" stroke-width="1.00" stroke-linecap="butt" stroke-linejoin="miter">
	<path stroke='black'  d='M315.3,242.4 L315.3,233.4  '/>	<g transform="translate(315.3,264.3)" stroke="none" fill="black" font-family="Helvetica" font-size="12.00"  text-anchor="middle">
		<text><tspan font-family="Helvetica" > 5.2</tspan></text>
	</g>
</g>
<g fill="none" color="black" stroke="currentColor" stroke-width="1.00" stroke-linecap="butt" stroke-linejoin="miter">
	<path stroke='black'  d='M353.0,242.4 L353.0,233.4  '/>	<g transform="translate(353.0,264.3)" stroke="none" fill="black" font-family="Helvetica" font-size="12.00"  text-anchor="middle">
		<text><tspan font-family="Helvetica" > 5.3</tspan></text>
	</g>
</g>
<g fill="none" color="black" stroke="currentColor" stroke-width="1.00" stroke-linecap="butt" stroke-linejoin="miter">
	<path stroke='black'  d='M390.7,242.4 L390.7,233.4  '/>	<g transform="translate(390.7,264.3)" stroke="none" fill="black" font-family="Helvetica" font-size="12.00"  text-anchor="middle">
		<text><tspan font-family="Helvetica" > 5.4</tspan></text>
	</g>
</g>
<g fill="none" color="black" stroke="currentColor" stroke-width="1.00" stroke-linecap="butt" stroke-linejoin="miter">
</g>
<g fill="none" color="black" stroke="currentColor" stroke-width="1.00" stroke-linecap="butt" stroke-linejoin="miter">
	<path stroke='black'  d='M71.9,16.7 L71.9,242.4 L425.0,242.4 L425.0,16.7 L71.9,16.7 Z  '/></g>
<g fill="none" color="black" stroke="currentColor" stroke-width="1.00" stroke-linecap="butt" stroke-linejoin="miter">
	<g transform="translate(17.0,129.6) rotate(270)" stroke="none" fill="black" font-family="Helvetica" font-size="12.00"  text-anchor="middle">
		<text><tspan font-family="Helvetica" >Density (a.u.)</tspan></text>
	</g>
</g>
<g fill="none" color="black" stroke="currentColor" stroke-width="1.00" stroke-linecap="butt" stroke-linejoin="miter">
	<g transform="translate(248.4,291.3)" stroke="none" fill="black" font-family="Helvetica" font-size="12.00"  text-anchor="middle">
		<text><tspan font-family="Helvetica" >Average time (ms)</tspan></text>
	</g>
</g>
<g fill="none" color="black" stroke="currentColor" stroke-width="1.00" stroke-linecap="butt" stroke-linejoin="miter">
</g>
	<g id="gnuplot_plot_1" ><title>PDF</title>
<g fill="none" color="black" stroke="currentColor" stroke-width="1.00" stroke-linecap="butt" stroke-linejoin="miter">
	<g stroke='none' shape-rendering='crispEdges'>
		<polygon fill = 'rgb( 31, 120, 180)' fill-opacity = '0.250000' points = '71.9,242.3 71.9,242.4 72.6,242.4 72.6,242.3 '/>
		<polygon fill = 'rgb( 31, 120, 180)' fill-opacity = '0.250000' points = '72.6,242.3 72.6,242.4 73.3,242.4 73.3,242.2 '/>
		<polygon fill = 'rgb( 31, 120, 180)' fill-opacity = '0.250000' points = '73.3,242.2 73.3,242.4 74.0,242.4 74.0,242.2 '/>
		<polygon fill = 'rgb( 31, 120, 180)' fill-opacity = '0.250000' points = '74.0,242.2 74.0,242.4 74.7,242.4 74.7,242.2 '/>
		<polygon fill = 'rgb( 31, 120, 180)' fill-opacity = '0.250000' points = '74.7,242.2 74.7,242.4 75.4,242.4 75.4,242.2 '/>
		<polygon fill = 'rgb( 31, 120, 180)' fill-opacity = '0.250000' points = '75.4,242.2 75.4,242.4 76.1,242.4 76.1,242.2 '/>
		<polygon fill = 'rgb( 31, 120, 180)' fill-opacity = '0.250000' points = '76.1,242.2 76.1,242.4 76.9,242.4 76.9,242.1 '/>
		<polygon fill = 'rgb( 31, 120, 180)' fill-opacity = '0.250000' points = '76.9,242.1 76.9,242.4 77.6,242.4 77.6,242.1 '/>
		<polygon fill = 'rgb( 31, 120, 180)' fill-opacity = '0.250000' points = '77.6,242.1 77.6,242.4 78.3,242.4 78.3,242.1 '/>
		<polygon fill = 'rgb( 31, 120, 180)' fill-opacity = '0.250000' points = '78.3,242.1 78.3,242.4 79.0,242.4 79.0,242.0 '/>
		<polygon fill = 'rgb( 31, 120, 180)' fill-opacity = '0.250000' points = '79.0,242.0 79.0,242.4 79.7,242.4 79.7,242.0 '/>
		<polygon fill = 'rgb( 31, 120, 180)' fill-opacity = '0.250000' points = '79.7,242.0 79.7,242.4 80.4,242.4 80.4,241.9 '/>
		<polygon fill = 'rgb( 31, 120, 180)' fill-opacity = '0.250000' points = '80.4,241.9 80.4,242.4 81.1,242.4 81.1,241.9 '/>
		<polygon fill = 'rgb( 31, 120, 180)' fill-opacity = '0.250000' points = '81.1,241.9 81.1,242.4 81.8,242.4 81.8,241.8 '/>
		<polygon fill = 'rgb( 31, 120, 180)' fill-opacity = '0.250000' points = '81.8,241.8 81.8,242.4 82.5,242.4 82.5,241.8 '/>
		<polygon fill = 'rgb( 31, 120, 180)' fill-opacity = '0.250000' points = '82.5,241.8 82.5,242.4 83.2,242.4 83.2,241.7 '/>
		<polygon fill = 'rgb( 31, 120, 180)' fill-opacity = '0.250000' points = '83.2,241.7 83.2,242.4 83.9,242.4 83.9,241.6 '/>
		<polygon fill = 'rgb( 31, 120, 180)' fill-opacity = '0.250000' points = '83.9,241.6 83.9,242.4 84.6,242.4 84.6,241.6 '/>
		<polygon fill = 'rgb( 31, 120, 180)' fill-opacity = '0.250000' points = '84.6,241.6 84.6,242.4 85.3,242.4 85.3,241.5 '/>
		<polygon fill = 'rgb( 31, 120, 180)' fill-opacity = '0.250000' points = '85.3,241.5 85.3,242.4 86.1,242.4 86.1,241.4 '/>
		<polygon fill = 'rgb( 31, 120, 180)' fill-opacity = '0.250000' points = '86.1,241.4 86.1,242.4 86.8,242.4 86.8,241.3 '/>
		<polygon fill = 'rgb( 31, 120, 180)' fill-opacity = '0.250000' points = '86.8,241.3 86.8,242.4 87.5,242.4 87.5,241.2 '/>
		<polygon fill = 'rgb( 31, 120, 180)' fill-opacity = '0.250000' points = '87.5,241.2 87.5,242.4 88.2,242.4 88.2,241.1 '/>
		<polygon fill = 'rgb( 31, 120, 180)' fill-opacity = '0.250000' points = '88.2,241.1 88.2,242.4 88.9,242.4 88.9,241.0 '/>
		<polygon fill = 'rgb( 31, 120, 180)' fill-opacity = '0.250000' points = '88.9,241.0 88.9,242.4 89.6,242.4 89.6,240.9 '/>
		<polygon fill = 'rgb( 31, 120, 180)' fill-opacity = '0.250000' points = '89.6,240.9 89.6,242.4 90.3,242.4 90.3,240.7 '/>
		<polygon fill = 'rgb( 31, 120, 180)' fill-opacity = '0.250000' points = '90.3,240.7 90.3,242.4 91.0,242.4 91.0,240.6 '/>
		<polygon fill = 'rgb( 31, 120, 180)' fill-opacity = '0.250000' points = '91.0,240.6 91.0,242.4 91.7,242.4 91.7,240.4 '/>
		<polygon fill = 'rgb( 31, 120, 180)' fill-opacity = '0.250000' points = '91.7,240.4 91.7,242.4 92.4,242.4 92.4,240.3 '/>
		<polygon fill = 'rgb( 31, 120, 180)' fill-opacity = '0.250000' points = '92.4,240.3 92.4,242.4 93.1,242.4 93.1,240.1 '/>
		<polygon fill = 'rgb( 31, 120, 180)' fill-opacity = '0.250000' points = '93.1,240.1 93.1,242.4 93.8,242.4 93.8,239.9 '/>
		<polygon fill = 'rgb( 31, 120, 180)' fill-opacity = '0.250000' points = '93.8,239.9 93.8,242.4 94.5,242.4 94.5,239.7 '/>
		<polygon fill = 'rgb( 31, 120, 180)' fill-opacity = '0.250000' points = '94.5,239.7 94.5,242.4 95.3,242.4 95.3,239.5 '/>
		<polygon fill = 'rgb( 31, 120, 180)' fill-opacity = '0.250000' points = '95.3,239.5 95.3,242.4 96.0,242.4 96.0,239.3 '/>
		<polygon fill = 'rgb( 31, 120, 180)' fill-opacity = '0.250000' points = '96.0,239.3 96.0,242.4 96.7,242.4 96.7,239.0 '/>
		<polygon fill = 'rgb( 31, 120, 180)' fill-opacity = '0.250000' points = '96.7,239.0 96.7,242.4 97.4,242.4 97.4,238.8 '/>
		<polygon fill = 'rgb( 31, 120, 180)' fill-opacity = '0.250000' points = '97.4,238.8 97.4,242.4 98.1,242.4 98.1,238.5 '/>
		<polygon fill = 'rgb( 31, 120, 180)' fill-opacity = '0.250000' points = '98.1,238.5 98.1,242.4 98.8,242.4 98.8,238.3 '/>
		<polygon fill = 'rgb( 31, 120, 180)' fill-opacity = '0.250000' points = '98.8,238.3 98.8,242.4 99.5,242.4 99.5,238.0 '/>
		<polygon fill = 'rgb( 31, 120, 180)' fill-opacity = '0.250000' points = '99.5,238.0 99.5,242.4 100.2,242.4 100.2,237.7 '/>
		<polygon fill = 'rgb( 31, 120, 180)' fill-opacity = '0.250000' points = '100.2,237.7 100.2,242.4 100.9,242.4 100.9,237.4 '/>
		<polygon fill = 'rgb( 31, 120, 180)' fill-opacity = '0.250000' points = '100.9,237.4 100.9,242.4 101.6,242.4 101.6,237.0 '/>
		<polygon fill = 'rgb( 31, 120, 180)' fill-opacity = '0.250000' points = '101.6,237.0 101.6,242.4 102.3,242.4 102.3,236.7 '/>
		<polygon fill = 'rgb( 31, 120, 180)' fill-opacity = '0.250000' points = '102.3,236.7 102.3,242.4 103.0,242.4 103.0,236.3 '/>
		<polygon fill = 'rgb( 31, 120, 180)' fill-opacity = '0.250000' points = '103.0,236.3 103.0,242.4 103.7,242.4 103.7,236.0 '/>
		<polygon fill = 'rgb( 31, 120, 180)' fill-opacity = '0.250000' points = '103.7,236.0 103.7,242.4 104.5,242.4 104.5,235.6 '/>
		<polygon fill = 'rgb( 31, 120, 180)' fill-opacity = '0.250000' points = '104.5,235.6 104.5,242.4 105.2,242.4 105.2,235.2 '/>
		<polygon fill = 'rgb( 31, 120, 180)' fill-opacity = '0.250000' points = '105.2,235.2 105.2,242.4 105.9,242.4 105.9,234.8 '/>
		<polygon fill = 'rgb( 31, 120, 180)' fill-opacity = '0.250000' points = '105.9,234.8 105.9,242.4 106.6,242.4 106.6,234.4 '/>
		<polygon fill = 'rgb( 31, 120, 180)' fill-opacity = '0.250000' points = '106.6,234.4 106.6,242.4 107.3,242.4 107.3,233.9 '/>
		<polygon fill = 'rgb( 31, 120, 180)' fill-opacity = '0.250000' points = '107.3,233.9 107.3,242.4 108.0,242.4 108.0,233.5 '/>
		<polygon fill = 'rgb( 31, 120, 180)' fill-opacity = '0.250000' points = '108.0,233.5 108.0,242.4 108.7,242.4 108.7,233.0 '/>
		<polygon fill = 'rgb( 31, 120, 180)' fill-opacity = '0.250000' points = '108.7,233.0 108.7,242.4 109.4,242.4 109.4,232.5 '/>
		<polygon fill = 'rgb( 31, 120, 180)' fill-opacity = '0.250000' points = '109.4,232.5 109.4,242.4 110.1,242.4 110.1,232.0 '/>
		<polygon fill = 'rgb( 31, 120, 180)' fill-opacity = '0.250000' points = '110.1,232.0 110.1,242.4 110.8,242.4 110.8,231.6 '/>
		<polygon fill = 'rgb( 31, 120, 180)' fill-opacity = '0.250000' points = '110.8,231.6 110.8,242.4 111.5,242.4 111.5,231.0 '/>
		<polygon fill = 'rgb( 31, 120, 180)' fill-opacity = '0.250000' points = '111.5,231.0 111.5,242.4 112.2,242.4 112.2,230.5 '/>
		<polygon fill = 'rgb( 31, 120, 180)' fill-opacity = '0.250000' points = '112.2,230.5 112.2,242.4 112.9,242.4 112.9,230.0 '/>
		<polygon fill = 'rgb( 31, 120, 180)' fill-opacity = '0.250000' points = '112.9,230.0 112.9,242.4 113.6,242.4 113.6,229.5 '/>
		<polygon fill = 'rgb( 31, 120, 180)' fill-opacity = '0.250000' points = '113.6,229.5 113.6,242.4 114.4,242.4 114.4,229.0 '/>
		<polygon fill = 'rgb( 31, 120, 180)' fill-opacity = '0.250000' points = '114.4,229.0 114.4,242.4 115.1,242.4 115.1,228.4 '/>
		<polygon fill = 'rgb( 31, 120, 180)' fill-opacity = '0.250000' points = '115.1,228.4 115.1,242.4 115.8,242.4 115.8,227.9 '/>
		<polygon fill = 'rgb( 31, 120, 180)' fill-opacity = '0.250000' points = '115.8,227.9 115.8,242.4 116.5,242.4 116.5,227.3 '/>
		<polygon fill = 'rgb( 31, 120, 180)' fill-opacity = '0.250000' points = '116.5,227.3 116.5,242.4 117.2,242.4 117.2,226.8 '/>
		<polygon fill = 'rgb( 31, 120, 180)' fill-opacity = '0.250000' points = '117.2,226.8 117.2,242.4 117.9,242.4 117.9,226.2 '/>
		<polygon fill = 'rgb( 31, 120, 180)' fill-opacity = '0.250000' points = '117.9,226.2 117.9,242.4 118.6,242.4 118.6,225.7 '/>
		<polygon fill = 'rgb( 31, 120, 180)' fill-opacity = '0.250000' points = '118.6,225.7 118.6,242.4 119.3,242.4 119.3,225.1 '/>
		<polygon fill = 'rgb( 31, 120, 180)' fill-opacity = '0.250000' points = '119.3,225.1 119.3,242.4 120.0,242.4 120.0,224.6 '/>
		<polygon fill = 'rgb( 31, 120, 180)' fill-opacity = '0.250000' points = '120.0,224.6 120.0,242.4 120.7,242.4 120.7,224.1 '/>
		<polygon fill = 'rgb( 31, 120, 180)' fill-opacity = '0.250000' points = '120.7,224.1 120.7,242.4 121.4,242.4 121.4,223.5 '/>
		<polygon fill = 'rgb( 31, 120, 180)' fill-opacity = '0.250000' points = '121.4,223.5 121.4,242.4 122.1,242.4 122.1,223.0 '/>
		<polygon fill = 'rgb( 31, 120, 180)' fill-opacity = '0.250000' points = '122.1,223.0 122.1,242.4 122.8,242.4 122.8,222.5 '/>
		<polygon fill = 'rgb( 31, 120, 180)' fill-opacity = '0.250000' points = '122.8,222.5 122.8,242.4 123.6,242.4 123.6,222.0 '/>
		<polygon fill = 'rgb( 31, 120, 180)' fill-opacity = '0.250000' points = '123.6,222.0 123.6,242.4 124.3,242.4 124.3,221.5 '/>
		<polygon fill = 'rgb( 31, 120, 180)' fill-opacity = '0.250000' points = '124.3,221.5 124.3,242.4 125.0,242.4 125.0,221.0 '/>
		<polygon fill = 'rgb( 31, 120, 180)' fill-opacity = '0.250000' points = '125.0,221.0 125.0,242.4 125.7,242.4 125.7,220.6 '/>
		<polygon fill = 'rgb( 31, 120, 180)' fill-opacity = '0.250000' points = '125.7,220.6 125.7,242.4 126.4,242.4 126.4,220.1 '/>
		<polygon fill = 'rgb( 31, 120, 180)' fill-opacity = '0.250000' points = '126.4,220.1 126.4,242.4 127.1,242.4 127.1,219.7 '/>
		<polygon fill = 'rgb( 31, 120, 180)' fill-opacity = '0.250000' points = '127.1,219.7 127.1,242.4 127.8,242.4 127.8,219.3 '/>
		<polygon fill = 'rgb( 31, 120, 180)' fill-opacity = '0.250000' points = '127.8,219.3 127.8,242.4 128.5,242.4 128.5,218.9 '/>
		<polygon fill = 'rgb( 31, 120, 180)' fill-opacity = '0.250000' points = '128.5,218.9 128.5,242.4 129.2,242.4 129.2,218.5 '/>
		<polygon fill = 'rgb( 31, 120, 180)' fill-opacity = '0.250000' points = '129.2,218.5 129.2,242.4 129.9,242.4 129.9,218.1 '/>
		<polygon fill = 'rgb( 31, 120, 180)' fill-opacity = '0.250000' points = '129.9,218.1 129.9,242.4 130.6,242.4 130.6,217.8 '/>
		<polygon fill = 'rgb( 31, 120, 180)' fill-opacity = '0.250000' points = '130.6,217.8 130.6,242.4 131.3,242.4 131.3,217.5 '/>
		<polygon fill = 'rgb( 31, 120, 180)' fill-opacity = '0.250000' points = '131.3,217.5 131.3,242.4 132.0,242.4 132.0,217.2 '/>
		<polygon fill = 'rgb( 31, 120, 180)' fill-opacity = '0.250000' points = '132.0,217.2 132.0,242.4 132.8,242.4 132.8,216.9 '/>
		<polygon fill = 'rgb( 31, 120, 180)' fill-opacity = '0.250000' points = '132.8,216.9 132.8,242.4 133.5,242.4 133.5,216.7 '/>
		<polygon fill = 'rgb( 31, 120, 180)' fill-opacity = '0.250000' points = '133.5,216.7 133.5,242.4 134.2,242.4 134.2,216.5 '/>
		<polygon fill = 'rgb( 31, 120, 180)' fill-opacity = '0.250000' points = '134.2,216.5 134.2,242.4 134.9,242.4 134.9,216.3 '/>
		<polygon fill = 'rgb( 31, 120, 180)' fill-opacity = '0.250000' points = '134.9,216.3 134.9,242.4 135.6,242.4 135.6,216.1 '/>
		<polygon fill = 'rgb( 31, 120, 180)' fill-opacity = '0.250000' points = '135.6,216.1 135.6,242.4 136.3,242.4 136.3,215.9 '/>
		<polygon fill = 'rgb( 31, 120, 180)' fill-opacity = '0.250000' points = '136.3,215.9 136.3,242.4 137.0,242.4 137.0,215.8 '/>
		<polygon fill = 'rgb( 31, 120, 180)' fill-opacity = '0.250000' points = '137.0,215.8 137.0,242.4 137.7,242.4 137.7,215.7 '/>
		<polygon fill = 'rgb( 31, 120, 180)' fill-opacity = '0.250000' points = '137.7,215.7 137.7,242.4 138.4,242.4 138.4,215.6 '/>
		<polygon fill = 'rgb( 31, 120, 180)' fill-opacity = '0.250000' points = '138.4,215.6 138.4,242.4 139.1,242.4 139.1,215.6 '/>
		<polygon fill = 'rgb( 31, 120, 180)' fill-opacity = '0.250000' points = '139.1,215.6 139.1,242.4 139.8,242.4 139.8,215.6 '/>
		<polygon fill = 'rgb( 31, 120, 180)' fill-opacity = '0.250000' points = '139.8,215.6 139.8,242.4 140.5,242.4 140.5,215.6 '/>
		<polygon fill = 'rgb( 31, 120, 180)' fill-opacity = '0.250000' points = '140.5,215.6 140.5,242.4 141.2,242.4 141.2,215.6 '/>
		<polygon fill = 'rgb( 31, 120, 180)' fill-opacity = '0.250000' points = '141.2,215.6 141.2,242.4 142.0,242.4 142.0,215.6 '/>
		<polygon fill = 'rgb( 31, 120, 180)' fill-opacity = '0.250000' points = '142.0,215.6 142.0,242.4 142.7,242.4 142.7,215.7 '/>
		<polygon fill = 'rgb( 31, 120, 180)' fill-opacity = '0.250000' points = '142.7,215.7 142.7,242.4 143.4,242.4 143.4,215.8 '/>
		<polygon fill = 'rgb( 31, 120, 180)' fill-opacity = '0.250000' points = '143.4,215.8 143.4,242.4 144.1,242.4 144.1,215.9 '/>
		<polygon fill = 'rgb( 31, 120, 180)' fill-opacity = '0.250000' points = '144.1,215.9 144.1,242.4 144.8,242.4 144.8,216.1 '/>
		<polygon fill = 'rgb( 31, 120, 180)' fill-opacity = '0.250000' points = '144.8,216.1 144.8,242.4 145.5,242.4 145.5,216.2 '/>
		<polygon fill = 'rgb( 31, 120, 180)' fill-opacity = '0.250000' points = '145.5,216.2 145.5,242.4 146.2,242.4 146.2,216.4 '/>
		<polygon fill = 'rgb( 31, 120, 180)' fill-opacity = '0.250000' points = '146.2,216.4 146.2,242.4 146.9,242.4 146.9,216.6 '/>
		<polygon fill = 'rgb( 31, 120, 180)' fill-opacity = '0.250000' points = '146.9,216.6 146.9,242.4 147.6,242.4 147.6,216.8 '/>
		<polygon fill = 'rgb( 31, 120, 180)' fill-opacity = '0.250000' points = '147.6,216.8 147.6,242.4 148.3,242.4 148.3,217.0 '/>
		<polygon fill = 'rgb( 31, 120, 180)' fill-opacity = '0.250000' points = '148.3,217.0 148.3,242.4 149.0,242.4 149.0,217.3 '/>
		<polygon fill = 'rgb( 31, 120, 180)' fill-opacity = '0.250000' points = '149.0,217.3 149.0,242.4 149.7,242.4 149.7,217.5 '/>
		<polygon fill = 'rgb( 31, 120, 180)' fill-opacity = '0.250000' points = '149.7,217.5 149.7,242.4 150.4,242.4 150.4,217.8 '/>
		<polygon fill = 'rgb( 31, 120, 180)' fill-opacity = '0.250000' points = '150.4,217.8 150.4,242.4 151.2,242.4 151.2,218.1 '/>
		<polygon fill = 'rgb( 31, 120, 180)' fill-opacity = '0.250000' points = '151.2,218.1 151.2,242.4 151.9,242.4 151.9,218.4 '/>
		<polygon fill = 'rgb( 31, 120, 180)' fill-opacity = '0.250000' points = '151.9,218.4 151.9,242.4 152.6,242.4 152.6,218.7 '/>
		<polygon fill = 'rgb( 31, 120, 180)' fill-opacity = '0.250000' points = '152.6,218.7 152.6,242.4 153.3,242.4 153.3,219.0 '/>
		<polygon fill = 'rgb( 31, 120, 180)' fill-opacity = '0.250000' points = '153.3,219.0 153.3,242.4 154.0,242.4 154.0,219.3 '/>
		<polygon fill = 'rgb( 31, 120, 180)' fill-opacity = '0.250000' points = '154.0,219.3 154.0,242.4 154.7,242.4 154.7,219.7 '/>
		<polygon fill = 'rgb( 31, 120, 180)' fill-opacity = '0.250000' points = '154.7,219.7 154.7,242.4 155.4,242.4 155.4,220.0 '/>
		<polygon fill = 'rgb( 31, 120, 180)' fill-opacity = '0.250000' points = '155.4,220.0 155.4,242.4 156.1,242.4 156.1,220.4 '/>
		<polygon fill = 'rgb( 31, 120, 180)' fill-opacity = '0.250000' points = '156.1,220.4 156.1,242.4 156.8,242.4 156.8,220.7 '/>
		<polygon fill = 'rgb( 31, 120, 180)' fill-opacity = '0.250000' points = '156.8,220.7 156.8,242.4 157.5,242.4 157.5,221.1 '/>
		<polygon fill = 'rgb( 31, 120, 180)' fill-opacity = '0.250000' points = '157.5,221.1 157.5,242.4 158.2,242.4 158.2,221.4 '/>
		<polygon fill = 'rgb( 31, 120, 180)' fill-opacity = '0.250000' points = '158.2,221.4 158.2,242.4 158.9,242.4 158.9,221.8 '/>
		<polygon fill = 'rgb( 31, 120, 180)' fill-opacity = '0.250000' points = '158.9,221.8 158.9,242.4 159.6,242.4 159.6,222.2 '/>
		<polygon fill = 'rgb( 31, 120, 180)' fill-opacity = '0.250000' points = '159.6,222.2 159.6,242.4 160.4,242.4 160.4,222.5 '/>
		<polygon fill = 'rgb( 31, 120, 180)' fill-opacity = '0.250000' points = '160.4,222.5 160.4,242.4 161.1,242.4 161.1,222.9 '/>
		<polygon fill = 'rgb( 31, 120, 180)' fill-opacity = '0.250000' points = '161.1,222.9 161.1,242.4 161.8,242.4 161.8,223.3 '/>
		<polygon fill = 'rgb( 31, 120, 180)' fill-opacity = '0.250000' points = '161.8,223.3 161.8,242.4 162.5,242.4 162.5,223.6 '/>
		<polygon fill = 'rgb( 31, 120, 180)' fill-opacity = '0.250000' points = '162.5,223.6 162.5,242.4 163.2,242.4 163.2,224.0 '/>
		<polygon fill = 'rgb( 31, 120, 180)' fill-opacity = '0.250000' points = '163.2,224.0 163.2,242.4 163.9,242.4 163.9,224.3 '/>
		<polygon fill = 'rgb( 31, 120, 180)' fill-opacity = '0.250000' points = '163.9,224.3 163.9,242.4 164.6,242.4 164.6,224.7 '/>
		<polygon fill = 'rgb( 31, 120, 180)' fill-opacity = '0.250000' points = '164.6,224.7 164.6,242.4 165.3,242.4 165.3,225.0 '/>
		<polygon fill = 'rgb( 31, 120, 180)' fill-opacity = '0.250000' points = '165.3,225.0 165.3,242.4 166.0,242.4 166.0,225.4 '/>
		<polygon fill = 'rgb( 31, 120, 180)' fill-opacity = '0.250000' points = '166.0,225.4 166.0,242.4 166.7,242.4 166.7,225.7 '/>
		<polygon fill = 'rgb( 31, 120, 180)' fill-opacity = '0.250000' points = '166.7,225.7 166.7,242.4 167.4,242.4 167.4,226.0 '/>
		<polygon fill = 'rgb( 31, 120, 180)' fill-opacity = '0.250000' points = '167.4,226.0 167.4,242.4 168.1,242.4 168.1,226.3 '/>
		<polygon fill = 'rgb( 31, 120, 180)' fill-opacity = '0.250000' points = '168.1,226.3 168.1,242.4 168.8,242.4 168.8,226.6 '/>
		<polygon fill = 'rgb( 31, 120, 180)' fill-opacity = '0.250000' points = '168.8,226.6 168.8,242.4 169.6,242.4 169.6,226.9 '/>
		<polygon fill = 'rgb( 31, 120, 180)' fill-opacity = '0.250000' points = '169.6,226.9 169.6,242.4 170.3,242.4 170.3,227.2 '/>
		<polygon fill = 'rgb( 31, 120, 180)' fill-opacity = '0.250000' points = '170.3,227.2 170.3,242.4 171.0,242.4 171.0,227.4 '/>
		<polygon fill = 'rgb( 31, 120, 180)' fill-opacity = '0.250000' points = '171.0,227.4 171.0,242.4 171.7,242.4 171.7,227.7 '/>
		<polygon fill = 'rgb( 31, 120, 180)' fill-opacity = '0.250000' points = '171.7,227.7 171.7,242.4 172.4,242.4 172.4,227.9 '/>
		<polygon fill = 'rgb( 31, 120, 180)' fill-opacity = '0.250000' points = '172.4,227.9 172.4,242.4 173.1,242.4 173.1,228.1 '/>
		<polygon fill = 'rgb( 31, 120, 180)' fill-opacity = '0.250000' points = '173.1,228.1 173.1,242.4 173.8,242.4 173.8,228.3 '/>
		<polygon fill = 'rgb( 31, 120, 180)' fill-opacity = '0.250000' points = '173.8,228.3 173.8,242.4 174.5,242.4 174.5,228.5 '/>
		<polygon fill = 'rgb( 31, 120, 180)' fill-opacity = '0.250000' points = '174.5,228.5 174.5,242.4 175.2,242.4 175.2,228.7 '/>
		<polygon fill = 'rgb( 31, 120, 180)' fill-opacity = '0.250000' points = '175.2,228.7 175.2,242.4 175.9,242.4 175.9,228.8 '/>
		<polygon fill = 'rgb( 31, 120, 180)' fill-opacity = '0.250000' points = '175.9,228.8 175.9,242.4 176.6,242.4 176.6,229.0 '/>
		<polygon fill = 'rgb( 31, 120, 180)' fill-opacity = '0.250000' points = '176.6,229.0 176.6,242.4 177.3,242.4 177.3,229.1 '/>
		<polygon fill = 'rgb( 31, 120, 180)' fill-opacity = '0.250000' points = '177.3,229.1 177.3,242.4 178.0,242.4 178.0,229.1 '/>
		<polygon fill = 'rgb( 31, 120, 180)' fill-opacity = '0.250000' points = '178.0,229.1 178.0,242.4 178.7,242.4 178.7,229.2 '/>
		<polygon fill = 'rgb( 31, 120, 180)' fill-opacity = '0.250000' points = '178.7,229.2 178.7,242.4 179.5,242.4 179.5,229.2 '/>
		<polygon fill = 'rgb( 31, 120, 180)' fill-opacity = '0.250000' points = '179.5,229.2 179.5,242.4 180.2,242.4 180.2,229.2 '/>
		<polygon fill = 'rgb( 31, 120, 180)' fill-opacity = '0.250000' points = '180.2,229.2 180.2,242.4 180.9,242.4 180.9,229.2 '/>
		<polygon fill = 'rgb( 31, 120, 180)' fill-opacity = '0.250000' points = '180.9,229.2 180.9,242.4 181.6,242.4 181.6,229.2 '/>
		<polygon fill = 'rgb( 31, 120, 180)' fill-opacity = '0.250000' points = '181.6,229.2 181.6,242.4 182.3,242.4 182.3,229.1 '/>
		<polygon fill = 'rgb( 31, 120, 180)' fill-opacity = '0.250000' points = '182.3,229.1 182.3,242.4 183.0,242.4 183.0,229.0 '/>
		<polygon fill = 'rgb( 31, 120, 180)' fill-opacity = '0.250000' points = '183.0,229.0 183.0,242.4 183.7,242.4 183.7,228.9 '/>
		<polygon fill = 'rgb( 31, 120, 180)' fill-opacity = '0.250000' points = '183.7,228.9 183.7,242.4 184.4,242.4 184.4,228.7 '/>
		<polygon fill = 'rgb( 31, 120, 180)' fill-opacity = '0.250000' points = '184.4,228.7 184.4,242.4 185.1,242.4 185.1,228.6 '/>
		<polygon fill = 'rgb( 31, 120, 180)' fill-opacity = '0.250000' points = '185.1,228.6 185.1,242.4 185.8,242.4 185.8,228.3 '/>
		<polygon fill = 'rgb( 31, 120, 180)' fill-opacity = '0.250000' points = '185.8,228.3 185.8,242.4 186.5,242.4 186.5,228.1 '/>
		<polygon fill = 'rgb( 31, 120, 180)' fill-opacity = '0.250000' points = '186.5,228.1 186.5,242.4 187.2,242.4 187.2,227.8 '/>
		<polygon fill = 'rgb( 31, 120, 180)' fill-opacity = '0.250000' points = '187.2,227.8 187.2,242.4 187.9,242.4 187.9,227.5 '/>
		<polygon fill = 'rgb( 31, 120, 180)' fill-opacity = '0.250000' points = '187.9,227.5 187.9,242.4 188.7,242.4 188.7,227.2 '/>
		<polygon fill = 'rgb( 31, 120, 180)' fill-opacity = '0.250000' points = '188.7,227.2 188.7,242.4 189.4,242.4 189.4,226.8 '/>
		<polygon fill = 'rgb( 31, 120, 180)' fill-opacity = '0.250000' points = '189.4,226.8 189.4,242.4 190.1,242.4 190.1,226.4 '/>
		<polygon fill = 'rgb( 31, 120, 180)' fill-opacity = '0.250000' points = '190.1,226.4 190.1,242.4 190.8,242.4 190.8,225.9 '/>
		<polygon fill = 'rgb( 31, 120, 180)' fill-opacity = '0.250000' points = '190.8,225.9 190.8,242.4 191.5,242.4 191.5,225.5 '/>
		<polygon fill = 'rgb( 31, 120, 180)' fill-opacity = '0.250000' points = '191.5,225.5 191.5,242.4 192.2,242.4 192.2,224.9 '/>
		<polygon fill = 'rgb( 31, 120, 180)' fill-opacity = '0.250000' points = '192.2,224.9 192.2,242.4 192.9,242.4 192.9,224.4 '/>
		<polygon fill = 'rgb( 31, 120, 180)' fill-opacity = '0.250000' points = '192.9,224.4 192.9,242.4 193.6,242.4 193.6,223.8 '/>
		<polygon fill = 'rgb( 31, 120, 180)' fill-opacity = '0.250000' points = '193.6,223.8 193.6,242.4 194.3,242.4 194.3,223.2 '/>
		<polygon fill = 'rgb( 31, 120, 180)' fill-opacity = '0.250000' points = '194.3,223.2 194.3,242.4 195.0,242.4 195.0,222.5 '/>
		<polygon fill = 'rgb( 31, 120, 180)' fill-opacity = '0.250000' points = '195.0,222.5 195.0,242.4 195.7,242.4 195.7,221.8 '/>
		<polygon fill = 'rgb( 31, 120, 180)' fill-opacity = '0.250000' points = '195.7,221.8 195.7,242.4 196.4,242.4 196.4,221.1 '/>
		<polygon fill = 'rgb( 31, 120, 180)' fill-opacity = '0.250000' points = '196.4,221.1 196.4,242.4 197.1,242.4 197.1,220.3 '/>
		<polygon fill = 'rgb( 31, 120, 180)' fill-opacity = '0.250000' points = '197.1,220.3 197.1,242.4 197.9,242.4 197.9,219.4 '/>
		<polygon fill = 'rgb( 31, 120, 180)' fill-opacity = '0.250000' points = '197.9,219.4 197.9,242.4 198.6,242.4 198.6,218.6 '/>
		<polygon fill = 'rgb( 31, 120, 180)' fill-opacity = '0.250000' points = '198.6,218.6 198.6,242.4 199.3,242.4 199.3,217.7 '/>
		<polygon fill = 'rgb( 31, 120, 180)' fill-opacity = '0.250000' points = '199.3,217.7 199.3,242.4 200.0,242.4 200.0,216.7 '/>
		<polygon fill = 'rgb( 31, 120, 180)' fill-opacity = '0.250000' points = '200.0,216.7 200.0,242.4 200.7,242.4 200.7,215.7 '/>
		<polygon fill = 'rgb( 31, 120, 180)' fill-opacity = '0.250000' points = '200.7,215.7 200.7,242.4 201.4,242.4 201.4,214.7 '/>
		<polygon fill = 'rgb( 31, 120, 180)' fill-opacity = '0.250000' points = '201.4,214.7 201.4,242.4 202.1,242.4 202.1,213.6 '/>
		<polygon fill = 'rgb( 31, 120, 180)' fill-opacity = '0.250000' points = '202.1,213.6 202.1,242.4 202.8,242.4 202.8,212.5 '/>
		<polygon fill = 'rgb( 31, 120, 180)' fill-opacity = '0.250000' points = '202.8,212.5 202.8,242.4 203.5,242.4 203.5,211.3 '/>
		<polygon fill = 'rgb( 31, 120, 180)' fill-opacity = '0.250000' points = '203.5,211.3 203.5,242.4 204.2,242.4 204.2,210.1 '/>
		<polygon fill = 'rgb( 31, 120, 180)' fill-opacity = '0.250000' points = '204.2,210.1 204.2,242.4 204.9,242.4 204.9,208.8 '/>
		<polygon fill = 'rgb( 31, 120, 180)' fill-opacity = '0.250000' points = '204.9,208.8 204.9,242.4 205.6,242.4 205.6,207.5 '/>
		<polygon fill = 'rgb( 31, 120, 180)' fill-opacity = '0.250000' points = '205.6,207.5 205.6,242.4 206.3,242.4 206.3,206.1 '/>
		<polygon fill = 'rgb( 31, 120, 180)' fill-opacity = '0.250000' points = '206.3,206.1 206.3,242.4 207.1,242.4 207.1,204.7 '/>
		<polygon fill = 'rgb( 31, 120, 180)' fill-opacity = '0.250000' points = '207.1,204.7 207.1,242.4 207.8,242.4 207.8,203.2 '/>
		<polygon fill = 'rgb( 31, 120, 180)' fill-opacity = '0.250000' points = '207.8,203.2 207.8,242.4 208.5,242.4 208.5,201.7 '/>
		<polygon fill = 'rgb( 31, 120, 180)' fill-opacity = '0.250000' points = '208.5,201.7 208.5,242.4 209.2,242.4 209.2,200.1 '/>
		<polygon fill = 'rgb( 31, 120, 180)' fill-opacity = '0.250000' points = '209.2,200.1 209.2,242.4 209.9,242.4 209.9,198.4 '/>
		<polygon fill = 'rgb( 31, 120, 180)' fill-opacity = '0.250000' points = '209.9,198.4 209.9,242.4 210.6,242.4 210.6,196.8 '/>
		<polygon fill = 'rgb( 31, 120, 180)' fill-opacity = '0.250000' points = '210.6,196.8 210.6,242.4 211.3,242.4 211.3,195.0 '/>
		<polygon fill = 'rgb( 31, 120, 180)' fill-opacity = '0.250000' points = '211.3,195.0 211.3,242.4 212.0,242.4 212.0,193.2 '/>
		<polygon fill = 'rgb( 31, 120, 180)' fill-opacity = '0.250000' points = '212.0,193.2 212.0,242.4 212.7,242.4 212.7,191.3 '/>
		<polygon fill = 'rgb( 31, 120, 180)' fill-opacity = '0.250000' points = '212.7,191.3 212.7,242.4 213.4,242.4 213.4,189.4 '/>
		<polygon fill = 'rgb( 31, 120, 180)' fill-opacity = '0.250000' points = '213.4,189.4 213.4,242.4 214.1,242.4 214.1,187.4 '/>
		<polygon fill = 'rgb( 31, 120, 180)' fill-opacity = '0.250000' points = '214.1,187.4 214.1,242.4 214.8,242.4 214.8,185.4 '/>
		<polygon fill = 'rgb( 31, 120, 180)' fill-opacity = '0.250000' points = '214.8,185.4 214.8,242.4 215.5,242.4 215.5,183.3 '/>
		<polygon fill = 'rgb( 31, 120, 180)' fill-opacity = '0.250000' points = '215.5,183.3 215.5,242.4 216.3,242.4 216.3,181.1 '/>
		<polygon fill = 'rgb( 31, 120, 180)' fill-opacity = '0.250000' points = '216.3,181.1 216.3,242.4 217.0,242.4 217.0,178.9 '/>
		<polygon fill = 'rgb( 31, 120, 180)' fill-opacity = '0.250000' points = '217.0,178.9 217.0,242.4 217.7,242.4 217.7,176.6 '/>
		<polygon fill = 'rgb( 31, 120, 180)' fill-opacity = '0.250000' points = '217.7,176.6 217.7,242.4 218.4,242.4 218.4,174.3 '/>
		<polygon fill = 'rgb( 31, 120, 180)' fill-opacity = '0.250000' points = '218.4,174.3 218.4,242.4 219.1,242.4 219.1,171.8 '/>
		<polygon fill = 'rgb( 31, 120, 180)' fill-opacity = '0.250000' points = '219.1,171.8 219.1,242.4 219.8,242.4 219.8,169.4 '/>
		<polygon fill = 'rgb( 31, 120, 180)' fill-opacity = '0.250000' points = '219.8,169.4 219.8,242.4 220.5,242.4 220.5,166.8 '/>
		<polygon fill = 'rgb( 31, 120, 180)' fill-opacity = '0.250000' points = '220.5,166.8 220.5,242.4 221.2,242.4 221.2,164.2 '/>
		<polygon fill = 'rgb( 31, 120, 180)' fill-opacity = '0.250000' points = '221.2,164.2 221.2,242.4 221.9,242.4 221.9,161.6 '/>
		<polygon fill = 'rgb( 31, 120, 180)' fill-opacity = '0.250000' points = '221.9,161.6 221.9,242.4 222.6,242.4 222.6,158.9 '/>
		<polygon fill = 'rgb( 31, 120, 180)' fill-opacity = '0.250000' points = '222.6,158.9 222.6,242.4 223.3,242.4 223.3,156.1 '/>
		<polygon fill = 'rgb( 31, 120, 180)' fill-opacity = '0.250000' points = '223.3,156.1 223.3,242.4 224.0,242.4 224.0,153.3 '/>
		<polygon fill = 'rgb( 31, 120, 180)' fill-opacity = '0.250000' points = '224.0,153.3 224.0,242.4 224.7,242.4 224.7,150.4 '/>
		<polygon fill = 'rgb( 31, 120, 180)' fill-opacity = '0.250000' points = '224.7,150.4 224.7,242.4 225.5,242.4 225.5,147.5 '/>
		<polygon fill = 'rgb( 31, 120, 180)' fill-opacity = '0.250000' points = '225.5,147.5 225.5,242.4 226.2,242.4 226.2,144.5 '/>
		<polygon fill = 'rgb( 31, 120, 180)' fill-opacity = '0.250000' points = '226.2,144.5 226.2,242.4 226.9,242.4 226.9,141.4 '/>
		<polygon fill = 'rgb( 31, 120, 180)' fill-opacity = '0.250000' points = '226.9,141.4 226.9,242.4 227.6,242.4 227.6,138.4 '/>
		<polygon fill = 'rgb( 31, 120, 180)' fill-opacity = '0.250000' points = '227.6,138.4 227.6,242.4 228.3,242.4 228.3,135.2 '/>
		<polygon fill = 'rgb( 31, 120, 180)' fill-opacity = '0.250000' points = '228.3,135.2 228.3,242.4 229.0,242.4 229.0,132.1 '/>
		<polygon fill = 'rgb( 31, 120, 180)' fill-opacity = '0.250000' points = '229.0,132.1 229.0,242.4 229.7,242.4 229.7,128.9 '/>
		<polygon fill = 'rgb( 31, 120, 180)' fill-opacity = '0.250000' points = '229.7,128.9 229.7,242.4 230.4,242.4 230.4,125.6 '/>
		<polygon fill = 'rgb( 31, 120, 180)' fill-opacity = '0.250000' points = '230.4,125.6 230.4,242.4 231.1,242.4 231.1,122.4 '/>
		<polygon fill = 'rgb( 31, 120, 180)' fill-opacity = '0.250000' points = '231.1,122.4 231.1,242.4 231.8,242.4 231.8,119.1 '/>
		<polygon fill = 'rgb( 31, 120, 180)' fill-opacity = '0.250000' points = '231.8,119.1 231.8,242.4 232.5,242.4 232.5,115.8 '/>
		<polygon fill = 'rgb( 31, 120, 180)' fill-opacity = '0.250000' points = '232.5,115.8 232.5,242.4 233.2,242.4 233.2,112.4 '/>
		<polygon fill = 'rgb( 31, 120, 180)' fill-opacity = '0.250000' points = '233.2,112.4 233.2,242.4 233.9,242.4 233.9,109.1 '/>
		<polygon fill = 'rgb( 31, 120, 180)' fill-opacity = '0.250000' points = '233.9,109.1 233.9,242.4 234.7,242.4 234.7,105.7 '/>
		<polygon fill = 'rgb( 31, 120, 180)' fill-opacity = '0.250000' points = '234.7,105.7 234.7,242.4 235.4,242.4 235.4,102.4 '/>
		<polygon fill = 'rgb( 31, 120, 180)' fill-opacity = '0.250000' points = '235.4,102.4 235.4,242.4 236.1,242.4 236.1,99.0 '/>
		<polygon fill = 'rgb( 31, 120, 180)' fill-opacity = '0.250000' points = '236.1,99.0 236.1,242.4 236.8,242.4 236.8,95.6 '/>
		<polygon fill = 'rgb( 31, 120, 180)' fill-opacity = '0.250000' points = '236.8,95.6 236.8,242.4 237.5,242.4 237.5,92.3 '/>
		<polygon fill = 'rgb( 31, 120, 180)' fill-opacity = '0.250000' points = '237.5,92.3 237.5,242.4 238.2,242.4 238.2,89.0 '/>
		<polygon fill = 'rgb( 31, 120, 180)' fill-opacity = '0.250000' points = '238.2,89.0 238.2,242.4 238.9,242.4 238.9,85.7 '/>
		<polygon fill = 'rgb( 31, 120, 180)' fill-opacity = '0.250000' points = '238.9,85.7 238.9,242.4 239.6,242.4 239.6,82.4 '/>
		<polygon fill = 'rgb( 31, 120, 180)' fill-opacity = '0.250000' points = '239.6,82.4 239.6,242.4 240.3,242.4 240.3,79.2 '/>
		<polygon fill = 'rgb( 31, 120, 180)' fill-opacity = '0.250000' points = '240.3,79.2 240.3,242.4 241.0,242.4 241.0,76.0 '/>
		<polygon fill = 'rgb( 31, 120, 180)' fill-opacity = '0.250000' points = '241.0,76.0 241.0,242.4 241.7,242.4 241.7,72.8 '/>
		<polygon fill = 'rgb( 31, 120, 180)' fill-opacity = '0.250000' points = '241.7,72.8 241.7,242.4 242.4,242.4 242.4,69.7 '/>
		<polygon fill = 'rgb( 31, 120, 180)' fill-opacity = '0.250000' points = '242.4,69.7 242.4,242.4 243.1,242.4 243.1,66.6 '/>
		<polygon fill = 'rgb( 31, 120, 180)' fill-opacity = '0.250000' points = '243.1,66.6 243.1,242.4 243.9,242.4 243.9,63.6 '/>
		<polygon fill = 'rgb( 31, 120, 180)' fill-opacity = '0.250000' points = '243.9,63.6 243.9,242.4 244.6,242.4 244.6,60.7 '/>
		<polygon fill = 'rgb( 31, 120, 180)' fill-opacity = '0.250000' points = '244.6,60.7 244.6,242.4 245.3,242.4 245.3,57.8 '/>
		<polygon fill = 'rgb( 31, 120, 180)' fill-opacity = '0.250000' points = '245.3,57.8 245.3,242.4 246.0,242.4 246.0,55.0 '/>
		<polygon fill = 'rgb( 31, 120, 180)' fill-opacity = '0.250000' points = '246.0,55.0 246.0,242.4 246.7,242.4 246.7,52.3 '/>
		<polygon fill = 'rgb( 31, 120, 180)' fill-opacity = '0.250000' points = '246.7,52.3 246.7,242.4 247.4,242.4 247.4,49.7 '/>
		<polygon fill = 'rgb( 31, 120, 180)' fill-opacity = '0.250000' points = '247.4,49.7 247.4,242.4 248.1,242.4 248.1,47.1 '/>
		<polygon fill = 'rgb( 31, 120, 180)' fill-opacity = '0.250000' points = '248.1,47.1 248.1,242.4 248.8,242.4 248.8,44.6 '/>
		<polygon fill = 'rgb( 31, 120, 180)' fill-opacity = '0.250000' points = '248.8,44.6 248.8,242.4 249.5,242.4 249.5,42.3 '/>
		<polygon fill = 'rgb( 31, 120, 180)' fill-opacity = '0.250000' points = '249.5,42.3 249.5,242.4 250.2,242.4 250.2,40.0 '/>
		<polygon fill = 'rgb( 31, 120, 180)' fill-opacity = '0.250000' points = '250.2,40.0 250.2,242.4 250.9,242.4 250.9,37.8 '/>
		<polygon fill = 'rgb( 31, 120, 180)' fill-opacity = '0.250000' points = '250.9,37.8 250.9,242.4 251.6,242.4 251.6,35.8 '/>
		<polygon fill = 'rgb( 31, 120, 180)' fill-opacity = '0.250000' points = '251.6,35.8 251.6,242.4 252.3,242.4 252.3,33.8 '/>
		<polygon fill = 'rgb( 31, 120, 180)' fill-opacity = '0.250000' points = '252.3,33.8 252.3,242.4 253.0,242.4 253.0,31.9 '/>
		<polygon fill = 'rgb( 31, 120, 180)' fill-opacity = '0.250000' points = '253.0,31.9 253.0,242.4 253.8,242.4 253.8,30.2 '/>
		<polygon fill = 'rgb( 31, 120, 180)' fill-opacity = '0.250000' points = '253.8,30.2 253.8,242.4 254.5,242.4 254.5,28.5 '/>
		<polygon fill = 'rgb( 31, 120, 180)' fill-opacity = '0.250000' points = '254.5,28.5 254.5,242.4 255.2,242.4 255.2,27.0 '/>
		<polygon fill = 'rgb( 31, 120, 180)' fill-opacity = '0.250000' points = '255.2,27.0 255.2,242.4 255.9,242.4 255.9,25.6 '/>
		<polygon fill = 'rgb( 31, 120, 180)' fill-opacity = '0.250000' points = '255.9,25.6 255.9,242.4 256.6,242.4 256.6,24.2 '/>
		<polygon fill = 'rgb( 31, 120, 180)' fill-opacity = '0.250000' points = '256.6,24.2 256.6,242.4 257.3,242.4 257.3,23.0 '/>
		<polygon fill = 'rgb( 31, 120, 180)' fill-opacity = '0.250000' points = '257.3,23.0 257.3,242.4 258.0,242.4 258.0,21.9 '/>
		<polygon fill = 'rgb( 31, 120, 180)' fill-opacity = '0.250000' points = '258.0,21.9 258.0,242.4 258.7,242.4 258.7,20.9 '/>
		<polygon fill = 'rgb( 31, 120, 180)' fill-opacity = '0.250000' points = '258.7,20.9 258.7,242.4 259.4,242.4 259.4,20.1 '/>
		<polygon fill = 'rgb( 31, 120, 180)' fill-opacity = '0.250000' points = '259.4,20.1 259.4,242.4 260.1,242.4 260.1,19.3 '/>
		<polygon fill = 'rgb( 31, 120, 180)' fill-opacity = '0.250000' points = '260.1,19.3 260.1,242.4 260.8,242.4 260.8,18.6 '/>
		<polygon fill = 'rgb( 31, 120, 180)' fill-opacity = '0.250000' points = '260.8,18.6 260.8,242.4 261.5,242.4 261.5,18.1 '/>
		<polygon fill = 'rgb( 31, 120, 180)' fill-opacity = '0.250000' points = '261.5,18.1 261.5,242.4 262.2,242.4 262.2,17.6 '/>
		<polygon fill = 'rgb( 31, 120, 180)' fill-opacity = '0.250000' points = '262.2,17.6 262.2,242.4 263.0,242.4 263.0,17.2 '/>
		<polygon fill = 'rgb( 31, 120, 180)' fill-opacity = '0.250000' points = '263.0,17.2 263.0,242.4 263.7,242.4 263.7,17.0 '/>
		<polygon fill = 'rgb( 31, 120, 180)' fill-opacity = '0.250000' points = '263.7,17.0 263.7,242.4 264.4,242.4 264.4,16.8 '/>
		<polygon fill = 'rgb( 31, 120, 180)' fill-opacity = '0.250000' points = '264.4,16.8 264.4,242.4 265.1,242.4 265.1,16.7 '/>
		<polygon fill = 'rgb( 31, 120, 180)' fill-opacity = '0.250000' points = '265.1,16.7 265.1,242.4 265.8,242.4 265.8,16.7 '/>
		<polygon fill = 'rgb( 31, 120, 180)' fill-opacity = '0.250000' points = '265.8,16.7 265.8,242.4 266.5,242.4 266.5,16.8 '/>
		<polygon fill = 'rgb( 31, 120, 180)' fill-opacity = '0.250000' points = '266.5,16.8 266.5,242.4 267.2,242.4 267.2,17.0 '/>
		<polygon fill = 'rgb( 31, 120, 180)' fill-opacity = '0.250000' points = '267.2,17.0 267.2,242.4 267.9,242.4 267.9,17.2 '/>
		<polygon fill = 'rgb( 31, 120, 180)' fill-opacity = '0.250000' points = '267.9,17.2 267.9,242.4 268.6,242.4 268.6,17.5 '/>
		<polygon fill = 'rgb( 31, 120, 180)' fill-opacity = '0.250000' points = '268.6,17.5 268.6,242.4 269.3,242.4 269.3,17.9 '/>
		<polygon fill = 'rgb( 31, 120, 180)' fill-opacity = '0.250000' points = '269.3,17.9 269.3,242.4 270.0,242.4 270.0,18.4 '/>
		<polygon fill = 'rgb( 31, 120, 180)' fill-opacity = '0.250000' points = '270.0,18.4 270.0,242.4 270.7,242.4 270.7,18.9 '/>
		<polygon fill = 'rgb( 31, 120, 180)' fill-opacity = '0.250000' points = '270.7,18.9 270.7,242.4 271.4,242.4 271.4,19.5 '/>
		<polygon fill = 'rgb( 31, 120, 180)' fill-opacity = '0.250000' points = '271.4,19.5 271.4,242.4 272.2,242.4 272.2,20.1 '/>
		<polygon fill = 'rgb( 31, 120, 180)' fill-opacity = '0.250000' points = '272.2,20.1 272.2,242.4 272.9,242.4 272.9,20.8 '/>
		<polygon fill = 'rgb( 31, 120, 180)' fill-opacity = '0.250000' points = '272.9,20.8 272.9,242.4 273.6,242.4 273.6,21.6 '/>
		<polygon fill = 'rgb( 31, 120, 180)' fill-opacity = '0.250000' points = '273.6,21.6 273.6,242.4 274.3,242.4 274.3,22.3 '/>
		<polygon fill = 'rgb( 31, 120, 180)' fill-opacity = '0.250000' points = '274.3,22.3 274.3,242.4 275.0,242.4 275.0,23.2 '/>
		<polygon fill = 'rgb( 31, 120, 180)' fill-opacity = '0.250000' points = '275.0,23.2 275.0,242.4 275.7,242.4 275.7,24.1 '/>
		<polygon fill = 'rgb( 31, 120, 180)' fill-opacity = '0.250000' points = '275.7,24.1 275.7,242.4 276.4,242.4 276.4,25.0 '/>
		<polygon fill = 'rgb( 31, 120, 180)' fill-opacity = '0.250000' points = '276.4,25.0 276.4,242.4 277.1,242.4 277.1,25.9 '/>
		<polygon fill = 'rgb( 31, 120, 180)' fill-opacity = '0.250000' points = '277.1,25.9 277.1,242.4 277.8,242.4 277.8,26.9 '/>
		<polygon fill = 'rgb( 31, 120, 180)' fill-opacity = '0.250000' points = '277.8,26.9 277.8,242.4 278.5,242.4 278.5,27.9 '/>
		<polygon fill = 'rgb( 31, 120, 180)' fill-opacity = '0.250000' points = '278.5,27.9 278.5,242.4 279.2,242.4 279.2,29.0 '/>
		<polygon fill = 'rgb( 31, 120, 180)' fill-opacity = '0.250000' points = '279.2,29.0 279.2,242.4 279.9,242.4 279.9,30.1 '/>
		<polygon fill = 'rgb( 31, 120, 180)' fill-opacity = '0.250000' points = '279.9,30.1 279.9,242.4 280.6,242.4 280.6,31.2 '/>
		<polygon fill = 'rgb( 31, 120, 180)' fill-opacity = '0.250000' points = '280.6,31.2 280.6,242.4 281.4,242.4 281.4,32.3 '/>
		<polygon fill = 'rgb( 31, 120, 180)' fill-opacity = '0.250000' points = '281.4,32.3 281.4,242.4 282.1,242.4 282.1,33.5 '/>
		<polygon fill = 'rgb( 31, 120, 180)' fill-opacity = '0.250000' points = '282.1,33.5 282.1,242.4 282.8,242.4 282.8,34.6 '/>
		<polygon fill = 'rgb( 31, 120, 180)' fill-opacity = '0.250000' points = '282.8,34.6 282.8,242.4 283.5,242.4 283.5,35.8 '/>
		<polygon fill = 'rgb( 31, 120, 180)' fill-opacity = '0.250000' points = '283.5,35.8 283.5,242.4 284.2,242.4 284.2,37.1 '/>
		<polygon fill = 'rgb( 31, 120, 180)' fill-opacity = '0.250000' points = '284.2,37.1 284.2,242.4 284.9,242.4 284.9,38.3 '/>
		<polygon fill = 'rgb( 31, 120, 180)' fill-opacity = '0.250000' points = '284.9,38.3 284.9,242.4 285.6,242.4 285.6,39.6 '/>
		<polygon fill = 'rgb( 31, 120, 180)' fill-opacity = '0.250000' points = '285.6,39.6 285.6,242.4 286.3,242.4 286.3,40.9 '/>
		<polygon fill = 'rgb( 31, 120, 180)' fill-opacity = '0.250000' points = '286.3,40.9 286.3,242.4 287.0,242.4 287.0,42.2 '/>
		<polygon fill = 'rgb( 31, 120, 180)' fill-opacity = '0.250000' points = '287.0,42.2 287.0,242.4 287.7,242.4 287.7,43.6 '/>
		<polygon fill = 'rgb( 31, 120, 180)' fill-opacity = '0.250000' points = '287.7,43.6 287.7,242.4 288.4,242.4 288.4,44.9 '/>
		<polygon fill = 'rgb( 31, 120, 180)' fill-opacity = '0.250000' points = '288.4,44.9 288.4,242.4 289.1,242.4 289.1,46.3 '/>
		<polygon fill = 'rgb( 31, 120, 180)' fill-opacity = '0.250000' points = '289.1,46.3 289.1,242.4 289.8,242.4 289.8,47.8 '/>
		<polygon fill = 'rgb( 31, 120, 180)' fill-opacity = '0.250000' points = '289.8,47.8 289.8,242.4 290.6,242.4 290.6,49.2 '/>
		<polygon fill = 'rgb( 31, 120, 180)' fill-opacity = '0.250000' points = '290.6,49.2 290.6,242.4 291.3,242.4 291.3,50.7 '/>
		<polygon fill = 'rgb( 31, 120, 180)' fill-opacity = '0.250000' points = '291.3,50.7 291.3,242.4 292.0,242.4 292.0,52.2 '/>
		<polygon fill = 'rgb( 31, 120, 180)' fill-opacity = '0.250000' points = '292.0,52.2 292.0,242.4 292.7,242.4 292.7,53.8 '/>
		<polygon fill = 'rgb( 31, 120, 180)' fill-opacity = '0.250000' points = '292.7,53.8 292.7,242.4 293.4,242.4 293.4,55.3 '/>
		<polygon fill = 'rgb( 31, 120, 180)' fill-opacity = '0.250000' points = '293.4,55.3 293.4,242.4 294.1,242.4 294.1,56.9 '/>
		<polygon fill = 'rgb( 31, 120, 180)' fill-opacity = '0.250000' points = '294.1,56.9 294.1,242.4 294.8,242.4 294.8,58.6 '/>
		<polygon fill = 'rgb( 31, 120, 180)' fill-opacity = '0.250000' points = '294.8,58.6 294.8,242.4 295.5,242.4 295.5,60.2 '/>
		<polygon fill = 'rgb( 31, 120, 180)' fill-opacity = '0.250000' points = '295.5,60.2 295.5,242.4 296.2,242.4 296.2,61.9 '/>
		<polygon fill = 'rgb( 31, 120, 180)' fill-opacity = '0.250000' points = '296.2,61.9 296.2,242.4 296.9,242.4 296.9,63.7 '/>
		<polygon fill = 'rgb( 31, 120, 180)' fill-opacity = '0.250000' points = '296.9,63.7 296.9,242.4 297.6,242.4 297.6,65.5 '/>
		<polygon fill = 'rgb( 31, 120, 180)' fill-opacity = '0.250000' points = '297.6,65.5 297.6,242.4 298.3,242.4 298.3,67.3 '/>
		<polygon fill = 'rgb( 31, 120, 180)' fill-opacity = '0.250000' points = '298.3,67.3 298.3,242.4 299.0,242.4 299.0,69.1 '/>
		<polygon fill = 'rgb( 31, 120, 180)' fill-opacity = '0.250000' points = '299.0,69.1 299.0,242.4 299.8,242.4 299.8,71.0 '/>
		<polygon fill = 'rgb( 31, 120, 180)' fill-opacity = '0.250000' points = '299.8,71.0 299.8,242.4 300.5,242.4 300.5,73.0 '/>
		<polygon fill = 'rgb( 31, 120, 180)' fill-opacity = '0.250000' points = '300.5,73.0 300.5,242.4 301.2,242.4 301.2,74.9 '/>
		<polygon fill = 'rgb( 31, 120, 180)' fill-opacity = '0.250000' points = '301.2,74.9 301.2,242.4 301.9,242.4 301.9,76.9 '/>
		<polygon fill = 'rgb( 31, 120, 180)' fill-opacity = '0.250000' points = '301.9,76.9 301.9,242.4 302.6,242.4 302.6,79.0 '/>
		<polygon fill = 'rgb( 31, 120, 180)' fill-opacity = '0.250000' points = '302.6,79.0 302.6,242.4 303.3,242.4 303.3,81.1 '/>
		<polygon fill = 'rgb( 31, 120, 180)' fill-opacity = '0.250000' points = '303.3,81.1 303.3,242.4 304.0,242.4 304.0,83.2 '/>
		<polygon fill = 'rgb( 31, 120, 180)' fill-opacity = '0.250000' points = '304.0,83.2 304.0,242.4 304.7,242.4 304.7,85.4 '/>
		<polygon fill = 'rgb( 31, 120, 180)' fill-opacity = '0.250000' points = '304.7,85.4 304.7,242.4 305.4,242.4 305.4,87.6 '/>
		<polygon fill = 'rgb( 31, 120, 180)' fill-opacity = '0.250000' points = '305.4,87.6 305.4,242.4 306.1,242.4 306.1,89.8 '/>
		<polygon fill = 'rgb( 31, 120, 180)' fill-opacity = '0.250000' points = '306.1,89.8 306.1,242.4 306.8,242.4 306.8,92.0 '/>
		<polygon fill = 'rgb( 31, 120, 180)' fill-opacity = '0.250000' points = '306.8,92.0 306.8,242.4 307.5,242.4 307.5,94.3 '/>
		<polygon fill = 'rgb( 31, 120, 180)' fill-opacity = '0.250000' points = '307.5,94.3 307.5,242.4 308.2,242.4 308.2,96.6 '/>
		<polygon fill = 'rgb( 31, 120, 180)' fill-opacity = '0.250000' points = '308.2,96.6 308.2,242.4 309.0,242.4 309.0,99.0 '/>
		<polygon fill = 'rgb( 31, 120, 180)' fill-opacity = '0.250000' points = '309.0,99.0 309.0,242.4 309.7,242.4 309.7,101.4 '/>
		<polygon fill = 'rgb( 31, 120, 180)' fill-opacity = '0.250000' points = '309.7,101.4 309.7,242.4 310.4,242.4 310.4,103.8 '/>
		<polygon fill = 'rgb( 31, 120, 180)' fill-opacity = '0.250000' points = '310.4,103.8 310.4,242.4 311.1,242.4 311.1,106.2 '/>
		<polygon fill = 'rgb( 31, 120, 180)' fill-opacity = '0.250000' points = '311.1,106.2 311.1,242.4 311.8,242.4 311.8,108.6 '/>
		<polygon fill = 'rgb( 31, 120, 180)' fill-opacity = '0.250000' points = '311.8,108.6 311.8,242.4 312.5,242.4 312.5,111.0 '/>
		<polygon fill = 'rgb( 31, 120, 180)' fill-opacity = '0.250000' points = '312.5,111.0 312.5,242.4 313.2,242.4 313.2,113.5 '/>
		<polygon fill = 'rgb( 31, 120, 180)' fill-opacity = '0.250000' points = '313.2,113.5 313.2,242.4 313.9,242.4 313.9,116.0 '/>
		<polygon fill = 'rgb( 31, 120, 180)' fill-opacity = '0.250000' points = '313.9,116.0 313.9,242.4 314.6,242.4 314.6,118.5 '/>
		<polygon fill = 'rgb( 31, 120, 180)' fill-opacity = '0.250000' points = '314.6,118.5 314.6,242.4 315.3,242.4 315.3,120.9 '/>
		<polygon fill = 'rgb( 31, 120, 180)' fill-opacity = '0.250000' points = '315.3,120.9 315.3,242.4 316.0,242.4 316.0,123.4 '/>
		<polygon fill = 'rgb( 31, 120, 180)' fill-opacity = '0.250000' points = '316.0,123.4 316.0,242.4 316.7,242.4 316.7,125.9 '/>
		<polygon fill = 'rgb( 31, 120, 180)' fill-opacity = '0.250000' points = '316.7,125.9 316.7,242.4 317.4,242.4 317.4,128.4 '/>
		<polygon fill = 'rgb( 31, 120, 180)' fill-opacity = '0.250000' points = '317.4,128.4 317.4,242.4 318.2,242.4 318.2,130.9 '/>
		<polygon fill = 'rgb( 31, 120, 180)' fill-opacity = '0.250000' points = '318.2,130.9 318.2,242.4 318.9,242.4 318.9,133.4 '/>
		<polygon fill = 'rgb( 31, 120, 180)' fill-opacity = '0.250000' points = '318.9,133.4 318.9,242.4 319.6,242.4 319.6,135.8 '/>
		<polygon fill = 'rgb( 31, 120, 180)' fill-opacity = '0.250000' points = '319.6,135.8 319.6,242.4 320.3,242.4 320.3,138.3 '/>
		<polygon fill = 'rgb( 31, 120, 180)' fill-opacity = '0.250000' points = '320.3,138.3 320.3,242.4 321.0,242.4 321.0,140.7 '/>
		<polygon fill = 'rgb( 31, 120, 180)' fill-opacity = '0.250000' points = '321.0,140.7 321.0,242.4 321.7,242.4 321.7,143.1 '/>
		<polygon fill = 'rgb( 31, 120, 180)' fill-opacity = '0.250000' points = '321.7,143.1 321.7,242.4 322.4,242.4 322.4,145.5 '/>
		<polygon fill = 'rgb( 31, 120, 180)' fill-opacity = '0.250000' points = '322.4,145.5 322.4,242.4 323.1,242.4 323.1,147.9 '/>
		<polygon fill = 'rgb( 31, 120, 180)' fill-opacity = '0.250000' points = '323.1,147.9 323.1,242.4 323.8,242.4 323.8,150.2 '/>
		<polygon fill = 'rgb( 31, 120, 180)' fill-opacity = '0.250000' points = '323.8,150.2 323.8,242.4 324.5,242.4 324.5,152.6 '/>
		<polygon fill = 'rgb( 31, 120, 180)' fill-opacity = '0.250000' points = '324.5,152.6 324.5,242.4 325.2,242.4 325.2,154.9 '/>
		<polygon fill = 'rgb( 31, 120, 180)' fill-opacity = '0.250000' points = '325.2,154.9 325.2,242.4 325.9,242.4 325.9,157.1 '/>
		<polygon fill = 'rgb( 31, 120, 180)' fill-opacity = '0.250000' points = '325.9,157.1 325.9,242.4 326.6,242.4 326.6,159.4 '/>
		<polygon fill = 'rgb( 31, 120, 180)' fill-opacity = '0.250000' points = '326.6,159.4 326.6,242.4 327.3,242.4 327.3,161.6 '/>
		<polygon fill = 'rgb( 31, 120, 180)' fill-opacity = '0.250000' points = '327.3,161.6 327.3,242.4 328.1,242.4 328.1,163.7 '/>
		<polygon fill = 'rgb( 31, 120, 180)' fill-opacity = '0.250000' points = '328.1,163.7 328.1,242.4 328.8,242.4 328.8,165.9 '/>
		<polygon fill = 'rgb( 31, 120, 180)' fill-opacity = '0.250000' points = '328.8,165.9 328.8,242.4 329.5,242.4 329.5,168.0 '/>
		<polygon fill = 'rgb( 31, 120, 180)' fill-opacity = '0.250000' points = '329.5,168.0 329.5,242.4 330.2,242.4 330.2,170.0 '/>
		<polygon fill = 'rgb( 31, 120, 180)' fill-opacity = '0.250000' points = '330.2,170.0 330.2,242.4 330.9,242.4 330.9,172.1 '/>
		<polygon fill = 'rgb( 31, 120, 180)' fill-opacity = '0.250000' points = '330.9,172.1 330.9,242.4 331.6,242.4 331.6,174.1 '/>
		<polygon fill = 'rgb( 31, 120, 180)' fill-opacity = '0.250000' points = '331.6,174.1 331.6,242.4 332.3,242.4 332.3,176.0 '/>
		<polygon fill = 'rgb( 31, 120, 180)' fill-opacity = '0.250000' points = '332.3,176.0 332.3,242.4 333.0,242.4 333.0,177.9 '/>
		<polygon fill = 'rgb( 31, 120, 180)' fill-opacity = '0.250000' points = '333.0,177.9 333.0,242.4 333.7,242.4 333.7,179.8 '/>
		<polygon fill = 'rgb( 31, 120, 180)' fill-opacity = '0.250000' points = '333.7,179.8 333.7,242.4 334.4,242.4 334.4,181.6 '/>
		<polygon fill = 'rgb( 31, 120, 180)' fill-opacity = '0.250000' points = '334.4,181.6 334.4,242.4 335.1,242.4 335.1,183.4 '/>
		<polygon fill = 'rgb( 31, 120, 180)' fill-opacity = '0.250000' points = '335.1,183.4 335.1,242.4 335.8,242.4 335.8,185.2 '/>
		<polygon fill = 'rgb( 31, 120, 180)' fill-opacity = '0.250000' points = '335.8,185.2 335.8,242.4 336.5,242.4 336.5,186.9 '/>
		<polygon fill = 'rgb( 31, 120, 180)' fill-opacity = '0.250000' points = '336.5,186.9 336.5,242.4 337.3,242.4 337.3,188.6 '/>
		<polygon fill = 'rgb( 31, 120, 180)' fill-opacity = '0.250000' points = '337.3,188.6 337.3,242.4 338.0,242.4 338.0,190.2 '/>
		<polygon fill = 'rgb( 31, 120, 180)' fill-opacity = '0.250000' points = '338.0,190.2 338.0,242.4 338.7,242.4 338.7,191.8 '/>
		<polygon fill = 'rgb( 31, 120, 180)' fill-opacity = '0.250000' points = '338.7,191.8 338.7,242.4 339.4,242.4 339.4,193.4 '/>
		<polygon fill = 'rgb( 31, 120, 180)' fill-opacity = '0.250000' points = '339.4,193.4 339.4,242.4 340.1,242.4 340.1,194.9 '/>
		<polygon fill = 'rgb( 31, 120, 180)' fill-opacity = '0.250000' points = '340.1,194.9 340.1,242.4 340.8,242.4 340.8,196.4 '/>
		<polygon fill = 'rgb( 31, 120, 180)' fill-opacity = '0.250000' points = '340.8,196.4 340.8,242.4 341.5,242.4 341.5,197.9 '/>
		<polygon fill = 'rgb( 31, 120, 180)' fill-opacity = '0.250000' points = '341.5,197.9 341.5,242.4 342.2,242.4 342.2,199.3 '/>
		<polygon fill = 'rgb( 31, 120, 180)' fill-opacity = '0.250000' points = '342.2,199.3 342.2,242.4 342.9,242.4 342.9,200.7 '/>
		<polygon fill = 'rgb( 31, 120, 180)' fill-opacity = '0.250000' points = '342.9,200.7 342.9,242.4 343.6,242.4 343.6,202.0 '/>
		<polygon fill = 'rgb( 31, 120, 180)' fill-opacity = '0.250000' points = '343.6,202.0 343.6,242.4 344.3,242.4 344.3,203.3 '/>
		<polygon fill = 'rgb( 31, 120, 180)' fill-opacity = '0.250000' points = '344.3,203.3 344.3,242.4 345.0,242.4 345.0,204.6 '/>
		<polygon fill = 'rgb( 31, 120, 180)' fill-opacity = '0.250000' points = '345.0,204.6 345.0,242.4 345.7,242.4 345.7,205.9 '/>
		<polygon fill = 'rgb( 31, 120, 180)' fill-opacity = '0.250000' points = '345.7,205.9 345.7,242.4 346.5,242.4 346.5,207.1 '/>
		<polygon fill = 'rgb( 31, 120, 180)' fill-opacity = '0.250000' points = '346.5,207.1 346.5,242.4 347.2,242.4 347.2,208.2 '/>
		<polygon fill = 'rgb( 31, 120, 180)' fill-opacity = '0.250000' points = '347.2,208.2 347.2,242.4 347.9,242.4 347.9,209.4 '/>
		<polygon fill = 'rgb( 31, 120, 180)' fill-opacity = '0.250000' points = '347.9,209.4 347.9,242.4 348.6,242.4 348.6,210.5 '/>
		<polygon fill = 'rgb( 31, 120, 180)' fill-opacity = '0.250000' points = '348.6,210.5 348.6,242.4 349.3,242.4 349.3,211.6 '/>
		<polygon fill = 'rgb( 31, 120, 180)' fill-opacity = '0.250000' points = '349.3,211.6 349.3,242.4 350.0,242.4 350.0,212.6 '/>
		<polygon fill = 'rgb( 31, 120, 180)' fill-opacity = '0.250000' points = '350.0,212.6 350.0,242.4 350.7,242.4 350.7,213.7 '/>
		<polygon fill = 'rgb( 31, 120, 180)' fill-opacity = '0.250000' points = '350.7,213.7 350.7,242.4 351.4,242.4 351.4,214.6 '/>
		<polygon fill = 'rgb( 31, 120, 180)' fill-opacity = '0.250000' points = '351.4,214.6 351.4,242.4 352.1,242.4 352.1,215.6 '/>
		<polygon fill = 'rgb( 31, 120, 180)' fill-opacity = '0.250000' points = '352.1,215.6 352.1,242.4 352.8,242.4 352.8,216.5 '/>
		<polygon fill = 'rgb( 31, 120, 180)' fill-opacity = '0.250000' points = '352.8,216.5 352.8,242.4 353.5,242.4 353.5,217.5 '/>
		<polygon fill = 'rgb( 31, 120, 180)' fill-opacity = '0.250000' points = '353.5,217.5 353.5,242.4 354.2,242.4 354.2,218.3 '/>
		<polygon fill = 'rgb( 31, 120, 180)' fill-opacity = '0.250000' points = '354.2,218.3 354.2,242.4 354.9,242.4 354.9,219.2 '/>
		<polygon fill = 'rgb( 31, 120, 180)' fill-opacity = '0.250000' points = '354.9,219.2 354.9,242.4 355.7,242.4 355.7,220.0 '/>
		<polygon fill = 'rgb( 31, 120, 180)' fill-opacity = '0.250000' points = '355.7,220.0 355.7,242.4 356.4,242.4 356.4,220.8 '/>
		<polygon fill = 'rgb( 31, 120, 180)' fill-opacity = '0.250000' points = '356.4,220.8 356.4,242.4 357.1,242.4 357.1,221.6 '/>
		<polygon fill = 'rgb( 31, 120, 180)' fill-opacity = '0.250000' points = '357.1,221.6 357.1,242.4 357.8,242.4 357.8,222.3 '/>
		<polygon fill = 'rgb( 31, 120, 180)' fill-opacity = '0.250000' points = '357.8,222.3 357.8,242.4 358.5,242.4 358.5,223.1 '/>
		<polygon fill = 'rgb( 31, 120, 180)' fill-opacity = '0.250000' points = '358.5,223.1 358.5,242.4 359.2,242.4 359.2,223.8 '/>
		<polygon fill = 'rgb( 31, 120, 180)' fill-opacity = '0.250000' points = '359.2,223.8 359.2,242.4 359.9,242.4 359.9,224.5 '/>
		<polygon fill = 'rgb( 31, 120, 180)' fill-opacity = '0.250000' points = '359.9,224.5 359.9,242.4 360.6,242.4 360.6,225.1 '/>
		<polygon fill = 'rgb( 31, 120, 180)' fill-opacity = '0.250000' points = '360.6,225.1 360.6,242.4 361.3,242.4 361.3,225.8 '/>
		<polygon fill = 'rgb( 31, 120, 180)' fill-opacity = '0.250000' points = '361.3,225.8 361.3,242.4 362.0,242.4 362.0,226.4 '/>
		<polygon fill = 'rgb( 31, 120, 180)' fill-opacity = '0.250000' points = '362.0,226.4 362.0,242.4 362.7,242.4 362.7,227.0 '/>
		<polygon fill = 'rgb( 31, 120, 180)' fill-opacity = '0.250000' points = '362.7,227.0 362.7,242.4 363.4,242.4 363.4,227.5 '/>
		<polygon fill = 'rgb( 31, 120, 180)' fill-opacity = '0.250000' points = '363.4,227.5 363.4,242.4 364.1,242.4 364.1,228.1 '/>
		<polygon fill = 'rgb( 31, 120, 180)' fill-opacity = '0.250000' points = '364.1,228.1 364.1,242.4 364.9,242.4 364.9,228.6 '/>
		<polygon fill = 'rgb( 31, 120, 180)' fill-opacity = '0.250000' points = '364.9,228.6 364.9,242.4 365.6,242.4 365.6,229.2 '/>
		<polygon fill = 'rgb( 31, 120, 180)' fill-opacity = '0.250000' points = '365.6,229.2 365.6,242.4 366.3,242.4 366.3,229.7 '/>
		<polygon fill = 'rgb( 31, 120, 180)' fill-opacity = '0.250000' points = '366.3,229.7 366.3,242.4 367.0,242.4 367.0,230.1 '/>
		<polygon fill = 'rgb( 31, 120, 180)' fill-opacity = '0.250000' points = '367.0,230.1 367.0,242.4 367.7,242.4 367.7,230.6 '/>
		<polygon fill = 'rgb( 31, 120, 180)' fill-opacity = '0.250000' points = '367.7,230.6 367.7,242.4 368.4,242.4 368.4,231.1 '/>
		<polygon fill = 'rgb( 31, 120, 180)' fill-opacity = '0.250000' points = '368.4,231.1 368.4,242.4 369.1,242.4 369.1,231.5 '/>
		<polygon fill = 'rgb( 31, 120, 180)' fill-opacity = '0.250000' points = '369.1,231.5 369.1,242.4 369.8,242.4 369.8,231.9 '/>
		<polygon fill = 'rgb( 31, 120, 180)' fill-opacity = '0.250000' points = '369.8,231.9 369.8,242.4 370.5,242.4 370.5,232.3 '/>
		<polygon fill = 'rgb( 31, 120, 180)' fill-opacity = '0.250000' points = '370.5,232.3 370.5,242.4 371.2,242.4 371.2,232.7 '/>
		<polygon fill = 'rgb( 31, 120, 180)' fill-opacity = '0.250000' points = '371.2,232.7 371.2,242.4 371.9,242.4 371.9,233.1 '/>
		<polygon fill = 'rgb( 31, 120, 180)' fill-opacity = '0.250000' points = '371.9,233.1 371.9,242.4 372.6,242.4 372.6,233.5 '/>
		<polygon fill = 'rgb( 31, 120, 180)' fill-opacity = '0.250000' points = '372.6,233.5 372.6,242.4 373.3,242.4 373.3,233.8 '/>
		<polygon fill = 'rgb( 31, 120, 180)' fill-opacity = '0.250000' points = '373.3,233.8 373.3,242.4 374.1,242.4 374.1,234.2 '/>
		<polygon fill = 'rgb( 31, 120, 180)' fill-opacity = '0.250000' points = '374.1,234.2 374.1,242.4 374.8,242.4 374.8,234.5 '/>
		<polygon fill = 'rgb( 31, 120, 180)' fill-opacity = '0.250000' points = '374.8,234.5 374.8,242.4 375.5,242.4 375.5,234.8 '/>
		<polygon fill = 'rgb( 31, 120, 180)' fill-opacity = '0.250000' points = '375.5,234.8 375.5,242.4 376.2,242.4 376.2,235.2 '/>
		<polygon fill = 'rgb( 31, 120, 180)' fill-opacity = '0.250000' points = '376.2,235.2 376.2,242.4 376.9,242.4 376.9,235.5 '/>
		<polygon fill = 'rgb( 31, 120, 180)' fill-opacity = '0.250000' points = '376.9,235.5 376.9,242.4 377.6,242.4 377.6,235.7 '/>
		<polygon fill = 'rgb( 31, 120, 180)' fill-opacity = '0.250000' points = '377.6,235.7 377.6,242.4 378.3,242.4 378.3,236.0 '/>
		<polygon fill = 'rgb( 31, 120, 180)' fill-opacity = '0.250000' points = '378.3,236.0 378.3,242.4 379.0,242.4 379.0,236.3 '/>
		<polygon fill = 'rgb( 31, 120, 180)' fill-opacity = '0.250000' points = '379.0,236.3 379.0,242.4 379.7,242.4 379.7,236.6 '/>
		<polygon fill = 'rgb( 31, 120, 180)' fill-opacity = '0.250000' points = '379.7,236.6 379.7,242.4 380.4,242.4 380.4,236.8 '/>
		<polygon fill = 'rgb( 31, 120, 180)' fill-opacity = '0.250000' points = '380.4,236.8 380.4,242.4 381.1,242.4 381.1,237.1 '/>
		<polygon fill = 'rgb( 31, 120, 180)' fill-opacity = '0.250000' points = '381.1,237.1 381.1,242.4 381.8,242.4 381.8,237.3 '/>
		<polygon fill = 'rgb( 31, 120, 180)' fill-opacity = '0.250000' points = '381.8,237.3 381.8,242.4 382.5,242.4 382.5,237.5 '/>
		<polygon fill = 'rgb( 31, 120, 180)' fill-opacity = '0.250000' points = '382.5,237.5 382.5,242.4 383.3,242.4 383.3,237.8 '/>
		<polygon fill = 'rgb( 31, 120, 180)' fill-opacity = '0.250000' points = '383.3,237.8 383.3,242.4 384.0,242.4 384.0,238.0 '/>
		<polygon fill = 'rgb( 31, 120, 180)' fill-opacity = '0.250000' points = '384.0,238.0 384.0,242.4 384.7,242.4 384.7,238.2 '/>
		<polygon fill = 'rgb( 31, 120, 180)' fill-opacity = '0.250000' points = '384.7,238.2 384.7,242.4 385.4,242.4 385.4,238.4 '/>
		<polygon fill = 'rgb( 31, 120, 180)' fill-opacity = '0.250000' points = '385.4,238.4 385.4,242.4 386.1,242.4 386.1,238.6 '/>
		<polygon fill = 'rgb( 31, 120, 180)' fill-opacity = '0.250000' points = '386.1,238.6 386.1,242.4 386.8,242.4 386.8,238.8 '/>
		<polygon fill = 'rgb( 31, 120, 180)' fill-opacity = '0.250000' points = '386.8,238.8 386.8,242.4 387.5,242.4 387.5,238.9 '/>
		<polygon fill = 'rgb( 31, 120, 180)' fill-opacity = '0.250000' points = '387.5,238.9 387.5,242.4 388.2,242.4 388.2,239.1 '/>
		<polygon fill = 'rgb( 31, 120, 180)' fill-opacity = '0.250000' points = '388.2,239.1 388.2,242.4 388.9,242.4 388.9,239.3 '/>
		<polygon fill = 'rgb( 31, 120, 180)' fill-opacity = '0.250000' points = '388.9,239.3 388.9,242.4 389.6,242.4 389.6,239.4 '/>
		<polygon fill = 'rgb( 31, 120, 180)' fill-opacity = '0.250000' points = '389.6,239.4 389.6,242.4 390.3,242.4 390.3,239.6 '/>
		<polygon fill = 'rgb( 31, 120, 180)' fill-opacity = '0.250000' points = '390.3,239.6 390.3,242.4 391.0,242.4 391.0,239.7 '/>
		<polygon fill = 'rgb( 31, 120, 180)' fill-opacity = '0.250000' points = '391.0,239.7 391.0,242.4 391.7,242.4 391.7,239.9 '/>
		<polygon fill = 'rgb( 31, 120, 180)' fill-opacity = '0.250000' points = '391.7,239.9 391.7,242.4 392.4,242.4 392.4,240.0 '/>
		<polygon fill = 'rgb( 31, 120, 180)' fill-opacity = '0.250000' points = '392.4,240.0 392.4,242.4 393.2,242.4 393.2,240.2 '/>
		<polygon fill = 'rgb( 31, 120, 180)' fill-opacity = '0.250000' points = '393.2,240.2 393.2,242.4 393.9,242.4 393.9,240.3 '/>
		<polygon fill = 'rgb( 31, 120, 180)' fill-opacity = '0.250000' points = '393.9,240.3 393.9,242.4 394.6,242.4 394.6,240.4 '/>
		<polygon fill = 'rgb( 31, 120, 180)' fill-opacity = '0.250000' points = '394.6,240.4 394.6,242.4 395.3,242.4 395.3,240.5 '/>
		<polygon fill = 'rgb( 31, 120, 180)' fill-opacity = '0.250000' points = '395.3,240.5 395.3,242.4 396.0,242.4 396.0,240.6 '/>
		<polygon fill = 'rgb( 31, 120, 180)' fill-opacity = '0.250000' points = '396.0,240.6 396.0,242.4 396.7,242.4 396.7,240.7 '/>
		<polygon fill = 'rgb( 31, 120, 180)' fill-opacity = '0.250000' points = '396.7,240.7 396.7,242.4 397.4,242.4 397.4,240.8 '/>
		<polygon fill = 'rgb( 31, 120, 180)' fill-opacity = '0.250000' points = '397.4,240.8 397.4,242.4 398.1,242.4 398.1,240.9 '/>
		<polygon fill = 'rgb( 31, 120, 180)' fill-opacity = '0.250000' points = '398.1,240.9 398.1,242.4 398.8,242.4 398.8,241.0 '/>
		<polygon fill = 'rgb( 31, 120, 180)' fill-opacity = '0.250000' points = '398.8,241.0 398.8,242.4 399.5,242.4 399.5,241.1 '/>
		<polygon fill = 'rgb( 31, 120, 180)' fill-opacity = '0.250000' points = '399.5,241.1 399.5,242.4 400.2,242.4 400.2,241.2 '/>
		<polygon fill = 'rgb( 31, 120, 180)' fill-opacity = '0.250000' points = '400.2,241.2 400.2,242.4 400.9,242.4 400.9,241.3 '/>
		<polygon fill = 'rgb( 31, 120, 180)' fill-opacity = '0.250000' points = '400.9,241.3 400.9,242.4 401.6,242.4 401.6,241.4 '/>
		<polygon fill = 'rgb( 31, 120, 180)' fill-opacity = '0.250000' points = '401.6,241.4 401.6,242.4 402.4,242.4 402.4,241.4 '/>
		<polygon fill = 'rgb( 31, 120, 180)' fill-opacity = '0.250000' points = '402.4,241.4 402.4,242.4 403.1,242.4 403.1,241.5 '/>
		<polygon fill = 'rgb( 31, 120, 180)' fill-opacity = '0.250000' points = '403.1,241.5 403.1,242.4 403.8,242.4 403.8,241.6 '/>
		<polygon fill = 'rgb( 31, 120, 180)' fill-opacity = '0.250000' points = '403.8,241.6 403.8,242.4 404.5,242.4 404.5,241.6 '/>
		<polygon fill = 'rgb( 31, 120, 180)' fill-opacity = '0.250000' points = '404.5,241.6 404.5,242.4 405.2,242.4 405.2,241.7 '/>
		<polygon fill = 'rgb( 31, 120, 180)' fill-opacity = '0.250000' points = '405.2,241.7 405.2,242.4 405.9,242.4 405.9,241.7 '/>
		<polygon fill = 'rgb( 31, 120, 180)' fill-opacity = '0.250000' points = '405.9,241.7 405.9,242.4 406.6,242.4 406.6,241.8 '/>
		<polygon fill = 'rgb( 31, 120, 180)' fill-opacity = '0.250000' points = '406.6,241.8 406.6,242.4 407.3,242.4 407.3,241.8 '/>
		<polygon fill = 'rgb( 31, 120, 180)' fill-opacity = '0.250000' points = '407.3,241.8 407.3,242.4 408.0,242.4 408.0,241.9 '/>
		<polygon fill = 'rgb( 31, 120, 180)' fill-opacity = '0.250000' points = '408.0,241.9 408.0,242.4 408.7,242.4 408.7,241.9 '/>
		<polygon fill = 'rgb( 31, 120, 180)' fill-opacity = '0.250000' points = '408.7,241.9 408.7,242.4 409.4,242.4 409.4,242.0 '/>
		<polygon fill = 'rgb( 31, 120, 180)' fill-opacity = '0.250000' points = '409.4,242.0 409.4,242.4 410.1,242.4 410.1,242.0 '/>
		<polygon fill = 'rgb( 31, 120, 180)' fill-opacity = '0.250000' points = '410.1,242.0 410.1,242.4 410.8,242.4 410.8,242.0 '/>
		<polygon fill = 'rgb( 31, 120, 180)' fill-opacity = '0.250000' points = '410.8,242.0 410.8,242.4 411.6,242.4 411.6,242.1 '/>
		<polygon fill = 'rgb( 31, 120, 180)' fill-opacity = '0.250000' points = '411.6,242.1 411.6,242.4 412.3,242.4 412.3,242.1 '/>
		<polygon fill = 'rgb( 31, 120, 180)' fill-opacity = '0.250000' points = '412.3,242.1 412.3,242.4 413.0,242.4 413.0,242.1 '/>
		<polygon fill = 'rgb( 31, 120, 180)' fill-opacity = '0.250000' points = '413.0,242.1 413.0,242.4 413.7,242.4 413.7,242.1 '/>
		<polygon fill = 'rgb( 31, 120, 180)' fill-opacity = '0.250000' points = '413.7,242.1 413.7,242.4 414.4,242.4 414.4,242.2 '/>
		<polygon fill = 'rgb( 31, 120, 180)' fill-opacity = '0.250000' points = '414.4,242.2 414.4,242.4 415.1,242.4 415.1,242.2 '/>
		<polygon fill = 'rgb( 31, 120, 180)' fill-opacity = '0.250000' points = '415.1,242.2 415.1,242.4 415.8,242.4 415.8,242.2 '/>
		<polygon fill = 'rgb( 31, 120, 180)' fill-opacity = '0.250000' points = '415.8,242.2 415.8,242.4 416.5,242.4 416.5,242.2 '/>
		<polygon fill = 'rgb( 31, 120, 180)' fill-opacity = '0.250000' points = '416.5,242.2 416.5,242.4 417.2,242.4 417.2,242.2 '/>
		<polygon fill = 'rgb( 31, 120, 180)' fill-opacity = '0.250000' points = '417.2,242.2 417.2,242.4 417.9,242.4 417.9,242.2 '/>
		<polygon fill = 'rgb( 31, 120, 180)' fill-opacity = '0.250000' points = '417.9,242.2 417.9,242.4 418.6,242.4 418.6,242.3 '/>
		<polygon fill = 'rgb( 31, 120, 180)' fill-opacity = '0.250000' points = '418.6,242.3 418.6,242.4 419.3,242.4 419.3,242.3 '/>
		<polygon fill = 'rgb( 31, 120, 180)' fill-opacity = '0.250000' points = '419.3,242.3 419.3,242.4 420.0,242.4 420.0,242.3 '/>
		<polygon fill = 'rgb( 31, 120, 180)' fill-opacity = '0.250000' points = '420.0,242.3 420.0,242.4 420.8,242.4 420.8,242.3 '/>
		<polygon fill = 'rgb( 31, 120, 180)' fill-opacity = '0.250000' points = '420.8,242.3 420.8,242.4 421.5,242.4 421.5,242.3 '/>
		<polygon fill = 'rgb( 31, 120, 180)' fill-opacity = '0.250000' points = '421.5,242.3 421.5,242.4 422.2,242.4 422.2,242.3 '/>
		<polygon fill = 'rgb( 31, 120, 180)' fill-opacity = '0.250000' points = '422.2,242.3 422.2,242.4 422.9,242.4 422.9,242.3 '/>
		<polygon fill = 'rgb( 31, 120, 180)' fill-opacity = '0.250000' points = '422.9,242.3 422.9,242.4 423.6,242.4 423.6,242.3 '/>
		<polygon fill = 'rgb( 31, 120, 180)' fill-opacity = '0.250000' points = '423.6,242.3 423.6,242.4 424.3,242.4 424.3,242.3 '/>
		<polygon fill = 'rgb( 31, 120, 180)' fill-opacity = '0.250000' points = '424.3,242.3 424.3,242.4 425.0,242.4 425.0,242.3 '/>
	</g>
</g>
	</g>
	<g id="gnuplot_plot_2" ><title>Mean</title>
<g fill="none" color="white" stroke="rgb( 31, 120, 180)" stroke-width="2.00" stroke-linecap="butt" stroke-linejoin="miter">
</g>
<g fill="none" color="black" stroke="currentColor" stroke-width="2.00" stroke-linecap="butt" stroke-linejoin="miter">
	<path stroke='rgb( 31, 120, 180)'  d='M265.8,242.4 L265.8,37.2  '/></g>
	</g>
<g fill="none" color="black" stroke="currentColor" stroke-width="2.00" stroke-linecap="butt" stroke-linejoin="miter">
</g>
<g fill="none" color="black" stroke="black" stroke-width="1.00" stroke-linecap="butt" stroke-linejoin="miter">
</g>
<g fill="none" color="black" stroke="currentColor" stroke-width="1.00" stroke-linecap="butt" stroke-linejoin="miter">
	<path stroke='black'  d='M71.9,16.7 L71.9,242.4 L425.0,242.4 L425.0,16.7 L71.9,16.7 Z  '/></g>
<g fill="none" color="black" stroke="currentColor" stroke-width="1.00" stroke-linecap="butt" stroke-linejoin="miter">
</g>
</g>
</svg>

