group,function,value,throughput_num,throughput_type,sample_measured_value,unit,iteration_count
dfs arena rwlock par immut (×4),,,,,13658830.0,ns,1
dfs arena rwlock par immut (×4),,,,,24050412.0,ns,2
dfs arena rwlock par immut (×4),,,,,34792182.0,ns,3
dfs arena rwlock par immut (×4),,,,,46720379.0,ns,4
dfs arena rwlock par immut (×4),,,,,59591599.0,ns,5
dfs arena rwlock par immut (×4),,,,,70419797.0,ns,6
dfs arena rwlock par immut (×4),,,,,79293803.0,ns,7
dfs arena rwlock par immut (×4),,,,,93845554.0,ns,8
dfs arena rwlock par immut (×4),,,,,104617066.0,ns,9
dfs arena rwlock par immut (×4),,,,,116649931.0,ns,10
dfs arena rwlock par immut (×4),,,,,128785628.0,ns,11
dfs arena rwlock par immut (×4),,,,,140123940.0,ns,12
dfs arena rwlock par immut (×4),,,,,145069534.0,ns,13
dfs arena rwlock par immut (×4),,,,,161436526.0,ns,14
dfs arena rwlock par immut (×4),,,,,170657006.0,ns,15
dfs arena rwlock par immut (×4),,,,,186129262.0,ns,16
dfs arena rwlock par immut (×4),,,,,193053238.0,ns,17
dfs arena rwlock par immut (×4),,,,,208487401.0,ns,18
dfs arena rwlock par immut (×4),,,,,210905617.0,ns,19
dfs arena rwlock par immut (×4),,,,,237239248.0,ns,20
dfs arena rwlock par immut (×4),,,,,243012300.0,ns,21
dfs arena rwlock par immut (×4),,,,,249250006.0,ns,22
dfs arena rwlock par immut (×4),,,,,258631323.0,ns,23
dfs arena rwlock par immut (×4),,,,,276989445.0,ns,24
dfs arena rwlock par immut (×4),,,,,297020076.0,ns,25
dfs arena rwlock par immut (×4),,,,,301298817.0,ns,26
dfs arena rwlock par immut (×4),,,,,308790139.0,ns,27
dfs arena rwlock par immut (×4),,,,,320910600.0,ns,28
dfs arena rwlock par immut (×4),,,,,320421439.0,ns,29
dfs arena rwlock par immut (×4),,,,,344078148.0,ns,30
dfs arena rwlock par immut (×4),,,,,361051871.0,ns,31
dfs arena rwlock par immut (×4),,,,,369384971.0,ns,32
dfs arena rwlock par immut (×4),,,,,373878322.0,ns,33
dfs arena rwlock par immut (×4),,,,,394692563.0,ns,34
dfs arena rwlock par immut (×4),,,,,410328499.0,ns,35
dfs arena rwlock par immut (×4),,,,,421936501.0,ns,36
dfs arena rwlock par immut (×4),,,,,414735984.0,ns,37
dfs arena rwlock par immut (×4),,,,,443553397.0,ns,38
dfs arena rwlock par immut (×4),,,,,450438770.0,ns,39
dfs arena rwlock par immut (×4),,,,,454137333.0,ns,40
dfs arena rwlock par immut (×4),,,,,477223281.0,ns,41
dfs arena rwlock par immut (×4),,,,,486014434.0,ns,42
dfs arena rwlock par immut (×4),,,,,498550931.0,ns,43
dfs arena rwlock par immut (×4),,,,,520221078.0,ns,44
dfs arena rwlock par immut (×4),,,,,518054377.0,ns,45
dfs arena rwlock par immut (×4),,,,,529651943.0,ns,46
dfs arena rwlock par immut (×4),,,,,550949478.0,ns,47
dfs arena rwlock par immut (×4),,,,,548312649.0,ns,48
dfs arena rwlock par immut (×4),,,,,563201673.0,ns,49
dfs arena rwlock par immut (×4),,,,,570996424.0,ns,50
dfs arena rwlock par immut (×4),,,,,593229954.0,ns,51
dfs arena rwlock par immut (×4),,,,,600878640.0,ns,52
dfs arena rwlock par immut (×4),,,,,613099531.0,ns,53
dfs arena rwlock par immut (×4),,,,,616305024.0,ns,54
dfs arena rwlock par immut (×4),,,,,636693434.0,ns,55
dfs arena rwlock par immut (×4),,,,,646773327.0,ns,56
dfs arena rwlock par immut (×4),,,,,656154047.0,ns,57
dfs arena rwlock par immut (×4),,,,,668469146.0,ns,58
dfs arena rwlock par immut (×4),,,,,677712344.0,ns,59
dfs arena rwlock par immut (×4),,,,,692464347.0,ns,60
dfs arena rwlock par immut (×4),,,,,696684415.0,ns,61
dfs arena rwlock par immut (×4),,,,,711631061.0,ns,62
dfs arena rwlock par immut (×4),,,,,727606638.0,ns,63
dfs arena rwlock par immut (×4),,,,,742339172.0,ns,64
dfs arena rwlock par immut (×4),,,,,769933474.0,ns,65
dfs arena rwlock par immut (×4),,,,,752353049.0,ns,66
dfs arena rwlock par immut (×4),,,,,770186690.0,ns,67
dfs arena rwlock par immut (×4),,,,,796515548.0,ns,68
dfs arena rwlock par immut (×4),,,,,803852101.0,ns,69
dfs arena rwlock par immut (×4),,,,,796605099.0,ns,70
dfs arena rwlock par immut (×4),,,,,813787385.0,ns,71
dfs arena rwlock par immut (×4),,,,,831236459.0,ns,72
dfs arena rwlock par immut (×4),,,,,830552637.0,ns,73
dfs arena rwlock par immut (×4),,,,,853812743.0,ns,74
dfs arena rwlock par immut (×4),,,,,863711408.0,ns,75
dfs arena rwlock par immut (×4),,,,,877061879.0,ns,76
dfs arena rwlock par immut (×4),,,,,880735254.0,ns,77
dfs arena rwlock par immut (×4),,,,,905067077.0,ns,78
dfs arena rwlock par immut (×4),,,,,887834398.0,ns,79
dfs arena rwlock par immut (×4),,,,,925343235.0,ns,80
dfs arena rwlock par immut (×4),,,,,941239279.0,ns,81
dfs arena rwlock par immut (×4),,,,,956333231.0,ns,82
dfs arena rwlock par immut (×4),,,,,966166588.0,ns,83
dfs arena rwlock par immut (×4),,,,,972043423.0,ns,84
dfs arena rwlock par immut (×4),,,,,987134977.0,ns,85
dfs arena rwlock par immut (×4),,,,,983640704.0,ns,86
dfs arena rwlock par immut (×4),,,,,989436375.0,ns,87
dfs arena rwlock par immut (×4),,,,,1024044415.0,ns,88
dfs arena rwlock par immut (×4),,,,,1032109216.0,ns,89
dfs arena rwlock par immut (×4),,,,,1030637250.0,ns,90
dfs arena rwlock par immut (×4),,,,,1046556816.0,ns,91
dfs arena rwlock par immut (×4),,,,,1060637128.0,ns,92
dfs arena rwlock par immut (×4),,,,,1055240178.0,ns,93
dfs arena rwlock par immut (×4),,,,,1103132960.0,ns,94
dfs arena rwlock par immut (×4),,,,,1089551846.0,ns,95
dfs arena rwlock par immut (×4),,,,,1110980965.0,ns,96
dfs arena rwlock par immut (×4),,,,,1113418690.0,ns,97
dfs arena rwlock par immut (×4),,,,,1130424706.0,ns,98
dfs arena rwlock par immut (×4),,,,,1135134788.0,ns,99
dfs arena rwlock par immut (×4),,,,,1125785414.0,ns,100
