<?xml version="1.0" encoding="utf-8"  standalone="no"?>
<!DOCTYPE svg PUBLIC "-//W3C//DTD SVG 1.1//EN"
 "http://www.w3.org/Graphics/SVG/1.1/DTD/svg11.dtd">
<svg 
 viewBox="0 0 1280 720"
 xmlns="http://www.w3.org/2000/svg"
 xmlns:xlink="http://www.w3.org/1999/xlink"
>

<title>Gnuplot</title>
<desc>Produced by GNUPLOT 5.0 patchlevel 5 </desc>

<g id="gnuplot_canvas">

<rect x="0" y="0" width="1280" height="720" fill="none"/>
<defs>

	<circle id='gpDot' r='0.5' stroke-width='0.5'/>
	<path id='gpPt0' stroke-width='0.222' stroke='currentColor' d='M-1,0 h2 M0,-1 v2'/>
	<path id='gpPt1' stroke-width='0.222' stroke='currentColor' d='M-1,-1 L1,1 M1,-1 L-1,1'/>
	<path id='gpPt2' stroke-width='0.222' stroke='currentColor' d='M-1,0 L1,0 M0,-1 L0,1 M-1,-1 L1,1 M-1,1 L1,-1'/>
	<rect id='gpPt3' stroke-width='0.222' stroke='currentColor' x='-1' y='-1' width='2' height='2'/>
	<rect id='gpPt4' stroke-width='0.222' stroke='currentColor' fill='currentColor' x='-1' y='-1' width='2' height='2'/>
	<circle id='gpPt5' stroke-width='0.222' stroke='currentColor' cx='0' cy='0' r='1'/>
	<use xlink:href='#gpPt5' id='gpPt6' fill='currentColor' stroke='none'/>
	<path id='gpPt7' stroke-width='0.222' stroke='currentColor' d='M0,-1.33 L-1.33,0.67 L1.33,0.67 z'/>
	<use xlink:href='#gpPt7' id='gpPt8' fill='currentColor' stroke='none'/>
	<use xlink:href='#gpPt7' id='gpPt9' stroke='currentColor' transform='rotate(180)'/>
	<use xlink:href='#gpPt9' id='gpPt10' fill='currentColor' stroke='none'/>
	<use xlink:href='#gpPt3' id='gpPt11' stroke='currentColor' transform='rotate(45)'/>
	<use xlink:href='#gpPt11' id='gpPt12' fill='currentColor' stroke='none'/>
	<path id='gpPt13' stroke-width='0.222' stroke='currentColor' d='M0,1.330 L1.265,0.411 L0.782,-1.067 L-0.782,-1.076 L-1.265,0.411 z'/>
	<use xlink:href='#gpPt13' id='gpPt14' fill='currentColor' stroke='none'/>
	<filter id='textbox' filterUnits='objectBoundingBox' x='0' y='0' height='1' width='1'>
	  <feFlood flood-color='white' flood-opacity='1' result='bgnd'/>
	  <feComposite in='SourceGraphic' in2='bgnd' operator='atop'/>
	</filter>
	<filter id='greybox' filterUnits='objectBoundingBox' x='0' y='0' height='1' width='1'>
	  <feFlood flood-color='lightgrey' flood-opacity='1' result='grey'/>
	  <feComposite in='SourceGraphic' in2='grey' operator='atop'/>
	</filter>
</defs>
<g fill="none" color="white" stroke="currentColor" stroke-width="1.00" stroke-linecap="butt" stroke-linejoin="miter">
</g>
<g fill="none" color="black" stroke="currentColor" stroke-width="1.00" stroke-linecap="butt" stroke-linejoin="miter">
	<path stroke='black'  d='M80.2,662.4 L89.2,662.4  '/>	<g transform="translate(71.9,666.3)" stroke="none" fill="black" font-family="Helvetica" font-size="12.00"  text-anchor="end">
		<text><tspan font-family="Helvetica" > 0</tspan></text>
	</g>
</g>
<g fill="none" color="black" stroke="currentColor" stroke-width="1.00" stroke-linecap="butt" stroke-linejoin="miter">
	<path stroke='black'  d='M80.2,575.5 L89.2,575.5  '/>	<g transform="translate(71.9,579.4)" stroke="none" fill="black" font-family="Helvetica" font-size="12.00"  text-anchor="end">
		<text><tspan font-family="Helvetica" > 200</tspan></text>
	</g>
</g>
<g fill="none" color="black" stroke="currentColor" stroke-width="1.00" stroke-linecap="butt" stroke-linejoin="miter">
	<path stroke='black'  d='M80.2,488.6 L89.2,488.6  '/>	<g transform="translate(71.9,492.5)" stroke="none" fill="black" font-family="Helvetica" font-size="12.00"  text-anchor="end">
		<text><tspan font-family="Helvetica" > 400</tspan></text>
	</g>
</g>
<g fill="none" color="black" stroke="currentColor" stroke-width="1.00" stroke-linecap="butt" stroke-linejoin="miter">
	<path stroke='black'  d='M80.2,401.7 L89.2,401.7  '/>	<g transform="translate(71.9,405.6)" stroke="none" fill="black" font-family="Helvetica" font-size="12.00"  text-anchor="end">
		<text><tspan font-family="Helvetica" > 600</tspan></text>
	</g>
</g>
<g fill="none" color="black" stroke="currentColor" stroke-width="1.00" stroke-linecap="butt" stroke-linejoin="miter">
	<path stroke='black'  d='M80.2,314.8 L89.2,314.8  '/>	<g transform="translate(71.9,318.7)" stroke="none" fill="black" font-family="Helvetica" font-size="12.00"  text-anchor="end">
		<text><tspan font-family="Helvetica" > 800</tspan></text>
	</g>
</g>
<g fill="none" color="black" stroke="currentColor" stroke-width="1.00" stroke-linecap="butt" stroke-linejoin="miter">
	<path stroke='black'  d='M80.2,227.9 L89.2,227.9  '/>	<g transform="translate(71.9,231.8)" stroke="none" fill="black" font-family="Helvetica" font-size="12.00"  text-anchor="end">
		<text><tspan font-family="Helvetica" > 1000</tspan></text>
	</g>
</g>
<g fill="none" color="black" stroke="currentColor" stroke-width="1.00" stroke-linecap="butt" stroke-linejoin="miter">
	<path stroke='black'  d='M80.2,141.0 L89.2,141.0  '/>	<g transform="translate(71.9,144.9)" stroke="none" fill="black" font-family="Helvetica" font-size="12.00"  text-anchor="end">
		<text><tspan font-family="Helvetica" > 1200</tspan></text>
	</g>
</g>
<g fill="none" color="black" stroke="currentColor" stroke-width="1.00" stroke-linecap="butt" stroke-linejoin="miter">
	<path stroke='black'  d='M80.2,54.1 L89.2,54.1  '/>	<g transform="translate(71.9,58.0)" stroke="none" fill="black" font-family="Helvetica" font-size="12.00"  text-anchor="end">
		<text><tspan font-family="Helvetica" > 1400</tspan></text>
	</g>
</g>
<g fill="none" color="black" stroke="currentColor" stroke-width="1.00" stroke-linecap="butt" stroke-linejoin="miter">
	<path stroke='black'  d='M119.0,662.4 L119.0,653.4  '/>	<g transform="translate(119.0,684.3)" stroke="none" fill="black" font-family="Helvetica" font-size="12.00"  text-anchor="middle">
		<text><tspan font-family="Helvetica" > 4.3365</tspan></text>
	</g>
</g>
<g fill="none" color="black" stroke="currentColor" stroke-width="1.00" stroke-linecap="butt" stroke-linejoin="miter">
	<path stroke='black'  d='M275.3,662.4 L275.3,653.4  '/>	<g transform="translate(275.3,684.3)" stroke="none" fill="black" font-family="Helvetica" font-size="12.00"  text-anchor="middle">
		<text><tspan font-family="Helvetica" > 4.337</tspan></text>
	</g>
</g>
<g fill="none" color="black" stroke="currentColor" stroke-width="1.00" stroke-linecap="butt" stroke-linejoin="miter">
	<path stroke='black'  d='M431.7,662.4 L431.7,653.4  '/>	<g transform="translate(431.7,684.3)" stroke="none" fill="black" font-family="Helvetica" font-size="12.00"  text-anchor="middle">
		<text><tspan font-family="Helvetica" > 4.3375</tspan></text>
	</g>
</g>
<g fill="none" color="black" stroke="currentColor" stroke-width="1.00" stroke-linecap="butt" stroke-linejoin="miter">
	<path stroke='black'  d='M588.0,662.4 L588.0,653.4  '/>	<g transform="translate(588.0,684.3)" stroke="none" fill="black" font-family="Helvetica" font-size="12.00"  text-anchor="middle">
		<text><tspan font-family="Helvetica" > 4.338</tspan></text>
	</g>
</g>
<g fill="none" color="black" stroke="currentColor" stroke-width="1.00" stroke-linecap="butt" stroke-linejoin="miter">
	<path stroke='black'  d='M744.4,662.4 L744.4,653.4  '/>	<g transform="translate(744.4,684.3)" stroke="none" fill="black" font-family="Helvetica" font-size="12.00"  text-anchor="middle">
		<text><tspan font-family="Helvetica" > 4.3385</tspan></text>
	</g>
</g>
<g fill="none" color="black" stroke="currentColor" stroke-width="1.00" stroke-linecap="butt" stroke-linejoin="miter">
	<path stroke='black'  d='M900.7,662.4 L900.7,653.4  '/>	<g transform="translate(900.7,684.3)" stroke="none" fill="black" font-family="Helvetica" font-size="12.00"  text-anchor="middle">
		<text><tspan font-family="Helvetica" > 4.339</tspan></text>
	</g>
</g>
<g fill="none" color="black" stroke="currentColor" stroke-width="1.00" stroke-linecap="butt" stroke-linejoin="miter">
</g>
<g fill="none" color="black" stroke="currentColor" stroke-width="1.00" stroke-linecap="butt" stroke-linejoin="miter">
	<path stroke='black'  d='M80.2,54.1 L80.2,662.4 L1013.6,662.4 L1013.6,54.1 L80.2,54.1 Z  '/></g>
<g fill="none" color="black" stroke="currentColor" stroke-width="1.00" stroke-linecap="butt" stroke-linejoin="miter">
	<g transform="translate(17.0,358.3) rotate(270)" stroke="none" fill="black" font-family="Helvetica" font-size="12.00"  text-anchor="middle">
		<text><tspan font-family="Helvetica" >Density (a.u.)</tspan></text>
	</g>
</g>
<g fill="none" color="black" stroke="currentColor" stroke-width="1.00" stroke-linecap="butt" stroke-linejoin="miter">
	<g transform="translate(546.9,711.3)" stroke="none" fill="black" font-family="Helvetica" font-size="12.00"  text-anchor="middle">
		<text><tspan font-family="Helvetica" >Average time (ms)</tspan></text>
	</g>
</g>
<g fill="none" color="black" stroke="currentColor" stroke-width="1.00" stroke-linecap="butt" stroke-linejoin="miter">
	<g transform="translate(546.9,31.0)" stroke="none" fill="black" font-family="Helvetica" font-size="12.00"  text-anchor="middle">
		<text><tspan font-family="Helvetica" >dlist arc ghostcell init no_drop: median</tspan></text>
	</g>
</g>
	<g id="gnuplot_plot_1" ><title>Bootstrap distribution</title>
<g fill="none" color="white" stroke="black" stroke-width="2.00" stroke-linecap="butt" stroke-linejoin="miter">
</g>
<g fill="none" color="black" stroke="currentColor" stroke-width="2.00" stroke-linecap="butt" stroke-linejoin="miter">
	<g transform="translate(1089.0,67.0)" stroke="none" fill="black" font-family="Helvetica" font-size="12.00"  text-anchor="start">
		<text><tspan font-family="Helvetica" >Bootstrap distribution</tspan></text>
	</g>
</g>
<g fill="none" color="black" stroke="currentColor" stroke-width="2.00" stroke-linecap="butt" stroke-linejoin="miter">
	<path stroke='rgb( 31, 120, 180)'  d='M1038.5,63.1 L1080.7,63.1 M80.2,648.4 L82.1,648.3 L83.9,648.2 L85.8,648.1 L87.7,648.0 L89.6,647.9
		L91.4,647.8 L93.3,647.7 L95.2,647.6 L97.0,647.4 L98.9,647.2 L100.8,647.0 L102.6,646.7 L104.5,646.4
		L106.4,646.1 L108.3,645.8 L110.1,645.4 L112.0,645.0 L113.9,644.5 L115.7,644.0 L117.6,643.4 L119.5,642.7
		L121.4,642.0 L123.2,641.2 L125.1,640.4 L127.0,639.5 L128.8,638.5 L130.7,637.5 L132.6,636.4 L134.4,635.3
		L136.3,634.2 L138.2,633.2 L140.1,632.1 L141.9,631.1 L143.8,630.2 L145.7,629.4 L147.5,628.7 L149.4,628.2
		L151.3,627.8 L153.2,627.6 L155.0,627.5 L156.9,627.7 L158.8,628.0 L160.6,628.5 L162.5,629.2 L164.4,630.0
		L166.2,630.9 L168.1,631.8 L170.0,632.9 L171.9,633.9 L173.7,634.9 L175.6,635.8 L177.5,636.6 L179.3,637.3
		L181.2,637.8 L183.1,638.0 L185.0,638.1 L186.8,637.9 L188.7,637.4 L190.6,636.8 L192.4,635.9 L194.3,634.8
		L196.2,633.5 L198.0,632.2 L199.9,630.8 L201.8,629.3 L203.7,627.9 L205.5,626.5 L207.4,625.3 L209.3,624.2
		L211.1,623.4 L213.0,622.7 L214.9,622.3 L216.7,622.1 L218.6,622.1 L220.5,622.2 L222.4,622.5 L224.2,622.9
		L226.1,623.2 L228.0,623.5 L229.8,623.5 L231.7,623.2 L233.6,622.5 L235.5,621.3 L237.3,619.4 L239.2,616.8
		L241.1,613.3 L242.9,608.9 L244.8,603.4 L246.7,596.9 L248.5,589.2 L250.4,580.3 L252.3,570.3 L254.2,559.1
		L256.0,546.8 L257.9,533.4 L259.8,519.1 L261.6,503.9 L263.5,488.0 L265.4,471.5 L267.3,454.6 L269.1,437.5
		L271.0,420.3 L272.9,403.4 L274.7,386.8 L276.6,370.7 L278.5,355.4 L280.3,340.9 L282.2,327.5 L284.1,315.3
		L286.0,304.3 L287.8,294.7 L289.7,286.5 L291.6,279.7 L293.4,274.2 L295.3,270.2 L297.2,267.4 L299.1,265.8
		L300.9,265.3 L302.8,265.8 L304.7,267.1 L306.5,269.0 L308.4,271.4 L310.3,274.1 L312.1,277.0 L314.0,280.0
		L315.9,282.8 L317.8,285.5 L319.6,287.9 L321.5,289.9 L323.4,291.6 L325.2,292.9 L327.1,293.9 L329.0,294.5
		L330.9,294.8 L332.7,295.0 L334.6,295.0 L336.5,295.0 L338.3,295.0 L340.2,295.1 L342.1,295.4 L343.9,295.8
		L345.8,296.5 L347.7,297.3 L349.6,298.4 L351.4,299.5 L353.3,300.7 L355.2,301.8 L357.0,302.7 L358.9,303.4
		L360.8,303.6 L362.7,303.2 L364.5,302.1 L366.4,300.2 L368.3,297.2 L370.1,293.1 L372.0,287.7 L373.9,281.0
		L375.7,273.0 L377.6,263.6 L379.5,252.8 L381.4,240.7 L383.2,227.4 L385.1,213.0 L387.0,197.9 L388.8,182.2
		L390.7,166.2 L392.6,150.4 L394.5,134.9 L396.3,120.3 L398.2,106.9 L400.1,95.0 L401.9,85.0 L403.8,77.0
		L405.7,71.3 L407.5,67.9 L409.4,66.9 L411.3,68.3 L413.2,72.0 L415.0,77.6 L416.9,85.1 L418.8,94.0
		L420.6,104.0 L422.5,114.9 L424.4,126.3 L426.3,137.9 L428.1,149.4 L430.0,160.6 L431.9,171.3 L433.7,181.5
		L435.6,191.0 L437.5,200.0 L439.3,208.5 L441.2,216.5 L443.1,224.3 L445.0,232.1 L446.8,239.9 L448.7,248.1
		L450.6,256.7 L452.4,265.9 L454.3,275.7 L456.2,286.3 L458.0,297.7 L459.9,309.7 L461.8,322.2 L463.7,335.2
		L465.5,348.4 L467.4,361.7 L469.3,374.9 L471.1,387.7 L473.0,400.1 L474.9,411.7 L476.8,422.7 L478.6,432.7
		L480.5,441.9 L482.4,450.2 L484.2,457.6 L486.1,464.1 L488.0,469.9 L489.8,475.0 L491.7,479.4 L493.6,483.3
		L495.5,486.6 L497.3,489.5 L499.2,491.9 L501.1,493.8 L502.9,495.4 L504.8,496.5 L506.7,497.3 L508.6,497.7
		L510.4,497.9 L512.3,497.7 L514.2,497.5 L516.0,497.1 L517.9,496.8 L519.8,496.5 L521.6,496.4 L523.5,496.6
		L525.4,497.0 L527.3,497.8 L529.1,498.9 L531.0,500.3 L532.9,502.0 L534.7,503.9 L536.6,506.0 L538.5,508.1
		L540.4,510.3 L542.2,512.3 L544.1,514.1 L546.0,515.7 L547.8,517.1 L549.7,518.1 L551.6,518.8 L553.4,519.3
		L555.3,519.4 L557.2,519.2 L559.1,518.6 L560.9,517.8 L562.8,516.6 L564.7,515.1 L566.5,513.1 L568.4,510.7
		L570.3,507.8 L572.2,504.3 L574.0,500.3 L575.9,495.6 L577.8,490.4 L579.6,484.6 L581.5,478.4 L583.4,471.7
		L585.2,464.8 L587.1,457.8 L589.0,450.8 L590.9,444.1 L592.7,437.8 L594.6,432.1 L596.5,427.3 L598.3,423.4
		L600.2,420.5 L602.1,418.8 L604.0,418.3 L605.8,419.0 L607.7,420.9 L609.6,423.9 L611.4,428.0 L613.3,433.0
		L615.2,438.8 L617.0,445.3 L618.9,452.3 L620.8,459.8 L622.7,467.4 L624.5,475.3 L626.4,483.1 L628.3,490.9
		L630.1,498.6 L632.0,506.0 L633.9,513.3 L635.8,520.2 L637.6,526.9 L639.5,533.3 L641.4,539.3 L643.2,545.1
		L645.1,550.5 L647.0,555.7 L648.8,560.7 L650.7,565.4 L652.6,569.9 L654.5,574.3 L656.3,578.5 L658.2,582.5
		L660.1,586.5 L661.9,590.3 L663.8,594.1 L665.7,597.9 L667.5,601.6 L669.4,605.3 L671.3,608.9 L673.2,612.5
		L675.0,616.1 L676.9,619.7 L678.8,623.1 L680.6,626.5 L682.5,629.8 L684.4,633.0 L686.3,636.0 L688.1,638.8
		L690.0,641.4 L691.9,643.9 L693.7,646.1 L695.6,648.1 L697.5,649.8 L699.3,651.3 L701.2,652.6 L703.1,653.6
		L705.0,654.5 L706.8,655.1 L708.7,655.4 L710.6,655.6 L712.4,655.6 L714.3,655.4 L716.2,655.1 L718.1,654.6
		L719.9,653.9 L721.8,653.1 L723.7,652.2 L725.5,651.2 L727.4,650.1 L729.3,648.8 L731.1,647.5 L733.0,646.1
		L734.9,644.7 L736.8,643.2 L738.6,641.6 L740.5,640.0 L742.4,638.3 L744.2,636.7 L746.1,635.0 L748.0,633.3
		L749.9,631.6 L751.7,630.0 L753.6,628.4 L755.5,626.9 L757.3,625.5 L759.2,624.2 L761.1,623.0 L762.9,622.0
		L764.8,621.1 L766.7,620.5 L768.6,620.1 L770.4,619.9 L772.3,619.9 L774.2,620.2 L776.0,620.7 L777.9,621.5
		L779.8,622.4 L781.7,623.5 L783.5,624.8 L785.4,626.3 L787.3,627.8 L789.1,629.4 L791.0,631.1 L792.9,632.8
		L794.7,634.6 L796.6,636.3 L798.5,638.0 L800.4,639.7 L802.2,641.3 L804.1,642.9 L806.0,644.4 L807.8,645.8
		L809.7,647.2 L811.6,648.6 L813.5,649.8 L815.3,651.0 L817.2,652.1 L819.1,653.1 L820.9,654.0 L822.8,654.9
		L824.7,655.6 L826.5,656.3 L828.4,656.8 L830.3,657.3 L832.2,657.6 L834.0,657.8 L835.9,657.9 L837.8,657.8
		L839.6,657.6 L841.5,657.3 L843.4,656.8 L845.3,656.2 L847.1,655.4 L849.0,654.5 L850.9,653.4 L852.7,652.2
		L854.6,650.9 L856.5,649.4 L858.3,647.9 L860.2,646.3 L862.1,644.7 L864.0,643.0 L865.8,641.4 L867.7,639.7
		L869.6,638.1 L871.4,636.6 L873.3,635.2 L875.2,633.8 L877.1,632.5 L878.9,631.4 L880.8,630.3 L882.7,629.3
		L884.5,628.4 L886.4,627.6 L888.3,626.9 L890.1,626.2 L892.0,625.6 L893.9,625.0 L895.8,624.5 L897.6,624.0
		L899.5,623.5 L901.4,623.0 L903.2,622.6 L905.1,622.1 L907.0,621.7 L908.8,621.3 L910.7,620.8 L912.6,620.4
		L914.5,620.0 L916.3,619.5 L918.2,619.1 L920.1,618.7 L921.9,618.3 L923.8,617.9 L925.7,617.5 L927.6,617.1
		L929.4,616.9 L931.3,616.6 L933.2,616.4 L935.0,616.4 L936.9,616.4 L938.8,616.5 L940.6,616.7 L942.5,617.0
		L944.4,617.4 L946.3,618.0 L948.1,618.6 L950.0,619.4 L951.9,620.3 L953.7,621.3 L955.6,622.3 L957.5,623.5
		L959.4,624.6 L961.2,625.9 L963.1,627.2 L965.0,628.5 L966.8,629.9 L968.7,631.2 L970.6,632.6 L972.4,633.9
		L974.3,635.3 L976.2,636.6 L978.1,637.9 L979.9,639.2 L981.8,640.4 L983.7,641.6 L985.5,642.8 L987.4,643.9
		L989.3,645.0 L991.2,646.0 L993.0,647.0 L994.9,648.0 L996.8,648.9 L998.6,649.8 L1000.5,650.7 L1002.4,651.5
		L1004.2,652.3 L1006.1,653.1 L1008.0,653.9 L1009.9,654.6 L1011.7,655.2 L1013.6,655.9  '/></g>
	</g>
	<g id="gnuplot_plot_2" ><title>Confidence interval</title>
<g fill="none" color="white" stroke="rgb( 31, 120, 180)" stroke-width="1.00" stroke-linecap="butt" stroke-linejoin="miter">
</g>
<g fill="none" color="black" stroke="currentColor" stroke-width="1.00" stroke-linecap="butt" stroke-linejoin="miter">
	<g transform="translate(1089.0,85.0)" stroke="none" fill="black" font-family="Helvetica" font-size="12.00"  text-anchor="start">
		<text><tspan font-family="Helvetica" >Confidence interval</tspan></text>
	</g>
</g>
<g fill="none" color="black" stroke="currentColor" stroke-width="1.00" stroke-linecap="butt" stroke-linejoin="miter">
	<g stroke='none' shape-rendering='crispEdges'>
		<polygon fill = 'rgb( 31, 120, 180)' fill-opacity = '0.250000' points = '1038.5,85.6 1080.7,85.6 1080.7,76.6 1038.5,76.6 '/>
		<polygon fill = 'rgb( 31, 120, 180)' fill-opacity = '0.250000' points = '166.2,630.9 166.2,662.4 168.1,662.4 168.1,631.8 '/>
		<polygon fill = 'rgb( 31, 120, 180)' fill-opacity = '0.250000' points = '168.1,631.8 168.1,662.4 170.0,662.4 170.0,632.9 '/>
		<polygon fill = 'rgb( 31, 120, 180)' fill-opacity = '0.250000' points = '170.0,632.9 170.0,662.4 171.9,662.4 171.9,633.9 '/>
		<polygon fill = 'rgb( 31, 120, 180)' fill-opacity = '0.250000' points = '171.9,633.9 171.9,662.4 173.7,662.4 173.7,634.9 '/>
		<polygon fill = 'rgb( 31, 120, 180)' fill-opacity = '0.250000' points = '173.7,634.9 173.7,662.4 175.6,662.4 175.6,635.8 '/>
		<polygon fill = 'rgb( 31, 120, 180)' fill-opacity = '0.250000' points = '175.6,635.8 175.6,662.4 177.5,662.4 177.5,636.6 '/>
		<polygon fill = 'rgb( 31, 120, 180)' fill-opacity = '0.250000' points = '177.5,636.6 177.5,662.4 179.3,662.4 179.3,637.3 '/>
		<polygon fill = 'rgb( 31, 120, 180)' fill-opacity = '0.250000' points = '179.3,637.3 179.3,662.4 181.2,662.4 181.2,637.8 '/>
		<polygon fill = 'rgb( 31, 120, 180)' fill-opacity = '0.250000' points = '181.2,637.8 181.2,662.4 183.1,662.4 183.1,638.0 '/>
		<polygon fill = 'rgb( 31, 120, 180)' fill-opacity = '0.250000' points = '183.1,638.0 183.1,662.4 185.0,662.4 185.0,638.1 '/>
		<polygon fill = 'rgb( 31, 120, 180)' fill-opacity = '0.250000' points = '185.0,638.1 185.0,662.4 186.8,662.4 186.8,637.9 '/>
		<polygon fill = 'rgb( 31, 120, 180)' fill-opacity = '0.250000' points = '186.8,637.9 186.8,662.4 188.7,662.4 188.7,637.4 '/>
		<polygon fill = 'rgb( 31, 120, 180)' fill-opacity = '0.250000' points = '188.7,637.4 188.7,662.4 190.6,662.4 190.6,636.8 '/>
		<polygon fill = 'rgb( 31, 120, 180)' fill-opacity = '0.250000' points = '190.6,636.8 190.6,662.4 192.4,662.4 192.4,635.9 '/>
		<polygon fill = 'rgb( 31, 120, 180)' fill-opacity = '0.250000' points = '192.4,635.9 192.4,662.4 194.3,662.4 194.3,634.8 '/>
		<polygon fill = 'rgb( 31, 120, 180)' fill-opacity = '0.250000' points = '194.3,634.8 194.3,662.4 196.2,662.4 196.2,633.5 '/>
		<polygon fill = 'rgb( 31, 120, 180)' fill-opacity = '0.250000' points = '196.2,633.5 196.2,662.4 198.0,662.4 198.0,632.2 '/>
		<polygon fill = 'rgb( 31, 120, 180)' fill-opacity = '0.250000' points = '198.0,632.2 198.0,662.4 199.9,662.4 199.9,630.8 '/>
		<polygon fill = 'rgb( 31, 120, 180)' fill-opacity = '0.250000' points = '199.9,630.8 199.9,662.4 201.8,662.4 201.8,629.3 '/>
		<polygon fill = 'rgb( 31, 120, 180)' fill-opacity = '0.250000' points = '201.8,629.3 201.8,662.4 203.7,662.4 203.7,627.9 '/>
		<polygon fill = 'rgb( 31, 120, 180)' fill-opacity = '0.250000' points = '203.7,627.9 203.7,662.4 205.5,662.4 205.5,626.5 '/>
		<polygon fill = 'rgb( 31, 120, 180)' fill-opacity = '0.250000' points = '205.5,626.5 205.5,662.4 207.4,662.4 207.4,625.3 '/>
		<polygon fill = 'rgb( 31, 120, 180)' fill-opacity = '0.250000' points = '207.4,625.3 207.4,662.4 209.3,662.4 209.3,624.2 '/>
		<polygon fill = 'rgb( 31, 120, 180)' fill-opacity = '0.250000' points = '209.3,624.2 209.3,662.4 211.1,662.4 211.1,623.4 '/>
		<polygon fill = 'rgb( 31, 120, 180)' fill-opacity = '0.250000' points = '211.1,623.4 211.1,662.4 213.0,662.4 213.0,622.7 '/>
		<polygon fill = 'rgb( 31, 120, 180)' fill-opacity = '0.250000' points = '213.0,622.7 213.0,662.4 214.9,662.4 214.9,622.3 '/>
		<polygon fill = 'rgb( 31, 120, 180)' fill-opacity = '0.250000' points = '214.9,622.3 214.9,662.4 216.7,662.4 216.7,622.1 '/>
		<polygon fill = 'rgb( 31, 120, 180)' fill-opacity = '0.250000' points = '216.7,622.1 216.7,662.4 218.6,662.4 218.6,622.1 '/>
		<polygon fill = 'rgb( 31, 120, 180)' fill-opacity = '0.250000' points = '218.6,622.1 218.6,662.4 220.5,662.4 220.5,622.2 '/>
		<polygon fill = 'rgb( 31, 120, 180)' fill-opacity = '0.250000' points = '220.5,622.2 220.5,662.4 222.4,662.4 222.4,622.5 '/>
		<polygon fill = 'rgb( 31, 120, 180)' fill-opacity = '0.250000' points = '222.4,622.5 222.4,662.4 224.2,662.4 224.2,622.9 '/>
		<polygon fill = 'rgb( 31, 120, 180)' fill-opacity = '0.250000' points = '224.2,622.9 224.2,662.4 226.1,662.4 226.1,623.2 '/>
		<polygon fill = 'rgb( 31, 120, 180)' fill-opacity = '0.250000' points = '226.1,623.2 226.1,662.4 228.0,662.4 228.0,623.5 '/>
		<polygon fill = 'rgb( 31, 120, 180)' fill-opacity = '0.250000' points = '228.0,623.5 228.0,662.4 229.8,662.4 229.8,623.5 '/>
		<polygon fill = 'rgb( 31, 120, 180)' fill-opacity = '0.250000' points = '229.8,623.5 229.8,662.4 231.7,662.4 231.7,623.2 '/>
		<polygon fill = 'rgb( 31, 120, 180)' fill-opacity = '0.250000' points = '231.7,623.2 231.7,662.4 233.6,662.4 233.6,622.5 '/>
		<polygon fill = 'rgb( 31, 120, 180)' fill-opacity = '0.250000' points = '233.6,622.5 233.6,662.4 235.5,662.4 235.5,621.3 '/>
		<polygon fill = 'rgb( 31, 120, 180)' fill-opacity = '0.250000' points = '235.5,621.3 235.5,662.4 237.3,662.4 237.3,619.4 '/>
		<polygon fill = 'rgb( 31, 120, 180)' fill-opacity = '0.250000' points = '237.3,619.4 237.3,662.4 239.2,662.4 239.2,616.8 '/>
		<polygon fill = 'rgb( 31, 120, 180)' fill-opacity = '0.250000' points = '239.2,616.8 239.2,662.4 241.1,662.4 241.1,613.3 '/>
		<polygon fill = 'rgb( 31, 120, 180)' fill-opacity = '0.250000' points = '241.1,613.3 241.1,662.4 242.9,662.4 242.9,608.9 '/>
		<polygon fill = 'rgb( 31, 120, 180)' fill-opacity = '0.250000' points = '242.9,608.9 242.9,662.4 244.8,662.4 244.8,603.4 '/>
		<polygon fill = 'rgb( 31, 120, 180)' fill-opacity = '0.250000' points = '244.8,603.4 244.8,662.4 246.7,662.4 246.7,596.9 '/>
		<polygon fill = 'rgb( 31, 120, 180)' fill-opacity = '0.250000' points = '246.7,596.9 246.7,662.4 248.5,662.4 248.5,589.2 '/>
		<polygon fill = 'rgb( 31, 120, 180)' fill-opacity = '0.250000' points = '248.5,589.2 248.5,662.4 250.4,662.4 250.4,580.3 '/>
		<polygon fill = 'rgb( 31, 120, 180)' fill-opacity = '0.250000' points = '250.4,580.3 250.4,662.4 252.3,662.4 252.3,570.3 '/>
		<polygon fill = 'rgb( 31, 120, 180)' fill-opacity = '0.250000' points = '252.3,570.3 252.3,662.4 254.2,662.4 254.2,559.1 '/>
		<polygon fill = 'rgb( 31, 120, 180)' fill-opacity = '0.250000' points = '254.2,559.1 254.2,662.4 256.0,662.4 256.0,546.8 '/>
		<polygon fill = 'rgb( 31, 120, 180)' fill-opacity = '0.250000' points = '256.0,546.8 256.0,662.4 257.9,662.4 257.9,533.4 '/>
		<polygon fill = 'rgb( 31, 120, 180)' fill-opacity = '0.250000' points = '257.9,533.4 257.9,662.4 259.8,662.4 259.8,519.1 '/>
		<polygon fill = 'rgb( 31, 120, 180)' fill-opacity = '0.250000' points = '259.8,519.1 259.8,662.4 261.6,662.4 261.6,503.9 '/>
		<polygon fill = 'rgb( 31, 120, 180)' fill-opacity = '0.250000' points = '261.6,503.9 261.6,662.4 263.5,662.4 263.5,488.0 '/>
		<polygon fill = 'rgb( 31, 120, 180)' fill-opacity = '0.250000' points = '263.5,488.0 263.5,662.4 265.4,662.4 265.4,471.5 '/>
		<polygon fill = 'rgb( 31, 120, 180)' fill-opacity = '0.250000' points = '265.4,471.5 265.4,662.4 267.3,662.4 267.3,454.6 '/>
		<polygon fill = 'rgb( 31, 120, 180)' fill-opacity = '0.250000' points = '267.3,454.6 267.3,662.4 269.1,662.4 269.1,437.5 '/>
		<polygon fill = 'rgb( 31, 120, 180)' fill-opacity = '0.250000' points = '269.1,437.5 269.1,662.4 271.0,662.4 271.0,420.3 '/>
		<polygon fill = 'rgb( 31, 120, 180)' fill-opacity = '0.250000' points = '271.0,420.3 271.0,662.4 272.9,662.4 272.9,403.4 '/>
		<polygon fill = 'rgb( 31, 120, 180)' fill-opacity = '0.250000' points = '272.9,403.4 272.9,662.4 274.7,662.4 274.7,386.8 '/>
		<polygon fill = 'rgb( 31, 120, 180)' fill-opacity = '0.250000' points = '274.7,386.8 274.7,662.4 276.6,662.4 276.6,370.7 '/>
		<polygon fill = 'rgb( 31, 120, 180)' fill-opacity = '0.250000' points = '276.6,370.7 276.6,662.4 278.5,662.4 278.5,355.4 '/>
		<polygon fill = 'rgb( 31, 120, 180)' fill-opacity = '0.250000' points = '278.5,355.4 278.5,662.4 280.3,662.4 280.3,340.9 '/>
		<polygon fill = 'rgb( 31, 120, 180)' fill-opacity = '0.250000' points = '280.3,340.9 280.3,662.4 282.2,662.4 282.2,327.5 '/>
		<polygon fill = 'rgb( 31, 120, 180)' fill-opacity = '0.250000' points = '282.2,327.5 282.2,662.4 284.1,662.4 284.1,315.3 '/>
		<polygon fill = 'rgb( 31, 120, 180)' fill-opacity = '0.250000' points = '284.1,315.3 284.1,662.4 286.0,662.4 286.0,304.3 '/>
		<polygon fill = 'rgb( 31, 120, 180)' fill-opacity = '0.250000' points = '286.0,304.3 286.0,662.4 287.8,662.4 287.8,294.7 '/>
		<polygon fill = 'rgb( 31, 120, 180)' fill-opacity = '0.250000' points = '287.8,294.7 287.8,662.4 289.7,662.4 289.7,286.5 '/>
		<polygon fill = 'rgb( 31, 120, 180)' fill-opacity = '0.250000' points = '289.7,286.5 289.7,662.4 291.6,662.4 291.6,279.7 '/>
		<polygon fill = 'rgb( 31, 120, 180)' fill-opacity = '0.250000' points = '291.6,279.7 291.6,662.4 293.4,662.4 293.4,274.2 '/>
		<polygon fill = 'rgb( 31, 120, 180)' fill-opacity = '0.250000' points = '293.4,274.2 293.4,662.4 295.3,662.4 295.3,270.2 '/>
		<polygon fill = 'rgb( 31, 120, 180)' fill-opacity = '0.250000' points = '295.3,270.2 295.3,662.4 297.2,662.4 297.2,267.4 '/>
		<polygon fill = 'rgb( 31, 120, 180)' fill-opacity = '0.250000' points = '297.2,267.4 297.2,662.4 299.1,662.4 299.1,265.8 '/>
		<polygon fill = 'rgb( 31, 120, 180)' fill-opacity = '0.250000' points = '299.1,265.8 299.1,662.4 300.9,662.4 300.9,265.3 '/>
		<polygon fill = 'rgb( 31, 120, 180)' fill-opacity = '0.250000' points = '300.9,265.3 300.9,662.4 302.8,662.4 302.8,265.8 '/>
		<polygon fill = 'rgb( 31, 120, 180)' fill-opacity = '0.250000' points = '302.8,265.8 302.8,662.4 304.7,662.4 304.7,267.1 '/>
		<polygon fill = 'rgb( 31, 120, 180)' fill-opacity = '0.250000' points = '304.7,267.1 304.7,662.4 306.5,662.4 306.5,269.0 '/>
		<polygon fill = 'rgb( 31, 120, 180)' fill-opacity = '0.250000' points = '306.5,269.0 306.5,662.4 308.4,662.4 308.4,271.4 '/>
		<polygon fill = 'rgb( 31, 120, 180)' fill-opacity = '0.250000' points = '308.4,271.4 308.4,662.4 310.3,662.4 310.3,274.1 '/>
		<polygon fill = 'rgb( 31, 120, 180)' fill-opacity = '0.250000' points = '310.3,274.1 310.3,662.4 312.1,662.4 312.1,277.0 '/>
		<polygon fill = 'rgb( 31, 120, 180)' fill-opacity = '0.250000' points = '312.1,277.0 312.1,662.4 314.0,662.4 314.0,280.0 '/>
		<polygon fill = 'rgb( 31, 120, 180)' fill-opacity = '0.250000' points = '314.0,280.0 314.0,662.4 315.9,662.4 315.9,282.8 '/>
		<polygon fill = 'rgb( 31, 120, 180)' fill-opacity = '0.250000' points = '315.9,282.8 315.9,662.4 317.8,662.4 317.8,285.5 '/>
		<polygon fill = 'rgb( 31, 120, 180)' fill-opacity = '0.250000' points = '317.8,285.5 317.8,662.4 319.6,662.4 319.6,287.9 '/>
		<polygon fill = 'rgb( 31, 120, 180)' fill-opacity = '0.250000' points = '319.6,287.9 319.6,662.4 321.5,662.4 321.5,289.9 '/>
		<polygon fill = 'rgb( 31, 120, 180)' fill-opacity = '0.250000' points = '321.5,289.9 321.5,662.4 323.4,662.4 323.4,291.6 '/>
		<polygon fill = 'rgb( 31, 120, 180)' fill-opacity = '0.250000' points = '323.4,291.6 323.4,662.4 325.2,662.4 325.2,292.9 '/>
		<polygon fill = 'rgb( 31, 120, 180)' fill-opacity = '0.250000' points = '325.2,292.9 325.2,662.4 327.1,662.4 327.1,293.9 '/>
		<polygon fill = 'rgb( 31, 120, 180)' fill-opacity = '0.250000' points = '327.1,293.9 327.1,662.4 329.0,662.4 329.0,294.5 '/>
		<polygon fill = 'rgb( 31, 120, 180)' fill-opacity = '0.250000' points = '329.0,294.5 329.0,662.4 330.9,662.4 330.9,294.8 '/>
		<polygon fill = 'rgb( 31, 120, 180)' fill-opacity = '0.250000' points = '330.9,294.8 330.9,662.4 332.7,662.4 332.7,295.0 '/>
		<polygon fill = 'rgb( 31, 120, 180)' fill-opacity = '0.250000' points = '332.7,295.0 332.7,662.4 334.6,662.4 334.6,295.0 '/>
		<polygon fill = 'rgb( 31, 120, 180)' fill-opacity = '0.250000' points = '334.6,295.0 334.6,662.4 336.5,662.4 336.5,295.0 '/>
		<polygon fill = 'rgb( 31, 120, 180)' fill-opacity = '0.250000' points = '336.5,295.0 336.5,662.4 338.3,662.4 338.3,295.0 '/>
		<polygon fill = 'rgb( 31, 120, 180)' fill-opacity = '0.250000' points = '338.3,295.0 338.3,662.4 340.2,662.4 340.2,295.1 '/>
		<polygon fill = 'rgb( 31, 120, 180)' fill-opacity = '0.250000' points = '340.2,295.1 340.2,662.4 342.1,662.4 342.1,295.4 '/>
		<polygon fill = 'rgb( 31, 120, 180)' fill-opacity = '0.250000' points = '342.1,295.4 342.1,662.4 343.9,662.4 343.9,295.8 '/>
		<polygon fill = 'rgb( 31, 120, 180)' fill-opacity = '0.250000' points = '343.9,295.8 343.9,662.4 345.8,662.4 345.8,296.5 '/>
		<polygon fill = 'rgb( 31, 120, 180)' fill-opacity = '0.250000' points = '345.8,296.5 345.8,662.4 347.7,662.4 347.7,297.3 '/>
		<polygon fill = 'rgb( 31, 120, 180)' fill-opacity = '0.250000' points = '347.7,297.3 347.7,662.4 349.6,662.4 349.6,298.4 '/>
		<polygon fill = 'rgb( 31, 120, 180)' fill-opacity = '0.250000' points = '349.6,298.4 349.6,662.4 351.4,662.4 351.4,299.5 '/>
		<polygon fill = 'rgb( 31, 120, 180)' fill-opacity = '0.250000' points = '351.4,299.5 351.4,662.4 353.3,662.4 353.3,300.7 '/>
		<polygon fill = 'rgb( 31, 120, 180)' fill-opacity = '0.250000' points = '353.3,300.7 353.3,662.4 355.2,662.4 355.2,301.8 '/>
		<polygon fill = 'rgb( 31, 120, 180)' fill-opacity = '0.250000' points = '355.2,301.8 355.2,662.4 357.0,662.4 357.0,302.7 '/>
		<polygon fill = 'rgb( 31, 120, 180)' fill-opacity = '0.250000' points = '357.0,302.7 357.0,662.4 358.9,662.4 358.9,303.4 '/>
		<polygon fill = 'rgb( 31, 120, 180)' fill-opacity = '0.250000' points = '358.9,303.4 358.9,662.4 360.8,662.4 360.8,303.6 '/>
		<polygon fill = 'rgb( 31, 120, 180)' fill-opacity = '0.250000' points = '360.8,303.6 360.8,662.4 362.7,662.4 362.7,303.2 '/>
		<polygon fill = 'rgb( 31, 120, 180)' fill-opacity = '0.250000' points = '362.7,303.2 362.7,662.4 364.5,662.4 364.5,302.1 '/>
		<polygon fill = 'rgb( 31, 120, 180)' fill-opacity = '0.250000' points = '364.5,302.1 364.5,662.4 366.4,662.4 366.4,300.2 '/>
		<polygon fill = 'rgb( 31, 120, 180)' fill-opacity = '0.250000' points = '366.4,300.2 366.4,662.4 368.3,662.4 368.3,297.2 '/>
		<polygon fill = 'rgb( 31, 120, 180)' fill-opacity = '0.250000' points = '368.3,297.2 368.3,662.4 370.1,662.4 370.1,293.1 '/>
		<polygon fill = 'rgb( 31, 120, 180)' fill-opacity = '0.250000' points = '370.1,293.1 370.1,662.4 372.0,662.4 372.0,287.7 '/>
		<polygon fill = 'rgb( 31, 120, 180)' fill-opacity = '0.250000' points = '372.0,287.7 372.0,662.4 373.9,662.4 373.9,281.0 '/>
		<polygon fill = 'rgb( 31, 120, 180)' fill-opacity = '0.250000' points = '373.9,281.0 373.9,662.4 375.7,662.4 375.7,273.0 '/>
		<polygon fill = 'rgb( 31, 120, 180)' fill-opacity = '0.250000' points = '375.7,273.0 375.7,662.4 377.6,662.4 377.6,263.6 '/>
		<polygon fill = 'rgb( 31, 120, 180)' fill-opacity = '0.250000' points = '377.6,263.6 377.6,662.4 379.5,662.4 379.5,252.8 '/>
		<polygon fill = 'rgb( 31, 120, 180)' fill-opacity = '0.250000' points = '379.5,252.8 379.5,662.4 381.4,662.4 381.4,240.7 '/>
		<polygon fill = 'rgb( 31, 120, 180)' fill-opacity = '0.250000' points = '381.4,240.7 381.4,662.4 383.2,662.4 383.2,227.4 '/>
		<polygon fill = 'rgb( 31, 120, 180)' fill-opacity = '0.250000' points = '383.2,227.4 383.2,662.4 385.1,662.4 385.1,213.0 '/>
		<polygon fill = 'rgb( 31, 120, 180)' fill-opacity = '0.250000' points = '385.1,213.0 385.1,662.4 387.0,662.4 387.0,197.9 '/>
		<polygon fill = 'rgb( 31, 120, 180)' fill-opacity = '0.250000' points = '387.0,197.9 387.0,662.4 388.8,662.4 388.8,182.2 '/>
		<polygon fill = 'rgb( 31, 120, 180)' fill-opacity = '0.250000' points = '388.8,182.2 388.8,662.4 390.7,662.4 390.7,166.2 '/>
		<polygon fill = 'rgb( 31, 120, 180)' fill-opacity = '0.250000' points = '390.7,166.2 390.7,662.4 392.6,662.4 392.6,150.4 '/>
		<polygon fill = 'rgb( 31, 120, 180)' fill-opacity = '0.250000' points = '392.6,150.4 392.6,662.4 394.5,662.4 394.5,134.9 '/>
		<polygon fill = 'rgb( 31, 120, 180)' fill-opacity = '0.250000' points = '394.5,134.9 394.5,662.4 396.3,662.4 396.3,120.3 '/>
		<polygon fill = 'rgb( 31, 120, 180)' fill-opacity = '0.250000' points = '396.3,120.3 396.3,662.4 398.2,662.4 398.2,106.9 '/>
		<polygon fill = 'rgb( 31, 120, 180)' fill-opacity = '0.250000' points = '398.2,106.9 398.2,662.4 400.1,662.4 400.1,95.0 '/>
		<polygon fill = 'rgb( 31, 120, 180)' fill-opacity = '0.250000' points = '400.1,95.0 400.1,662.4 401.9,662.4 401.9,85.0 '/>
		<polygon fill = 'rgb( 31, 120, 180)' fill-opacity = '0.250000' points = '401.9,85.0 401.9,662.4 403.8,662.4 403.8,77.0 '/>
		<polygon fill = 'rgb( 31, 120, 180)' fill-opacity = '0.250000' points = '403.8,77.0 403.8,662.4 405.7,662.4 405.7,71.3 '/>
		<polygon fill = 'rgb( 31, 120, 180)' fill-opacity = '0.250000' points = '405.7,71.3 405.7,662.4 407.5,662.4 407.5,67.9 '/>
		<polygon fill = 'rgb( 31, 120, 180)' fill-opacity = '0.250000' points = '407.5,67.9 407.5,662.4 409.4,662.4 409.4,66.9 '/>
		<polygon fill = 'rgb( 31, 120, 180)' fill-opacity = '0.250000' points = '409.4,66.9 409.4,662.4 411.3,662.4 411.3,68.3 '/>
		<polygon fill = 'rgb( 31, 120, 180)' fill-opacity = '0.250000' points = '411.3,68.3 411.3,662.4 413.2,662.4 413.2,72.0 '/>
		<polygon fill = 'rgb( 31, 120, 180)' fill-opacity = '0.250000' points = '413.2,72.0 413.2,662.4 415.0,662.4 415.0,77.6 '/>
		<polygon fill = 'rgb( 31, 120, 180)' fill-opacity = '0.250000' points = '415.0,77.6 415.0,662.4 416.9,662.4 416.9,85.1 '/>
		<polygon fill = 'rgb( 31, 120, 180)' fill-opacity = '0.250000' points = '416.9,85.1 416.9,662.4 418.8,662.4 418.8,94.0 '/>
		<polygon fill = 'rgb( 31, 120, 180)' fill-opacity = '0.250000' points = '418.8,94.0 418.8,662.4 420.6,662.4 420.6,104.0 '/>
		<polygon fill = 'rgb( 31, 120, 180)' fill-opacity = '0.250000' points = '420.6,104.0 420.6,662.4 422.5,662.4 422.5,114.9 '/>
		<polygon fill = 'rgb( 31, 120, 180)' fill-opacity = '0.250000' points = '422.5,114.9 422.5,662.4 424.4,662.4 424.4,126.3 '/>
		<polygon fill = 'rgb( 31, 120, 180)' fill-opacity = '0.250000' points = '424.4,126.3 424.4,662.4 426.3,662.4 426.3,137.9 '/>
		<polygon fill = 'rgb( 31, 120, 180)' fill-opacity = '0.250000' points = '426.3,137.9 426.3,662.4 428.1,662.4 428.1,149.4 '/>
		<polygon fill = 'rgb( 31, 120, 180)' fill-opacity = '0.250000' points = '428.1,149.4 428.1,662.4 430.0,662.4 430.0,160.6 '/>
		<polygon fill = 'rgb( 31, 120, 180)' fill-opacity = '0.250000' points = '430.0,160.6 430.0,662.4 431.9,662.4 431.9,171.3 '/>
		<polygon fill = 'rgb( 31, 120, 180)' fill-opacity = '0.250000' points = '431.9,171.3 431.9,662.4 433.7,662.4 433.7,181.5 '/>
		<polygon fill = 'rgb( 31, 120, 180)' fill-opacity = '0.250000' points = '433.7,181.5 433.7,662.4 435.6,662.4 435.6,191.0 '/>
		<polygon fill = 'rgb( 31, 120, 180)' fill-opacity = '0.250000' points = '435.6,191.0 435.6,662.4 437.5,662.4 437.5,200.0 '/>
		<polygon fill = 'rgb( 31, 120, 180)' fill-opacity = '0.250000' points = '437.5,200.0 437.5,662.4 439.3,662.4 439.3,208.5 '/>
		<polygon fill = 'rgb( 31, 120, 180)' fill-opacity = '0.250000' points = '439.3,208.5 439.3,662.4 441.2,662.4 441.2,216.5 '/>
		<polygon fill = 'rgb( 31, 120, 180)' fill-opacity = '0.250000' points = '441.2,216.5 441.2,662.4 443.1,662.4 443.1,224.3 '/>
		<polygon fill = 'rgb( 31, 120, 180)' fill-opacity = '0.250000' points = '443.1,224.3 443.1,662.4 445.0,662.4 445.0,232.1 '/>
		<polygon fill = 'rgb( 31, 120, 180)' fill-opacity = '0.250000' points = '445.0,232.1 445.0,662.4 446.8,662.4 446.8,239.9 '/>
		<polygon fill = 'rgb( 31, 120, 180)' fill-opacity = '0.250000' points = '446.8,239.9 446.8,662.4 448.7,662.4 448.7,248.1 '/>
		<polygon fill = 'rgb( 31, 120, 180)' fill-opacity = '0.250000' points = '448.7,248.1 448.7,662.4 450.6,662.4 450.6,256.7 '/>
		<polygon fill = 'rgb( 31, 120, 180)' fill-opacity = '0.250000' points = '450.6,256.7 450.6,662.4 452.4,662.4 452.4,265.9 '/>
		<polygon fill = 'rgb( 31, 120, 180)' fill-opacity = '0.250000' points = '452.4,265.9 452.4,662.4 454.3,662.4 454.3,275.7 '/>
		<polygon fill = 'rgb( 31, 120, 180)' fill-opacity = '0.250000' points = '454.3,275.7 454.3,662.4 456.2,662.4 456.2,286.3 '/>
		<polygon fill = 'rgb( 31, 120, 180)' fill-opacity = '0.250000' points = '456.2,286.3 456.2,662.4 458.0,662.4 458.0,297.7 '/>
		<polygon fill = 'rgb( 31, 120, 180)' fill-opacity = '0.250000' points = '458.0,297.7 458.0,662.4 459.9,662.4 459.9,309.7 '/>
		<polygon fill = 'rgb( 31, 120, 180)' fill-opacity = '0.250000' points = '459.9,309.7 459.9,662.4 461.8,662.4 461.8,322.2 '/>
		<polygon fill = 'rgb( 31, 120, 180)' fill-opacity = '0.250000' points = '461.8,322.2 461.8,662.4 463.7,662.4 463.7,335.2 '/>
		<polygon fill = 'rgb( 31, 120, 180)' fill-opacity = '0.250000' points = '463.7,335.2 463.7,662.4 465.5,662.4 465.5,348.4 '/>
		<polygon fill = 'rgb( 31, 120, 180)' fill-opacity = '0.250000' points = '465.5,348.4 465.5,662.4 467.4,662.4 467.4,361.7 '/>
		<polygon fill = 'rgb( 31, 120, 180)' fill-opacity = '0.250000' points = '467.4,361.7 467.4,662.4 469.3,662.4 469.3,374.9 '/>
		<polygon fill = 'rgb( 31, 120, 180)' fill-opacity = '0.250000' points = '469.3,374.9 469.3,662.4 471.1,662.4 471.1,387.7 '/>
		<polygon fill = 'rgb( 31, 120, 180)' fill-opacity = '0.250000' points = '471.1,387.7 471.1,662.4 473.0,662.4 473.0,400.1 '/>
		<polygon fill = 'rgb( 31, 120, 180)' fill-opacity = '0.250000' points = '473.0,400.1 473.0,662.4 474.9,662.4 474.9,411.7 '/>
		<polygon fill = 'rgb( 31, 120, 180)' fill-opacity = '0.250000' points = '474.9,411.7 474.9,662.4 476.8,662.4 476.8,422.7 '/>
		<polygon fill = 'rgb( 31, 120, 180)' fill-opacity = '0.250000' points = '476.8,422.7 476.8,662.4 478.6,662.4 478.6,432.7 '/>
		<polygon fill = 'rgb( 31, 120, 180)' fill-opacity = '0.250000' points = '478.6,432.7 478.6,662.4 480.5,662.4 480.5,441.9 '/>
		<polygon fill = 'rgb( 31, 120, 180)' fill-opacity = '0.250000' points = '480.5,441.9 480.5,662.4 482.4,662.4 482.4,450.2 '/>
		<polygon fill = 'rgb( 31, 120, 180)' fill-opacity = '0.250000' points = '482.4,450.2 482.4,662.4 484.2,662.4 484.2,457.6 '/>
		<polygon fill = 'rgb( 31, 120, 180)' fill-opacity = '0.250000' points = '484.2,457.6 484.2,662.4 486.1,662.4 486.1,464.1 '/>
		<polygon fill = 'rgb( 31, 120, 180)' fill-opacity = '0.250000' points = '486.1,464.1 486.1,662.4 488.0,662.4 488.0,469.9 '/>
		<polygon fill = 'rgb( 31, 120, 180)' fill-opacity = '0.250000' points = '488.0,469.9 488.0,662.4 489.8,662.4 489.8,475.0 '/>
		<polygon fill = 'rgb( 31, 120, 180)' fill-opacity = '0.250000' points = '489.8,475.0 489.8,662.4 491.7,662.4 491.7,479.4 '/>
		<polygon fill = 'rgb( 31, 120, 180)' fill-opacity = '0.250000' points = '491.7,479.4 491.7,662.4 493.6,662.4 493.6,483.3 '/>
		<polygon fill = 'rgb( 31, 120, 180)' fill-opacity = '0.250000' points = '493.6,483.3 493.6,662.4 495.5,662.4 495.5,486.6 '/>
		<polygon fill = 'rgb( 31, 120, 180)' fill-opacity = '0.250000' points = '495.5,486.6 495.5,662.4 497.3,662.4 497.3,489.5 '/>
		<polygon fill = 'rgb( 31, 120, 180)' fill-opacity = '0.250000' points = '497.3,489.5 497.3,662.4 499.2,662.4 499.2,491.9 '/>
		<polygon fill = 'rgb( 31, 120, 180)' fill-opacity = '0.250000' points = '499.2,491.9 499.2,662.4 501.1,662.4 501.1,493.8 '/>
		<polygon fill = 'rgb( 31, 120, 180)' fill-opacity = '0.250000' points = '501.1,493.8 501.1,662.4 502.9,662.4 502.9,495.4 '/>
		<polygon fill = 'rgb( 31, 120, 180)' fill-opacity = '0.250000' points = '502.9,495.4 502.9,662.4 504.8,662.4 504.8,496.5 '/>
		<polygon fill = 'rgb( 31, 120, 180)' fill-opacity = '0.250000' points = '504.8,496.5 504.8,662.4 506.7,662.4 506.7,497.3 '/>
		<polygon fill = 'rgb( 31, 120, 180)' fill-opacity = '0.250000' points = '506.7,497.3 506.7,662.4 508.6,662.4 508.6,497.7 '/>
		<polygon fill = 'rgb( 31, 120, 180)' fill-opacity = '0.250000' points = '508.6,497.7 508.6,662.4 510.4,662.4 510.4,497.9 '/>
		<polygon fill = 'rgb( 31, 120, 180)' fill-opacity = '0.250000' points = '510.4,497.9 510.4,662.4 512.3,662.4 512.3,497.7 '/>
		<polygon fill = 'rgb( 31, 120, 180)' fill-opacity = '0.250000' points = '512.3,497.7 512.3,662.4 514.2,662.4 514.2,497.5 '/>
		<polygon fill = 'rgb( 31, 120, 180)' fill-opacity = '0.250000' points = '514.2,497.5 514.2,662.4 516.0,662.4 516.0,497.1 '/>
		<polygon fill = 'rgb( 31, 120, 180)' fill-opacity = '0.250000' points = '516.0,497.1 516.0,662.4 517.9,662.4 517.9,496.8 '/>
		<polygon fill = 'rgb( 31, 120, 180)' fill-opacity = '0.250000' points = '517.9,496.8 517.9,662.4 519.8,662.4 519.8,496.5 '/>
		<polygon fill = 'rgb( 31, 120, 180)' fill-opacity = '0.250000' points = '519.8,496.5 519.8,662.4 521.6,662.4 521.6,496.4 '/>
		<polygon fill = 'rgb( 31, 120, 180)' fill-opacity = '0.250000' points = '521.6,496.4 521.6,662.4 523.5,662.4 523.5,496.6 '/>
		<polygon fill = 'rgb( 31, 120, 180)' fill-opacity = '0.250000' points = '523.5,496.6 523.5,662.4 525.4,662.4 525.4,497.0 '/>
		<polygon fill = 'rgb( 31, 120, 180)' fill-opacity = '0.250000' points = '525.4,497.0 525.4,662.4 527.3,662.4 527.3,497.8 '/>
		<polygon fill = 'rgb( 31, 120, 180)' fill-opacity = '0.250000' points = '527.3,497.8 527.3,662.4 529.1,662.4 529.1,498.9 '/>
		<polygon fill = 'rgb( 31, 120, 180)' fill-opacity = '0.250000' points = '529.1,498.9 529.1,662.4 531.0,662.4 531.0,500.3 '/>
		<polygon fill = 'rgb( 31, 120, 180)' fill-opacity = '0.250000' points = '531.0,500.3 531.0,662.4 532.9,662.4 532.9,502.0 '/>
		<polygon fill = 'rgb( 31, 120, 180)' fill-opacity = '0.250000' points = '532.9,502.0 532.9,662.4 534.7,662.4 534.7,503.9 '/>
		<polygon fill = 'rgb( 31, 120, 180)' fill-opacity = '0.250000' points = '534.7,503.9 534.7,662.4 536.6,662.4 536.6,506.0 '/>
		<polygon fill = 'rgb( 31, 120, 180)' fill-opacity = '0.250000' points = '536.6,506.0 536.6,662.4 538.5,662.4 538.5,508.1 '/>
		<polygon fill = 'rgb( 31, 120, 180)' fill-opacity = '0.250000' points = '538.5,508.1 538.5,662.4 540.4,662.4 540.4,510.3 '/>
		<polygon fill = 'rgb( 31, 120, 180)' fill-opacity = '0.250000' points = '540.4,510.3 540.4,662.4 542.2,662.4 542.2,512.3 '/>
		<polygon fill = 'rgb( 31, 120, 180)' fill-opacity = '0.250000' points = '542.2,512.3 542.2,662.4 544.1,662.4 544.1,514.1 '/>
		<polygon fill = 'rgb( 31, 120, 180)' fill-opacity = '0.250000' points = '544.1,514.1 544.1,662.4 546.0,662.4 546.0,515.7 '/>
		<polygon fill = 'rgb( 31, 120, 180)' fill-opacity = '0.250000' points = '546.0,515.7 546.0,662.4 547.8,662.4 547.8,517.1 '/>
		<polygon fill = 'rgb( 31, 120, 180)' fill-opacity = '0.250000' points = '547.8,517.1 547.8,662.4 549.7,662.4 549.7,518.1 '/>
		<polygon fill = 'rgb( 31, 120, 180)' fill-opacity = '0.250000' points = '549.7,518.1 549.7,662.4 551.6,662.4 551.6,518.8 '/>
		<polygon fill = 'rgb( 31, 120, 180)' fill-opacity = '0.250000' points = '551.6,518.8 551.6,662.4 553.4,662.4 553.4,519.3 '/>
		<polygon fill = 'rgb( 31, 120, 180)' fill-opacity = '0.250000' points = '553.4,519.3 553.4,662.4 555.3,662.4 555.3,519.4 '/>
		<polygon fill = 'rgb( 31, 120, 180)' fill-opacity = '0.250000' points = '555.3,519.4 555.3,662.4 557.2,662.4 557.2,519.2 '/>
		<polygon fill = 'rgb( 31, 120, 180)' fill-opacity = '0.250000' points = '557.2,519.2 557.2,662.4 559.1,662.4 559.1,518.6 '/>
		<polygon fill = 'rgb( 31, 120, 180)' fill-opacity = '0.250000' points = '559.1,518.6 559.1,662.4 560.9,662.4 560.9,517.8 '/>
		<polygon fill = 'rgb( 31, 120, 180)' fill-opacity = '0.250000' points = '560.9,517.8 560.9,662.4 562.8,662.4 562.8,516.6 '/>
		<polygon fill = 'rgb( 31, 120, 180)' fill-opacity = '0.250000' points = '562.8,516.6 562.8,662.4 564.7,662.4 564.7,515.1 '/>
		<polygon fill = 'rgb( 31, 120, 180)' fill-opacity = '0.250000' points = '564.7,515.1 564.7,662.4 566.5,662.4 566.5,513.1 '/>
		<polygon fill = 'rgb( 31, 120, 180)' fill-opacity = '0.250000' points = '566.5,513.1 566.5,662.4 568.4,662.4 568.4,510.7 '/>
		<polygon fill = 'rgb( 31, 120, 180)' fill-opacity = '0.250000' points = '568.4,510.7 568.4,662.4 570.3,662.4 570.3,507.8 '/>
		<polygon fill = 'rgb( 31, 120, 180)' fill-opacity = '0.250000' points = '570.3,507.8 570.3,662.4 572.2,662.4 572.2,504.3 '/>
		<polygon fill = 'rgb( 31, 120, 180)' fill-opacity = '0.250000' points = '572.2,504.3 572.2,662.4 574.0,662.4 574.0,500.3 '/>
		<polygon fill = 'rgb( 31, 120, 180)' fill-opacity = '0.250000' points = '574.0,500.3 574.0,662.4 575.9,662.4 575.9,495.6 '/>
		<polygon fill = 'rgb( 31, 120, 180)' fill-opacity = '0.250000' points = '575.9,495.6 575.9,662.4 577.8,662.4 577.8,490.4 '/>
		<polygon fill = 'rgb( 31, 120, 180)' fill-opacity = '0.250000' points = '577.8,490.4 577.8,662.4 579.6,662.4 579.6,484.6 '/>
		<polygon fill = 'rgb( 31, 120, 180)' fill-opacity = '0.250000' points = '579.6,484.6 579.6,662.4 581.5,662.4 581.5,478.4 '/>
		<polygon fill = 'rgb( 31, 120, 180)' fill-opacity = '0.250000' points = '581.5,478.4 581.5,662.4 583.4,662.4 583.4,471.7 '/>
		<polygon fill = 'rgb( 31, 120, 180)' fill-opacity = '0.250000' points = '583.4,471.7 583.4,662.4 585.2,662.4 585.2,464.8 '/>
		<polygon fill = 'rgb( 31, 120, 180)' fill-opacity = '0.250000' points = '585.2,464.8 585.2,662.4 587.1,662.4 587.1,457.8 '/>
		<polygon fill = 'rgb( 31, 120, 180)' fill-opacity = '0.250000' points = '587.1,457.8 587.1,662.4 589.0,662.4 589.0,450.8 '/>
		<polygon fill = 'rgb( 31, 120, 180)' fill-opacity = '0.250000' points = '589.0,450.8 589.0,662.4 590.9,662.4 590.9,444.1 '/>
		<polygon fill = 'rgb( 31, 120, 180)' fill-opacity = '0.250000' points = '590.9,444.1 590.9,662.4 592.7,662.4 592.7,437.8 '/>
		<polygon fill = 'rgb( 31, 120, 180)' fill-opacity = '0.250000' points = '592.7,437.8 592.7,662.4 594.6,662.4 594.6,432.1 '/>
		<polygon fill = 'rgb( 31, 120, 180)' fill-opacity = '0.250000' points = '594.6,432.1 594.6,662.4 596.5,662.4 596.5,427.3 '/>
		<polygon fill = 'rgb( 31, 120, 180)' fill-opacity = '0.250000' points = '596.5,427.3 596.5,662.4 598.3,662.4 598.3,423.4 '/>
		<polygon fill = 'rgb( 31, 120, 180)' fill-opacity = '0.250000' points = '598.3,423.4 598.3,662.4 600.2,662.4 600.2,420.5 '/>
		<polygon fill = 'rgb( 31, 120, 180)' fill-opacity = '0.250000' points = '600.2,420.5 600.2,662.4 602.1,662.4 602.1,418.8 '/>
		<polygon fill = 'rgb( 31, 120, 180)' fill-opacity = '0.250000' points = '602.1,418.8 602.1,662.4 604.0,662.4 604.0,418.3 '/>
		<polygon fill = 'rgb( 31, 120, 180)' fill-opacity = '0.250000' points = '604.0,418.3 604.0,662.4 605.8,662.4 605.8,419.0 '/>
		<polygon fill = 'rgb( 31, 120, 180)' fill-opacity = '0.250000' points = '605.8,419.0 605.8,662.4 607.7,662.4 607.7,420.9 '/>
		<polygon fill = 'rgb( 31, 120, 180)' fill-opacity = '0.250000' points = '607.7,420.9 607.7,662.4 609.6,662.4 609.6,423.9 '/>
		<polygon fill = 'rgb( 31, 120, 180)' fill-opacity = '0.250000' points = '609.6,423.9 609.6,662.4 611.4,662.4 611.4,428.0 '/>
		<polygon fill = 'rgb( 31, 120, 180)' fill-opacity = '0.250000' points = '611.4,428.0 611.4,662.4 613.3,662.4 613.3,433.0 '/>
		<polygon fill = 'rgb( 31, 120, 180)' fill-opacity = '0.250000' points = '613.3,433.0 613.3,662.4 615.2,662.4 615.2,438.8 '/>
		<polygon fill = 'rgb( 31, 120, 180)' fill-opacity = '0.250000' points = '615.2,438.8 615.2,662.4 617.0,662.4 617.0,445.3 '/>
		<polygon fill = 'rgb( 31, 120, 180)' fill-opacity = '0.250000' points = '617.0,445.3 617.0,662.4 618.9,662.4 618.9,452.3 '/>
		<polygon fill = 'rgb( 31, 120, 180)' fill-opacity = '0.250000' points = '618.9,452.3 618.9,662.4 620.8,662.4 620.8,459.8 '/>
		<polygon fill = 'rgb( 31, 120, 180)' fill-opacity = '0.250000' points = '620.8,459.8 620.8,662.4 622.7,662.4 622.7,467.4 '/>
		<polygon fill = 'rgb( 31, 120, 180)' fill-opacity = '0.250000' points = '622.7,467.4 622.7,662.4 624.5,662.4 624.5,475.3 '/>
		<polygon fill = 'rgb( 31, 120, 180)' fill-opacity = '0.250000' points = '624.5,475.3 624.5,662.4 626.4,662.4 626.4,483.1 '/>
		<polygon fill = 'rgb( 31, 120, 180)' fill-opacity = '0.250000' points = '626.4,483.1 626.4,662.4 628.3,662.4 628.3,490.9 '/>
		<polygon fill = 'rgb( 31, 120, 180)' fill-opacity = '0.250000' points = '628.3,490.9 628.3,662.4 630.1,662.4 630.1,498.6 '/>
		<polygon fill = 'rgb( 31, 120, 180)' fill-opacity = '0.250000' points = '630.1,498.6 630.1,662.4 632.0,662.4 632.0,506.0 '/>
		<polygon fill = 'rgb( 31, 120, 180)' fill-opacity = '0.250000' points = '632.0,506.0 632.0,662.4 633.9,662.4 633.9,513.3 '/>
		<polygon fill = 'rgb( 31, 120, 180)' fill-opacity = '0.250000' points = '633.9,513.3 633.9,662.4 635.8,662.4 635.8,520.2 '/>
		<polygon fill = 'rgb( 31, 120, 180)' fill-opacity = '0.250000' points = '635.8,520.2 635.8,662.4 637.6,662.4 637.6,526.9 '/>
		<polygon fill = 'rgb( 31, 120, 180)' fill-opacity = '0.250000' points = '637.6,526.9 637.6,662.4 639.5,662.4 639.5,533.3 '/>
		<polygon fill = 'rgb( 31, 120, 180)' fill-opacity = '0.250000' points = '639.5,533.3 639.5,662.4 641.4,662.4 641.4,539.3 '/>
		<polygon fill = 'rgb( 31, 120, 180)' fill-opacity = '0.250000' points = '641.4,539.3 641.4,662.4 643.2,662.4 643.2,545.1 '/>
		<polygon fill = 'rgb( 31, 120, 180)' fill-opacity = '0.250000' points = '643.2,545.1 643.2,662.4 645.1,662.4 645.1,550.5 '/>
		<polygon fill = 'rgb( 31, 120, 180)' fill-opacity = '0.250000' points = '645.1,550.5 645.1,662.4 647.0,662.4 647.0,555.7 '/>
		<polygon fill = 'rgb( 31, 120, 180)' fill-opacity = '0.250000' points = '647.0,555.7 647.0,662.4 648.8,662.4 648.8,560.7 '/>
		<polygon fill = 'rgb( 31, 120, 180)' fill-opacity = '0.250000' points = '648.8,560.7 648.8,662.4 650.7,662.4 650.7,565.4 '/>
		<polygon fill = 'rgb( 31, 120, 180)' fill-opacity = '0.250000' points = '650.7,565.4 650.7,662.4 652.6,662.4 652.6,569.9 '/>
		<polygon fill = 'rgb( 31, 120, 180)' fill-opacity = '0.250000' points = '652.6,569.9 652.6,662.4 654.5,662.4 654.5,574.3 '/>
		<polygon fill = 'rgb( 31, 120, 180)' fill-opacity = '0.250000' points = '654.5,574.3 654.5,662.4 656.3,662.4 656.3,578.5 '/>
		<polygon fill = 'rgb( 31, 120, 180)' fill-opacity = '0.250000' points = '656.3,578.5 656.3,662.4 658.2,662.4 658.2,582.5 '/>
		<polygon fill = 'rgb( 31, 120, 180)' fill-opacity = '0.250000' points = '658.2,582.5 658.2,662.4 660.1,662.4 660.1,586.5 '/>
		<polygon fill = 'rgb( 31, 120, 180)' fill-opacity = '0.250000' points = '660.1,586.5 660.1,662.4 661.9,662.4 661.9,590.3 '/>
		<polygon fill = 'rgb( 31, 120, 180)' fill-opacity = '0.250000' points = '661.9,590.3 661.9,662.4 663.8,662.4 663.8,594.1 '/>
		<polygon fill = 'rgb( 31, 120, 180)' fill-opacity = '0.250000' points = '663.8,594.1 663.8,662.4 665.7,662.4 665.7,597.9 '/>
		<polygon fill = 'rgb( 31, 120, 180)' fill-opacity = '0.250000' points = '665.7,597.9 665.7,662.4 667.5,662.4 667.5,601.6 '/>
		<polygon fill = 'rgb( 31, 120, 180)' fill-opacity = '0.250000' points = '667.5,601.6 667.5,662.4 669.4,662.4 669.4,605.3 '/>
		<polygon fill = 'rgb( 31, 120, 180)' fill-opacity = '0.250000' points = '669.4,605.3 669.4,662.4 671.3,662.4 671.3,608.9 '/>
		<polygon fill = 'rgb( 31, 120, 180)' fill-opacity = '0.250000' points = '671.3,608.9 671.3,662.4 673.2,662.4 673.2,612.5 '/>
		<polygon fill = 'rgb( 31, 120, 180)' fill-opacity = '0.250000' points = '673.2,612.5 673.2,662.4 675.0,662.4 675.0,616.1 '/>
		<polygon fill = 'rgb( 31, 120, 180)' fill-opacity = '0.250000' points = '675.0,616.1 675.0,662.4 676.9,662.4 676.9,619.7 '/>
		<polygon fill = 'rgb( 31, 120, 180)' fill-opacity = '0.250000' points = '676.9,619.7 676.9,662.4 678.8,662.4 678.8,623.1 '/>
		<polygon fill = 'rgb( 31, 120, 180)' fill-opacity = '0.250000' points = '678.8,623.1 678.8,662.4 680.6,662.4 680.6,626.5 '/>
		<polygon fill = 'rgb( 31, 120, 180)' fill-opacity = '0.250000' points = '680.6,626.5 680.6,662.4 682.5,662.4 682.5,629.8 '/>
		<polygon fill = 'rgb( 31, 120, 180)' fill-opacity = '0.250000' points = '682.5,629.8 682.5,662.4 684.4,662.4 684.4,633.0 '/>
		<polygon fill = 'rgb( 31, 120, 180)' fill-opacity = '0.250000' points = '684.4,633.0 684.4,662.4 686.3,662.4 686.3,636.0 '/>
		<polygon fill = 'rgb( 31, 120, 180)' fill-opacity = '0.250000' points = '686.3,636.0 686.3,662.4 688.1,662.4 688.1,638.8 '/>
		<polygon fill = 'rgb( 31, 120, 180)' fill-opacity = '0.250000' points = '688.1,638.8 688.1,662.4 690.0,662.4 690.0,641.4 '/>
		<polygon fill = 'rgb( 31, 120, 180)' fill-opacity = '0.250000' points = '690.0,641.4 690.0,662.4 691.9,662.4 691.9,643.9 '/>
		<polygon fill = 'rgb( 31, 120, 180)' fill-opacity = '0.250000' points = '691.9,643.9 691.9,662.4 693.7,662.4 693.7,646.1 '/>
		<polygon fill = 'rgb( 31, 120, 180)' fill-opacity = '0.250000' points = '693.7,646.1 693.7,662.4 695.6,662.4 695.6,648.1 '/>
		<polygon fill = 'rgb( 31, 120, 180)' fill-opacity = '0.250000' points = '695.6,648.1 695.6,662.4 697.5,662.4 697.5,649.8 '/>
		<polygon fill = 'rgb( 31, 120, 180)' fill-opacity = '0.250000' points = '697.5,649.8 697.5,662.4 699.3,662.4 699.3,651.3 '/>
		<polygon fill = 'rgb( 31, 120, 180)' fill-opacity = '0.250000' points = '699.3,651.3 699.3,662.4 701.2,662.4 701.2,652.6 '/>
		<polygon fill = 'rgb( 31, 120, 180)' fill-opacity = '0.250000' points = '701.2,652.6 701.2,662.4 703.1,662.4 703.1,653.6 '/>
		<polygon fill = 'rgb( 31, 120, 180)' fill-opacity = '0.250000' points = '703.1,653.6 703.1,662.4 705.0,662.4 705.0,654.5 '/>
		<polygon fill = 'rgb( 31, 120, 180)' fill-opacity = '0.250000' points = '705.0,654.5 705.0,662.4 706.8,662.4 706.8,655.1 '/>
		<polygon fill = 'rgb( 31, 120, 180)' fill-opacity = '0.250000' points = '706.8,655.1 706.8,662.4 708.7,662.4 708.7,655.4 '/>
		<polygon fill = 'rgb( 31, 120, 180)' fill-opacity = '0.250000' points = '708.7,655.4 708.7,662.4 710.6,662.4 710.6,655.6 '/>
		<polygon fill = 'rgb( 31, 120, 180)' fill-opacity = '0.250000' points = '710.6,655.6 710.6,662.4 712.4,662.4 712.4,655.6 '/>
		<polygon fill = 'rgb( 31, 120, 180)' fill-opacity = '0.250000' points = '712.4,655.6 712.4,662.4 714.3,662.4 714.3,655.4 '/>
		<polygon fill = 'rgb( 31, 120, 180)' fill-opacity = '0.250000' points = '714.3,655.4 714.3,662.4 716.2,662.4 716.2,655.1 '/>
		<polygon fill = 'rgb( 31, 120, 180)' fill-opacity = '0.250000' points = '716.2,655.1 716.2,662.4 718.1,662.4 718.1,654.6 '/>
		<polygon fill = 'rgb( 31, 120, 180)' fill-opacity = '0.250000' points = '718.1,654.6 718.1,662.4 719.9,662.4 719.9,653.9 '/>
		<polygon fill = 'rgb( 31, 120, 180)' fill-opacity = '0.250000' points = '719.9,653.9 719.9,662.4 721.8,662.4 721.8,653.1 '/>
		<polygon fill = 'rgb( 31, 120, 180)' fill-opacity = '0.250000' points = '721.8,653.1 721.8,662.4 723.7,662.4 723.7,652.2 '/>
		<polygon fill = 'rgb( 31, 120, 180)' fill-opacity = '0.250000' points = '723.7,652.2 723.7,662.4 725.5,662.4 725.5,651.2 '/>
		<polygon fill = 'rgb( 31, 120, 180)' fill-opacity = '0.250000' points = '725.5,651.2 725.5,662.4 727.4,662.4 727.4,650.1 '/>
		<polygon fill = 'rgb( 31, 120, 180)' fill-opacity = '0.250000' points = '727.4,650.1 727.4,662.4 729.3,662.4 729.3,648.8 '/>
		<polygon fill = 'rgb( 31, 120, 180)' fill-opacity = '0.250000' points = '729.3,648.8 729.3,662.4 731.1,662.4 731.1,647.5 '/>
		<polygon fill = 'rgb( 31, 120, 180)' fill-opacity = '0.250000' points = '731.1,647.5 731.1,662.4 733.0,662.4 733.0,646.1 '/>
		<polygon fill = 'rgb( 31, 120, 180)' fill-opacity = '0.250000' points = '733.0,646.1 733.0,662.4 734.9,662.4 734.9,644.7 '/>
		<polygon fill = 'rgb( 31, 120, 180)' fill-opacity = '0.250000' points = '734.9,644.7 734.9,662.4 736.8,662.4 736.8,643.2 '/>
		<polygon fill = 'rgb( 31, 120, 180)' fill-opacity = '0.250000' points = '736.8,643.2 736.8,662.4 738.6,662.4 738.6,641.6 '/>
		<polygon fill = 'rgb( 31, 120, 180)' fill-opacity = '0.250000' points = '738.6,641.6 738.6,662.4 740.5,662.4 740.5,640.0 '/>
		<polygon fill = 'rgb( 31, 120, 180)' fill-opacity = '0.250000' points = '740.5,640.0 740.5,662.4 742.4,662.4 742.4,638.3 '/>
		<polygon fill = 'rgb( 31, 120, 180)' fill-opacity = '0.250000' points = '742.4,638.3 742.4,662.4 744.2,662.4 744.2,636.7 '/>
		<polygon fill = 'rgb( 31, 120, 180)' fill-opacity = '0.250000' points = '744.2,636.7 744.2,662.4 746.1,662.4 746.1,635.0 '/>
		<polygon fill = 'rgb( 31, 120, 180)' fill-opacity = '0.250000' points = '746.1,635.0 746.1,662.4 748.0,662.4 748.0,633.3 '/>
		<polygon fill = 'rgb( 31, 120, 180)' fill-opacity = '0.250000' points = '748.0,633.3 748.0,662.4 749.9,662.4 749.9,631.6 '/>
		<polygon fill = 'rgb( 31, 120, 180)' fill-opacity = '0.250000' points = '749.9,631.6 749.9,662.4 751.7,662.4 751.7,630.0 '/>
		<polygon fill = 'rgb( 31, 120, 180)' fill-opacity = '0.250000' points = '751.7,630.0 751.7,662.4 753.6,662.4 753.6,628.4 '/>
		<polygon fill = 'rgb( 31, 120, 180)' fill-opacity = '0.250000' points = '753.6,628.4 753.6,662.4 755.5,662.4 755.5,626.9 '/>
		<polygon fill = 'rgb( 31, 120, 180)' fill-opacity = '0.250000' points = '755.5,626.9 755.5,662.4 757.3,662.4 757.3,625.5 '/>
		<polygon fill = 'rgb( 31, 120, 180)' fill-opacity = '0.250000' points = '757.3,625.5 757.3,662.4 759.2,662.4 759.2,624.2 '/>
		<polygon fill = 'rgb( 31, 120, 180)' fill-opacity = '0.250000' points = '759.2,624.2 759.2,662.4 761.1,662.4 761.1,623.0 '/>
		<polygon fill = 'rgb( 31, 120, 180)' fill-opacity = '0.250000' points = '761.1,623.0 761.1,662.4 762.9,662.4 762.9,622.0 '/>
		<polygon fill = 'rgb( 31, 120, 180)' fill-opacity = '0.250000' points = '762.9,622.0 762.9,662.4 764.8,662.4 764.8,621.1 '/>
		<polygon fill = 'rgb( 31, 120, 180)' fill-opacity = '0.250000' points = '764.8,621.1 764.8,662.4 766.7,662.4 766.7,620.5 '/>
		<polygon fill = 'rgb( 31, 120, 180)' fill-opacity = '0.250000' points = '766.7,620.5 766.7,662.4 768.6,662.4 768.6,620.1 '/>
		<polygon fill = 'rgb( 31, 120, 180)' fill-opacity = '0.250000' points = '768.6,620.1 768.6,662.4 770.4,662.4 770.4,619.9 '/>
		<polygon fill = 'rgb( 31, 120, 180)' fill-opacity = '0.250000' points = '770.4,619.9 770.4,662.4 772.3,662.4 772.3,619.9 '/>
		<polygon fill = 'rgb( 31, 120, 180)' fill-opacity = '0.250000' points = '772.3,619.9 772.3,662.4 774.2,662.4 774.2,620.2 '/>
		<polygon fill = 'rgb( 31, 120, 180)' fill-opacity = '0.250000' points = '774.2,620.2 774.2,662.4 776.0,662.4 776.0,620.7 '/>
		<polygon fill = 'rgb( 31, 120, 180)' fill-opacity = '0.250000' points = '776.0,620.7 776.0,662.4 777.9,662.4 777.9,621.5 '/>
		<polygon fill = 'rgb( 31, 120, 180)' fill-opacity = '0.250000' points = '777.9,621.5 777.9,662.4 779.8,662.4 779.8,622.4 '/>
		<polygon fill = 'rgb( 31, 120, 180)' fill-opacity = '0.250000' points = '779.8,622.4 779.8,662.4 781.7,662.4 781.7,623.5 '/>
		<polygon fill = 'rgb( 31, 120, 180)' fill-opacity = '0.250000' points = '781.7,623.5 781.7,662.4 783.5,662.4 783.5,624.8 '/>
		<polygon fill = 'rgb( 31, 120, 180)' fill-opacity = '0.250000' points = '783.5,624.8 783.5,662.4 785.4,662.4 785.4,626.3 '/>
		<polygon fill = 'rgb( 31, 120, 180)' fill-opacity = '0.250000' points = '785.4,626.3 785.4,662.4 787.3,662.4 787.3,627.8 '/>
		<polygon fill = 'rgb( 31, 120, 180)' fill-opacity = '0.250000' points = '787.3,627.8 787.3,662.4 789.1,662.4 789.1,629.4 '/>
		<polygon fill = 'rgb( 31, 120, 180)' fill-opacity = '0.250000' points = '789.1,629.4 789.1,662.4 791.0,662.4 791.0,631.1 '/>
		<polygon fill = 'rgb( 31, 120, 180)' fill-opacity = '0.250000' points = '791.0,631.1 791.0,662.4 792.9,662.4 792.9,632.8 '/>
		<polygon fill = 'rgb( 31, 120, 180)' fill-opacity = '0.250000' points = '792.9,632.8 792.9,662.4 794.7,662.4 794.7,634.6 '/>
		<polygon fill = 'rgb( 31, 120, 180)' fill-opacity = '0.250000' points = '794.7,634.6 794.7,662.4 796.6,662.4 796.6,636.3 '/>
		<polygon fill = 'rgb( 31, 120, 180)' fill-opacity = '0.250000' points = '796.6,636.3 796.6,662.4 798.5,662.4 798.5,638.0 '/>
		<polygon fill = 'rgb( 31, 120, 180)' fill-opacity = '0.250000' points = '798.5,638.0 798.5,662.4 800.4,662.4 800.4,639.7 '/>
		<polygon fill = 'rgb( 31, 120, 180)' fill-opacity = '0.250000' points = '800.4,639.7 800.4,662.4 802.2,662.4 802.2,641.3 '/>
		<polygon fill = 'rgb( 31, 120, 180)' fill-opacity = '0.250000' points = '802.2,641.3 802.2,662.4 804.1,662.4 804.1,642.9 '/>
		<polygon fill = 'rgb( 31, 120, 180)' fill-opacity = '0.250000' points = '804.1,642.9 804.1,662.4 806.0,662.4 806.0,644.4 '/>
		<polygon fill = 'rgb( 31, 120, 180)' fill-opacity = '0.250000' points = '806.0,644.4 806.0,662.4 807.8,662.4 807.8,645.8 '/>
		<polygon fill = 'rgb( 31, 120, 180)' fill-opacity = '0.250000' points = '807.8,645.8 807.8,662.4 809.7,662.4 809.7,647.2 '/>
		<polygon fill = 'rgb( 31, 120, 180)' fill-opacity = '0.250000' points = '809.7,647.2 809.7,662.4 811.6,662.4 811.6,648.6 '/>
		<polygon fill = 'rgb( 31, 120, 180)' fill-opacity = '0.250000' points = '811.6,648.6 811.6,662.4 813.5,662.4 813.5,649.8 '/>
		<polygon fill = 'rgb( 31, 120, 180)' fill-opacity = '0.250000' points = '813.5,649.8 813.5,662.4 815.3,662.4 815.3,651.0 '/>
		<polygon fill = 'rgb( 31, 120, 180)' fill-opacity = '0.250000' points = '815.3,651.0 815.3,662.4 817.2,662.4 817.2,652.1 '/>
		<polygon fill = 'rgb( 31, 120, 180)' fill-opacity = '0.250000' points = '817.2,652.1 817.2,662.4 819.1,662.4 819.1,653.1 '/>
		<polygon fill = 'rgb( 31, 120, 180)' fill-opacity = '0.250000' points = '819.1,653.1 819.1,662.4 820.9,662.4 820.9,654.0 '/>
		<polygon fill = 'rgb( 31, 120, 180)' fill-opacity = '0.250000' points = '820.9,654.0 820.9,662.4 822.8,662.4 822.8,654.9 '/>
		<polygon fill = 'rgb( 31, 120, 180)' fill-opacity = '0.250000' points = '822.8,654.9 822.8,662.4 824.7,662.4 824.7,655.6 '/>
		<polygon fill = 'rgb( 31, 120, 180)' fill-opacity = '0.250000' points = '824.7,655.6 824.7,662.4 826.5,662.4 826.5,656.3 '/>
		<polygon fill = 'rgb( 31, 120, 180)' fill-opacity = '0.250000' points = '826.5,656.3 826.5,662.4 828.4,662.4 828.4,656.8 '/>
		<polygon fill = 'rgb( 31, 120, 180)' fill-opacity = '0.250000' points = '828.4,656.8 828.4,662.4 830.3,662.4 830.3,657.3 '/>
		<polygon fill = 'rgb( 31, 120, 180)' fill-opacity = '0.250000' points = '830.3,657.3 830.3,662.4 832.2,662.4 832.2,657.6 '/>
		<polygon fill = 'rgb( 31, 120, 180)' fill-opacity = '0.250000' points = '832.2,657.6 832.2,662.4 834.0,662.4 834.0,657.8 '/>
		<polygon fill = 'rgb( 31, 120, 180)' fill-opacity = '0.250000' points = '834.0,657.8 834.0,662.4 835.9,662.4 835.9,657.9 '/>
		<polygon fill = 'rgb( 31, 120, 180)' fill-opacity = '0.250000' points = '835.9,657.9 835.9,662.4 837.8,662.4 837.8,657.8 '/>
		<polygon fill = 'rgb( 31, 120, 180)' fill-opacity = '0.250000' points = '837.8,657.8 837.8,662.4 839.6,662.4 839.6,657.6 '/>
		<polygon fill = 'rgb( 31, 120, 180)' fill-opacity = '0.250000' points = '839.6,657.6 839.6,662.4 841.5,662.4 841.5,657.3 '/>
		<polygon fill = 'rgb( 31, 120, 180)' fill-opacity = '0.250000' points = '841.5,657.3 841.5,662.4 843.4,662.4 843.4,656.8 '/>
		<polygon fill = 'rgb( 31, 120, 180)' fill-opacity = '0.250000' points = '843.4,656.8 843.4,662.4 845.3,662.4 845.3,656.2 '/>
		<polygon fill = 'rgb( 31, 120, 180)' fill-opacity = '0.250000' points = '845.3,656.2 845.3,662.4 847.1,662.4 847.1,655.4 '/>
		<polygon fill = 'rgb( 31, 120, 180)' fill-opacity = '0.250000' points = '847.1,655.4 847.1,662.4 849.0,662.4 849.0,654.5 '/>
		<polygon fill = 'rgb( 31, 120, 180)' fill-opacity = '0.250000' points = '849.0,654.5 849.0,662.4 850.9,662.4 850.9,653.4 '/>
		<polygon fill = 'rgb( 31, 120, 180)' fill-opacity = '0.250000' points = '850.9,653.4 850.9,662.4 852.7,662.4 852.7,652.2 '/>
		<polygon fill = 'rgb( 31, 120, 180)' fill-opacity = '0.250000' points = '852.7,652.2 852.7,662.4 854.6,662.4 854.6,650.9 '/>
		<polygon fill = 'rgb( 31, 120, 180)' fill-opacity = '0.250000' points = '854.6,650.9 854.6,662.4 856.5,662.4 856.5,649.4 '/>
		<polygon fill = 'rgb( 31, 120, 180)' fill-opacity = '0.250000' points = '856.5,649.4 856.5,662.4 858.3,662.4 858.3,647.9 '/>
		<polygon fill = 'rgb( 31, 120, 180)' fill-opacity = '0.250000' points = '858.3,647.9 858.3,662.4 860.2,662.4 860.2,646.3 '/>
		<polygon fill = 'rgb( 31, 120, 180)' fill-opacity = '0.250000' points = '860.2,646.3 860.2,662.4 862.1,662.4 862.1,644.7 '/>
		<polygon fill = 'rgb( 31, 120, 180)' fill-opacity = '0.250000' points = '862.1,644.7 862.1,662.4 864.0,662.4 864.0,643.0 '/>
		<polygon fill = 'rgb( 31, 120, 180)' fill-opacity = '0.250000' points = '864.0,643.0 864.0,662.4 865.8,662.4 865.8,641.4 '/>
		<polygon fill = 'rgb( 31, 120, 180)' fill-opacity = '0.250000' points = '865.8,641.4 865.8,662.4 867.7,662.4 867.7,639.7 '/>
		<polygon fill = 'rgb( 31, 120, 180)' fill-opacity = '0.250000' points = '867.7,639.7 867.7,662.4 869.6,662.4 869.6,638.1 '/>
		<polygon fill = 'rgb( 31, 120, 180)' fill-opacity = '0.250000' points = '869.6,638.1 869.6,662.4 871.4,662.4 871.4,636.6 '/>
		<polygon fill = 'rgb( 31, 120, 180)' fill-opacity = '0.250000' points = '871.4,636.6 871.4,662.4 873.3,662.4 873.3,635.2 '/>
		<polygon fill = 'rgb( 31, 120, 180)' fill-opacity = '0.250000' points = '873.3,635.2 873.3,662.4 875.2,662.4 875.2,633.8 '/>
		<polygon fill = 'rgb( 31, 120, 180)' fill-opacity = '0.250000' points = '875.2,633.8 875.2,662.4 877.1,662.4 877.1,632.5 '/>
		<polygon fill = 'rgb( 31, 120, 180)' fill-opacity = '0.250000' points = '877.1,632.5 877.1,662.4 878.9,662.4 878.9,631.4 '/>
		<polygon fill = 'rgb( 31, 120, 180)' fill-opacity = '0.250000' points = '878.9,631.4 878.9,662.4 880.8,662.4 880.8,630.3 '/>
		<polygon fill = 'rgb( 31, 120, 180)' fill-opacity = '0.250000' points = '880.8,630.3 880.8,662.4 882.7,662.4 882.7,629.3 '/>
		<polygon fill = 'rgb( 31, 120, 180)' fill-opacity = '0.250000' points = '882.7,629.3 882.7,662.4 884.5,662.4 884.5,628.4 '/>
		<polygon fill = 'rgb( 31, 120, 180)' fill-opacity = '0.250000' points = '884.5,628.4 884.5,662.4 886.4,662.4 886.4,627.6 '/>
		<polygon fill = 'rgb( 31, 120, 180)' fill-opacity = '0.250000' points = '886.4,627.6 886.4,662.4 888.3,662.4 888.3,626.9 '/>
		<polygon fill = 'rgb( 31, 120, 180)' fill-opacity = '0.250000' points = '888.3,626.9 888.3,662.4 890.1,662.4 890.1,626.2 '/>
		<polygon fill = 'rgb( 31, 120, 180)' fill-opacity = '0.250000' points = '890.1,626.2 890.1,662.4 892.0,662.4 892.0,625.6 '/>
		<polygon fill = 'rgb( 31, 120, 180)' fill-opacity = '0.250000' points = '892.0,625.6 892.0,662.4 893.9,662.4 893.9,625.0 '/>
		<polygon fill = 'rgb( 31, 120, 180)' fill-opacity = '0.250000' points = '893.9,625.0 893.9,662.4 895.8,662.4 895.8,624.5 '/>
		<polygon fill = 'rgb( 31, 120, 180)' fill-opacity = '0.250000' points = '895.8,624.5 895.8,662.4 897.6,662.4 897.6,624.0 '/>
		<polygon fill = 'rgb( 31, 120, 180)' fill-opacity = '0.250000' points = '897.6,624.0 897.6,662.4 899.5,662.4 899.5,623.5 '/>
		<polygon fill = 'rgb( 31, 120, 180)' fill-opacity = '0.250000' points = '899.5,623.5 899.5,662.4 901.4,662.4 901.4,623.0 '/>
		<polygon fill = 'rgb( 31, 120, 180)' fill-opacity = '0.250000' points = '901.4,623.0 901.4,662.4 903.2,662.4 903.2,622.6 '/>
		<polygon fill = 'rgb( 31, 120, 180)' fill-opacity = '0.250000' points = '903.2,622.6 903.2,662.4 905.1,662.4 905.1,622.1 '/>
		<polygon fill = 'rgb( 31, 120, 180)' fill-opacity = '0.250000' points = '905.1,622.1 905.1,662.4 907.0,662.4 907.0,621.7 '/>
		<polygon fill = 'rgb( 31, 120, 180)' fill-opacity = '0.250000' points = '907.0,621.7 907.0,662.4 908.8,662.4 908.8,621.3 '/>
		<polygon fill = 'rgb( 31, 120, 180)' fill-opacity = '0.250000' points = '908.8,621.3 908.8,662.4 910.7,662.4 910.7,620.8 '/>
		<polygon fill = 'rgb( 31, 120, 180)' fill-opacity = '0.250000' points = '910.7,620.8 910.7,662.4 912.6,662.4 912.6,620.4 '/>
		<polygon fill = 'rgb( 31, 120, 180)' fill-opacity = '0.250000' points = '912.6,620.4 912.6,662.4 914.5,662.4 914.5,620.0 '/>
		<polygon fill = 'rgb( 31, 120, 180)' fill-opacity = '0.250000' points = '914.5,620.0 914.5,662.4 916.3,662.4 916.3,619.5 '/>
		<polygon fill = 'rgb( 31, 120, 180)' fill-opacity = '0.250000' points = '916.3,619.5 916.3,662.4 918.2,662.4 918.2,619.1 '/>
		<polygon fill = 'rgb( 31, 120, 180)' fill-opacity = '0.250000' points = '918.2,619.1 918.2,662.4 920.1,662.4 920.1,618.7 '/>
		<polygon fill = 'rgb( 31, 120, 180)' fill-opacity = '0.250000' points = '920.1,618.7 920.1,662.4 921.9,662.4 921.9,618.3 '/>
		<polygon fill = 'rgb( 31, 120, 180)' fill-opacity = '0.250000' points = '921.9,618.3 921.9,662.4 923.8,662.4 923.8,617.9 '/>
		<polygon fill = 'rgb( 31, 120, 180)' fill-opacity = '0.250000' points = '923.8,617.9 923.8,662.4 925.7,662.4 925.7,617.5 '/>
	</g>
</g>
	</g>
	<g id="gnuplot_plot_3" ><title>Point estimate</title>
<g fill="none" color="white" stroke="rgb( 31, 120, 180)" stroke-width="2.00" stroke-linecap="butt" stroke-linejoin="miter">
</g>
<g fill="none" color="black" stroke="currentColor" stroke-width="2.00" stroke-linecap="butt" stroke-linejoin="miter">
	<g transform="translate(1089.0,103.0)" stroke="none" fill="black" font-family="Helvetica" font-size="12.00"  text-anchor="start">
		<text><tspan font-family="Helvetica" >Point estimate</tspan></text>
	</g>
</g>
<g fill="none" color="black" stroke="currentColor" stroke-width="2.00" stroke-linecap="butt" stroke-linejoin="miter">
	<path stroke='rgb( 31, 120, 180)'  d='M1038.5,99.1 L1080.7,99.1 M410.8,662.4 L410.8,68.0  '/></g>
	</g>
<g fill="none" color="black" stroke="currentColor" stroke-width="2.00" stroke-linecap="butt" stroke-linejoin="miter">
</g>
<g fill="none" color="black" stroke="black" stroke-width="1.00" stroke-linecap="butt" stroke-linejoin="miter">
</g>
<g fill="none" color="black" stroke="currentColor" stroke-width="1.00" stroke-linecap="butt" stroke-linejoin="miter">
	<path stroke='black'  d='M80.2,54.1 L80.2,662.4 L1013.6,662.4 L1013.6,54.1 L80.2,54.1 Z  '/></g>
<g fill="none" color="black" stroke="currentColor" stroke-width="1.00" stroke-linecap="butt" stroke-linejoin="miter">
</g>
</g>
</svg>

